x,y,k,tid
116.48731,39.979,0,1152
116.50098,39.97929,1,1152
116.50098,39.97929,2,1152
116.50038,39.97928,3,1152
116.49565,39.99682,4,1152
116.4995,39.99659,5,1152
116.4993,39.99667,6,1152
116.4993,39.99667,7,1152
116.4993,39.99667,8,1152
116.4993,39.99667,9,1152
116.4993,39.99667,10,1152
116.4993,39.99667,11,1152
116.4993,39.99667,12,1152
116.4993,39.99667,13,1152
116.4993,39.99667,14,1152
116.4993,39.99667,15,1152
116.4993,39.99667,16,1152
116.4993,39.99667,17,1152
116.4993,39.99667,18,1152
116.4993,39.99667,19,1152
116.4993,39.99667,20,1152
116.4993,39.99667,21,1152
116.49673,39.99555,22,1152
116.50764,40.00911,23,1152
116.52212,40.01733,24,1152
116.52481,40.03514,25,1152
116.53439,40.05252,26,1152
116.54894,40.0641,27,1152
116.55192,40.08004,28,1152
116.55609,40.10582,29,1152
116.56661,40.11644,30,1152
116.59923,40.11666,31,1152
116.62229,40.11636,32,1152
116.65958,40.11547,33,1152
116.68377,40.11694,34,1152
116.72215,40.12117,35,1152
116.75618,40.13752,36,1152
116.79195,40.14631,37,1152
116.86159,40.15214,38,1152
116.901,40.15248,39,1152
116.94913,40.15008,40,1152
116.98845,40.1413,41,1152
117.03656,40.14373,42,1152
117.06984,40.14388,43,1152
117.09671,40.14357,44,1152
117.09687,40.14343,45,1152
117.11267,40.13384,46,1152
117.1127,40.13391,47,1152
117.10576,40.13878,48,1152
117.105,40.13884,49,1152
117.105,40.13884,50,1152
117.09668,40.13538,51,1152
117.09898,40.13814,52,1152
117.10698,40.1387,53,1152
117.10839,40.13879,54,1152
117.10407,40.14159,55,1152
117.10404,40.14147,56,1152
117.10412,40.14165,57,1152
117.10417,40.14114,58,1152
117.09855,40.13877,59,1152
117.09366,40.13866,60,1152
117.07495,40.12623,61,1152
117.07401,40.12181,62,1152
117.07646,40.10259,63,1152
117.07124,40.1013,64,1152
117.04983,40.09621,65,1152
117.0415,40.09751,66,1152
117.04155,40.09758,67,1152
117.04155,40.09758,68,1152
117.04155,40.09758,69,1152
117.04155,40.09758,70,1152
117.04155,40.09758,71,1152
117.04155,40.09758,72,1152
117.04155,40.09758,73,1152
117.04155,40.09758,74,1152
117.04155,40.09758,75,1152
117.04155,40.09758,76,1152
117.04155,40.09758,77,1152
117.04155,40.09758,78,1152
117.04155,40.09758,79,1152
117.04155,40.09758,80,1152
117.04155,40.09758,81,1152
117.04142,40.09752,82,1152
117.04055,40.09509,83,1152
117.0402,40.09502,84,1152
117.04092,40.09738,85,1152
117.04148,40.09739,86,1152
117.04148,40.09748,87,1152
117.04148,40.09748,88,1152
117.04148,40.09748,89,1152
117.04148,40.09748,90,1152
117.04148,40.09748,91,1152
117.04148,40.09748,92,1152
117.04148,40.09748,93,1152
117.04148,40.09748,94,1152
117.04148,40.09748,95,1152
117.04148,40.09748,96,1152
117.04148,40.09748,97,1152
117.04148,40.09748,98,1152
117.04148,40.09748,99,1152
117.04148,40.09748,100,1152
117.04148,40.09748,101,1152
117.04148,40.09748,102,1152
117.04148,40.09748,103,1152
117.04148,40.09748,104,1152
117.04148,40.09748,105,1152
117.04148,40.09748,106,1152
117.04148,40.09748,107,1152
117.04148,40.09748,108,1152
117.04148,40.09748,109,1152
117.04144,40.0975,110,1152
117.04144,40.0975,111,1152
117.04144,40.0975,112,1152
117.04144,40.0975,113,1152
117.04144,40.0975,114,1152
117.04144,40.0975,115,1152
117.04144,40.0975,116,1152
117.04144,40.0975,117,1152
117.04144,40.0975,118,1152
117.04144,40.0975,119,1152
117.04144,40.0975,120,1152
117.04144,40.0975,121,1152
117.04144,40.0975,122,1152
117.04144,40.0975,123,1152
117.04144,40.0975,124,1152
117.04144,40.0975,125,1152
117.04144,40.0975,126,1152
117.04144,40.0975,127,1152
117.04144,40.0975,128,1152
117.04137,40.09752,129,1152
117.04137,40.09752,130,1152
117.04447,40.09169,131,1152
117.04443,40.08399,132,1152
117.00495,40.0793,133,1152
117.00654,40.08986,134,1152
117.01634,40.13789,135,1152
117.01609,40.14145,136,1152
116.96109,40.14812,137,1152
116.94659,40.15026,138,1152
116.82272,40.1491,139,1152
116.815,40.14853,140,1152
116.69429,40.12426,141,1152
116.68764,40.12033,142,1152
116.65341,40.11622,143,1152
116.64137,40.11631,144,1152
116.56093,40.11576,145,1152
116.55665,40.10847,146,1152
116.55665,40.10847,147,1152
116.55069,40.07389,148,1152
116.54907,40.06479,149,1152
116.53483,40.05337,150,1152
116.52999,40.04575,151,1152
116.52212,40.03143,152,1152
116.51727,40.02438,153,1152
116.50786,40.01174,154,1152
116.50723,40.01119,155,1152
116.4945,39.99643,156,1152
116.49093,39.98994,157,1152
116.491,39.98991,158,1152
116.49101,39.98985,159,1152
116.49101,39.98985,160,1152
116.49101,39.98985,161,1152
116.49101,39.98985,162,1152
116.49101,39.98985,163,1152
116.49101,39.98985,164,1152
116.49101,39.98985,165,1152
116.49101,39.98985,166,1152
116.49115,39.98883,167,1152
116.48546,39.98673,168,1152
116.47837,39.98364,169,1152
116.46731,39.97366,170,1152
116.4274,39.94896,171,1152
116.42737,39.94193,172,1152
116.42575,39.92597,173,1152
116.4223,39.9232,174,1152
116.42682,39.93237,175,1152
116.42808,39.93415,176,1152
116.42728,39.93275,177,1152
116.42728,39.93275,178,1152
116.42207,39.90728,179,1152
116.41173,39.91265,180,1152
116.41165,39.91274,181,1152
116.40753,39.91113,182,1152
116.40737,39.90897,183,1152
116.41185,39.91569,184,1152
116.41097,39.93084,185,1152
116.38994,39.93538,186,1152
116.38759,39.94708,187,1152
116.37495,39.96977,188,1152
116.37524,39.97072,189,1152
116.3761,39.97166,190,1152
116.3761,39.97166,191,1152
116.37552,39.97535,192,1152
116.50705,40.11873,193,1152
116.58257,40.10874,194,1152
116.58599,40.07706,195,1152
116.5838,40.0795,196,1152
116.57892,40.04719,197,1152
116.51062,40.01289,198,1152
116.40471,39.98299,199,1152
116.4033,39.98058,200,1152
116.44615,39.95149,201,1152
116.44614,39.95149,202,1152
116.44634,39.95145,203,1152
116.44634,39.95145,204,1152
116.44634,39.95145,205,1152
116.44682,39.95002,206,1152
116.45521,39.9477,207,1152
116.45512,39.94758,208,1152
116.4501,39.92728,209,1152
116.44944,39.931,210,1152
116.45175,39.93215,211,1152
116.47158,39.93233,212,1152
116.48292,39.9146,213,1152
116.48648,39.91398,214,1152
116.4977,39.91472,215,1152
116.4872,39.91444,216,1152
116.48528,39.91429,217,1152
116.46392,39.91512,218,1152
116.45664,39.91756,219,1152
116.44462,39.92154,220,1152
116.44409,39.92157,221,1152
116.4274,39.93255,222,1152
116.43107,39.8985,223,1152
116.44962,39.89475,224,1152
116.45111,39.89251,225,1152
116.44981,39.89317,226,1152
116.45502,39.89296,227,1152
116.45446,39.87041,228,1152
116.46838,39.86659,229,1152
116.46838,39.86659,230,1152
116.47036,39.86998,231,1152
116.47135,39.8826,232,1152
116.47135,39.8826,233,1152
116.47174,39.89719,234,1152
116.47165,39.9035,235,1152
116.4368,39.89288,236,1152
116.40863,39.89159,237,1152
116.37876,39.88824,238,1152
116.36266,39.88794,239,1152
116.34776,39.8882,240,1152
116.31686,39.8885,241,1152
116.30807,39.88523,242,1152
116.30983,39.89551,243,1152
116.30983,39.89551,244,1152
116.30196,39.90637,245,1152
116.29136,39.90624,246,1152
116.28486,39.90884,247,1152
116.28884,39.90796,248,1152
116.28884,39.90796,249,1152
116.29628,39.92261,250,1152
116.31886,39.92218,251,1152
116.31982,39.93676,252,1152
116.33271,39.93659,253,1152
116.33373,39.93669,254,1152
116.35024,39.94191,255,1152
116.35024,39.94191,256,1152
116.37207,39.94851,257,1152
116.3743,39.96647,258,1152
116.37198,39.98847,259,1152
116.37406,39.99618,260,1152
116.37471,39.99958,261,1152
116.37523,39.99631,262,1152
116.35551,40.0121,263,1152
116.34153,40.03062,264,1152
116.33702,40.03556,265,1152
116.3283,40.04755,266,1152
116.31436,40.06719,267,1152
116.31512,40.06573,268,1152
116.30683,40.05707,269,1152
116.30214,40.05637,270,1152
116.29173,40.05134,271,1152
116.29173,40.05134,272,1152
116.29877,40.04413,273,1152
116.30059,40.04131,274,1152
116.3035,40.03647,275,1152
116.30999,40.0167,276,1152
116.32475,39.99609,277,1152
116.32684,39.98695,278,1152
116.32732,39.97516,279,1152
116.32171,39.96622,280,1152
116.31932,39.93787,281,1152
116.31956,39.92701,282,1152
116.3233,39.92679,283,1152
116.32791,39.92762,284,1152
116.32791,39.92762,285,1152
116.32773,39.93067,286,1152
116.3304,39.93665,287,1152
116.34762,39.93885,288,1152
116.3492,39.95126,289,1152
116.34741,39.98622,290,1152
116.34637,40.00743,291,1152
116.34593,40.02768,292,1152
116.34337,40.0276,293,1152
116.34598,40.01191,294,1152
116.351,40.00661,295,1152
116.37449,39.96958,296,1152
116.37292,39.9545,297,1152
116.37301,39.95062,298,1152
116.40161,39.94763,299,1152
116.42758,39.93702,300,1152
116.42425,39.92326,301,1152
116.42064,39.92306,302,1152
116.42063,39.91001,303,1152
116.42054,39.90783,304,1152
116.42099,39.90581,305,1152
116.42379,39.90693,306,1152
116.43489,39.90574,307,1152
116.43508,39.90583,308,1152
116.44999,39.90703,309,1152
116.47189,39.90702,310,1152
116.4983,39.90669,311,1152
116.5069,39.9066,312,1152
116.54365,39.90789,313,1152
116.56764,39.90858,314,1152
116.59003,39.90787,315,1152
116.59496,39.90754,316,1152
116.60108,39.89189,317,1152
116.60147,39.88723,318,1152
116.60135,39.89031,319,1152
116.60135,39.89031,320,1152
116.60092,39.89065,321,1152
116.60067,39.89054,322,1152
116.59506,39.90651,323,1152
116.58898,39.91097,324,1152
116.58898,39.91097,325,1152
116.58,39.91261,326,1152
116.56994,39.91389,327,1152
116.55775,39.9151,328,1152
116.54598,39.9149,329,1152
116.53123,39.91541,330,1152
116.52716,39.91572,331,1152
116.52389,39.91593,332,1152
116.52242,39.92101,333,1152
116.53003,39.93523,334,1152
116.53003,39.93523,335,1152
116.53011,39.9352,336,1152
116.5201,39.92278,337,1152
116.5201,39.92277,338,1152
116.49617,39.92206,339,1152
116.48354,39.91798,340,1152
116.44091,39.90726,341,1152
116.42658,39.91082,342,1152
116.42874,39.90778,343,1152
116.43486,39.9047,344,1152
116.43483,39.9064,345,1152
116.43486,39.91611,346,1152
116.43445,39.92303,347,1152
116.43472,39.91541,348,1152
116.43474,39.9074,349,1152
116.43481,39.91612,350,1152
116.43765,39.9336,351,1152
116.44328,39.93961,352,1152
116.44219,39.93511,353,1152
116.45453,39.93998,354,1152
116.45517,39.94873,355,1152
116.46847,39.93736,356,1152
116.46512,39.93432,357,1152
116.46867,39.93601,358,1152
116.49113,39.93348,359,1152
116.51113,39.92793,360,1152
116.50642,39.92327,361,1152
116.50713,39.92332,362,1152
116.50733,39.92324,363,1152
116.50733,39.92324,364,1152
116.50734,39.92326,365,1152
116.50734,39.92326,366,1152
116.50734,39.92326,367,1152
116.50734,39.92326,368,1152
116.49678,39.92192,369,1152
116.493,39.92184,370,1152
116.47204,39.92172,371,1152
116.4669,39.92226,372,1152
116.4669,39.92226,373,1152
116.47216,39.92986,374,1152
116.47707,39.93225,375,1152
116.48417,39.95056,376,1152
116.48498,39.95822,377,1152
116.47753,39.97532,378,1152
116.4623,39.97783,379,1152
116.47136,39.98625,380,1152
116.48219,39.98797,381,1152
116.49289,39.99843,382,1152
116.51029,40.01107,383,1152
116.51029,40.01102,384,1152
116.51018,40.01103,385,1152
116.51018,40.01103,386,1152
116.50991,40.01106,387,1152
116.50983,40.01113,388,1152
116.50983,40.01113,389,1152
116.50983,40.01113,390,1152
116.50983,40.01113,391,1152
116.50983,40.01113,392,1152
116.50983,40.01113,393,1152
116.50983,40.01113,394,1152
116.50983,40.01113,395,1152
116.50983,40.01113,396,1152
116.50983,40.01113,397,1152
116.50983,40.01113,398,1152
116.50983,40.01113,399,1152
116.50983,40.01113,400,1152
116.50983,40.01113,401,1152
116.50983,40.01113,402,1152
116.50983,40.01113,403,1152
116.50983,40.01113,404,1152
116.50983,40.01113,405,1152
116.50983,40.01113,406,1152
116.50983,40.01113,407,1152
116.50983,40.01113,408,1152
116.50983,40.01113,409,1152
116.50983,40.01113,410,1152
116.48896,39.99223,411,1152
116.48869,39.99159,412,1152
116.49094,39.98994,413,1152
116.49096,39.98984,414,1152
116.48238,39.98727,415,1152
116.45215,39.95362,416,1152
116.45215,39.95362,417,1152
116.45544,39.9143,418,1152
116.43458,39.89249,419,1152
116.41146,39.89181,420,1152
116.37887,39.8883,421,1152
116.3596,39.88821,422,1152
116.31908,39.88897,423,1152
116.31898,39.88935,424,1152
116.30455,39.88537,425,1152
116.30422,39.91976,426,1152
116.31892,39.93098,427,1152
116.31936,39.93097,428,1152
116.32397,39.92684,429,1152
116.32653,39.92688,430,1152
116.32454,39.93478,431,1152
116.32324,39.93449,432,1152
116.32219,39.93628,433,1152
116.32227,39.93616,434,1152
116.32227,39.93605,435,1152
116.32246,39.93605,436,1152
116.32248,39.93607,437,1152
116.32255,39.93662,438,1152
116.32785,39.92644,439,1152
116.32912,39.90661,440,1152
116.34634,39.90499,441,1152
116.33222,39.9031,442,1152
116.33223,39.90308,443,1152
116.33284,39.91267,444,1152
116.33284,39.91267,445,1152
116.33319,39.91343,446,1152
116.33519,39.91275,447,1152
116.33786,39.91278,448,1152
116.33905,39.91685,449,1152
116.34359,39.91706,450,1152
116.34709,39.91709,451,1152
116.34751,39.91711,452,1152
116.35884,39.92215,453,1152
116.36023,39.92542,454,1152
116.3663,39.93123,455,1152
116.36688,39.93174,456,1152
116.37051,39.94708,457,1152
116.3842,39.96677,458,1152
116.39711,39.96711,459,1152
116.41137,39.96756,460,1152
116.41288,39.96754,461,1152
116.43062,39.96767,462,1152
116.44193,39.9626,463,1152
116.44395,39.9707,464,1152
116.44559,39.9757,465,1152
116.48114,39.9867,466,1152
116.48497,39.99028,467,1152
116.49965,40.00407,468,1152
116.50761,40.01107,469,1152
116.50761,40.01107,470,1152
116.50766,40.01112,471,1152
116.51379,40.01872,472,1152
116.5292,40.04373,473,1152
116.5346,40.05297,474,1152
116.55172,40.07943,475,1152
116.55251,40.08441,476,1152
116.56198,40.1159,477,1152
116.56198,40.1159,478,1152
116.57746,40.11676,479,1152
116.62287,40.11639,480,1152
116.62287,40.11639,481,1152
116.66772,40.11454,482,1152
116.67402,40.11452,483,1152
116.73529,40.12368,484,1152
116.7495,40.13304,485,1152
116.81422,40.14845,486,1152
116.82763,40.14954,487,1152
116.88839,40.15258,488,1152
116.90355,40.15241,489,1152
116.96953,40.14614,490,1152
116.9842,40.14226,491,1152
117.04071,40.14435,492,1152
117.0578,40.14457,493,1152
117.09846,40.14407,494,1152
117.10311,40.14412,495,1152
117.09326,40.13561,496,1152
117.09338,40.14144,497,1152
117.04137,40.14454,498,1152
117.02773,40.14262,499,1152
117.0031,40.15299,500,1152
116.99109,40.15317,501,1152
116.983,40.15926,502,1152
116.983,40.15921,503,1152
116.98297,40.15928,504,1152
117.00699,40.15393,505,1152
117.01509,40.15038,506,1152
117.06429,40.14394,507,1152
117.07274,40.14393,508,1152
117.09673,40.13537,509,1152
117.09786,40.13541,510,1152
117.10483,40.13876,511,1152
117.1105,40.13882,512,1152
117.11131,40.13848,513,1152
117.11136,40.13858,514,1152
117.11136,40.13858,515,1152
117.11136,40.13858,516,1152
117.11136,40.13858,517,1152
117.11136,40.13858,518,1152
117.11136,40.13858,519,1152
117.11136,40.13858,520,1152
117.11136,40.13858,521,1152
117.11136,40.13858,522,1152
117.11136,40.13858,523,1152
117.11136,40.13858,524,1152
117.11136,40.13858,525,1152
117.11136,40.13858,526,1152
117.11136,40.13858,527,1152
117.11136,40.13858,528,1152
117.11136,40.13858,529,1152
117.11136,40.13858,530,1152
117.11136,40.13858,531,1152
117.11136,40.13858,532,1152
117.11136,40.13858,533,1152
117.11136,40.13858,534,1152
117.11136,40.13858,535,1152
117.11136,40.13858,536,1152
117.08996,40.13836,537,1152
117.08996,40.13836,538,1152
117.07674,40.11787,539,1152
117.0752,40.11766,540,1152
117.06178,40.09788,541,1152
117.06202,40.097,542,1152
117.06202,40.097,543,1152
117.04144,40.09752,544,1152
117.04144,40.09752,545,1152
117.04149,40.0975,546,1152
117.04149,40.0975,547,1152
117.04149,40.0975,548,1152
117.04149,40.0975,549,1152
117.04149,40.0975,550,1152
117.04149,40.0975,551,1152
117.04149,40.0975,552,1152
117.04149,40.0975,553,1152
117.044,40.09584,554,1152
117.05685,40.09649,555,1152
117.07672,40.10262,556,1152
117.07597,40.11187,557,1152
117.08324,40.12747,558,1152
117.08734,40.13525,559,1152
117.10677,40.13876,560,1152
117.11132,40.13857,561,1152
117.11132,40.13857,562,1152
117.11127,40.13845,563,1152
117.11127,40.13845,564,1152
117.11127,40.13845,565,1152
117.11127,40.13845,566,1152
117.11127,40.13845,567,1152
117.11127,40.13845,568,1152
117.11127,40.13845,569,1152
117.11127,40.13845,570,1152
117.11127,40.13845,571,1152
117.11127,40.13845,572,1152
117.11127,40.13845,573,1152
117.11127,40.13845,574,1152
117.11127,40.13845,575,1152
117.11127,40.13845,576,1152
117.11127,40.13845,577,1152
117.11127,40.13845,578,1152
117.11127,40.13845,579,1152
117.11127,40.13845,580,1152
117.11127,40.13845,581,1152
117.11127,40.13845,582,1152
117.11127,40.13845,583,1152
117.11127,40.13845,584,1152
117.1112,40.13862,585,1152
117.1112,40.13862,586,1152
117.10487,40.14416,587,1152
117.10458,40.1443,588,1152
117.10457,40.14431,589,1152
117.10457,40.14431,590,1152
117.10457,40.14431,591,1152
117.09455,40.14422,592,1152
117.08571,40.14407,593,1152
117.03261,40.1433,594,1152
117.01857,40.14169,595,1152
116.9566,40.14902,596,1152
116.87572,40.15179,597,1152
116.86033,40.1522,598,1152
116.80374,40.14754,599,1152
116.79003,40.14618,600,1152
116.73194,40.12271,601,1152
116.71643,40.12156,602,1152
116.67358,40.11463,603,1152
116.6623,40.11522,604,1152
116.61491,40.11651,605,1152
116.60542,40.11667,606,1152
116.56695,40.11652,607,1152
116.56064,40.11524,608,1152
116.55096,40.07565,609,1152
116.54944,40.0664,610,1152
116.52829,40.04237,611,1152
116.51624,40.02272,612,1152
116.51137,40.0156,613,1152
116.491,39.98984,614,1152
116.491,39.98983,615,1152
116.491,39.98983,616,1152
116.48414,39.98669,617,1152
116.45939,39.96657,618,1152
116.45555,39.93136,619,1152
116.45225,39.89227,620,1152
116.41335,39.89188,621,1152
116.37894,39.88828,622,1152
116.35788,39.88816,623,1152
116.31901,39.88934,624,1152
116.32266,39.89949,625,1152
116.32261,39.89983,626,1152
116.32958,39.90466,627,1152
116.32918,39.90458,628,1152
116.32292,39.89638,629,1152
116.32289,39.89499,630,1152
116.31575,39.89165,631,1152
116.31987,39.89205,632,1152
116.3283,39.90599,633,1152
116.35078,39.90347,634,1152
116.36157,39.93097,635,1152
116.36686,39.92845,636,1152
116.3659,39.92258,637,1152
116.33862,39.92205,638,1152
116.32291,39.92497,639,1152
116.32832,39.92417,640,1152
116.32718,39.93419,641,1152
116.33648,39.93683,642,1152
116.33343,39.93573,643,1152
116.33336,39.93325,644,1152
116.33005,39.93546,645,1152
116.33005,39.93546,646,1152
116.33456,39.93735,647,1152
116.32435,39.9374,648,1152
116.32248,39.93762,649,1152
116.32248,39.93762,650,1152
116.32183,39.93767,651,1152
116.31871,39.94617,652,1152
116.31871,39.94617,653,1152
116.31871,39.94617,654,1152
116.31871,39.94617,655,1152
116.31871,39.94617,656,1152
116.3181,39.94956,657,1152
116.32939,39.95502,658,1152
116.33584,39.95661,659,1152
116.35342,39.96616,660,1152
116.36517,39.96623,661,1152
116.37371,39.96328,662,1152
116.3545,39.94381,663,1152
116.35046,39.91166,664,1152
116.36826,39.90943,665,1152
116.37034,39.91033,666,1152
116.37584,39.90921,667,1152
116.37657,39.90482,668,1152
116.37463,39.88798,669,1152
116.35856,39.88797,670,1152
116.35279,39.88274,671,1152
116.35279,39.88274,672,1152
116.3473,39.8848,673,1152
116.3471,39.89011,674,1152
116.35086,39.9029,675,1152
116.35248,39.9108,676,1152
116.35374,39.9114,677,1152
116.35706,39.90625,678,1152
116.3569,39.90513,679,1152
116.35704,39.90031,680,1152
116.3306,39.89627,681,1152
116.31879,39.8961,682,1152
116.31564,39.90876,683,1152
116.32598,39.90978,684,1152
116.33439,39.91282,685,1152
116.33318,39.91371,686,1152
116.33318,39.91371,687,1152
116.33869,39.92007,688,1152
116.33835,39.92373,689,1152
116.33803,39.92929,690,1152
116.33799,39.93017,691,1152
116.34275,39.93817,692,1152
116.36331,39.94524,693,1152
116.3648,39.94682,694,1152
116.36509,39.94683,695,1152
116.37442,39.96667,696,1152
116.37445,39.96694,697,1152
116.38061,39.96671,698,1152
116.38105,39.9667,699,1152
116.39496,39.9621,700,1152
116.39423,39.96206,701,1152
116.39145,39.96166,702,1152
116.39519,39.96194,703,1152
116.4049,39.96737,704,1152
116.41064,39.96794,705,1152
116.40513,39.96888,706,1152
116.37525,39.97651,707,1152
116.37993,39.97955,708,1152
116.3783,39.98098,709,1152
116.37942,39.97557,710,1152
116.37422,39.97548,711,1152
116.38106,39.97544,712,1152
116.3827,39.97546,713,1152
116.38603,39.97545,714,1152
116.4034,39.98701,715,1152
116.41009,39.98703,716,1152
116.42365,39.98224,717,1152
116.41803,39.98315,718,1152
116.41826,39.99599,719,1152
116.412,39.9975,720,1152
116.40173,39.99407,721,1152
116.40089,39.9928,722,1152
116.3846,39.98119,723,1152
116.3819,39.98122,724,1152
116.38112,39.97526,725,1152
116.38215,39.97546,726,1152
116.38314,39.97159,727,1152
116.37633,39.97177,728,1152
116.37676,39.9862,729,1152
116.40168,40.00161,730,1152
116.40174,40.00222,731,1152
116.39644,40.00401,732,1152
116.39759,40.00394,733,1152
116.39621,40.00395,734,1152
116.38688,39.98709,735,1152
116.38716,39.98116,736,1152
116.38677,39.96177,737,1152
116.38542,39.96175,738,1152
116.37904,39.96411,739,1152
116.38208,39.9654,740,1152
116.38914,39.94806,741,1152
116.36824,39.94754,742,1152
116.3885,39.93924,743,1152
116.38976,39.9361,744,1152
116.38887,39.93607,745,1152
116.38986,39.93822,746,1152
116.39609,39.93938,747,1152
116.39747,39.94197,748,1152
116.39679,39.93963,749,1152
116.39799,39.93952,750,1152
116.40199,39.93943,751,1152
116.40241,39.93947,752,1152
116.40202,39.95072,753,1152
116.40729,39.95771,754,1152
116.41863,39.95786,755,1152
116.43287,39.95821,756,1152
116.44073,39.96115,757,1152
116.4435,39.95919,758,1152
116.44355,39.95922,759,1152
116.45591,39.95485,760,1152
116.47616,39.97324,761,1152
116.48375,39.97034,762,1152
116.49039,39.97058,763,1152
116.4921,39.97051,764,1152
116.4921,39.97051,765,1152
116.4921,39.97051,766,1152
116.49215,39.9706,767,1152
116.49215,39.9706,768,1152
116.49215,39.9706,769,1152
116.49215,39.9706,770,1152
116.48852,39.97078,771,1152
116.48412,39.97099,772,1152
116.48378,39.97544,773,1152
116.48375,39.97555,774,1152
116.481,39.98604,775,1152
116.4255,39.94839,776,1152
116.38631,39.94763,777,1152
116.35171,39.94329,778,1152
116.34917,39.93068,779,1152
116.34395,39.92695,780,1152
116.34339,39.92757,781,1152
116.34339,39.92757,782,1152
116.34782,39.93092,783,1152
116.34981,39.93484,784,1152
116.35021,39.94189,785,1152
116.34969,39.94994,786,1152
116.35054,39.95658,787,1152
116.3621,39.95656,788,1152
116.38036,39.96684,789,1152
116.43887,39.96252,790,1152
116.45514,39.92583,791,1152
116.46583,39.91468,792,1152
116.48648,39.91404,793,1152
116.48651,39.91404,794,1152
116.5011,39.91464,795,1152
116.5171,39.91583,796,1152
116.5214,39.91595,797,1152
116.52618,39.91572,798,1152
116.52586,39.91576,799,1152
116.52238,39.91606,800,1152
116.52683,39.92565,801,1152
116.53128,39.92755,802,1152
116.5217,39.92451,803,1152
116.51324,39.9221,804,1152
116.51324,39.9221,805,1152
116.50741,39.92329,806,1152
116.50741,39.92329,807,1152
116.50741,39.92329,808,1152
116.50743,39.92329,809,1152
116.50726,39.92202,810,1152
116.49618,39.92189,811,1152
116.48174,39.91437,812,1152
116.47599,39.91446,813,1152
116.47223,39.92104,814,1152
116.47217,39.92312,815,1152
116.47578,39.93234,816,1152
116.48208,39.93235,817,1152
116.48234,39.95705,818,1152
116.48658,39.95939,819,1152
116.48388,39.97147,820,1152
116.49065,39.98661,821,1152
116.49555,39.99742,822,1152
116.50519,40.00686,823,1152
116.50519,40.00686,824,1152
116.52373,40.01746,825,1152
116.5409,40.02359,826,1152
116.56956,40.03414,827,1152
116.58629,40.03528,828,1152
116.62681,40.03318,829,1152
116.63509,40.04137,830,1152
116.65657,40.06094,831,1152
116.68044,40.06204,832,1152
116.74798,40.06186,833,1152
116.77148,40.0662,834,1152
116.8195,40.06956,835,1152
116.84173,40.07199,836,1152
116.90982,40.07782,837,1152
116.90982,40.07782,838,1152
116.92659,40.07875,839,1152
116.97885,40.07355,840,1152
116.99573,40.06895,841,1152
117.03705,40.08066,842,1152
117.04401,40.0929,843,1152
117.04143,40.09746,844,1152
117.04138,40.09752,845,1152
117.04138,40.09752,846,1152
117.04138,40.09752,847,1152
117.04138,40.09752,848,1152
117.04138,40.09752,849,1152
117.04138,40.09752,850,1152
117.04138,40.09752,851,1152
117.04138,40.09752,852,1152
117.04138,40.09752,853,1152
117.04138,40.09752,854,1152
117.04138,40.09752,855,1152
117.04141,40.09748,856,1152
117.04141,40.09748,857,1152
117.04141,40.09748,858,1152
117.04141,40.09748,859,1152
117.04141,40.09748,860,1152
117.04141,40.09748,861,1152
117.04141,40.09748,862,1152
117.04883,40.09629,863,1152
117.07788,40.10715,864,1152
117.07747,40.10816,865,1152
117.08863,40.12991,866,1152
117.08871,40.12993,867,1152
117.10746,40.13878,868,1152
117.10985,40.13883,869,1152
117.11124,40.13848,870,1152
117.10386,40.14157,871,1152
117.1037,40.14134,872,1152
117.1037,40.14134,873,1152
117.1037,40.14134,874,1152
117.1037,40.14134,875,1152
117.1037,40.14134,876,1152
117.1037,40.14134,877,1152
117.10484,40.13926,878,1152
117.11626,40.13893,879,1152
117.11796,40.13894,880,1152
117.11806,40.13906,881,1152
117.11806,40.13906,882,1152
117.11797,40.13884,883,1152
117.1125,40.13938,884,1152
117.1125,40.13938,885,1152
117.10741,40.14095,886,1152
117.1074,40.14101,887,1152
117.1074,40.14101,888,1152
117.10511,40.13982,889,1152
117.09474,40.13867,890,1152
117.08267,40.13164,891,1152
117.07419,40.12079,892,1152
117.07861,40.10554,893,1152
117.05039,40.09604,894,1152
117.04464,40.09619,895,1152
117.04086,40.09748,896,1152
117.04086,40.09748,897,1152
117.03916,40.09579,898,1152
117.04452,40.08462,899,1152
117.04086,40.09742,900,1152
117.03911,40.09686,901,1152
117.03917,40.09579,902,1152
117.03912,40.09579,903,1152
117.03912,40.09579,904,1152
117.03912,40.09579,905,1152
117.03912,40.09579,906,1152
117.03912,40.09579,907,1152
117.03912,40.09579,908,1152
117.03912,40.09579,909,1152
117.03912,40.09579,910,1152
117.03912,40.09579,911,1152
117.03912,40.09579,912,1152
117.03912,40.09579,913,1152
117.03912,40.09579,914,1152
117.03912,40.09579,915,1152
117.03912,40.09579,916,1152
117.03912,40.09579,917,1152
117.03912,40.09579,918,1152
117.03912,40.09579,919,1152
117.03912,40.09579,920,1152
117.03912,40.09579,921,1152
117.03912,40.09579,922,1152
117.03912,40.09579,923,1152
117.03912,40.09579,924,1152
117.03912,40.09579,925,1152
117.03977,40.09485,926,1152
117.03977,40.09485,927,1152
117.04184,40.09527,928,1152
117.06826,40.10047,929,1152
117.06952,40.10064,930,1152
117.07582,40.11489,931,1152
117.07579,40.11487,932,1152
117.07579,40.11487,933,1152
117.07579,40.11487,934,1152
117.07579,40.11487,935,1152
117.07579,40.11487,936,1152
117.07579,40.11487,937,1152
117.07421,40.12073,938,1152
117.08862,40.1299,939,1152
117.09335,40.13526,940,1152
117.11071,40.13871,941,1152
117.11122,40.13838,942,1152
117.10973,40.1388,943,1152
117.10521,40.14107,944,1152
117.10519,40.14106,945,1152
117.10519,40.14106,946,1152
117.10519,40.14106,947,1152
117.10519,40.14106,948,1152
117.10519,40.14106,949,1152
117.10519,40.14106,950,1152
117.10519,40.14106,951,1152
117.10513,40.14105,952,1152
117.10512,40.14102,953,1152
117.10519,40.14096,954,1152
117.10506,40.14097,955,1152
117.10501,40.14097,956,1152
117.10503,40.14095,957,1152
117.10555,40.14175,958,1152
117.10482,40.1411,959,1152
117.09005,40.13862,960,1152
117.08965,40.13624,961,1152
117.08276,40.13014,962,1152
117.07569,40.1135,963,1152
117.0773,40.10856,964,1152
117.06182,40.09679,965,1152
117.05283,40.09621,966,1152
117.03979,40.09489,967,1152
117.0399,40.09499,968,1152
117.0449,40.08983,969,1152
117.0444,40.08371,970,1152
117.05241,40.06768,971,1152
117.05241,40.06768,972,1152
117.05241,40.06768,973,1152
117.05241,40.06768,974,1152
117.04155,40.07993,975,1152
117.00744,40.06977,976,1152
117.00356,40.07071,977,1152
117.02163,40.07501,978,1152
117.04423,40.0833,979,1152
117.04102,40.09748,980,1152
117.04104,40.09747,981,1152
117.04104,40.09747,982,1152
117.04104,40.09747,983,1152
117.04104,40.09747,984,1152
117.04104,40.09747,985,1152
117.04104,40.09747,986,1152
117.04104,40.09747,987,1152
117.04104,40.09747,988,1152
117.04104,40.09747,989,1152
117.04104,40.09747,990,1152
117.04104,40.09747,991,1152
117.04104,40.09747,992,1152
117.04089,40.09745,993,1152
117.04098,40.09757,994,1152
117.04098,40.09757,995,1152
117.04098,40.09757,996,1152
117.04098,40.09757,997,1152
117.04098,40.09757,998,1152
117.04098,40.09757,999,1152
117.04098,40.09757,1000,1152
117.04098,40.09757,1001,1152
117.04098,40.09757,1002,1152
117.04098,40.09757,1003,1152
117.04098,40.09757,1004,1152
117.04098,40.09757,1005,1152
117.04098,40.09757,1006,1152
117.04098,40.09757,1007,1152
117.04098,40.09757,1008,1152
117.04098,40.09757,1009,1152
116.91531,40.27557,1010,1152
116.91531,40.27557,1011,1152
117.04093,40.09759,1012,1152
117.02865,40.07763,1013,1152
117.02607,40.07669,1014,1152
117.00908,40.10693,1015,1152
116.99394,40.14134,1016,1152
116.99364,40.14139,1017,1152
116.99355,40.14139,1018,1152
116.99355,40.14139,1019,1152
116.99284,40.14043,1020,1152
116.99402,40.14015,1021,1152
117.00021,40.13939,1022,1152
117.00021,40.13939,1023,1152
117.00922,40.10826,1024,1152
117.00887,40.10599,1025,1152
117.03226,40.07888,1026,1152
117.03503,40.07992,1027,1152
117.04091,40.09749,1028,1152
117.04084,40.09754,1029,1152
117.04084,40.09754,1030,1152
117.04084,40.09754,1031,1152
117.04084,40.09754,1032,1152
117.04084,40.09754,1033,1152
117.04084,40.09754,1034,1152
117.04084,40.09754,1035,1152
117.04084,40.09754,1036,1152
117.04084,40.09754,1037,1152
117.04084,40.09754,1038,1152
117.04084,40.09754,1039,1152
117.04084,40.09754,1040,1152
117.04084,40.09754,1041,1152
117.04084,40.09754,1042,1152
117.04084,40.09754,1043,1152
117.04084,40.09754,1044,1152
117.04084,40.09754,1045,1152
117.04084,40.09754,1046,1152
117.04084,40.09754,1047,1152
117.04084,40.09754,1048,1152
117.04084,40.09754,1049,1152
117.04084,40.09754,1050,1152
117.04084,40.09754,1051,1152
117.03952,40.09705,1052,1152
117.03955,40.09677,1053,1152
117.03983,40.09483,1054,1152
117.04099,40.09509,1055,1152
117.05089,40.09605,1056,1152
117.06177,40.09785,1057,1152
117.07552,40.10249,1058,1152
117.0774,40.10836,1059,1152
117.07422,40.12064,1060,1152
117.08259,40.12731,1061,1152
117.08969,40.13783,1062,1152
117.0892,40.14828,1063,1152
117.10645,40.15679,1064,1152
117.11079,40.16221,1065,1152
117.11018,40.16074,1066,1152
117.11202,40.15689,1067,1152
117.10099,40.14886,1068,1152
117.10118,40.1441,1069,1152
117.10494,40.13889,1070,1152
117.1052,40.13883,1071,1152
117.1052,40.13883,1072,1152
117.10481,40.13901,1073,1152
117.11121,40.13846,1074,1152
117.11121,40.13846,1075,1152
117.10544,40.13881,1076,1152
117.09917,40.13888,1077,1152
117.08899,40.13412,1078,1152
117.09673,40.13525,1079,1152
117.09678,40.13529,1080,1152
117.09678,40.13529,1081,1152
117.09678,40.13529,1082,1152
117.09678,40.13529,1083,1152
117.09678,40.13529,1084,1152
117.09678,40.13529,1085,1152
117.09678,40.13529,1086,1152
117.09678,40.13529,1087,1152
117.09678,40.13529,1088,1152
117.09678,40.13529,1089,1152
117.09678,40.13529,1090,1152
117.09678,40.13529,1091,1152
117.09678,40.13529,1092,1152
117.09678,40.13529,1093,1152
117.09678,40.13529,1094,1152
117.09678,40.13529,1095,1152
117.09678,40.13529,1096,1152
117.09678,40.13529,1097,1152
117.09678,40.13529,1098,1152
117.09678,40.13529,1099,1152
117.09678,40.13529,1100,1152
117.09678,40.13529,1101,1152
117.09678,40.13529,1102,1152
117.09678,40.13529,1103,1152
117.09906,40.13547,1104,1152
117.10478,40.13878,1105,1152
117.10494,40.14377,1106,1152
117.08101,40.14408,1107,1152
117.06609,40.14395,1108,1152
117.01221,40.1409,1109,1152
116.99155,40.14058,1110,1152
116.92331,40.15167,1111,1152
116.90419,40.15245,1112,1152
116.83582,40.15106,1113,1152
116.81525,40.14848,1114,1152
116.75455,40.13681,1115,1152
116.75455,40.13681,1116,1152
116.7352,40.12378,1117,1152
116.67433,40.11468,1118,1152
116.66307,40.11511,1119,1152
116.62355,40.11648,1120,1152
116.61117,40.11661,1121,1152
116.57261,40.11669,1122,1152
116.55954,40.11388,1123,1152
116.55158,40.07934,1124,1152
116.54876,40.06404,1125,1152
116.52752,40.0407,1126,1152
116.5202,40.02861,1127,1152
116.50424,40.00607,1128,1152
116.49547,39.99787,1129,1152
116.49103,39.98972,1130,1152
116.49094,39.98974,1131,1152
116.49094,39.98974,1132,1152
116.49094,39.98974,1133,1152
116.49094,39.98974,1134,1152
116.49094,39.98974,1135,1152
116.49094,39.98974,1136,1152
116.49094,39.98974,1137,1152
116.49094,39.98974,1138,1152
116.49094,39.98974,1139,1152
116.49094,39.98974,1140,1152
116.49094,39.98974,1141,1152
116.49094,39.98974,1142,1152
116.49094,39.98974,1143,1152
116.49094,39.98974,1144,1152
116.49094,39.98974,1145,1152
116.49094,39.98974,1146,1152
116.49094,39.98974,1147,1152
116.49094,39.98974,1148,1152
116.49094,39.98974,1149,1152
116.49094,39.98974,1150,1152
116.49108,39.98966,1151,1152
116.49108,39.98966,1152,1152
116.49104,39.98965,1153,1152
116.49104,39.98965,1154,1152
116.49104,39.98965,1155,1152
116.49104,39.98965,1156,1152
116.49104,39.98965,1157,1152
116.49105,39.98966,1158,1152
116.49105,39.98966,1159,1152
116.49105,39.98966,1160,1152
116.49105,39.98966,1161,1152
116.49105,39.98967,1162,1152
116.49105,39.98968,1163,1152
116.49101,39.98967,1164,1152
116.49101,39.98967,1165,1152
116.48665,39.9867,1166,1152
116.48665,39.9867,1167,1152
116.48295,39.98715,1168,1152
116.47815,39.99414,1169,1152
116.47462,39.98964,1170,1152
116.46722,39.99388,1171,1152
116.46722,39.99388,1172,1152
116.46723,39.99384,1173,1152
116.4701,39.99646,1174,1152
116.47753,39.9896,1175,1152
116.47186,39.9897,1176,1152
116.4539,39.99584,1177,1152
116.4469,39.99455,1178,1152
116.46599,39.98263,1179,1152
116.48367,39.96949,1180,1152
116.48789,39.96263,1181,1152
116.49193,39.97063,1182,1152
116.50044,39.97065,1183,1152
116.50021,39.97045,1184,1152
116.50021,39.97045,1185,1152
116.50038,39.97048,1186,1152
116.50038,39.97048,1187,1152
116.50038,39.97048,1188,1152
116.50038,39.97048,1189,1152
116.49326,39.97073,1190,1152
116.48813,39.99231,1191,1152
116.56866,40.03632,1192,1152
116.58643,40.07917,1193,1152
116.58643,40.07917,1194,1152
116.57986,40.08813,1195,1152
116.58047,40.08819,1196,1152
116.58185,40.11241,1197,1152
116.58194,40.11215,1198,1152
116.57991,40.07858,1199,1152
116.57996,40.07814,1200,1152
116.56263,40.06128,1201,1152
116.55397,40.04353,1202,1152
116.55397,40.04353,1203,1152
116.56654,40.04312,1204,1152
116.56464,40.07022,1205,1152
116.56687,40.07214,1206,1152
116.56687,40.07214,1207,1152
116.56687,40.07214,1208,1152
116.5669,40.07207,1209,1152
116.5669,40.07207,1210,1152
116.5669,40.07207,1211,1152
116.5669,40.07207,1212,1152
116.5669,40.07207,1213,1152
116.5669,40.07207,1214,1152
116.56239,40.06901,1215,1152
116.56256,40.06821,1216,1152
116.54103,40.05699,1217,1152
116.51666,40.01642,1218,1152
116.46224,39.97178,1219,1152
116.39455,39.98694,1220,1152
116.34751,39.98574,1221,1152
116.34751,39.98574,1222,1152
116.34692,39.92159,1223,1152
116.3482,39.92195,1224,1152
116.34994,39.91743,1225,1152
116.3424,39.89047,1226,1152
116.36719,39.88769,1227,1152
116.37726,39.88799,1228,1152
116.39216,39.88984,1229,1152
116.41253,39.89166,1230,1152
116.40642,39.89974,1231,1152
116.40533,39.90821,1232,1152
116.40527,39.90868,1233,1152
116.41419,39.91417,1234,1152
116.4279,39.93336,1235,1152
116.43351,39.95662,1236,1152
116.43347,39.95696,1237,1152
116.45546,39.93739,1238,1152
116.45583,39.90759,1239,1152
116.45605,39.90827,1240,1152
116.44436,39.91317,1241,1152
116.44446,39.91474,1242,1152
116.44413,39.9203,1243,1152
116.43578,39.92269,1244,1152
