x,y,k,tid
116.85072,40.21572,0,1178
116.85072,40.21571,1,1178
116.85073,40.2157,2,1178
116.85074,40.2157,3,1178
116.85074,40.2157,4,1178
116.85074,40.2157,5,1178
116.85074,40.2157,6,1178
116.85073,40.2157,7,1178
116.85074,40.2157,8,1178
116.85074,40.21571,9,1178
116.85074,40.21586,10,1178
116.85076,40.21586,11,1178
116.85076,40.21584,12,1178
116.85076,40.21583,13,1178
116.85075,40.21582,14,1178
116.85075,40.21581,15,1178
116.85075,40.2158,16,1178
116.85076,40.21578,17,1178
116.85076,40.21577,18,1178
116.85076,40.21577,19,1178
116.85076,40.21577,20,1178
116.85075,40.21576,21,1178
116.85075,40.21576,22,1178
116.85075,40.21576,23,1178
116.85075,40.21575,24,1178
116.85075,40.21575,25,1178
116.85075,40.21575,26,1178
116.85075,40.21575,27,1178
116.85074,40.21575,28,1178
116.85074,40.21575,29,1178
116.85074,40.21575,30,1178
116.85074,40.21575,31,1178
116.85074,40.21574,32,1178
116.85074,40.21574,33,1178
116.85074,40.21574,34,1178
116.85074,40.21574,35,1178
116.85074,40.21573,36,1178
116.85074,40.21572,37,1178
116.85075,40.21571,38,1178
116.85075,40.21571,39,1178
116.85075,40.21571,40,1178
116.85713,40.22241,41,1178
116.85626,40.22534,42,1178
116.85634,40.22486,43,1178
116.85027,40.22082,44,1178
116.85027,40.22082,45,1178
116.85075,40.21574,46,1178
116.85075,40.21574,47,1178
116.85075,40.21574,48,1178
116.85075,40.21574,49,1178
116.85075,40.21574,50,1178
116.85075,40.21574,51,1178
116.85066,40.2157,52,1178
116.85066,40.2157,53,1178
116.85066,40.2157,54,1178
116.85066,40.2157,55,1178
116.85066,40.2157,56,1178
116.85066,40.2157,57,1178
116.85066,40.2157,58,1178
116.85067,40.2157,59,1178
116.85067,40.2157,60,1178
116.85067,40.2157,61,1178
116.85067,40.2157,62,1178
116.85067,40.2157,63,1178
116.85067,40.21569,64,1178
116.85067,40.21569,65,1178
116.85067,40.21569,66,1178
116.85067,40.21569,67,1178
116.85067,40.21568,68,1178
116.85068,40.21568,69,1178
116.85068,40.21568,70,1178
116.85068,40.21567,71,1178
116.85068,40.21567,72,1178
116.85069,40.21567,73,1178
116.85069,40.21567,74,1178
116.85069,40.21566,75,1178
116.85069,40.21566,76,1178
116.85069,40.21566,77,1178
116.85069,40.21566,78,1178
116.8504,40.21552,79,1178
116.85068,40.2157,80,1178
116.85071,40.21572,81,1178
116.85072,40.21573,82,1178
116.85072,40.21573,83,1178
116.85073,40.21573,84,1178
116.85074,40.21574,85,1178
116.85074,40.21574,86,1178
116.85075,40.21574,87,1178
116.85076,40.21574,88,1178
116.85077,40.21574,89,1178
116.85077,40.21574,90,1178
116.85078,40.21574,91,1178
116.85078,40.21574,92,1178
116.85078,40.21574,93,1178
116.85078,40.21573,94,1178
116.85078,40.21573,95,1178
116.85079,40.21573,96,1178
116.85079,40.21573,97,1178
116.85079,40.21573,98,1178
116.85079,40.21572,99,1178
116.85079,40.21572,100,1178
116.85079,40.21572,101,1178
116.85079,40.21572,102,1178
116.84969,40.21546,103,1178
116.85086,40.21572,104,1178
116.85084,40.21572,105,1178
116.85079,40.21571,106,1178
116.85078,40.21572,107,1178
116.85078,40.21573,108,1178
116.85077,40.21573,109,1178
116.85077,40.21574,110,1178
116.85077,40.21575,111,1178
116.85077,40.21576,112,1178
116.85078,40.21576,113,1178
116.85078,40.21577,114,1178
116.85078,40.21578,115,1178
116.85078,40.21578,116,1178
116.85078,40.21579,117,1178
116.85078,40.21579,118,1178
116.85078,40.21579,119,1178
116.85078,40.21579,120,1178
116.85077,40.21579,121,1178
116.85077,40.21579,122,1178
116.85077,40.21579,123,1178
116.85077,40.21579,124,1178
116.85077,40.21579,125,1178
116.85076,40.21579,126,1178
116.85076,40.21578,127,1178
116.85076,40.21578,128,1178
116.85076,40.21578,129,1178
116.85076,40.21578,130,1178
116.85076,40.21577,131,1178
116.85076,40.21577,132,1178
116.85076,40.21577,133,1178
116.85076,40.21576,134,1178
116.85076,40.21576,135,1178
116.85076,40.21576,136,1178
116.85076,40.21575,137,1178
116.85076,40.21575,138,1178
116.85076,40.21575,139,1178
116.85076,40.21574,140,1178
116.85076,40.21574,141,1178
116.85076,40.21573,142,1178
116.85076,40.21573,143,1178
116.85075,40.21555,144,1178
116.85071,40.21562,145,1178
116.85067,40.21567,146,1178
116.85066,40.21569,147,1178
116.85067,40.21569,148,1178
116.85069,40.21572,149,1178
116.8507,40.21573,150,1178
116.8507,40.21573,151,1178
116.8507,40.21574,152,1178
116.85071,40.21575,153,1178
116.85071,40.21575,154,1178
116.85079,40.21578,155,1178
116.85078,40.21578,156,1178
116.85077,40.21578,157,1178
116.85077,40.21577,158,1178
116.85077,40.21576,159,1178
116.85077,40.21576,160,1178
116.85077,40.21575,161,1178
116.85077,40.21574,162,1178
116.85077,40.21574,163,1178
116.85077,40.21574,164,1178
116.85077,40.21574,165,1178
116.85077,40.21573,166,1178
116.85077,40.21573,167,1178
116.85077,40.21572,168,1178
116.85076,40.21572,169,1178
116.85076,40.21572,170,1178
116.85076,40.21572,171,1178
116.85076,40.21572,172,1178
116.85076,40.21572,173,1178
116.85076,40.21572,174,1178
116.85076,40.21572,175,1178
116.85076,40.21572,176,1178
116.85076,40.21572,177,1178
116.85076,40.21572,178,1178
116.85076,40.21572,179,1178
116.85076,40.21572,180,1178
116.85076,40.21572,181,1178
116.85076,40.21572,182,1178
116.85076,40.21572,183,1178
116.85076,40.21572,184,1178
116.85076,40.21572,185,1178
116.85076,40.21572,186,1178
116.85076,40.21572,187,1178
116.85076,40.21572,188,1178
116.85076,40.21572,189,1178
116.85076,40.21572,190,1178
116.85076,40.21572,191,1178
116.85076,40.21572,192,1178
116.85076,40.21572,193,1178
116.85076,40.21572,194,1178
116.85076,40.21572,195,1178
116.85075,40.21572,196,1178
116.85075,40.21572,197,1178
116.85075,40.21572,198,1178
116.85075,40.21572,199,1178
116.85075,40.21572,200,1178
116.85074,40.21572,201,1178
116.85074,40.21572,202,1178
116.85074,40.21572,203,1178
116.85074,40.21572,204,1178
116.85074,40.21571,205,1178
116.85074,40.21571,206,1178
116.85074,40.21571,207,1178
116.85074,40.2157,208,1178
116.85074,40.2157,209,1178
116.85074,40.2157,210,1178
116.85074,40.2157,211,1178
116.85074,40.2157,212,1178
116.85074,40.2157,213,1178
116.85074,40.2157,214,1178
116.85074,40.2157,215,1178
116.85074,40.2157,216,1178
116.85075,40.2157,217,1178
116.85075,40.2157,218,1178
116.85075,40.2157,219,1178
116.85075,40.21569,220,1178
116.85075,40.21569,221,1178
116.85075,40.21569,222,1178
116.8504,40.21537,223,1178
116.85041,40.21537,224,1178
116.85042,40.21538,225,1178
116.85043,40.21538,226,1178
116.85045,40.21539,227,1178
116.85045,40.2154,228,1178
116.85046,40.21541,229,1178
116.85047,40.21542,230,1178
116.85047,40.21543,231,1178
116.85051,40.21581,232,1178
116.85053,40.21581,233,1178
116.85055,40.2158,234,1178
116.85071,40.21578,235,1178
116.85063,40.21572,236,1178
116.85084,40.21594,237,1178
116.85073,40.21585,238,1178
116.85071,40.21584,239,1178
116.8507,40.21583,240,1178
116.85065,40.21577,241,1178
116.84006,40.21485,242,1178
116.81974,40.20669,243,1178
116.80405,40.17942,244,1178
116.78335,40.14553,245,1178
116.62331,40.11655,246,1178
116.58237,40.11715,247,1178
116.58237,40.11715,248,1178
116.55537,40.10278,249,1178
116.52936,40.04456,250,1178
116.51083,40.01468,251,1178
116.47304,39.96346,252,1178
116.43964,39.87966,253,1178
116.41783,39.87006,254,1178
116.38499,39.87017,255,1178
116.3634,39.86862,256,1178
116.33191,39.86684,257,1178
116.31821,39.86695,258,1178
116.31031,39.86668,259,1178
116.30786,39.86765,260,1178
116.30829,39.86761,261,1178
116.30828,39.8676,262,1178
116.30942,39.86699,263,1178
116.30941,39.86675,264,1178
116.30941,39.86675,265,1178
116.31135,39.85682,266,1178
116.31135,39.85682,267,1178
116.31332,39.85494,268,1178
116.31204,39.85569,269,1178
116.30438,39.8937,270,1178
116.24931,39.89605,271,1178
116.25386,39.89432,272,1178
116.25376,39.89435,273,1178
116.25379,39.89437,274,1178
116.26624,39.89557,275,1178
116.26778,39.88549,276,1178
116.28317,39.83099,277,1178
116.35971,39.82974,278,1178
116.44367,39.83085,279,1178
116.48182,39.86333,280,1178
116.48435,39.89284,281,1178
116.48642,39.91232,282,1178
116.48516,39.91193,283,1178
116.483,39.91181,284,1178
116.47273,39.90647,285,1178
116.44408,39.90706,286,1178
116.41835,39.90715,287,1178
116.34286,39.90597,288,1178
116.30434,39.90963,289,1178
116.29885,39.92303,290,1178
116.29855,39.9269,291,1178
116.29856,39.92688,292,1178
116.2985,39.92691,293,1178
116.29851,39.92691,294,1178
116.2985,39.92692,295,1178
116.29857,39.92694,296,1178
116.29858,39.92691,297,1178
116.29858,39.92692,298,1178
116.29858,39.92689,299,1178
116.29858,39.92688,300,1178
116.29869,39.92674,301,1178
116.29867,39.92671,302,1178
116.29866,39.92673,303,1178
116.29867,39.92673,304,1178
116.29866,39.92674,305,1178
116.29867,39.92673,306,1178
116.29867,39.92673,307,1178
116.29867,39.92688,308,1178
116.29866,39.92687,309,1178
116.29865,39.92685,310,1178
116.29499,39.93041,311,1178
116.2958,39.93181,312,1178
116.30391,39.91523,313,1178
116.30394,39.91279,314,1178
116.30383,39.91096,315,1178
116.30376,39.90783,316,1178
116.30251,39.90692,317,1178
116.30423,39.88492,318,1178
116.30808,39.86543,319,1178
116.30845,39.86523,320,1178
116.30706,39.86815,321,1178
116.3063,39.86953,322,1178
116.30828,39.87358,323,1178
116.31313,39.88286,324,1178
116.32153,39.88862,325,1178
116.35732,39.88584,326,1178
116.35721,39.88467,327,1178
116.35141,39.8767,328,1178
116.34221,39.86662,329,1178
116.33254,39.84794,330,1178
116.31183,39.85597,331,1178
116.30605,39.87021,332,1178
116.30448,39.8945,333,1178
116.31281,39.89558,334,1178
116.32043,39.89566,335,1178
116.34491,39.89673,336,1178
116.35066,39.89962,337,1178
116.35105,39.91983,338,1178
116.34954,39.93689,339,1178
116.3843,39.95009,340,1178
116.3873,39.95567,341,1178
116.39155,39.9475,342,1178
116.40236,39.93657,343,1178
116.40246,39.93341,344,1178
116.40336,39.92602,345,1178
116.41199,39.91277,346,1178
116.41205,39.90312,347,1178
116.8773,39.81893,348,1178
116.41215,39.89928,349,1178
116.41215,39.89928,350,1178
116.41226,39.89734,351,1178
116.41148,39.89603,352,1178
116.39134,39.88981,353,1178
116.37509,39.88805,354,1178
116.36389,39.88799,355,1178
116.35776,39.88807,356,1178
116.33936,39.88844,357,1178
116.32453,39.88875,358,1178
116.31071,39.88629,359,1178
116.30467,39.88535,360,1178
116.30761,39.89553,361,1178
116.30761,39.89553,362,1178
116.30761,39.89553,363,1178
116.30761,39.89553,364,1178
116.30761,39.89553,365,1178
116.30761,39.89553,366,1178
116.30761,39.89553,367,1178
116.30761,39.89553,368,1178
116.30761,39.89553,369,1178
116.30761,39.89553,370,1178
116.30761,39.89553,371,1178
116.30761,39.89553,372,1178
116.30761,39.89553,373,1178
116.35059,39.8987,374,1178
116.3496,39.93877,375,1178
116.34848,39.93927,376,1178
116.33675,39.94715,377,1178
116.33673,39.94718,378,1178
116.3369,39.94718,379,1178
116.33528,39.94675,380,1178
116.31657,39.96137,381,1178
116.32181,39.96576,382,1178
116.34771,39.96627,383,1178
116.36428,39.96345,384,1178
116.38586,39.96694,385,1178
116.42462,39.96809,386,1178
116.4593,39.96727,387,1178
116.48848,39.99387,388,1178
116.50568,40.01035,389,1178
116.52029,40.02839,390,1178
116.54765,40.06229,391,1178
116.55549,40.10273,392,1178
116.62222,40.11639,393,1178
116.69416,40.12411,394,1178
116.77421,40.1429,395,1178
116.79816,40.19917,396,1178
116.84028,40.2149,397,1178
116.85073,40.21575,398,1178
116.85072,40.21572,399,1178
116.8507,40.21571,400,1178
116.8507,40.2157,401,1178
116.85069,40.2157,402,1178
116.85069,40.2157,403,1178
116.85069,40.2157,404,1178
116.85069,40.2157,405,1178
116.85069,40.2157,406,1178
116.85069,40.2157,407,1178
116.8507,40.2157,408,1178
116.8507,40.2157,409,1178
116.8507,40.2157,410,1178
116.8507,40.2157,411,1178
116.8507,40.21571,412,1178
116.8507,40.21571,413,1178
116.8507,40.21571,414,1178
116.8507,40.21571,415,1178
116.8507,40.21571,416,1178
116.8507,40.21571,417,1178
116.8507,40.21571,418,1178
116.8507,40.21571,419,1178
116.8507,40.21571,420,1178
116.8507,40.21571,421,1178
116.8507,40.21571,422,1178
116.8507,40.21571,423,1178
116.8507,40.21572,424,1178
116.8507,40.21572,425,1178
116.8507,40.21572,426,1178
116.85069,40.21572,427,1178
116.85069,40.21572,428,1178
116.85069,40.21572,429,1178
116.85069,40.21572,430,1178
116.85069,40.21572,431,1178
116.85069,40.21572,432,1178
116.85069,40.21572,433,1178
116.85069,40.21572,434,1178
116.85069,40.21572,435,1178
116.85068,40.21572,436,1178
116.85068,40.21572,437,1178
116.85068,40.21572,438,1178
116.85068,40.21572,439,1178
116.85068,40.21572,440,1178
116.85068,40.21572,441,1178
116.85068,40.21572,442,1178
116.85068,40.21572,443,1178
116.85068,40.21572,444,1178
116.85068,40.21573,445,1178
116.85068,40.21573,446,1178
116.85068,40.21573,447,1178
116.85068,40.21573,448,1178
116.85068,40.21573,449,1178
116.85068,40.21573,450,1178
116.85067,40.21573,451,1178
116.85067,40.21573,452,1178
116.85067,40.21573,453,1178
116.85067,40.21573,454,1178
116.85068,40.21573,455,1178
116.85068,40.21573,456,1178
116.85068,40.21573,457,1178
116.85068,40.21573,458,1178
116.85068,40.21573,459,1178
116.85068,40.21573,460,1178
116.85068,40.21573,461,1178
116.85068,40.21573,462,1178
116.85068,40.21573,463,1178
116.85068,40.21573,464,1178
116.85069,40.21574,465,1178
116.85069,40.21574,466,1178
116.85069,40.21574,467,1178
116.85069,40.21574,468,1178
116.85069,40.21574,469,1178
116.85069,40.21574,470,1178
116.85069,40.21574,471,1178
116.85068,40.21574,472,1178
116.85068,40.21574,473,1178
116.85068,40.21574,474,1178
116.85069,40.21574,475,1178
116.85069,40.21573,476,1178
116.85069,40.21573,477,1178
116.85069,40.21573,478,1178
116.85069,40.21573,479,1178
116.85069,40.21573,480,1178
116.85068,40.21573,481,1178
116.85068,40.21573,482,1178
116.85068,40.21573,483,1178
116.85068,40.21573,484,1178
116.85068,40.21573,485,1178
116.85068,40.21573,486,1178
116.85068,40.21573,487,1178
116.85068,40.21573,488,1178
116.85068,40.21573,489,1178
116.85068,40.21573,490,1178
116.85068,40.21573,491,1178
116.85068,40.21573,492,1178
116.85068,40.21574,493,1178
116.85068,40.21574,494,1178
116.85068,40.21574,495,1178
116.85068,40.21574,496,1178
116.85068,40.21574,497,1178
116.85068,40.21574,498,1178
116.85068,40.21574,499,1178
116.85068,40.21574,500,1178
116.85068,40.21573,501,1178
116.85068,40.21573,502,1178
116.85068,40.21573,503,1178
116.85068,40.21573,504,1178
116.85068,40.21573,505,1178
116.85068,40.21573,506,1178
116.85068,40.21573,507,1178
116.85068,40.21573,508,1178
116.85068,40.21573,509,1178
116.85068,40.21572,510,1178
116.85069,40.21572,511,1178
116.85069,40.21572,512,1178
116.85069,40.21572,513,1178
116.85069,40.21572,514,1178
116.8507,40.21572,515,1178
116.8507,40.21572,516,1178
116.8507,40.21572,517,1178
116.85071,40.21571,518,1178
116.85071,40.21571,519,1178
116.8507,40.21571,520,1178
116.8507,40.21571,521,1178
116.8507,40.21571,522,1178
116.8507,40.21571,523,1178
116.8507,40.21571,524,1178
116.8507,40.21571,525,1178
116.8507,40.21571,526,1178
116.8507,40.21571,527,1178
116.8507,40.21571,528,1178
116.8507,40.21571,529,1178
116.8507,40.21571,530,1178
116.8507,40.21571,531,1178
116.8507,40.21571,532,1178
116.8507,40.21571,533,1178
116.8507,40.21571,534,1178
116.85013,40.21571,535,1178
116.85069,40.21573,536,1178
116.8507,40.21575,537,1178
116.8507,40.21575,538,1178
116.85071,40.21577,539,1178
116.85072,40.21578,540,1178
116.85072,40.21578,541,1178
116.85072,40.21578,542,1178
116.85072,40.21577,543,1178
116.85072,40.21577,544,1178
116.85071,40.21577,545,1178
116.85071,40.21576,546,1178
116.85071,40.21576,547,1178
116.85071,40.21576,548,1178
116.85071,40.21576,549,1178
116.85073,40.21578,550,1178
116.84661,40.19986,551,1178
116.79879,40.19649,552,1178
116.78847,40.14604,553,1178
116.70683,40.12335,554,1178
116.66366,40.11502,555,1178
116.60117,40.11667,556,1178
116.56703,40.10592,557,1178
116.56219,40.06987,558,1178
116.56558,40.07034,559,1178
116.56531,40.07119,560,1178
116.56529,40.07121,561,1178
116.56529,40.0712,562,1178
116.56529,40.0712,563,1178
116.56529,40.0712,564,1178
116.56528,40.0712,565,1178
116.56528,40.0712,566,1178
116.56528,40.0712,567,1178
116.56528,40.0712,568,1178
116.56528,40.07121,569,1178
116.56528,40.0712,570,1178
116.56528,40.0712,571,1178
116.56528,40.0712,572,1178
116.56529,40.0712,573,1178
116.56529,40.0712,574,1178
116.56529,40.0712,575,1178
116.56529,40.0712,576,1178
116.5653,40.0712,577,1178
116.5653,40.0712,578,1178
116.5653,40.0712,579,1178
116.5653,40.0712,580,1178
116.5653,40.0712,581,1178
116.5653,40.07121,582,1178
116.56531,40.07121,583,1178
116.56531,40.07121,584,1178
116.56531,40.07121,585,1178
116.56531,40.07121,586,1178
116.5626,40.06846,587,1178
116.5711,40.06326,588,1178
116.58294,40.06072,589,1178
116.58271,40.06208,590,1178
116.58271,40.06208,591,1178
116.58268,40.06233,592,1178
116.58258,40.06278,593,1178
116.58197,40.06592,594,1178
116.58194,40.06594,595,1178
116.58193,40.06682,596,1178
116.5819,40.06715,597,1178
116.5819,40.06715,598,1178
116.5819,40.06717,599,1178
116.58156,40.06989,600,1178
116.58152,40.06996,601,1178
116.58108,40.07199,602,1178
116.58303,40.07497,603,1178
116.58755,40.07724,604,1178
116.58761,40.07773,605,1178
116.58761,40.07773,606,1178
116.57724,40.04549,607,1178
116.50665,40.00929,608,1178
116.4562,39.97481,609,1178
116.396,39.98723,610,1178
116.34705,39.99149,611,1178
116.33381,39.99171,612,1178
116.32879,39.99176,613,1178
116.34605,39.99956,614,1178
116.34613,40.00923,615,1178
116.35018,40.02142,616,1178
116.34792,40.02802,617,1178
116.34348,40.02821,618,1178
116.36192,40.00219,619,1178
116.38069,40.00258,620,1178
116.4014,40.00263,621,1178
116.40125,39.99036,622,1178
116.40154,39.95998,623,1178
116.40222,39.93941,624,1178
116.40268,39.92878,625,1178
116.41143,39.91614,626,1178
116.4081,39.90817,627,1178
116.40909,39.90809,628,1178
116.40034,39.90653,629,1178
116.38991,39.90619,630,1178
116.38872,39.8897,631,1178
116.36794,39.88659,632,1178
116.36594,39.88447,633,1178
116.36504,39.88766,634,1178
116.37518,39.88788,635,1178
116.40336,39.8913,636,1178
116.41478,39.89168,637,1178
116.42022,39.8923,638,1178
116.42121,39.89836,639,1178
116.41843,39.90326,640,1178
116.42503,39.9068,641,1178
116.42503,39.9068,642,1178
116.42933,39.90394,643,1178
116.42067,39.91361,644,1178
116.42516,39.92388,645,1178
116.42721,39.92339,646,1178
116.43397,39.92338,647,1178
116.44973,39.92218,648,1178
116.4559,39.92888,649,1178
116.45582,39.93132,650,1178
116.45563,39.93931,651,1178
116.4536,39.95302,652,1178
116.43187,39.96727,653,1178
116.38815,39.96673,654,1178
116.39492,39.96547,655,1178
116.39491,39.96548,656,1178
116.396,39.96393,657,1178
116.39601,39.96394,658,1178
116.48748,39.99286,659,1178
116.51751,40.02421,660,1178
116.55792,40.11116,661,1178
116.61814,40.11642,662,1178
116.79615,40.14667,663,1178
116.80772,40.21218,664,1178
116.84916,40.21724,665,1178
116.85057,40.21579,666,1178
116.85056,40.21571,667,1178
116.8506,40.21573,668,1178
116.8506,40.21573,669,1178
116.85061,40.21573,670,1178
116.85062,40.21574,671,1178
116.85062,40.21574,672,1178
116.85064,40.21574,673,1178
116.85064,40.21575,674,1178
116.85065,40.21575,675,1178
116.85065,40.21575,676,1178
116.85066,40.21575,677,1178
116.85066,40.21575,678,1178
116.85065,40.21574,679,1178
116.85065,40.21574,680,1178
116.85065,40.21573,681,1178
116.85065,40.21573,682,1178
116.85065,40.21573,683,1178
116.85065,40.21573,684,1178
116.85065,40.21573,685,1178
116.85066,40.21573,686,1178
116.85066,40.21572,687,1178
116.85066,40.21572,688,1178
116.85066,40.21572,689,1178
116.85066,40.21572,690,1178
116.85066,40.21572,691,1178
116.85066,40.21572,692,1178
116.85066,40.21572,693,1178
116.85066,40.21572,694,1178
116.85066,40.21572,695,1178
116.85067,40.21572,696,1178
116.85067,40.21572,697,1178
116.85067,40.21572,698,1178
116.85067,40.21572,699,1178
116.85067,40.21572,700,1178
116.85067,40.21572,701,1178
116.85067,40.21572,702,1178
116.85067,40.21572,703,1178
116.85068,40.21572,704,1178
116.85068,40.21572,705,1178
116.85068,40.21572,706,1178
116.85068,40.21572,707,1178
116.85068,40.21572,708,1178
116.85068,40.21572,709,1178
116.85068,40.21572,710,1178
116.85068,40.21572,711,1178
116.85068,40.21572,712,1178
116.85068,40.21572,713,1178
116.85068,40.21572,714,1178
116.85068,40.21572,715,1178
116.85068,40.21572,716,1178
116.85068,40.21572,717,1178
116.85068,40.21572,718,1178
116.85068,40.21571,719,1178
116.85068,40.21572,720,1178
116.85068,40.21572,721,1178
116.85068,40.21572,722,1178
116.85068,40.21572,723,1178
116.85068,40.21572,724,1178
116.85068,40.21572,725,1178
116.85068,40.21572,726,1178
116.85068,40.21572,727,1178
116.85068,40.21573,728,1178
116.85068,40.21573,729,1178
116.85068,40.21573,730,1178
116.85069,40.21573,731,1178
116.85069,40.21573,732,1178
116.85069,40.21572,733,1178
116.85069,40.21572,734,1178
116.85069,40.21572,735,1178
116.85069,40.21573,736,1178
116.85069,40.21573,737,1178
116.85069,40.21573,738,1178
116.85069,40.21573,739,1178
116.85069,40.21573,740,1178
116.85069,40.21573,741,1178
116.85069,40.21573,742,1178
116.85069,40.21573,743,1178
116.85069,40.21573,744,1178
116.85069,40.21573,745,1178
116.85069,40.21574,746,1178
116.85069,40.21574,747,1178
116.85069,40.21573,748,1178
116.85069,40.21573,749,1178
116.85069,40.21573,750,1178
116.85069,40.21574,751,1178
116.85069,40.21574,752,1178
116.85069,40.21574,753,1178
116.85069,40.21574,754,1178
116.85069,40.21574,755,1178
116.85069,40.21574,756,1178
116.8507,40.21574,757,1178
116.8507,40.21575,758,1178
116.8507,40.21575,759,1178
116.8507,40.21575,760,1178
116.8507,40.21575,761,1178
116.85087,40.21562,762,1178
116.85085,40.21565,763,1178
116.85083,40.21567,764,1178
116.85079,40.21569,765,1178
116.85079,40.21569,766,1178
116.85077,40.2157,767,1178
116.85077,40.2157,768,1178
116.85076,40.21571,769,1178
116.85075,40.21571,770,1178
116.85075,40.21571,771,1178
116.85074,40.21572,772,1178
116.85074,40.21572,773,1178
116.85074,40.21572,774,1178
116.85073,40.21572,775,1178
116.85073,40.21572,776,1178
116.85072,40.21572,777,1178
116.85072,40.21572,778,1178
116.85072,40.21572,779,1178
116.85072,40.21572,780,1178
116.85072,40.21572,781,1178
116.85072,40.21572,782,1178
116.85072,40.21573,783,1178
116.85071,40.21573,784,1178
116.85071,40.21572,785,1178
116.85071,40.21572,786,1178
116.8507,40.21573,787,1178
116.8507,40.21573,788,1178
116.8507,40.21573,789,1178
116.8507,40.21573,790,1178
116.8507,40.21573,791,1178
116.8507,40.21573,792,1178
116.8507,40.21573,793,1178
116.85069,40.21573,794,1178
116.85069,40.21573,795,1178
116.85069,40.21573,796,1178
116.85069,40.21573,797,1178
116.85069,40.21573,798,1178
116.85069,40.21573,799,1178
116.8498,40.21743,800,1178
116.85081,40.21585,801,1178
116.85079,40.21583,802,1178
116.85079,40.21582,803,1178
116.85078,40.2158,804,1178
116.85076,40.21578,805,1178
116.85075,40.21576,806,1178
116.85075,40.21575,807,1178
116.85074,40.21574,808,1178
116.85074,40.21573,809,1178
116.85074,40.21573,810,1178
116.85074,40.21572,811,1178
116.85075,40.21572,812,1178
116.85075,40.21572,813,1178
116.85075,40.21571,814,1178
116.85075,40.21571,815,1178
116.85075,40.21571,816,1178
116.85075,40.21571,817,1178
116.85075,40.2157,818,1178
116.85075,40.2157,819,1178
116.85074,40.2157,820,1178
116.85074,40.2157,821,1178
116.85074,40.2157,822,1178
116.85074,40.2157,823,1178
116.85074,40.2157,824,1178
116.85074,40.2157,825,1178
116.85074,40.2157,826,1178
116.85074,40.2157,827,1178
116.85074,40.21571,828,1178
116.85074,40.2157,829,1178
116.85074,40.2157,830,1178
116.85074,40.2157,831,1178
116.85074,40.2157,832,1178
116.85074,40.21571,833,1178
116.85073,40.21571,834,1178
116.85861,40.22142,835,1178
116.85975,40.22054,836,1178
116.85974,40.22054,837,1178
116.85974,40.22054,838,1178
116.85977,40.22056,839,1178
116.85977,40.22056,840,1178
116.85976,40.22055,841,1178
116.85975,40.22055,842,1178
116.85975,40.22055,843,1178
116.85974,40.22054,844,1178
116.85974,40.22054,845,1178
116.85974,40.22054,846,1178
116.85974,40.22053,847,1178
116.85974,40.22053,848,1178
116.85974,40.22053,849,1178
116.85974,40.22053,850,1178
116.85974,40.22053,851,1178
116.85974,40.22053,852,1178
116.85975,40.22053,853,1178
116.85975,40.22053,854,1178
116.85975,40.22053,855,1178
116.85975,40.22053,856,1178
116.85975,40.22053,857,1178
116.85975,40.22053,858,1178
116.85975,40.22053,859,1178
116.85975,40.22053,860,1178
116.85974,40.22053,861,1178
116.85974,40.22053,862,1178
116.85974,40.22053,863,1178
116.85974,40.22053,864,1178
116.85974,40.22053,865,1178
116.85974,40.22053,866,1178
116.85975,40.22053,867,1178
116.85974,40.22052,868,1178
116.85974,40.22053,869,1178
116.85975,40.22053,870,1178
116.85975,40.22053,871,1178
116.85975,40.22053,872,1178
116.85781,40.22274,873,1178
116.85631,40.22472,874,1178
116.8563,40.22473,875,1178
116.85633,40.22474,876,1178
116.8567,40.2311,877,1178
116.8567,40.2311,878,1178
116.8567,40.2311,879,1178
116.85669,40.2311,880,1178
116.85668,40.2311,881,1178
116.85668,40.23111,882,1178
116.85668,40.2311,883,1178
116.85616,40.22489,884,1178
116.8567,40.22347,885,1178
116.85979,40.22052,886,1178
116.85063,40.21578,887,1178
116.85065,40.21575,888,1178
116.85067,40.21575,889,1178
116.85068,40.21575,890,1178
116.85072,40.21577,891,1178
116.85072,40.21576,892,1178
116.85072,40.21575,893,1178
116.85072,40.21574,894,1178
116.85072,40.21574,895,1178
116.85071,40.21574,896,1178
116.85071,40.21574,897,1178
116.85071,40.21574,898,1178
116.85071,40.21574,899,1178
116.85071,40.21574,900,1178
116.85381,40.22163,901,1178
116.85616,40.22488,902,1178
116.85065,40.21578,903,1178
116.85066,40.21579,904,1178
116.85066,40.21579,905,1178
116.85066,40.21579,906,1178
116.85066,40.21578,907,1178
116.85066,40.21578,908,1178
116.85069,40.21579,909,1178
116.85066,40.21578,910,1178
116.85066,40.21578,911,1178
116.85067,40.21578,912,1178
116.85067,40.21578,913,1178
116.85068,40.21578,914,1178
116.85068,40.21578,915,1178
116.85068,40.21578,916,1178
116.85068,40.21577,917,1178
116.85068,40.21577,918,1178
116.85068,40.21577,919,1178
116.85067,40.21577,920,1178
116.85067,40.21577,921,1178
116.85067,40.21577,922,1178
116.85067,40.21577,923,1178
116.85067,40.21577,924,1178
116.85067,40.21577,925,1178
116.85067,40.21576,926,1178
116.85067,40.21576,927,1178
116.85067,40.21576,928,1178
116.85067,40.21576,929,1178
116.85067,40.21577,930,1178
116.85067,40.21577,931,1178
116.85067,40.21577,932,1178
116.85067,40.21577,933,1178
116.85067,40.21577,934,1178
116.85067,40.21577,935,1178
116.85067,40.21577,936,1178
116.85067,40.21577,937,1178
116.85067,40.21577,938,1178
116.85067,40.21577,939,1178
116.85067,40.21577,940,1178
116.85067,40.21577,941,1178
116.85067,40.21577,942,1178
116.85067,40.21577,943,1178
116.85067,40.21577,944,1178
116.85067,40.21577,945,1178
116.85067,40.21577,946,1178
116.85067,40.21577,947,1178
116.85067,40.21577,948,1178
116.85067,40.21576,949,1178
116.85067,40.21576,950,1178
116.85067,40.21576,951,1178
116.85067,40.21576,952,1178
116.85067,40.21576,953,1178
116.85067,40.21576,954,1178
116.85067,40.21575,955,1178
116.85067,40.21575,956,1178
116.85067,40.21575,957,1178
116.85067,40.21575,958,1178
116.85067,40.21575,959,1178
116.85067,40.21575,960,1178
116.85067,40.21575,961,1178
116.85067,40.21575,962,1178
116.85067,40.21575,963,1178
116.85067,40.21575,964,1178
116.85067,40.21574,965,1178
116.85067,40.21574,966,1178
116.85067,40.21574,967,1178
116.85067,40.21574,968,1178
116.85066,40.21574,969,1178
116.85066,40.21574,970,1178
116.85066,40.21574,971,1178
116.85066,40.21574,972,1178
116.85066,40.21574,973,1178
116.85066,40.21574,974,1178
116.85066,40.21574,975,1178
116.85066,40.21573,976,1178
116.85066,40.21573,977,1178
116.85066,40.21573,978,1178
116.85067,40.21573,979,1178
116.85067,40.21573,980,1178
116.85067,40.21573,981,1178
116.85067,40.21573,982,1178
116.85066,40.21572,983,1178
116.85066,40.21572,984,1178
116.85066,40.21572,985,1178
116.85066,40.21572,986,1178
116.85067,40.21572,987,1178
116.85066,40.21572,988,1178
116.85066,40.21572,989,1178
116.85066,40.21572,990,1178
116.85067,40.21572,991,1178
116.85067,40.21572,992,1178
116.85067,40.21572,993,1178
116.85067,40.21572,994,1178
116.85067,40.21572,995,1178
116.85067,40.21572,996,1178
116.85067,40.21572,997,1178
116.85067,40.21572,998,1178
116.85067,40.21572,999,1178
116.85067,40.21572,1000,1178
116.85067,40.21572,1001,1178
116.85067,40.21572,1002,1178
116.85067,40.21572,1003,1178
116.85067,40.21572,1004,1178
116.85067,40.21572,1005,1178
116.85067,40.21572,1006,1178
116.85067,40.21572,1007,1178
116.85067,40.21572,1008,1178
116.85067,40.21572,1009,1178
116.85067,40.21572,1010,1178
116.85067,40.21572,1011,1178
116.85067,40.21572,1012,1178
116.85067,40.21572,1013,1178
116.85068,40.21573,1014,1178
116.85068,40.21573,1015,1178
116.85068,40.21573,1016,1178
116.85068,40.21573,1017,1178
116.85068,40.21573,1018,1178
116.85068,40.21573,1019,1178
116.85068,40.21573,1020,1178
116.85068,40.21573,1021,1178
116.85068,40.21574,1022,1178
116.85068,40.21574,1023,1178
116.85068,40.21574,1024,1178
116.85068,40.21574,1025,1178
116.85068,40.21574,1026,1178
116.85068,40.21574,1027,1178
116.85068,40.21574,1028,1178
116.85068,40.21574,1029,1178
116.85068,40.21574,1030,1178
116.85068,40.21574,1031,1178
116.85068,40.21574,1032,1178
116.85068,40.21575,1033,1178
116.85068,40.21575,1034,1178
116.85068,40.21575,1035,1178
116.85068,40.21575,1036,1178
116.85068,40.21575,1037,1178
116.85068,40.21575,1038,1178
116.85068,40.21575,1039,1178
116.85068,40.21575,1040,1178
116.85068,40.21575,1041,1178
116.85068,40.21575,1042,1178
116.85069,40.21575,1043,1178
116.85073,40.21571,1044,1178
116.85072,40.21573,1045,1178
116.85072,40.21575,1046,1178
116.85071,40.21576,1047,1178
116.8507,40.21577,1048,1178
116.85069,40.21577,1049,1178
116.85069,40.21577,1050,1178
116.8507,40.21577,1051,1178
116.8507,40.21577,1052,1178
116.8507,40.21577,1053,1178
116.8507,40.21577,1054,1178
116.8507,40.21577,1055,1178
116.8507,40.21577,1056,1178
116.85069,40.21577,1057,1178
116.85069,40.21577,1058,1178
116.85069,40.21577,1059,1178
116.85069,40.21577,1060,1178
116.85071,40.21577,1061,1178
116.8507,40.21577,1062,1178
116.85069,40.21578,1063,1178
116.85069,40.21578,1064,1178
116.85069,40.21578,1065,1178
116.85069,40.21578,1066,1178
116.85069,40.21578,1067,1178
116.85069,40.21578,1068,1178
116.85069,40.21578,1069,1178
116.85068,40.21578,1070,1178
116.85068,40.21578,1071,1178
116.85068,40.21578,1072,1178
116.85068,40.21578,1073,1178
116.85068,40.21578,1074,1178
116.85068,40.21578,1075,1178
116.85067,40.21577,1076,1178
116.85067,40.21577,1077,1178
116.85067,40.21577,1078,1178
116.85067,40.21577,1079,1178
116.85067,40.21577,1080,1178
116.85067,40.21577,1081,1178
116.85067,40.21577,1082,1178
116.85067,40.21577,1083,1178
116.85067,40.21577,1084,1178
116.85059,40.21561,1085,1178
116.85063,40.21564,1086,1178
116.85061,40.21564,1087,1178
116.85076,40.21576,1088,1178
116.85067,40.2158,1089,1178
116.85067,40.2158,1090,1178
116.85069,40.2158,1091,1178
116.85069,40.21581,1092,1178
116.85068,40.21581,1093,1178
116.85069,40.21581,1094,1178
116.85069,40.21582,1095,1178
116.85069,40.21582,1096,1178
116.8507,40.21582,1097,1178
116.8507,40.21582,1098,1178
116.8507,40.21582,1099,1178
116.8507,40.21583,1100,1178
116.8507,40.21583,1101,1178
116.84942,40.21585,1102,1178
116.84628,40.20101,1103,1178
116.79562,40.21006,1104,1178
116.8079,40.14802,1105,1178
116.73574,40.12408,1106,1178
116.66516,40.11493,1107,1178
116.6066,40.11662,1108,1178
116.55611,40.10648,1109,1178
116.54254,40.06413,1110,1178
116.53663,40.06947,1111,1178
116.53663,40.06947,1112,1178
116.52497,40.03569,1113,1178
116.51611,40.03334,1114,1178
116.51692,40.02373,1115,1178
116.48209,39.98811,1116,1178
116.4766,39.96875,1117,1178
116.4888,39.96185,1118,1178
116.49237,39.95873,1119,1178
116.49235,39.95875,1120,1178
116.49232,39.95879,1121,1178
116.49217,39.95914,1122,1178
116.47146,39.95318,1123,1178
116.45538,39.92915,1124,1178
116.43783,39.92215,1125,1178
116.44386,39.92548,1126,1178
116.44796,39.93438,1127,1178
116.44796,39.93438,1128,1178
116.44544,39.92082,1129,1178
116.44544,39.92082,1130,1178
116.46078,39.93249,1131,1178
116.46625,39.93959,1132,1178
116.46728,39.93389,1133,1178
116.4748,39.96278,1134,1178
116.47326,39.97468,1135,1178
116.47634,39.96718,1136,1178
116.47634,39.96718,1137,1178
116.47433,39.96469,1138,1178
116.47422,39.96465,1139,1178
116.47449,39.96459,1140,1178
116.47411,39.96485,1141,1178
116.47413,39.96482,1142,1178
116.47455,39.96448,1143,1178
116.4744,39.96488,1144,1178
116.4744,39.96491,1145,1178
116.47515,39.96545,1146,1178
116.47103,39.97274,1147,1178
116.47553,39.96983,1148,1178
116.45541,39.9416,1149,1178
116.45361,39.93124,1150,1178
116.45432,39.9322,1151,1178
116.43967,39.92161,1152,1178
116.4363,39.92216,1153,1178
116.44976,39.91924,1154,1178
116.45244,39.91331,1155,1178
116.44384,39.9081,1156,1178
116.45211,39.89422,1157,1178
116.45799,39.89928,1158,1178
116.45799,39.89928,1159,1178
116.45553,39.90279,1160,1178
116.46159,39.90674,1161,1178
116.47181,39.90837,1162,1178
116.43484,39.92199,1163,1178
116.41119,39.91379,1164,1178
116.41211,39.90017,1165,1178
116.41212,39.89888,1166,1178
116.40528,39.90435,1167,1178
116.43236,39.91695,1168,1178
116.4167,39.90701,1169,1178
116.37815,39.90604,1170,1178
116.33823,39.906,1171,1178
116.28898,39.91066,1172,1178
116.27779,39.89898,1173,1178
116.28301,39.899,1174,1178
116.28889,39.88852,1175,1178
116.29169,39.88821,1176,1178
116.27492,39.88836,1177,1178
116.24788,39.89589,1178,1178
116.2538,39.88835,1179,1178
116.254,39.89326,1180,1178
116.254,39.89326,1181,1178
116.24981,39.88837,1182,1178
116.25563,39.88826,1183,1178
116.26829,39.89361,1184,1178
116.31357,39.89538,1185,1178
116.31374,39.89501,1186,1178
116.31374,39.89501,1187,1178
116.31374,39.89501,1188,1178
116.31374,39.89501,1189,1178
116.31374,39.89501,1190,1178
116.31374,39.89501,1191,1178
116.31374,39.89501,1192,1178
116.31374,39.89501,1193,1178
116.35061,39.91032,1194,1178
116.37363,39.9473,1195,1178
116.38914,39.9511,1196,1178
116.39628,39.95565,1197,1178
116.39188,39.94982,1198,1178
116.3994,39.95955,1199,1178
116.39937,39.95637,1200,1178
116.39305,39.96192,1201,1178
116.37686,39.9755,1202,1178
116.36367,39.9795,1203,1178
116.35615,39.98044,1204,1178
116.35686,39.98036,1205,1178
116.40934,39.98727,1206,1178
116.482,39.95555,1207,1178
116.48832,39.92023,1208,1178
116.48671,39.91905,1209,1178
116.48833,39.91967,1210,1178
116.48968,39.92158,1211,1178
116.49002,39.92095,1212,1178
116.48992,39.92086,1213,1178
116.48992,39.92086,1214,1178
116.48986,39.92081,1215,1178
116.48986,39.92081,1216,1178
116.49458,39.9217,1217,1178
116.46653,39.89936,1218,1178
116.4554,39.90614,1219,1178
116.44421,39.9118,1220,1178
116.452,39.91621,1221,1178
116.45204,39.91585,1222,1178
116.44424,39.92904,1223,1178
116.4377,39.93499,1224,1178
116.45568,39.91242,1225,1178
116.47121,39.88493,1226,1178
116.47178,39.90379,1227,1178
116.47172,39.90984,1228,1178
116.43055,39.91251,1229,1178
116.43751,39.93294,1230,1178
116.43162,39.92301,1231,1178
116.43193,39.92272,1232,1178
116.4504,39.91916,1233,1178
116.47137,39.91421,1234,1178
116.48362,39.90956,1235,1178
116.50464,39.89657,1236,1178
116.49612,39.89956,1237,1178
116.47133,39.895,1238,1178
116.45503,39.8893,1239,1178
116.42537,39.85735,1240,1178
116.4088,39.84158,1241,1178
116.4044,39.8411,1242,1178
116.40877,39.84325,1243,1178
116.41506,39.87516,1244,1178
116.41848,39.88832,1245,1178
116.41841,39.88838,1246,1178
116.41622,39.88596,1247,1178
116.41622,39.88596,1248,1178
116.4153,39.88586,1249,1178
116.3925,39.88302,1250,1178
116.39258,39.88259,1251,1178
116.41287,39.89163,1252,1178
116.45077,39.90278,1253,1178
116.49044,39.90714,1254,1178
116.46695,39.93251,1255,1178
116.45528,39.92949,1256,1178
116.44893,39.92549,1257,1178
116.42792,39.92312,1258,1178
116.42469,39.90964,1259,1178
116.42354,39.91069,1260,1178
116.41971,39.93205,1261,1178
116.41167,39.9396,1262,1178
116.41792,39.95278,1263,1178
116.41898,39.95046,1264,1178
116.41953,39.93251,1265,1178
116.41953,39.93251,1266,1178
116.39872,39.92761,1267,1178
116.39601,39.92524,1268,1178
116.4108,39.92286,1269,1178
116.41184,39.96873,1270,1178
116.41126,40.03146,1271,1178
116.41078,39.99689,1272,1178
116.41254,39.96073,1273,1178
116.41342,39.96256,1274,1178
116.41519,39.96063,1275,1178
116.41597,39.96063,1276,1178
116.43832,39.94792,1277,1178
116.45539,39.93263,1278,1178
116.46303,39.90723,1279,1178
116.46332,39.91878,1280,1178
116.44351,39.92154,1281,1178
116.42894,39.90762,1282,1178
116.3958,39.90641,1283,1178
116.42821,39.9246,1284,1178
116.4412,39.93237,1285,1178
116.44409,39.92669,1286,1178
116.43768,39.91202,1287,1178
116.43478,39.91566,1288,1178
116.40467,39.90678,1289,1178
116.37996,39.88828,1290,1178
116.36209,39.87705,1291,1178
116.36225,39.86401,1292,1178
116.35852,39.86395,1293,1178
116.35818,39.83866,1294,1178
116.36447,39.88199,1295,1178
116.36427,39.88792,1296,1178
116.39458,39.89046,1297,1178
116.43647,39.89228,1298,1178
116.48556,39.89174,1299,1178
116.50154,39.89018,1300,1178
116.48427,39.89211,1301,1178
116.48392,39.90233,1302,1178
116.85073,40.2157,1303,1178
116.85071,40.21569,1304,1178
116.85072,40.21568,1305,1178
116.85072,40.21569,1306,1178
116.85072,40.2157,1307,1178
116.85072,40.21571,1308,1178
116.85072,40.21571,1309,1178
116.85072,40.21571,1310,1178
116.85071,40.21572,1311,1178
116.85071,40.21573,1312,1178
116.85071,40.21572,1313,1178
116.85071,40.21572,1314,1178
116.85071,40.21571,1315,1178
116.85071,40.21571,1316,1178
116.85071,40.21571,1317,1178
116.85071,40.21571,1318,1178
116.85071,40.21572,1319,1178
116.85071,40.21572,1320,1178
116.85071,40.21572,1321,1178
116.85071,40.21572,1322,1178
116.85071,40.21572,1323,1178
116.85071,40.21573,1324,1178
116.85071,40.21573,1325,1178
116.85071,40.21573,1326,1178
116.85071,40.21573,1327,1178
116.85071,40.21573,1328,1178
116.85071,40.21573,1329,1178
116.85071,40.21573,1330,1178
116.85071,40.21573,1331,1178
116.85072,40.21573,1332,1178
116.85072,40.21573,1333,1178
116.85072,40.21573,1334,1178
116.85073,40.21572,1335,1178
116.85073,40.21572,1336,1178
116.85072,40.21572,1337,1178
116.85072,40.21572,1338,1178
116.85073,40.21572,1339,1178
116.85072,40.21572,1340,1178
116.85072,40.21572,1341,1178
116.85072,40.21572,1342,1178
116.85087,40.21566,1343,1178
116.85059,40.21562,1344,1178
116.85064,40.21563,1345,1178
116.85065,40.21563,1346,1178
116.85065,40.21565,1347,1178
116.85065,40.21566,1348,1178
116.85065,40.21566,1349,1178
116.85065,40.21566,1350,1178
116.85072,40.21578,1351,1178
116.85061,40.21569,1352,1178
116.85058,40.2157,1353,1178
116.8506,40.2157,1354,1178
116.8506,40.2157,1355,1178
116.85061,40.2157,1356,1178
116.85061,40.2157,1357,1178
116.85061,40.21571,1358,1178
116.85062,40.21572,1359,1178
116.85063,40.21573,1360,1178
116.85065,40.21574,1361,1178
116.85065,40.21574,1362,1178
116.85066,40.21575,1363,1178
116.85067,40.21575,1364,1178
116.85068,40.21575,1365,1178
116.85068,40.21575,1366,1178
116.85069,40.21575,1367,1178
116.85069,40.21575,1368,1178
116.85069,40.21575,1369,1178
116.85069,40.21575,1370,1178
116.8507,40.21575,1371,1178
116.8507,40.21574,1372,1178
116.85069,40.21574,1373,1178
116.85069,40.21574,1374,1178
116.85069,40.21573,1375,1178
116.85069,40.21573,1376,1178
116.85069,40.21573,1377,1178
116.85069,40.21573,1378,1178
116.85069,40.21572,1379,1178
116.85069,40.21572,1380,1178
116.8507,40.21571,1381,1178
116.8507,40.21571,1382,1178
116.8507,40.21571,1383,1178
116.8507,40.21571,1384,1178
116.8507,40.21571,1385,1178
116.8507,40.21571,1386,1178
116.85071,40.21571,1387,1178
116.85071,40.21572,1388,1178
116.85071,40.21572,1389,1178
116.8507,40.21572,1390,1178
116.8507,40.21572,1391,1178
116.8507,40.21572,1392,1178
116.8507,40.21572,1393,1178
116.8507,40.21572,1394,1178
116.8507,40.21572,1395,1178
116.85379,40.21841,1396,1178
116.85383,40.21841,1397,1178
116.85383,40.21841,1398,1178
116.85384,40.21843,1399,1178
116.85384,40.21844,1400,1178
116.85384,40.21845,1401,1178
116.85384,40.21845,1402,1178
116.85384,40.21845,1403,1178
116.85384,40.21845,1404,1178
116.85385,40.21845,1405,1178
116.85385,40.21844,1406,1178
116.85385,40.21845,1407,1178
116.85385,40.21845,1408,1178
116.85385,40.21846,1409,1178
116.85385,40.21846,1410,1178
116.85385,40.21846,1411,1178
116.85386,40.21846,1412,1178
116.85386,40.21846,1413,1178
116.85386,40.21847,1414,1178
116.85386,40.21847,1415,1178
116.85386,40.21847,1416,1178
116.85387,40.21847,1417,1178
116.85387,40.21848,1418,1178
116.85387,40.21848,1419,1178
116.85387,40.21848,1420,1178
116.85387,40.21847,1421,1178
116.85387,40.21847,1422,1178
116.85388,40.21847,1423,1178
116.85388,40.21847,1424,1178
116.85388,40.21847,1425,1178
116.85388,40.21846,1426,1178
116.85388,40.21846,1427,1178
116.85388,40.21846,1428,1178
116.85388,40.21847,1429,1178
116.85388,40.21847,1430,1178
116.85388,40.21847,1431,1178
116.85388,40.21847,1432,1178
116.85388,40.21847,1433,1178
116.85388,40.21847,1434,1178
116.85388,40.21847,1435,1178
116.85388,40.21847,1436,1178
116.85388,40.21847,1437,1178
116.85388,40.21847,1438,1178
116.85388,40.21847,1439,1178
116.85388,40.21847,1440,1178
116.85387,40.21847,1441,1178
116.85387,40.21847,1442,1178
116.85387,40.21848,1443,1178
116.85387,40.21848,1444,1178
116.85387,40.21848,1445,1178
116.85387,40.21848,1446,1178
116.85387,40.21848,1447,1178
116.85387,40.21848,1448,1178
116.85387,40.21848,1449,1178
116.85387,40.21848,1450,1178
116.85387,40.21848,1451,1178
116.85387,40.21848,1452,1178
116.85386,40.21848,1453,1178
116.85386,40.21848,1454,1178
116.85386,40.21848,1455,1178
116.85386,40.21848,1456,1178
116.85386,40.21848,1457,1178
116.85386,40.21847,1458,1178
116.85386,40.21847,1459,1178
116.85386,40.21847,1460,1178
116.85386,40.21847,1461,1178
116.85387,40.21847,1462,1178
116.85387,40.21847,1463,1178
116.85387,40.21847,1464,1178
116.85387,40.21847,1465,1178
116.85387,40.21847,1466,1178
116.85387,40.21847,1467,1178
116.85387,40.21847,1468,1178
116.85387,40.21848,1469,1178
116.85387,40.21848,1470,1178
116.85387,40.21848,1471,1178
116.85387,40.21848,1472,1178
116.85387,40.21848,1473,1178
116.85387,40.21848,1474,1178
116.85387,40.21848,1475,1178
116.85387,40.21848,1476,1178
116.85387,40.21848,1477,1178
116.85387,40.21848,1478,1178
116.85387,40.21849,1479,1178
116.85387,40.21849,1480,1178
116.85387,40.21849,1481,1178
116.85387,40.21849,1482,1178
116.85387,40.21849,1483,1178
116.85388,40.21849,1484,1178
116.85388,40.21849,1485,1178
116.85387,40.21849,1486,1178
116.85387,40.21849,1487,1178
116.85387,40.2185,1488,1178
116.85387,40.2185,1489,1178
116.85387,40.2185,1490,1178
116.85387,40.2185,1491,1178
116.85387,40.2185,1492,1178
116.85387,40.21849,1493,1178
116.85387,40.21849,1494,1178
116.85387,40.21849,1495,1178
116.85387,40.21849,1496,1178
116.85387,40.21849,1497,1178
116.85386,40.21849,1498,1178
116.85386,40.21849,1499,1178
116.85386,40.21849,1500,1178
116.85386,40.21849,1501,1178
116.85386,40.21849,1502,1178
116.85386,40.21849,1503,1178
116.85386,40.21849,1504,1178
116.85386,40.21849,1505,1178
116.85385,40.21849,1506,1178
116.85385,40.2185,1507,1178
116.85385,40.2185,1508,1178
116.85385,40.21849,1509,1178
116.85385,40.21849,1510,1178
116.85385,40.21849,1511,1178
116.85385,40.21849,1512,1178
116.85385,40.2185,1513,1178
116.8535,40.21847,1514,1178
116.85072,40.21575,1515,1178
116.8507,40.21572,1516,1178
116.8507,40.21573,1517,1178
116.8507,40.21572,1518,1178
116.8507,40.21572,1519,1178
116.8507,40.21572,1520,1178
116.8507,40.21571,1521,1178
116.8507,40.21572,1522,1178
116.8507,40.21572,1523,1178
116.85071,40.21571,1524,1178
116.85071,40.21571,1525,1178
116.85071,40.2157,1526,1178
116.85071,40.2157,1527,1178
116.85071,40.2157,1528,1178
116.85071,40.2157,1529,1178
116.8507,40.2157,1530,1178
116.8507,40.2157,1531,1178
116.8507,40.2157,1532,1178
116.85071,40.2157,1533,1178
116.85071,40.2157,1534,1178
116.85071,40.2157,1535,1178
116.85071,40.2157,1536,1178
116.85071,40.2157,1537,1178
116.85071,40.2157,1538,1178
116.8507,40.21571,1539,1178
116.8507,40.21571,1540,1178
116.8507,40.21571,1541,1178
116.8507,40.21571,1542,1178
116.8507,40.21572,1543,1178
116.8507,40.21572,1544,1178
116.8507,40.21572,1545,1178
116.8507,40.21572,1546,1178
116.8507,40.21572,1547,1178
116.8507,40.21572,1548,1178
116.8507,40.21572,1549,1178
116.8507,40.21572,1550,1178
116.8507,40.21572,1551,1178
116.8507,40.21572,1552,1178
116.8507,40.21572,1553,1178
116.8507,40.21572,1554,1178
116.8507,40.21572,1555,1178
116.85071,40.21571,1556,1178
116.85071,40.21571,1557,1178
116.85071,40.21571,1558,1178
116.85071,40.21571,1559,1178
116.85071,40.21571,1560,1178
116.85071,40.21571,1561,1178
116.85071,40.21571,1562,1178
116.85071,40.21571,1563,1178
116.85071,40.21571,1564,1178
116.85071,40.21571,1565,1178
116.85071,40.21571,1566,1178
116.85071,40.21571,1567,1178
116.85072,40.21571,1568,1178
116.85072,40.21571,1569,1178
116.85072,40.21573,1570,1178
116.85072,40.21573,1571,1178
116.85072,40.21572,1572,1178
116.85071,40.21573,1573,1178
116.85072,40.21573,1574,1178
116.85072,40.21573,1575,1178
116.85071,40.21573,1576,1178
116.85071,40.21573,1577,1178
116.85071,40.21573,1578,1178
116.85071,40.21573,1579,1178
116.85071,40.21573,1580,1178
116.85071,40.21573,1581,1178
116.85071,40.21573,1582,1178
116.85071,40.21573,1583,1178
116.85071,40.21573,1584,1178
116.85071,40.21573,1585,1178
116.85071,40.21573,1586,1178
116.85097,40.21572,1587,1178
116.85079,40.2157,1588,1178
116.85078,40.21572,1589,1178
116.85078,40.2157,1590,1178
116.85078,40.2157,1591,1178
116.85079,40.21569,1592,1178
116.85079,40.21568,1593,1178
116.85079,40.21568,1594,1178
116.85078,40.21569,1595,1178
116.85078,40.21571,1596,1178
116.85077,40.21571,1597,1178
116.85077,40.21572,1598,1178
116.85077,40.21572,1599,1178
116.85076,40.21573,1600,1178
116.85076,40.21573,1601,1178
116.85076,40.21573,1602,1178
116.85075,40.21572,1603,1178
116.85075,40.21573,1604,1178
116.85075,40.21573,1605,1178
116.85074,40.21573,1606,1178
116.85074,40.21574,1607,1178
116.85074,40.21574,1608,1178
116.85074,40.21574,1609,1178
116.85073,40.21575,1610,1178
116.85073,40.21575,1611,1178
116.85073,40.21575,1612,1178
116.85073,40.21575,1613,1178
116.85072,40.21575,1614,1178
116.85072,40.21575,1615,1178
116.85072,40.21575,1616,1178
116.85071,40.21575,1617,1178
116.85071,40.21575,1618,1178
116.85071,40.21575,1619,1178
116.85071,40.21575,1620,1178
116.85071,40.21575,1621,1178
116.85071,40.21575,1622,1178
116.85071,40.21574,1623,1178
116.8507,40.21574,1624,1178
116.8507,40.21574,1625,1178
116.8507,40.21574,1626,1178
116.8507,40.21574,1627,1178
116.8507,40.21574,1628,1178
116.8507,40.21574,1629,1178
116.85072,40.21567,1630,1178
116.85045,40.21564,1631,1178
116.85057,40.21566,1632,1178
116.85059,40.21565,1633,1178
116.85061,40.21564,1634,1178
116.85062,40.21563,1635,1178
116.85063,40.21563,1636,1178
116.85063,40.21562,1637,1178
116.85064,40.21563,1638,1178
116.85064,40.21562,1639,1178
116.85064,40.21563,1640,1178
116.85064,40.21563,1641,1178
116.85064,40.21563,1642,1178
116.85059,40.21577,1643,1178
116.85058,40.21566,1644,1178
116.8506,40.21568,1645,1178
116.85062,40.21568,1646,1178
116.85062,40.21569,1647,1178
116.85063,40.21571,1648,1178
116.85063,40.21571,1649,1178
116.85064,40.2157,1650,1178
116.85065,40.2157,1651,1178
116.85066,40.21571,1652,1178
116.85067,40.21571,1653,1178
116.85068,40.21571,1654,1178
116.85068,40.21571,1655,1178
116.85069,40.21571,1656,1178
116.8507,40.21571,1657,1178
116.8507,40.21572,1658,1178
116.8507,40.21571,1659,1178
116.8507,40.21571,1660,1178
116.85071,40.21571,1661,1178
116.8507,40.21572,1662,1178
116.8507,40.21571,1663,1178
116.85071,40.21571,1664,1178
116.8507,40.21571,1665,1178
116.85071,40.21571,1666,1178
116.8507,40.2157,1667,1178
116.85287,40.21926,1668,1178
116.85973,40.22044,1669,1178
116.85971,40.22045,1670,1178
116.85973,40.22045,1671,1178
116.85974,40.22045,1672,1178
116.85975,40.22044,1673,1178
116.85974,40.22044,1674,1178
116.85974,40.22044,1675,1178
116.85974,40.22045,1676,1178
116.85975,40.22045,1677,1178
116.85975,40.22046,1678,1178
116.85975,40.22046,1679,1178
116.85975,40.22047,1680,1178
116.85975,40.22047,1681,1178
116.85975,40.22047,1682,1178
116.85975,40.22047,1683,1178
116.85975,40.22047,1684,1178
116.85975,40.22047,1685,1178
116.85975,40.22047,1686,1178
116.85975,40.22047,1687,1178
116.85975,40.22047,1688,1178
116.85975,40.22047,1689,1178
116.85975,40.22047,1690,1178
116.85975,40.22047,1691,1178
116.85975,40.22048,1692,1178
116.85975,40.22047,1693,1178
116.85976,40.22047,1694,1178
116.85976,40.22047,1695,1178
116.85976,40.22047,1696,1178
116.85976,40.22047,1697,1178
116.85976,40.22047,1698,1178
116.85976,40.22047,1699,1178
116.85976,40.22048,1700,1178
116.85976,40.22048,1701,1178
116.85976,40.22048,1702,1178
116.85976,40.22048,1703,1178
116.85976,40.22048,1704,1178
116.85976,40.22048,1705,1178
116.85976,40.22048,1706,1178
116.85976,40.22048,1707,1178
116.85976,40.22048,1708,1178
116.85976,40.22048,1709,1178
116.85976,40.22048,1710,1178
116.85976,40.22049,1711,1178
116.85976,40.22049,1712,1178
116.85976,40.22049,1713,1178
116.85976,40.22048,1714,1178
116.85976,40.22048,1715,1178
116.85976,40.22048,1716,1178
116.85978,40.22049,1717,1178
116.85978,40.22048,1718,1178
116.85978,40.22049,1719,1178
116.85978,40.22049,1720,1178
116.85978,40.22049,1721,1178
116.85978,40.22049,1722,1178
116.85978,40.22049,1723,1178
116.85977,40.22049,1724,1178
116.85977,40.22049,1725,1178
116.85977,40.22049,1726,1178
