x,y,k,tid
116.40252,39.93364,0,1191
116.40248,39.93283,1,1191
116.40272,39.92809,2,1191
116.40125,39.93206,3,1191
116.39002,39.93387,4,1191
116.38964,39.93611,5,1191
116.37872,39.9476,6,1191
116.37155,39.94757,7,1191
116.36426,39.94707,8,1191
116.35581,39.94484,9,1191
116.3533,39.95068,10,1191
116.35529,39.95267,11,1191
116.35234,39.95319,12,1191
116.35979,39.96629,13,1191
116.36795,39.96648,14,1191
116.33936,40.02958,15,1191
116.34003,40.02964,16,1191
116.34514,40.0231,17,1191
116.33485,40.01371,18,1191
116.33917,40.01375,19,1191
116.34101,40.01815,20,1191
116.34197,40.02436,21,1191
116.33692,40.02938,22,1191
116.33927,40.02945,23,1191
116.34264,40.00614,24,1191
116.34292,40.00168,25,1191
116.35311,39.99977,26,1191
116.35157,39.99193,27,1191
116.35157,39.99193,28,1191
116.3628,39.99213,29,1191
116.36351,39.98049,30,1191
116.36388,39.97609,31,1191
116.34244,39.9664,32,1191
116.30379,39.94634,33,1191
116.30404,39.92041,34,1191
116.29078,39.89972,35,1191
116.31525,39.89491,36,1191
116.31615,39.89505,37,1191
116.26644,39.89649,38,1191
116.27721,39.84917,39,1191
116.27725,39.84907,40,1191
116.27782,39.85093,41,1191
116.28899,39.86457,42,1191
116.31194,39.8741,43,1191
116.32068,39.8761,44,1191
116.32039,39.88075,45,1191
116.31632,39.88867,46,1191
116.30104,39.88221,47,1191
116.29543,39.88354,48,1191
116.30363,39.88446,49,1191
116.30337,39.88348,50,1191
116.29968,39.89563,51,1191
116.35067,39.89929,52,1191
116.35046,39.91628,53,1191
116.34678,39.92271,54,1191
116.34726,39.92848,55,1191
116.34884,39.93098,56,1191
116.3748,39.96888,57,1191
116.3748,39.96888,58,1191
116.36753,39.9957,59,1191
116.36731,39.99592,60,1191
116.30423,39.98425,61,1191
116.30317,39.98359,62,1191
116.30359,39.98364,63,1191
116.30359,39.98364,64,1191
116.30369,39.98396,65,1191
116.33089,39.98482,66,1191
116.38702,39.98657,67,1191
116.47491,39.96237,68,1191
116.47444,39.9071,69,1191
116.46672,39.9072,70,1191
116.46597,39.90735,71,1191
116.47163,39.91034,72,1191
116.47203,39.91301,73,1191
116.47447,39.91956,74,1191
116.47218,39.92126,75,1191
116.47222,39.92608,76,1191
116.46845,39.94039,77,1191
116.46249,39.94766,78,1191
116.45899,39.95788,79,1191
116.44676,39.95699,80,1191
116.41301,39.95593,81,1191
116.41182,39.96655,82,1191
116.39561,39.97127,83,1191
116.3155,39.96582,84,1191
116.30404,39.91577,85,1191
116.28798,39.90632,86,1191
116.24791,39.9063,87,1191
116.22386,39.89543,88,1191
116.25322,39.9027,89,1191
116.26715,39.90619,90,1191
116.31634,39.92188,91,1191
116.30394,39.91407,92,1191
116.30394,39.91407,93,1191
116.31127,39.85607,94,1191
116.33809,39.80703,95,1191
116.32196,39.79699,96,1191
116.30623,39.83561,97,1191
116.29007,39.84205,98,1191
116.28218,39.83982,99,1191
116.27052,39.8793,100,1191
116.28912,39.89749,101,1191
116.28912,39.89749,102,1191
116.28913,39.8975,103,1191
116.29666,39.90614,104,1191
116.31727,39.88837,105,1191
116.32068,39.8767,106,1191
116.3205,39.88315,107,1191
116.33643,39.88822,108,1191
116.35061,39.91251,109,1191
116.34961,39.93486,110,1191
116.40153,39.99317,111,1191
116.3984,40.00346,112,1191
116.40764,39.99758,113,1191
116.3658,40.01221,114,1191
116.3658,40.01221,115,1191
116.36805,40.01263,116,1191
116.36463,40.00035,117,1191
116.31315,40.07386,118,1191
116.3173,40.0603,119,1191
116.32081,40.05219,120,1191
116.32812,40.03778,121,1191
116.34228,40.02794,122,1191
116.34552,40.02001,123,1191
116.34314,40.00636,124,1191
116.34482,39.99946,125,1191
116.38592,39.9866,126,1191
116.4182,39.97716,127,1191
116.41121,39.97406,128,1191
116.41123,39.97405,129,1191
116.41123,39.97405,130,1191
116.42978,39.97888,131,1191
116.42978,39.97888,132,1191
116.42978,39.97888,133,1191
116.42978,39.97888,134,1191
116.42978,39.97888,135,1191
116.42978,39.97888,136,1191
116.42978,39.97888,137,1191
116.42978,39.97888,138,1191
116.42978,39.97888,139,1191
116.42978,39.97888,140,1191
116.42978,39.97888,141,1191
116.42978,39.97888,142,1191
116.42978,39.97888,143,1191
116.42978,39.97888,144,1191
116.42978,39.97888,145,1191
116.42978,39.97888,146,1191
116.42978,39.97888,147,1191
116.42978,39.97888,148,1191
116.42978,39.97888,149,1191
116.42978,39.97888,150,1191
116.42978,39.97888,151,1191
116.42978,39.97888,152,1191
116.42978,39.97888,153,1191
116.42978,39.97896,154,1191
116.4307,39.97905,155,1191
116.42639,39.97593,156,1191
116.42647,39.98224,157,1191
116.41901,39.95651,158,1191
116.42865,39.91353,159,1191
116.39432,39.87529,160,1191
116.40401,39.88682,161,1191
116.41236,39.89687,162,1191
116.41262,39.89771,163,1191
116.41227,39.89997,164,1191
116.4047,39.9184,165,1191
116.40168,39.93207,166,1191
116.38998,39.93433,167,1191
116.39961,39.95012,168,1191
116.3958,39.94788,169,1191
116.38751,39.94787,170,1191
116.37345,39.95215,171,1191
116.37337,39.9564,172,1191
116.35251,39.96673,173,1191
116.3514,39.96658,174,1191
116.35201,39.97365,175,1191
116.35122,39.97363,176,1191
116.35122,39.97363,177,1191
116.36829,39.98611,178,1191
116.40149,39.99428,179,1191
116.40016,40.00376,180,1191
116.39885,40.00403,181,1191
116.42954,39.98784,182,1191
116.45551,39.95091,183,1191
116.41058,39.96778,184,1191
116.40406,39.96768,185,1191
116.37476,39.98307,186,1191
116.37476,39.98307,187,1191
116.38804,39.97458,188,1191
116.37577,39.97548,189,1191
116.37121,39.97368,190,1191
116.37277,39.96925,191,1191
116.3728,39.96768,192,1191
116.37112,39.96698,193,1191
116.36519,39.96682,194,1191
116.36777,39.97047,195,1191
116.36626,39.96688,196,1191
116.36537,39.9668,197,1191
116.36397,39.96911,198,1191
116.37519,39.97536,199,1191
116.37839,39.97547,200,1191
116.36362,39.97977,201,1191
116.37128,39.98061,202,1191
116.37128,39.98059,203,1191
116.37128,39.98059,204,1191
116.37128,39.98059,205,1191
116.36452,39.98582,206,1191
116.38717,39.98166,207,1191
116.38738,39.95123,208,1191
116.37507,39.95002,209,1191
116.37335,39.95016,210,1191
116.36577,39.94794,211,1191
116.36621,39.94819,212,1191
116.36621,39.94819,213,1191
116.36363,39.98072,214,1191
116.37383,39.98594,215,1191
116.37923,39.98096,216,1191
116.38139,39.97965,217,1191
116.37477,39.9745,218,1191
116.37277,39.97324,219,1191
116.3544,39.97533,220,1191
116.34844,39.98523,221,1191
116.35156,39.98535,222,1191
116.35728,39.98557,223,1191
116.35931,39.98274,224,1191
116.35931,39.98274,225,1191
116.35927,39.98273,226,1191
116.35929,39.98273,227,1191
116.35929,39.98273,228,1191
116.35934,39.98273,229,1191
116.35934,39.98273,230,1191
116.35934,39.98273,231,1191
116.3594,39.98272,232,1191
116.3594,39.98272,233,1191
116.3594,39.98272,234,1191
116.3594,39.98272,235,1191
116.35938,39.98276,236,1191
116.35938,39.98276,237,1191
116.35938,39.98276,238,1191
116.35938,39.98276,239,1191
116.36391,39.96801,240,1191
116.37899,39.96429,241,1191
116.37893,39.96177,242,1191
116.37539,39.97276,243,1191
116.37258,39.97435,244,1191
116.37258,39.97435,245,1191
116.37258,39.97435,246,1191
116.37258,39.97435,247,1191
116.37258,39.97435,248,1191
116.37258,39.97435,249,1191
116.37258,39.97435,250,1191
116.37258,39.97435,251,1191
116.37258,39.97435,252,1191
116.37284,39.97022,253,1191
116.32514,39.96621,254,1191
116.31232,39.97488,255,1191
116.31082,39.97663,256,1191
116.31069,39.97893,257,1191
116.30971,39.99159,258,1191
116.31265,40.00935,259,1191
116.31021,39.9802,260,1191
116.319,39.975,261,1191
116.34759,39.98324,262,1191
116.36313,39.98842,263,1191
116.37279,39.98603,264,1191
116.37462,39.98592,265,1191
116.38111,39.98469,266,1191
116.38111,39.98469,267,1191
116.38111,39.98469,268,1191
116.37547,39.97544,269,1191
116.37465,39.97336,270,1191
116.37465,39.97336,271,1191
116.37015,39.95671,272,1191
116.35598,39.95667,273,1191
116.34954,39.96581,274,1191
116.35129,39.9662,275,1191
116.36379,39.97305,276,1191
116.36366,39.97156,277,1191
116.34981,39.96686,278,1191
116.35255,39.97365,279,1191
116.35255,39.97365,280,1191
116.35255,39.97365,281,1191
116.35229,39.97361,282,1191
116.35229,39.97361,283,1191
116.35229,39.97361,284,1191
116.35229,39.97361,285,1191
116.35229,39.97362,286,1191
116.35219,39.97363,287,1191
116.35916,39.98576,288,1191
116.38117,39.99243,289,1191
116.38104,39.99395,290,1191
116.38105,39.99143,291,1191
116.35593,39.98594,292,1191
116.35593,39.98594,293,1191
116.33841,39.98491,294,1191
116.34458,39.98517,295,1191
116.34328,39.9752,296,1191
116.32989,39.97702,297,1191
116.33154,39.97541,298,1191
116.35293,39.96624,299,1191
116.38852,39.96227,300,1191
116.42732,39.94186,301,1191
116.42857,39.9146,302,1191
116.42066,39.90463,303,1191
116.41657,39.90213,304,1191
116.41368,39.9001,305,1191
116.41116,39.92622,306,1191
116.38782,39.93209,307,1191
116.36872,39.99389,308,1191
116.36171,40.03872,309,1191
116.34705,40.02031,310,1191
116.36702,39.99554,311,1191
116.37279,39.97278,312,1191
116.3596,39.97518,313,1191
116.37064,39.98081,314,1191
116.36351,39.98095,315,1191
116.35925,39.98644,316,1191
116.35478,39.9861,317,1191
116.33803,39.98489,318,1191
116.30886,40.00173,319,1191
116.33479,39.98471,320,1191
116.34466,39.98506,321,1191
116.41173,40.02448,322,1191
116.41685,40.04327,323,1191
116.41038,40.03477,324,1191
116.41806,40.05888,325,1191
116.41129,40.03164,326,1191
116.40358,40.008,327,1191
116.40088,39.96861,328,1191
116.40088,39.96861,329,1191
116.37125,39.98058,330,1191
116.3713,39.9805,331,1191
116.37131,39.9805,332,1191
116.3945,39.98719,333,1191
116.36668,39.98638,334,1191
116.36352,39.97768,335,1191
116.36654,39.97542,336,1191
116.36654,39.97542,337,1191
116.36654,39.97542,338,1191
116.37318,39.97547,339,1191
116.36363,39.97437,340,1191
116.36417,39.96688,341,1191
116.36423,39.96688,342,1191
116.36422,39.96686,343,1191
116.36437,39.97531,344,1191
116.37065,39.97013,345,1191
116.37046,39.97371,346,1191
116.37046,39.97371,347,1191
116.37046,39.97371,348,1191
116.37046,39.97371,349,1191
116.37046,39.97371,350,1191
116.37046,39.97371,351,1191
116.37056,39.97368,352,1191
116.37056,39.97368,353,1191
116.37056,39.97368,354,1191
116.37053,39.9737,355,1191
116.37053,39.9737,356,1191
116.37053,39.9737,357,1191
116.37053,39.9737,358,1191
116.37053,39.9737,359,1191
116.37053,39.9737,360,1191
116.37053,39.9737,361,1191
116.37053,39.9737,362,1191
116.37053,39.9737,363,1191
116.37049,39.97371,364,1191
116.37049,39.97371,365,1191
116.37049,39.97371,366,1191
116.37049,39.97371,367,1191
116.37049,39.97371,368,1191
116.37049,39.97371,369,1191
116.37049,39.97371,370,1191
116.37049,39.97371,371,1191
116.37053,39.97366,372,1191
116.37053,39.97366,373,1191
116.37053,39.97366,374,1191
116.3706,39.97358,375,1191
116.37053,39.97367,376,1191
116.37057,39.97364,377,1191
116.37057,39.97364,378,1191
116.37057,39.97361,379,1191
116.37056,39.97364,380,1191
116.37056,39.97364,381,1191
116.37059,39.97362,382,1191
116.37046,39.97368,383,1191
116.37046,39.97368,384,1191
116.37044,39.97371,385,1191
116.37044,39.97371,386,1191
116.37044,39.97371,387,1191
116.37044,39.97371,388,1191
116.37044,39.97371,389,1191
116.3704,39.97373,390,1191
116.37034,39.9738,391,1191
116.37034,39.9738,392,1191
116.37034,39.9738,393,1191
116.37034,39.9738,394,1191
116.37034,39.9738,395,1191
116.37034,39.9738,396,1191
116.37034,39.9738,397,1191
116.37034,39.9738,398,1191
116.37034,39.9738,399,1191
116.37034,39.9738,400,1191
116.37034,39.9738,401,1191
116.36077,39.9667,402,1191
116.35944,39.97512,403,1191
116.32973,39.97528,404,1191
116.32973,39.97528,405,1191
116.32812,39.98136,406,1191
116.32709,39.98189,407,1191
116.32813,39.98134,408,1191
116.3305,39.98065,409,1191
116.33048,39.98065,410,1191
116.33046,39.98065,411,1191
116.33046,39.98065,412,1191
116.33046,39.98065,413,1191
116.33046,39.98065,414,1191
116.33046,39.98065,415,1191
116.33046,39.98065,416,1191
116.33146,39.98782,417,1191
116.33389,39.99547,418,1191
116.33385,39.99648,419,1191
116.35974,39.99994,420,1191
116.37395,40.00045,421,1191
116.37395,40.00045,422,1191
116.36934,40.00036,423,1191
116.37294,39.95299,424,1191
116.32604,39.89598,425,1191
116.31525,39.89619,426,1191
116.31542,39.892,427,1191
116.30793,39.88521,428,1191
116.30474,39.90469,429,1191
116.30964,39.90614,430,1191
116.32872,39.91007,431,1191
116.33791,39.92638,432,1191
116.3396,39.93104,433,1191
116.34982,39.9335,434,1191
116.36591,39.94702,435,1191
116.36513,39.95397,436,1191
116.38797,39.97284,437,1191
116.42746,39.94451,438,1191
116.41885,39.90817,439,1191
116.42043,39.9088,440,1191
116.42047,39.91387,441,1191
116.40367,39.91402,442,1191
116.39666,39.91558,443,1191
116.39337,39.92331,444,1191
116.38428,39.93207,445,1191
116.37211,39.93157,446,1191
116.32709,39.93694,447,1191
116.30183,39.95591,448,1191
116.30274,39.95956,449,1191
116.37476,39.97589,450,1191
116.43476,39.96514,451,1191
116.4283,39.96829,452,1191
116.37193,39.97379,453,1191
116.37198,39.97381,454,1191
116.37198,39.97381,455,1191
116.37208,39.97388,456,1191
116.37208,39.97388,457,1191
116.37208,39.97388,458,1191
116.37208,39.97388,459,1191
116.37208,39.97388,460,1191
116.37208,39.97388,461,1191
116.37208,39.97388,462,1191
116.37208,39.97388,463,1191
116.37208,39.97388,464,1191
116.37208,39.97388,465,1191
116.37208,39.97388,466,1191
116.37208,39.97388,467,1191
116.37208,39.97388,468,1191
116.37208,39.97388,469,1191
116.37208,39.97388,470,1191
116.36802,39.97372,471,1191
116.37069,39.98066,472,1191
116.37225,39.9879,473,1191
116.37098,39.99284,474,1191
116.36357,40.00083,475,1191
116.36349,40.00531,476,1191
116.36349,40.00531,477,1191
116.3795,40.0084,478,1191
116.39961,39.97389,479,1191
116.40107,39.97048,480,1191
116.44647,39.95746,481,1191
116.45504,39.93018,482,1191
116.45565,39.93014,483,1191
116.43874,39.93988,484,1191
116.43505,39.93985,485,1191
116.37462,39.95213,486,1191
116.373,39.93876,487,1191
116.36905,39.94108,488,1191
116.37366,39.93253,489,1191
116.35292,39.93338,490,1191
116.35296,39.93242,491,1191
116.35214,39.93103,492,1191
116.35,39.91967,493,1191
116.34577,39.91266,494,1191
116.34337,39.91262,495,1191
116.33842,39.92126,496,1191
116.32724,39.93458,497,1191
116.34789,39.93927,498,1191
116.34645,39.93926,499,1191
116.33014,39.95005,500,1191
116.33088,39.9487,501,1191
116.33044,39.95013,502,1191
116.3482,39.95666,503,1191
116.36487,39.95429,504,1191
116.35306,39.95105,505,1191
116.35143,39.9508,506,1191
116.34992,39.92691,507,1191
116.34634,39.89693,508,1191
116.30645,39.8844,509,1191
116.29542,39.88401,510,1191
116.30001,39.88859,511,1191
116.29448,39.88993,512,1191
116.28905,39.89202,513,1191
116.28916,39.90266,514,1191
116.27803,39.90625,515,1191
116.2843,39.92253,516,1191
116.30122,39.92248,517,1191
116.30147,39.92251,518,1191
116.29543,39.92284,519,1191
116.3042,39.93886,520,1191
116.30638,39.94996,521,1191
116.27902,39.95851,522,1191
116.26911,39.96284,523,1191
116.26577,39.92317,524,1191
116.2604,39.9232,525,1191
116.24732,39.92454,526,1191
116.24692,39.91505,527,1191
116.24685,39.91005,528,1191
116.24886,39.9164,529,1191
116.26414,39.91638,530,1191
116.27038,39.92314,531,1191
116.26881,39.9332,532,1191
116.27381,39.96012,533,1191
116.27765,39.96337,534,1191
116.27923,39.9603,535,1191
116.29565,39.95832,536,1191
116.30029,39.95794,537,1191
116.30719,39.95565,538,1191
116.3083,39.95015,539,1191
116.3083,39.95015,540,1191
116.30399,39.93397,541,1191
116.30405,39.92012,542,1191
116.30634,39.89567,543,1191
116.3149,39.89498,544,1191
116.31649,39.8951,545,1191
116.31518,39.89702,546,1191
116.30438,39.91637,547,1191
116.29866,39.92302,548,1191
116.30165,39.93108,549,1191
116.30215,39.93108,550,1191
116.30327,39.93109,551,1191
116.30528,39.93975,552,1191
116.31918,39.93733,553,1191
116.31927,39.94179,554,1191
116.31602,39.96557,555,1191
116.37493,39.97706,556,1191
116.36993,39.99655,557,1191
116.37206,39.99595,558,1191
116.37308,39.99298,559,1191
116.37449,39.99961,560,1191
116.37061,39.96691,561,1191
116.3042,39.89323,562,1191
116.31606,39.8831,563,1191
116.31269,39.88715,564,1191
116.29678,39.88506,565,1191
116.30517,39.88436,566,1191
116.30769,39.91996,567,1191
116.30703,39.92004,568,1191
116.35996,39.84947,569,1191
116.35859,39.85807,570,1191
116.34454,39.87253,571,1191
116.35685,39.88775,572,1191
116.35736,39.89035,573,1191
116.35708,39.91206,574,1191
116.31526,39.89618,575,1191
116.3153,39.89772,576,1191
116.30782,39.90644,577,1191
116.3046,39.90784,578,1191
116.3487,39.96619,579,1191
116.34926,39.97518,580,1191
116.3594,39.96988,581,1191
116.3594,39.96988,582,1191
116.34879,39.96729,583,1191
116.34816,39.97498,584,1191
116.33131,39.97567,585,1191
116.33105,39.97561,586,1191
116.33034,39.97538,587,1191
116.35113,39.96624,588,1191
116.38812,39.96651,589,1191
116.38865,39.95743,590,1191
116.37292,39.98425,591,1191
116.35691,39.99492,592,1191
116.35142,39.99222,593,1191
116.35142,39.99222,594,1191
116.34996,39.99211,595,1191
116.34634,40.02863,596,1191
116.3476,40.02876,597,1191
116.33951,40.0137,598,1191
116.34393,40.01385,599,1191
116.34636,40.00101,600,1191
116.30695,39.96285,601,1191
116.30373,39.94066,602,1191
116.29861,39.93718,603,1191
116.30599,39.94364,604,1191
116.30614,39.94301,605,1191
116.3179,39.95123,606,1191
116.31781,39.95211,607,1191
116.31313,39.97107,608,1191
116.33348,39.97491,609,1191
116.34758,39.97511,610,1191
116.37458,39.97536,611,1191
116.37589,39.97535,612,1191
116.3728,39.96819,613,1191
116.37281,39.96769,614,1191
116.37275,39.97314,615,1191
116.43467,39.98536,616,1191
116.43007,39.97909,617,1191
116.43028,39.97932,618,1191
116.43028,39.97932,619,1191
116.43028,39.97932,620,1191
116.43028,39.97932,621,1191
116.43028,39.97932,622,1191
116.43028,39.97932,623,1191
116.43028,39.97932,624,1191
116.43028,39.97932,625,1191
116.43028,39.97932,626,1191
116.43028,39.97932,627,1191
116.43028,39.97932,628,1191
116.43028,39.97932,629,1191
116.43028,39.97932,630,1191
116.43028,39.97932,631,1191
116.43028,39.97932,632,1191
116.43028,39.97932,633,1191
116.43028,39.97932,634,1191
116.43028,39.97932,635,1191
116.42996,39.98066,636,1191
116.42996,39.98035,637,1191
116.42996,39.98035,638,1191
116.42993,39.98027,639,1191
116.42993,39.98027,640,1191
116.42825,39.98186,641,1191
116.42827,39.9819,642,1191
116.43017,39.98217,643,1191
116.42478,39.9774,644,1191
116.41799,39.98316,645,1191
116.40735,39.9875,646,1191
116.38184,39.98115,647,1191
116.3781,39.98099,648,1191
116.37046,39.99188,649,1191
116.3742,39.99533,650,1191
116.37415,39.9953,651,1191
116.37415,39.9953,652,1191
116.37415,39.9953,653,1191
116.37435,39.99966,654,1191
116.37009,40.00026,655,1191
116.36969,40.00184,656,1191
116.36617,40.01619,657,1191
116.36617,40.01619,658,1191
116.36617,40.01619,659,1191
116.36314,40.01632,660,1191
116.36269,40.01463,661,1191
116.36853,40.01063,662,1191
116.3643,40.00021,663,1191
116.36941,39.99239,664,1191
116.37458,39.97544,665,1191
116.36459,39.95871,666,1191
116.36637,39.94698,667,1191
116.35403,39.94379,668,1191
116.35238,39.94337,669,1191
116.33047,39.93706,670,1191
116.30376,39.939,671,1191
116.30378,39.93718,672,1191
116.29551,39.92864,673,1191
116.29543,39.92861,674,1191
116.29543,39.92861,675,1191
116.29543,39.92861,676,1191
116.29543,39.92861,677,1191
116.30321,39.93104,678,1191
116.34047,39.93759,679,1191
116.37402,39.94966,680,1191
116.37674,39.97535,681,1191
116.37605,39.97536,682,1191
116.37609,39.97551,683,1191
116.37462,39.97428,684,1191
116.37053,39.97377,685,1191
116.37201,39.97378,686,1191
116.37251,39.97372,687,1191
116.37248,39.97366,688,1191
116.37248,39.97366,689,1191
116.37248,39.97366,690,1191
116.37248,39.97366,691,1191
116.36564,39.96682,692,1191
116.34839,39.97118,693,1191
116.35253,39.97361,694,1191
116.35253,39.97361,695,1191
116.35253,39.97361,696,1191
116.35253,39.97361,697,1191
116.35253,39.97361,698,1191
116.35259,39.97315,699,1191
116.35259,39.97315,700,1191
116.35234,39.97319,701,1191
116.3523,39.97327,702,1191
116.3523,39.97327,703,1191
116.31963,39.96607,704,1191
116.30393,39.91288,705,1191
116.30161,39.90715,706,1191
116.30161,39.90715,707,1191
116.30161,39.90715,708,1191
116.28545,39.90901,709,1191
116.28546,39.909,710,1191
116.28204,39.9227,711,1191
116.29865,39.9226,712,1191
116.33003,39.92166,713,1191
116.36265,39.91653,714,1191
116.36712,39.91032,715,1191
116.36783,39.90615,716,1191
116.36781,39.90461,717,1191
116.3679,39.90668,718,1191
116.36763,39.90831,719,1191
116.3673,39.90972,720,1191
116.36739,39.91703,721,1191
116.36689,39.93012,722,1191
116.36673,39.93372,723,1191
116.3661,39.94195,724,1191
116.36506,39.95559,725,1191
116.364,39.96567,726,1191
116.35945,39.9567,727,1191
116.40167,39.99319,728,1191
116.40167,39.9932,729,1191
116.41838,39.9744,730,1191
116.4194,39.97276,731,1191
116.41147,39.98221,732,1191
116.40477,39.98193,733,1191
116.39635,39.97561,734,1191
116.38433,39.96728,735,1191
116.37129,39.96704,736,1191
116.38433,39.98102,737,1191
116.38656,39.9811,738,1191
116.35581,39.96643,739,1191
116.30414,39.94566,740,1191
116.30351,39.95388,741,1191
116.37298,39.97531,742,1191
116.37274,39.97457,743,1191
116.37279,39.97462,744,1191
116.37279,39.97462,745,1191
116.37279,39.97462,746,1191
116.37279,39.96994,747,1191
116.35253,39.9736,748,1191
116.35253,39.9736,749,1191
116.35107,39.97359,750,1191
116.34942,39.97357,751,1191
116.32891,39.95651,752,1191
116.34855,39.9564,753,1191
116.34997,39.94274,754,1191
116.34998,39.92058,755,1191
116.34691,39.89704,756,1191
116.34691,39.89704,757,1191
116.31574,39.896,758,1191
116.31244,39.90625,759,1191
116.3102,39.90632,760,1191
116.30443,39.91961,761,1191
116.31981,39.92938,762,1191
116.31986,39.93113,763,1191
116.31913,39.94216,764,1191
116.31732,39.95499,765,1191
116.3031,39.93119,766,1191
116.30021,39.93118,767,1191
116.28392,39.93106,768,1191
116.28123,39.94536,769,1191
116.28281,39.94567,770,1191
116.30439,39.94229,771,1191
116.30705,39.96254,772,1191
116.31246,39.96452,773,1191
116.32218,39.98443,774,1191
109.53418,19.53645,775,1191
116.37408,39.99419,776,1191
116.28614,39.95674,777,1191
116.27814,39.97315,778,1191
116.28666,39.98055,779,1191
116.29997,39.97735,780,1191
116.31267,39.97178,781,1191
116.31184,39.97422,782,1191
116.31118,39.97554,783,1191
116.31862,39.98289,784,1191
116.32709,39.98255,785,1191
116.34145,39.98508,786,1191
116.34465,39.98508,787,1191
116.34465,39.98508,788,1191
116.34476,39.98506,789,1191
116.34486,39.98506,790,1191
116.34494,39.98506,791,1191
116.34494,39.98506,792,1191
116.34673,39.98512,793,1191
116.36186,39.98585,794,1191
116.40464,39.98705,795,1191
116.41728,39.98206,796,1191
116.41728,39.98206,797,1191
116.41819,39.98219,798,1191
116.40149,39.99367,799,1191
116.39563,39.99694,800,1191
116.39563,39.99694,801,1191
116.3956,39.99696,802,1191
116.3956,39.99696,803,1191
116.3956,39.99696,804,1191
116.3956,39.99702,805,1191
116.3956,39.99702,806,1191
116.3956,39.99702,807,1191
116.39561,39.99703,808,1191
116.39561,39.99703,809,1191
116.39561,39.99703,810,1191
116.39561,39.99703,811,1191
116.39561,39.99703,812,1191
116.3956,39.99706,813,1191
116.39733,39.99705,814,1191
116.39733,39.99705,815,1191
116.39759,39.99709,816,1191
116.40119,39.97186,817,1191
116.37849,39.96723,818,1191
116.37823,39.96722,819,1191
116.36374,39.98065,820,1191
116.29266,39.97308,821,1191
116.29283,39.97175,822,1191
116.311,39.97469,823,1191
116.31044,39.98231,824,1191
116.26711,40.0307,825,1191
116.25306,40.05167,826,1191
116.25306,40.05167,827,1191
116.24987,40.05159,828,1191
116.29858,40.05542,829,1191
116.32959,40.08223,830,1191
116.33032,40.08332,831,1191
116.31219,40.07356,832,1191
116.31238,40.05809,833,1191
116.30458,40.05669,834,1191
116.30342,40.03682,835,1191
116.31359,40.03589,836,1191
116.31929,40.03421,837,1191
116.36271,40.00018,838,1191
116.36298,39.98823,839,1191
116.35419,39.99217,840,1191
116.35847,39.99227,841,1191
116.36609,39.97538,842,1191
116.36603,39.97538,843,1191
116.36603,39.97538,844,1191
116.36587,39.97541,845,1191
116.36426,39.9754,846,1191
116.40794,39.99382,847,1191
116.40469,39.99376,848,1191
116.36909,40.00542,849,1191
116.36386,39.99975,850,1191
116.37478,39.97623,851,1191
116.36674,39.97548,852,1191
116.3668,39.97546,853,1191
116.3666,39.97549,854,1191
116.3666,39.97549,855,1191
116.36631,39.97547,856,1191
116.3663,39.97546,857,1191
116.36626,39.97544,858,1191
116.36604,39.97542,859,1191
116.36604,39.97542,860,1191
116.36604,39.97542,861,1191
116.36604,39.97542,862,1191
116.36275,39.96658,863,1191
116.2952,39.94392,864,1191
116.29807,39.93999,865,1191
116.29807,39.93999,866,1191
116.30817,39.95009,867,1191
116.31785,39.95049,868,1191
116.32878,39.9562,869,1191
116.33192,39.96607,870,1191
116.33207,39.97369,871,1191
116.3469,39.97509,872,1191
116.37259,39.97451,873,1191
116.37174,39.97372,874,1191
116.37174,39.97372,875,1191
116.37174,39.97372,876,1191
116.37179,39.97367,877,1191
116.37179,39.97367,878,1191
116.37179,39.97367,879,1191
116.37182,39.9737,880,1191
116.37181,39.97371,881,1191
116.37181,39.97371,882,1191
116.37181,39.97371,883,1191
116.37181,39.97371,884,1191
116.37181,39.97371,885,1191
116.37177,39.97369,886,1191
116.37177,39.97369,887,1191
116.37177,39.97369,888,1191
116.37177,39.9737,889,1191
116.37177,39.9737,890,1191
116.37176,39.97372,891,1191
116.37176,39.97372,892,1191
116.37176,39.97372,893,1191
116.37176,39.97372,894,1191
116.37176,39.97372,895,1191
116.37176,39.97372,896,1191
116.37176,39.97372,897,1191
116.37176,39.97377,898,1191
116.37176,39.97378,899,1191
116.37175,39.97386,900,1191
116.37173,39.974,901,1191
116.37176,39.97384,902,1191
116.36772,39.97233,903,1191
116.37309,39.97841,904,1191
116.37309,39.97841,905,1191
116.36895,39.97374,906,1191
116.35591,39.96659,907,1191
116.35257,39.97361,908,1191
116.35212,39.97363,909,1191
116.30388,39.94245,910,1191
116.30884,39.86703,911,1191
116.30622,39.87001,912,1191
116.34677,39.89601,913,1191
116.35005,39.91253,914,1191
116.35005,39.91253,915,1191
116.35884,39.92231,916,1191
116.37339,39.92945,917,1191
116.35706,39.90016,918,1191
116.35714,39.89111,919,1191
116.3683,39.89703,920,1191
116.36826,39.89735,921,1191
116.33418,39.89633,922,1191
116.31523,39.90576,923,1191
116.35851,39.91746,924,1191
116.36118,39.92761,925,1191
116.36198,39.93089,926,1191
116.36637,39.94016,927,1191
116.43008,39.95327,928,1191
116.31523,39.89616,929,1191
116.3221,39.90967,930,1191
116.33841,39.91291,931,1191
116.36282,39.91292,932,1191
116.36729,39.92094,933,1191
116.36649,39.93961,934,1191
116.40303,39.99078,935,1191
116.40783,39.98827,936,1191
116.37446,39.97434,937,1191
116.37446,39.97434,938,1191
116.37287,39.96818,939,1191
116.37287,39.96818,940,1191
116.37281,39.97361,941,1191
116.37281,39.97361,942,1191
116.36524,39.97371,943,1191
116.36707,39.98058,944,1191
116.36707,39.98058,945,1191
116.38006,39.98109,946,1191
116.37878,39.9809,947,1191
116.38005,39.98093,948,1191
116.38186,39.97063,949,1191
116.39147,39.97553,950,1191
116.40187,39.97717,951,1191
116.40308,39.98031,952,1191
116.40409,39.98194,953,1191
116.41103,39.98704,954,1191
116.41911,39.99224,955,1191
116.42429,39.99288,956,1191
116.41453,39.98779,957,1191
116.41412,39.98831,958,1191
116.41421,39.98781,959,1191
116.41116,39.99712,960,1191
116.40641,39.99979,961,1191
116.39898,39.99343,962,1191
116.39822,40.00703,963,1191
116.39413,40.00071,964,1191
116.39413,40.00071,965,1191
116.39448,39.99134,966,1191
116.36339,39.98628,967,1191
116.36298,39.9918,968,1191
116.3628,39.99167,969,1191
116.30141,39.98403,970,1191
116.30141,39.98403,971,1191
116.27981,39.97457,972,1191
116.25383,39.92079,973,1191
116.25391,39.9189,974,1191
116.2584,39.91635,975,1191
116.27854,39.92285,976,1191
116.31264,39.96463,977,1191
116.31799,39.96555,978,1191
116.32172,39.96579,979,1191
116.36173,39.96643,980,1191
116.37364,39.96676,981,1191
116.39556,39.97105,982,1191
116.3929,39.96846,983,1191
116.38198,39.96828,984,1191
116.36411,39.9644,985,1191
116.36489,39.95421,986,1191
116.3494,39.95137,987,1191
116.34912,39.95634,988,1191
116.34869,39.95658,989,1191
116.3436,39.95722,990,1191
116.34298,39.96605,991,1191
116.34968,39.96366,992,1191
116.34837,39.97185,993,1191
116.34837,39.97185,994,1191
116.35212,39.97357,995,1191
116.35208,39.97348,996,1191
116.35208,39.97348,997,1191
116.35031,39.97352,998,1191
116.31225,39.96475,999,1191
116.30403,39.91804,1000,1191
116.31371,39.89514,1001,1191
116.31495,39.89486,1002,1191
116.30787,39.89597,1003,1191
116.30787,39.89597,1004,1191
116.289,39.90465,1005,1191
116.2891,39.90578,1006,1191
116.27866,39.92172,1007,1191
116.25915,39.92334,1008,1191
116.21343,39.93202,1009,1191
116.20343,39.93265,1010,1191
116.2298,39.92917,1011,1191
116.24642,39.92842,1012,1191
116.25697,39.92792,1013,1191
116.27304,39.92744,1014,1191
116.27872,39.92437,1015,1191
116.27884,39.92464,1016,1191
116.2912,39.93092,1017,1191
116.30433,39.94014,1018,1191
116.30433,39.94014,1019,1191
116.30429,39.94139,1020,1191
116.34811,39.95666,1021,1191
116.36465,39.95628,1022,1191
116.36395,39.96665,1023,1191
116.3723,39.97371,1024,1191
116.37273,39.96799,1025,1191
116.37275,39.96803,1026,1191
116.37275,39.96803,1027,1191
116.36732,39.9737,1028,1191
116.36445,39.98582,1029,1191
116.39542,39.99697,1030,1191
116.39542,39.99697,1031,1191
116.37819,39.98111,1032,1191
116.37504,39.98098,1033,1191
116.35186,40.01616,1034,1191
116.31255,40.06739,1035,1191
116.31012,40.07083,1036,1191
116.30447,40.08053,1037,1191
116.27556,40.11098,1038,1191
116.24771,40.15103,1039,1191
116.22365,40.1991,1040,1191
116.21494,40.21494,1041,1191
116.20944,40.24254,1042,1191
116.20154,40.29198,1043,1191
116.18002,40.30015,1044,1191
116.1779,40.31069,1045,1191
116.14145,40.32722,1046,1191
116.1378,40.33446,1047,1191
116.11883,40.34685,1048,1191
116.09547,40.37696,1049,1191
116.0814,40.38001,1050,1191
116.07529,40.39674,1051,1191
116.07836,40.42823,1052,1191
116.08943,40.44018,1053,1191
116.08982,40.4632,1054,1191
116.11548,40.48868,1055,1191
116.12879,40.49878,1056,1191
116.14775,40.50771,1057,1191
116.14772,40.5076,1058,1191
116.14772,40.5076,1059,1191
116.14772,40.5076,1060,1191
116.14772,40.5076,1061,1191
116.14772,40.5076,1062,1191
116.14772,40.5076,1063,1191
116.14772,40.5076,1064,1191
116.14772,40.5076,1065,1191
116.14772,40.5076,1066,1191
116.14772,40.5076,1067,1191
116.14772,40.5076,1068,1191
116.14772,40.5076,1069,1191
116.14772,40.5076,1070,1191
116.14772,40.5076,1071,1191
116.14772,40.5076,1072,1191
116.14772,40.5076,1073,1191
116.14772,40.5076,1074,1191
116.14772,40.5076,1075,1191
116.14772,40.5076,1076,1191
116.14772,40.5076,1077,1191
116.14772,40.5076,1078,1191
116.14772,40.5076,1079,1191
116.14772,40.5076,1080,1191
116.14772,40.5076,1081,1191
116.14771,40.5076,1082,1191
116.14778,40.50771,1083,1191
116.14778,40.50771,1084,1191
116.14778,40.50771,1085,1191
116.14778,40.50771,1086,1191
116.14834,40.50883,1087,1191
116.15729,40.52764,1088,1191
116.15689,40.5289,1089,1191
116.15737,40.52988,1090,1191
116.15725,40.53006,1091,1191
116.15725,40.53006,1092,1191
116.15725,40.53006,1093,1191
116.15719,40.53012,1094,1191
116.15416,40.52701,1095,1191
116.15416,40.52074,1096,1191
116.15096,40.51834,1097,1191
116.14776,40.50759,1098,1191
116.14776,40.50758,1099,1191
116.1466,40.50825,1100,1191
116.14472,40.50827,1101,1191
116.14325,40.50849,1102,1191
116.14325,40.50849,1103,1191
116.14325,40.50849,1104,1191
116.14763,40.5086,1105,1191
116.14777,40.50758,1106,1191
116.14777,40.50758,1107,1191
116.14777,40.50758,1108,1191
116.14776,40.50755,1109,1191
116.14775,40.5076,1110,1191
116.14775,40.5076,1111,1191
116.14775,40.5076,1112,1191
116.14775,40.5076,1113,1191
116.14775,40.5076,1114,1191
116.14868,40.50924,1115,1191
116.18669,40.50006,1116,1191
116.21933,40.48669,1117,1191
116.22704,40.4848,1118,1191
116.22058,40.46652,1119,1191
116.22162,40.44298,1120,1191
116.22422,40.43538,1121,1191
116.24895,40.41504,1122,1191
116.25884,40.39968,1123,1191
116.25695,40.39511,1124,1191
116.24932,40.38391,1125,1191
116.24158,40.36937,1126,1191
116.23973,40.36991,1127,1191
116.23563,40.34356,1128,1191
116.22978,40.30932,1129,1191
116.23281,40.30446,1130,1191
116.23535,40.28027,1131,1191
116.21004,40.23966,1132,1191
116.20846,40.23672,1133,1191
116.21751,40.20977,1134,1191
116.23469,40.17386,1135,1191
116.23686,40.16816,1136,1191
116.25624,40.13918,1137,1191
116.26706,40.11703,1138,1191
116.27315,40.11244,1139,1191
116.27315,40.11244,1140,1191
116.30145,40.08068,1141,1191
116.33193,40.04186,1142,1191
116.33772,40.03422,1143,1191
116.35761,40.00841,1144,1191
116.37482,39.97577,1145,1191
116.37482,39.97577,1146,1191
116.37482,39.97577,1147,1191
116.3745,39.97439,1148,1191
116.36409,39.96678,1149,1191
116.3651,39.95546,1150,1191
116.36915,39.96021,1151,1191
116.36915,39.96021,1152,1191
116.36435,39.96316,1153,1191
116.36399,39.96611,1154,1191
116.36199,39.98034,1155,1191
116.35944,39.9672,1156,1191
116.29793,39.95931,1157,1191
116.28235,39.95637,1158,1191
116.2785,39.95154,1159,1191
116.27853,39.9515,1160,1191
116.29269,39.95803,1161,1191
116.29609,39.9599,1162,1191
116.29254,39.96127,1163,1191
116.292,39.96279,1164,1191
116.31383,39.9651,1165,1191
116.30581,39.96568,1166,1191
116.301,39.96855,1167,1191
116.30949,39.97459,1168,1191
116.38127,39.98777,1169,1191
116.38129,39.99012,1170,1191
116.34982,40.02283,1171,1191
116.34982,40.02283,1172,1191
116.3379,40.02947,1173,1191
116.34545,40.0201,1174,1191
116.34582,40.01419,1175,1191
116.34223,40.00634,1176,1191
116.34648,39.99992,1177,1191
116.35862,39.99792,1178,1191
116.35943,39.97635,1179,1191
116.35067,39.96778,1180,1191
116.35181,39.97361,1181,1191
116.35204,39.97362,1182,1191
116.35027,39.97364,1183,1191
116.33226,39.97225,1184,1191
116.33211,39.97339,1185,1191
116.35045,39.97516,1186,1191
116.37285,39.96865,1187,1191
116.37282,39.96795,1188,1191
116.37277,39.96782,1189,1191
116.37267,39.96793,1190,1191
116.37267,39.96793,1191,1191
116.37267,39.96793,1192,1191
116.37267,39.96793,1193,1191
116.37267,39.96793,1194,1191
116.37267,39.96793,1195,1191
116.41675,39.94794,1196,1191
116.41109,39.93957,1197,1191
116.41582,39.94186,1198,1191
116.41684,39.94184,1199,1191
116.4423,39.95782,1200,1191
116.4423,39.95782,1201,1191
116.41909,39.95646,1202,1191
116.41898,39.95329,1203,1191
116.41306,39.95259,1204,1191
116.41304,39.95259,1205,1191
116.41304,39.95259,1206,1191
116.41304,39.95259,1207,1191
116.41213,39.96039,1208,1191
116.44039,39.96154,1209,1191
116.44124,39.96098,1210,1191
116.46145,39.9498,1211,1191
116.48945,39.95844,1212,1191
116.48975,39.95852,1213,1191
116.49136,39.95892,1214,1191
116.4691,39.96654,1215,1191
116.46043,39.97237,1216,1191
116.4582,39.97612,1217,1191
116.48374,39.94007,1218,1191
116.58481,39.90813,1219,1191
