x,y,k,tid
116.42323,39.98713,0,1317
116.45496,39.97532,1,1317
116.47442,39.96257,2,1317
116.48369,39.9357,3,1317
116.44982,39.90276,4,1317
116.43764,39.89343,5,1317
116.43676,39.86965,6,1317
116.41359,39.86982,7,1317
116.38151,39.86994,8,1317
116.38153,39.86429,9,1317
116.38293,39.85971,10,1317
116.38122,39.86328,11,1317
116.38122,39.86328,12,1317
116.38665,39.86992,13,1317
116.47131,39.96489,14,1317
116.47832,39.98348,15,1317
116.50905,40.01125,16,1317
116.52836,40.02045,17,1317
116.54318,40.02575,18,1317
116.55863,40.0312,19,1317
116.57931,40.04706,20,1317
116.58275,40.0657,21,1317
116.58261,40.11011,22,1317
116.59536,40.11668,23,1317
116.62245,40.1163,24,1317
116.64632,40.11616,25,1317
116.67168,40.11452,26,1317
116.69506,40.12434,27,1317
116.71788,40.12126,28,1317
116.74464,40.12897,29,1317
116.76331,40.14002,30,1317
116.76331,40.14002,31,1317
116.80556,40.14771,32,1317
116.8074,40.1479,33,1317
116.82933,40.14994,34,1317
116.87126,40.15207,35,1317
116.87219,40.152,36,1317
116.90801,40.15236,37,1317
116.93391,40.151,38,1317
116.96198,40.14791,39,1317
116.98444,40.14228,40,1317
116.99826,40.13922,41,1317
117.01196,40.14077,42,1317
117.02752,40.14249,43,1317
117.03263,40.14319,44,1317
117.05912,40.1444,45,1317
117.08997,40.1435,46,1317
117.11625,40.1488,47,1317
117.11898,40.14878,48,1317
117.12555,40.14971,49,1317
117.1254,40.14972,50,1317
117.11882,40.15303,51,1317
117.11882,40.15436,52,1317
117.13061,40.15252,53,1317
117.15041,40.16335,54,1317
117.15041,40.16335,55,1317
117.15041,40.16335,56,1317
117.19126,40.16729,57,1317
117.19324,40.16735,58,1317
117.24686,40.17543,59,1317
117.24845,40.17563,60,1317
117.27143,40.18259,61,1317
117.27173,40.18184,62,1317
117.27329,40.18026,63,1317
117.27329,40.18026,64,1317
117.22701,40.17225,65,1317
117.22273,40.17145,66,1317
117.15955,40.16587,67,1317
117.15998,40.16704,68,1317
117.16109,40.17098,69,1317
117.16104,40.17099,70,1317
117.16104,40.17099,71,1317
117.16104,40.17099,72,1317
117.16104,40.17099,73,1317
117.16104,40.17099,74,1317
117.16104,40.17099,75,1317
117.16104,40.17099,76,1317
117.16104,40.17099,77,1317
117.16104,40.17099,78,1317
117.16104,40.17099,79,1317
117.16104,40.17099,80,1317
117.16104,40.17099,81,1317
117.16104,40.17099,82,1317
117.1808,40.167,83,1317
117.18603,40.16716,84,1317
117.24037,40.17528,85,1317
117.25104,40.17613,86,1317
117.27329,40.18026,87,1317
117.27324,40.18029,88,1317
117.27324,40.18029,89,1317
117.27324,40.18029,90,1317
117.27324,40.18029,91,1317
117.27324,40.18029,92,1317
117.27324,40.18029,93,1317
117.27324,40.18029,94,1317
117.27324,40.18029,95,1317
117.27324,40.18029,96,1317
117.27324,40.18029,97,1317
117.27324,40.18029,98,1317
117.27324,40.18029,99,1317
117.27324,40.18029,100,1317
117.27324,40.18029,101,1317
117.27324,40.18029,102,1317
117.27324,40.18029,103,1317
117.27324,40.18029,104,1317
117.27324,40.18029,105,1317
117.27324,40.18029,106,1317
117.27324,40.18029,107,1317
117.2732,40.18026,108,1317
117.2732,40.18026,109,1317
117.27101,40.17877,110,1317
117.26971,40.17863,111,1317
117.2268,40.17224,112,1317
117.22486,40.17196,113,1317
117.17219,40.16675,114,1317
117.16929,40.16665,115,1317
117.13105,40.15267,116,1317
117.13024,40.15171,117,1317
117.12729,40.14984,118,1317
117.12729,40.14984,119,1317
117.12537,40.14867,120,1317
117.1254,40.14869,121,1317
117.1254,40.14869,122,1317
117.12687,40.14919,123,1317
117.1186,40.14898,124,1317
117.11642,40.14895,125,1317
117.11642,40.14895,126,1317
117.08897,40.14475,127,1317
117.08125,40.14405,128,1317
117.03048,40.14298,129,1317
117.0184,40.14169,130,1317
116.96998,40.14615,131,1317
116.95633,40.14906,132,1317
116.95057,40.15004,133,1317
116.89866,40.1526,134,1317
116.88538,40.15232,135,1317
116.82837,40.14984,136,1317
116.82517,40.14934,137,1317
116.81331,40.13646,138,1317
116.81126,40.12173,139,1317
116.80964,40.11825,140,1317
116.79699,40.08786,141,1317
116.79751,40.06682,142,1317
116.7975,40.06681,143,1317
116.73959,40.06324,144,1317
116.71999,40.06216,145,1317
116.66509,40.06168,146,1317
116.65709,40.0611,147,1317
116.66913,40.03243,148,1317
116.67052,40.02352,149,1317
116.6694,39.98524,150,1317
116.66043,39.98517,151,1317
116.62566,39.98666,152,1317
116.61942,39.98731,153,1317
116.5832,39.97757,154,1317
116.57732,39.9775,155,1317
116.55404,39.97063,156,1317
116.52523,39.97679,157,1317
116.51767,39.97632,158,1317
116.49226,39.97068,159,1317
116.47843,39.96657,160,1317
116.47013,39.96502,161,1317
116.46999,39.96425,162,1317
116.47031,39.95312,163,1317
116.46745,39.94582,164,1317
116.4659,39.94371,165,1317
116.46856,39.93625,166,1317
116.46856,39.93625,167,1317
116.45542,39.93998,168,1317
116.44938,39.94002,169,1317
116.43957,39.93512,170,1317
116.43055,39.93982,171,1317
116.4286,39.93979,172,1317
116.40148,39.94772,173,1317
116.39781,39.9477,174,1317
116.38205,39.9476,175,1317
116.37565,39.94762,176,1317
116.36682,39.94753,177,1317
116.36604,39.94746,178,1317
116.36649,39.94002,179,1317
116.36654,39.9389,180,1317
116.36208,39.93367,181,1317
116.36241,39.93855,182,1317
116.37116,39.94746,183,1317
116.38195,39.94752,184,1317
116.41048,39.94969,185,1317
116.41262,39.95256,186,1317
116.41484,39.95965,187,1317
116.41338,39.95888,188,1317
116.41403,39.95258,189,1317
116.4131,39.95267,190,1317
116.40211,39.9491,191,1317
116.40358,39.9578,192,1317
116.402,39.95772,193,1317
116.38885,39.95816,194,1317
116.38868,39.95993,195,1317
116.37991,39.96162,196,1317
116.37899,39.96202,197,1317
116.37904,39.96328,198,1317
116.37897,39.96224,199,1317
116.38347,39.97145,200,1317
116.38769,39.97147,201,1317
116.38769,39.97147,202,1317
116.38899,39.95243,203,1317
116.38913,39.94831,204,1317
116.38777,39.93966,205,1317
116.38929,39.93886,206,1317
116.37766,39.93179,207,1317
116.37076,39.93145,208,1317
116.37076,39.93145,209,1317
116.37115,39.9192,210,1317
116.37128,39.91718,211,1317
116.36991,39.91086,212,1317
116.36999,39.91079,213,1317
116.36759,39.90938,214,1317
116.36746,39.91017,215,1317
116.37552,39.91314,216,1317
116.37552,39.91314,217,1317
116.3756,39.91583,218,1317
116.38476,39.90598,219,1317
116.38872,39.90609,220,1317
116.40639,39.90108,221,1317
116.41146,39.9006,222,1317
116.41094,39.89444,223,1317
116.41044,39.89543,224,1317
116.41658,39.89587,225,1317
116.41874,39.8961,226,1317
116.4219,39.89131,227,1317
116.4232,39.8894,228,1317
116.41365,39.88536,229,1317
116.41664,39.8854,230,1317
116.42787,39.88006,231,1317
116.42161,39.87978,232,1317
116.41549,39.86262,233,1317
116.40789,39.8564,234,1317
116.35678,39.85316,235,1317
116.34683,39.85044,236,1317
116.32116,39.84843,237,1317
116.30747,39.86369,238,1317
116.30749,39.8637,239,1317
116.30863,39.86491,240,1317
116.3087,39.86497,241,1317
116.32462,39.8665,242,1317
116.32699,39.86649,243,1317
116.35371,39.86526,244,1317
116.35662,39.86509,245,1317
116.36824,39.86641,246,1317
116.36828,39.8672,247,1317
116.38062,39.86061,248,1317
116.3806,39.85867,249,1317
116.40138,39.85557,250,1317
116.40257,39.8556,251,1317
116.42531,39.85689,252,1317
116.42586,39.85682,253,1317
116.42628,39.8555,254,1317
116.42622,39.85582,255,1317
116.43142,39.85734,256,1317
116.4363,39.84197,257,1317
116.43608,39.84215,258,1317
116.43264,39.85509,259,1317
116.43256,39.856,260,1317
116.44544,39.85942,261,1317
116.44544,39.85942,262,1317
116.44544,39.85942,263,1317
116.44178,39.85802,264,1317
116.43901,39.86828,265,1317
116.4369,39.86903,266,1317
116.4369,39.86903,267,1317
116.43854,39.87271,268,1317
116.43854,39.87271,269,1317
116.44845,39.87317,270,1317
116.44845,39.87319,271,1317
116.44845,39.87319,272,1317
116.44845,39.87319,273,1317
116.44845,39.87319,274,1317
116.44845,39.87319,275,1317
116.44845,39.87319,276,1317
116.44845,39.87319,277,1317
116.44845,39.87319,278,1317
116.44836,39.87318,279,1317
116.44836,39.87318,280,1317
116.44836,39.87318,281,1317
116.44836,39.87318,282,1317
116.44836,39.87318,283,1317
116.44836,39.87318,284,1317
116.44836,39.87318,285,1317
116.44836,39.87318,286,1317
116.44836,39.87318,287,1317
116.44836,39.87318,288,1317
116.44836,39.87318,289,1317
116.44836,39.87318,290,1317
116.44836,39.87318,291,1317
116.44836,39.87318,292,1317
116.44836,39.87318,293,1317
116.44836,39.87318,294,1317
116.44836,39.87318,295,1317
116.44836,39.87318,296,1317
116.44836,39.87318,297,1317
116.44836,39.87318,298,1317
116.44836,39.87318,299,1317
116.44836,39.87318,300,1317
116.44836,39.87318,301,1317
116.44836,39.87318,302,1317
116.44836,39.87318,303,1317
116.44642,39.87491,304,1317
116.43972,39.87607,305,1317
116.43473,39.88314,306,1317
116.43034,39.88319,307,1317
116.43034,39.88319,308,1317
116.43034,39.88319,309,1317
116.43031,39.88324,310,1317
116.43128,39.88297,311,1317
116.44307,39.88319,312,1317
116.44471,39.88139,313,1317
116.44472,39.87557,314,1317
116.43996,39.87616,315,1317
116.43996,39.87616,316,1317
116.43996,39.87616,317,1317
116.43996,39.87616,318,1317
116.44,39.8796,319,1317
116.43981,39.88071,320,1317
116.43978,39.88121,321,1317
116.43447,39.88313,322,1317
116.43072,39.88786,323,1317
116.43398,39.88797,324,1317
116.43398,39.88797,325,1317
116.43641,39.88761,326,1317
116.43664,39.88804,327,1317
116.43987,39.87679,328,1317
116.43442,39.86926,329,1317
116.41668,39.86999,330,1317
116.40151,39.87072,331,1317
116.36035,39.86823,332,1317
116.34295,39.87052,333,1317
116.34351,39.89688,334,1317
116.32463,39.89589,335,1317
116.30666,39.89598,336,1317
116.31206,39.89558,337,1317
116.31416,39.89532,338,1317
116.31411,39.89494,339,1317
116.32166,39.89546,340,1317
116.33293,39.89593,341,1317
116.33051,39.89624,342,1317
116.33051,39.89624,343,1317
116.323,39.89865,344,1317
116.32571,39.90641,345,1317
116.32771,39.90958,346,1317
116.33334,39.91704,347,1317
116.34036,39.91816,348,1317
116.34675,39.92224,349,1317
116.33866,39.9221,350,1317
116.32806,39.92669,351,1317
116.33016,39.93105,352,1317
116.3295,39.95353,353,1317
116.32912,39.956,354,1317
116.31766,39.95562,355,1317
116.31265,39.95201,356,1317
116.31735,39.95323,357,1317
116.31842,39.94465,358,1317
116.31955,39.93096,359,1317
116.3252,39.93469,360,1317
116.328,39.92685,361,1317
116.33653,39.92682,362,1317
116.33886,39.91432,363,1317
116.34304,39.91264,364,1317
116.34979,39.90736,365,1317
116.3573,39.90587,366,1317
116.39474,39.90629,367,1317
116.4109,39.90674,368,1317
116.4259,39.90712,369,1317
116.46231,39.90701,370,1317
116.47386,39.90672,371,1317
116.49192,39.90653,372,1317
116.50064,39.90651,373,1317
116.50044,39.90704,374,1317
116.4909,39.9072,375,1317
116.4909,39.9072,376,1317
116.47203,39.90855,377,1317
116.47156,39.91226,378,1317
116.45671,39.91233,379,1317
116.44434,39.9211,380,1317
116.45469,39.9181,381,1317
116.46262,39.91545,382,1317
116.47098,39.91443,383,1317
116.47865,39.91651,384,1317
116.47859,39.91496,385,1317
116.47174,39.91056,386,1317
116.47158,39.90661,387,1317
116.46654,39.89305,388,1317
116.46082,39.89228,389,1317
116.4517,39.89606,390,1317
116.44969,39.89261,391,1317
116.42555,39.89246,392,1317
116.42555,39.89246,393,1317
116.41318,39.89191,394,1317
116.38743,39.88885,395,1317
116.37871,39.88821,396,1317
116.36248,39.88799,397,1317
116.35753,39.88797,398,1317
116.35772,39.87733,399,1317
116.35795,39.8704,400,1317
116.35705,39.85955,401,1317
116.35792,39.85878,402,1317
116.38808,39.86998,403,1317
116.39327,39.86472,404,1317
116.39884,39.86016,405,1317
116.39663,39.86399,406,1317
116.40779,39.85891,407,1317
116.40813,39.8515,408,1317
116.40539,39.84092,409,1317
116.40878,39.84139,410,1317
116.40183,39.84092,411,1317
116.39593,39.83522,412,1317
116.38844,39.81711,413,1317
116.38796,39.80912,414,1317
116.39629,39.81206,415,1317
116.39608,39.81753,416,1317
116.39885,39.83475,417,1317
116.40127,39.84218,418,1317
116.40736,39.85551,419,1317
116.40799,39.85595,420,1317
116.40884,39.8639,421,1317
116.41634,39.86987,422,1317
116.43267,39.86716,423,1317
116.44444,39.8701,424,1317
116.44444,39.8701,425,1317
116.44217,39.88034,426,1317
116.44942,39.88316,427,1317
116.43687,39.89248,428,1317
116.43115,39.88781,429,1317
116.43014,39.89246,430,1317
116.42457,39.89614,431,1317
116.41706,39.8992,432,1317
116.41912,39.90349,433,1317
116.42995,39.90177,434,1317
116.43155,39.89635,435,1317
116.4247,39.89426,436,1317
116.4247,39.89426,437,1317
116.41264,39.8916,438,1317
116.40391,39.88683,439,1317
116.40151,39.88765,440,1317
116.40151,39.88765,441,1317
116.40151,39.88765,442,1317
116.40151,39.88765,443,1317
116.40151,39.88765,444,1317
116.40151,39.88765,445,1317
116.40151,39.88765,446,1317
116.40625,39.89139,447,1317
116.42466,39.89474,448,1317
116.42903,39.89632,449,1317
116.41401,39.90019,450,1317
116.42452,39.90349,451,1317
116.42096,39.90659,452,1317
116.42067,39.91132,453,1317
116.42032,39.91528,454,1317
116.42007,39.92259,455,1317
116.4068,39.93958,456,1317
116.39511,39.93946,457,1317
116.4014,39.93946,458,1317
116.40226,39.94256,459,1317
116.41157,39.95588,460,1317
116.41901,39.95196,461,1317
116.42417,39.9399,462,1317
116.42257,39.94208,463,1317
116.42159,39.94809,464,1317
116.44386,39.95211,465,1317
116.44057,39.96153,466,1317
116.43246,39.96702,467,1317
116.41801,39.98592,468,1317
116.42059,39.98737,469,1317
116.4308,39.97901,470,1317
116.42961,39.97702,471,1317
116.41855,39.96857,472,1317
116.41871,39.96343,473,1317
116.42719,39.94407,474,1317
116.4265,39.94313,475,1317
116.4265,39.94313,476,1317
116.4265,39.94313,477,1317
116.4265,39.94313,478,1317
116.4265,39.94313,479,1317
116.4265,39.94313,480,1317
116.4265,39.94313,481,1317
116.4265,39.94313,482,1317
116.4265,39.94313,483,1317
116.4265,39.94313,484,1317
116.4265,39.94313,485,1317
116.4265,39.94313,486,1317
116.4265,39.94313,487,1317
116.4265,39.94313,488,1317
116.4265,39.94313,489,1317
116.4265,39.94313,490,1317
116.4265,39.94313,491,1317
116.4265,39.94313,492,1317
116.4265,39.94313,493,1317
116.4265,39.94313,494,1317
116.4265,39.94313,495,1317
116.4265,39.94313,496,1317
116.4265,39.94313,497,1317
116.4265,39.94313,498,1317
116.4265,39.94313,499,1317
116.4265,39.94313,500,1317
116.4265,39.94313,501,1317
116.4265,39.94313,502,1317
116.4265,39.94313,503,1317
116.4265,39.94313,504,1317
116.4265,39.94313,505,1317
116.4265,39.94313,506,1317
116.4265,39.94313,507,1317
116.4265,39.94313,508,1317
116.4265,39.94313,509,1317
116.42654,39.9432,510,1317
116.42654,39.9432,511,1317
116.42654,39.9432,512,1317
116.42654,39.9432,513,1317
116.42654,39.9432,514,1317
116.42654,39.9432,515,1317
116.42654,39.9432,516,1317
116.42654,39.9432,517,1317
116.42654,39.9432,518,1317
116.42654,39.9432,519,1317
116.42654,39.9432,520,1317
116.42654,39.9432,521,1317
116.42654,39.9432,522,1317
116.42654,39.9432,523,1317
116.42654,39.9432,524,1317
116.42654,39.9432,525,1317
116.42654,39.9432,526,1317
116.42654,39.9432,527,1317
116.42654,39.9432,528,1317
116.42654,39.9432,529,1317
116.42654,39.9432,530,1317
116.42654,39.9432,531,1317
116.42654,39.9432,532,1317
116.42654,39.9432,533,1317
116.42654,39.9432,534,1317
116.42654,39.9432,535,1317
116.42654,39.9432,536,1317
116.42654,39.9432,537,1317
116.42654,39.9432,538,1317
116.42654,39.9432,539,1317
116.42654,39.9432,540,1317
116.42654,39.9432,541,1317
116.42654,39.9432,542,1317
116.42654,39.9432,543,1317
116.42654,39.9432,544,1317
116.42654,39.9432,545,1317
116.42654,39.9432,546,1317
116.42654,39.9432,547,1317
116.42654,39.9432,548,1317
116.42251,39.94166,549,1317
116.43296,39.93627,550,1317
116.45525,39.92243,551,1317
116.45475,39.92726,552,1317
116.44406,39.92704,553,1317
116.43755,39.9321,554,1317
116.42062,39.9324,555,1317
116.41954,39.93358,556,1317
116.41997,39.92337,557,1317
116.42074,39.90647,558,1317
116.42082,39.90499,559,1317
116.42952,39.90349,560,1317
116.42925,39.8921,561,1317
116.44405,39.88314,562,1317
116.44465,39.87507,563,1317
116.45501,39.87487,564,1317
116.44051,39.87491,565,1317
116.43944,39.88046,566,1317
116.4228,39.86984,567,1317
116.38701,39.87014,568,1317
116.38606,39.86135,569,1317
116.39234,39.85733,570,1317
116.40415,39.85562,571,1317
116.40415,39.85562,572,1317
116.41069,39.85592,573,1317
116.41231,39.86073,574,1317
116.4072,39.87108,575,1317
116.39101,39.87113,576,1317
116.37094,39.86979,577,1317
116.3579,39.87298,578,1317
116.35516,39.87673,579,1317
116.36447,39.87714,580,1317
116.36586,39.88233,581,1317
116.36769,39.88787,582,1317
116.36829,39.89784,583,1317
116.36806,39.90535,584,1317
116.37023,39.90936,585,1317
116.37119,39.91919,586,1317
116.37109,39.92251,587,1317
116.37069,39.93123,588,1317
116.36204,39.93313,589,1317
116.36235,39.93888,590,1317
116.35287,39.93918,591,1317
116.32657,39.93705,592,1317
116.32657,39.93705,593,1317
116.31874,39.94464,594,1317
116.31769,39.95308,595,1317
116.31623,39.96297,596,1317
116.33589,39.96626,597,1317
116.3572,39.96635,598,1317
116.38744,39.96693,599,1317
116.39189,39.96842,600,1317
116.38929,39.96744,601,1317
116.38427,39.97151,602,1317
116.38837,39.96225,603,1317
116.38868,39.95586,604,1317
116.3872,39.95279,605,1317
116.38915,39.95101,606,1317
116.40007,39.95761,607,1317
116.40757,39.95776,608,1317
116.4125,39.95331,609,1317
116.41902,39.95102,610,1317
116.41897,39.94907,611,1317
116.41067,39.94777,612,1317
116.41856,39.95275,613,1317
116.41888,39.94957,614,1317
116.41903,39.94855,615,1317
116.42634,39.94765,616,1317
116.42754,39.93312,617,1317
116.4312,39.923,618,1317
116.43725,39.92222,619,1317
116.43725,39.92222,620,1317
116.44612,39.92052,621,1317
116.45449,39.91788,622,1317
116.45449,39.91788,623,1317
116.46966,39.91439,624,1317
116.48329,39.91419,625,1317
116.49963,39.91464,626,1317
116.5073,39.91113,627,1317
116.50572,39.91485,628,1317
116.51525,39.91535,629,1317
116.51212,39.90675,630,1317
116.47963,39.90693,631,1317
116.45936,39.90711,632,1317
116.45284,39.90709,633,1317
116.45258,39.90721,634,1317
116.45258,39.90721,635,1317
116.45194,39.90712,636,1317
116.45194,39.90712,637,1317
116.45149,39.90728,638,1317
116.44259,39.90731,639,1317
116.43512,39.90729,640,1317
116.42124,39.90711,641,1317
116.40965,39.90698,642,1317
116.40649,39.9081,643,1317
116.40649,39.9081,644,1317
116.41008,39.91412,645,1317
116.41823,39.91417,646,1317
116.42015,39.9206,647,1317
116.42868,39.92389,648,1317
116.43939,39.94854,649,1317
116.46165,39.9684,650,1317
116.48345,39.98443,651,1317
116.48364,39.97303,652,1317
116.4816,39.96703,653,1317
116.47845,39.96652,654,1317
116.47372,39.9644,655,1317
116.4754,39.96573,656,1317
116.47543,39.96578,657,1317
116.47664,39.96916,658,1317
116.47664,39.96916,659,1317
116.47934,39.96977,660,1317
116.47934,39.96977,661,1317
116.48306,39.97006,662,1317
116.48306,39.97006,663,1317
116.48306,39.97006,664,1317
116.48306,39.97006,665,1317
116.48306,39.97006,666,1317
116.48306,39.97006,667,1317
116.47527,39.96202,668,1317
116.47527,39.96202,669,1317
116.48148,39.95635,670,1317
116.48363,39.91379,671,1317
116.48332,39.90832,672,1317
116.47309,39.90715,673,1317
116.47189,39.9092,674,1317
116.46275,39.91228,675,1317
116.45955,39.91229,676,1317
116.45677,39.91221,677,1317
116.45677,39.91221,678,1317
116.4416,39.912,679,1317
116.44012,39.912,680,1317
116.4646,39.90705,681,1317
116.45574,39.92114,682,1317
116.45715,39.92124,683,1317
116.47905,39.92161,684,1317
116.4818,39.92167,685,1317
116.49524,39.93013,686,1317
116.49495,39.93019,687,1317
116.4906,39.95266,688,1317
116.49337,39.95268,689,1317
116.48381,39.96799,690,1317
116.48378,39.97042,691,1317
116.49072,39.97061,692,1317
116.49068,39.97059,693,1317
116.49068,39.97059,694,1317
116.48413,39.97096,695,1317
116.47551,39.96597,696,1317
116.47448,39.96509,697,1317
116.4606,39.95932,698,1317
116.45361,39.95319,699,1317
116.4498,39.95129,700,1317
116.44899,39.947,701,1317
116.43802,39.94246,702,1317
116.43155,39.93981,703,1317
116.41945,39.94057,704,1317
116.41931,39.94669,705,1317
116.43695,39.94809,706,1317
116.45245,39.9541,707,1317
116.45399,39.95346,708,1317
116.45151,39.9514,709,1317
116.45014,39.95107,710,1317
116.44535,39.95206,711,1317
116.44526,39.95195,712,1317
116.44526,39.95195,713,1317
116.44526,39.95195,714,1317
116.44647,39.95126,715,1317
116.44406,39.94536,716,1317
116.43683,39.94191,717,1317
116.42872,39.93983,718,1317
116.42517,39.94835,719,1317
116.41424,39.94814,720,1317
116.40209,39.95099,721,1317
116.40211,39.95234,722,1317
116.41188,39.95585,723,1317
116.41461,39.95577,724,1317
116.40311,39.93198,725,1317
116.40281,39.9291,726,1317
116.40466,39.92326,727,1317
116.41084,39.92284,728,1317
116.42612,39.92276,729,1317
116.42831,39.91769,730,1317
116.42811,39.9149,731,1317
116.4209,39.91424,732,1317
116.41859,39.91405,733,1317
116.41899,39.9143,734,1317
116.42021,39.91983,735,1317
116.42784,39.9233,736,1317
116.42792,39.93197,737,1317
116.42742,39.94285,738,1317
116.401,39.94771,739,1317
116.38188,39.94755,740,1317
116.36631,39.9473,741,1317
116.35939,39.94523,742,1317
116.35939,39.94523,743,1317
116.35073,39.94276,744,1317
116.34907,39.93957,745,1317
116.34949,39.93321,746,1317
116.34955,39.93036,747,1317
116.34921,39.92337,748,1317
116.34725,39.92514,749,1317
116.34337,39.92547,750,1317
116.34626,39.92705,751,1317
116.34325,39.92265,752,1317
116.34063,39.92204,753,1317
116.33952,39.92199,754,1317
116.33894,39.92198,755,1317
116.33871,39.91324,756,1317
116.33782,39.90671,757,1317
116.33781,39.90644,758,1317
116.33685,39.90343,759,1317
116.33676,39.90313,760,1317
116.33664,39.90265,761,1317
116.33601,39.8986,762,1317
116.33312,39.89639,763,1317
116.32953,39.89619,764,1317
116.32953,39.89619,765,1317
116.32282,39.90132,766,1317
116.32724,39.90586,767,1317
116.31805,39.9065,768,1317
116.31981,39.90967,769,1317
116.32575,39.90784,770,1317
116.3257,39.90707,771,1317
116.3257,39.90707,772,1317
116.32678,39.90957,773,1317
116.33023,39.91265,774,1317
116.33746,39.91706,775,1317
116.33852,39.921,776,1317
116.34151,39.9268,777,1317
116.34337,39.92283,778,1317
116.34337,39.92283,779,1317
116.34337,39.92283,780,1317
116.34337,39.92283,781,1317
116.34337,39.92283,782,1317
116.34337,39.92283,783,1317
116.33813,39.9221,784,1317
116.32837,39.92349,785,1317
116.32804,39.9267,786,1317
116.32759,39.93065,787,1317
116.32049,39.93121,788,1317
116.31971,39.93693,789,1317
116.31832,39.94732,790,1317
116.31705,39.95758,791,1317
116.31568,39.96498,792,1317
116.34262,39.96628,793,1317
116.35363,39.96631,794,1317
116.37145,39.9667,795,1317
116.39594,39.96564,796,1317
116.39616,39.96347,797,1317
116.39829,39.96718,798,1317
116.40097,39.96706,799,1317
116.40145,39.97018,800,1317
116.40937,39.97419,801,1317
116.41092,39.97424,802,1317
116.40683,39.96791,803,1317
116.40493,39.96792,804,1317
116.40317,39.96775,805,1317
116.38863,39.96782,806,1317
116.38814,39.98095,807,1317
116.38164,39.98105,808,1317
116.37642,39.97552,809,1317
116.36599,39.97538,810,1317
116.3637,39.97542,811,1317
116.36056,39.97537,812,1317
116.34844,39.97531,813,1317
116.3399,39.97518,814,1317
116.32735,39.97971,815,1317
116.32166,39.97965,816,1317
116.32142,39.98108,817,1317
116.34293,39.98515,818,1317
116.34293,39.98515,819,1317
116.34292,39.98515,820,1317
116.34729,39.96635,821,1317
116.36581,39.96652,822,1317
116.38849,39.96195,823,1317
116.38849,39.96195,824,1317
116.38926,39.9479,825,1317
116.41542,39.948,826,1317
116.43025,39.93576,827,1317
116.43025,39.93576,828,1317
116.42945,39.93253,829,1317
116.43007,39.938,830,1317
116.43365,39.93313,831,1317
116.43014,39.93724,832,1317
116.43761,39.93541,833,1317
116.43753,39.92808,834,1317
116.43043,39.9299,835,1317
116.42781,39.93581,836,1317
116.42042,39.94844,837,1317
116.42984,39.94809,838,1317
116.41849,39.96972,839,1317
116.41792,39.98684,840,1317
116.41127,39.99598,841,1317
116.41035,40.01212,842,1317
116.41132,40.02261,843,1317
116.40315,40.00804,844,1317
116.39809,40.00088,845,1317
116.39785,40.00125,846,1317
116.40074,39.99733,847,1317
116.40074,39.99733,848,1317
116.39915,39.99058,849,1317
116.39924,39.99049,850,1317
116.40771,39.98711,851,1317
116.41065,39.9847,852,1317
116.41117,39.97684,853,1317
116.4119,39.96023,854,1317
116.41865,39.95604,855,1317
116.41456,39.9527,856,1317
116.40993,39.94942,857,1317
116.40021,39.96071,858,1317
116.40793,39.95929,859,1317
116.41263,39.95092,860,1317
116.41001,39.94978,861,1317
116.41001,39.94978,862,1317
116.41032,39.94786,863,1317
116.42771,39.94793,864,1317
116.45784,39.96493,865,1317
116.4665,39.97379,866,1317
116.47657,39.98302,867,1317
116.47066,39.98693,868,1317
116.47493,39.97632,869,1317
116.47493,39.97632,870,1317
116.47655,39.96941,871,1317
116.4766,39.96907,872,1317
116.47541,39.96583,873,1317
116.47363,39.96435,874,1317
116.46625,39.96521,875,1317
116.4534,39.95312,876,1317
116.44743,39.9518,877,1317
116.44957,39.95145,878,1317
116.44897,39.95613,879,1317
116.42948,39.96814,880,1317
116.3657,39.96668,881,1317
116.33331,39.9665,882,1317
116.33331,39.9665,883,1317
116.33297,39.96615,884,1317
116.33277,39.96922,885,1317
116.33277,39.96922,886,1317
116.32759,39.97624,887,1317
116.33992,39.98518,888,1317
116.37511,39.98625,889,1317
116.41522,39.98739,890,1317
116.4457,39.98126,891,1317
116.44908,39.97963,892,1317
116.45691,39.98907,893,1317
116.45988,39.99581,894,1317
116.46125,40.00045,895,1317
116.46125,40.00045,896,1317
116.46511,39.99053,897,1317
116.46803,39.98142,898,1317
116.47055,39.97237,899,1317
116.47538,39.96979,900,1317
116.4752,39.96556,901,1317
116.4752,39.96556,902,1317
116.4752,39.96556,903,1317
116.4752,39.96556,904,1317
116.47303,39.96395,905,1317
116.47739,39.95503,906,1317
116.45704,39.94843,907,1317
116.44731,39.94676,908,1317
116.43411,39.93982,909,1317
116.41968,39.93965,910,1317
116.4179,39.92875,911,1317
116.41099,39.93198,912,1317
116.41065,39.93914,913,1317
116.41445,39.94778,914,1317
116.41938,39.93978,915,1317
116.41938,39.93978,916,1317
116.43765,39.93971,917,1317
116.44161,39.93979,918,1317
116.43846,39.94388,919,1317
116.43338,39.93995,920,1317
116.44179,39.95029,921,1317
116.45471,39.95394,922,1317
116.45546,39.94251,923,1317
116.45555,39.9114,924,1317
116.43538,39.90724,925,1317
116.41254,39.90703,926,1317
116.39778,39.90655,927,1317
116.37658,39.90594,928,1317
116.35012,39.90679,929,1317
116.35793,39.89821,930,1317
116.34975,39.89729,931,1317
116.33805,39.88851,932,1317
116.33554,39.88072,933,1317
116.34396,39.88662,934,1317
116.34335,39.89626,935,1317
116.35011,39.9213,936,1317
116.39357,39.94755,937,1317
116.42932,39.94806,938,1317
116.44743,39.95066,939,1317
116.47928,39.95877,940,1317
116.49583,39.9993,941,1317
116.57822,40.04612,942,1317
116.58484,40.07673,943,1317
116.58326,40.0761,944,1317
116.58878,40.04759,945,1317
116.58784,40.04402,946,1317
116.58509,40.0477,947,1317
116.58202,40.04805,948,1317
116.56238,40.0332,949,1317
116.52809,40.02054,950,1317
116.50677,40.00937,951,1317
116.4944,40.00056,952,1317
116.51173,39.97732,953,1317
116.51923,39.96659,954,1317
116.52155,39.96146,955,1317
116.5121,39.90665,956,1317
116.49169,39.90653,957,1317
116.49482,39.90653,958,1317
116.49154,39.95949,959,1317
116.48947,39.96167,960,1317
116.48937,39.96146,961,1317
116.49524,39.96328,962,1317
116.4965,39.96587,963,1317
116.49666,39.96597,964,1317
116.49664,39.96597,965,1317
116.49677,39.96595,966,1317
116.49377,39.9699,967,1317
116.49377,39.9699,968,1317
116.4917,39.97065,969,1317
116.4917,39.97065,970,1317
116.49018,39.97066,971,1317
116.47358,39.96427,972,1317
116.47358,39.96427,973,1317
116.47358,39.96427,974,1317
116.47354,39.96435,975,1317
116.47354,39.96435,976,1317
116.47354,39.96435,977,1317
116.47354,39.96435,978,1317
116.45112,39.90713,979,1317
116.44941,39.90682,980,1317
116.44495,39.90713,981,1317
116.43978,39.90725,982,1317
116.42913,39.90864,983,1317
116.4229,39.90369,984,1317
116.42692,39.90366,985,1317
116.4292,39.89966,986,1317
116.42636,39.896,987,1317
116.42362,39.89211,988,1317
116.42362,39.89211,989,1317
116.43084,39.89201,990,1317
116.43395,39.88696,991,1317
116.42665,39.88297,992,1317
116.41388,39.88473,993,1317
116.41236,39.89457,994,1317
116.41235,39.89887,995,1317
116.40987,39.90389,996,1317
116.40542,39.90155,997,1317
116.40573,39.89721,998,1317
116.40878,39.89575,999,1317
116.41154,39.89543,1000,1317
116.4123,39.899,1001,1317
116.43088,39.89897,1002,1317
116.4286,39.91567,1003,1317
116.43032,39.93213,1004,1317
116.43602,39.92549,1005,1317
116.4481,39.92554,1006,1317
116.44931,39.92882,1007,1317
116.44979,39.92705,1008,1317
116.44967,39.93984,1009,1317
116.45546,39.90516,1010,1317
116.42403,39.8924,1011,1317
116.41405,39.88559,1012,1317
116.41259,39.8916,1013,1317
116.37883,39.88821,1014,1317
116.36288,39.88806,1015,1317
116.35785,39.88806,1016,1317
116.35692,39.88509,1017,1317
116.35739,39.88881,1018,1317
116.35056,39.90263,1019,1317
116.35042,39.91951,1020,1317
116.35632,39.9442,1021,1317
116.38159,39.96162,1022,1317
116.38124,39.95228,1023,1317
116.38124,39.95228,1024,1317
116.39475,39.96195,1025,1317
116.41445,39.9855,1026,1317
116.40345,39.98727,1027,1317
116.40679,39.96739,1028,1317
116.41084,39.96755,1029,1317
116.41759,39.98194,1030,1317
116.4186,39.96817,1031,1317
116.41895,39.95173,1032,1317
116.4276,39.93723,1033,1317
116.42998,39.90072,1034,1317
116.41449,39.89187,1035,1317
116.39574,39.89085,1036,1317
116.39428,39.88546,1037,1317
116.38905,39.88205,1038,1317
116.37871,39.88529,1039,1317
116.37792,39.8997,1040,1317
116.37189,39.90534,1041,1317
116.39284,39.90621,1042,1317
116.41107,39.90678,1043,1317
116.43779,39.89494,1044,1317
116.44839,39.88341,1045,1317
116.44946,39.88309,1046,1317
116.43348,39.88319,1047,1317
116.42893,39.88298,1048,1317
116.41975,39.8827,1049,1317
116.4184,39.88322,1050,1317
116.4184,39.88322,1051,1317
116.41528,39.87954,1052,1317
116.41132,39.87187,1053,1317
116.3937,39.87046,1054,1317
116.39372,39.85388,1055,1317
116.39446,39.83914,1056,1317
116.39513,39.82554,1057,1317
116.3981,39.82136,1058,1317
116.42157,39.81631,1059,1317
116.42883,39.8073,1060,1317
116.43255,39.80331,1061,1317
116.43744,39.80357,1062,1317
116.44895,39.80565,1063,1317
116.44954,39.81041,1064,1317
116.44808,39.82227,1065,1317
116.44231,39.82792,1066,1317
116.44092,39.84162,1067,1317
116.43974,39.84817,1068,1317
108.53994,25.17146,1069,1317
108.53994,25.17146,1070,1317
116.42583,39.85919,1071,1317
116.42818,39.8612,1072,1317
116.42763,39.86239,1073,1317
116.42764,39.86354,1074,1317
116.42574,39.86462,1075,1317
116.42404,39.8646,1076,1317
116.42404,39.8646,1077,1317
116.42348,39.86447,1078,1317
116.42205,39.86442,1079,1317
116.41891,39.86432,1080,1317
116.41685,39.87007,1081,1317
116.38249,39.86992,1082,1317
116.36826,39.86958,1083,1317
116.36218,39.86435,1084,1317
116.35934,39.86317,1085,1317
116.36381,39.86412,1086,1317
116.36818,39.86819,1087,1317
116.36831,39.88181,1088,1317
116.36844,39.88734,1089,1317
116.36851,39.89301,1090,1317
116.3684,39.89803,1091,1317
116.37804,39.89629,1092,1317
116.38371,39.88518,1093,1317
116.38695,39.88234,1094,1317
116.38995,39.88496,1095,1317
116.41247,39.88595,1096,1317
116.41866,39.88284,1097,1317
116.42486,39.88656,1098,1317
116.4292,39.89228,1099,1317
116.42961,39.89639,1100,1317
116.43039,39.89867,1101,1317
116.4236,39.8923,1102,1317
116.43249,39.89236,1103,1317
116.42188,39.8923,1104,1317
116.41289,39.89182,1105,1317
116.39696,39.89103,1106,1317
116.39357,39.89822,1107,1317
116.37884,39.9059,1108,1317
116.36537,39.90585,1109,1317
116.35098,39.90766,1110,1317
116.35097,39.91615,1111,1317
116.34856,39.91694,1112,1317
116.33856,39.92116,1113,1317
116.33796,39.9306,1114,1317
116.33799,39.93583,1115,1317
116.32791,39.9351,1116,1317
116.33895,39.93712,1117,1317
116.346,39.93979,1118,1317
116.33604,39.94571,1119,1317
116.32923,39.95572,1120,1317
116.3282,39.96586,1121,1317
116.3282,39.96586,1122,1317
116.32858,39.97274,1123,1317
116.32899,39.97269,1124,1317
116.32777,39.97439,1125,1317
116.3422,39.97376,1126,1317
116.34526,39.97504,1127,1317
116.35651,39.97522,1128,1317
116.35884,39.9805,1129,1317
116.3612,39.9805,1130,1317
116.36354,39.9804,1131,1317
116.36104,39.98619,1132,1317
116.36302,39.98831,1133,1317
116.36747,39.98081,1134,1317
116.36358,39.97554,1135,1317
116.36468,39.95745,1136,1317
116.36508,39.95268,1137,1317
116.35535,39.95241,1138,1317
116.36446,39.95662,1139,1317
116.37577,39.96148,1140,1317
116.38749,39.96188,1141,1317
116.3891,39.95206,1142,1317
116.38862,39.96223,1143,1317
116.39873,39.97563,1144,1317
116.39873,39.97563,1145,1317
116.40138,39.98156,1146,1317
116.41097,39.99377,1147,1317
116.41162,40.00065,1148,1317
116.40819,40.00521,1149,1317
116.39831,40.00291,1150,1317
116.34131,39.89826,1151,1317
116.33639,39.90072,1152,1317
116.34176,39.90397,1153,1317
116.34652,39.90687,1154,1317
116.34319,39.91694,1155,1317
116.33848,39.92126,1156,1317
116.31984,39.9307,1157,1317
116.31943,39.93965,1158,1317
116.31943,39.93965,1159,1317
116.312,39.94457,1160,1317
116.31892,39.94243,1161,1317
116.30733,39.9442,1162,1317
116.31107,39.95123,1163,1317
116.31749,39.95525,1164,1317
116.32959,39.95253,1165,1317
116.34413,39.94279,1166,1317
116.34608,39.93903,1167,1317
116.3517,39.93657,1168,1317
116.35042,39.9311,1169,1317
116.34991,39.90397,1170,1317
116.34748,39.90185,1171,1317
116.33344,39.91273,1172,1317
116.32702,39.91286,1173,1317
116.32837,39.91111,1174,1317
116.36255,39.90585,1175,1317
116.3756,39.90583,1176,1317
116.40284,39.90657,1177,1317
116.40284,39.90657,1178,1317
116.41152,39.90685,1179,1317
116.43422,39.9071,1180,1317
116.4538,39.90706,1181,1317
116.47195,39.90703,1182,1317
116.47198,39.91782,1183,1317
116.46396,39.91531,1184,1317
116.4656,39.92178,1185,1317
116.48191,39.92163,1186,1317
116.48986,39.92151,1187,1317
116.49406,39.92197,1188,1317
116.48411,39.92273,1189,1317
116.4737,39.92997,1190,1317
116.47334,39.92155,1191,1317
116.48833,39.92154,1192,1317
116.49442,39.92696,1193,1317
116.49257,39.93401,1194,1317
116.48397,39.93253,1195,1317
116.46871,39.93604,1196,1317
116.46303,39.94137,1197,1317
116.46684,39.93403,1198,1317
116.45589,39.9362,1199,1317
116.44943,39.93243,1200,1317
116.44441,39.93756,1201,1317
116.43985,39.92421,1202,1317
116.43603,39.92555,1203,1317
116.44004,39.92206,1204,1317
116.44552,39.92557,1205,1317
116.45578,39.92707,1206,1317
116.46083,39.92918,1207,1317
116.45511,39.92254,1208,1317
116.44385,39.92158,1209,1317
116.44385,39.92158,1210,1317
116.43346,39.91684,1211,1317
116.43485,39.91563,1212,1317
116.42874,39.92187,1213,1317
116.42548,39.92336,1214,1317
116.42584,39.92727,1215,1317
116.42977,39.93223,1216,1317
116.44217,39.93977,1217,1317
116.44414,39.93512,1218,1317
116.44084,39.93245,1219,1317
116.44935,39.93197,1220,1317
116.45055,39.93073,1221,1317
116.43912,39.92562,1222,1317
116.43614,39.92557,1223,1317
116.42016,39.92062,1224,1317
116.41988,39.92609,1225,1317
116.41988,39.92609,1226,1317
116.41111,39.92695,1227,1317
116.41146,39.91734,1228,1317
116.41166,39.90626,1229,1317
116.41211,39.8993,1230,1317
116.41278,39.89539,1231,1317
116.42848,39.89213,1232,1317
116.43405,39.88499,1233,1317
116.43992,39.88356,1234,1317
116.44594,39.89208,1235,1317
116.44952,39.88881,1236,1317
116.45007,39.88558,1237,1317
116.44769,39.87485,1238,1317
116.44765,39.87367,1239,1317
116.43888,39.88592,1240,1317
116.44259,39.90232,1241,1317
116.49083,39.90669,1242,1317
116.52074,39.90783,1243,1317
116.5107,39.9098,1244,1317
116.50894,39.91083,1245,1317
116.51171,39.90676,1246,1317
116.49175,39.90706,1247,1317
116.47747,39.91434,1248,1317
116.47205,39.92153,1249,1317
116.45151,39.92207,1250,1317
116.42784,39.93447,1251,1317
116.41849,39.94824,1252,1317
116.41268,39.95384,1253,1317
116.42095,39.95802,1254,1317
116.43014,39.9608,1255,1317
116.42582,39.95704,1256,1317
116.42582,39.95704,1257,1317
116.41918,39.9463,1258,1317
116.41423,39.9396,1259,1317
116.41083,39.93611,1260,1317
116.41093,39.93593,1261,1317
116.41093,39.93593,1262,1317
116.41093,39.93593,1263,1317
116.42245,39.9433,1264,1317
116.42543,39.94324,1265,1317
116.42543,39.94324,1266,1317
116.42543,39.94324,1267,1317
116.42543,39.94324,1268,1317
116.42543,39.94324,1269,1317
116.42543,39.94324,1270,1317
116.42543,39.94324,1271,1317
116.42543,39.94324,1272,1317
116.42543,39.94324,1273,1317
116.42543,39.94324,1274,1317
116.42543,39.94324,1275,1317
116.42543,39.94324,1276,1317
116.42543,39.94324,1277,1317
116.42543,39.94324,1278,1317
116.42543,39.94324,1279,1317
116.42543,39.94324,1280,1317
116.42543,39.94324,1281,1317
116.42543,39.94324,1282,1317
116.42543,39.94324,1283,1317
116.42543,39.94324,1284,1317
116.42543,39.94324,1285,1317
116.42543,39.94324,1286,1317
116.42543,39.94324,1287,1317
116.42543,39.94324,1288,1317
116.42543,39.94324,1289,1317
116.42543,39.94324,1290,1317
116.42543,39.94324,1291,1317
116.42543,39.94324,1292,1317
116.42543,39.94324,1293,1317
116.42543,39.94324,1294,1317
116.42543,39.94324,1295,1317
116.42543,39.94324,1296,1317
116.42543,39.94324,1297,1317
116.42543,39.94324,1298,1317
116.42543,39.94324,1299,1317
116.42543,39.94324,1300,1317
116.42543,39.94324,1301,1317
116.42543,39.94324,1302,1317
116.42543,39.94324,1303,1317
116.42543,39.94324,1304,1317
116.42543,39.94324,1305,1317
116.42543,39.94324,1306,1317
116.42543,39.94324,1307,1317
116.42543,39.94324,1308,1317
116.42543,39.94324,1309,1317
116.42543,39.94324,1310,1317
116.42543,39.94324,1311,1317
116.42543,39.94324,1312,1317
116.42543,39.94324,1313,1317
116.42543,39.94324,1314,1317
116.42543,39.94324,1315,1317
116.42543,39.94324,1316,1317
116.42543,39.94324,1317,1317
116.42543,39.94324,1318,1317
116.42543,39.94324,1319,1317
116.42543,39.94324,1320,1317
116.42543,39.94324,1321,1317
116.42543,39.94324,1322,1317
116.42543,39.94324,1323,1317
116.42543,39.94324,1324,1317
116.42543,39.94324,1325,1317
116.42543,39.94324,1326,1317
116.42543,39.94324,1327,1317
116.42543,39.94324,1328,1317
116.42543,39.94324,1329,1317
116.42543,39.94324,1330,1317
116.42543,39.94324,1331,1317
116.42543,39.94324,1332,1317
116.42543,39.94324,1333,1317
116.42543,39.94324,1334,1317
116.42543,39.94324,1335,1317
116.42543,39.94324,1336,1317
116.42543,39.94324,1337,1317
116.42543,39.94324,1338,1317
116.42543,39.94324,1339,1317
116.42543,39.94324,1340,1317
116.42543,39.94324,1341,1317
116.42543,39.94324,1342,1317
116.42543,39.94324,1343,1317
116.42543,39.94324,1344,1317
116.42543,39.94324,1345,1317
116.42543,39.94324,1346,1317
116.42543,39.94324,1347,1317
116.42543,39.94324,1348,1317
116.42543,39.94324,1349,1317
116.42543,39.94324,1350,1317
116.42543,39.94324,1351,1317
116.42543,39.94324,1352,1317
116.42252,39.94262,1353,1317
116.41953,39.94896,1354,1317
116.42401,39.95062,1355,1317
116.42134,39.94998,1356,1317
116.41842,39.95279,1357,1317
116.44238,39.95109,1358,1317
116.44238,39.95109,1359,1317
116.46048,39.96743,1360,1317
116.4945,39.99818,1361,1317
116.51116,40.01306,1362,1317
116.55544,40.0298,1363,1317
116.57507,40.04333,1364,1317
116.58367,40.05955,1365,1317
116.5834,40.06123,1366,1317
116.58284,40.06485,1367,1317
116.5822,40.06891,1368,1317
116.58649,40.07689,1369,1317
116.58607,40.07949,1370,1317
116.57903,40.08001,1371,1317
116.58246,40.0894,1372,1317
116.58235,40.1125,1373,1317
116.59899,40.11666,1374,1317
116.62286,40.11633,1375,1317
116.64699,40.11616,1376,1317
116.68448,40.11753,1377,1317
116.75103,40.13435,1378,1317
116.81656,40.14847,1379,1317
116.83473,40.15093,1380,1317
116.87759,40.15154,1381,1317
116.94669,40.15017,1382,1317
116.97174,40.1456,1383,1317
117.01526,40.1412,1384,1317
117.03912,40.14414,1385,1317
117.09762,40.14411,1386,1317
117.11248,40.14876,1387,1317
117.1267,40.14994,1388,1317
117.12736,40.15002,1389,1317
117.12556,40.14827,1390,1317
117.12555,40.14823,1391,1317
117.12555,40.14823,1392,1317
117.12555,40.14823,1393,1317
117.12555,40.14823,1394,1317
117.12555,40.14823,1395,1317
117.12555,40.14823,1396,1317
117.12555,40.14823,1397,1317
117.12555,40.14823,1398,1317
117.12555,40.14823,1399,1317
117.12555,40.14823,1400,1317
117.12555,40.14823,1401,1317
117.12555,40.14823,1402,1317
117.12555,40.14823,1403,1317
117.12555,40.14823,1404,1317
117.12555,40.14823,1405,1317
117.12555,40.14823,1406,1317
117.12555,40.14823,1407,1317
117.12555,40.14823,1408,1317
117.12555,40.14823,1409,1317
117.12564,40.14842,1410,1317
117.11641,40.15044,1411,1317
117.11642,40.14928,1412,1317
117.15048,40.14453,1413,1317
117.15654,40.14451,1414,1317
117.21873,40.1487,1415,1317
117.21878,40.15073,1416,1317
117.23833,40.17485,1417,1317
117.24253,40.17542,1418,1317
117.27515,40.17971,1419,1317
117.27513,40.1797,1420,1317
117.29293,40.18436,1421,1317
117.29968,40.19071,1422,1317
117.2924,40.18656,1423,1317
117.27951,40.18079,1424,1317
117.24127,40.1754,1425,1317
117.24127,40.1754,1426,1317
117.21994,40.17103,1427,1317
117.21648,40.17204,1428,1317
117.21648,40.17204,1429,1317
117.20654,40.1676,1430,1317
117.18921,40.16731,1431,1317
117.15543,40.165,1432,1317
117.14332,40.16113,1433,1317
117.11659,40.13885,1434,1317
117.1167,40.13881,1435,1317
117.1167,40.13881,1436,1317
117.1167,40.13881,1437,1317
117.1167,40.13881,1438,1317
117.1167,40.13881,1439,1317
117.11495,40.13898,1440,1317
117.11714,40.14036,1441,1317
117.12324,40.14429,1442,1317
117.14932,40.16268,1443,1317
117.16121,40.1658,1444,1317
117.20576,40.16729,1445,1317
117.21975,40.17058,1446,1317
117.26288,40.18,1447,1317
117.26288,40.18,1448,1317
117.26288,40.18,1449,1317
117.27054,40.18097,1450,1317
117.27321,40.18022,1451,1317
117.27326,40.18024,1452,1317
117.27327,40.18027,1453,1317
117.27327,40.18027,1454,1317
117.27327,40.18027,1455,1317
117.27327,40.18027,1456,1317
117.27327,40.18027,1457,1317
117.27327,40.18027,1458,1317
117.27327,40.18027,1459,1317
117.27327,40.18027,1460,1317
117.27327,40.18027,1461,1317
117.27327,40.18027,1462,1317
117.27327,40.18027,1463,1317
117.27327,40.18027,1464,1317
117.27327,40.18027,1465,1317
117.27327,40.18027,1466,1317
117.27327,40.18027,1467,1317
117.27327,40.18027,1468,1317
117.27327,40.18027,1469,1317
117.27327,40.18027,1470,1317
117.27327,40.18027,1471,1317
117.27327,40.18027,1472,1317
117.27327,40.18027,1473,1317
117.27327,40.18027,1474,1317
117.27499,40.17962,1475,1317
117.27498,40.17964,1476,1317
117.27498,40.17964,1477,1317
117.27498,40.17964,1478,1317
117.27498,40.17964,1479,1317
117.27498,40.17964,1480,1317
117.27498,40.17964,1481,1317
117.27498,40.17964,1482,1317
117.27498,40.17964,1483,1317
117.27498,40.17964,1484,1317
117.27498,40.17964,1485,1317
117.27498,40.17964,1486,1317
117.27498,40.17964,1487,1317
117.27498,40.17964,1488,1317
117.27498,40.17964,1489,1317
117.27498,40.17964,1490,1317
117.27498,40.17964,1491,1317
117.27498,40.17964,1492,1317
117.27498,40.17964,1493,1317
117.27498,40.17964,1494,1317
117.27498,40.17964,1495,1317
117.27498,40.17964,1496,1317
117.27498,40.17964,1497,1317
117.25599,40.17719,1498,1317
117.25352,40.17667,1499,1317
117.18984,40.1673,1500,1317
117.1873,40.16722,1501,1317
117.1389,40.15838,1502,1317
117.13707,40.15716,1503,1317
117.12567,40.14831,1504,1317
117.12567,40.14831,1505,1317
117.1268,40.14877,1506,1317
117.12776,40.14896,1507,1317
117.12997,40.14804,1508,1317
117.12561,40.14903,1509,1317
117.1165,40.1446,1510,1317
117.11723,40.13471,1511,1317
117.11087,40.12097,1512,1317
117.10794,40.10004,1513,1317
117.10294,40.08997,1514,1317
117.0811,40.08838,1515,1317
117.06446,40.08662,1516,1317
117.06107,40.09149,1517,1317
117.06102,40.09137,1518,1317
117.06102,40.09137,1519,1317
117.06097,40.09147,1520,1317
117.06097,40.09147,1521,1317
117.06097,40.09147,1522,1317
117.06097,40.09147,1523,1317
117.06097,40.09147,1524,1317
117.06097,40.09147,1525,1317
117.06097,40.09147,1526,1317
117.06097,40.09147,1527,1317
117.06097,40.09147,1528,1317
117.06097,40.09147,1529,1317
117.06097,40.09147,1530,1317
117.06097,40.09147,1531,1317
117.06097,40.09147,1532,1317
117.07604,40.08789,1533,1317
117.10489,40.09258,1534,1317
117.10779,40.11129,1535,1317
117.11731,40.13482,1536,1317
117.12138,40.14427,1537,1317
117.12987,40.14829,1538,1317
117.12945,40.15072,1539,1317
117.15433,40.16459,1540,1317
117.17932,40.16694,1541,1317
117.21349,40.16841,1542,1317
117.23745,40.1746,1543,1317
117.27521,40.17969,1544,1317
117.27511,40.17966,1545,1317
117.23337,40.17359,1546,1317
117.21659,40.16956,1547,1317
117.17726,40.16693,1548,1317
117.16207,40.16613,1549,1317
117.16207,40.16613,1550,1317
117.16207,40.16613,1551,1317
117.13057,40.1521,1552,1317
117.12953,40.14872,1553,1317
117.13005,40.14799,1554,1317
117.12535,40.14833,1555,1317
117.12535,40.14833,1556,1317
117.11958,40.14897,1557,1317
117.11649,40.14479,1558,1317
117.11617,40.13906,1559,1317
117.11617,40.13906,1560,1317
117.11679,40.13895,1561,1317
117.11945,40.14428,1562,1317
117.12555,40.14828,1563,1317
117.12537,40.14838,1564,1317
117.1253,40.14837,1565,1317
117.11523,40.15288,1566,1317
117.11523,40.15288,1567,1317
117.13354,40.1549,1568,1317
117.1363,40.15658,1569,1317
117.18087,40.16701,1570,1317
117.18322,40.16709,1571,1317
117.24193,40.1754,1572,1317
117.24439,40.17542,1573,1317
117.27322,40.18027,1574,1317
117.27318,40.18019,1575,1317
117.27318,40.18019,1576,1317
117.27318,40.18019,1577,1317
117.27217,40.1801,1578,1317
117.27352,40.18156,1579,1317
117.29599,40.18949,1580,1317
117.31216,40.19595,1581,1317
117.32412,40.23237,1582,1317
117.32176,40.24575,1583,1317
117.31136,40.2801,1584,1317
117.31335,40.28761,1585,1317
