x,y,k,tid
116.44437,39.94364,0,1322
116.45461,39.95388,1,1322
116.46005,39.95857,2,1322
116.46177,39.95613,3,1322
116.46404,39.94137,4,1322
116.46641,39.93285,5,1322
116.46852,39.92779,6,1322
116.46597,39.92931,7,1322
116.47202,39.92227,8,1322
116.48261,39.92157,9,1322
116.48261,39.92157,10,1322
116.48824,39.90788,11,1322
116.4872,39.90921,12,1322
116.47179,39.91224,13,1322
116.47766,39.91403,14,1322
116.47864,39.91534,15,1322
116.47178,39.91243,16,1322
116.47029,39.909,17,1322
116.47154,39.90864,18,1322
116.47144,39.90417,19,1322
116.46725,39.89931,20,1322
116.46053,39.89936,21,1322
116.45654,39.89936,22,1322
116.45826,39.90517,23,1322
116.46458,39.90717,24,1322
116.45614,39.9102,25,1322
116.47574,39.91438,26,1322
116.46396,39.91518,27,1322
116.45603,39.91772,28,1322
116.46021,39.91608,29,1322
116.48783,39.91415,30,1322
116.50163,39.91461,31,1322
116.51204,39.91534,32,1322
116.50593,39.91503,33,1322
116.4959,39.91568,34,1322
116.49828,39.92735,35,1322
116.49588,39.92272,36,1322
116.50852,39.92188,37,1322
116.52341,39.91582,38,1322
116.52178,39.91599,39,1322
116.52178,39.91599,40,1322
116.52349,39.91067,41,1322
116.53125,39.90794,42,1322
116.54883,39.90625,43,1322
116.54897,39.90782,44,1322
116.56889,39.90864,45,1322
116.56648,39.91431,46,1322
116.54414,39.91483,47,1322
116.52368,39.91583,48,1322
116.5224,39.92052,49,1322
116.51123,39.93097,50,1322
116.5112,39.92269,51,1322
116.49671,39.92191,52,1322
116.48607,39.92175,53,1322
116.47449,39.92165,54,1322
116.47176,39.91535,55,1322
116.46567,39.9149,56,1322
116.4558,39.93161,57,1322
116.45185,39.93241,58,1322
116.44724,39.9326,59,1322
116.45184,39.93242,60,1322
116.45376,39.93218,61,1322
116.45522,39.92308,62,1322
116.45497,39.9074,63,1322
116.4688,39.89933,64,1322
116.46988,39.89938,65,1322
116.47179,39.90207,66,1322
116.4718,39.91189,67,1322
116.47182,39.91389,68,1322
116.47218,39.92661,69,1322
116.45351,39.92724,70,1322
116.4498,39.927,71,1322
116.44697,39.92562,72,1322
116.45243,39.93235,73,1322
116.45906,39.93231,74,1322
116.46605,39.93236,75,1322
116.48301,39.93231,76,1322
116.49555,39.93467,77,1322
116.51063,39.939,78,1322
116.51885,39.96261,79,1322
116.52728,39.96651,80,1322
116.52728,39.96651,81,1322
116.5273,39.96669,82,1322
116.51722,39.96202,83,1322
116.49913,39.95944,84,1322
116.49787,39.96126,85,1322
116.49861,39.97536,86,1322
116.49861,39.97537,87,1322
116.49306,39.97065,88,1322
116.48589,39.96122,89,1322
116.48595,39.96117,90,1322
116.48595,39.96117,91,1322
116.48037,39.96989,92,1322
116.46981,39.97291,93,1322
116.46981,39.97291,94,1322
116.46397,39.96276,95,1322
116.46266,39.96122,96,1322
116.45098,39.95512,97,1322
116.44426,39.95935,98,1322
116.44394,39.95954,99,1322
116.44676,39.95719,100,1322
116.45858,39.95745,101,1322
116.45956,39.95837,102,1322
116.47778,39.97483,103,1322
116.49118,39.97065,104,1322
116.49223,39.97066,105,1322
116.54849,39.972,106,1322
116.53397,39.97338,107,1322
116.52439,39.9767,108,1322
116.50639,39.97312,109,1322
116.48394,39.97529,110,1322
116.48371,39.97872,111,1322
116.47462,39.9845,112,1322
116.4619,40.00197,113,1322
116.46718,40.0019,114,1322
116.47682,39.9909,115,1322
116.48103,39.98824,116,1322
116.48351,39.98002,117,1322
116.47699,39.97411,118,1322
116.49227,39.97067,119,1322
116.49293,39.97531,120,1322
116.48365,39.9716,121,1322
116.47865,39.96977,122,1322
116.48368,39.96826,123,1322
116.48778,39.96097,124,1322
116.39969,39.96761,125,1322
116.38757,39.96655,126,1322
116.39608,39.96399,127,1322
116.40757,39.95782,128,1322
116.4165,39.95801,129,1322
116.43866,39.95641,130,1322
116.45742,39.96564,131,1322
116.47082,39.97789,132,1322
116.46457,39.98382,133,1322
116.46535,39.99041,134,1322
116.46538,39.9904,135,1322
116.48021,39.98879,136,1322
116.48994,39.98668,137,1322
116.49038,39.99434,138,1322
116.53529,40.023,139,1322
116.58307,40.05078,140,1322
116.58231,40.07468,141,1322
116.58049,40.07647,142,1322
116.5804,40.07645,143,1322
116.5804,40.07645,144,1322
116.58082,40.07285,145,1322
116.58177,40.05929,146,1322
116.57308,40.03828,147,1322
116.53693,40.02221,148,1322
116.52928,40.01948,149,1322
116.50766,40.00922,150,1322
116.49334,39.97616,151,1322
116.49525,39.97059,152,1322
116.49525,39.97059,153,1322
116.501,39.9706,154,1322
116.51134,39.97612,155,1322
116.52769,39.96654,156,1322
116.52769,39.96654,157,1322
116.52769,39.96654,158,1322
116.52769,39.96654,159,1322
116.52769,39.96654,160,1322
116.52769,39.96654,161,1322
116.52769,39.96654,162,1322
116.52769,39.96654,163,1322
116.52769,39.96654,164,1322
116.52769,39.96654,165,1322
116.52769,39.96654,166,1322
116.52769,39.96654,167,1322
116.52767,39.96673,168,1322
116.51859,39.97631,169,1322
116.50987,39.97525,170,1322
116.49597,39.97056,171,1322
116.49597,39.97056,172,1322
116.496,39.97052,173,1322
116.496,39.97052,174,1322
116.496,39.97052,175,1322
116.49602,39.97058,176,1322
116.49599,39.97036,177,1322
116.49599,39.97036,178,1322
116.49599,39.97036,179,1322
116.49599,39.97036,180,1322
116.49599,39.97036,181,1322
116.49599,39.97036,182,1322
116.49599,39.9704,183,1322
116.49599,39.9704,184,1322
116.49599,39.9704,185,1322
116.49599,39.9704,186,1322
116.49599,39.9704,187,1322
116.49599,39.9704,188,1322
116.49599,39.9704,189,1322
116.4969,39.9682,190,1322
116.48915,39.96162,191,1322
116.47494,39.95428,192,1322
116.47345,39.95365,193,1322
116.49019,39.96088,194,1322
116.47875,39.95558,195,1322
116.4685,39.93686,196,1322
116.46688,39.9262,197,1322
116.46289,39.9254,198,1322
116.46836,39.94161,199,1322
116.4652,39.95072,200,1322
116.46562,39.94897,201,1322
116.46564,39.94893,202,1322
116.46564,39.94893,203,1322
116.46564,39.94893,204,1322
116.44717,39.93245,205,1322
116.43181,39.93252,206,1322
116.43181,39.93252,207,1322
116.43181,39.93252,208,1322
116.42843,39.91748,209,1322
116.43409,39.89783,210,1322
116.40995,39.8917,211,1322
116.38167,39.88829,212,1322
116.36324,39.888,213,1322
116.33662,39.88455,214,1322
116.33257,39.88794,215,1322
116.35205,39.888,216,1322
116.37926,39.88477,217,1322
116.38903,39.88297,218,1322
116.40022,39.8867,219,1322
116.43161,39.89179,220,1322
116.43835,39.89098,221,1322
116.44503,39.90239,222,1322
116.48387,39.92368,223,1322
116.48387,39.92368,224,1322
116.48381,39.95269,225,1322
116.49892,39.95319,226,1322
116.49892,39.95321,227,1322
116.49892,39.95321,228,1322
116.49892,39.95321,229,1322
116.52722,39.96708,230,1322
116.52722,39.96708,231,1322
116.52722,39.96709,232,1322
116.52707,39.96516,233,1322
116.52707,39.96516,234,1322
116.51111,39.94882,235,1322
116.50065,39.93623,236,1322
116.49589,39.93413,237,1322
116.4718,39.90704,238,1322
116.40604,39.85576,239,1322
116.39509,39.85404,240,1322
116.40363,39.85546,241,1322
116.40025,39.85875,242,1322
116.41492,39.87744,243,1322
116.41281,39.88787,244,1322
116.41258,39.89924,245,1322
116.42603,39.90445,246,1322
116.42117,39.90341,247,1322
116.42121,39.90341,248,1322
116.43439,39.89238,249,1322
116.42246,39.89229,250,1322
116.41176,39.89173,251,1322
116.38253,39.88826,252,1322
116.36965,39.88799,253,1322
116.35998,39.88801,254,1322
116.32353,39.88872,255,1322
116.31356,39.88742,256,1322
116.30503,39.88338,257,1322
116.31317,39.88716,258,1322
116.31932,39.88858,259,1322
116.36045,39.88787,260,1322
116.36572,39.88774,261,1322
116.37856,39.88987,262,1322
116.37856,39.88987,263,1322
116.37798,39.89983,264,1322
116.38556,39.90518,265,1322
116.41002,39.90683,266,1322
116.43808,39.93696,267,1322
116.4397,39.94305,268,1322
116.43769,39.94578,269,1322
116.45121,39.95119,270,1322
116.45866,39.95756,271,1322
116.46185,39.95406,272,1322
116.46202,39.95207,273,1322
116.46202,39.95207,274,1322
116.462,39.95216,275,1322
116.46484,39.94358,276,1322
116.46647,39.93288,277,1322
116.46093,39.92996,278,1322
116.46293,39.92429,279,1322
116.46688,39.92209,280,1322
116.4789,39.92161,281,1322
116.48359,39.87955,282,1322
116.47916,39.84927,283,1322
116.47512,39.8433,284,1322
116.481,39.83262,285,1322
116.48465,39.82924,286,1322
116.49001,39.82474,287,1322
116.51654,39.80113,288,1322
116.52239,39.79337,289,1322
116.50217,39.79977,290,1322
116.49697,39.80045,291,1322
116.49075,39.80813,292,1322
116.47185,39.83995,293,1322
116.47973,39.84973,294,1322
116.48209,39.86404,295,1322
116.4712,39.86947,296,1322
116.46613,39.87355,297,1322
116.47131,39.8761,298,1322
116.4716,39.89698,299,1322
116.47162,39.89803,300,1322
116.47032,39.90397,301,1322
116.45622,39.91032,302,1322
116.46338,39.91223,303,1322
116.47039,39.9123,304,1322
116.46691,39.92499,305,1322
116.46718,39.92482,306,1322
116.46718,39.92482,307,1322
116.46718,39.92482,308,1322
116.46718,39.92482,309,1322
116.467,39.92698,310,1322
116.46478,39.92942,311,1322
116.46096,39.92825,312,1322
116.45587,39.93114,313,1322
116.44817,39.93243,314,1322
116.42421,39.93233,315,1322
116.39794,39.93216,316,1322
116.38201,39.93197,317,1322
116.36595,39.93133,318,1322
116.33053,39.9311,319,1322
116.32017,39.93106,320,1322
116.30425,39.93718,321,1322
116.30651,39.94988,322,1322
116.31423,39.95197,323,1322
116.31598,39.95544,324,1322
116.32855,39.95621,325,1322
116.33254,39.95794,326,1322
116.33305,39.96663,327,1322
116.33713,39.97499,328,1322
116.33985,39.97296,329,1322
116.353,39.98021,330,1322
116.3693,39.98065,331,1322
116.37026,39.97918,332,1322
116.34889,39.9542,333,1322
116.34895,39.94121,334,1322
116.34895,39.94121,335,1322
116.34644,39.93616,336,1322
116.34642,39.93708,337,1322
116.34943,39.9326,338,1322
116.34942,39.93164,339,1322
116.35,39.9212,340,1322
116.35055,39.91268,341,1322
116.35025,39.9082,342,1322
116.34257,39.88194,343,1322
116.34369,39.87645,344,1322
116.34405,39.88131,345,1322
116.34636,39.89648,346,1322
116.34662,39.90117,347,1322
116.34656,39.90513,348,1322
116.3475,39.91479,349,1322
116.34762,39.91576,350,1322
116.34723,39.91858,351,1322
116.33874,39.92671,352,1322
116.33349,39.92677,353,1322
116.32789,39.92681,354,1322
116.31997,39.93299,355,1322
116.31876,39.94463,356,1322
116.31776,39.95293,357,1322
116.31776,39.95293,358,1322
116.31556,39.96542,359,1322
116.31073,39.97887,360,1322
116.31073,39.9809,361,1322
116.34667,39.98534,362,1322
116.37302,39.98586,363,1322
116.37278,39.99291,364,1322
116.37592,39.99629,365,1322
116.37685,39.98642,366,1322
116.35112,39.98571,367,1322
116.28649,39.98093,368,1322
116.2662,39.94955,369,1322
116.27339,39.95561,370,1322
116.28171,39.95601,371,1322
116.29186,39.95767,372,1322
116.29847,39.95923,373,1322
116.30046,39.96014,374,1322
116.30807,39.96295,375,1322
116.31906,39.96562,376,1322
116.32811,39.96444,377,1322
116.3368,39.94522,378,1322
116.34569,39.94012,379,1322
116.34747,39.93881,380,1322
116.36302,39.9464,381,1322
116.36453,39.94677,382,1322
116.36515,39.94688,383,1322
116.39886,39.94759,384,1322
116.422,39.94825,385,1322
116.42739,39.93627,386,1322
116.42845,39.91375,387,1322
116.42945,39.90656,388,1322
116.43481,39.90572,389,1322
116.43509,39.91191,390,1322
116.44425,39.91557,391,1322
116.46083,39.92188,392,1322
116.46083,39.92188,393,1322
116.47135,39.9215,394,1322
116.47978,39.92161,395,1322
116.51135,39.92357,396,1322
116.51129,39.94476,397,1322
116.51011,39.95591,398,1322
116.52691,39.9649,399,1322
116.52735,39.96652,400,1322
116.52731,39.96652,401,1322
116.52723,39.96656,402,1322
116.52733,39.96677,403,1322
116.52733,39.96677,404,1322
116.52733,39.96677,405,1322
116.52733,39.96677,406,1322
116.52734,39.96681,407,1322
116.52728,39.96691,408,1322
116.51199,39.95868,409,1322
116.509,39.95714,410,1322
116.50458,39.95503,411,1322
116.49711,39.96612,412,1322
116.49687,39.96938,413,1322
116.49687,39.96938,414,1322
116.49334,39.97762,415,1322
116.50058,39.97932,416,1322
116.50058,39.97932,417,1322
116.49726,39.97921,418,1322
116.48367,39.96738,419,1322
116.48367,39.96738,420,1322
116.48561,39.96394,421,1322
116.48242,39.95716,422,1322
116.46729,39.94644,423,1322
116.46811,39.94315,424,1322
116.46645,39.93279,425,1322
116.47199,39.92225,426,1322
116.47199,39.92225,427,1322
116.47177,39.91097,428,1322
116.47176,39.90832,429,1322
116.47176,39.90833,430,1322
116.4749,39.90678,431,1322
116.48507,39.869,432,1322
116.49322,39.86952,433,1322
116.51015,39.8587,434,1322
116.52221,39.84402,435,1322
116.52568,39.84339,436,1322
116.52568,39.84339,437,1322
116.52544,39.84241,438,1322
116.51112,39.85825,439,1322
116.50785,39.86084,440,1322
116.49866,39.87406,441,1322
116.47132,39.88432,442,1322
116.4715,39.89041,443,1322
116.47173,39.90342,444,1322
116.46342,39.91102,445,1322
116.45881,39.91225,446,1322
116.45416,39.93242,447,1322
116.43371,39.9329,448,1322
116.43489,39.93509,449,1322
116.44108,39.93229,450,1322
116.45592,39.94561,451,1322
116.45635,39.94807,452,1322
116.46814,39.96625,453,1322
116.47053,39.96829,454,1322
116.48388,39.97899,455,1322
116.49307,39.97374,456,1322
116.49307,39.97374,457,1322
116.49307,39.97367,458,1322
116.49307,39.97367,459,1322
116.49333,39.97851,460,1322
116.48761,39.97916,461,1322
116.48329,39.98687,462,1322
116.4456,39.95411,463,1322
116.43892,39.94849,464,1322
116.42528,39.93547,465,1322
116.4282,39.93891,466,1322
116.4282,39.93891,467,1322
116.44252,39.94732,468,1322
116.46226,39.94917,469,1322
116.46264,39.9451,470,1322
116.46525,39.95069,471,1322
116.43601,39.96456,472,1322
116.37479,39.96687,473,1322
116.34728,39.98854,474,1322
116.34656,40.00308,475,1322
116.34659,39.99677,476,1322
116.35942,39.98159,477,1322
116.3595,39.97855,478,1322
116.364,39.96714,479,1322
116.37619,39.96152,480,1322
116.37426,39.96444,481,1322
116.3634,39.96603,482,1322
116.35538,39.9512,483,1322
116.35367,39.951,484,1322
116.35047,39.91047,485,1322
116.35023,39.90831,486,1322
116.35023,39.90831,487,1322
116.34244,39.89391,488,1322
116.35822,39.86464,489,1322
116.3594,39.86398,490,1322
116.36826,39.8685,491,1322
116.38351,39.88202,492,1322
116.38351,39.88202,493,1322
116.38697,39.88255,494,1322
116.4074,39.8869,495,1322
116.43803,39.89218,496,1322
116.43813,39.89597,497,1322
116.43668,39.91193,498,1322
116.43759,39.92581,499,1322
116.44381,39.93974,500,1322
116.46264,39.94485,501,1322
116.46285,39.94327,502,1322
116.46632,39.94378,503,1322
116.46625,39.94375,504,1322
116.46625,39.94375,505,1322
116.46625,39.94375,506,1322
116.46625,39.94375,507,1322
116.46625,39.94375,508,1322
116.46625,39.94375,509,1322
116.4554,39.94548,510,1322
116.45529,39.9405,511,1322
116.43239,39.92276,512,1322
116.43446,39.92091,513,1322
116.43481,39.91418,514,1322
116.40101,39.90669,515,1322
116.39533,39.90645,516,1322
116.35745,39.90605,517,1322
116.27733,39.90234,518,1322
116.28844,39.90617,519,1322
116.30439,39.91637,520,1322
116.32019,39.92209,521,1322
116.32644,39.92176,522,1322
116.34898,39.92218,523,1322
116.35499,39.91161,524,1322
116.35488,39.91151,525,1322
116.36128,39.91272,526,1322
116.37564,39.91533,527,1322
116.37583,39.92121,528,1322
116.41324,39.92284,529,1322
116.4454,39.92558,530,1322
116.44915,39.92649,531,1322
116.45595,39.93943,532,1322
116.45598,39.94347,533,1322
116.45598,39.94347,534,1322
116.45597,39.94352,535,1322
116.45597,39.94352,536,1322
116.45597,39.94352,537,1322
116.45597,39.94352,538,1322
116.45597,39.94352,539,1322
116.45597,39.94352,540,1322
116.45597,39.94352,541,1322
116.45597,39.94361,542,1322
116.45585,39.94772,543,1322
116.44229,39.96003,544,1322
116.45539,39.94029,545,1322
116.45595,39.94341,546,1322
116.45596,39.94343,547,1322
116.45593,39.94348,548,1322
116.45597,39.94354,549,1322
116.45597,39.94354,550,1322
116.44359,39.95881,551,1322
116.45387,39.95316,552,1322
116.46716,39.95156,553,1322
116.4724,39.95329,554,1322
116.49384,39.95411,555,1322
116.4991,39.9531,556,1322
116.4991,39.9531,557,1322
116.4991,39.9531,558,1322
116.49913,39.95314,559,1322
116.49912,39.95311,560,1322
116.49912,39.95311,561,1322
116.4991,39.95313,562,1322
116.51529,39.96042,563,1322
116.51529,39.96042,564,1322
116.5193,39.9627,565,1322
116.52767,39.96689,566,1322
116.52767,39.96689,567,1322
116.52767,39.96689,568,1322
116.52736,39.96713,569,1322
116.52743,39.96714,570,1322
116.52743,39.96714,571,1322
116.52743,39.96714,572,1322
116.52743,39.96714,573,1322
116.52743,39.96714,574,1322
116.52743,39.96714,575,1322
116.52743,39.96714,576,1322
116.52743,39.96714,577,1322
116.52743,39.96714,578,1322
116.52743,39.96714,579,1322
116.52743,39.96714,580,1322
116.52743,39.96714,581,1322
116.52743,39.96714,582,1322
116.52743,39.96714,583,1322
116.52743,39.96714,584,1322
116.52743,39.96714,585,1322
116.52743,39.96714,586,1322
116.52743,39.96714,587,1322
116.52743,39.96714,588,1322
116.52743,39.96714,589,1322
116.52743,39.96714,590,1322
116.52743,39.96714,591,1322
116.52743,39.96714,592,1322
116.53424,39.97115,593,1322
116.50692,39.97347,594,1322
116.49869,39.97045,595,1322
116.49352,39.95496,596,1322
116.49033,39.93926,597,1322
116.49574,39.93538,598,1322
116.49009,39.92837,599,1322
116.48351,39.92113,600,1322
116.4395,39.90235,601,1322
116.43789,39.87166,602,1322
116.37041,39.86955,603,1322
116.3771,39.86773,604,1322
116.37712,39.86771,605,1322
116.37767,39.85975,606,1322
116.38825,39.86995,607,1322
116.39341,39.86406,608,1322
116.39427,39.86184,609,1322
116.37972,39.86973,610,1322
116.36449,39.86866,611,1322
116.34559,39.89684,612,1322
116.33107,39.92267,613,1322
116.33107,39.92267,614,1322
116.33901,39.93593,615,1322
116.34474,39.9386,616,1322
116.37374,39.9622,617,1322
116.3753,39.9754,618,1322
116.37253,39.97891,619,1322
116.35821,39.98053,620,1322
116.35799,39.98054,621,1322
116.35799,39.98054,622,1322
116.36302,39.98048,623,1322
116.36349,39.98035,624,1322
116.36158,39.98059,625,1322
116.35947,39.98041,626,1322
116.36467,39.97543,627,1322
116.36462,39.97546,628,1322
116.34546,39.97528,629,1322
116.32586,39.97532,630,1322
116.31942,39.97504,631,1322
116.38892,39.96659,632,1322
116.39791,39.96876,633,1322
116.3993,39.96917,634,1322
116.40142,39.96339,635,1322
116.40172,39.94922,636,1322
116.40162,39.94729,637,1322
116.42749,39.94468,638,1322
116.42852,39.91598,639,1322
116.42847,39.91421,640,1322
116.42058,39.90512,641,1322
116.42034,39.90423,642,1322
116.42033,39.90422,643,1322
116.42033,39.90422,644,1322
116.42033,39.90422,645,1322
116.42033,39.90422,646,1322
116.4284,39.9213,647,1322
116.42816,39.92888,648,1322
116.41109,39.94799,649,1322
116.39536,39.95008,650,1322
116.39536,39.95008,651,1322
116.4,39.95008,652,1322
116.41802,39.94802,653,1322
116.42489,39.95801,654,1322
116.42602,39.95593,655,1322
116.42848,39.9531,656,1322
116.43346,39.95669,657,1322
116.43158,39.96127,658,1322
116.43034,39.96196,659,1322
116.43916,39.96017,660,1322
116.43491,39.95903,661,1322
116.43312,39.95843,662,1322
116.43442,39.94862,663,1322
116.43467,39.94763,664,1322
116.44127,39.9442,665,1322
116.43761,39.93529,666,1322
116.43765,39.93282,667,1322
116.43765,39.93282,668,1322
116.44435,39.93228,669,1322
116.46521,39.93225,670,1322
116.46656,39.93077,671,1322
116.46651,39.93006,672,1322
116.46689,39.92487,673,1322
116.46689,39.92487,674,1322
116.4671,39.92477,675,1322
116.4671,39.92477,676,1322
116.46675,39.92912,677,1322
116.46323,39.92591,678,1322
116.46045,39.92796,679,1322
116.45567,39.94902,680,1322
116.58785,40.05517,681,1322
116.58785,40.05517,682,1322
116.5896,40.04676,683,1322
116.57965,40.04904,684,1322
116.57692,40.05012,685,1322
116.56491,40.035,686,1322
116.54286,40.02434,687,1322
116.5366,40.0221,688,1322
116.5366,40.0221,689,1322
116.50207,40.00413,690,1322
116.49112,39.98685,691,1322
116.49459,39.98671,692,1322
116.49554,39.97055,693,1322
116.49698,39.96281,694,1322
116.49001,39.95619,695,1322
116.48813,39.95591,696,1322
116.48908,39.94407,697,1322
116.47059,39.96536,698,1322
116.46747,39.9674,699,1322
116.45586,39.98821,700,1322
116.45424,39.99952,701,1322
116.45604,39.99956,702,1322
116.46495,39.98343,703,1322
116.46195,39.9781,704,1322
116.46195,39.9781,705,1322
116.47366,39.9752,706,1322
116.48488,39.96444,707,1322
116.48663,39.96334,708,1322
116.48497,39.95822,709,1322
116.45546,39.93585,710,1322
116.45546,39.93585,711,1322
116.45093,39.92347,712,1322
116.45042,39.92339,713,1322
116.44135,39.92568,714,1322
116.43282,39.92953,715,1322
116.43113,39.92958,716,1322
116.43221,39.93967,717,1322
116.45553,39.93233,718,1322
116.45553,39.93007,719,1322
116.4555,39.90654,720,1322
116.45526,39.87582,721,1322
116.45532,39.8777,722,1322
116.47016,39.88298,723,1322
116.49962,39.8735,724,1322
116.50008,39.87329,725,1322
116.50363,39.87789,726,1322
116.49113,39.87433,727,1322
116.49011,39.87489,728,1322
116.46738,39.88313,729,1322
116.46163,39.87621,730,1322
116.46161,39.8752,731,1322
116.45461,39.86763,732,1322
116.43679,39.86276,733,1322
116.43635,39.8577,734,1322
116.43261,39.85774,735,1322
116.43261,39.85774,736,1322
116.42453,39.85276,737,1322
116.42586,39.85767,738,1322
116.42577,39.85805,739,1322
116.42125,39.86442,740,1322
116.41475,39.87897,741,1322
116.41476,39.87897,742,1322
116.42347,39.88922,743,1322
116.42176,39.89583,744,1322
116.42343,39.89594,745,1322
116.43415,39.89215,746,1322
116.45318,39.88306,747,1322
116.45473,39.88308,748,1322
116.45473,39.88308,749,1322
116.46152,39.87553,750,1322
116.46708,39.87295,751,1322
116.46158,39.88181,752,1322
116.44882,39.88319,753,1322
116.44662,39.88323,754,1322
116.42397,39.88279,755,1322
116.40539,39.88686,756,1322
116.42411,39.8853,757,1322
116.42179,39.89171,758,1322
116.41416,39.89185,759,1322
116.39615,39.89086,760,1322
116.38946,39.88931,761,1322
116.37835,39.89431,762,1322
116.36799,39.90287,763,1322
116.36812,39.90333,764,1322
116.36791,39.90547,765,1322
116.36869,39.9096,766,1322
116.3691,39.90962,767,1322
116.37548,39.91095,768,1322
116.37568,39.91961,769,1322
116.37561,39.92053,770,1322
116.37267,39.92164,771,1322
116.37348,39.92931,772,1322
116.37352,39.92944,773,1322
116.37362,39.93064,774,1322
116.36781,39.93141,775,1322
116.36595,39.93133,776,1322
116.36283,39.93116,777,1322
116.34732,39.9325,778,1322
116.34733,39.93292,779,1322
116.34917,39.939,780,1322
116.35877,39.94472,781,1322
116.36286,39.94632,782,1322
116.37924,39.94737,783,1322
116.37924,39.94737,784,1322
116.41907,39.94811,785,1322
116.42306,39.9482,786,1322
116.45148,39.95393,787,1322
116.45148,39.95393,788,1322
116.45548,39.9464,789,1322
116.45546,39.94322,790,1322
116.45523,39.92558,791,1322
116.45935,39.92197,792,1322
116.46208,39.92139,793,1322
116.47093,39.91432,794,1322
116.48412,39.92145,795,1322
116.51141,39.92306,796,1322
116.51039,39.95528,797,1322
116.51158,39.95847,798,1322
116.52463,39.96822,799,1322
116.5234,39.96669,800,1322
116.52341,39.96672,801,1322
116.52342,39.96671,802,1322
116.52772,39.96657,803,1322
116.53424,39.97116,804,1322
116.58847,39.97763,805,1322
116.61156,39.98503,806,1322
116.63054,39.98701,807,1322
116.67187,39.98524,808,1322
116.67322,40.00861,809,1322
116.66219,40.06138,810,1322
116.69922,40.06048,811,1322
116.72165,40.06212,812,1322
116.7758,40.06619,813,1322
116.80047,40.06695,814,1322
116.90644,40.07758,815,1322
116.93616,40.08016,816,1322
116.98331,40.07616,817,1322
117.00472,40.0777,818,1322
117.00769,40.09773,819,1322
117.02182,40.14196,820,1322
117.0542,40.14514,821,1322
117.07923,40.14396,822,1322
117.08327,40.13524,823,1322
117.08965,40.14275,824,1322
117.12824,40.1525,825,1322
117.14013,40.1603,826,1322
117.14008,40.16028,827,1322
117.13959,40.16457,828,1322
117.1245,40.18602,829,1322
117.12449,40.18599,830,1322
117.12449,40.18599,831,1322
117.13376,40.18563,832,1322
117.1424,40.16066,833,1322
117.14375,40.15973,834,1322
117.14375,40.15973,835,1322
117.14386,40.15974,836,1322
117.14391,40.15973,837,1322
117.14391,40.15973,838,1322
117.14391,40.15973,839,1322
117.14391,40.15973,840,1322
117.14391,40.15973,841,1322
117.14391,40.15973,842,1322
117.14391,40.15973,843,1322
117.14391,40.15973,844,1322
117.14391,40.15973,845,1322
117.14391,40.15973,846,1322
117.14391,40.15973,847,1322
117.14391,40.15973,848,1322
117.14391,40.15973,849,1322
117.14391,40.15973,850,1322
117.14391,40.15973,851,1322
117.14391,40.15973,852,1322
117.14391,40.15973,853,1322
117.14391,40.15973,854,1322
117.14391,40.15973,855,1322
117.14391,40.15973,856,1322
117.14391,40.15973,857,1322
117.14391,40.15973,858,1322
117.14382,40.15973,859,1322
117.14382,40.15973,860,1322
117.14382,40.15973,861,1322
117.14382,40.15973,862,1322
117.14382,40.15973,863,1322
117.14382,40.15973,864,1322
117.14382,40.15973,865,1322
117.14382,40.15973,866,1322
117.14382,40.15973,867,1322
117.14382,40.15973,868,1322
117.14382,40.15973,869,1322
117.14394,40.15973,870,1322
117.14387,40.15972,871,1322
117.1428,40.16082,872,1322
117.15278,40.18668,873,1322
117.15273,40.18699,874,1322
117.15275,40.18709,875,1322
117.15275,40.18709,876,1322
117.15275,40.18709,877,1322
117.14712,40.18718,878,1322
117.12483,40.18612,879,1322
117.12481,40.1861,880,1322
117.12481,40.1861,881,1322
117.12481,40.1861,882,1322
117.12481,40.1861,883,1322
117.12481,40.1861,884,1322
117.1248,40.18608,885,1322
117.13569,40.18568,886,1322
117.13759,40.18559,887,1322
117.13784,40.18559,888,1322
117.13784,40.18559,889,1322
117.13784,40.18559,890,1322
117.13678,40.17943,891,1322
117.14353,40.15969,892,1322
117.14378,40.15971,893,1322
117.14378,40.15971,894,1322
117.14312,40.15972,895,1322
117.14312,40.15972,896,1322
117.13272,40.15437,897,1322
117.11165,40.14425,898,1322
117.10654,40.14421,899,1322
117.10654,40.14421,900,1322
117.10497,40.14127,901,1322
117.10388,40.1377,902,1322
117.10387,40.13771,903,1322
117.10387,40.13771,904,1322
117.10387,40.13771,905,1322
117.10381,40.13784,906,1322
117.10381,40.13784,907,1322
117.10438,40.13778,908,1322
117.10501,40.14231,909,1322
117.10501,40.14231,910,1322
117.10501,40.14231,911,1322
117.10501,40.14231,912,1322
117.10501,40.14231,913,1322
117.10498,40.14231,914,1322
117.10498,40.14231,915,1322
117.10503,40.14233,916,1322
117.10503,40.14233,917,1322
117.10503,40.14233,918,1322
117.10505,40.14235,919,1322
117.10501,40.14234,920,1322
117.10492,40.14232,921,1322
117.10491,40.14232,922,1322
117.10487,40.14232,923,1322
117.10488,40.14231,924,1322
117.10488,40.14231,925,1322
117.10488,40.14231,926,1322
117.10488,40.14231,927,1322
117.10488,40.14231,928,1322
117.09142,40.1615,929,1322
117.07969,40.17316,930,1322
117.05593,40.18667,931,1322
117.04139,40.18501,932,1322
117.04139,40.18501,933,1322
117.04139,40.18501,934,1322
117.04139,40.18501,935,1322
117.04139,40.18501,936,1322
117.04139,40.18501,937,1322
117.0425,40.18524,938,1322
117.04371,40.18523,939,1322
117.04371,40.18523,940,1322
117.07194,40.18139,941,1322
117.07194,40.1814,942,1322
117.11583,40.15603,943,1322
117.13365,40.15701,944,1322
117.14343,40.15972,945,1322
117.14343,40.15972,946,1322
117.14343,40.15972,947,1322
117.14343,40.15972,948,1322
117.14343,40.15972,949,1322
117.14343,40.15972,950,1322
117.14343,40.15972,951,1322
117.14343,40.15972,952,1322
117.14343,40.15972,953,1322
117.14343,40.15972,954,1322
117.14343,40.15972,955,1322
117.14343,40.15972,956,1322
117.14343,40.15972,957,1322
117.14343,40.15972,958,1322
117.14343,40.15972,959,1322
117.14343,40.15972,960,1322
117.14343,40.15972,961,1322
117.14343,40.15972,962,1322
117.14343,40.15972,963,1322
117.14343,40.15972,964,1322
117.14343,40.15972,965,1322
117.14343,40.15972,966,1322
117.14343,40.15972,967,1322
117.14343,40.15972,968,1322
117.14343,40.15972,969,1322
117.14343,40.15972,970,1322
117.14343,40.15972,971,1322
117.14343,40.15972,972,1322
117.14343,40.15972,973,1322
117.14343,40.15972,974,1322
117.14343,40.15972,975,1322
117.14343,40.15972,976,1322
117.14343,40.15972,977,1322
117.14343,40.15972,978,1322
117.14343,40.15972,979,1322
117.14343,40.15972,980,1322
117.14343,40.15972,981,1322
117.14343,40.15972,982,1322
117.14343,40.15972,983,1322
117.14342,40.15971,984,1322
117.14342,40.15971,985,1322
117.14342,40.15971,986,1322
117.13253,40.15704,987,1322
117.10463,40.14925,988,1322
117.06511,40.14395,989,1322
117.04714,40.14533,990,1322
117.01645,40.14146,991,1322
116.95574,40.14911,992,1322
116.93988,40.15065,993,1322
116.90286,40.15247,994,1322
116.8351,40.15101,995,1322
116.81695,40.14857,996,1322
116.81392,40.12842,997,1322
116.79725,40.07727,998,1322
116.78954,40.06606,999,1322
116.75368,40.06375,1000,1322
116.69005,40.06085,1001,1322
116.66487,40.06165,1002,1322
116.66111,40.04519,1003,1322
116.67141,40.00415,1004,1322
116.67208,39.98535,1005,1322
116.6441,39.98477,1006,1322
116.60088,39.97982,1007,1322
116.58768,39.97752,1008,1322
116.56596,39.9759,1009,1322
116.53347,39.97,1010,1322
116.52656,39.96449,1011,1322
116.52329,39.96665,1012,1322
116.52325,39.96666,1013,1322
116.52328,39.96665,1014,1322
116.52325,39.96667,1015,1322
116.52326,39.9666,1016,1322
116.52326,39.9666,1017,1322
116.52326,39.9666,1018,1322
116.52331,39.96666,1019,1322
116.52331,39.96666,1020,1322
116.5235,39.96677,1021,1322
116.52341,39.96678,1022,1322
116.52342,39.96687,1023,1322
116.52342,39.96687,1024,1322
116.52342,39.96687,1025,1322
116.52342,39.96687,1026,1322
116.52342,39.96687,1027,1322
116.52342,39.96687,1028,1322
116.52342,39.96687,1029,1322
116.52342,39.96687,1030,1322
116.52342,39.96687,1031,1322
116.52342,39.96687,1032,1322
116.52342,39.96687,1033,1322
116.52342,39.96687,1034,1322
116.52342,39.96687,1035,1322
116.52342,39.96687,1036,1322
116.52342,39.96687,1037,1322
116.52342,39.96687,1038,1322
116.52342,39.96687,1039,1322
116.52342,39.96687,1040,1322
116.52342,39.96687,1041,1322
116.52342,39.96687,1042,1322
116.52342,39.96687,1043,1322
116.52342,39.96687,1044,1322
116.52342,39.96687,1045,1322
116.52335,39.96693,1046,1322
116.52335,39.96693,1047,1322
116.52335,39.96693,1048,1322
116.52335,39.96693,1049,1322
116.52335,39.96693,1050,1322
116.52335,39.96693,1051,1322
116.52335,39.96693,1052,1322
116.52335,39.96693,1053,1322
116.52335,39.96693,1054,1322
116.52335,39.96693,1055,1322
116.52335,39.96693,1056,1322
116.49211,39.93402,1057,1322
116.47213,39.93053,1058,1322
116.46687,39.92501,1059,1322
116.47191,39.92975,1060,1322
116.46728,39.93427,1061,1322
116.44509,39.93249,1062,1322
116.42901,39.93253,1063,1322
116.40176,39.93206,1064,1322
116.38832,39.9321,1065,1322
116.36664,39.93134,1066,1322
116.33845,39.93111,1067,1322
116.33783,39.92512,1068,1322
116.33718,39.9236,1069,1322
116.3382,39.92227,1070,1322
116.34682,39.92166,1071,1322
116.34973,39.92221,1072,1322
116.34973,39.92221,1073,1322
116.37507,39.94748,1074,1322
116.40215,39.94764,1075,1322
116.42674,39.9399,1076,1322
116.45207,39.9399,1077,1322
116.45753,39.94584,1078,1322
116.46062,39.94582,1079,1322
116.45545,39.93451,1080,1322
116.4495,39.92702,1081,1322
116.43394,39.9255,1082,1322
116.4369,39.9399,1083,1322
116.43214,39.93977,1084,1322
116.41399,39.94805,1085,1322
116.37343,39.95213,1086,1322
116.37544,39.96147,1087,1322
116.38861,39.96199,1088,1322
116.4385,39.96275,1089,1322
116.45554,39.94898,1090,1322
116.45547,39.91571,1091,1322
116.45049,39.89596,1092,1322
116.45556,39.8944,1093,1322
116.45612,39.90678,1094,1322
116.45583,39.92093,1095,1322
116.46524,39.92179,1096,1322
116.46524,39.92179,1097,1322
116.47825,39.9216,1098,1322
116.49308,39.93032,1099,1322
116.49172,39.93383,1100,1322
116.4727,39.93257,1101,1322
116.46866,39.93733,1102,1322
116.46256,39.9471,1103,1322
116.45382,39.95333,1104,1322
116.44945,39.94949,1105,1322
116.4493,39.94727,1106,1322
116.46416,39.96291,1107,1322
116.53407,39.9733,1108,1322
116.50931,39.97494,1109,1322
116.49835,39.97047,1110,1322
116.48492,39.95821,1111,1322
116.47196,39.95328,1112,1322
116.46259,39.95023,1113,1322
116.46037,39.94255,1114,1322
116.46594,39.9484,1115,1322
116.46545,39.95462,1116,1322
116.45527,39.94277,1117,1322
116.44924,39.93332,1118,1322
116.44929,39.93066,1119,1322
116.44929,39.93066,1120,1322
116.43757,39.92562,1121,1322
116.43821,39.93701,1122,1322
116.44382,39.93978,1123,1322
116.45569,39.92325,1124,1322
116.46648,39.92944,1125,1322
116.46668,39.92899,1126,1322
116.46668,39.92899,1127,1322
116.46082,39.92448,1128,1322
116.4551,39.91831,1129,1322
116.4552,39.89294,1130,1322
116.44993,39.88238,1131,1322
116.44205,39.88039,1132,1322
116.43024,39.90175,1133,1322
116.42833,39.93091,1134,1322
116.41906,39.93239,1135,1322
116.37726,39.93176,1136,1322
116.37137,39.92121,1137,1322
116.36768,39.90378,1138,1322
116.37005,39.90534,1139,1322
116.36799,39.90545,1140,1322
116.37409,39.92276,1141,1322
116.37098,39.92329,1142,1322
116.37565,39.9187,1143,1322
116.38976,39.89943,1144,1322
116.3887,39.89002,1145,1322
116.4008,39.89128,1146,1322
116.42806,39.89243,1147,1322
116.44617,39.89048,1148,1322
116.4466,39.89181,1149,1322
116.45558,39.90015,1150,1322
116.45599,39.91183,1151,1322
116.46142,39.9157,1152,1322
116.46696,39.92573,1153,1322
116.46138,39.92829,1154,1322
116.45565,39.93774,1155,1322
116.41137,39.96788,1156,1322
116.41137,39.96788,1157,1322
116.40125,39.97396,1158,1322
116.40139,39.98708,1159,1322
116.40162,40.00777,1160,1322
116.40139,39.99364,1161,1322
116.40111,39.98191,1162,1322
116.40127,39.97911,1163,1322
116.40239,39.98621,1164,1322
116.43074,39.98741,1165,1322
116.46172,40.02928,1166,1322
116.47468,40.08342,1167,1322
116.47856,40.11604,1168,1322
116.47812,40.14824,1169,1322
116.48308,40.17578,1170,1322
116.49303,40.18404,1171,1322
116.51586,40.18113,1172,1322
116.51586,40.18113,1173,1322
116.53662,40.17645,1174,1322
116.59099,40.17278,1175,1322
116.61932,40.16944,1176,1322
116.64508,40.1693,1177,1322
116.64531,40.16958,1178,1322
116.64531,40.16958,1179,1322
116.64531,40.16958,1180,1322
116.63444,40.1696,1181,1322
116.61346,40.15497,1182,1322
116.59489,40.14471,1183,1322
116.56117,40.11759,1184,1322
116.55532,40.10187,1185,1322
116.55218,40.08274,1186,1322
116.53274,40.05036,1187,1322
116.47308,39.9781,1188,1322
116.46829,39.96642,1189,1322
116.45456,39.95393,1190,1322
116.45546,39.93164,1191,1322
116.45163,39.92217,1192,1322
116.45163,39.92217,1193,1322
116.44415,39.90741,1194,1322
116.45509,39.90097,1195,1322
116.45214,39.89671,1196,1322
116.44935,39.90721,1197,1322
116.44427,39.92263,1198,1322
116.44441,39.93831,1199,1322
116.45526,39.95435,1200,1322
116.46069,39.95812,1201,1322
116.46741,39.96774,1202,1322
116.46782,39.98911,1203,1322
116.46247,39.99598,1204,1322
116.46365,39.98566,1205,1322
116.47261,40.00053,1206,1322
116.48893,40.00857,1207,1322
116.45776,39.99586,1208,1322
116.4543,39.98715,1209,1322
116.46405,39.97182,1210,1322
116.44624,39.95644,1211,1322
116.43969,39.94918,1212,1322
116.44083,39.92562,1213,1322
116.43463,39.92392,1214,1322
116.47045,39.91425,1215,1322
116.47891,39.91401,1216,1322
116.51629,39.9158,1217,1322
116.54046,39.91493,1218,1322
116.54874,39.91481,1219,1322
116.58517,39.9109,1220,1322
116.59992,39.90758,1221,1322
116.62857,39.89961,1222,1322
116.63433,39.9052,1223,1322
116.58996,39.90849,1224,1322
116.57149,39.90951,1225,1322
116.56084,39.90862,1226,1322
116.51844,39.90798,1227,1322
116.48581,39.90766,1228,1322
116.48144,39.89939,1229,1322
116.46344,39.9072,1230,1322
116.44483,39.90731,1231,1322
116.44412,39.91333,1232,1322
116.45492,39.8848,1233,1322
116.46051,39.88614,1234,1322
116.45666,39.88466,1235,1322
116.47132,39.90679,1236,1322
116.47053,39.91692,1237,1322
116.46691,39.92455,1238,1322
116.45868,39.92767,1239,1322
116.45103,39.9272,1240,1322
116.43767,39.92655,1241,1322
116.43764,39.92688,1242,1322
116.43768,39.92703,1243,1322
116.44414,39.92175,1244,1322
116.46467,39.86989,1245,1322
116.48699,39.86978,1246,1322
116.49422,39.85983,1247,1322
116.49703,39.85549,1248,1322
116.49499,39.85647,1249,1322
116.49681,39.85661,1250,1322
116.49483,39.8728,1251,1322
116.48633,39.88046,1252,1322
116.47136,39.88702,1253,1322
116.45571,39.89236,1254,1322
116.45571,39.89236,1255,1322
116.45114,39.90723,1256,1322
116.44423,39.91493,1257,1322
116.44442,39.93796,1258,1322
116.45059,39.95061,1259,1322
116.46487,39.96394,1260,1322
116.47647,39.96886,1261,1322
116.47363,39.96436,1262,1322
116.46283,39.94317,1263,1322
116.45515,39.93264,1264,1322
116.44476,39.9324,1265,1322
116.42845,39.91692,1266,1322
116.4379,39.89143,1267,1322
116.43656,39.8702,1268,1322
116.41474,39.88086,1269,1322
116.42952,39.88289,1270,1322
116.43336,39.89221,1271,1322
116.43769,39.91195,1272,1322
116.44421,39.92467,1273,1322
116.43754,39.92644,1274,1322
116.44214,39.93231,1275,1322
116.45518,39.92362,1276,1322
116.45595,39.92187,1277,1322
116.45497,39.92742,1278,1322
116.44445,39.9324,1279,1322
116.431,39.93238,1280,1322
116.4253,39.9142,1281,1322
116.42739,39.89481,1282,1322
116.43409,39.92284,1283,1322
116.43229,39.92313,1284,1322
116.3984,39.94775,1285,1322
116.3732,39.95827,1286,1322
116.37371,39.97552,1287,1322
116.37317,39.97564,1288,1322
116.37328,39.97527,1289,1322
116.3861,39.97546,1290,1322
116.3861,39.97546,1291,1322
116.40173,39.94958,1292,1322
116.4104,39.94425,1293,1322
116.41048,39.94093,1294,1322
116.38784,39.93948,1295,1322
116.38532,39.94778,1296,1322
116.36367,39.94704,1297,1322
116.35327,39.94743,1298,1322
116.34318,39.92472,1299,1322
116.35411,39.94361,1300,1322
116.39398,39.94761,1301,1322
116.42333,39.94826,1302,1322
116.45247,39.98348,1303,1322
116.45905,39.98366,1304,1322
116.47781,39.97479,1305,1322
116.48352,39.98634,1306,1322
116.48352,39.98634,1307,1322
116.50226,40.00518,1308,1322
116.57332,40.04134,1309,1322
116.58321,40.06244,1310,1322
116.58678,40.07778,1311,1322
116.58196,40.06584,1312,1322
116.58565,40.05437,1313,1322
116.57761,40.0435,1314,1322
116.56284,39.9912,1315,1322
116.56517,39.97472,1316,1322
116.53295,39.96928,1317,1322
116.52483,39.96381,1318,1322
116.50562,39.95581,1319,1322
116.4991,39.95314,1320,1322
116.4991,39.95314,1321,1322
116.49924,39.9532,1322,1322
116.52406,39.96683,1323,1322
116.52331,39.96676,1324,1322
116.52331,39.96676,1325,1322
116.52331,39.96676,1326,1322
116.52331,39.96676,1327,1322
116.52331,39.96676,1328,1322
116.52331,39.96676,1329,1322
116.52331,39.96676,1330,1322
116.52331,39.96676,1331,1322
116.52331,39.96676,1332,1322
116.52331,39.96676,1333,1322
116.52331,39.96676,1334,1322
116.52331,39.96676,1335,1322
116.52331,39.96676,1336,1322
116.52331,39.96676,1337,1322
116.52331,39.96676,1338,1322
116.52331,39.96676,1339,1322
116.52331,39.96676,1340,1322
116.52331,39.96676,1341,1322
116.52331,39.96676,1342,1322
116.52331,39.96676,1343,1322
116.52331,39.96676,1344,1322
116.52331,39.96676,1345,1322
116.52331,39.96676,1346,1322
116.52331,39.96676,1347,1322
116.52331,39.96676,1348,1322
116.52331,39.96676,1349,1322
116.52331,39.96683,1350,1322
116.52331,39.96683,1351,1322
116.52331,39.96683,1352,1322
116.52331,39.96683,1353,1322
116.52331,39.96683,1354,1322
116.52331,39.96683,1355,1322
116.52331,39.96683,1356,1322
116.52331,39.96683,1357,1322
116.52331,39.96683,1358,1322
116.52331,39.96683,1359,1322
116.52331,39.96683,1360,1322
116.52331,39.96683,1361,1322
116.52331,39.96683,1362,1322
116.52331,39.96683,1363,1322
116.52331,39.96683,1364,1322
116.52331,39.96683,1365,1322
116.52331,39.96683,1366,1322
116.52331,39.96683,1367,1322
116.52331,39.96683,1368,1322
116.52331,39.96683,1369,1322
116.52331,39.96683,1370,1322
116.52331,39.96683,1371,1322
116.52332,39.96683,1372,1322
116.52332,39.96683,1373,1322
116.52347,39.9668,1374,1322
116.52347,39.9668,1375,1322
116.52347,39.9668,1376,1322
116.52347,39.9668,1377,1322
116.52347,39.9668,1378,1322
116.52347,39.9668,1379,1322
116.52347,39.9668,1380,1322
116.52347,39.9668,1381,1322
116.52347,39.9668,1382,1322
116.52347,39.9668,1383,1322
116.52347,39.9668,1384,1322
116.52347,39.9668,1385,1322
116.52347,39.9668,1386,1322
116.52347,39.9668,1387,1322
116.52347,39.9668,1388,1322
116.52347,39.9668,1389,1322
116.52347,39.9668,1390,1322
116.52347,39.9668,1391,1322
116.52347,39.9668,1392,1322
116.52347,39.9668,1393,1322
116.52347,39.9668,1394,1322
116.52347,39.9668,1395,1322
116.52416,39.9668,1396,1322
116.51524,39.96044,1397,1322
116.50364,39.95401,1398,1322
116.50109,39.9571,1399,1322
116.49543,39.97066,1400,1322
116.46981,39.96604,1401,1322
116.46374,39.96248,1402,1322
116.44952,39.94964,1403,1322
116.44913,39.93354,1404,1322
116.44915,39.92775,1405,1322
116.45576,39.9274,1406,1322
116.44482,39.93249,1407,1322
116.44507,39.93984,1408,1322
116.45565,39.94752,1409,1322
116.40249,39.96786,1410,1322
116.40135,39.97303,1411,1322
116.40127,39.98165,1412,1322
116.40513,39.99749,1413,1322
116.41061,39.99413,1414,1322
116.41782,39.98795,1415,1322
116.45917,39.97238,1416,1322
116.47209,39.97878,1417,1322
116.47535,39.97828,1418,1322
116.4837,39.96832,1419,1322
116.48892,39.96163,1420,1322
116.4804,39.95629,1421,1322
116.44556,39.94657,1422,1322
116.44556,39.94657,1423,1322
116.43979,39.94317,1424,1322
116.42752,39.93602,1425,1322
116.40282,39.93204,1426,1322
116.38959,39.93217,1427,1322
116.32532,39.92693,1428,1322
116.34924,39.93111,1429,1322
116.35008,39.93833,1430,1322
116.36611,39.94185,1431,1322
116.37253,39.96635,1432,1322
116.38265,39.96679,1433,1322
116.39759,39.96121,1434,1322
116.39947,39.96473,1435,1322
116.42386,39.95811,1436,1322
116.4356,39.93977,1437,1322
116.44323,39.93978,1438,1322
116.44323,39.93978,1439,1322
116.42901,39.91136,1440,1322
116.40956,39.89584,1441,1322
116.41209,39.90306,1442,1322
116.45011,39.95012,1443,1322
116.46941,39.98055,1444,1322
116.47492,39.9769,1445,1322
116.46474,39.96435,1446,1322
116.46474,39.96435,1447,1322
116.46331,39.98201,1448,1322
116.46322,39.98333,1449,1322
116.47326,39.98804,1450,1322
116.47326,39.98804,1451,1322
116.46396,39.99157,1452,1322
116.48206,39.97885,1453,1322
116.53897,39.97009,1454,1322
116.53661,39.93848,1455,1322
116.53898,39.92249,1456,1322
116.4824,39.92169,1457,1322
116.45829,39.92198,1458,1322
116.45538,39.89923,1459,1322
116.43298,39.85766,1460,1322
116.43298,39.85766,1461,1322
116.42615,39.85645,1462,1322
116.4254,39.85742,1463,1322
116.41466,39.88223,1464,1322
116.40415,39.88721,1465,1322
116.41392,39.89184,1466,1322
116.42988,39.89221,1467,1322
116.42952,39.90858,1468,1322
116.43971,39.91671,1469,1322
116.43756,39.9202,1470,1322
116.4376,39.93199,1471,1322
116.44505,39.92564,1472,1322
116.37735,39.94753,1473,1322
116.36035,39.94565,1474,1322
116.34857,39.95671,1475,1322
116.3396,39.95767,1476,1322
116.31289,39.95564,1477,1322
116.34328,39.93099,1478,1322
116.34973,39.93395,1479,1322
116.34861,39.96181,1480,1322
116.32748,39.97531,1481,1322
116.30905,39.97473,1482,1322
116.30201,39.96117,1483,1322
116.32841,39.961,1484,1322
116.34518,39.95667,1485,1322
116.34518,39.95667,1486,1322
116.34518,39.95667,1487,1322
116.34851,39.96447,1488,1322
116.34671,39.99934,1489,1322
116.34653,40.00243,1490,1322
116.34964,40.02145,1491,1322
116.33684,40.03593,1492,1322
116.33684,40.03593,1493,1322
116.33685,40.03831,1494,1322
116.33723,40.03846,1495,1322
116.33812,40.03855,1496,1322
116.34856,40.03556,1497,1322
116.34305,40.03806,1498,1322
116.37133,39.91643,1499,1322
116.38482,39.92112,1500,1322
116.39582,39.92206,1501,1322
116.39582,39.92206,1502,1322
116.42029,39.92296,1503,1322
116.43731,39.92554,1504,1322
116.43771,39.92734,1505,1322
116.43767,39.92689,1506,1322
116.43736,39.92854,1507,1322
116.43738,39.9286,1508,1322
116.43752,39.92878,1509,1322
116.44431,39.94091,1510,1322
116.44429,39.94599,1511,1322
116.4382,39.95395,1512,1322
116.4382,39.95395,1513,1322
116.43607,39.95838,1514,1322
116.43471,39.94763,1515,1322
116.4372,39.94607,1516,1322
116.43381,39.94664,1517,1322
116.39634,39.94765,1518,1322
116.34903,39.95531,1519,1322
116.34844,39.96686,1520,1322
116.30582,39.9626,1521,1322
116.3547,39.96474,1522,1322
116.3646,39.95146,1523,1322
116.74464,40.38947,1524,1322
116.74464,40.38947,1525,1322
116.74464,40.38947,1526,1322
116.39266,39.93939,1527,1322
116.40657,39.93926,1528,1322
116.41178,39.93949,1529,1322
116.42788,39.92343,1530,1322
116.45486,39.91794,1531,1322
116.45795,39.91697,1532,1322
116.48191,39.91431,1533,1322
116.47203,39.91611,1534,1322
116.47239,39.91427,1535,1322
116.47198,39.92044,1536,1322
116.45572,39.93206,1537,1322
116.44947,39.93242,1538,1322
116.45517,39.93215,1539,1322
116.47162,39.90587,1540,1322
116.47154,39.89939,1541,1322
116.47631,39.89927,1542,1322
116.44429,39.90738,1543,1322
116.44417,39.91186,1544,1322
116.4389,39.92564,1545,1322
116.4551,39.92412,1546,1322
116.4551,39.92412,1547,1322
116.45545,39.922,1548,1322
116.47415,39.92155,1549,1322
116.51211,39.9177,1550,1322
116.51235,39.91573,1551,1322
116.53826,39.91493,1552,1322
116.54131,39.91335,1553,1322
116.5433,39.91478,1554,1322
116.51957,39.91606,1555,1322
116.4787,39.91439,1556,1322
116.4721,39.91446,1557,1322
116.45183,39.91502,1558,1322
116.43757,39.92915,1559,1322
116.44112,39.93227,1560,1322
116.45223,39.9271,1561,1322
116.44915,39.92703,1562,1322
116.43836,39.92564,1563,1322
116.43761,39.93453,1564,1322
116.41292,39.93965,1565,1322
116.4109,39.93946,1566,1322
116.43759,39.93507,1567,1322
116.42499,39.94838,1568,1322
116.35692,39.94461,1569,1322
116.34775,39.98534,1570,1322
116.34638,39.99212,1571,1322
116.33295,39.9925,1572,1322
116.36495,39.98596,1573,1322
116.38254,39.98643,1574,1322
116.38254,39.98643,1575,1322
116.43685,39.98593,1576,1322
116.44994,39.97866,1577,1322
116.48381,39.95771,1578,1322
116.49919,39.95311,1579,1322
116.50398,39.95426,1580,1322
116.52725,39.96679,1581,1322
116.52725,39.96679,1582,1322
116.52726,39.96687,1583,1322
116.52726,39.96687,1584,1322
116.52726,39.96687,1585,1322
116.52726,39.96687,1586,1322
116.52726,39.96687,1587,1322
116.52726,39.96687,1588,1322
116.52726,39.96687,1589,1322
116.52726,39.96687,1590,1322
116.52726,39.96687,1591,1322
116.52726,39.96687,1592,1322
116.52726,39.96687,1593,1322
116.52726,39.96687,1594,1322
116.52726,39.96687,1595,1322
116.52726,39.96687,1596,1322
116.52726,39.96687,1597,1322
116.52726,39.96687,1598,1322
116.52726,39.96687,1599,1322
116.52726,39.96687,1600,1322
116.52726,39.96687,1601,1322
116.52726,39.96687,1602,1322
116.52726,39.96687,1603,1322
116.52726,39.96687,1604,1322
116.52726,39.96687,1605,1322
