x,y,k,tid
116.39114,39.96773,0,1455
116.35067,39.96667,1,1455
116.34432,39.95696,2,1455
116.33097,39.95646,3,1455
116.33757,39.93128,4,1455
116.33826,39.92231,5,1455
116.33879,39.91318,6,1455
116.34671,39.91143,7,1455
116.34666,39.91122,8,1455
116.35032,39.91151,9,1455
116.25874,39.89482,10,1455
116.28142,39.89584,11,1455
116.30768,39.89562,12,1455
116.30768,39.89562,13,1455
116.30768,39.89562,14,1455
116.30768,39.89562,15,1455
116.30768,39.89562,16,1455
116.30768,39.89562,17,1455
116.35037,39.90841,18,1455
116.33932,39.9377,19,1455
116.3351,39.93737,20,1455
116.33031,39.93702,21,1455
116.3257,39.95313,22,1455
116.32552,39.95425,23,1455
116.30881,39.95584,24,1455
116.2998,39.98244,25,1455
116.30893,39.98218,26,1455
116.30911,39.98142,27,1455
116.31115,39.97496,28,1455
116.3496,39.94864,29,1455
116.3454,39.93871,30,1455
116.30391,39.93886,31,1455
116.30398,39.91686,32,1455
116.31067,39.90468,33,1455
116.31359,39.90361,34,1455
116.3058,39.89625,35,1455
116.30717,39.89532,36,1455
116.30717,39.89532,37,1455
116.30717,39.89532,38,1455
116.30717,39.89532,39,1455
116.30717,39.89532,40,1455
116.30717,39.89532,41,1455
116.35085,39.89929,42,1455
116.35061,39.91109,43,1455
116.35013,39.92625,44,1455
116.35013,39.92625,45,1455
116.34835,39.93936,46,1455
116.34836,39.93936,47,1455
116.34932,39.93593,48,1455
116.351,39.93092,49,1455
116.35985,39.92484,50,1455
116.35748,39.91318,51,1455
116.36764,39.90841,52,1455
116.37127,39.90571,53,1455
116.37611,39.90576,54,1455
116.39407,39.9063,55,1455
116.39895,39.90643,56,1455
116.45106,39.90275,57,1455
116.48407,39.92287,58,1455
116.4836,39.89772,59,1455
116.48337,39.87708,60,1455
116.48336,39.8766,61,1455
116.48379,39.8903,62,1455
116.48379,39.8903,63,1455
116.46928,39.96636,64,1455
116.45974,39.97603,65,1455
116.45923,39.97676,66,1455
116.45881,39.97757,67,1455
116.45842,39.97654,68,1455
116.45763,39.97569,69,1455
116.45067,39.98177,70,1455
116.45349,39.98378,71,1455
116.46262,39.97739,72,1455
116.46655,39.97697,73,1455
116.46671,39.97665,74,1455
116.46669,39.97672,75,1455
116.46697,39.97671,76,1455
116.46666,39.97683,77,1455
116.46666,39.97683,78,1455
116.46684,39.97673,79,1455
116.46687,39.97674,80,1455
116.46687,39.97664,81,1455
116.46687,39.97665,82,1455
116.46687,39.97665,83,1455
116.46682,39.97676,84,1455
116.46687,39.97672,85,1455
116.46688,39.9767,86,1455
116.46689,39.9767,87,1455
116.4669,39.9767,88,1455
116.4669,39.97669,89,1455
116.46689,39.97669,90,1455
116.46689,39.97668,91,1455
116.46696,39.9768,92,1455
116.46681,39.97672,93,1455
116.4668,39.97671,94,1455
116.46681,39.97671,95,1455
116.46691,39.97651,96,1455
116.4669,39.97654,97,1455
116.4669,39.97656,98,1455
116.46689,39.97656,99,1455
116.46687,39.97655,100,1455
116.46687,39.97656,101,1455
116.46687,39.97656,102,1455
116.46688,39.97655,103,1455
116.46688,39.97655,104,1455
116.46637,39.97684,105,1455
116.46637,39.97684,106,1455
116.46668,39.9765,107,1455
116.46667,39.97648,108,1455
116.46671,39.9765,109,1455
116.46673,39.97652,110,1455
116.46682,39.97661,111,1455
116.46652,39.97646,112,1455
116.46665,39.97649,113,1455
116.46666,39.9765,114,1455
116.46667,39.97651,115,1455
116.46667,39.97652,116,1455
116.4667,39.97654,117,1455
116.46672,39.97657,118,1455
116.46672,39.97658,119,1455
116.46671,39.97658,120,1455
116.46671,39.97656,121,1455
116.46671,39.97657,122,1455
116.46672,39.97658,123,1455
116.46672,39.97658,124,1455
116.46697,39.9766,125,1455
116.46671,39.97657,126,1455
116.46673,39.97659,127,1455
116.4667,39.97658,128,1455
116.46674,39.97659,129,1455
116.46688,39.97658,130,1455
116.46677,39.97659,131,1455
116.4668,39.9766,132,1455
116.4668,39.9766,133,1455
116.46681,39.97664,134,1455
116.46684,39.9766,135,1455
116.46683,39.9766,136,1455
116.46681,39.9766,137,1455
116.46681,39.97659,138,1455
116.46679,39.97659,139,1455
116.46679,39.97658,140,1455
116.46679,39.97657,141,1455
116.46678,39.97658,142,1455
116.46674,39.97657,143,1455
116.46675,39.97666,144,1455
116.46675,39.97666,145,1455
116.46675,39.97666,146,1455
116.46675,39.97666,147,1455
116.46676,39.97666,148,1455
116.46676,39.97666,149,1455
116.46676,39.97666,150,1455
116.46676,39.97666,151,1455
116.46676,39.97667,152,1455
116.46676,39.97667,153,1455
116.46678,39.97666,154,1455
116.46678,39.97666,155,1455
116.46678,39.97666,156,1455
116.46712,39.97664,157,1455
116.46679,39.9767,158,1455
116.46665,39.97625,159,1455
116.46663,39.97667,160,1455
116.46663,39.97661,161,1455
116.46662,39.97662,162,1455
116.46704,39.97617,163,1455
116.46639,39.97673,164,1455
116.46685,39.9766,165,1455
116.46681,39.97661,166,1455
116.46679,39.97662,167,1455
116.4668,39.97662,168,1455
116.4668,39.97662,169,1455
116.4668,39.97663,170,1455
116.4668,39.97663,171,1455
116.4668,39.97663,172,1455
116.4668,39.97664,173,1455
116.46681,39.97664,174,1455
116.46681,39.97664,175,1455
116.46682,39.97664,176,1455
116.46682,39.97664,177,1455
116.46682,39.97664,178,1455
116.46693,39.97692,179,1455
116.46693,39.97691,180,1455
116.46693,39.9769,181,1455
116.46693,39.9769,182,1455
116.46641,39.9771,183,1455
116.46678,39.97662,184,1455
116.46679,39.97667,185,1455
116.4668,39.97668,186,1455
116.46683,39.97671,187,1455
116.46663,39.97663,188,1455
116.46661,39.97665,189,1455
116.4668,39.97674,190,1455
116.4666,39.9766,191,1455
116.46677,39.9767,192,1455
116.46666,39.97652,193,1455
116.46673,39.9766,194,1455
116.46675,39.97662,195,1455
116.46678,39.97661,196,1455
116.46678,39.9766,197,1455
116.46681,39.97648,198,1455
116.46688,39.97688,199,1455
116.46681,39.97645,200,1455
116.46692,39.9768,201,1455
116.46687,39.97677,202,1455
116.46686,39.97676,203,1455
116.46685,39.97675,204,1455
116.46685,39.97675,205,1455
116.46685,39.97674,206,1455
116.46682,39.97673,207,1455
116.46683,39.97673,208,1455
116.46685,39.97672,209,1455
116.4669,39.9768,210,1455
116.46686,39.97668,211,1455
116.46681,39.97668,212,1455
116.46656,39.97659,213,1455
116.4666,39.97657,214,1455
116.46669,39.97666,215,1455
116.46671,39.97669,216,1455
116.46699,39.97663,217,1455
116.46689,39.97662,218,1455
116.46682,39.97661,219,1455
116.46677,39.97663,220,1455
116.46675,39.97664,221,1455
116.46675,39.97664,222,1455
116.46675,39.97664,223,1455
116.46675,39.97665,224,1455
116.46675,39.97665,225,1455
116.46676,39.97664,226,1455
116.46681,39.97679,227,1455
116.46683,39.97665,228,1455
116.46683,39.97665,229,1455
116.46664,39.97655,230,1455
116.46698,39.97686,231,1455
116.46683,39.97678,232,1455
116.46678,39.97678,233,1455
116.46677,39.97678,234,1455
116.46678,39.97676,235,1455
116.46677,39.97676,236,1455
116.4665,39.97638,237,1455
116.46674,39.97676,238,1455
116.4668,39.97678,239,1455
116.46677,39.97676,240,1455
116.46692,39.97677,241,1455
116.46684,39.97685,242,1455
116.46681,39.97677,243,1455
116.46676,39.97664,244,1455
116.46673,39.9767,245,1455
116.46673,39.9767,246,1455
116.46715,39.97466,247,1455
116.45876,39.97693,248,1455
116.45879,39.97707,249,1455
116.45876,39.97726,250,1455
116.45876,39.97722,251,1455
116.45871,39.97705,252,1455
116.45849,39.97664,253,1455
116.45849,39.97664,254,1455
116.4586,39.97633,255,1455
116.45847,39.97657,256,1455
116.4585,39.97656,257,1455
116.45852,39.97656,258,1455
116.45811,39.97621,259,1455
116.4581,39.97619,260,1455
116.4752,39.96197,261,1455
116.46905,39.95222,262,1455
116.45731,39.94841,263,1455
116.45731,39.94841,264,1455
116.45987,39.95781,265,1455
116.46205,39.95163,266,1455
116.46524,39.94339,267,1455
116.46633,39.97242,268,1455
116.52463,40.0192,269,1455
116.57909,40.04667,270,1455
116.58266,40.07956,271,1455
116.5822,40.06308,272,1455
116.56189,40.06132,273,1455
116.54126,40.05711,274,1455
116.52322,40.03304,275,1455
116.50059,40.0054,276,1455
116.48873,39.99438,277,1455
116.47137,39.97853,278,1455
116.45161,39.96067,279,1455
116.45161,39.96067,280,1455
116.43722,39.95846,281,1455
116.43984,39.96194,282,1455
116.4363,39.96449,283,1455
116.42039,39.98763,284,1455
116.40763,39.98766,285,1455
116.4019,39.99382,286,1455
116.40601,40.04476,287,1455
116.4107,40.0632,288,1455
116.4102,40.06585,289,1455
116.43213,40.06644,290,1455
116.43185,40.06623,291,1455
116.41038,40.06651,292,1455
116.40725,40.05783,293,1455
116.41159,40.02542,294,1455
116.41154,40.02508,295,1455
116.42163,40.02069,296,1455
116.47091,40.01038,297,1455
116.46678,40.01103,298,1455
116.46078,40.01455,299,1455
116.42309,39.98773,300,1455
116.37084,39.98621,301,1455
116.3034,39.98376,302,1455
116.3034,39.98376,303,1455
116.28553,39.96203,304,1455
116.2892,39.91631,305,1455
116.28202,39.91123,306,1455
116.28202,39.91123,307,1455
116.28911,39.91751,308,1455
116.30276,39.92223,309,1455
116.30853,39.92242,310,1455
116.30326,39.91993,311,1455
116.30373,39.91807,312,1455
116.30375,39.91002,313,1455
116.30381,39.90981,314,1455
116.30436,39.92143,315,1455
116.31911,39.92222,316,1455
116.3197,39.93582,317,1455
116.31876,39.94491,318,1455
116.31531,39.96548,319,1455
116.3113,39.97402,320,1455
116.32689,39.97614,321,1455
116.35597,39.97531,322,1455
116.37361,39.97536,323,1455
116.38004,39.97546,324,1455
116.39662,39.98674,325,1455
116.40977,39.98706,326,1455
116.41119,39.97453,327,1455
116.41116,39.97453,328,1455
116.41115,39.97452,329,1455
116.41115,39.97452,330,1455
116.41114,39.97452,331,1455
116.41114,39.97452,332,1455
116.4144,39.97409,333,1455
116.41849,39.98729,334,1455
116.41836,39.97343,335,1455
116.41883,39.95696,336,1455
116.41911,39.94946,337,1455
116.42773,39.9343,338,1455
116.42834,39.92603,339,1455
116.4287,39.91389,340,1455
116.4369,39.89707,341,1455
116.44434,39.88329,342,1455
116.44478,39.87435,343,1455
116.45015,39.87195,344,1455
116.45006,39.87818,345,1455
116.43409,39.85781,346,1455
116.43894,39.84434,347,1455
116.43892,39.84435,348,1455
116.44119,39.85741,349,1455
116.45248,39.864,350,1455
116.46892,39.86144,351,1455
116.4552,39.87246,352,1455
116.45551,39.88413,353,1455
116.45568,39.8976,354,1455
116.45585,39.90748,355,1455
116.45246,39.9076,356,1455
116.45445,39.89586,357,1455
116.41594,39.85618,358,1455
116.37879,39.85575,359,1455
116.35882,39.84473,360,1455
116.35878,39.83407,361,1455
116.35878,39.83407,362,1455
116.35856,39.85714,363,1455
116.35862,39.85968,364,1455
116.35778,39.87519,365,1455
116.36097,39.88302,366,1455
116.3616,39.88619,367,1455
116.36593,39.88792,368,1455
116.36735,39.88788,369,1455
116.36809,39.9055,370,1455
116.36773,39.91324,371,1455
116.37518,39.92117,372,1455
116.37353,39.92878,373,1455
116.37301,39.94091,374,1455
116.36603,39.94663,375,1455
116.3491,39.95438,376,1455
116.3491,39.95438,377,1455
116.34784,39.95521,378,1455
116.34145,39.95688,379,1455
116.34992,39.94595,380,1455
116.34908,39.94301,381,1455
116.34434,39.94278,382,1455
116.33,39.95079,383,1455
116.31602,39.96496,384,1455
116.3013,39.96874,385,1455
116.29997,39.97926,386,1455
116.2955,39.9991,387,1455
116.29546,40.00315,388,1455
116.29854,39.99069,389,1455
116.30897,39.98389,390,1455
116.32776,39.97529,391,1455
116.3392,39.9758,392,1455
116.34746,39.98426,393,1455
116.3382,39.99186,394,1455
116.33267,40.00059,395,1455
116.33622,40.00744,396,1455
116.33291,39.99167,397,1455
116.3236,39.99154,398,1455
116.30825,39.98435,399,1455
116.30062,39.96981,400,1455
116.29495,39.96597,401,1455
116.30154,39.96068,402,1455
116.30135,39.96684,403,1455
116.30245,39.95245,404,1455
116.29295,39.95088,405,1455
116.31124,39.95562,406,1455
116.3182,39.9453,407,1455
116.33899,39.93591,408,1455
116.35371,39.94339,409,1455
116.40905,39.94771,410,1455
116.41183,39.96711,411,1455
116.41536,39.98579,412,1455
116.41653,39.98722,413,1455
116.41848,39.96846,414,1455
116.41907,39.9513,415,1455
116.43811,39.93971,416,1455
116.44925,39.92811,417,1455
116.43453,39.91961,418,1455
116.44426,39.91808,419,1455
116.44929,39.9338,420,1455
116.4332,39.93979,421,1455
116.42028,39.94839,422,1455
116.37021,39.94744,423,1455
116.35025,39.90686,424,1455
116.34216,39.8988,425,1455
116.34648,39.9077,426,1455
116.35815,39.91437,427,1455
116.36713,39.92414,428,1455
116.39674,39.93197,429,1455
116.41116,39.97422,430,1455
116.41117,39.9742,431,1455
116.41117,39.97419,432,1455
116.41117,39.97419,433,1455
116.41118,39.97419,434,1455
116.41835,39.97575,435,1455
116.42415,39.99312,436,1455
116.42336,39.99357,437,1455
116.42412,39.99332,438,1455
116.42483,39.99336,439,1455
116.42408,39.99341,440,1455
116.4241,39.99342,441,1455
116.4239,39.99361,442,1455
116.42365,39.99298,443,1455
116.42384,39.99347,444,1455
116.42404,39.99322,445,1455
116.42404,39.99322,446,1455
116.42399,39.9931,447,1455
116.42409,39.99317,448,1455
116.4246,39.99277,449,1455
116.42404,39.99284,450,1455
116.42425,39.99278,451,1455
116.42414,39.99317,452,1455
116.42412,39.99295,453,1455
116.42417,39.99294,454,1455
116.42418,39.99295,455,1455
116.42418,39.99298,456,1455
116.42399,39.99258,457,1455
116.42376,39.99297,458,1455
116.42375,39.99297,459,1455
116.42441,39.99315,460,1455
116.42357,39.993,461,1455
116.42333,39.9929,462,1455
116.42382,39.99299,463,1455
116.42382,39.99303,464,1455
116.42459,39.99316,465,1455
116.42407,39.9929,466,1455
116.42402,39.99307,467,1455
116.42405,39.99306,468,1455
116.42396,39.99305,469,1455
116.42365,39.99326,470,1455
116.42414,39.99308,471,1455
116.42452,39.99316,472,1455
116.42365,39.99313,473,1455
116.4239,39.9931,474,1455
116.4239,39.9931,475,1455
116.42403,39.9932,476,1455
116.42436,39.99322,477,1455
116.42411,39.99324,478,1455
116.42434,39.9932,479,1455
116.42436,39.99316,480,1455
116.42417,39.99316,481,1455
116.42382,39.99306,482,1455
116.4245,39.99313,483,1455
116.42387,39.99306,484,1455
116.42358,39.99286,485,1455
116.42372,39.99297,486,1455
116.4237,39.9932,487,1455
116.42325,39.99349,488,1455
116.42384,39.99329,489,1455
116.42396,39.9933,490,1455
116.42346,39.9934,491,1455
116.42396,39.99366,492,1455
116.42401,39.99245,493,1455
116.411,39.98997,494,1455
116.42402,39.99338,495,1455
116.42425,39.99322,496,1455
116.42429,39.993,497,1455
116.42433,39.99288,498,1455
116.42433,39.99288,499,1455
116.42424,39.99229,500,1455
116.41092,39.98177,501,1455
116.41256,39.95184,502,1455
116.41405,39.94783,503,1455
116.41529,39.94778,504,1455
116.41878,39.9626,505,1455
116.40814,39.96073,506,1455
116.41166,39.96051,507,1455
116.41138,39.97787,508,1455
116.41793,39.98679,509,1455
116.47625,39.96147,510,1455
116.47343,39.92164,511,1455
116.47526,39.91398,512,1455
116.47883,39.9139,513,1455
116.48344,39.91063,514,1455
116.46621,39.90744,515,1455
116.45567,39.92214,516,1455
116.45581,39.93402,517,1455
116.46179,39.95575,518,1455
116.46838,39.97585,519,1455
116.46636,39.97679,520,1455
116.46651,39.97684,521,1455
116.46652,39.97683,522,1455
116.46649,39.97687,523,1455
116.46651,39.97686,524,1455
116.46652,39.97685,525,1455
116.46596,39.97676,526,1455
116.466,39.97677,527,1455
116.466,39.97677,528,1455
116.46624,39.97683,529,1455
116.46632,39.97681,530,1455
116.46636,39.97678,531,1455
116.46641,39.9768,532,1455
116.46643,39.97679,533,1455
116.46665,39.9771,534,1455
116.4667,39.9771,535,1455
116.4667,39.97689,536,1455
116.46708,39.97694,537,1455
116.46653,39.97673,538,1455
116.46653,39.97676,539,1455
116.46653,39.97676,540,1455
116.46654,39.97685,541,1455
116.46654,39.97683,542,1455
116.46654,39.97684,543,1455
116.46655,39.97683,544,1455
116.46655,39.97682,545,1455
116.46654,39.97683,546,1455
116.46653,39.97683,547,1455
116.46653,39.97683,548,1455
116.46652,39.97683,549,1455
116.46652,39.97683,550,1455
116.46652,39.97684,551,1455
116.46652,39.97684,552,1455
116.46652,39.97683,553,1455
116.46651,39.97683,554,1455
116.46642,39.97677,555,1455
116.46643,39.97676,556,1455
116.46638,39.97668,557,1455
116.46638,39.97668,558,1455
116.46644,39.97681,559,1455
116.46644,39.97682,560,1455
116.46644,39.97679,561,1455
116.46647,39.97679,562,1455
116.46646,39.97679,563,1455
116.46647,39.97678,564,1455
116.46319,39.97095,565,1455
116.45044,39.9576,566,1455
116.4413,39.9612,567,1455
116.42712,39.95835,568,1455
116.42479,39.95766,569,1455
116.42606,39.95269,570,1455
116.39067,39.94774,571,1455
116.37736,39.95636,572,1455
116.37736,39.95594,573,1455
116.37364,39.95655,574,1455
116.37035,39.94761,575,1455
116.34923,39.93906,576,1455
116.34971,39.92657,577,1455
116.33866,39.92203,578,1455
116.27733,39.92303,579,1455
116.27076,39.90598,580,1455
116.28806,39.90627,581,1455
116.30602,39.90569,582,1455
116.3061,39.90666,583,1455
116.30563,39.90719,584,1455
116.30433,39.92478,585,1455
116.31748,39.93745,586,1455
116.31704,39.95743,587,1455
116.29048,39.95751,588,1455
116.27438,39.9611,589,1455
116.27438,39.9611,590,1455
116.29332,39.95786,591,1455
116.30245,39.95615,592,1455
116.30373,39.95152,593,1455
116.30206,39.96302,594,1455
116.2997,39.98257,595,1455
116.30333,39.98372,596,1455
116.30331,39.98382,597,1455
116.30366,39.98371,598,1455
116.31589,39.99109,599,1455
116.318,39.99111,600,1455
116.32643,39.99452,601,1455
116.30503,39.99845,602,1455
116.29846,39.99211,603,1455
116.30069,39.9837,604,1455
116.3483,39.97889,605,1455
116.3483,39.97889,606,1455
116.32921,39.97506,607,1455
116.33189,39.974,608,1455
116.33524,39.97504,609,1455
116.35923,39.97519,610,1455
116.3698,39.97678,611,1455
116.36664,39.97604,612,1455
116.36366,39.96841,613,1455
116.36487,39.95356,614,1455
116.36521,39.94738,615,1455
116.36521,39.94738,616,1455
116.35282,39.94646,617,1455
116.35227,39.94631,618,1455
116.34863,39.94888,619,1455
116.34863,39.94888,620,1455
116.34891,39.94946,621,1455
116.34884,39.94923,622,1455
116.32064,39.97505,623,1455
116.313,39.97965,624,1455
116.30762,39.9804,625,1455
116.30775,39.98156,626,1455
116.32109,39.98444,627,1455
116.34696,39.96325,628,1455
116.35926,39.97305,629,1455
116.35942,39.97203,630,1455
116.3596,39.97484,631,1455
116.36379,39.96766,632,1455
116.34877,39.94983,633,1455
116.34944,39.94878,634,1455
116.34962,39.9388,635,1455
116.39384,39.94757,636,1455
116.40546,39.9522,637,1455
116.40378,39.95234,638,1455
116.40379,39.95232,639,1455
116.40264,39.95221,640,1455
116.40171,39.96066,641,1455
116.40171,39.96066,642,1455
116.38931,39.97552,643,1455
116.3703,39.97542,644,1455
116.36295,39.97541,645,1455
116.36007,39.97545,646,1455
116.34827,39.97535,647,1455
116.35026,39.98018,648,1455
116.34708,39.98392,649,1455
116.34709,39.98386,650,1455
116.34709,39.98372,651,1455
116.34713,39.98364,652,1455
116.34713,39.98364,653,1455
116.34733,39.98337,654,1455
116.34739,39.98305,655,1455
116.36027,39.96641,656,1455
116.40284,39.96748,657,1455
116.4362,39.96436,658,1455
116.46183,39.94977,659,1455
116.46527,39.94873,660,1455
116.46406,39.9505,661,1455
116.45549,39.9348,662,1455
116.45549,39.9348,663,1455
116.44996,39.93237,664,1455
116.42834,39.91858,665,1455
116.41168,39.90739,666,1455
116.41202,39.90241,667,1455
116.41236,39.89597,668,1455
116.41068,39.89573,669,1455
116.37095,39.89865,670,1455
116.3073,39.89604,671,1455
116.36097,39.90587,672,1455
116.39914,39.90655,673,1455
116.43403,39.90711,674,1455
116.45506,39.90626,675,1455
116.45506,39.90626,676,1455
116.45822,39.89942,677,1455
116.45857,39.8994,678,1455
116.45857,39.89938,679,1455
116.45856,39.89937,680,1455
116.45857,39.89938,681,1455
116.45857,39.89938,682,1455
116.4559,39.91389,683,1455
116.45591,39.92965,684,1455
116.45225,39.93255,685,1455
116.45202,39.93269,686,1455
116.4502,39.93254,687,1455
116.43056,39.93536,688,1455
116.43051,39.93307,689,1455
116.42947,39.90707,690,1455
116.4549,39.89306,691,1455
116.45568,39.91194,692,1455
116.44506,39.93239,693,1455
116.42763,39.9421,694,1455
116.40976,39.94812,695,1455
116.38779,39.9476,696,1455
116.37375,39.93348,697,1455
116.37375,39.93348,698,1455
116.36333,39.93114,699,1455
116.35205,39.92715,700,1455
116.35181,39.92712,701,1455
116.34063,39.93801,702,1455
116.34039,39.93794,703,1455
116.31379,39.94485,704,1455
116.31149,39.94478,705,1455
116.31149,39.94478,706,1455
116.32521,39.93683,707,1455
116.3317,39.93672,708,1455
116.3375,39.94738,709,1455
116.32947,39.94523,710,1455
116.34171,39.94869,711,1455
116.33966,39.93771,712,1455
116.31931,39.94094,713,1455
116.31931,39.94094,714,1455
116.31867,39.9449,715,1455
116.32886,39.95089,716,1455
116.3482,39.95666,717,1455
116.37296,39.98909,718,1455
116.37655,39.98661,719,1455
116.35876,39.9947,720,1455
116.36043,39.99973,721,1455
116.35461,39.99997,722,1455
116.36251,39.99231,723,1455
116.37311,39.98233,724,1455
116.3732,39.9776,725,1455
116.36287,39.97535,726,1455
116.3472,39.96433,727,1455
116.27183,39.90609,728,1455
116.28888,39.89613,729,1455
116.28689,39.89898,730,1455
116.30758,39.89558,731,1455
116.30758,39.89558,732,1455
116.30758,39.89558,733,1455
116.30758,39.89558,734,1455
116.30758,39.89558,735,1455
116.30758,39.89558,736,1455
116.30758,39.89558,737,1455
116.30758,39.89558,738,1455
116.30758,39.89558,739,1455
116.30758,39.89558,740,1455
116.30758,39.89558,741,1455
116.30758,39.89558,742,1455
116.30758,39.89558,743,1455
116.30758,39.89558,744,1455
116.30758,39.89558,745,1455
116.30758,39.89558,746,1455
116.30758,39.89558,747,1455
116.30758,39.89558,748,1455
116.30758,39.89558,749,1455
116.30758,39.89558,750,1455
116.30758,39.89558,751,1455
116.30758,39.89558,752,1455
116.30758,39.89558,753,1455
116.30758,39.89558,754,1455
116.30758,39.89558,755,1455
116.30758,39.89558,756,1455
116.30758,39.89558,757,1455
116.30758,39.89558,758,1455
116.30758,39.89558,759,1455
116.30758,39.89558,760,1455
116.30758,39.89558,761,1455
116.30758,39.89558,762,1455
116.30758,39.89558,763,1455
116.30758,39.89558,764,1455
116.30758,39.89558,765,1455
116.30758,39.89558,766,1455
116.30758,39.89558,767,1455
116.30758,39.89558,768,1455
116.30758,39.89558,769,1455
116.30758,39.89558,770,1455
116.30758,39.89558,771,1455
116.30758,39.89558,772,1455
116.30758,39.89558,773,1455
116.30758,39.89558,774,1455
116.30758,39.89558,775,1455
116.30758,39.89558,776,1455
116.30758,39.89558,777,1455
116.30758,39.89558,778,1455
116.30758,39.89558,779,1455
116.30758,39.89558,780,1455
116.30758,39.89558,781,1455
116.30758,39.89558,782,1455
116.30758,39.89558,783,1455
116.30758,39.89558,784,1455
116.30758,39.89558,785,1455
116.30758,39.89558,786,1455
116.30758,39.89558,787,1455
116.30758,39.89558,788,1455
116.30758,39.89558,789,1455
116.30758,39.89558,790,1455
116.30758,39.89558,791,1455
116.30758,39.89558,792,1455
116.35515,39.90586,793,1455
116.39311,39.90627,794,1455
116.41918,39.90374,795,1455
116.41884,39.90373,796,1455
116.40528,39.90854,797,1455
116.40817,39.9145,798,1455
116.4047,39.92009,799,1455
116.40452,39.92376,800,1455
116.4117,39.90934,801,1455
116.41239,39.89221,802,1455
116.39271,39.88518,803,1455
116.39281,39.86404,804,1455
116.38865,39.87001,805,1455
116.36673,39.86886,806,1455
116.37709,39.86915,807,1455
116.39124,39.86944,808,1455
116.41489,39.87387,809,1455
116.41284,39.88852,810,1455
116.44771,39.8921,811,1455
116.47083,39.89191,812,1455
116.47162,39.90598,813,1455
116.47206,39.92087,814,1455
116.48404,39.9363,815,1455
116.46653,39.97711,816,1455
116.46665,39.97689,817,1455
116.46657,39.9769,818,1455
116.4663,39.97699,819,1455
116.46659,39.97728,820,1455
116.46638,39.97715,821,1455
116.46641,39.97714,822,1455
116.46643,39.97715,823,1455
116.46631,39.97707,824,1455
116.46636,39.97707,825,1455
116.46653,39.97672,826,1455
116.46634,39.97701,827,1455
116.46634,39.97701,828,1455
116.46637,39.97704,829,1455
116.46638,39.97705,830,1455
116.46637,39.97704,831,1455
116.46636,39.97703,832,1455
116.46635,39.97704,833,1455
116.46635,39.97703,834,1455
116.46635,39.97701,835,1455
116.46634,39.97702,836,1455
116.46634,39.97701,837,1455
116.46634,39.97701,838,1455
116.46634,39.977,839,1455
116.46635,39.977,840,1455
116.46635,39.97699,841,1455
116.46636,39.97699,842,1455
116.46636,39.97698,843,1455
116.46636,39.97698,844,1455
116.46637,39.97697,845,1455
116.46657,39.97689,846,1455
116.46651,39.97689,847,1455
116.46647,39.97689,848,1455
116.46186,39.97802,849,1455
116.45971,39.9768,850,1455
116.45931,39.97651,851,1455
116.45945,39.97659,852,1455
116.45883,39.97699,853,1455
116.45889,39.97659,854,1455
116.45876,39.97669,855,1455
116.45875,39.97661,856,1455
116.4587,39.97697,857,1455
116.4587,39.97697,858,1455
116.4585,39.97647,859,1455
116.45902,39.97771,860,1455
116.45827,39.97607,861,1455
116.45831,39.97618,862,1455
116.45793,39.97589,863,1455
116.47338,39.97913,864,1455
116.53606,40.02314,865,1455
116.56623,40.04062,866,1455
116.56474,40.03992,867,1455
116.56033,40.04949,868,1455
116.56308,40.0663,869,1455
116.56558,40.07075,870,1455
116.5656,40.07078,871,1455
116.56561,40.07079,872,1455
116.56562,40.07081,873,1455
116.56563,40.07082,874,1455
116.56564,40.07083,875,1455
116.56564,40.07083,876,1455
116.56564,40.07083,877,1455
116.56564,40.07083,878,1455
116.56564,40.07083,879,1455
116.56564,40.07083,880,1455
116.56565,40.07083,881,1455
116.56565,40.07083,882,1455
116.56565,40.07083,883,1455
116.56565,40.07083,884,1455
116.56565,40.07083,885,1455
116.56565,40.07083,886,1455
116.56564,40.07083,887,1455
116.56564,40.07083,888,1455
116.56564,40.07083,889,1455
116.56564,40.07083,890,1455
116.56564,40.07083,891,1455
116.56565,40.07083,892,1455
116.56565,40.07083,893,1455
116.56564,40.07083,894,1455
116.56558,40.07087,895,1455
116.56561,40.07087,896,1455
116.56537,40.0707,897,1455
116.56566,40.07083,898,1455
116.56566,40.07082,899,1455
116.56566,40.07082,900,1455
116.56566,40.07082,901,1455
116.56566,40.07082,902,1455
116.56566,40.07083,903,1455
116.56566,40.07083,904,1455
116.56567,40.07083,905,1455
116.56567,40.07083,906,1455
116.56567,40.07083,907,1455
116.56567,40.07083,908,1455
116.56567,40.07083,909,1455
116.56567,40.07084,910,1455
116.56567,40.07084,911,1455
116.56267,40.07007,912,1455
116.56269,40.07008,913,1455
116.57321,40.06309,914,1455
116.5732,40.06307,915,1455
116.57846,40.06264,916,1455
116.57847,40.06262,917,1455
116.57847,40.06262,918,1455
116.58282,40.06067,919,1455
116.58285,40.06031,920,1455
116.58131,40.07088,921,1455
116.58249,40.07456,922,1455
116.58459,40.07654,923,1455
116.58677,40.07693,924,1455
116.58755,40.07745,925,1455
116.58755,40.07745,926,1455
116.58755,40.07745,927,1455
116.58755,40.07745,928,1455
116.57562,40.04413,929,1455
116.57562,40.04413,930,1455
116.50613,40.00875,931,1455
116.46411,39.97113,932,1455
116.48373,39.93052,933,1455
116.44766,39.90187,934,1455
116.43185,39.9065,935,1455
116.43185,39.9065,936,1455
116.43498,39.90668,937,1455
116.43496,39.91314,938,1455
116.43494,39.91315,939,1455
116.43497,39.91314,940,1455
116.43485,39.91107,941,1455
116.3951,39.90654,942,1455
116.36766,39.90601,943,1455
116.35088,39.91209,944,1455
116.35028,39.91049,945,1455
116.34917,39.91149,946,1455
116.34917,39.91149,947,1455
116.34917,39.91149,948,1455
116.34917,39.91149,949,1455
116.34978,39.9053,950,1455
116.34972,39.93202,951,1455
116.40044,39.94769,952,1455
116.4533,39.95273,953,1455
116.46794,39.97548,954,1455
116.46637,39.97693,955,1455
116.46633,39.97694,956,1455
116.46633,39.97694,957,1455
116.46633,39.97695,958,1455
116.46632,39.97695,959,1455
116.46633,39.97695,960,1455
116.46633,39.97695,961,1455
116.46633,39.97695,962,1455
116.46629,39.97705,963,1455
116.46628,39.97703,964,1455
116.46626,39.97703,965,1455
116.46627,39.97721,966,1455
116.46629,39.97717,967,1455
116.4663,39.97712,968,1455
116.46631,39.9771,969,1455
116.46685,39.97638,970,1455
116.46638,39.97693,971,1455
116.46636,39.97689,972,1455
116.46634,39.97691,973,1455
116.46633,39.97698,974,1455
116.46635,39.97699,975,1455
116.46638,39.97691,976,1455
116.46637,39.97692,977,1455
116.46637,39.97694,978,1455
116.46636,39.97693,979,1455
116.46635,39.97694,980,1455
116.46634,39.97693,981,1455
116.46634,39.97693,982,1455
116.46634,39.97693,983,1455
116.46634,39.97693,984,1455
116.46634,39.97693,985,1455
116.46634,39.97694,986,1455
116.46634,39.97695,987,1455
116.46634,39.97695,988,1455
116.46634,39.97695,989,1455
116.46634,39.97695,990,1455
116.46633,39.97695,991,1455
116.46633,39.97695,992,1455
116.46633,39.97695,993,1455
116.46633,39.97695,994,1455
116.46633,39.97695,995,1455
116.46633,39.97695,996,1455
116.46633,39.97695,997,1455
116.46633,39.97696,998,1455
116.46633,39.97696,999,1455
116.46628,39.97708,1000,1455
116.46626,39.97707,1001,1455
116.46626,39.97705,1002,1455
116.46627,39.97703,1003,1455
116.46628,39.97701,1004,1455
116.46627,39.97701,1005,1455
116.46627,39.97701,1006,1455
116.46627,39.977,1007,1455
116.46627,39.977,1008,1455
116.46628,39.977,1009,1455
116.46627,39.97699,1010,1455
116.46628,39.97699,1011,1455
116.4663,39.97699,1012,1455
116.4663,39.97699,1013,1455
116.46631,39.97699,1014,1455
116.46582,39.97662,1015,1455
116.46639,39.97697,1016,1455
116.46638,39.97698,1017,1455
116.46637,39.97699,1018,1455
116.46637,39.97698,1019,1455
116.46636,39.97696,1020,1455
116.46635,39.97696,1021,1455
116.46634,39.97696,1022,1455
116.46633,39.97696,1023,1455
116.46633,39.97696,1024,1455
116.46633,39.97696,1025,1455
116.46633,39.97695,1026,1455
116.46633,39.97695,1027,1455
116.46634,39.97695,1028,1455
116.46634,39.97695,1029,1455
116.46634,39.97695,1030,1455
116.46634,39.97695,1031,1455
116.46634,39.97695,1032,1455
116.46634,39.97695,1033,1455
116.46633,39.97695,1034,1455
116.46633,39.97695,1035,1455
116.46633,39.97696,1036,1455
116.46633,39.97696,1037,1455
116.46632,39.97696,1038,1455
116.46632,39.97696,1039,1455
116.46632,39.97696,1040,1455
116.46632,39.97696,1041,1455
116.46632,39.97696,1042,1455
116.46632,39.97696,1043,1455
116.46632,39.97696,1044,1455
116.46647,39.97701,1045,1455
116.46642,39.97699,1046,1455
116.46641,39.977,1047,1455
116.46642,39.977,1048,1455
116.46641,39.97702,1049,1455
116.4664,39.97703,1050,1455
116.4664,39.97703,1051,1455
116.46638,39.97703,1052,1455
116.46637,39.97704,1053,1455
116.46636,39.97704,1054,1455
116.46635,39.97703,1055,1455
116.46635,39.97703,1056,1455
116.4663,39.97697,1057,1455
116.46629,39.977,1058,1455
116.46631,39.977,1059,1455
116.46631,39.97701,1060,1455
116.46631,39.97701,1061,1455
116.46632,39.97701,1062,1455
116.46631,39.97701,1063,1455
116.46632,39.97701,1064,1455
116.46632,39.97701,1065,1455
116.46632,39.97701,1066,1455
116.46633,39.97702,1067,1455
116.46632,39.97702,1068,1455
116.46632,39.97702,1069,1455
116.46632,39.97702,1070,1455
116.46632,39.97702,1071,1455
116.46617,39.97733,1072,1455
116.46623,39.97722,1073,1455
116.46626,39.97719,1074,1455
116.46627,39.97717,1075,1455
116.46628,39.97715,1076,1455
116.46627,39.97715,1077,1455
116.46627,39.97715,1078,1455
116.46626,39.97715,1079,1455
116.46625,39.97714,1080,1455
116.46624,39.97714,1081,1455
116.46613,39.97712,1082,1455
116.46613,39.97711,1083,1455
116.46636,39.97694,1084,1455
116.46634,39.97694,1085,1455
116.46626,39.97693,1086,1455
116.46626,39.97693,1087,1455
116.46627,39.97693,1088,1455
116.46627,39.97693,1089,1455
116.46627,39.97693,1090,1455
116.46628,39.97693,1091,1455
116.46615,39.97691,1092,1455
116.46618,39.97692,1093,1455
116.46619,39.97692,1094,1455
116.46648,39.9768,1095,1455
116.46629,39.97696,1096,1455
116.4663,39.97697,1097,1455
116.46631,39.97697,1098,1455
116.4663,39.97698,1099,1455
116.4663,39.97698,1100,1455
116.46631,39.97698,1101,1455
116.46631,39.97699,1102,1455
116.46631,39.977,1103,1455
116.46631,39.977,1104,1455
116.46631,39.97701,1105,1455
116.46631,39.97701,1106,1455
116.4663,39.97702,1107,1455
116.4663,39.97703,1108,1455
116.4663,39.97703,1109,1455
116.46637,39.97706,1110,1455
116.46637,39.977,1111,1455
116.46639,39.977,1112,1455
116.46633,39.97695,1113,1455
116.46638,39.97713,1114,1455
116.46626,39.97685,1115,1455
116.46627,39.97686,1116,1455
116.46636,39.97692,1117,1455
116.46636,39.97692,1118,1455
116.46624,39.97678,1119,1455
116.46627,39.97694,1120,1455
116.46631,39.9769,1121,1455
116.4663,39.97696,1122,1455
116.4663,39.97696,1123,1455
116.46633,39.97698,1124,1455
116.46634,39.977,1125,1455
116.46634,39.977,1126,1455
116.46635,39.97701,1127,1455
116.46635,39.977,1128,1455
116.46636,39.977,1129,1455
116.46636,39.977,1130,1455
116.46636,39.97699,1131,1455
116.46637,39.977,1132,1455
116.46636,39.977,1133,1455
116.46636,39.977,1134,1455
116.46636,39.97699,1135,1455
116.46636,39.97699,1136,1455
116.46635,39.97699,1137,1455
116.46636,39.97697,1138,1455
116.46637,39.97697,1139,1455
116.46649,39.97675,1140,1455
116.46696,39.97664,1141,1455
116.45327,39.96697,1142,1455
116.44898,39.95883,1143,1455
116.44904,39.95882,1144,1455
116.44905,39.9588,1145,1455
116.44764,39.95835,1146,1455
116.40451,39.96767,1147,1455
116.34202,39.96643,1148,1455
116.30407,39.93985,1149,1455
116.30185,39.92492,1150,1455
116.31486,39.92694,1151,1455
116.32054,39.9372,1152,1455
116.33308,39.93737,1153,1455
116.33313,39.93709,1154,1455
116.33275,39.93708,1155,1455
116.3325,39.93713,1156,1455
116.35028,39.93896,1157,1455
116.35035,39.93851,1158,1455
116.33396,39.93691,1159,1455
116.33307,39.93689,1160,1455
116.33297,39.93721,1161,1455
116.33296,39.93716,1162,1455
116.33288,39.93717,1163,1455
116.33302,39.93709,1164,1455
116.33188,39.93702,1165,1455
116.35648,39.9442,1166,1455
116.42979,39.94801,1167,1455
116.46564,39.9493,1168,1455
116.46781,39.94461,1169,1455
116.42791,39.92967,1170,1455
116.43828,39.88973,1171,1455
116.40349,39.87077,1172,1455
116.35797,39.87145,1173,1455
116.35317,39.87165,1174,1455
116.35765,39.88735,1175,1455
116.35765,39.88735,1176,1455
116.35713,39.89375,1177,1455
116.35089,39.90361,1178,1455
116.34095,39.90795,1179,1455
116.34155,39.90798,1180,1455
116.34799,39.91099,1181,1455
116.34661,39.91122,1182,1455
116.34988,39.92957,1183,1455
116.34791,39.97645,1184,1455
116.30774,39.98388,1185,1455
116.28315,40.00027,1186,1455
116.2702,40.00119,1187,1455
116.27583,39.99629,1188,1455
116.27588,39.99626,1189,1455
116.27588,39.9963,1190,1455
116.27665,39.99634,1191,1455
116.30205,39.99743,1192,1455
116.3196,39.99126,1193,1455
116.33097,39.99157,1194,1455
116.33065,39.99122,1195,1455
116.33097,39.99149,1196,1455
116.32831,39.98343,1197,1455
116.32891,39.98164,1198,1455
116.33332,39.9754,1199,1455
116.32863,39.97529,1200,1455
116.31262,39.97943,1201,1455
116.31151,39.9788,1202,1455
116.31078,39.98017,1203,1455
116.2911,39.99127,1204,1455
116.28027,40.00417,1205,1455
116.28069,39.99709,1206,1455
116.29941,39.98493,1207,1455
116.30971,39.98395,1208,1455
116.32821,39.98076,1209,1455
116.31077,39.98439,1210,1455
116.28168,40.00959,1211,1455
116.30574,40.02483,1212,1455
116.29609,40.04298,1213,1455
116.30746,40.04969,1214,1455
116.30746,40.04969,1215,1455
116.2947,40.0448,1216,1455
116.30807,40.0196,1217,1455
116.30881,39.99819,1218,1455
116.30994,39.98738,1219,1455
116.30321,39.95324,1220,1455
116.30413,39.89936,1221,1455
116.31042,39.88559,1222,1455
116.31061,39.88549,1223,1455
116.30331,39.90625,1224,1455
116.29869,39.90657,1225,1455
116.2933,39.92239,1226,1455
116.31406,39.9309,1227,1455
116.32145,39.9369,1228,1455
116.32222,39.93718,1229,1455
116.36222,39.94595,1230,1455
116.36222,39.94595,1231,1455
116.36623,39.94687,1232,1455
116.42215,39.94821,1233,1455
116.4291,39.90645,1234,1455
116.44385,39.90866,1235,1455
116.44385,39.90866,1236,1455
116.43352,39.89238,1237,1455
116.43384,39.89,1238,1455
116.4239,39.89252,1239,1455
116.41534,39.89578,1240,1455
116.41407,39.89574,1241,1455
116.34964,39.86709,1242,1455
116.32535,39.8958,1243,1455
116.28996,39.9063,1244,1455
116.27472,39.89874,1245,1455
116.27472,39.89874,1246,1455
116.26687,39.89518,1247,1455
116.23475,39.8576,1248,1455
116.19888,39.84042,1249,1455
116.197,39.83221,1250,1455
116.19762,39.83899,1251,1455
116.22528,39.8474,1252,1455
116.25712,39.8666,1253,1455
116.41612,39.94822,1254,1455
116.34912,39.94051,1255,1455
116.34214,39.89673,1256,1455
116.34061,39.89669,1257,1455
116.33262,39.90182,1258,1455
116.339,39.91691,1259,1455
116.34046,39.91699,1260,1455
116.35724,39.94444,1261,1455
116.42512,39.948,1262,1455
116.44272,39.96403,1263,1455
116.4424,39.96534,1264,1455
116.44273,39.96353,1265,1455
116.44268,39.96345,1266,1455
116.41861,39.97009,1267,1455
116.41904,39.95126,1268,1455
116.42898,39.90876,1269,1455
116.39006,39.90614,1270,1455
116.39338,39.9025,1271,1455
116.39326,39.90526,1272,1455
116.4025,39.93411,1273,1455
116.41397,39.948,1274,1455
116.46614,39.97254,1275,1455
116.5555,40.06283,1276,1455
116.55666,40.06777,1277,1455
116.55638,40.07064,1278,1455
116.55578,40.07051,1279,1455
116.55575,40.07047,1280,1455
116.56249,40.09143,1281,1455
116.55858,40.11214,1282,1455
116.61766,40.15684,1283,1455
116.64396,40.22989,1284,1455
116.64253,40.30376,1285,1455
116.69672,40.32685,1286,1455
116.78738,40.35081,1287,1455
116.78831,40.3497,1288,1455
116.78827,40.34972,1289,1455
116.78826,40.34975,1290,1455
116.78825,40.34976,1291,1455
116.78837,40.34983,1292,1455
116.78837,40.34983,1293,1455
116.78827,40.34972,1294,1455
116.78828,40.34972,1295,1455
116.78828,40.34972,1296,1455
116.78829,40.34972,1297,1455
116.78829,40.34971,1298,1455
116.7883,40.34971,1299,1455
116.7883,40.34971,1300,1455
116.7883,40.34971,1301,1455
116.78829,40.34971,1302,1455
116.7883,40.34973,1303,1455
116.7883,40.34973,1304,1455
116.7883,40.34974,1305,1455
116.7883,40.34975,1306,1455
116.78831,40.34976,1307,1455
116.7882,40.34955,1308,1455
116.78818,40.34963,1309,1455
116.78819,40.34968,1310,1455
116.7882,40.34969,1311,1455
116.78822,40.3497,1312,1455
116.78821,40.3497,1313,1455
116.78822,40.34972,1314,1455
116.78822,40.34973,1315,1455
116.78821,40.34973,1316,1455
116.78822,40.34974,1317,1455
116.78822,40.34974,1318,1455
116.78822,40.34975,1319,1455
116.78822,40.34975,1320,1455
116.78822,40.34975,1321,1455
116.78822,40.34976,1322,1455
116.78822,40.34976,1323,1455
116.78822,40.34977,1324,1455
116.78823,40.34977,1325,1455
116.78823,40.34978,1326,1455
116.78824,40.34979,1327,1455
116.78823,40.35002,1328,1455
116.7883,40.34996,1329,1455
116.78829,40.34995,1330,1455
116.78829,40.34994,1331,1455
116.78829,40.34994,1332,1455
116.78829,40.34995,1333,1455
116.78829,40.34995,1334,1455
116.78829,40.34995,1335,1455
116.7883,40.34996,1336,1455
116.7883,40.34996,1337,1455
116.78827,40.35029,1338,1455
116.78831,40.34999,1339,1455
116.78832,40.3499,1340,1455
116.78832,40.34993,1341,1455
116.78831,40.34995,1342,1455
116.78829,40.34995,1343,1455
116.7883,40.34991,1344,1455
116.78831,40.3499,1345,1455
116.78831,40.34988,1346,1455
116.7883,40.34987,1347,1455
116.7883,40.34987,1348,1455
116.7883,40.34987,1349,1455
116.7883,40.34987,1350,1455
116.78829,40.34986,1351,1455
116.78829,40.34986,1352,1455
116.78829,40.34986,1353,1455
116.78828,40.34986,1354,1455
116.78826,40.34997,1355,1455
116.78825,40.34996,1356,1455
116.78822,40.34973,1357,1455
116.78824,40.34974,1358,1455
116.78824,40.34974,1359,1455
116.78825,40.34975,1360,1455
116.78825,40.34975,1361,1455
116.78825,40.34975,1362,1455
116.78825,40.34975,1363,1455
116.78826,40.34976,1364,1455
116.78827,40.34977,1365,1455
116.78827,40.34977,1366,1455
116.78827,40.34978,1367,1455
116.78827,40.34978,1368,1455
116.78827,40.34977,1369,1455
116.78826,40.34977,1370,1455
116.78843,40.34965,1371,1455
116.78818,40.34967,1372,1455
116.78837,40.35028,1373,1455
116.78816,40.34972,1374,1455
116.78816,40.34972,1375,1455
116.78816,40.34972,1376,1455
116.78816,40.34972,1377,1455
116.7858,40.35162,1378,1455
116.7858,40.35162,1379,1455
116.78826,40.34996,1380,1455
116.7884,40.3499,1381,1455
116.78834,40.34991,1382,1455
116.78834,40.34991,1383,1455
116.78833,40.34992,1384,1455
116.78833,40.34992,1385,1455
116.78818,40.34996,1386,1455
116.78835,40.34999,1387,1455
116.78835,40.35001,1388,1455
116.78834,40.35002,1389,1455
116.78832,40.35003,1390,1455
116.78832,40.35003,1391,1455
116.78833,40.35,1392,1455
116.78787,40.3496,1393,1455
116.78822,40.34978,1394,1455
116.78807,40.34984,1395,1455
116.78806,40.34986,1396,1455
116.78805,40.34985,1397,1455
116.78809,40.34983,1398,1455
116.78831,40.34973,1399,1455
116.78835,40.34971,1400,1455
116.7882,40.34995,1401,1455
116.78818,40.34996,1402,1455
116.78816,40.34994,1403,1455
116.78816,40.34994,1404,1455
116.7881,40.34993,1405,1455
116.78813,40.3499,1406,1455
116.78814,40.3499,1407,1455
116.78816,40.34989,1408,1455
116.78817,40.34987,1409,1455
116.78817,40.34986,1410,1455
116.78818,40.34985,1411,1455
116.78819,40.34984,1412,1455
116.7882,40.34984,1413,1455
116.7882,40.34983,1414,1455
116.7882,40.34982,1415,1455
116.7882,40.34982,1416,1455
116.7882,40.34981,1417,1455
116.78821,40.34982,1418,1455
116.78821,40.34982,1419,1455
116.78821,40.34982,1420,1455
116.78821,40.34982,1421,1455
116.78821,40.34981,1422,1455
116.78821,40.34981,1423,1455
116.78821,40.34981,1424,1455
116.78821,40.34981,1425,1455
116.78819,40.34965,1426,1455
116.78821,40.3497,1427,1455
116.78824,40.34971,1428,1455
116.78824,40.34971,1429,1455
116.78824,40.34971,1430,1455
116.78825,40.34969,1431,1455
116.78824,40.34971,1432,1455
116.78824,40.34972,1433,1455
116.78825,40.34972,1434,1455
116.78825,40.34974,1435,1455
116.78825,40.34975,1436,1455
116.78826,40.34977,1437,1455
116.78828,40.34979,1438,1455
116.78827,40.34979,1439,1455
116.78828,40.34979,1440,1455
116.78828,40.34979,1441,1455
116.78828,40.3498,1442,1455
116.78827,40.3498,1443,1455
116.78828,40.3498,1444,1455
116.78839,40.35002,1445,1455
116.78833,40.34995,1446,1455
116.78833,40.34988,1447,1455
116.78833,40.34988,1448,1455
116.78834,40.34986,1449,1455
116.78836,40.34989,1450,1455
116.78835,40.34987,1451,1455
116.78829,40.34976,1452,1455
116.78831,40.34985,1453,1455
116.7881,40.34965,1454,1455
116.78835,40.34999,1455,1455
116.78831,40.34995,1456,1455
116.7883,40.34992,1457,1455
116.78829,40.34991,1458,1455
116.78828,40.34989,1459,1455
116.78828,40.34987,1460,1455
116.78828,40.34987,1461,1455
116.78828,40.34986,1462,1455
116.78828,40.34985,1463,1455
116.78828,40.34985,1464,1455
116.78828,40.34985,1465,1455
116.78828,40.34985,1466,1455
116.78828,40.34984,1467,1455
116.78828,40.34984,1468,1455
116.78827,40.34984,1469,1455
116.78827,40.34984,1470,1455
116.78828,40.34984,1471,1455
116.78828,40.34984,1472,1455
116.78828,40.34985,1473,1455
116.78828,40.34985,1474,1455
116.78828,40.34985,1475,1455
116.78832,40.35028,1476,1455
116.78832,40.35028,1477,1455
116.78825,40.34973,1478,1455
116.78825,40.34973,1479,1455
116.78826,40.34982,1480,1455
116.78825,40.3498,1481,1455
116.78825,40.34978,1482,1455
116.78825,40.34978,1483,1455
116.78826,40.34977,1484,1455
116.78825,40.34977,1485,1455
116.78825,40.34976,1486,1455
116.78825,40.34975,1487,1455
116.78825,40.34975,1488,1455
116.78826,40.34975,1489,1455
116.78826,40.34976,1490,1455
116.78826,40.34977,1491,1455
116.78826,40.34977,1492,1455
116.78826,40.34977,1493,1455
116.78826,40.34977,1494,1455
116.78826,40.34978,1495,1455
116.78826,40.34978,1496,1455
116.78827,40.34979,1497,1455
116.78827,40.34979,1498,1455
116.78813,40.34977,1499,1455
116.78835,40.34989,1500,1455
116.78834,40.34989,1501,1455
116.78816,40.34984,1502,1455
116.78818,40.34985,1503,1455
116.78819,40.34985,1504,1455
116.78818,40.34985,1505,1455
116.78819,40.34985,1506,1455
116.7882,40.34984,1507,1455
116.78822,40.34984,1508,1455
116.78823,40.34985,1509,1455
116.78823,40.34985,1510,1455
116.78827,40.34995,1511,1455
116.78829,40.34996,1512,1455
116.78832,40.34981,1513,1455
116.78834,40.34981,1514,1455
116.78836,40.34983,1515,1455
116.78825,40.34966,1516,1455
116.78823,40.34966,1517,1455
116.78823,40.34966,1518,1455
116.78822,40.34967,1519,1455
116.78822,40.34967,1520,1455
116.78823,40.34968,1521,1455
116.78823,40.34969,1522,1455
116.78823,40.34969,1523,1455
116.78823,40.3497,1524,1455
116.78823,40.3497,1525,1455
116.78823,40.3497,1526,1455
116.78823,40.34971,1527,1455
116.78827,40.34979,1528,1455
116.78826,40.3498,1529,1455
116.78827,40.34981,1530,1455
116.78827,40.34981,1531,1455
116.78826,40.34981,1532,1455
116.78827,40.34981,1533,1455
116.78825,40.3498,1534,1455
116.78826,40.3498,1535,1455
116.78826,40.3498,1536,1455
116.78825,40.3498,1537,1455
116.78825,40.34979,1538,1455
116.78824,40.34979,1539,1455
116.78824,40.34979,1540,1455
116.78824,40.34979,1541,1455
116.78824,40.34978,1542,1455
116.78823,40.34978,1543,1455
116.78823,40.34978,1544,1455
116.78823,40.34978,1545,1455
116.78823,40.34978,1546,1455
116.78823,40.34978,1547,1455
116.78823,40.34978,1548,1455
116.78823,40.34978,1549,1455
116.78823,40.34978,1550,1455
116.78823,40.34978,1551,1455
116.78823,40.34979,1552,1455
116.78823,40.34979,1553,1455
116.78824,40.34979,1554,1455
116.78824,40.34979,1555,1455
116.78824,40.34979,1556,1455
116.78825,40.34979,1557,1455
116.78825,40.34979,1558,1455
116.78825,40.34979,1559,1455
116.78825,40.34979,1560,1455
116.78826,40.34979,1561,1455
116.78895,40.34976,1562,1455
116.78839,40.34973,1563,1455
116.78817,40.34987,1564,1455
116.78832,40.34982,1565,1455
116.78871,40.34997,1566,1455
116.78829,40.34985,1567,1455
116.78814,40.3497,1568,1455
116.78816,40.34971,1569,1455
116.7882,40.34973,1570,1455
116.78823,40.34974,1571,1455
116.78823,40.34975,1572,1455
116.78824,40.34975,1573,1455
116.78824,40.34975,1574,1455
116.78824,40.34976,1575,1455
116.78824,40.34977,1576,1455
116.7882,40.34975,1577,1455
116.78838,40.34982,1578,1455
116.78839,40.34985,1579,1455
116.78849,40.34993,1580,1455
116.78849,40.34993,1581,1455
116.78827,40.3497,1582,1455
116.78827,40.3497,1583,1455
116.78828,40.3497,1584,1455
116.78829,40.3497,1585,1455
116.7883,40.34969,1586,1455
116.7883,40.3497,1587,1455
116.78831,40.3497,1588,1455
116.78831,40.34971,1589,1455
116.78832,40.34973,1590,1455
116.78833,40.34975,1591,1455
116.78834,40.34977,1592,1455
116.78834,40.34977,1593,1455
116.78835,40.34978,1594,1455
116.78818,40.34983,1595,1455
116.78822,40.34983,1596,1455
116.78824,40.34983,1597,1455
116.78833,40.34993,1598,1455
116.78832,40.34992,1599,1455
116.78831,40.34991,1600,1455
116.78829,40.34991,1601,1455
116.78827,40.34991,1602,1455
116.78827,40.3499,1603,1455
116.78827,40.34989,1604,1455
116.78826,40.34989,1605,1455
116.78827,40.34988,1606,1455
116.78827,40.34988,1607,1455
116.78827,40.34988,1608,1455
116.78827,40.34987,1609,1455
116.78827,40.34987,1610,1455
116.78827,40.34987,1611,1455
116.78828,40.34987,1612,1455
116.78828,40.34986,1613,1455
116.78828,40.34986,1614,1455
116.78828,40.34986,1615,1455
116.78828,40.34985,1616,1455
116.78828,40.34985,1617,1455
116.78828,40.34985,1618,1455
116.78828,40.34985,1619,1455
116.78828,40.34984,1620,1455
116.78828,40.34984,1621,1455
116.78828,40.34984,1622,1455
116.78828,40.34984,1623,1455
116.78841,40.35026,1624,1455
116.78841,40.35026,1625,1455
116.78834,40.35008,1626,1455
116.7882,40.35032,1627,1455
116.7882,40.34982,1628,1455
116.78823,40.34991,1629,1455
116.78826,40.34995,1630,1455
116.78826,40.34996,1631,1455
116.78825,40.34996,1632,1455
116.78826,40.3499,1633,1455
116.78826,40.34987,1634,1455
116.78826,40.34985,1635,1455
116.78826,40.34985,1636,1455
116.78826,40.34985,1637,1455
116.78826,40.34984,1638,1455
116.78826,40.34984,1639,1455
116.78826,40.34984,1640,1455
116.78826,40.34983,1641,1455
116.78826,40.34983,1642,1455
116.78826,40.34983,1643,1455
116.78826,40.34983,1644,1455
116.78826,40.34982,1645,1455
116.78823,40.34984,1646,1455
116.78825,40.34984,1647,1455
116.78826,40.34985,1648,1455
116.78826,40.34985,1649,1455
116.78827,40.34984,1650,1455
116.78828,40.34984,1651,1455
116.78828,40.34983,1652,1455
116.78829,40.34983,1653,1455
116.7883,40.34984,1654,1455
116.7883,40.34984,1655,1455
116.7883,40.34983,1656,1455
116.7883,40.34983,1657,1455
116.7883,40.34983,1658,1455
116.7883,40.34983,1659,1455
116.78829,40.34982,1660,1455
116.78865,40.34973,1661,1455
116.78847,40.34984,1662,1455
116.78867,40.35014,1663,1455
116.78829,40.3498,1664,1455
116.78827,40.34986,1665,1455
116.78828,40.34986,1666,1455
116.78881,40.35076,1667,1455
116.78836,40.35003,1668,1455
116.78837,40.35005,1669,1455
116.78824,40.34982,1670,1455
116.78824,40.34982,1671,1455
116.78838,40.34992,1672,1455
116.78836,40.34994,1673,1455
116.78835,40.34995,1674,1455
116.78836,40.34995,1675,1455
116.78836,40.34994,1676,1455
116.7884,40.34999,1677,1455
116.7884,40.34998,1678,1455
116.78841,40.34998,1679,1455
116.7884,40.34998,1680,1455
116.7884,40.3501,1681,1455
116.78771,40.35002,1682,1455
116.78776,40.34934,1683,1455
116.78775,40.34934,1684,1455
116.78775,40.34935,1685,1455
116.78775,40.34935,1686,1455
116.78787,40.35237,1687,1455
116.73784,40.33005,1688,1455
116.66408,40.32343,1689,1455
116.63764,40.29375,1690,1455
116.63733,40.24411,1691,1455
116.6361,40.20006,1692,1455
116.59564,40.14527,1693,1455
116.55746,40.11056,1694,1455
116.54878,40.06407,1695,1455
116.52159,40.03059,1696,1455
116.46897,39.97767,1697,1455
116.46643,39.97714,1698,1455
116.4492,39.95909,1699,1455
116.45549,39.92527,1700,1455
116.45484,39.87331,1701,1455
116.40252,39.85586,1702,1455
116.39684,39.85064,1703,1455
116.39708,39.85059,1704,1455
116.39654,39.8515,1705,1455
116.38434,39.87072,1706,1455
116.36887,39.87717,1707,1455
116.36887,39.87717,1708,1455
116.36107,39.88282,1709,1455
116.3685,39.89564,1710,1455
116.37023,39.90867,1711,1455
116.36211,39.91275,1712,1455
116.3505,39.91986,1713,1455
116.34811,39.93912,1714,1455
116.33401,39.93723,1715,1455
116.33337,39.93723,1716,1455
116.33298,39.93731,1717,1455
116.33192,39.93716,1718,1455
116.31966,39.92693,1719,1455
116.32914,39.9066,1720,1455
116.33703,39.90416,1721,1455
116.33758,39.90458,1722,1455
116.33758,39.90458,1723,1455
116.33779,39.90553,1724,1455
116.34265,39.88151,1725,1455
116.33763,39.83009,1726,1455
116.33512,39.81605,1727,1455
116.32886,39.80717,1728,1455
116.32429,39.80681,1729,1455
116.33005,39.81664,1730,1455
116.33002,39.81774,1731,1455
116.30756,39.8183,1732,1455
116.28114,39.83713,1733,1455
116.28114,39.83713,1734,1455
116.28379,39.8644,1735,1455
116.28379,39.8644,1736,1455
116.28908,39.87597,1737,1455
116.29192,39.88488,1738,1455
116.29076,39.87406,1739,1455
116.29034,39.87391,1740,1455
116.2772,39.8611,1741,1455
116.2817,39.83977,1742,1455
116.29756,39.8437,1743,1455
116.30571,39.84561,1744,1455
116.32332,39.84764,1745,1455
116.35678,39.84444,1746,1455
116.35678,39.84442,1747,1455
116.36206,39.83342,1748,1455
116.36222,39.83388,1749,1455
116.35952,39.83348,1750,1455
116.3589,39.83694,1751,1455
116.37067,39.85539,1752,1455
116.37079,39.85438,1753,1455
116.36831,39.8664,1754,1455
116.36822,39.86753,1755,1455
116.35287,39.86724,1756,1455
116.34398,39.88222,1757,1455
116.34399,39.88222,1758,1455
116.33694,39.88888,1759,1455
116.31982,39.88988,1760,1455
116.33991,39.89995,1761,1455
116.34333,39.89963,1762,1455
116.33624,39.89815,1763,1455
116.33612,39.89934,1764,1455
116.32324,39.90143,1765,1455
