x,y,k,tid
116.35104,39.95002,0,1601
116.35152,39.95062,1,1601
116.35188,39.95093,2,1601
116.35152,39.95076,3,1601
116.35154,39.95105,4,1601
116.35158,39.95111,5,1601
116.35135,39.95037,6,1601
116.3512,39.95026,7,1601
116.35136,39.95051,8,1601
116.35298,39.95074,9,1601
116.36544,39.95007,10,1601
116.36551,39.94917,11,1601
116.36551,39.94917,12,1601
116.36565,39.94791,13,1601
116.36636,39.94029,14,1601
116.3579,39.93798,15,1601
116.35386,39.93905,16,1601
116.32109,39.93688,17,1601
116.33775,39.93749,18,1601
116.33332,39.93289,19,1601
116.33694,39.92205,20,1601
116.32794,39.92729,21,1601
116.31602,39.93105,22,1601
116.30439,39.93345,23,1601
116.31032,39.95034,24,1601
116.32416,39.95585,25,1601
116.31538,39.96532,26,1601
116.3079,39.98221,27,1601
116.3107,39.98393,28,1601
116.36215,39.98584,29,1601
116.3875,39.97758,30,1601
116.3956,39.96926,31,1601
116.38845,39.972,32,1601
116.38828,39.97746,33,1601
116.37171,39.98933,34,1601
116.37463,40.00441,35,1601
116.37461,40.00442,36,1601
116.36459,40.00006,37,1601
116.35865,39.99844,38,1601
116.36398,40.00028,39,1601
116.31469,40.06543,40,1601
116.29962,40.08501,41,1601
116.27523,40.11212,42,1601
116.2704,40.11453,43,1601
116.30027,40.08244,44,1601
116.32164,40.05509,45,1601
116.32672,40.04811,46,1601
116.33434,40.03829,47,1601
116.3456,40.02103,48,1601
116.36896,39.99345,49,1601
116.37313,39.95563,50,1601
116.37313,39.95149,51,1601
116.37361,39.93338,52,1601
116.37339,39.92642,53,1601
116.37119,39.9216,54,1601
116.3725,39.91351,55,1601
116.37269,39.91355,56,1601
116.37269,39.91355,57,1601
116.37268,39.91292,58,1601
116.37274,39.91349,59,1601
116.37272,39.91351,60,1601
116.37272,39.9135,61,1601
116.37272,39.9135,62,1601
116.37273,39.91349,63,1601
116.37273,39.91349,64,1601
116.37273,39.9135,65,1601
116.37222,39.91306,66,1601
116.37515,39.91084,67,1601
116.3765,39.90684,68,1601
116.38771,39.90591,69,1601
116.39889,39.89915,70,1601
116.41218,39.89937,71,1601
116.40599,39.89821,72,1601
116.41421,39.89925,73,1601
116.43033,39.90016,74,1601
116.4517,39.90634,75,1601
116.45551,39.9248,76,1601
116.42395,39.96817,77,1601
116.40215,39.96764,78,1601
116.3936,39.96745,79,1601
116.36475,39.95801,80,1601
116.36508,39.95375,81,1601
116.36563,39.94776,82,1601
116.34923,39.9384,83,1601
116.34917,39.93048,84,1601
116.35297,39.93444,85,1601
116.35275,39.93117,86,1601
116.35048,39.94525,87,1601
116.35109,39.95022,88,1601
116.35109,39.95022,89,1601
116.35113,39.95024,90,1601
116.35182,39.95047,91,1601
116.35175,39.95038,92,1601
116.35153,39.95041,93,1601
116.35121,39.95017,94,1601
116.35171,39.95067,95,1601
116.35149,39.95046,96,1601
116.35144,39.95046,97,1601
116.35144,39.95046,98,1601
116.3518,39.95018,99,1601
116.35494,39.95103,100,1601
116.35312,39.95114,101,1601
116.34881,39.95811,102,1601
116.32052,39.96623,103,1601
116.32849,39.96611,104,1601
116.37131,39.96689,105,1601
116.38902,39.95127,106,1601
116.41919,39.94508,107,1601
116.41801,39.93245,108,1601
116.40269,39.9288,109,1601
116.40466,39.92551,110,1601
116.40225,39.93887,111,1601
116.40192,39.95753,112,1601
116.40123,39.97544,113,1601
116.41525,39.98622,114,1601
116.41168,39.982,115,1601
116.40201,39.95755,116,1601
116.39888,39.95008,117,1601
116.42358,39.94817,118,1601
116.46343,39.97029,119,1601
116.46388,39.99165,120,1601
116.4626,39.99245,121,1601
116.4838,39.9395,122,1601
116.48233,39.91421,123,1601
116.49631,39.91469,124,1601
116.49163,39.92691,125,1601
116.48762,39.9219,126,1601
116.46347,39.92191,127,1601
116.45601,39.93201,128,1601
116.48209,39.93228,129,1601
116.48859,39.95328,130,1601
116.46951,39.966,131,1601
116.44657,40.00525,132,1601
116.47664,40.0506,133,1601
116.46721,40.11712,134,1601
116.4068,40.06289,135,1601
116.40145,39.99792,136,1601
116.40145,39.99792,137,1601
116.40126,39.97443,138,1601
116.3692,39.96693,139,1601
116.35599,39.95119,140,1601
116.3518,39.95045,141,1601
116.3517,39.95036,142,1601
116.35172,39.9502,143,1601
116.35183,39.95018,144,1601
116.35179,39.95037,145,1601
116.35173,39.95035,146,1601
116.3517,39.95034,147,1601
116.3517,39.95035,148,1601
116.35167,39.95036,149,1601
116.35139,39.95018,150,1601
116.35143,39.95035,151,1601
116.35165,39.95074,152,1601
116.3515,39.94995,153,1601
116.35147,39.95003,154,1601
116.35147,39.95003,155,1601
116.35156,39.95017,156,1601
116.35139,39.95005,157,1601
116.35142,39.95013,158,1601
116.35143,39.95018,159,1601
116.35153,39.95059,160,1601
116.34998,39.95014,161,1601
116.35128,39.95039,162,1601
116.35132,39.9504,163,1601
116.35145,39.95072,164,1601
116.35164,39.95047,165,1601
116.35164,39.95047,166,1601
116.35156,39.9506,167,1601
116.35159,39.95073,168,1601
116.35155,39.95069,169,1601
116.35152,39.95064,170,1601
116.35159,39.95057,171,1601
116.35131,39.95075,172,1601
116.35166,39.95042,173,1601
116.35166,39.9504,174,1601
116.35108,39.95046,175,1601
116.35157,39.95047,176,1601
116.35143,39.95057,177,1601
116.35159,39.9506,178,1601
116.35073,39.95029,179,1601
116.35126,39.95042,180,1601
116.35121,39.95035,181,1601
116.35136,39.95044,182,1601
116.35102,39.95053,183,1601
116.35126,39.95037,184,1601
116.35109,39.95048,185,1601
116.35103,39.95048,186,1601
116.35072,39.95031,187,1601
116.35102,39.95034,188,1601
116.35133,39.95045,189,1601
116.35143,39.95029,190,1601
116.35093,39.95036,191,1601
116.35149,39.95021,192,1601
116.35139,39.95025,193,1601
116.35118,39.95035,194,1601
116.34934,39.95046,195,1601
116.34992,39.95048,196,1601
116.35144,39.95044,197,1601
116.35152,39.95012,198,1601
116.35148,39.95047,199,1601
116.35184,39.95087,200,1601
116.35155,39.94993,201,1601
116.35147,39.95052,202,1601
116.35151,39.95072,203,1601
116.35138,39.95049,204,1601
116.35231,39.95081,205,1601
116.34969,39.94961,206,1601
116.35144,39.95045,207,1601
116.35144,39.9503,208,1601
116.35181,39.95055,209,1601
116.35168,39.95046,210,1601
116.35107,39.95017,211,1601
116.35133,39.95037,212,1601
116.3513,39.95032,213,1601
116.3513,39.95032,214,1601
116.3517,39.95045,215,1601
116.3513,39.95026,216,1601
116.35116,39.95042,217,1601
116.35144,39.95044,218,1601
116.35088,39.95032,219,1601
116.35095,39.95027,220,1601
116.35102,39.95033,221,1601
116.35016,39.95012,222,1601
116.35119,39.95041,223,1601
116.35091,39.95049,224,1601
116.35157,39.95058,225,1601
116.35098,39.95059,226,1601
116.35132,39.95062,227,1601
116.35152,39.9508,228,1601
116.35113,39.95026,229,1601
116.35136,39.95064,230,1601
116.35193,39.95031,231,1601
116.35513,39.95415,232,1601
116.36037,39.9568,233,1601
116.36543,39.94845,234,1601
116.34927,39.93743,235,1601
116.32524,39.89588,236,1601
116.31506,39.90551,237,1601
116.31506,39.90551,238,1601
116.30928,39.8959,239,1601
116.26558,39.90623,240,1601
116.30635,39.90618,241,1601
116.3257,39.90603,242,1601
116.32926,39.90899,243,1601
116.34634,39.92207,244,1601
116.46785,39.89347,245,1601
116.46785,39.89347,246,1601
116.33796,39.9311,247,1601
116.32406,39.93743,248,1601
116.33627,39.93691,249,1601
116.33928,39.94436,250,1601
116.33047,39.966,251,1601
116.33048,39.96602,252,1601
116.33251,39.96606,253,1601
116.31243,39.95564,254,1601
116.30314,39.95254,255,1601
116.30416,39.92778,256,1601
116.30387,39.91124,257,1601
116.3039,39.904,258,1601
116.3107,39.9043,259,1601
116.31525,39.90626,260,1601
116.32958,39.91262,261,1601
116.32958,39.91262,262,1601
116.34689,39.93101,263,1601
116.34991,39.93347,264,1601
116.35134,39.9502,265,1601
116.35144,39.95056,266,1601
116.35135,39.95128,267,1601
116.3513,39.95085,268,1601
116.3515,39.95077,269,1601
116.35109,39.9491,270,1601
116.35132,39.95035,271,1601
116.3516,39.9506,272,1601
116.35122,39.95049,273,1601
116.3509,39.95014,274,1601
116.3512,39.9499,275,1601
116.3508,39.95046,276,1601
116.35132,39.94945,277,1601
116.35122,39.94969,278,1601
116.35131,39.95009,279,1601
116.35123,39.95047,280,1601
116.35117,39.95045,281,1601
116.35123,39.95036,282,1601
116.35142,39.95019,283,1601
116.35143,39.95021,284,1601
116.35141,39.95019,285,1601
116.35141,39.95017,286,1601
116.3514,39.95015,287,1601
116.35142,39.95012,288,1601
116.35143,39.95011,289,1601
116.35144,39.95011,290,1601
116.35094,39.94935,291,1601
116.35094,39.94935,292,1601
116.35152,39.9503,293,1601
116.35157,39.95043,294,1601
116.35138,39.95008,295,1601
116.35208,39.95057,296,1601
116.36546,39.94866,297,1601
116.37145,39.94713,298,1601
116.36882,39.94189,299,1601
116.36969,39.94124,300,1601
116.38683,39.93951,301,1601
116.38789,39.93928,302,1601
116.38896,39.93915,303,1601
116.3898,39.93709,304,1601
116.37535,39.93174,305,1601
116.37098,39.92507,306,1601
116.37152,39.91409,307,1601
116.37035,39.91031,308,1601
116.37027,39.90872,309,1601
116.3701,39.90674,310,1601
116.36048,39.90596,311,1601
116.33718,39.90611,312,1601
116.32021,39.90622,313,1601
116.30646,39.90631,314,1601
116.30026,39.90635,315,1601
116.28908,39.90767,316,1601
116.28931,39.9165,317,1601
116.28845,39.92019,318,1601
116.29604,39.91278,319,1601
116.29604,39.91278,320,1601
116.30481,39.91086,321,1601
116.3149,39.90725,322,1601
116.3157,39.90696,323,1601
116.3157,39.90696,324,1601
116.31569,39.90697,325,1601
116.31568,39.90697,326,1601
116.31568,39.90697,327,1601
116.30783,39.91009,328,1601
116.29691,39.91187,329,1601
116.29069,39.93915,330,1601
116.27412,39.98347,331,1601
116.27661,40.00007,332,1601
116.26107,40.01421,333,1601
116.26428,40.00453,334,1601
116.28368,39.99748,335,1601
116.30498,39.98093,336,1601
116.31027,39.98133,337,1601
116.314,39.96548,338,1601
116.30404,39.92831,339,1601
116.30412,39.90883,340,1601
116.30517,39.87691,341,1601
116.33229,39.84766,342,1601
116.37975,39.85555,343,1601
116.38168,39.86826,344,1601
116.40803,39.87178,345,1601
116.4251,39.88281,346,1601
116.42247,39.89069,347,1601
116.42247,39.89069,348,1601
116.43362,39.88323,349,1601
116.42138,39.87962,350,1601
116.42367,39.87973,351,1601
116.42368,39.87971,352,1601
116.42427,39.87973,353,1601
116.42372,39.88901,354,1601
116.42023,39.89635,355,1601
116.40586,39.89952,356,1601
116.39154,39.89885,357,1601
116.36869,39.90295,358,1601
116.36748,39.90866,359,1601
116.37122,39.91918,360,1601
116.40257,39.93433,361,1601
116.40189,39.95477,362,1601
116.41102,39.95795,363,1601
116.4016,39.95625,364,1601
116.38695,39.95012,365,1601
116.36526,39.95269,366,1601
116.35108,39.95035,367,1601
116.35178,39.95077,368,1601
116.35193,39.95082,369,1601
116.35165,39.95014,370,1601
116.35153,39.95047,371,1601
116.35155,39.95048,372,1601
116.35153,39.95047,373,1601
116.35152,39.95045,374,1601
116.35152,39.95043,375,1601
116.35152,39.95043,376,1601
116.35152,39.95043,377,1601
116.35144,39.95051,378,1601
116.35147,39.95048,379,1601
116.35148,39.95048,380,1601
116.35141,39.95049,381,1601
116.35119,39.95051,382,1601
116.35123,39.95035,383,1601
116.35126,39.95037,384,1601
116.35126,39.95037,385,1601
116.35146,39.95052,386,1601
116.35068,39.94997,387,1601
116.35085,39.9502,388,1601
116.35085,39.9502,389,1601
116.35134,39.95046,390,1601
116.35135,39.95044,391,1601
116.35136,39.95044,392,1601
116.35137,39.95045,393,1601
116.35138,39.95054,394,1601
116.3514,39.95052,395,1601
116.35172,39.9507,396,1601
116.35168,39.95069,397,1601
116.35149,39.95079,398,1601
116.35144,39.95063,399,1601
116.35144,39.95028,400,1601
116.35145,39.95037,401,1601
116.35158,39.95061,402,1601
116.35153,39.95038,403,1601
116.35162,39.95044,404,1601
116.35158,39.95043,405,1601
116.3512,39.95035,406,1601
116.35131,39.9503,407,1601
116.35117,39.95046,408,1601
116.35156,39.95044,409,1601
116.35124,39.9506,410,1601
116.35125,39.95043,411,1601
116.35091,39.95051,412,1601
116.3512,39.95047,413,1601
116.3512,39.95047,414,1601
116.35211,39.95078,415,1601
116.35064,39.95039,416,1601
116.35067,39.95037,417,1601
116.35019,39.95035,418,1601
116.35081,39.95038,419,1601
116.35127,39.95039,420,1601
116.35068,39.95047,421,1601
116.35114,39.95033,422,1601
116.3513,39.95029,423,1601
116.35106,39.9504,424,1601
116.35119,39.95039,425,1601
116.3514,39.95032,426,1601
116.35136,39.95041,427,1601
116.35133,39.95051,428,1601
116.3511,39.95044,429,1601
116.35131,39.95041,430,1601
116.3514,39.95038,431,1601
116.35151,39.95028,432,1601
116.35149,39.9503,433,1601
116.35148,39.95032,434,1601
116.35141,39.95049,435,1601
116.35116,39.95025,436,1601
116.3514,39.95024,437,1601
116.35135,39.95034,438,1601
116.3513,39.95037,439,1601
116.35128,39.95039,440,1601
116.35128,39.95039,441,1601
116.35125,39.95035,442,1601
116.3519,39.95072,443,1601
116.35253,39.95139,444,1601
116.35118,39.95053,445,1601
116.35085,39.95003,446,1601
116.35116,39.95046,447,1601
116.35151,39.95047,448,1601
116.35131,39.95062,449,1601
116.35155,39.95046,450,1601
116.35127,39.95026,451,1601
116.35119,39.95061,452,1601
116.35121,39.95044,453,1601
116.35118,39.95038,454,1601
116.35122,39.95026,455,1601
116.35167,39.95051,456,1601
116.35141,39.95051,457,1601
116.34998,39.95046,458,1601
116.35228,39.95056,459,1601
116.351,39.95036,460,1601
116.35116,39.95057,461,1601
116.35094,39.95058,462,1601
116.35107,39.95064,463,1601
116.35132,39.95072,464,1601
116.35115,39.95043,465,1601
116.3514,39.95054,466,1601
116.35125,39.95042,467,1601
116.35554,39.95241,468,1601
116.34979,39.95052,469,1601
116.34927,39.94106,470,1601
116.34927,39.94106,471,1601
116.35028,39.91649,472,1601
116.34665,39.89818,473,1601
116.34698,39.89181,474,1601
116.35587,39.89505,475,1601
116.35737,39.89041,476,1601
116.32876,39.88875,477,1601
116.31972,39.89592,478,1601
116.29268,39.89591,479,1601
116.29124,39.90601,480,1601
116.31058,39.90604,481,1601
116.31412,39.89921,482,1601
116.3157,39.90718,483,1601
116.31568,39.90717,484,1601
116.32932,39.91048,485,1601
116.32927,39.91069,486,1601
116.33597,39.92179,487,1601
116.33868,39.91296,488,1601
116.32853,39.92082,489,1601
116.33704,39.92235,490,1601
116.33302,39.92199,491,1601
116.33823,39.9223,492,1601
116.35365,39.92241,493,1601
116.35,39.92856,494,1601
116.34695,39.95673,495,1601
116.34695,39.95673,496,1601
116.35124,39.95056,497,1601
116.35129,39.95063,498,1601
116.32849,39.8927,499,1601
116.32849,39.8927,500,1601
116.35144,39.95073,501,1601
116.35134,39.95042,502,1601
116.35133,39.95039,503,1601
116.35135,39.95043,504,1601
116.35135,39.95043,505,1601
116.35092,39.94979,506,1601
116.35144,39.95037,507,1601
116.35129,39.95011,508,1601
116.3514,39.95017,509,1601
116.35137,39.95033,510,1601
116.35155,39.95076,511,1601
116.35152,39.95073,512,1601
116.35154,39.95047,513,1601
116.35142,39.95023,514,1601
116.35127,39.95022,515,1601
116.35143,39.95116,516,1601
116.35124,39.95055,517,1601
116.35125,39.95037,518,1601
116.35051,39.95086,519,1601
116.35058,39.95049,520,1601
116.44508,39.95206,521,1601
116.44508,39.95206,522,1601
116.44508,39.95206,523,1601
116.35137,39.95041,524,1601
116.35135,39.9504,525,1601
116.35123,39.9502,526,1601
116.35122,39.95023,527,1601
116.35122,39.95023,528,1601
116.35111,39.95048,529,1601
116.35117,39.9504,530,1601
116.35158,39.94979,531,1601
116.35153,39.9497,532,1601
116.35154,39.94965,533,1601
116.35154,39.94961,534,1601
116.35517,39.95468,535,1601
116.35545,39.9507,536,1601
116.34995,39.94763,537,1601
116.34926,39.93625,538,1601
116.35003,39.92216,539,1601
116.35595,39.91838,540,1601
116.36644,39.91739,541,1601
116.35161,39.91264,542,1601
116.30386,39.90638,543,1601
116.30412,39.89128,544,1601
116.27364,39.8714,545,1601
116.28856,39.87725,546,1601
116.3041,39.88318,547,1601
116.3041,39.88318,548,1601
116.3045,39.89966,549,1601
116.30455,39.90463,550,1601
116.31937,39.90611,551,1601
116.33802,39.91707,552,1601
116.34566,39.91706,553,1601
116.34945,39.91711,554,1601
116.35735,39.92242,555,1601
116.36282,39.92252,556,1601
116.36588,39.92255,557,1601
116.37066,39.92652,558,1601
116.37731,39.93164,559,1601
116.38943,39.93192,560,1601
116.40232,39.93184,561,1601
116.40221,39.94253,562,1601
116.40137,39.95674,563,1601
116.40152,39.96969,564,1601
116.40169,39.968,565,1601
116.46733,39.97355,566,1601
116.57782,40.04573,567,1601
116.5822,40.06936,568,1601
116.58572,40.06825,569,1601
116.58606,40.06536,570,1601
116.58856,40.0516,571,1601
116.56586,40.03253,572,1601
116.53077,40.01998,573,1601
116.53077,40.01998,574,1601
116.48436,39.9866,575,1601
116.45205,39.9518,576,1601
116.44732,39.95035,577,1601
116.42882,39.95727,578,1601
116.41824,39.95272,579,1601
116.43636,39.92251,580,1601
116.42025,39.92305,581,1601
116.4118,39.91469,582,1601
116.40286,39.91334,583,1601
116.40284,39.91334,584,1601
116.39683,39.91358,585,1601
116.38623,39.90619,586,1601
116.36897,39.90784,587,1601
116.37052,39.92123,588,1601
116.36679,39.93263,589,1601
116.3623,39.9513,590,1601
116.35143,39.95036,591,1601
116.3517,39.95058,592,1601
116.35151,39.95044,593,1601
116.35173,39.95075,594,1601
116.35173,39.95075,595,1601
116.35165,39.95059,596,1601
116.35164,39.95054,597,1601
116.35147,39.95039,598,1601
116.3515,39.95037,599,1601
116.35147,39.95016,600,1601
116.35176,39.95063,601,1601
116.35159,39.9505,602,1601
116.35131,39.9502,603,1601
116.35156,39.95038,604,1601
116.35148,39.95042,605,1601
116.35145,39.95037,606,1601
116.35129,39.95036,607,1601
116.3513,39.95032,608,1601
116.3513,39.95031,609,1601
116.3513,39.95031,610,1601
116.35118,39.9503,611,1601
116.3513,39.9502,612,1601
116.35122,39.95017,613,1601
116.35109,39.94793,614,1601
116.35108,39.94798,615,1601
116.35105,39.94801,616,1601
116.35102,39.94807,617,1601
116.35102,39.94818,618,1601
116.35102,39.94823,619,1601
116.35102,39.94828,620,1601
116.351,39.94828,621,1601
116.35133,39.95047,622,1601
116.35133,39.95047,623,1601
116.35134,39.95045,624,1601
116.35131,39.95033,625,1601
116.35133,39.95036,626,1601
116.35137,39.95038,627,1601
116.35135,39.95039,628,1601
116.35135,39.95039,629,1601
116.35136,39.95044,630,1601
116.35161,39.95045,631,1601
116.3514,39.95033,632,1601
116.35148,39.95037,633,1601
116.35148,39.95038,634,1601
116.3512,39.95013,635,1601
116.35133,39.95009,636,1601
116.35129,39.95032,637,1601
116.3513,39.95031,638,1601
116.35135,39.95025,639,1601
116.35127,39.95033,640,1601
116.35143,39.95036,641,1601
116.35141,39.95047,642,1601
116.35144,39.95052,643,1601
116.35094,39.95008,644,1601
116.35094,39.95008,645,1601
116.35122,39.9505,646,1601
116.35171,39.95084,647,1601
116.35115,39.95025,648,1601
116.35153,39.95001,649,1601
116.35071,39.95018,650,1601
116.351,39.95016,651,1601
116.35135,39.95036,652,1601
116.35135,39.95022,653,1601
116.35129,39.95062,654,1601
116.35142,39.95057,655,1601
116.35144,39.95055,656,1601
116.35149,39.95062,657,1601
116.35155,39.9502,658,1601
116.3512,39.95041,659,1601
116.3515,39.9504,660,1601
116.35132,39.95042,661,1601
116.35133,39.9504,662,1601
116.35135,39.95039,663,1601
116.35136,39.95037,664,1601
116.35135,39.95037,665,1601
116.35173,39.95037,666,1601
116.35145,39.9503,667,1601
116.35144,39.95037,668,1601
116.35126,39.95041,669,1601
116.35107,39.95026,670,1601
116.35087,39.95021,671,1601
116.35095,39.95043,672,1601
116.35095,39.95043,673,1601
116.35068,39.95016,674,1601
116.35066,39.95019,675,1601
116.35099,39.95039,676,1601
116.35046,39.95046,677,1601
116.35044,39.95027,678,1601
116.35139,39.95029,679,1601
116.35102,39.95035,680,1601
116.35127,39.95029,681,1601
116.35115,39.95083,682,1601
116.35124,39.95065,683,1601
116.35147,39.95011,684,1601
116.35147,39.9503,685,1601
116.35135,39.95039,686,1601
116.35117,39.95085,687,1601
116.35134,39.95058,688,1601
116.35134,39.95032,689,1601
116.35135,39.95053,690,1601
116.3512,39.95043,691,1601
116.35101,39.95048,692,1601
116.35112,39.9503,693,1601
116.35115,39.95062,694,1601
116.35121,39.95028,695,1601
116.35126,39.9503,696,1601
116.35134,39.95018,697,1601
116.35134,39.9502,698,1601
116.35173,39.95001,699,1601
116.3513,39.95034,700,1601
116.35117,39.9504,701,1601
116.3515,39.95028,702,1601
116.3515,39.95028,703,1601
116.35132,39.95039,704,1601
116.35136,39.9503,705,1601
116.35135,39.95049,706,1601
116.35107,39.95033,707,1601
116.35091,39.95024,708,1601
116.3509,39.95014,709,1601
116.35091,39.95015,710,1601
116.35119,39.95029,711,1601
116.35092,39.95018,712,1601
116.351,39.95025,713,1601
116.35082,39.95031,714,1601
116.35021,39.95009,715,1601
116.3509,39.95014,716,1601
116.3508,39.95033,717,1601
116.35092,39.95016,718,1601
116.35005,39.95023,719,1601
116.35155,39.95023,720,1601
116.35125,39.95055,721,1601
116.3514,39.95002,722,1601
116.35133,39.95076,723,1601
116.35149,39.95052,724,1601
116.35125,39.94954,725,1601
116.35147,39.95037,726,1601
116.35151,39.95081,727,1601
116.3514,39.95029,728,1601
116.35156,39.95013,729,1601
116.35125,39.9503,730,1601
116.35125,39.9503,731,1601
116.35125,39.9503,732,1601
116.35156,39.95046,733,1601
116.35163,39.95055,734,1601
116.35161,39.95057,735,1601
116.35159,39.95053,736,1601
116.35512,39.95472,737,1601
116.35353,39.94703,738,1601
116.35517,39.951,739,1601
116.3653,39.95645,740,1601
116.36125,39.95109,741,1601
116.34925,39.93852,742,1601
116.34934,39.93213,743,1601
116.33859,39.92685,744,1601
116.3201,39.9268,745,1601
116.31628,39.92207,746,1601
116.3176,39.92078,747,1601
116.31582,39.92246,748,1601
116.31373,39.93425,749,1601
116.31341,39.93698,750,1601
116.31911,39.93721,751,1601
116.33771,39.93204,752,1601
116.33245,39.92699,753,1601
116.3284,39.91386,754,1601
116.31488,39.90766,755,1601
116.31524,39.8989,756,1601
116.3195,39.90971,757,1601
116.33194,39.91309,758,1601
116.33194,39.91309,759,1601
116.32852,39.91823,760,1601
116.32852,39.91823,761,1601
116.34933,39.93213,762,1601
116.33335,39.92164,763,1601
116.35638,39.92252,764,1601
116.36651,39.92254,765,1601
116.37128,39.91585,766,1601
116.37071,39.91037,767,1601
116.36581,39.91314,768,1601
116.35709,39.90628,769,1601
116.35717,39.89934,770,1601
116.35059,39.91238,771,1601
116.34998,39.92746,772,1601
116.37297,39.94997,773,1601
116.3651,39.95251,774,1601
116.35222,39.95034,775,1601
116.35129,39.95025,776,1601
116.35171,39.95052,777,1601
116.35142,39.95026,778,1601
116.35152,39.95033,779,1601
116.3515,39.95034,780,1601
116.35137,39.95012,781,1601
116.34999,39.95024,782,1601
116.35139,39.95012,783,1601
116.35138,39.95009,784,1601
116.35136,39.95011,785,1601
116.35124,39.95017,786,1601
116.35113,39.95021,787,1601
116.35112,39.95021,788,1601
116.351,39.95035,789,1601
116.35134,39.95029,790,1601
116.35134,39.95029,791,1601
116.35126,39.95042,792,1601
116.35141,39.95048,793,1601
116.3514,39.95051,794,1601
116.35143,39.95051,795,1601
116.35145,39.95051,796,1601
116.35151,39.95016,797,1601
116.35153,39.95029,798,1601
116.35153,39.95032,799,1601
116.35156,39.95039,800,1601
116.35174,39.95124,801,1601
116.35156,39.95032,802,1601
116.35177,39.95059,803,1601
116.35362,39.95152,804,1601
116.33339,39.91579,805,1601
116.33654,39.91707,806,1601
116.33347,39.92199,807,1601
116.3442,39.92207,808,1601
116.3442,39.92207,809,1601
116.34707,39.92016,810,1601
116.32704,39.92184,811,1601
116.31856,39.93117,812,1601
116.29723,39.92688,813,1601
116.29531,39.93037,814,1601
116.31381,39.92801,815,1601
116.32372,39.92691,816,1601
116.31639,39.92248,817,1601
116.30387,39.91669,818,1601
116.30415,39.89864,819,1601
116.27206,39.87387,820,1601
116.28391,39.82908,821,1601
116.28032,39.81367,822,1601
116.28392,39.8234,823,1601
116.28312,39.83157,824,1601
116.28312,39.83156,825,1601
116.27932,39.84157,826,1601
116.26532,39.84539,827,1601
116.2516,39.85458,828,1601
116.25531,39.86134,829,1601
116.31276,39.86648,830,1601
116.34025,39.86648,831,1601
116.34756,39.87611,832,1601
116.35755,39.88458,833,1601
116.36657,39.88781,834,1601
116.36787,39.8878,835,1601
116.36809,39.89748,836,1601
116.35081,39.90007,837,1601
116.34795,39.89486,838,1601
116.34795,39.89486,839,1601
116.36728,39.89831,840,1601
116.36796,39.90627,841,1601
116.37066,39.91087,842,1601
116.36827,39.90594,843,1601
116.35042,39.90045,844,1601
116.2984,39.89571,845,1601
116.26706,39.89247,846,1601
116.25854,39.89394,847,1601
116.259,39.9057,848,1601
116.27547,39.92298,849,1601
116.29521,39.93109,850,1601
116.28694,39.93113,851,1601
116.27013,39.95328,852,1601
116.29276,39.9599,853,1601
116.2917,39.96379,854,1601
116.30312,39.96126,855,1601
116.31868,39.96588,856,1601
116.32895,39.95644,857,1601
116.34865,39.94996,858,1601
116.35163,39.95049,859,1601
116.35164,39.95046,860,1601
116.35162,39.95046,861,1601
116.35165,39.95039,862,1601
116.35146,39.95044,863,1601
116.35147,39.95035,864,1601
116.35137,39.95046,865,1601
116.35102,39.95076,866,1601
116.35102,39.95076,867,1601
116.35122,39.95052,868,1601
116.3513,39.9505,869,1601
116.3513,39.95046,870,1601
116.3513,39.95044,871,1601
116.35147,39.95056,872,1601
116.35143,39.95061,873,1601
116.35139,39.95062,874,1601
116.35136,39.95062,875,1601
116.35135,39.95059,876,1601
116.3511,39.95043,877,1601
116.35115,39.95007,878,1601
116.3512,39.95043,879,1601
116.3509,39.95018,880,1601
116.35133,39.95034,881,1601
116.35125,39.95033,882,1601
116.35122,39.95032,883,1601
116.35119,39.95031,884,1601
116.35118,39.9503,885,1601
116.35117,39.9503,886,1601
116.35118,39.95029,887,1601
116.35112,39.95024,888,1601
116.35125,39.95043,889,1601
116.35127,39.95013,890,1601
116.35127,39.95015,891,1601
116.35142,39.95042,892,1601
116.35137,39.95028,893,1601
116.35131,39.95037,894,1601
116.35131,39.95037,895,1601
116.35113,39.95004,896,1601
116.3508,39.95003,897,1601
116.35107,39.95025,898,1601
116.35027,39.94933,899,1601
116.35027,39.94933,900,1601
116.35027,39.94933,901,1601
116.35027,39.94933,902,1601
116.35175,39.95064,903,1601
116.35165,39.95061,904,1601
116.35153,39.95051,905,1601
116.35146,39.95047,906,1601
116.35131,39.95039,907,1601
116.35141,39.95037,908,1601
116.35129,39.95045,909,1601
116.35154,39.9505,910,1601
116.35115,39.95025,911,1601
116.35143,39.95033,912,1601
116.35132,39.95041,913,1601
116.35103,39.95035,914,1601
116.35135,39.95021,915,1601
116.35151,39.94993,916,1601
116.35141,39.9501,917,1601
116.35141,39.95013,918,1601
116.35148,39.9502,919,1601
116.35148,39.9502,920,1601
116.3511,39.94993,921,1601
116.35139,39.95028,922,1601
116.35197,39.95061,923,1601
116.35197,39.95061,924,1601
116.35188,39.95056,925,1601
116.35135,39.95017,926,1601
116.35202,39.95022,927,1601
116.35191,39.95018,928,1601
116.3515,39.9501,929,1601
116.35161,39.95022,930,1601
116.35101,39.95019,931,1601
116.351,39.95024,932,1601
116.35103,39.95024,933,1601
116.35113,39.95025,934,1601
116.35116,39.95026,935,1601
116.35117,39.95027,936,1601
116.35139,39.95036,937,1601
116.35131,39.9504,938,1601
116.35128,39.95035,939,1601
116.35105,39.95056,940,1601
116.35077,39.95056,941,1601
116.35147,39.95034,942,1601
116.35173,39.95027,943,1601
116.35103,39.95045,944,1601
116.35098,39.95055,945,1601
116.35133,39.95052,946,1601
116.35134,39.95042,947,1601
116.35138,39.95032,948,1601
116.35137,39.95031,949,1601
116.35132,39.95033,950,1601
116.35131,39.95036,951,1601
116.3517,39.95084,952,1601
116.35095,39.95074,953,1601
116.35095,39.95074,954,1601
116.35096,39.95072,955,1601
116.35098,39.95069,956,1601
116.35099,39.95067,957,1601
116.351,39.95065,958,1601
116.35161,39.95003,959,1601
116.35172,39.94995,960,1601
116.35166,39.94999,961,1601
116.35148,39.95054,962,1601
116.35158,39.95027,963,1601
116.35134,39.95067,964,1601
116.35124,39.95077,965,1601
116.35095,39.9507,966,1601
116.35114,39.9507,967,1601
116.3511,39.95068,968,1601
116.35129,39.95019,969,1601
116.35141,39.95015,970,1601
116.35133,39.95057,971,1601
116.35135,39.95054,972,1601
116.35127,39.9505,973,1601
116.35129,39.95047,974,1601
116.35129,39.95047,975,1601
116.35162,39.95024,976,1601
116.35165,39.95026,977,1601
116.35165,39.95026,978,1601
116.3517,39.95034,979,1601
116.35151,39.95025,980,1601
116.35152,39.95052,981,1601
116.35152,39.95052,982,1601
116.35146,39.95047,983,1601
116.35145,39.95052,984,1601
116.35164,39.95076,985,1601
116.3516,39.95074,986,1601
116.35155,39.95069,987,1601
116.35133,39.95104,988,1601
116.35145,39.95062,989,1601
116.35113,39.95024,990,1601
116.35108,39.95023,991,1601
116.35019,39.95031,992,1601
116.35149,39.94987,993,1601
116.35146,39.94987,994,1601
116.35135,39.94999,995,1601
116.35134,39.95001,996,1601
116.3514,39.94993,997,1601
116.35146,39.94991,998,1601
116.35127,39.95011,999,1601
116.35156,39.94997,1000,1601
116.35117,39.94951,1001,1601
116.35114,39.94957,1002,1601
116.35142,39.94969,1003,1601
116.35157,39.95016,1004,1601
116.35154,39.95021,1005,1601
116.35157,39.95025,1006,1601
116.35161,39.95024,1007,1601
116.35161,39.95024,1008,1601
116.35161,39.95024,1009,1601
116.35144,39.94975,1010,1601
116.35144,39.94993,1011,1601
116.35144,39.94993,1012,1601
116.35151,39.95007,1013,1601
116.35152,39.9499,1014,1601
116.35152,39.9499,1015,1601
116.35152,39.9499,1016,1601
116.35152,39.9499,1017,1601
116.35152,39.9499,1018,1601
116.35143,39.94993,1019,1601
116.35136,39.95036,1020,1601
116.35148,39.9503,1021,1601
116.35137,39.95029,1022,1601
116.35117,39.95035,1023,1601
116.35118,39.95033,1024,1601
116.35381,39.95107,1025,1601
116.36576,39.94773,1026,1601
116.36668,39.93793,1027,1601
116.36834,39.93359,1028,1601
116.36836,39.93358,1029,1601
116.36838,39.93357,1030,1601
116.37094,39.92772,1031,1601
116.3714,39.91684,1032,1601
116.37295,39.91347,1033,1601
116.37281,39.91341,1034,1601
116.37285,39.91373,1035,1601
116.37284,39.91369,1036,1601
116.37283,39.91364,1037,1601
116.37289,39.91287,1038,1601
116.37279,39.91359,1039,1601
116.37287,39.9136,1040,1601
116.37266,39.91316,1041,1601
116.37277,39.91352,1042,1601
116.37277,39.91352,1043,1601
116.37275,39.91343,1044,1601
116.37277,39.91344,1045,1601
116.3728,39.91341,1046,1601
116.37279,39.91341,1047,1601
116.37281,39.91336,1048,1601
116.3728,39.91339,1049,1601
116.37279,39.91338,1050,1601
116.37281,39.91339,1051,1601
116.37267,39.91352,1052,1601
116.37279,39.91361,1053,1601
116.37279,39.91364,1054,1601
116.37276,39.91358,1055,1601
116.37282,39.91363,1056,1601
116.37285,39.91348,1057,1601
116.37284,39.91353,1058,1601
116.37275,39.91344,1059,1601
116.3727,39.91381,1060,1601
116.37278,39.91368,1061,1601
116.37277,39.91364,1062,1601
116.37277,39.91362,1063,1601
116.37277,39.91359,1064,1601
116.37277,39.91358,1065,1601
116.37278,39.91356,1066,1601
116.37278,39.91355,1067,1601
116.37279,39.91353,1068,1601
116.37279,39.91351,1069,1601
116.3728,39.91349,1070,1601
116.3728,39.91349,1071,1601
116.37247,39.91385,1072,1601
116.37273,39.91337,1073,1601
116.3729,39.91327,1074,1601
116.37282,39.91324,1075,1601
116.3728,39.91322,1076,1601
116.37239,39.91317,1077,1601
116.37288,39.91364,1078,1601
116.37294,39.91371,1079,1601
116.37297,39.91375,1080,1601
116.37293,39.91372,1081,1601
116.37292,39.91371,1082,1601
116.37291,39.9137,1083,1601
116.37291,39.9137,1084,1601
116.37292,39.91369,1085,1601
116.37292,39.91369,1086,1601
116.37292,39.91369,1087,1601
116.37291,39.91368,1088,1601
116.3729,39.91368,1089,1601
116.3729,39.91367,1090,1601
116.37289,39.91367,1091,1601
116.37289,39.91366,1092,1601
116.37288,39.91366,1093,1601
116.37287,39.91365,1094,1601
116.37287,39.91364,1095,1601
116.37286,39.91364,1096,1601
116.37285,39.91363,1097,1601
116.37239,39.91343,1098,1601
116.37239,39.91343,1099,1601
116.37263,39.91344,1100,1601
116.37269,39.91344,1101,1601
116.37296,39.91314,1102,1601
116.37293,39.91271,1103,1601
116.3729,39.91317,1104,1601
116.37281,39.91359,1105,1601
116.37283,39.91361,1106,1601
116.37285,39.91358,1107,1601
116.37285,39.9136,1108,1601
116.3728,39.91369,1109,1601
116.37286,39.91366,1110,1601
116.37286,39.91365,1111,1601
116.37283,39.91364,1112,1601
116.37269,39.9136,1113,1601
116.37274,39.91358,1114,1601
116.37276,39.91358,1115,1601
116.37277,39.91358,1116,1601
116.37278,39.91358,1117,1601
116.37289,39.91367,1118,1601
116.37286,39.91366,1119,1601
116.37285,39.91364,1120,1601
116.37283,39.91363,1121,1601
116.37269,39.91363,1122,1601
116.37271,39.91361,1123,1601
116.37272,39.91359,1124,1601
116.37273,39.91358,1125,1601
116.37277,39.91354,1126,1601
116.37278,39.91354,1127,1601
116.37278,39.91354,1128,1601
116.37283,39.91359,1129,1601
116.37276,39.91339,1130,1601
116.37269,39.91363,1131,1601
116.3728,39.91322,1132,1601
116.37265,39.91354,1133,1601
116.37267,39.91353,1134,1601
116.3728,39.91352,1135,1601
116.37279,39.91353,1136,1601
116.37289,39.91363,1137,1601
116.37285,39.91362,1138,1601
116.37283,39.91363,1139,1601
116.37283,39.91365,1140,1601
116.37282,39.91365,1141,1601
116.37282,39.91365,1142,1601
116.37282,39.91366,1143,1601
116.37281,39.91366,1144,1601
116.37281,39.91366,1145,1601
116.37281,39.91366,1146,1601
116.37281,39.91365,1147,1601
116.37281,39.91365,1148,1601
116.37281,39.91365,1149,1601
116.3725,39.91331,1150,1601
116.37262,39.91339,1151,1601
116.37265,39.91341,1152,1601
116.37269,39.91344,1153,1601
116.37269,39.91344,1154,1601
116.37271,39.91344,1155,1601
116.37273,39.91344,1156,1601
116.48172,39.91345,1157,1601
116.37289,39.91355,1158,1601
116.37287,39.91354,1159,1601
116.37288,39.91353,1160,1601
116.37287,39.91352,1161,1601
116.37286,39.91352,1162,1601
116.37286,39.91353,1163,1601
116.37286,39.91353,1164,1601
116.37285,39.91353,1165,1601
116.37271,39.91379,1166,1601
116.37278,39.91365,1167,1601
116.37274,39.91363,1168,1601
116.37273,39.91362,1169,1601
116.37274,39.91361,1170,1601
116.37275,39.9135,1171,1601
116.37277,39.91351,1172,1601
116.37276,39.91352,1173,1601
116.37276,39.91352,1174,1601
116.37277,39.91356,1175,1601
116.37277,39.91353,1176,1601
116.37276,39.91352,1177,1601
116.37277,39.91352,1178,1601
116.37276,39.9135,1179,1601
116.37279,39.91353,1180,1601
116.37277,39.9135,1181,1601
116.37302,39.91367,1182,1601
116.37295,39.91366,1183,1601
116.37262,39.91339,1184,1601
116.37304,39.91391,1185,1601
116.37264,39.91325,1186,1601
116.37297,39.91345,1187,1601
116.37215,39.91336,1188,1601
116.37272,39.91354,1189,1601
116.37276,39.91355,1190,1601
116.37283,39.91362,1191,1601
116.37283,39.91363,1192,1601
116.37283,39.91363,1193,1601
116.37283,39.91367,1194,1601
116.3728,39.91362,1195,1601
116.37281,39.91339,1196,1601
116.3728,39.9134,1197,1601
116.3729,39.91352,1198,1601
116.37287,39.91351,1199,1601
116.37287,39.9135,1200,1601
116.37287,39.91349,1201,1601
116.37287,39.91349,1202,1601
116.37287,39.91348,1203,1601
116.37287,39.91348,1204,1601
116.37285,39.91368,1205,1601
116.37284,39.91353,1206,1601
116.3728,39.91353,1207,1601
116.37276,39.91362,1208,1601
116.37276,39.91362,1209,1601
116.37275,39.91367,1210,1601
116.37291,39.91406,1211,1601
116.37294,39.91355,1212,1601
116.37291,39.91329,1213,1601
116.37286,39.91337,1214,1601
116.37283,39.91364,1215,1601
116.37272,39.91365,1216,1601
116.37298,39.91349,1217,1601
116.37299,39.91358,1218,1601
116.37299,39.91357,1219,1601
116.37276,39.91344,1220,1601
116.37276,39.91356,1221,1601
116.37276,39.91358,1222,1601
116.37274,39.91358,1223,1601
116.37273,39.9136,1224,1601
116.37277,39.91349,1225,1601
116.37262,39.91365,1226,1601
116.37276,39.9137,1227,1601
116.37275,39.91368,1228,1601
116.37276,39.91364,1229,1601
116.37278,39.91376,1230,1601
116.37277,39.91366,1231,1601
116.37278,39.91362,1232,1601
116.37285,39.91353,1233,1601
116.37282,39.91357,1234,1601
116.3728,39.91357,1235,1601
116.37282,39.91351,1236,1601
116.37282,39.91351,1237,1601
116.37282,39.9135,1238,1601
116.37281,39.91351,1239,1601
116.37283,39.91365,1240,1601
116.37283,39.91361,1241,1601
116.37289,39.9134,1242,1601
116.37283,39.91343,1243,1601
116.37283,39.91343,1244,1601
116.37293,39.91368,1245,1601
116.3729,39.91357,1246,1601
116.37286,39.91355,1247,1601
116.37286,39.91353,1248,1601
116.37286,39.91353,1249,1601
116.37288,39.91354,1250,1601
116.37289,39.91355,1251,1601
116.37289,39.91354,1252,1601
116.37271,39.91351,1253,1601
116.3728,39.91343,1254,1601
116.37282,39.91367,1255,1601
116.3728,39.91366,1256,1601
116.37282,39.91363,1257,1601
116.37273,39.91364,1258,1601
116.37288,39.91353,1259,1601
116.37289,39.91356,1260,1601
116.37286,39.91358,1261,1601
116.37286,39.91358,1262,1601
116.37262,39.91344,1263,1601
116.37281,39.91351,1264,1601
116.37288,39.91347,1265,1601
116.37288,39.91347,1266,1601
116.37282,39.91347,1267,1601
116.3728,39.91347,1268,1601
116.37257,39.91338,1269,1601
116.37262,39.91349,1270,1601
116.37282,39.91336,1271,1601
116.37267,39.9135,1272,1601
116.37268,39.9135,1273,1601
116.37271,39.91357,1274,1601
116.3726,39.91359,1275,1601
116.37241,39.91351,1276,1601
116.3726,39.91364,1277,1601
116.37262,39.91366,1278,1601
116.37264,39.91364,1279,1601
116.37276,39.91358,1280,1601
116.37255,39.91349,1281,1601
116.37281,39.9137,1282,1601
116.37266,39.91354,1283,1601
116.37269,39.91356,1284,1601
116.37272,39.91365,1285,1601
116.37273,39.91365,1286,1601
116.37284,39.9136,1287,1601
116.37286,39.91362,1288,1601
116.4216,39.89725,1289,1601
116.37285,39.91361,1290,1601
116.37285,39.91362,1291,1601
116.37279,39.91353,1292,1601
116.37286,39.91361,1293,1601
116.37284,39.91359,1294,1601
116.37284,39.91359,1295,1601
116.37285,39.91359,1296,1601
116.37285,39.91359,1297,1601
116.37285,39.91359,1298,1601
116.3728,39.91348,1299,1601
116.37279,39.91347,1300,1601
116.3728,39.91347,1301,1601
116.37279,39.91349,1302,1601
116.37279,39.91349,1303,1601
116.37269,39.91365,1304,1601
116.37271,39.91363,1305,1601
116.37297,39.91331,1306,1601
116.37271,39.91369,1307,1601
116.37285,39.91357,1308,1601
116.37285,39.91348,1309,1601
116.37286,39.91343,1310,1601
116.37284,39.91348,1311,1601
116.37286,39.91354,1312,1601
116.37287,39.91351,1313,1601
116.37298,39.91384,1314,1601
116.37293,39.91342,1315,1601
116.37288,39.91336,1316,1601
116.37288,39.91339,1317,1601
116.3728,39.91363,1318,1601
116.37281,39.91375,1319,1601
116.37292,39.91369,1320,1601
116.37265,39.91355,1321,1601
116.37265,39.91355,1322,1601
116.3727,39.91321,1323,1601
116.37278,39.91348,1324,1601
116.37279,39.9135,1325,1601
116.37279,39.9135,1326,1601
116.37279,39.91351,1327,1601
116.37279,39.91351,1328,1601
116.37279,39.9135,1329,1601
116.37278,39.91349,1330,1601
116.37278,39.91349,1331,1601
116.37278,39.91349,1332,1601
116.37282,39.91352,1333,1601
116.37242,39.91316,1334,1601
116.37268,39.91333,1335,1601
116.37288,39.91366,1336,1601
116.37282,39.91368,1337,1601
116.3728,39.91367,1338,1601
116.37276,39.91358,1339,1601
116.3727,39.91232,1340,1601
116.37286,39.91334,1341,1601
116.37285,39.91339,1342,1601
116.37285,39.91339,1343,1601
116.37284,39.91293,1344,1601
116.37264,39.914,1345,1601
116.37296,39.91294,1346,1601
116.37282,39.91337,1347,1601
116.37275,39.91337,1348,1601
116.37286,39.91349,1349,1601
116.37284,39.9135,1350,1601
116.37284,39.91347,1351,1601
116.37236,39.91402,1352,1601
116.37286,39.91343,1353,1601
116.37286,39.91342,1354,1601
116.37288,39.91341,1355,1601
116.37288,39.91342,1356,1601
116.37288,39.91342,1357,1601
116.37285,39.91338,1358,1601
116.37283,39.91357,1359,1601
116.37281,39.91329,1360,1601
116.37265,39.91296,1361,1601
116.37274,39.91334,1362,1601
116.37283,39.91351,1363,1601
116.37286,39.91358,1364,1601
116.37289,39.91362,1365,1601
116.37298,39.91368,1366,1601
116.37299,39.9137,1367,1601
116.373,39.91369,1368,1601
116.3731,39.91375,1369,1601
116.37289,39.91362,1370,1601
116.3729,39.91346,1371,1601
116.37293,39.91357,1372,1601
116.37293,39.91357,1373,1601
116.37288,39.91359,1374,1601
116.37287,39.91361,1375,1601
116.3728,39.91376,1376,1601
116.3728,39.91374,1377,1601
116.37279,39.91373,1378,1601
116.37279,39.91372,1379,1601
116.37279,39.9137,1380,1601
116.37278,39.91369,1381,1601
116.37278,39.91368,1382,1601
116.37275,39.91369,1383,1601
116.37274,39.91369,1384,1601
116.37275,39.91368,1385,1601
116.37275,39.91368,1386,1601
116.37275,39.91368,1387,1601
116.37276,39.91369,1388,1601
116.37292,39.91295,1389,1601
116.3728,39.91367,1390,1601
116.37227,39.91354,1391,1601
116.37277,39.91377,1392,1601
116.37283,39.91369,1393,1601
116.37283,39.91357,1394,1601
116.37312,39.91347,1395,1601
116.37308,39.91349,1396,1601
116.37307,39.91351,1397,1601
116.37306,39.91353,1398,1601
116.37305,39.91353,1399,1601
116.37304,39.91354,1400,1601
116.37303,39.91356,1401,1601
116.37301,39.91357,1402,1601
116.37297,39.91372,1403,1601
116.37285,39.91371,1404,1601
116.37287,39.91368,1405,1601
116.37287,39.91364,1406,1601
116.3729,39.91392,1407,1601
116.37278,39.91377,1408,1601
116.37277,39.91374,1409,1601
116.36744,39.92035,1410,1601
116.36643,39.93848,1411,1601
116.35694,39.94464,1412,1601
116.3511,39.95037,1413,1601
116.3511,39.95037,1414,1601
116.3511,39.95037,1415,1601
116.3511,39.95037,1416,1601
116.3511,39.95037,1417,1601
116.3511,39.95037,1418,1601
116.3511,39.95037,1419,1601
116.3511,39.95037,1420,1601
116.3511,39.95037,1421,1601
116.3511,39.95037,1422,1601
116.35132,39.9504,1423,1601
116.35138,39.95044,1424,1601
116.35139,39.95042,1425,1601
116.35138,39.95039,1426,1601
116.35127,39.95037,1427,1601
116.35141,39.95008,1428,1601
116.35139,39.95025,1429,1601
116.35123,39.95029,1430,1601
116.3514,39.95014,1431,1601
116.35146,39.95063,1432,1601
116.35121,39.95013,1433,1601
116.35151,39.95058,1434,1601
116.35144,39.95025,1435,1601
116.35144,39.95025,1436,1601
116.35144,39.95025,1437,1601
116.35144,39.95025,1438,1601
116.35182,39.95076,1439,1601
116.35158,39.95062,1440,1601
116.35139,39.95064,1441,1601
116.35152,39.95067,1442,1601
116.35123,39.95037,1443,1601
116.3514,39.9506,1444,1601
116.35152,39.95054,1445,1601
116.35134,39.95043,1446,1601
116.35134,39.95043,1447,1601
116.35143,39.95044,1448,1601
116.35137,39.9504,1449,1601
116.35124,39.95026,1450,1601
116.35129,39.95033,1451,1601
116.35156,39.95068,1452,1601
116.35144,39.95031,1453,1601
116.35151,39.95027,1454,1601
116.35145,39.95054,1455,1601
116.35134,39.95037,1456,1601
116.3513,39.9504,1457,1601
116.35113,39.95034,1458,1601
116.35115,39.95036,1459,1601
116.35116,39.95035,1460,1601
116.35119,39.95037,1461,1601
116.35122,39.95039,1462,1601
116.35125,39.95043,1463,1601
116.35126,39.95044,1464,1601
116.35126,39.95045,1465,1601
116.35128,39.95041,1466,1601
116.35129,39.95041,1467,1601
116.3513,39.95045,1468,1601
116.35132,39.95045,1469,1601
116.35133,39.95048,1470,1601
116.35133,39.95048,1471,1601
116.35133,39.95048,1472,1601
116.3514,39.95035,1473,1601
116.3517,39.95051,1474,1601
116.35166,39.95049,1475,1601
116.35163,39.95046,1476,1601
116.3516,39.95043,1477,1601
116.35151,39.95022,1478,1601
116.35152,39.95025,1479,1601
116.35143,39.95055,1480,1601
116.35143,39.95042,1481,1601
116.35142,39.9504,1482,1601
116.35132,39.95021,1483,1601
116.3513,39.95039,1484,1601
116.35107,39.95084,1485,1601
116.35144,39.9499,1486,1601
116.35141,39.95013,1487,1601
116.35143,39.95011,1488,1601
116.35082,39.95008,1489,1601
116.35098,39.94988,1490,1601
116.35191,39.9507,1491,1601
116.3514,39.95046,1492,1601
116.35147,39.95046,1493,1601
116.35152,39.95043,1494,1601
116.35141,39.95046,1495,1601
116.35146,39.95049,1496,1601
116.35153,39.95057,1497,1601
116.3515,39.95061,1498,1601
116.3515,39.95061,1499,1601
116.35138,39.95075,1500,1601
116.35143,39.95075,1501,1601
116.35143,39.95073,1502,1601
116.35138,39.95009,1503,1601
116.35145,39.95016,1504,1601
116.35145,39.95014,1505,1601
116.35146,39.95015,1506,1601
116.35161,39.95026,1507,1601
116.35111,39.95078,1508,1601
116.35123,39.95021,1509,1601
116.35124,39.95054,1510,1601
116.35107,39.95043,1511,1601
116.35131,39.9506,1512,1601
116.3511,39.95022,1513,1601
116.35132,39.95056,1514,1601
116.35083,39.9505,1515,1601
116.35011,39.94993,1516,1601
116.35068,39.95024,1517,1601
116.35075,39.95028,1518,1601
116.35079,39.95031,1519,1601
116.35102,39.95017,1520,1601
116.35127,39.95045,1521,1601
116.35093,39.95039,1522,1601
116.35055,39.95053,1523,1601
116.35131,39.95016,1524,1601
116.35088,39.95023,1525,1601
116.35107,39.95023,1526,1601
116.35156,39.95013,1527,1601
116.35152,39.95044,1528,1601
116.35152,39.95044,1529,1601
116.35134,39.95035,1530,1601
116.35134,39.95027,1531,1601
116.35188,39.95056,1532,1601
116.35118,39.95035,1533,1601
116.35131,39.95054,1534,1601
116.3514,39.95053,1535,1601
116.3514,39.95047,1536,1601
116.3514,39.95045,1537,1601
116.35143,39.95045,1538,1601
116.35155,39.95028,1539,1601
116.35154,39.95032,1540,1601
116.35154,39.95034,1541,1601
116.35154,39.95034,1542,1601
116.35142,39.95037,1543,1601
116.35121,39.95025,1544,1601
116.35123,39.95039,1545,1601
116.35123,39.95039,1546,1601
116.35124,39.9504,1547,1601
116.35119,39.95052,1548,1601
116.35079,39.95021,1549,1601
116.35074,39.9503,1550,1601
116.35025,39.94998,1551,1601
116.35125,39.95059,1552,1601
116.35143,39.95021,1553,1601
116.35105,39.95032,1554,1601
116.3516,39.95025,1555,1601
116.35153,39.95028,1556,1601
116.35152,39.9503,1557,1601
116.35151,39.9503,1558,1601
116.35107,39.9505,1559,1601
116.35107,39.9505,1560,1601
116.35119,39.95001,1561,1601
116.35037,39.95027,1562,1601
116.35123,39.9504,1563,1601
116.35105,39.95038,1564,1601
116.35107,39.95057,1565,1601
116.35113,39.95034,1566,1601
116.3513,39.95065,1567,1601
116.35145,39.95064,1568,1601
116.35152,39.95063,1569,1601
116.35081,39.95053,1570,1601
116.35112,39.95036,1571,1601
116.35119,39.95023,1572,1601
116.35131,39.95018,1573,1601
116.35128,39.95044,1574,1601
116.35137,39.95058,1575,1601
116.35143,39.95051,1576,1601
116.35136,39.95065,1577,1601
116.35109,39.95071,1578,1601
116.35153,39.95059,1579,1601
116.35153,39.95059,1580,1601
116.35153,39.95059,1581,1601
116.35164,39.9506,1582,1601
116.35158,39.95056,1583,1601
116.35152,39.95052,1584,1601
116.35149,39.95049,1585,1601
116.35146,39.95047,1586,1601
116.35144,39.95045,1587,1601
116.35142,39.95032,1588,1601
116.35138,39.95043,1589,1601
116.35138,39.95043,1590,1601
116.35139,39.95013,1591,1601
116.35142,39.95022,1592,1601
116.35147,39.95011,1593,1601
116.35109,39.95074,1594,1601
116.35126,39.95053,1595,1601
116.35123,39.95028,1596,1601
116.35116,39.95054,1597,1601
116.35117,39.95054,1598,1601
116.35121,39.95051,1599,1601
116.35109,39.95064,1600,1601
116.35139,39.95037,1601,1601
116.35137,39.95042,1602,1601
116.35141,39.95034,1603,1601
116.35152,39.95053,1604,1601
116.35145,39.95065,1605,1601
116.35143,39.9506,1606,1601
116.35146,39.95033,1607,1601
116.35147,39.95038,1608,1601
116.35143,39.95034,1609,1601
116.35131,39.95034,1610,1601
116.35128,39.95021,1611,1601
116.3513,39.95029,1612,1601
116.35133,39.95045,1613,1601
116.37281,39.91377,1614,1601
116.35132,39.95036,1615,1601
116.3517,39.95054,1616,1601
116.35142,39.95024,1617,1601
116.35156,39.95037,1618,1601
116.35143,39.95027,1619,1601
116.35144,39.9503,1620,1601
116.35144,39.9503,1621,1601
116.35131,39.94978,1622,1601
116.35133,39.94995,1623,1601
116.35161,39.95074,1624,1601
116.35139,39.95038,1625,1601
116.35139,39.95045,1626,1601
116.35141,39.95046,1627,1601
116.35145,39.95054,1628,1601
116.3512,39.95047,1629,1601
116.35125,39.94813,1630,1601
116.3516,39.95059,1631,1601
116.35059,39.95073,1632,1601
116.35086,39.95033,1633,1601
116.3511,39.9504,1634,1601
116.35063,39.95023,1635,1601
116.35111,39.95056,1636,1601
116.3514,39.95039,1637,1601
116.35075,39.95085,1638,1601
116.35085,39.95077,1639,1601
116.35162,39.94996,1640,1601
116.35165,39.94997,1641,1601
116.3516,39.95024,1642,1601
116.35163,39.95011,1643,1601
116.35166,39.95005,1644,1601
116.35165,39.95003,1645,1601
116.3515,39.94993,1646,1601
116.35151,39.94996,1647,1601
116.35182,39.95044,1648,1601
116.35156,39.95002,1649,1601
116.35153,39.95005,1650,1601
116.35153,39.95005,1651,1601
116.35107,39.9494,1652,1601
116.35124,39.94984,1653,1601
116.35161,39.95076,1654,1601
116.35154,39.95049,1655,1601
116.35163,39.95064,1656,1601
116.35155,39.95057,1657,1601
116.35155,39.95054,1658,1601
116.35155,39.95052,1659,1601
116.35155,39.95052,1660,1601
