x,y,k,tid
116.40514,39.96832,0,1674
116.41177,39.96434,1,1674
116.40998,39.94824,2,1674
116.41934,39.94175,3,1674
116.41014,39.93929,4,1674
116.41112,39.92536,5,1674
116.43525,39.92107,6,1674
116.44351,39.92127,7,1674
116.4554,39.91182,8,1674
116.45508,39.90497,9,1674
116.47132,39.90384,10,1674
116.47165,39.91167,11,1674
116.47171,39.90727,12,1674
116.45605,39.91176,13,1674
116.4552,39.91946,14,1674
116.45164,39.90818,15,1674
116.45315,39.91301,16,1674
116.45548,39.91472,17,1674
116.45548,39.91472,18,1674
116.45619,39.92058,19,1674
116.45595,39.92041,20,1674
116.45511,39.92055,21,1674
116.44472,39.92153,22,1674
116.44441,39.91926,23,1674
116.45512,39.92056,24,1674
116.4552,39.91971,25,1674
116.46322,39.91227,26,1674
116.47204,39.90833,27,1674
116.45671,39.90729,28,1674
116.44379,39.90259,29,1674
116.42948,39.90724,30,1674
116.42052,39.91403,31,1674
116.42052,39.91403,32,1674
116.40659,39.91411,33,1674
116.41687,39.91425,34,1674
116.42065,39.90792,35,1674
116.42107,39.90413,36,1674
116.42876,39.86958,37,1674
116.39923,39.87071,38,1674
116.36245,39.8685,39,1674
116.34025,39.84889,40,1674
116.34045,39.79882,41,1674
116.33733,39.75688,42,1674
116.3405,39.73028,43,1674
116.3369,39.76262,44,1674
116.33587,39.77165,45,1674
116.33587,39.77165,46,1674
116.34679,39.79029,47,1674
116.36909,39.79477,48,1674
116.38893,39.80146,49,1674
116.39641,39.80227,50,1674
116.39591,39.81863,51,1674
116.39467,39.8425,52,1674
116.39383,39.86955,53,1674
116.38442,39.88206,54,1674
116.3886,39.88492,55,1674
116.39122,39.88505,56,1674
116.40642,39.88726,57,1674
116.41231,39.89548,58,1674
116.41521,39.86663,59,1674
116.40665,39.86059,60,1674
116.40752,39.86426,61,1674
116.41501,39.87578,62,1674
116.41278,39.88972,63,1674
116.41259,39.89593,64,1674
116.40862,39.89968,65,1674
116.40902,39.89569,66,1674
116.40805,39.89871,67,1674
116.41168,39.89799,68,1674
116.41251,39.89168,69,1674
116.41488,39.87489,70,1674
116.42159,39.86444,71,1674
116.4327,39.86895,72,1674
116.44479,39.88321,73,1674
116.43689,39.89733,74,1674
116.42945,39.90972,75,1674
116.42799,39.93136,76,1674
116.4281,39.941,77,1674
116.4121,39.93962,78,1674
116.39931,39.93951,79,1674
116.39349,39.94199,80,1674
116.39892,39.94747,81,1674
116.4143,39.94711,82,1674
116.42062,39.94809,83,1674
116.44585,39.95161,84,1674
116.44584,39.95161,85,1674
116.44586,39.95159,86,1674
116.44584,39.95167,87,1674
116.44586,39.95162,88,1674
116.44577,39.95162,89,1674
116.44585,39.95161,90,1674
116.45084,39.94719,91,1674
116.44439,39.93994,92,1674
116.43374,39.93245,93,1674
116.42156,39.93242,94,1674
116.41108,39.92663,95,1674
116.41141,39.91964,96,1674
116.41157,39.91085,97,1674
116.41193,39.90325,98,1674
116.4121,39.90003,99,1674
116.42063,39.89201,100,1674
116.42063,39.89201,101,1674
116.44967,39.89257,102,1674
116.45207,39.89375,103,1674
116.45044,39.89249,104,1674
116.42993,39.89639,105,1674
116.41962,39.89601,106,1674
116.41111,39.8959,107,1674
116.41454,39.87986,108,1674
116.42097,39.86429,109,1674
116.43062,39.8646,110,1674
116.43584,39.8646,111,1674
116.43529,39.86454,112,1674
116.40444,39.87085,113,1674
116.34618,39.86729,114,1674
116.34042,39.89659,115,1674
116.24694,39.90053,116,1674
116.22965,39.90244,117,1674
116.24646,39.89564,118,1674
116.25448,39.90616,119,1674
116.26977,39.87943,120,1674
116.31198,39.89555,121,1674
116.31716,39.89561,122,1674
116.30761,39.89548,123,1674
116.30761,39.89548,124,1674
116.30761,39.89548,125,1674
116.30761,39.89548,126,1674
116.30761,39.89548,127,1674
116.30761,39.89548,128,1674
116.30761,39.89548,129,1674
116.30761,39.89548,130,1674
116.30761,39.89548,131,1674
116.30427,39.91683,132,1674
116.29326,39.94482,133,1674
116.27445,39.95179,134,1674
116.28206,39.95605,135,1674
116.29635,39.9635,136,1674
116.29335,39.97082,137,1674
116.29689,39.95875,138,1674
116.35226,39.94299,139,1674
116.41964,39.94817,140,1674
116.43263,39.93229,141,1674
116.44902,39.94933,142,1674
116.44593,39.95156,143,1674
116.44569,39.95149,144,1674
116.44566,39.95149,145,1674
116.4459,39.95151,146,1674
116.44589,39.95153,147,1674
116.44573,39.95143,148,1674
116.44573,39.95143,149,1674
116.44584,39.9515,150,1674
116.44581,39.95148,151,1674
116.44586,39.95147,152,1674
116.44919,39.94535,153,1674
116.44926,39.93288,154,1674
116.43024,39.93332,155,1674
116.44031,39.93233,156,1674
116.42909,39.92318,157,1674
116.4323,39.89788,158,1674
116.41303,39.89579,159,1674
116.41139,39.91386,160,1674
116.41088,39.93197,161,1674
116.40231,39.93596,162,1674
116.40478,39.91723,163,1674
116.41079,39.89589,164,1674
116.4108,39.89596,165,1674
116.41084,39.89597,166,1674
116.41082,39.8959,167,1674
116.4109,39.89594,168,1674
116.41088,39.89598,169,1674
116.41086,39.89608,170,1674
116.41087,39.89603,171,1674
116.41077,39.89618,172,1674
116.41088,39.89601,173,1674
116.41081,39.89591,174,1674
116.4105,39.89599,175,1674
116.4105,39.89599,176,1674
116.41058,39.89604,177,1674
116.41047,39.89597,178,1674
116.41049,39.89594,179,1674
116.41043,39.89594,180,1674
116.41044,39.8958,181,1674
116.41062,39.89576,182,1674
116.41044,39.89589,183,1674
116.41035,39.89592,184,1674
116.41045,39.89589,185,1674
116.41052,39.89581,186,1674
116.4106,39.89568,187,1674
116.41058,39.89572,188,1674
116.41064,39.89572,189,1674
116.41063,39.89568,190,1674
116.41063,39.89589,191,1674
116.4107,39.89588,192,1674
116.41157,39.8994,193,1674
116.4118,39.89473,194,1674
116.41186,39.89465,195,1674
116.41189,39.89455,196,1674
116.41235,39.89419,197,1674
116.40468,39.85252,198,1674
116.41511,39.8735,199,1674
116.41954,39.88254,200,1674
116.41954,39.88254,201,1674
116.42143,39.89437,202,1674
116.41091,39.89714,203,1674
116.40424,39.8525,204,1674
116.42045,39.85675,205,1674
116.45599,39.86015,206,1674
116.46297,39.8431,207,1674
116.45964,39.8518,208,1674
116.47034,39.86649,209,1674
116.47101,39.89185,210,1674
116.45474,39.90665,211,1674
116.45479,39.90568,212,1674
116.44813,39.90713,213,1674
116.40526,39.91429,214,1674
116.41933,39.92292,215,1674
116.42086,39.90742,216,1674
116.40085,39.9011,217,1674
116.40071,39.9064,218,1674
116.41349,39.91423,219,1674
116.42121,39.92291,220,1674
116.42787,39.93499,221,1674
116.44767,39.95701,222,1674
116.44456,39.96097,223,1674
116.44673,39.95609,224,1674
116.4715,39.97838,225,1674
116.48055,39.98066,226,1674
116.48033,39.98628,227,1674
116.48647,39.99194,228,1674
116.50048,40.00522,229,1674
116.49956,40.00677,230,1674
116.50151,40.00665,231,1674
116.50191,40.00686,232,1674
116.50189,40.00689,233,1674
116.50189,40.00686,234,1674
116.50192,40.00682,235,1674
116.5019,40.00684,236,1674
116.50195,40.00685,237,1674
116.47657,39.99123,238,1674
116.45902,30.72665,239,1674
116.45902,30.72665,240,1674
116.45782,39.9752,241,1674
116.47358,39.96323,242,1674
116.4725,39.89206,243,1674
116.4725,39.89206,244,1674
116.45936,39.89229,245,1674
116.43615,39.89238,246,1674
116.41354,39.8919,247,1674
116.40652,39.89974,248,1674
116.40526,39.90549,249,1674
116.41152,39.91386,250,1674
116.40477,39.9213,251,1674
116.42351,39.9229,252,1674
116.42692,39.94157,253,1674
116.51966,40.01737,254,1674
116.57969,40.04693,255,1674
116.5861,40.07951,256,1674
116.56523,40.06413,257,1674
116.56663,40.07053,258,1674
116.56679,40.07161,259,1674
116.56677,40.0716,260,1674
116.56675,40.07158,261,1674
116.56677,40.07159,262,1674
116.56675,40.07162,263,1674
116.56677,40.07162,264,1674
116.56677,40.07162,265,1674
116.56677,40.07159,266,1674
116.56677,40.07159,267,1674
116.56676,40.07162,268,1674
116.56679,40.0716,269,1674
116.56678,40.07159,270,1674
116.56679,40.07161,271,1674
116.56679,40.07161,272,1674
116.56677,40.0716,273,1674
116.56679,40.0716,274,1674
116.56677,40.07158,275,1674
116.5668,40.07162,276,1674
116.56681,40.07159,277,1674
116.5668,40.0716,278,1674
116.5668,40.07159,279,1674
116.56678,40.07158,280,1674
116.56678,40.07159,281,1674
116.56677,40.07161,282,1674
116.56679,40.07161,283,1674
116.56675,40.07158,284,1674
116.56675,40.0716,285,1674
116.56678,40.07159,286,1674
116.56677,40.07161,287,1674
116.56416,40.07083,288,1674
116.56465,40.0642,289,1674
116.57815,40.06266,290,1674
116.58273,40.06094,291,1674
116.58298,40.06076,292,1674
116.58298,40.06076,293,1674
116.58228,40.06498,294,1674
116.5822,40.06498,295,1674
116.58197,40.06691,296,1674
116.58151,40.06965,297,1674
116.58142,40.07024,298,1674
116.58131,40.07076,299,1674
116.58135,40.07078,300,1674
116.58349,40.07582,301,1674
116.58349,40.07582,302,1674
116.58704,40.07738,303,1674
116.58455,40.07872,304,1674
116.57493,40.04336,305,1674
116.50841,40.01078,306,1674
116.4531,39.96096,307,1674
116.42778,39.9323,308,1674
116.41638,39.92299,309,1674
116.42736,39.9229,310,1674
116.42758,39.93918,311,1674
116.45193,39.95377,312,1674
116.44249,39.95989,313,1674
116.44345,39.95974,314,1674
116.41847,39.97093,315,1674
116.40802,39.97415,316,1674
116.39874,39.96749,317,1674
116.37129,39.96689,318,1674
116.36377,39.96799,319,1674
116.36138,39.9861,320,1674
116.32005,39.98474,321,1674
116.3096,39.97949,322,1674
116.30545,39.98125,323,1674
116.29915,39.98734,324,1674
116.28989,39.9958,325,1674
116.29763,39.98289,326,1674
116.29551,39.97147,327,1674
116.29649,39.96241,328,1674
116.29748,39.95656,329,1674
116.30356,39.9433,330,1674
116.30356,39.9433,331,1674
116.2882,39.94657,332,1674
116.26968,39.94559,333,1674
116.24291,39.9462,334,1674
116.22988,39.92926,335,1674
116.24231,39.92615,336,1674
116.25661,39.91642,337,1674
116.25867,39.92012,338,1674
116.26654,39.92725,339,1674
116.2676,39.90821,340,1674
116.29083,39.90622,341,1674
116.31005,39.89599,342,1674
116.30761,39.8955,343,1674
116.30761,39.8955,344,1674
116.30761,39.8955,345,1674
116.30761,39.8955,346,1674
116.30761,39.8955,347,1674
116.30761,39.8955,348,1674
116.30761,39.8955,349,1674
116.30761,39.8955,350,1674
116.30761,39.8955,351,1674
116.30761,39.8955,352,1674
116.30761,39.8955,353,1674
116.30761,39.8955,354,1674
116.30761,39.8955,355,1674
116.31301,39.89595,356,1674
116.30672,39.92252,357,1674
116.31977,39.92709,358,1674
116.31889,39.9434,359,1674
116.31889,39.9434,360,1674
116.3298,39.95082,361,1674
116.34589,39.9398,362,1674
116.36237,39.94629,363,1674
116.41998,39.94822,364,1674
116.42772,39.9234,365,1674
116.44427,39.92272,366,1674
116.45163,39.93231,367,1674
116.45999,39.92195,368,1674
116.49279,39.92165,369,1674
116.50087,39.92403,370,1674
116.49598,39.9299,371,1674
116.52605,39.96039,372,1674
116.5402,39.94064,373,1674
116.51144,39.93924,374,1674
116.50079,39.92192,375,1674
116.48512,39.93254,376,1674
116.47314,39.95373,377,1674
116.44231,39.96042,378,1674
116.41149,39.97428,379,1674
116.42689,39.9821,380,1674
116.42502,39.98212,381,1674
116.39142,39.96753,382,1674
116.39129,39.96754,383,1674
116.39133,39.96749,384,1674
116.39119,39.96764,385,1674
116.37014,39.9759,386,1674
116.37014,39.9759,387,1674
116.37041,39.9767,388,1674
116.36352,39.97533,389,1674
116.33967,39.97501,390,1674
116.32857,39.96196,391,1674
116.32858,39.96201,392,1674
116.32854,39.96249,393,1674
116.32853,39.96252,394,1674
116.34851,39.96567,395,1674
116.34643,39.99592,396,1674
116.34339,39.99527,397,1674
116.3467,39.98559,398,1674
116.34635,39.96657,399,1674
116.32868,39.96188,400,1674
116.32851,39.96185,401,1674
116.3286,39.96191,402,1674
116.32847,39.96199,403,1674
116.32861,39.96207,404,1674
116.32854,39.9623,405,1674
116.32857,39.96232,406,1674
116.32854,39.96251,407,1674
116.32857,39.96252,408,1674
116.325,39.96635,409,1674
116.31605,39.96585,410,1674
116.31605,39.96585,411,1674
116.28465,39.95648,412,1674
116.27256,39.95236,413,1674
116.27836,39.96037,414,1674
116.28179,39.95871,415,1674
116.29733,39.95742,416,1674
116.29733,39.95742,417,1674
116.29943,39.93112,418,1674
116.29943,39.93112,419,1674
116.30387,39.92514,420,1674
116.31073,39.90378,421,1674
116.30765,39.89555,422,1674
116.30765,39.89555,423,1674
116.30765,39.89555,424,1674
116.30765,39.89555,425,1674
116.30765,39.89555,426,1674
116.30765,39.89555,427,1674
116.30765,39.89555,428,1674
116.30765,39.89555,429,1674
116.30765,39.89555,430,1674
116.30765,39.89555,431,1674
116.30765,39.89555,432,1674
116.30765,39.89555,433,1674
116.30765,39.89555,434,1674
116.30765,39.89555,435,1674
116.30765,39.89555,436,1674
116.30765,39.89555,437,1674
116.30765,39.89555,438,1674
116.30765,39.89555,439,1674
116.30765,39.89555,440,1674
116.30765,39.89555,441,1674
116.30765,39.89555,442,1674
116.30765,39.89555,443,1674
116.30765,39.89555,444,1674
116.30765,39.89555,445,1674
116.30765,39.89555,446,1674
116.30765,39.89555,447,1674
116.30765,39.89555,448,1674
116.30765,39.89555,449,1674
116.30765,39.89555,450,1674
116.30765,39.89555,451,1674
116.30765,39.89555,452,1674
116.30765,39.89555,453,1674
116.30765,39.89555,454,1674
116.30765,39.89555,455,1674
116.30765,39.89555,456,1674
116.30765,39.89555,457,1674
116.30765,39.89555,458,1674
116.30765,39.89555,459,1674
116.30765,39.89555,460,1674
116.30765,39.89555,461,1674
116.30765,39.89555,462,1674
116.30765,39.89555,463,1674
116.30765,39.89555,464,1674
116.30765,39.89555,465,1674
116.30171,39.89583,466,1674
116.28911,39.90108,467,1674
116.28879,39.90156,468,1674
116.30543,39.89569,469,1674
116.35838,39.91666,470,1674
116.35702,39.90278,471,1674
116.30885,39.88566,472,1674
116.30475,39.89499,473,1674
116.30521,39.89502,474,1674
116.31339,39.8955,475,1674
116.30571,39.89597,476,1674
116.30568,39.89528,477,1674
116.30652,39.8952,478,1674
116.30769,39.89557,479,1674
116.30769,39.89557,480,1674
116.30769,39.89557,481,1674
116.35297,39.86707,482,1674
116.43864,39.88773,483,1674
116.47278,39.90384,484,1674
116.48395,39.94575,485,1674
116.48862,39.99269,486,1674
116.56047,40.03208,487,1674
116.58243,40.07445,488,1674
116.58085,40.07653,489,1674
116.58247,40.06281,490,1674
116.55846,40.06178,491,1674
116.53622,40.05459,492,1674
116.52164,40.03071,493,1674
116.49985,40.00633,494,1674
116.49233,40.01153,495,1674
116.49233,40.01153,496,1674
116.49968,40.00668,497,1674
116.49959,40.00666,498,1674
116.49957,40.0067,499,1674
116.49956,40.00669,500,1674
116.4996,40.00668,501,1674
116.5018,40.00676,502,1674
116.50207,40.00713,503,1674
116.50228,40.00729,504,1674
116.50265,40.00775,505,1674
116.5024,40.00756,506,1674
116.50241,40.00754,507,1674
116.50233,40.00754,508,1674
116.50235,40.00756,509,1674
116.50233,40.00765,510,1674
116.50237,40.00765,511,1674
116.50234,40.00764,512,1674
116.50233,40.00765,513,1674
116.50236,40.00764,514,1674
116.50233,40.00763,515,1674
116.50233,40.00762,516,1674
116.50233,40.00764,517,1674
116.48243,39.98831,518,1674
116.47906,39.97603,519,1674
116.46892,39.96601,520,1674
116.48344,39.94952,521,1674
116.47604,39.93263,522,1674
116.48361,39.92252,523,1674
116.48324,39.8744,524,1674
116.48324,39.8744,525,1674
116.50778,39.86726,526,1674
116.49687,39.87497,527,1674
116.47546,39.8832,528,1674
116.46318,39.89219,529,1674
116.45606,39.8922,530,1674
116.44173,39.89248,531,1674
116.42279,39.89239,532,1674
116.41055,39.89181,533,1674
116.41054,39.89574,534,1674
116.41436,39.88348,535,1674
116.43017,39.88275,536,1674
116.43277,39.89207,537,1674
116.42985,39.90445,538,1674
116.44315,39.91202,539,1674
116.44405,39.91048,540,1674
116.42647,39.90725,541,1674
116.40569,39.90681,542,1674
116.3825,39.9061,543,1674
116.36969,39.90764,544,1674
116.37005,39.9097,545,1674
116.3675,39.90871,546,1674
116.36743,39.91764,547,1674
116.34978,39.93493,548,1674
116.31878,39.94419,549,1674
116.31535,39.96534,550,1674
116.31001,40.01698,551,1674
116.31001,40.01698,552,1674
116.30697,40.0288,553,1674
116.30786,40.03577,554,1674
116.31583,40.03936,555,1674
116.3171,40.03786,556,1674
116.31098,40.03374,557,1674
116.32581,40.03467,558,1674
116.32985,40.03529,559,1674
116.32984,40.03532,560,1674
116.33286,40.03661,561,1674
116.34459,40.02504,562,1674
116.36232,40.00179,563,1674
116.37364,39.98603,564,1674
116.37622,39.98601,565,1674
116.41146,39.97181,566,1674
116.41182,39.96886,567,1674
116.41244,39.95434,568,1674
116.41032,39.94676,569,1674
116.41054,39.94122,570,1674
116.40227,39.93814,571,1674
116.40247,39.93428,572,1674
116.40255,39.93192,573,1674
116.41126,39.92234,574,1674
116.41164,39.91217,575,1674
116.40798,39.90683,576,1674
116.38952,39.90542,577,1674
116.38821,39.88897,578,1674
116.36804,39.87856,579,1674
116.36798,39.87022,580,1674
116.36798,39.87022,581,1674
116.36508,39.85065,582,1674
116.35766,39.84921,583,1674
116.36555,39.85527,584,1674
116.37655,39.8692,585,1674
116.38126,39.88031,586,1674
116.38702,39.8842,587,1674
116.39007,39.88494,588,1674
116.40581,39.88682,589,1674
116.41296,39.8913,590,1674
116.42083,39.89197,591,1674
116.4308,39.89251,592,1674
116.42532,39.89241,593,1674
116.43279,39.89283,594,1674
116.45471,39.89211,595,1674
116.45567,39.8985,596,1674
116.45864,39.89944,597,1674
116.45861,39.89942,598,1674
116.45861,39.8994,599,1674
116.45862,39.89942,600,1674
116.4586,39.89945,601,1674
116.45863,39.89942,602,1674
116.46926,39.904,603,1674
116.45836,39.91222,604,1674
116.45564,39.92888,605,1674
116.46275,39.94372,606,1674
116.46652,39.93376,607,1674
116.46784,39.94481,608,1674
116.45064,39.95848,609,1674
116.49294,39.99668,610,1674
116.53773,40.05531,611,1674
116.56305,40.06672,612,1674
116.56434,40.07169,613,1674
116.56436,40.0717,614,1674
116.56433,40.07168,615,1674
116.56436,40.07169,616,1674
116.56433,40.07171,617,1674
116.56435,40.0717,618,1674
116.56438,40.07172,619,1674
116.56437,40.07169,620,1674
116.56435,40.07169,621,1674
116.56433,40.07168,622,1674
116.56435,40.07169,623,1674
116.56434,40.07168,624,1674
116.56437,40.07168,625,1674
116.56435,40.07169,626,1674
116.56437,40.07168,627,1674
116.56438,40.07166,628,1674
116.56436,40.07168,629,1674
116.56435,40.07167,630,1674
116.56439,40.07169,631,1674
116.56438,40.07169,632,1674
116.56436,40.07166,633,1674
116.56436,40.07164,634,1674
116.56435,40.07162,635,1674
116.56437,40.07165,636,1674
116.56434,40.07165,637,1674
116.56436,40.07167,638,1674
116.56317,40.07012,639,1674
116.56315,40.06586,640,1674
116.56323,40.0656,641,1674
116.56327,40.06561,642,1674
116.56325,40.06561,643,1674
116.5785,40.06263,644,1674
116.57845,40.0626,645,1674
116.58292,40.06107,646,1674
116.58288,40.06106,647,1674
116.58289,40.06107,648,1674
116.58273,40.06211,649,1674
116.58268,40.06208,650,1674
116.58273,40.06209,651,1674
116.58277,40.0621,652,1674
116.58209,40.06616,653,1674
116.58166,40.06877,654,1674
116.58167,40.06877,655,1674
116.58148,40.07003,656,1674
116.58147,40.07003,657,1674
116.58129,40.07118,658,1674
116.58126,40.07121,659,1674
116.58126,40.07121,660,1674
116.58165,40.07644,661,1674
116.58182,40.076,662,1674
116.58599,40.07673,663,1674
116.58747,40.07739,664,1674
116.58747,40.07739,665,1674
116.58747,40.07739,666,1674
116.58272,40.05046,667,1674
116.52641,40.01994,668,1674
116.50454,39.98625,669,1674
116.62687,39.90554,670,1674
116.5568,39.91505,671,1674
116.53748,39.92681,672,1674
116.53505,39.94253,673,1674
116.50029,39.99156,674,1674
116.50154,40.00662,675,1674
116.50254,40.0076,676,1674
116.5025,40.0076,677,1674
116.50252,40.00763,678,1674
116.50253,40.0076,679,1674
116.50256,40.0076,680,1674
116.50256,40.0076,681,1674
116.5025,40.00762,682,1674
116.50251,40.00762,683,1674
116.5025,40.00765,684,1674
116.50251,40.00765,685,1674
116.50252,40.00764,686,1674
116.50249,40.00762,687,1674
116.50251,40.00759,688,1674
116.50247,40.00763,689,1674
116.50252,40.00764,690,1674
116.50254,40.00763,691,1674
116.50252,40.00764,692,1674
116.50251,40.0076,693,1674
116.50253,40.00758,694,1674
116.50253,40.0076,695,1674
116.5025,40.00759,696,1674
116.50258,40.00761,697,1674
116.5025,40.00761,698,1674
116.50249,40.00759,699,1674
116.50251,40.0076,700,1674
116.50249,40.00762,701,1674
116.50249,40.00758,702,1674
116.50252,40.00757,703,1674
116.50252,40.00759,704,1674
116.50251,40.00758,705,1674
116.50251,40.00758,706,1674
116.5025,40.0076,707,1674
116.50253,40.00758,708,1674
116.50253,40.00758,709,1674
116.50248,40.00756,710,1674
116.50249,40.00756,711,1674
116.50251,40.00758,712,1674
116.5025,40.0076,713,1674
116.50251,40.00757,714,1674
116.50256,40.00756,715,1674
116.50251,40.00759,716,1674
116.50252,40.00756,717,1674
116.50252,40.00759,718,1674
116.50252,40.00759,719,1674
116.50252,40.00758,720,1674
116.50251,40.00758,721,1674
116.50248,40.00756,722,1674
116.50252,40.00757,723,1674
116.50251,40.00757,724,1674
116.50256,40.00756,725,1674
116.50253,40.00758,726,1674
116.5025,40.00761,727,1674
116.50252,40.00758,728,1674
116.5025,40.00765,729,1674
116.50253,40.00765,730,1674
116.50253,40.00758,731,1674
116.50251,40.00759,732,1674
116.50252,40.00759,733,1674
116.50253,40.00758,734,1674
116.50254,40.00757,735,1674
116.50251,40.00757,736,1674
116.50252,40.00758,737,1674
116.50259,40.00754,738,1674
116.50255,40.00754,739,1674
116.50252,40.00757,740,1674
116.50252,40.00759,741,1674
116.50257,40.00755,742,1674
116.50256,40.0076,743,1674
116.50249,40.0076,744,1674
116.50253,40.00754,745,1674
116.50254,40.00757,746,1674
116.50255,40.00762,747,1674
116.50255,40.0076,748,1674
116.50256,40.00757,749,1674
116.50254,40.00758,750,1674
116.50254,40.00762,751,1674
116.50253,40.00757,752,1674
116.50251,40.00757,753,1674
116.50249,40.00754,754,1674
116.50255,40.00758,755,1674
116.50252,40.00759,756,1674
116.50257,40.0076,757,1674
116.50253,40.0076,758,1674
116.50259,40.00756,759,1674
116.50255,40.00756,760,1674
116.50252,40.00757,761,1674
116.50252,40.00757,762,1674
116.50253,40.00757,763,1674
116.50253,40.00757,764,1674
116.50252,40.00761,765,1674
116.50257,40.00762,766,1674
116.50255,40.00763,767,1674
116.50255,40.00765,768,1674
116.50255,40.00762,769,1674
116.50254,40.00764,770,1674
116.5025,40.00737,771,1674
116.48447,39.99027,772,1674
116.46654,39.98287,773,1674
116.44885,39.97933,774,1674
116.42382,39.96834,775,1674
116.41082,39.97431,776,1674
116.40362,39.98112,777,1674
116.40903,39.99359,778,1674
116.40209,39.98177,779,1674
116.39568,39.96919,780,1674
116.39427,39.97059,781,1674
116.3788,39.97128,782,1674
116.37358,39.98257,783,1674
116.36339,39.98096,784,1674
116.35055,39.97526,785,1674
116.32933,39.97523,786,1674
116.32791,39.96587,787,1674
116.31723,39.9555,788,1674
116.31301,39.93821,789,1674
116.30379,39.9314,790,1674
116.30239,39.90511,791,1674
116.30564,39.89546,792,1674
116.30562,39.89545,793,1674
116.30626,39.89509,794,1674
116.30608,39.89529,795,1674
116.30744,39.89551,796,1674
116.30761,39.89551,797,1674
116.30761,39.89551,798,1674
116.30761,39.89551,799,1674
116.30761,39.89551,800,1674
116.30761,39.89551,801,1674
116.30761,39.89551,802,1674
116.30761,39.89551,803,1674
116.30761,39.89551,804,1674
116.30761,39.89551,805,1674
116.30761,39.89551,806,1674
116.30761,39.89551,807,1674
116.30761,39.89551,808,1674
116.35044,39.90384,809,1674
116.35,39.92352,810,1674
116.3489,39.95762,811,1674
116.42748,39.97255,812,1674
116.44139,39.9934,813,1674
116.47618,40.04465,814,1674
116.4769,40.09295,815,1674
116.5188,40.09484,816,1674
116.51635,40.08009,817,1674
116.52052,40.09646,818,1674
116.54559,40.1021,819,1674
116.53853,40.10764,820,1674
116.53853,40.10764,821,1674
116.54271,40.11101,822,1674
116.55359,40.09114,823,1674
116.5504,40.06398,824,1674
116.56669,40.07065,825,1674
116.56423,40.07142,826,1674
116.56423,40.07142,827,1674
116.56423,40.07145,828,1674
116.56425,40.07143,829,1674
116.56425,40.07144,830,1674
116.56427,40.07141,831,1674
116.56424,40.07142,832,1674
116.56424,40.07143,833,1674
116.56423,40.07144,834,1674
116.56426,40.07143,835,1674
116.56428,40.07143,836,1674
116.56429,40.07142,837,1674
116.56428,40.07143,838,1674
116.56425,40.07141,839,1674
116.56425,40.07139,840,1674
116.56425,40.07138,841,1674
116.56424,40.07143,842,1674
116.56428,40.07145,843,1674
116.56426,40.07142,844,1674
116.56423,40.07143,845,1674
116.56425,40.0714,846,1674
116.56425,40.07137,847,1674
116.56424,40.0714,848,1674
116.56423,40.0714,849,1674
116.56421,40.07138,850,1674
116.56423,40.07137,851,1674
116.56423,40.07136,852,1674
116.5642,40.07138,853,1674
116.5642,40.07137,854,1674
116.56418,40.07133,855,1674
116.5642,40.07137,856,1674
116.5642,40.07135,857,1674
116.56423,40.07141,858,1674
116.56422,40.07139,859,1674
116.56422,40.07139,860,1674
116.5642,40.07141,861,1674
116.56421,40.07139,862,1674
116.56425,40.07137,863,1674
116.56423,40.0714,864,1674
116.56372,40.07016,865,1674
116.57354,40.06308,866,1674
116.57568,40.0629,867,1674
116.57566,40.06292,868,1674
116.5814,40.06237,869,1674
116.58144,40.06235,870,1674
116.58277,40.06178,871,1674
116.58275,40.06178,872,1674
116.58162,40.06911,873,1674
116.58149,40.0696,874,1674
116.58152,40.06963,875,1674
116.5815,40.06963,876,1674
116.58102,40.07224,877,1674
116.58101,40.07225,878,1674
116.58101,40.07225,879,1674
116.58102,40.07226,880,1674
116.58076,40.07335,881,1674
116.58046,40.07641,882,1674
116.58094,40.07645,883,1674
116.5828,40.0793,884,1674
116.57965,40.04769,885,1674
116.53171,40.02189,886,1674
116.53171,40.02189,887,1674
116.47537,39.98099,888,1674
116.4837,39.94027,889,1674
116.47198,39.90703,890,1674
116.47181,39.90234,891,1674
116.45401,39.91226,892,1674
116.45568,39.92269,893,1674
116.45579,39.94759,894,1674
116.45732,39.96447,895,1674
116.47634,39.98275,896,1674
116.5021,40.00645,897,1674
116.50913,40.01273,898,1674
116.52997,40.04546,899,1674
116.5508,40.07364,900,1674
116.56206,40.11592,901,1674
116.59099,40.14135,902,1674
116.63188,40.16492,903,1674
116.63636,40.20838,904,1674
116.63599,40.2471,905,1674
116.63682,40.28928,906,1674
116.63682,40.28928,907,1674
116.65587,40.3212,908,1674
116.70471,40.32698,909,1674
116.75009,40.33469,910,1674
116.80022,40.35858,911,1674
116.85218,40.37308,912,1674
116.85214,40.37295,913,1674
116.85218,40.37308,914,1674
116.85224,40.37319,915,1674
116.85217,40.37309,916,1674
116.85215,40.37289,917,1674
116.85218,40.37295,918,1674
116.85219,40.37313,919,1674
116.85217,40.37305,920,1674
116.85214,40.37302,921,1674
116.85217,40.37301,922,1674
116.8528,40.37551,923,1674
116.85578,40.3852,924,1674
116.85572,40.38525,925,1674
116.85578,40.38516,926,1674
116.85563,40.38508,927,1674
116.85567,40.38512,928,1674
116.85572,40.38521,929,1674
116.8557,40.38516,930,1674
116.8557,40.38516,931,1674
116.85573,40.38525,932,1674
116.85574,40.38528,933,1674
116.85571,40.38515,934,1674
116.8558,40.38532,935,1674
116.85573,40.38526,936,1674
116.85583,40.38514,937,1674
116.85597,40.38514,938,1674
116.85592,40.38516,939,1674
116.85587,40.3851,940,1674
116.85589,40.38506,941,1674
116.85591,40.38507,942,1674
116.85596,40.38505,943,1674
116.85583,40.38509,944,1674
116.85584,40.38507,945,1674
116.8558,40.38505,946,1674
116.85584,40.38507,947,1674
116.85579,40.38515,948,1674
116.85577,40.38507,949,1674
116.85581,40.38514,950,1674
116.85585,40.38511,951,1674
116.85577,40.38522,952,1674
116.85584,40.38518,953,1674
116.85586,40.38515,954,1674
116.85563,40.38523,955,1674
116.85563,40.38523,956,1674
116.85562,40.38511,957,1674
116.85566,40.38516,958,1674
116.8557,40.38508,959,1674
116.85573,40.38545,960,1674
116.85585,40.38519,961,1674
116.85579,40.38526,962,1674
116.85566,40.38513,963,1674
116.85578,40.38518,964,1674
116.85574,40.38524,965,1674
116.85568,40.38512,966,1674
116.85592,40.38516,967,1674
116.85584,40.38514,968,1674
116.85585,40.38516,969,1674
116.8559,40.3852,970,1674
116.85595,40.38524,971,1674
116.85581,40.38509,972,1674
116.85584,40.38508,973,1674
116.85571,40.38501,974,1674
116.85586,40.38522,975,1674
116.85583,40.38499,976,1674
116.85582,40.38502,977,1674
116.85572,40.38504,978,1674
116.85568,40.38516,979,1674
116.85571,40.38498,980,1674
116.85571,40.38498,981,1674
116.85575,40.38513,982,1674
116.85572,40.38512,983,1674
116.85562,40.38513,984,1674
116.85556,40.38519,985,1674
116.85563,40.38516,986,1674
116.85555,40.38519,987,1674
116.85566,40.38516,988,1674
116.85573,40.38521,989,1674
116.85571,40.38513,990,1674
116.85571,40.38523,991,1674
116.85578,40.38507,992,1674
116.85572,40.38513,993,1674
116.85578,40.38501,994,1674
116.85562,40.38503,995,1674
116.85579,40.385,996,1674
116.85571,40.38505,997,1674
116.85571,40.38503,998,1674
116.85571,40.38498,999,1674
116.8557,40.38511,1000,1674
116.85585,40.38503,1001,1674
116.85568,40.38508,1002,1674
116.85567,40.38511,1003,1674
116.85571,40.38516,1004,1674
116.85566,40.38517,1005,1674
116.85555,40.38516,1006,1674
116.85568,40.38511,1007,1674
116.85558,40.38509,1008,1674
116.85587,40.38518,1009,1674
116.85587,40.38518,1010,1674
116.85575,40.38512,1011,1674
116.85577,40.38511,1012,1674
116.85599,40.38515,1013,1674
116.85574,40.38509,1014,1674
116.85572,40.38511,1015,1674
116.8558,40.38512,1016,1674
116.85569,40.38517,1017,1674
116.85578,40.38516,1018,1674
116.85584,40.38526,1019,1674
116.85568,40.38525,1020,1674
116.85576,40.38528,1021,1674
116.85574,40.38529,1022,1674
116.85578,40.38533,1023,1674
116.85577,40.38531,1024,1674
116.8558,40.38531,1025,1674
116.85572,40.3853,1026,1674
116.85575,40.3853,1027,1674
116.8557,40.38529,1028,1674
116.85579,40.38533,1029,1674
116.85564,40.38529,1030,1674
116.85565,40.3852,1031,1674
116.85567,40.38559,1032,1674
116.85573,40.38522,1033,1674
116.8558,40.38524,1034,1674
116.85537,40.38531,1035,1674
116.85615,40.38277,1036,1674
116.87831,40.3817,1037,1674
116.89353,40.40071,1038,1674
116.89353,40.40071,1039,1674
116.8899,40.40544,1040,1674
116.8931,40.39973,1041,1674
116.89311,40.39974,1042,1674
116.89316,40.39982,1043,1674
116.89312,40.39978,1044,1674
116.89314,40.3998,1045,1674
116.89313,40.39978,1046,1674
116.89317,40.39974,1047,1674
116.89311,40.39975,1048,1674
116.89315,40.39977,1049,1674
116.89284,40.39963,1050,1674
116.89318,40.39974,1051,1674
116.89312,40.3997,1052,1674
116.89313,40.39972,1053,1674
116.89312,40.39972,1054,1674
116.89314,40.39971,1055,1674
116.89312,40.3997,1056,1674
116.89312,40.39971,1057,1674
116.89312,40.39971,1058,1674
116.8871,40.38358,1059,1674
116.88687,40.38379,1060,1674
116.88686,40.38378,1061,1674
116.88702,40.38395,1062,1674
116.887,40.38397,1063,1674
116.88703,40.38398,1064,1674
116.887,40.38399,1065,1674
116.88702,40.38403,1066,1674
116.887,40.38396,1067,1674
116.887,40.38396,1068,1674
116.88699,40.38403,1069,1674
116.88699,40.38399,1070,1674
116.88701,40.38395,1071,1674
116.88701,40.38396,1072,1674
116.8868,40.38381,1073,1674
116.85763,40.3751,1074,1674
116.83856,40.37794,1075,1674
116.83908,40.37776,1076,1674
116.83897,40.3777,1077,1674
116.839,40.37771,1078,1674
116.83894,40.3776,1079,1674
116.83901,40.37776,1080,1674
116.83901,40.3777,1081,1674
116.84165,40.37462,1082,1674
116.84677,40.37496,1083,1674
116.87081,40.37869,1084,1674
116.89148,40.39028,1085,1674
116.89307,40.39973,1086,1674
116.8931,40.39975,1087,1674
116.89311,40.39974,1088,1674
116.89309,40.39974,1089,1674
116.89314,40.39972,1090,1674
116.89309,40.39977,1091,1674
116.89311,40.39979,1092,1674
116.89312,40.39977,1093,1674
116.89311,40.39977,1094,1674
116.89311,40.39977,1095,1674
116.89314,40.39974,1096,1674
116.89314,40.39972,1097,1674
116.89314,40.39974,1098,1674
116.89314,40.39974,1099,1674
116.89314,40.39974,1100,1674
116.89315,40.39972,1101,1674
116.89314,40.3997,1102,1674
116.89311,40.39969,1103,1674
116.89313,40.3997,1104,1674
116.89313,40.3997,1105,1674
116.89314,40.39974,1106,1674
116.89316,40.3997,1107,1674
116.89314,40.39969,1108,1674
116.89318,40.39973,1109,1674
116.89319,40.39974,1110,1674
116.89316,40.39975,1111,1674
116.89314,40.39973,1112,1674
116.89318,40.39972,1113,1674
116.89312,40.39967,1114,1674
116.89313,40.39973,1115,1674
116.89314,40.39971,1116,1674
116.89317,40.39971,1117,1674
116.89317,40.39972,1118,1674
116.89316,40.39971,1119,1674
116.89318,40.39971,1120,1674
116.89316,40.39969,1121,1674
116.89313,40.39971,1122,1674
116.89314,40.39969,1123,1674
116.89313,40.39969,1124,1674
116.89313,40.39969,1125,1674
116.89313,40.39969,1126,1674
116.89313,40.39969,1127,1674
116.89313,40.39969,1128,1674
116.89313,40.39969,1129,1674
116.89315,40.39967,1130,1674
116.89315,40.39967,1131,1674
116.89315,40.39964,1132,1674
116.89314,40.39967,1133,1674
116.89314,40.39967,1134,1674
116.89312,40.3997,1135,1674
116.89312,40.3997,1136,1674
116.89312,40.39969,1137,1674
116.89313,40.39972,1138,1674
116.89315,40.39963,1139,1674
116.89311,40.39974,1140,1674
116.8931,40.39973,1141,1674
116.89309,40.3997,1142,1674
116.89312,40.39971,1143,1674
116.89313,40.39971,1144,1674
116.84286,40.37475,1145,1674
116.84281,40.37477,1146,1674
116.8429,40.37555,1147,1674
116.84297,40.37565,1148,1674
116.86124,40.37458,1149,1674
116.89438,40.39502,1150,1674
116.89309,40.39971,1151,1674
116.89314,40.39969,1152,1674
116.89315,40.39972,1153,1674
116.89316,40.39974,1154,1674
116.89313,40.39972,1155,1674
116.89312,40.39971,1156,1674
116.89313,40.39973,1157,1674
116.89308,40.39972,1158,1674
116.89312,40.39971,1159,1674
116.89312,40.39971,1160,1674
116.89311,40.39972,1161,1674
116.8931,40.39972,1162,1674
116.89314,40.3997,1163,1674
116.8931,40.39973,1164,1674
116.89306,40.39976,1165,1674
116.89313,40.39972,1166,1674
116.89311,40.39973,1167,1674
116.89312,40.39972,1168,1674
116.89313,40.3997,1169,1674
116.89316,40.39969,1170,1674
116.89306,40.39976,1171,1674
116.89309,40.39972,1172,1674
116.89309,40.39974,1173,1674
116.89309,40.39973,1174,1674
116.89307,40.39974,1175,1674
116.89311,40.3997,1176,1674
116.89311,40.39972,1177,1674
116.89311,40.39972,1178,1674
116.89311,40.3997,1179,1674
116.89319,40.39976,1180,1674
116.89313,40.39968,1181,1674
116.89314,40.39971,1182,1674
116.89314,40.39972,1183,1674
116.89312,40.39966,1184,1674
116.89313,40.39969,1185,1674
116.89314,40.39971,1186,1674
116.89314,40.39971,1187,1674
116.89312,40.39971,1188,1674
116.89314,40.39972,1189,1674
116.89314,40.39971,1190,1674
116.89316,40.39973,1191,1674
116.89316,40.39974,1192,1674
116.89316,40.39972,1193,1674
116.89316,40.39973,1194,1674
116.89309,40.39969,1195,1674
116.89318,40.39971,1196,1674
116.89314,40.39972,1197,1674
116.89312,40.39967,1198,1674
116.89313,40.39964,1199,1674
116.89314,40.39966,1200,1674
116.89315,40.39968,1201,1674
116.89314,40.39966,1202,1674
116.89311,40.39965,1203,1674
116.89312,40.39969,1204,1674
116.8931,40.39967,1205,1674
116.89315,40.39966,1206,1674
116.89314,40.39967,1207,1674
116.89314,40.39966,1208,1674
116.8931,40.39968,1209,1674
116.89313,40.3997,1210,1674
116.89316,40.39969,1211,1674
116.89314,40.3997,1212,1674
116.89314,40.39967,1213,1674
116.89312,40.39966,1214,1674
116.89317,40.39965,1215,1674
116.89314,40.39969,1216,1674
116.89314,40.39969,1217,1674
116.89317,40.3997,1218,1674
116.89315,40.39971,1219,1674
116.89314,40.39969,1220,1674
116.89316,40.39972,1221,1674
116.8932,40.39973,1222,1674
116.89313,40.39972,1223,1674
116.89314,40.39969,1224,1674
116.89315,40.39967,1225,1674
116.89314,40.3997,1226,1674
116.89316,40.39968,1227,1674
116.89314,40.39969,1228,1674
116.89321,40.39978,1229,1674
116.89321,40.39975,1230,1674
116.89319,40.3998,1231,1674
116.89316,40.39973,1232,1674
116.89305,40.39973,1233,1674
116.89312,40.39971,1234,1674
116.89309,40.3997,1235,1674
116.89311,40.39977,1236,1674
116.89306,40.39978,1237,1674
116.89313,40.39977,1238,1674
116.8931,40.39981,1239,1674
116.89306,40.39975,1240,1674
116.89312,40.39973,1241,1674
116.8931,40.39973,1242,1674
116.8931,40.39973,1243,1674
116.89308,40.39974,1244,1674
116.89308,40.39974,1245,1674
116.89306,40.3997,1246,1674
116.8931,40.39973,1247,1674
116.89311,40.3997,1248,1674
116.89314,40.39973,1249,1674
116.89307,40.39972,1250,1674
116.89306,40.39971,1251,1674
116.89308,40.39971,1252,1674
116.89314,40.39974,1253,1674
116.89313,40.39971,1254,1674
116.89311,40.39972,1255,1674
116.89313,40.39968,1256,1674
116.89311,40.39966,1257,1674
116.8931,40.39969,1258,1674
116.89311,40.39972,1259,1674
116.89316,40.39973,1260,1674
116.89315,40.3997,1261,1674
116.89312,40.39969,1262,1674
116.89312,40.39971,1263,1674
116.89312,40.3997,1264,1674
116.89309,40.39969,1265,1674
116.89311,40.39968,1266,1674
116.8931,40.39971,1267,1674
116.89312,40.3997,1268,1674
116.89315,40.39971,1269,1674
116.89312,40.39971,1270,1674
116.89312,40.39974,1271,1674
116.89312,40.39974,1272,1674
116.89317,40.39973,1273,1674
116.8931,40.39971,1274,1674
116.89308,40.39972,1275,1674
116.89313,40.39972,1276,1674
116.89307,40.3997,1277,1674
116.89309,40.39969,1278,1674
116.89311,40.3997,1279,1674
116.89313,40.39973,1280,1674
116.89312,40.39972,1281,1674
116.89312,40.39968,1282,1674
116.89314,40.3997,1283,1674
116.89313,40.39973,1284,1674
116.89314,40.3997,1285,1674
116.8931,40.39964,1286,1674
116.89311,40.39965,1287,1674
116.8931,40.39968,1288,1674
116.89314,40.39965,1289,1674
116.89312,40.39969,1290,1674
116.89314,40.3997,1291,1674
116.89313,40.3997,1292,1674
116.89318,40.39969,1293,1674
116.89319,40.3997,1294,1674
116.89313,40.39968,1295,1674
116.89314,40.3997,1296,1674
116.89313,40.39968,1297,1674
116.89313,40.39969,1298,1674
116.89315,40.39968,1299,1674
116.89317,40.39967,1300,1674
116.89315,40.39969,1301,1674
116.89317,40.3997,1302,1674
116.89319,40.39968,1303,1674
116.89316,40.39971,1304,1674
116.89318,40.39969,1305,1674
116.89314,40.39971,1306,1674
116.89315,40.3997,1307,1674
116.89313,40.39973,1308,1674
116.89313,40.39972,1309,1674
116.89314,40.39974,1310,1674
116.89312,40.3997,1311,1674
116.89312,40.39973,1312,1674
116.89315,40.39975,1313,1674
116.89317,40.39975,1314,1674
116.89315,40.39974,1315,1674
116.89314,40.39972,1316,1674
116.89313,40.39973,1317,1674
116.89313,40.39972,1318,1674
116.89309,40.39973,1319,1674
116.89315,40.39975,1320,1674
116.89317,40.39978,1321,1674
116.89317,40.39974,1322,1674
116.89318,40.39979,1323,1674
116.89318,40.39976,1324,1674
116.89315,40.39975,1325,1674
116.89314,40.39973,1326,1674
116.89316,40.39975,1327,1674
116.89316,40.39975,1328,1674
116.89317,40.39973,1329,1674
116.89315,40.39973,1330,1674
116.8932,40.39977,1331,1674
116.89318,40.39971,1332,1674
116.89316,40.39977,1333,1674
116.89318,40.39977,1334,1674
116.88895,40.41061,1335,1674
116.88649,40.41273,1336,1674
116.89293,40.39988,1337,1674
116.87051,40.37873,1338,1674
116.85202,40.37294,1339,1674
116.85204,40.37293,1340,1674
116.85203,40.37292,1341,1674
116.85204,40.37292,1342,1674
116.85202,40.37286,1343,1674
116.85205,40.37289,1344,1674
116.85199,40.37292,1345,1674
116.85205,40.37292,1346,1674
116.85197,40.37296,1347,1674
116.85199,40.37295,1348,1674
116.85204,40.37302,1349,1674
116.85195,40.37299,1350,1674
116.85198,40.37304,1351,1674
116.852,40.37299,1352,1674
116.85192,40.373,1353,1674
116.852,40.37297,1354,1674
116.85185,40.37277,1355,1674
116.85186,40.37292,1356,1674
116.85186,40.37292,1357,1674
116.85181,40.37258,1358,1674
116.85196,40.37288,1359,1674
116.85177,40.37251,1360,1674
116.85188,40.37271,1361,1674
116.85198,40.37283,1362,1674
116.8519,40.37279,1363,1674
116.85198,40.37287,1364,1674
116.85201,40.37289,1365,1674
116.85195,40.37283,1366,1674
116.85194,40.37289,1367,1674
116.85206,40.37291,1368,1674
116.85198,40.37286,1369,1674
116.85205,40.37296,1370,1674
116.8521,40.37312,1371,1674
116.85209,40.37317,1372,1674
116.85207,40.37311,1373,1674
116.85204,40.37304,1374,1674
116.85196,40.37301,1375,1674
116.85202,40.37312,1376,1674
116.85197,40.37305,1377,1674
116.85189,40.37314,1378,1674
116.85194,40.37307,1379,1674
116.85198,40.37297,1380,1674
116.85195,40.37304,1381,1674
116.85201,40.37294,1382,1674
116.85194,40.37292,1383,1674
116.85203,40.37292,1384,1674
116.85195,40.37302,1385,1674
116.85201,40.37299,1386,1674
116.85201,40.37299,1387,1674
116.852,40.37298,1388,1674
116.85199,40.37297,1389,1674
116.85198,40.37299,1390,1674
116.85199,40.37308,1391,1674
116.85201,40.37311,1392,1674
116.85206,40.37283,1393,1674
116.85204,40.37295,1394,1674
116.85203,40.37305,1395,1674
116.852,40.37299,1396,1674
116.85196,40.37289,1397,1674
116.85204,40.37297,1398,1674
116.85209,40.37304,1399,1674
116.85216,40.37311,1400,1674
116.85207,40.37307,1401,1674
116.85209,40.37303,1402,1674
116.85201,40.37307,1403,1674
116.88113,40.38283,1404,1674
116.88847,40.41127,1405,1674
116.88662,40.41266,1406,1674
116.88663,40.41266,1407,1674
116.88655,40.41265,1408,1674
116.88658,40.41265,1409,1674
116.88658,40.41264,1410,1674
116.88659,40.41267,1411,1674
116.8866,40.41264,1412,1674
116.88663,40.41266,1413,1674
116.88659,40.41263,1414,1674
116.8866,40.41264,1415,1674
116.89276,40.40449,1416,1674
116.89276,40.40449,1417,1674
116.89293,40.3998,1418,1674
116.85981,40.37546,1419,1674
116.85189,40.37294,1420,1674
116.85189,40.37295,1421,1674
116.85185,40.37294,1422,1674
116.85196,40.37287,1423,1674
116.85186,40.37304,1424,1674
116.85194,40.37285,1425,1674
116.85195,40.37294,1426,1674
116.85196,40.37293,1427,1674
116.85191,40.37293,1428,1674
116.85193,40.37297,1429,1674
116.85196,40.37299,1430,1674
116.85186,40.37297,1431,1674
116.85192,40.37299,1432,1674
116.8519,40.37313,1433,1674
116.85194,40.37301,1434,1674
116.85194,40.37301,1435,1674
116.8519,40.37307,1436,1674
116.85195,40.37301,1437,1674
116.85192,40.373,1438,1674
116.85187,40.373,1439,1674
116.85187,40.37298,1440,1674
116.85191,40.37293,1441,1674
116.85191,40.37293,1442,1674
116.85186,40.3729,1443,1674
116.85192,40.37292,1444,1674
116.8519,40.37291,1445,1674
116.85197,40.37294,1446,1674
116.85197,40.37294,1447,1674
116.85192,40.37295,1448,1674
116.85192,40.37303,1449,1674
116.85192,40.37296,1450,1674
116.85191,40.37291,1451,1674
116.85167,40.37292,1452,1674
116.85186,40.37291,1453,1674
116.85962,40.37433,1454,1674
116.86465,40.37538,1455,1674
116.88592,40.38529,1456,1674
116.88705,40.4127,1457,1674
116.8931,40.39972,1458,1674
116.89682,40.39223,1459,1674
116.89295,40.3997,1460,1674
116.89711,40.39201,1461,1674
116.89714,40.39205,1462,1674
116.89711,40.39203,1463,1674
116.89712,40.39194,1464,1674
116.8971,40.39201,1465,1674
116.89709,40.39203,1466,1674
116.89716,40.392,1467,1674
116.89711,40.39199,1468,1674
116.89709,40.39197,1469,1674
116.8971,40.39193,1470,1674
116.89713,40.39197,1471,1674
116.89707,40.39191,1472,1674
116.89706,40.39193,1473,1674
116.89709,40.39196,1474,1674
116.89712,40.39191,1475,1674
116.8971,40.39199,1476,1674
116.8971,40.39199,1477,1674
116.89712,40.39198,1478,1674
116.89711,40.39204,1479,1674
116.89706,40.39201,1480,1674
116.8971,40.39202,1481,1674
116.89709,40.39197,1482,1674
116.89709,40.39194,1483,1674
116.89709,40.39196,1484,1674
116.89711,40.39203,1485,1674
116.89709,40.39197,1486,1674
116.89712,40.39197,1487,1674
116.89713,40.39195,1488,1674
116.89712,40.39196,1489,1674
116.89714,40.39196,1490,1674
116.89711,40.39197,1491,1674
116.8971,40.39199,1492,1674
116.89711,40.39198,1493,1674
116.8971,40.392,1494,1674
116.89709,40.39203,1495,1674
116.89709,40.392,1496,1674
116.89709,40.39199,1497,1674
116.89709,40.39199,1498,1674
116.89708,40.392,1499,1674
116.89711,40.39199,1500,1674
116.89707,40.392,1501,1674
116.89705,40.39201,1502,1674
116.89709,40.39199,1503,1674
116.8971,40.39198,1504,1674
116.89709,40.39198,1505,1674
116.89707,40.39193,1506,1674
116.89707,40.39193,1507,1674
116.89705,40.39199,1508,1674
116.8971,40.39195,1509,1674
116.89711,40.39198,1510,1674
116.89709,40.392,1511,1674
116.89711,40.39202,1512,1674
116.89713,40.39205,1513,1674
116.89713,40.392,1514,1674
116.89711,40.39199,1515,1674
116.89709,40.39203,1516,1674
116.89711,40.39201,1517,1674
116.89709,40.39207,1518,1674
116.89711,40.39203,1519,1674
116.89711,40.39207,1520,1674
116.89713,40.39204,1521,1674
116.89713,40.39203,1522,1674
116.8971,40.39205,1523,1674
116.89705,40.39206,1524,1674
116.8971,40.39196,1525,1674
116.89709,40.39202,1526,1674
116.89711,40.39197,1527,1674
116.8971,40.392,1528,1674
116.8971,40.392,1529,1674
116.89712,40.39196,1530,1674
116.89712,40.39196,1531,1674
116.89713,40.39193,1532,1674
116.89708,40.39203,1533,1674
116.89706,40.39201,1534,1674
116.89709,40.392,1535,1674
116.89707,40.392,1536,1674
116.89707,40.39202,1537,1674
116.89703,40.39197,1538,1674
116.89708,40.39203,1539,1674
116.8971,40.39195,1540,1674
116.89715,40.39201,1541,1674
116.89711,40.39198,1542,1674
116.89707,40.39202,1543,1674
116.89709,40.39197,1544,1674
116.89709,40.39198,1545,1674
116.89712,40.39197,1546,1674
116.89711,40.39199,1547,1674
116.89711,40.39199,1548,1674
116.8971,40.39199,1549,1674
116.89706,40.39197,1550,1674
116.89709,40.39198,1551,1674
116.89713,40.39194,1552,1674
116.89715,40.39195,1553,1674
116.89713,40.39193,1554,1674
116.89711,40.392,1555,1674
116.89708,40.39201,1556,1674
116.8971,40.39204,1557,1674
116.8971,40.392,1558,1674
116.89711,40.392,1559,1674
116.89711,40.392,1560,1674
116.89713,40.39194,1561,1674
116.8971,40.39203,1562,1674
116.89714,40.39201,1563,1674
116.89711,40.39199,1564,1674
116.89709,40.39202,1565,1674
116.89708,40.39204,1566,1674
116.89709,40.392,1567,1674
116.89712,40.392,1568,1674
116.89711,40.39196,1569,1674
116.89711,40.39196,1570,1674
116.89713,40.39203,1571,1674
116.8971,40.39195,1572,1674
116.89706,40.39195,1573,1674
116.8971,40.39195,1574,1674
116.89711,40.39194,1575,1674
116.89713,40.39195,1576,1674
116.89714,40.39195,1577,1674
116.89716,40.39193,1578,1674
116.89716,40.39195,1579,1674
116.89712,40.39197,1580,1674
116.89712,40.39199,1581,1674
116.8971,40.39198,1582,1674
116.89713,40.39196,1583,1674
116.8972,40.39194,1584,1674
116.89714,40.39199,1585,1674
116.89711,40.39198,1586,1674
116.89713,40.392,1587,1674
116.89713,40.39196,1588,1674
116.89713,40.39194,1589,1674
116.89713,40.39194,1590,1674
116.89709,40.39199,1591,1674
116.89713,40.39198,1592,1674
116.89708,40.39201,1593,1674
116.8971,40.39196,1594,1674
116.89711,40.39197,1595,1674
116.89712,40.39195,1596,1674
116.89711,40.39198,1597,1674
116.8971,40.39196,1598,1674
116.89708,40.39195,1599,1674
116.8971,40.39196,1600,1674
116.89711,40.39199,1601,1674
116.89709,40.39196,1602,1674
116.89714,40.392,1603,1674
116.89712,40.39201,1604,1674
116.8971,40.39204,1605,1674
116.89715,40.39203,1606,1674
116.89715,40.392,1607,1674
116.89713,40.392,1608,1674
116.89713,40.39198,1609,1674
116.8971,40.39205,1610,1674
116.89709,40.39202,1611,1674
116.89712,40.39204,1612,1674
116.89712,40.39205,1613,1674
116.89711,40.39206,1614,1674
116.89709,40.39204,1615,1674
116.8971,40.39202,1616,1674
116.89709,40.39199,1617,1674
116.89709,40.39203,1618,1674
116.89709,40.392,1619,1674
116.89709,40.392,1620,1674
116.89577,40.39373,1621,1674
116.86156,40.37322,1622,1674
116.85288,40.36569,1623,1674
116.8521,40.36666,1624,1674
116.85278,40.37323,1625,1674
116.85417,40.38069,1626,1674
116.85417,40.38067,1627,1674
116.85417,40.38071,1628,1674
116.85411,40.3807,1629,1674
116.85406,40.38067,1630,1674
116.85414,40.38066,1631,1674
116.85408,40.38067,1632,1674
116.85407,40.38063,1633,1674
116.85416,40.38058,1634,1674
116.8543,40.38063,1635,1674
116.85428,40.38059,1636,1674
116.85429,40.3806,1637,1674
116.85427,40.38059,1638,1674
116.85007,40.37502,1639,1674
116.82649,40.37657,1640,1674
116.76519,40.38661,1641,1674
116.74232,40.36518,1642,1674
116.73881,40.36335,1643,1674
116.73882,40.36323,1644,1674
116.73882,40.36328,1645,1674
116.73875,40.36326,1646,1674
116.73877,40.3633,1647,1674
116.73881,40.36326,1648,1674
116.73881,40.36326,1649,1674
116.73881,40.36332,1650,1674
116.73881,40.36331,1651,1674
116.73883,40.36339,1652,1674
116.7388,40.3633,1653,1674
116.7388,40.36332,1654,1674
116.73882,40.36337,1655,1674
116.73881,40.36332,1656,1674
116.73883,40.36337,1657,1674
116.73878,40.3634,1658,1674
116.73876,40.36336,1659,1674
116.7388,40.3634,1660,1674
116.73878,40.36337,1661,1674
116.73881,40.36331,1662,1674
116.73882,40.36334,1663,1674
116.73881,40.36337,1664,1674
116.73879,40.36332,1665,1674
116.73881,40.36338,1666,1674
116.73878,40.36342,1667,1674
116.73878,40.36342,1668,1674
116.73882,40.36333,1669,1674
116.73879,40.36339,1670,1674
116.7388,40.36338,1671,1674
116.73878,40.36346,1672,1674
116.73879,40.3634,1673,1674
116.73884,40.36335,1674,1674
116.7388,40.36337,1675,1674
116.73881,40.36335,1676,1674
116.73881,40.36335,1677,1674
116.7388,40.36331,1678,1674
116.7388,40.36336,1679,1674
116.7388,40.36336,1680,1674
116.73876,40.36339,1681,1674
116.73876,40.36339,1682,1674
116.7385,40.36429,1683,1674
116.74411,40.33863,1684,1674
116.78279,40.3503,1685,1674
116.82868,40.36737,1686,1674
116.82707,40.3529,1687,1674
116.81678,40.32581,1688,1674
116.82023,40.32625,1689,1674
116.82015,40.32621,1690,1674
116.82015,40.32619,1691,1674
116.82015,40.32619,1692,1674
116.82015,40.32619,1693,1674
116.82246,40.33062,1694,1674
116.84946,40.36212,1695,1674
116.85262,40.36621,1696,1674
116.85525,40.36834,1697,1674
