x,y,k,tid
116.37433,39.92134,0,1752
116.43627,39.94845,1,1752
116.43627,39.94845,2,1752
116.43541,39.94708,3,1752
116.43546,39.94715,4,1752
116.43547,39.9472,5,1752
116.43547,39.9472,6,1752
116.43811,39.95679,7,1752
116.42062,39.94117,8,1752
116.45102,39.98365,9,1752
116.454,39.98783,10,1752
116.45673,39.98863,11,1752
116.45666,40.01138,12,1752
116.45646,40.01269,13,1752
116.46057,40.01456,14,1752
116.43453,40.03111,15,1752
116.37932,39.99644,16,1752
116.37411,39.99212,17,1752
116.414,39.98709,18,1752
116.41143,39.98414,19,1752
116.4143,39.98218,20,1752
116.46153,39.95676,21,1752
116.46022,39.95825,22,1752
116.46232,39.96023,23,1752
116.46961,39.95794,24,1752
116.46525,39.95102,25,1752
116.45911,39.94262,26,1752
116.43132,39.98216,27,1752
116.41724,39.99347,28,1752
116.41809,39.98234,29,1752
116.41867,39.96841,30,1752
116.45589,39.92752,31,1752
116.45581,39.93123,32,1752
116.4353,39.86206,33,1752
116.41291,39.86464,34,1752
116.40851,39.86393,35,1752
116.37216,39.87738,36,1752
116.36804,39.87245,37,1752
116.29758,39.83987,38,1752
116.29177,39.84079,39,1752
116.2918,39.8408,40,1752
116.2918,39.8408,41,1752
116.2918,39.8408,42,1752
116.2918,39.8408,43,1752
116.2918,39.8408,44,1752
116.2918,39.8408,45,1752
116.2918,39.8408,46,1752
116.2918,39.8408,47,1752
116.2918,39.8408,48,1752
116.2918,39.8408,49,1752
116.2918,39.8408,50,1752
116.2918,39.8408,51,1752
116.2918,39.8408,52,1752
116.2918,39.8408,53,1752
116.29173,39.84072,54,1752
116.29154,39.84121,55,1752
116.32483,39.83035,56,1752
116.30579,39.83588,57,1752
116.30703,39.84246,58,1752
116.33252,39.84738,59,1752
116.54156,40.02525,60,1752
116.54156,40.02525,61,1752
116.58653,40.0786,62,1752
116.5821,40.06506,63,1752
116.56345,40.06123,64,1752
116.54066,40.05682,65,1752
116.47031,40.03957,66,1752
116.42792,40.03786,67,1752
116.42792,40.03786,68,1752
116.36353,39.97874,69,1752
116.36173,39.9805,70,1752
116.37321,39.97707,71,1752
116.36792,39.97543,72,1752
116.35735,39.98042,73,1752
116.35248,39.98049,74,1752
116.37412,39.99175,75,1752
116.42527,40.06279,76,1752
116.41401,40.06047,77,1752
116.40833,40.05663,78,1752
116.40833,40.05663,79,1752
116.39292,40.04588,80,1752
116.4002,40.04609,81,1752
116.40187,40.0461,82,1752
116.50571,40.0081,83,1752
116.5726,40.04061,84,1752
116.58041,40.07545,85,1752
116.57612,40.06288,86,1752
116.55032,40.06403,87,1752
116.52903,40.04392,88,1752
116.49537,40.0408,89,1752
116.49537,40.0408,90,1752
116.45123,40.03893,91,1752
116.43595,40.03465,92,1752
116.35864,40.00777,93,1752
116.38834,39.89861,94,1752
116.39327,39.86462,95,1752
116.39327,39.86462,96,1752
116.39578,39.86312,97,1752
116.38919,39.85744,98,1752
116.38795,39.85855,99,1752
116.38781,39.85856,100,1752
116.38781,39.85856,101,1752
116.3934,39.85716,102,1752
116.37635,39.8882,103,1752
116.37346,39.89174,104,1752
116.39164,39.94538,105,1752
116.39666,39.94213,106,1752
116.39523,39.93944,107,1752
116.39074,39.93939,108,1752
116.30128,39.97444,109,1752
116.26001,39.97666,110,1752
116.26001,39.97666,111,1752
116.25544,39.97338,112,1752
116.26993,39.96516,113,1752
116.28558,39.95877,114,1752
116.27774,39.94889,115,1752
116.2785,39.95352,116,1752
116.27855,39.95529,117,1752
116.28099,39.96042,118,1752
116.30206,39.95064,119,1752
116.45178,39.89598,120,1752
116.43885,39.88724,121,1752
116.43408,39.88654,122,1752
116.44734,39.93787,123,1752
116.44927,39.93454,124,1752
116.44543,39.93241,125,1752
116.4142,39.8559,126,1752
116.35251,39.8519,127,1752
116.31763,39.82946,128,1752
116.29295,39.84119,129,1752
116.29182,39.84084,130,1752
116.29149,39.84053,131,1752
116.29172,39.84058,132,1752
116.15982,39.75973,133,1752
116.16523,39.77011,134,1752
116.19859,39.76268,135,1752
116.24622,39.76848,136,1752
116.28784,39.77691,137,1752
116.30758,39.80341,138,1752
116.33546,39.82162,139,1752
116.34429,39.82946,140,1752
116.35298,39.84023,141,1752
116.46493,39.90381,142,1752
116.47039,39.89924,143,1752
116.46655,39.89236,144,1752
116.50049,40.00355,145,1752
116.52129,40.01798,146,1752
116.57165,40.03947,147,1752
116.58648,40.07888,148,1752
116.58117,40.07652,149,1752
116.58179,40.0669,150,1752
116.57568,40.06287,151,1752
116.57,40.06307,152,1752
116.54951,40.06426,153,1752
116.53209,40.0494,154,1752
116.50783,40.04087,155,1752
116.52639,40.03857,156,1752
116.50202,40.03276,157,1752
116.46216,40.03904,158,1752
116.44372,40.03963,159,1752
116.42802,40.04205,160,1752
116.431,40.02976,161,1752
116.41176,39.97404,162,1752
116.4252,39.97146,163,1752
116.4252,39.97146,164,1752
116.31857,39.97976,165,1752
116.36343,39.98196,166,1752
116.35329,39.98044,167,1752
116.35948,39.97858,168,1752
116.35653,39.97531,169,1752
116.34678,39.97045,170,1752
116.4063,39.91416,171,1752
116.42063,39.90529,172,1752
116.42888,39.89974,173,1752
116.42981,39.89625,174,1752
116.41877,39.89622,175,1752
116.26563,39.91942,176,1752
116.26563,39.91942,177,1752
116.21341,39.89971,178,1752
116.23169,39.90259,179,1752
116.25355,39.90266,180,1752
116.26592,39.90611,181,1752
116.26592,39.90611,182,1752
116.27032,39.90075,183,1752
116.26758,39.9,184,1752
116.30809,39.8852,185,1752
116.29576,39.88347,186,1752
116.29576,39.88347,187,1752
116.29572,39.88356,188,1752
116.29572,39.88356,189,1752
116.29572,39.88356,190,1752
116.29572,39.88356,191,1752
116.2931,39.88912,192,1752
116.29658,39.88495,193,1752
116.28864,39.87459,194,1752
116.30188,39.86602,195,1752
116.2975,39.85668,196,1752
116.30854,39.85524,197,1752
116.31531,39.848,198,1752
116.28397,39.83532,199,1752
116.28889,39.87698,200,1752
116.25917,39.85919,201,1752
116.27651,39.85807,202,1752
116.27985,39.83968,203,1752
116.27837,39.84629,204,1752
116.28238,39.84714,205,1752
116.29177,39.84076,206,1752
116.29177,39.84076,207,1752
116.29177,39.84076,208,1752
116.29177,39.84076,209,1752
116.29177,39.84076,210,1752
116.29177,39.84076,211,1752
116.29177,39.84076,212,1752
116.29136,39.84099,213,1752
116.29136,39.84099,214,1752
116.26881,39.90606,215,1752
116.27733,39.89958,216,1752
116.26518,39.88216,217,1752
116.27741,39.87365,218,1752
116.28226,39.84732,219,1752
116.28793,39.85142,220,1752
116.3044,39.85877,221,1752
116.28102,39.84813,222,1752
116.28781,39.85386,223,1752
116.30257,39.86405,224,1752
116.40776,39.86048,225,1752
116.41277,39.86083,226,1752
116.40297,39.86158,227,1752
116.40261,39.86259,228,1752
116.39589,39.86317,229,1752
116.3883,39.85748,230,1752
116.36779,39.9095,231,1752
116.33658,39.92202,232,1752
116.32847,39.92689,233,1752
116.31756,39.92683,234,1752
116.31361,39.9278,235,1752
116.31361,39.9278,236,1752
116.31355,39.89555,237,1752
116.31735,39.89602,238,1752
116.30416,39.89095,239,1752
116.2763,39.86654,240,1752
116.28902,39.84594,241,1752
116.29178,39.84095,242,1752
116.29681,39.83998,243,1752
116.3587,39.85729,244,1752
116.35833,39.86228,245,1752
116.35859,39.86529,246,1752
116.35047,39.88978,247,1752
116.35749,39.89206,248,1752
116.38748,39.88495,249,1752
116.38722,39.88459,250,1752
116.38722,39.88459,251,1752
116.39235,39.88481,252,1752
116.38118,39.88171,253,1752
116.37449,39.88174,254,1752
116.36941,39.88188,255,1752
116.36941,39.88188,256,1752
116.36787,39.87449,257,1752
116.38672,39.83905,258,1752
116.38105,39.84381,259,1752
116.37716,39.83887,260,1752
116.36503,39.84297,261,1752
116.37074,39.85316,262,1752
116.37787,39.86133,263,1752
116.36837,39.89601,264,1752
116.37652,39.89842,265,1752
116.37652,39.89842,266,1752
116.37498,39.89483,267,1752
116.37331,39.88809,268,1752
116.47355,39.97503,269,1752
116.4732,39.97072,270,1752
116.48363,39.98525,271,1752
116.49781,39.98614,272,1752
116.51281,40.00012,273,1752
116.5024,39.98703,274,1752
116.48359,39.975,275,1752
116.45029,39.951,276,1752
116.44619,39.94945,277,1752
116.43876,39.94262,278,1752
116.42511,39.93087,279,1752
116.42016,39.92303,280,1752
116.42081,39.90425,281,1752
116.43009,39.89896,282,1752
116.42576,39.89617,283,1752
116.41492,39.89582,284,1752
116.40631,39.89155,285,1752
116.39243,39.88296,286,1752
116.38397,39.87007,287,1752
116.34173,39.86151,288,1752
116.32238,39.82944,289,1752
116.30702,39.82841,290,1752
116.30398,39.82954,291,1752
116.28602,39.83779,292,1752
116.29185,39.84077,293,1752
116.29176,39.84078,294,1752
116.29176,39.84078,295,1752
116.29176,39.84078,296,1752
116.29176,39.84078,297,1752
116.29176,39.84078,298,1752
116.29176,39.84078,299,1752
116.29176,39.84078,300,1752
116.29176,39.84078,301,1752
116.29176,39.84078,302,1752
116.29176,39.84078,303,1752
116.29176,39.84078,304,1752
116.29176,39.84078,305,1752
116.29176,39.84078,306,1752
116.29176,39.84078,307,1752
116.29176,39.84078,308,1752
116.29176,39.84078,309,1752
116.29176,39.84078,310,1752
116.29176,39.84078,311,1752
116.29176,39.84078,312,1752
116.29176,39.84078,313,1752
116.29176,39.84078,314,1752
116.29176,39.84078,315,1752
116.29176,39.84078,316,1752
116.2913,39.84103,317,1752
116.29459,39.83994,318,1752
116.33427,39.84785,319,1752
116.34378,39.84413,320,1752
116.30813,39.85685,321,1752
116.3081,39.85526,322,1752
116.3081,39.85526,323,1752
116.30873,39.85056,324,1752
116.30395,39.90353,325,1752
116.29648,39.90609,326,1752
116.29162,39.89596,327,1752
116.29666,39.88817,328,1752
116.29666,39.88505,329,1752
116.29863,39.8811,330,1752
116.28815,39.86566,331,1752
116.31279,39.95199,332,1752
116.29248,39.91168,333,1752
116.31413,39.89499,334,1752
116.31413,39.89499,335,1752
116.31777,39.89208,336,1752
116.29927,39.88121,337,1752
116.27567,39.86682,338,1752
116.27738,39.8473,339,1752
116.29182,39.84103,340,1752
116.29182,39.84103,341,1752
116.29171,39.84101,342,1752
116.29171,39.84101,343,1752
116.29171,39.84101,344,1752
116.29171,39.84101,345,1752
116.29171,39.84101,346,1752
116.29171,39.84101,347,1752
116.29171,39.84101,348,1752
116.29171,39.84101,349,1752
116.29171,39.84101,350,1752
116.29171,39.84101,351,1752
116.29171,39.84101,352,1752
116.29171,39.84101,353,1752
116.28514,39.8354,354,1752
116.29654,39.86566,355,1752
116.29224,39.91108,356,1752
116.289,39.90535,357,1752
116.289,39.90535,358,1752
116.29101,39.8899,359,1752
116.29601,39.88523,360,1752
116.42108,39.95789,361,1752
116.46428,39.92883,362,1752
116.4652,39.92924,363,1752
116.46503,39.92926,364,1752
116.42347,39.95831,365,1752
116.41691,39.95585,366,1752
116.45603,39.89193,367,1752
116.4008,39.91653,368,1752
116.41189,39.89791,369,1752
116.41198,39.89875,370,1752
116.43896,39.84433,371,1752
116.42736,39.8469,372,1752
116.43387,39.83412,373,1752
116.42162,39.83855,374,1752
116.39142,39.80588,375,1752
116.39218,39.82536,376,1752
116.39218,39.82536,377,1752
116.29175,39.84088,378,1752
116.29175,39.84088,379,1752
116.29175,39.84088,380,1752
116.29175,39.84088,381,1752
116.29175,39.84088,382,1752
116.29175,39.84088,383,1752
116.30334,39.84504,384,1752
116.30458,39.85012,385,1752
116.34173,39.84888,386,1752
116.38018,39.85551,387,1752
116.38088,39.85951,388,1752
116.37991,39.86318,389,1752
116.38018,39.86347,390,1752
116.38017,39.86346,391,1752
116.38017,39.86346,392,1752
116.38017,39.86346,393,1752
116.38017,39.86346,394,1752
116.38017,39.86346,395,1752
116.38017,39.86346,396,1752
116.38017,39.86346,397,1752
116.38017,39.86346,398,1752
116.38017,39.86346,399,1752
116.38017,39.86346,400,1752
116.38026,39.86336,401,1752
116.36191,39.85466,402,1752
116.35306,39.84381,403,1752
116.34002,39.83402,404,1752
116.29744,39.84352,405,1752
116.29183,39.84073,406,1752
116.29174,39.84075,407,1752
116.29174,39.84075,408,1752
116.28619,39.8357,409,1752
116.28806,39.83312,410,1752
116.28813,39.83312,411,1752
116.28477,39.83921,412,1752
116.28545,39.84022,413,1752
116.29206,39.84045,414,1752
116.29147,39.84083,415,1752
116.29147,39.84083,416,1752
116.29147,39.84083,417,1752
116.29147,39.84083,418,1752
116.29147,39.84083,419,1752
116.29147,39.84083,420,1752
116.29147,39.84083,421,1752
116.29147,39.84083,422,1752
116.29147,39.84083,423,1752
116.29147,39.84083,424,1752
116.29147,39.84083,425,1752
116.29147,39.84083,426,1752
116.29147,39.84083,427,1752
116.29147,39.84083,428,1752
116.29147,39.84083,429,1752
116.29147,39.84083,430,1752
116.29147,39.84083,431,1752
116.29147,39.84083,432,1752
116.29147,39.84083,433,1752
116.29147,39.84083,434,1752
116.29147,39.84083,435,1752
116.29147,39.84083,436,1752
116.29147,39.84083,437,1752
116.29181,39.84071,438,1752
116.29181,39.84071,439,1752
116.29181,39.84071,440,1752
116.29181,39.84071,441,1752
116.29181,39.84071,442,1752
116.29192,39.84127,443,1752
116.30021,39.8417,444,1752
116.30021,39.8417,445,1752
116.30023,39.84162,446,1752
116.30107,39.84354,447,1752
116.30439,39.8436,448,1752
116.30447,39.84334,449,1752
116.31461,39.84584,450,1752
116.33413,39.84754,451,1752
116.3437,39.85486,452,1752
116.34366,39.8549,453,1752
116.34376,39.85484,454,1752
116.34376,39.85484,455,1752
116.34376,39.85484,456,1752
116.34376,39.85484,457,1752
116.34376,39.85484,458,1752
116.34376,39.85484,459,1752
116.34376,39.85484,460,1752
116.34376,39.85484,461,1752
116.34376,39.85484,462,1752
116.34376,39.85484,463,1752
116.34376,39.85484,464,1752
116.34376,39.85484,465,1752
116.34376,39.85484,466,1752
116.34376,39.85484,467,1752
116.34376,39.85484,468,1752
116.34376,39.85484,469,1752
116.34376,39.85484,470,1752
116.34376,39.85484,471,1752
116.34376,39.85484,472,1752
116.34376,39.85484,473,1752
116.34376,39.85484,474,1752
116.34376,39.85484,475,1752
116.33932,39.85555,476,1752
116.33766,39.83017,477,1752
116.30579,39.83601,478,1752
116.29667,39.84004,479,1752
116.29642,39.84281,480,1752
116.34523,39.84444,481,1752
116.35282,39.83999,482,1752
116.39427,39.86322,483,1752
116.44933,39.85505,484,1752
116.45416,39.86222,485,1752
116.46614,39.8698,486,1752
116.53515,39.89194,487,1752
