x,y,k,tid
116.35729,39.94484,0,180
116.34917,39.93898,1,180
116.34923,39.93823,2,180
116.34988,39.92218,3,180
116.34994,39.92176,4,180
116.3501,39.91442,5,180
116.35018,39.91331,6,180
116.34643,39.90618,7,180
116.34641,39.9062,8,180
116.36583,39.90578,9,180
116.36718,39.90572,10,180
116.36791,39.90089,11,180
116.36791,39.90089,12,180
116.36792,39.90088,13,180
116.36793,39.89969,14,180
116.3681,39.88884,15,180
116.37073,39.87681,16,180
116.37079,39.8762,17,180
116.36795,39.8819,18,180
116.36723,39.88191,19,180
116.3585,39.88505,20,180
116.3585,39.88505,21,180
116.35734,39.88774,22,180
116.35292,39.88819,23,180
116.33136,39.88666,24,180
116.34036,39.95643,25,180
116.329,39.96058,26,180
116.32882,39.95681,27,180
116.3101,39.9557,28,180
116.30395,39.93363,29,180
116.30286,39.89512,30,180
116.30658,39.89564,31,180
116.30658,39.89564,32,180
116.31443,39.89497,33,180
116.31076,39.89857,34,180
116.3107,39.89944,35,180
116.31083,39.90405,36,180
116.31069,39.90587,37,180
116.31069,39.90587,38,180
116.31079,39.90577,39,180
116.2969,39.90639,40,180
116.27738,39.90112,41,180
116.27745,39.9017,42,180
116.27747,39.91454,43,180
116.28054,39.92609,44,180
116.2806,39.92613,45,180
116.28054,39.92616,46,180
116.28056,39.92614,47,180
116.28227,39.92355,48,180
116.30399,39.9095,49,180
116.3041,39.90778,50,180
116.30404,39.89904,51,180
116.34175,39.89644,52,180
116.35036,39.89724,53,180
116.36274,39.89802,54,180
116.36547,39.89805,55,180
116.36819,39.88897,56,180
116.37618,39.88779,57,180
116.37736,39.88778,58,180
116.37864,39.88424,59,180
116.3787,39.88639,60,180
116.37807,39.89779,61,180
116.36779,39.90521,62,180
116.36796,39.90537,63,180
116.37111,39.91331,64,180
116.37585,39.92121,65,180
116.37658,39.92135,66,180
116.38478,39.92093,67,180
116.39006,39.93158,68,180
116.38995,39.93421,69,180
116.38995,39.93421,70,180
116.38976,39.93721,71,180
116.3878,39.94239,72,180
116.38675,39.94456,73,180
116.38766,39.94633,74,180
116.38063,39.94772,75,180
116.3739,39.94983,76,180
116.37337,39.95627,77,180
116.36023,39.95666,78,180
116.34794,39.95681,79,180
116.3421,39.95685,80,180
116.34857,39.95673,81,180
116.35443,39.96628,82,180
116.36775,39.96653,83,180
116.37353,39.98232,84,180
116.38492,39.98645,85,180
116.40067,39.98683,86,180
116.40881,39.98706,87,180
116.41031,39.98657,88,180
116.41364,39.98715,89,180
116.41537,39.98549,90,180
116.4132,39.98202,91,180
116.41104,39.98071,92,180
116.4115,39.97049,93,180
116.41155,39.96934,94,180
116.41164,39.96882,95,180
116.4121,39.96117,96,180
116.41209,39.95837,97,180
116.41209,39.95837,98,180
116.41245,39.953,99,180
116.40996,39.94833,100,180
116.4104,39.94435,101,180
116.41049,39.9419,102,180
116.41069,39.93678,103,180
116.41074,39.93516,104,180
116.4059,39.93207,105,180
116.39907,39.93211,106,180
116.39382,39.93204,107,180
116.39038,39.93214,108,180
116.37457,39.93165,109,180
116.36744,39.93132,110,180
116.36102,39.93108,111,180
116.35296,39.93195,112,180
116.35282,39.93634,113,180
116.35022,39.94187,114,180
116.35022,39.94187,115,180
116.34898,39.95569,116,180
116.34734,39.9665,117,180
116.33537,39.96638,118,180
116.32747,39.9663,119,180
116.32747,39.9663,120,180
116.31958,39.96613,121,180
116.31802,39.96604,122,180
116.3166,39.96565,123,180
116.32232,39.96578,124,180
116.328,39.9654,125,180
116.3287,39.95752,126,180
116.32234,39.95599,127,180
116.31708,39.95232,128,180
116.30754,39.94974,129,180
116.30881,39.95011,130,180
116.30882,39.95015,131,180
116.31853,39.94542,132,180
116.31867,39.94545,133,180
116.30381,39.94112,134,180
116.30256,39.94159,135,180
116.28255,39.94577,136,180
116.29517,39.94393,137,180
116.29578,39.94371,138,180
116.31317,39.93793,139,180
116.31513,39.93779,140,180
116.35895,39.94491,141,180
116.4214,39.94824,142,180
116.4233,39.94828,143,180
116.44154,39.9398,144,180
116.44337,39.9398,145,180
116.45537,39.92351,146,180
116.45544,39.92168,147,180
116.46512,39.90676,148,180
116.46597,39.90675,149,180
116.46402,39.90724,150,180
116.46359,39.90728,151,180
116.45568,39.92861,152,180
116.45572,39.93004,153,180
116.46523,39.94364,154,180
116.4652,39.9437,155,180
116.45789,39.93255,156,180
116.45764,39.93258,157,180
116.45591,39.9474,158,180
116.45593,39.94756,159,180
116.45103,39.95506,160,180
116.451,39.95503,161,180
116.45094,39.95513,162,180
116.45097,39.95525,163,180
116.41806,39.96808,164,180
116.4163,39.96802,165,180
116.38835,39.962,166,180
116.38767,39.94278,167,180
116.38773,39.94185,168,180
116.38773,39.94185,169,180
116.38996,39.93276,170,180
116.38996,39.93276,171,180
116.38986,39.93266,172,180
116.38495,39.91678,173,180
116.38498,39.91571,174,180
116.3849,39.89896,175,180
116.38309,39.89901,176,180
116.36809,39.90441,177,180
116.36814,39.90472,178,180
116.36767,39.91181,179,180
116.36766,39.91262,180,180
116.37564,39.91034,181,180
116.37563,39.91006,182,180
116.37609,39.90802,183,180
116.3761,39.90802,184,180
116.37647,39.90645,185,180
116.3765,39.90647,186,180
116.3946,39.90629,187,180
116.39545,39.90632,188,180
116.42169,39.907,189,180
116.42231,39.90701,190,180
116.45514,39.90101,191,180
116.451,39.89601,192,180
116.45557,39.89959,193,180
116.45558,39.90102,194,180
116.46366,39.90696,195,180
116.5123,39.91705,196,180
116.49622,39.92195,197,180
116.49559,39.93481,198,180
116.4841,39.93471,199,180
116.4748,39.96279,200,180
116.46829,39.96634,201,180
116.46829,39.96634,202,180
116.45396,39.95346,203,180
116.4554,39.92995,204,180
116.4553,39.91307,205,180
116.45486,39.90393,206,180
116.45516,39.89782,207,180
116.45425,39.86643,208,180
116.41131,39.85584,209,180
116.41083,39.85582,210,180
116.40821,39.8559,211,180
116.40719,39.85484,212,180
116.40725,39.85315,213,180
116.40755,39.85595,214,180
116.38172,39.85574,215,180
116.32093,39.84831,216,180
116.32093,39.84831,217,180
116.30676,39.86396,218,180
116.30433,39.89781,219,180
116.30439,39.91473,220,180
116.30396,39.90978,221,180
116.30392,39.90195,222,180
116.30516,39.87664,223,180
116.30773,39.86031,224,180
116.31534,39.84678,225,180
116.3096,39.84864,226,180
116.32027,39.84801,227,180
116.32759,39.84777,228,180
116.30706,39.86246,229,180
116.30479,39.88189,230,180
116.28904,39.88718,231,180
116.28711,39.88841,232,180
116.2738,39.88788,233,180
116.30392,39.88783,234,180
116.30594,39.86942,235,180
116.33269,39.84758,236,180
116.3562,39.85286,237,180
116.43293,39.8671,238,180
116.4293,39.8784,239,180
116.41469,39.8823,240,180
116.45583,39.96315,241,180
116.45645,39.97709,242,180
116.4581,39.97776,243,180
116.47046,39.97974,244,180
116.46633,39.97704,245,180
116.46633,39.97704,246,180
116.46636,39.97709,247,180
116.46645,39.97703,248,180
116.46644,39.97703,249,180
116.46629,39.97706,250,180
116.46647,39.977,251,180
116.46641,39.97701,252,180
116.46628,39.97705,253,180
116.4663,39.97695,254,180
116.46634,39.97704,255,180
116.46639,39.977,256,180
116.46639,39.977,257,180
116.46639,39.977,258,180
116.46639,39.977,259,180
116.46639,39.977,260,180
116.46639,39.977,261,180
116.46639,39.977,262,180
116.46639,39.977,263,180
116.46639,39.977,264,180
116.46639,39.977,265,180
116.46639,39.977,266,180
116.46639,39.977,267,180
116.46639,39.977,268,180
116.46639,39.977,269,180
116.46639,39.977,270,180
116.46639,39.977,271,180
116.46639,39.977,272,180
116.46639,39.977,273,180
116.46639,39.977,274,180
116.46632,39.97706,275,180
116.46638,39.97705,276,180
116.46634,39.97702,277,180
116.46633,39.97701,278,180
116.46634,39.97705,279,180
116.46632,39.97708,280,180
116.46634,39.97709,281,180
116.46634,39.97705,282,180
116.46637,39.97704,283,180
116.46642,39.97684,284,180
116.46639,39.97703,285,180
116.46639,39.97703,286,180
116.46665,39.97689,287,180
116.46655,39.97693,288,180
116.46664,39.97691,289,180
116.46656,39.97687,290,180
116.46643,39.97685,291,180
116.46658,39.97682,292,180
116.46656,39.9769,293,180
116.46656,39.9769,294,180
116.46656,39.9769,295,180
116.46656,39.9769,296,180
116.46656,39.9769,297,180
116.46656,39.9769,298,180
116.46673,39.97662,299,180
116.46673,39.97662,300,180
116.46673,39.97662,301,180
116.46673,39.97662,302,180
116.46673,39.97662,303,180
116.46673,39.97662,304,180
116.46673,39.97662,305,180
116.46673,39.97662,306,180
116.46673,39.97662,307,180
116.46673,39.97662,308,180
116.46673,39.97662,309,180
116.46673,39.97662,310,180
116.46673,39.97662,311,180
116.46673,39.97662,312,180
116.46673,39.97662,313,180
116.46673,39.97662,314,180
116.46673,39.97662,315,180
116.46673,39.97662,316,180
116.46674,39.97667,317,180
116.46668,39.97669,318,180
116.46675,39.97668,319,180
116.46184,39.97079,320,180
116.48152,39.95648,321,180
116.48152,39.95648,322,180
116.48369,39.92938,323,180
116.48368,39.90877,324,180
116.44971,39.83175,325,180
116.44244,39.82745,326,180
116.44487,39.82487,327,180
116.44487,39.82491,328,180
116.44406,39.82456,329,180
116.44413,39.82471,330,180
116.4442,39.82465,331,180
116.4442,39.82465,332,180
116.4442,39.82465,333,180
116.4442,39.82465,334,180
116.4412,39.83141,335,180
116.43931,39.85588,336,180
116.4393,39.85643,337,180
116.45514,39.8698,338,180
116.45517,39.87069,339,180
116.47131,39.88233,340,180
116.4713,39.88229,341,180
116.47161,39.9004,342,180
116.47162,39.90129,343,180
116.47157,39.9087,344,180
116.47159,39.90886,345,180
116.47242,39.92685,346,180
116.47624,39.92693,347,180
116.47734,39.92689,348,180
116.5111,39.92186,349,180
116.51109,39.92189,350,180
116.51109,39.92189,351,180
116.54435,39.92253,352,180
116.54435,39.92253,353,180
116.54657,39.92262,354,180
116.57204,39.91631,355,180
116.57179,39.91543,356,180
116.55845,39.91498,357,180
116.5574,39.91506,358,180
116.5479,39.92205,359,180
116.54748,39.92278,360,180
116.50338,39.92201,361,180
116.50131,39.92199,362,180
116.49619,39.93025,363,180
116.49613,39.93052,364,180
116.48397,39.94663,365,180
116.48396,39.94823,366,180
116.44408,39.98273,367,180
116.44227,39.98393,368,180
116.41809,39.98199,369,180
116.41778,39.98188,370,180
116.4153,39.987,371,180
116.41525,39.98696,372,180
116.42448,39.98767,373,180
116.42542,39.98772,374,180
116.45917,39.97204,375,180
116.4592,39.97206,376,180
116.44902,39.95871,377,180
116.44874,39.9586,378,180
116.44182,39.96037,379,180
116.44311,39.95952,380,180
116.45557,39.94367,381,180
116.45557,39.94318,382,180
116.45539,39.92628,383,180
116.45539,39.9261,384,180
116.45497,39.9128,385,180
116.45475,39.91289,386,180
116.46819,39.91206,387,180
116.46881,39.91208,388,180
116.48307,39.91413,389,180
116.48306,39.91419,390,180
116.5,39.91478,391,180
116.49913,39.91469,392,180
116.473,39.91395,393,180
116.47295,39.91389,394,180
116.46469,39.90708,395,180
116.46387,39.90713,396,180
116.46492,39.9068,397,180
116.4656,39.9068,398,180
116.48356,39.90017,399,180
116.48356,39.89988,400,180
116.47691,39.8992,401,180
116.47689,39.89927,402,180
116.47689,39.89927,403,180
116.47296,39.89917,404,180
116.47296,39.89917,405,180
116.47298,39.89918,406,180
116.45842,39.89944,407,180
116.4562,39.90465,408,180
116.45631,39.90523,409,180
116.46983,39.90705,410,180
116.45409,39.9033,411,180
116.45273,39.90536,412,180
116.45393,39.90669,413,180
116.45599,39.91181,414,180
116.46234,39.91534,415,180
116.46355,39.91735,416,180
116.46355,39.91735,417,180
116.47159,39.90768,418,180
116.45661,39.9033,419,180
116.4593,39.89936,420,180
116.4711,39.89918,421,180
116.48339,39.88801,422,180
116.48333,39.88657,423,180
116.48324,39.87706,424,180
116.48313,39.87463,425,180
116.48021,39.85661,426,180
116.4794,39.84681,427,180
116.47857,39.84715,428,180
116.47857,39.84715,429,180
116.47515,39.85059,430,180
116.46839,39.85719,431,180
116.46527,39.85809,432,180
116.45497,39.87245,433,180
116.45527,39.88522,434,180
116.45576,39.91058,435,180
116.45576,39.91389,436,180
116.45068,39.91929,437,180
116.44579,39.92191,438,180
116.44739,39.92562,439,180
116.44876,39.92421,440,180
116.45516,39.921,441,180
116.45544,39.91237,442,180
116.45504,39.9081,443,180
116.45482,39.90526,444,180
116.45397,39.90665,445,180
116.46662,39.91206,446,180
116.47165,39.91051,447,180
116.46296,39.90721,448,180
116.45927,39.90725,449,180
116.45558,39.91821,450,180
116.45564,39.92854,451,180
116.45589,39.94181,452,180
116.45607,39.94494,453,180
116.45596,39.94821,454,180
116.45559,39.95126,455,180
116.44944,39.95623,456,180
116.44776,39.95698,457,180
116.44116,39.96165,458,180
116.44015,39.96256,459,180
116.42722,39.96847,460,180
116.41694,39.96825,461,180
116.41034,39.95798,462,180
116.41839,39.95798,463,180
116.41839,39.95798,464,180
116.42649,39.95815,465,180
116.42787,39.95826,466,180
116.44236,39.95402,467,180
116.44284,39.95381,468,180
116.44461,39.95988,469,180
116.44571,39.96105,470,180
116.44262,39.9604,471,180
116.43401,39.96592,472,180
116.4302,39.96804,473,180
116.44329,39.99624,474,180
116.44858,40.01048,475,180
116.50053,40.00353,476,180
116.5539,40.02916,477,180
116.57285,40.04084,478,180
116.58379,40.05881,479,180
116.58238,40.07478,480,180
116.58637,40.07929,481,180
116.58212,40.07421,482,180
116.57676,40.04502,483,180
116.56083,40.03244,484,180
116.50571,40.00836,485,180
116.49154,39.99556,486,180
116.44751,39.95593,487,180
116.45298,39.95303,488,180
116.45534,39.94821,489,180
116.45528,39.94099,490,180
116.45236,39.9325,491,180
116.45209,39.93247,492,180
116.45199,39.93253,493,180
116.45177,39.93252,494,180
116.43595,39.93239,495,180
116.42807,39.93434,496,180
116.40299,39.94772,497,180
116.38509,39.94761,498,180
116.35033,39.94338,499,180
116.34893,39.95688,500,180
116.32554,39.96628,501,180
116.30868,39.96352,502,180
116.29934,39.9598,503,180
116.29551,39.95847,504,180
116.28246,39.95635,505,180
116.2765,39.9559,506,180
116.25646,39.97223,507,180
116.251,39.97875,508,180
116.22936,39.97999,509,180
116.21757,39.98905,510,180
116.19715,39.99173,511,180
116.19012,39.99113,512,180
116.19012,39.99113,513,180
116.19841,39.99221,514,180
116.20495,39.9874,515,180
116.21611,39.97183,516,180
116.22697,39.97185,517,180
116.28838,39.94835,518,180
116.29627,39.9437,519,180
116.30374,39.93487,520,180
116.30444,39.93101,521,180
116.31404,39.93116,522,180
116.32814,39.92457,523,180
116.33732,39.92199,524,180
116.35848,39.92244,525,180
116.35383,39.91719,526,180
116.35039,39.91282,527,180
116.34993,39.90741,528,180
116.35045,39.89866,529,180
116.34247,39.89202,530,180
116.34133,39.86767,531,180
116.32994,39.86689,532,180
116.30889,39.86638,533,180
116.29128,39.86529,534,180
116.2878,39.85843,535,180
116.28784,39.85531,536,180
116.28794,39.85534,537,180
116.29726,39.86533,538,180
116.30861,39.86517,539,180
116.30536,39.87812,540,180
116.30981,39.88573,541,180
116.33755,39.88827,542,180
116.35218,39.888,543,180
116.36839,39.88949,544,180
116.36924,39.89661,545,180
116.37849,39.88909,546,180
116.37895,39.88807,547,180
116.40158,39.89123,548,180
116.40653,39.88698,549,180
116.41438,39.88312,550,180
116.41503,39.86899,551,180
116.43114,39.86925,552,180
116.43287,39.87514,553,180
116.41471,39.88191,554,180
116.4128,39.89132,555,180
116.41216,39.89431,556,180
116.41226,39.89568,557,180
116.41226,39.89568,558,180
116.43219,39.89231,559,180
116.44944,39.8921,560,180
116.45886,39.88989,561,180
116.45671,39.88746,562,180
116.45539,39.90308,563,180
116.43761,39.90327,564,180
116.43482,39.90638,565,180
116.41286,39.90704,566,180
116.41156,39.90838,567,180
116.41146,39.90831,568,180
116.41143,39.90823,569,180
116.40083,39.9065,570,180
116.38938,39.90623,571,180
116.3685,39.90582,572,180
116.35528,39.90596,573,180
116.34516,39.89692,574,180
116.32162,39.89581,575,180
116.27572,39.8958,576,180
116.27572,39.8958,577,180
116.24906,39.89598,578,180
116.24801,39.90612,579,180
116.25076,39.90605,580,180
116.27139,39.90613,581,180
116.27706,39.90618,582,180
116.31063,39.90061,583,180
116.306,39.89604,584,180
116.35047,39.90403,585,180
116.4276,39.94786,586,180
116.46982,39.9768,587,180
116.47184,39.97866,588,180
116.4982,40.00042,589,180
116.49276,39.9955,590,180
116.47039,39.97759,591,180
116.46891,39.97629,592,180
116.46631,39.97705,593,180
116.46636,39.97708,594,180
116.46622,39.97706,595,180
116.46626,39.97701,596,180
116.46623,39.97706,597,180
116.46628,39.97706,598,180
116.46638,39.97707,599,180
116.46628,39.97706,600,180
116.46628,39.97706,601,180
116.46638,39.97714,602,180
116.4664,39.97711,603,180
116.46632,39.97713,604,180
116.46633,39.97703,605,180
116.46627,39.97709,606,180
116.46635,39.97711,607,180
116.46633,39.9771,608,180
116.46642,39.97704,609,180
116.4663,39.97698,610,180
116.46634,39.97386,611,180
116.45833,39.9666,612,180
116.43729,39.96395,613,180
116.43729,39.96395,614,180
116.42945,39.96837,615,180
116.43897,39.96227,616,180
116.44123,39.96071,617,180
116.45255,39.93239,618,180
116.44862,39.9324,619,180
116.42791,39.92652,620,180
116.42837,39.91467,621,180
116.41155,39.91104,622,180
116.41159,39.90809,623,180
116.41401,39.90013,624,180
116.42135,39.90357,625,180
116.42982,39.89928,626,180
116.43308,39.89473,627,180
116.43416,39.88686,628,180
116.43416,39.88343,629,180
116.44985,39.87553,630,180
116.45312,39.87483,631,180
116.45531,39.88057,632,180
116.45543,39.8827,633,180
116.45555,39.89179,634,180
116.45553,39.89178,635,180
116.45585,39.90282,636,180
116.45618,39.90522,637,180
116.46564,39.90728,638,180
116.45882,39.90735,639,180
116.45583,39.91423,640,180
116.45561,39.92267,641,180
116.46105,39.94969,642,180
116.46193,39.95517,643,180
116.45501,39.95428,644,180
116.45548,39.94917,645,180
116.45533,39.92257,646,180
116.4553,39.91699,647,180
116.4545,39.9081,648,180
116.4545,39.90787,649,180
116.45538,39.90692,650,180
116.4599,39.90681,651,180
116.47152,39.90088,652,180
116.46006,39.88321,653,180
116.45873,39.8832,654,180
116.45873,39.8832,655,180
116.45543,39.89955,656,180
116.45543,39.89955,657,180
116.45549,39.90033,658,180
116.45248,39.93243,659,180
116.45214,39.93252,660,180
116.42922,39.93238,661,180
116.42908,39.93236,662,180
116.41986,39.93241,663,180
116.41991,39.93244,664,180
116.39696,39.93209,665,180
116.39697,39.93209,666,180
116.37091,39.93145,667,180
116.37042,39.93142,668,180
116.34781,39.93112,669,180
116.3468,39.93115,670,180
116.33814,39.93396,671,180
116.33809,39.93447,672,180
116.37184,39.94812,673,180
116.37237,39.94891,674,180
116.4238,39.98747,675,180
116.43047,39.98756,676,180
116.44006,39.9908,677,180
116.44163,39.99308,678,180
116.45088,39.9898,679,180
116.45093,39.98766,680,180
116.45375,39.98435,681,180
116.45192,39.98334,682,180
116.46121,39.97843,683,180
116.45879,39.97599,684,180
116.44195,39.99356,685,180
116.44596,39.99509,686,180
116.46096,39.98602,687,180
116.46347,39.98438,688,180
116.45956,39.97689,689,180
116.45965,39.97668,690,180
116.45957,39.97687,691,180
116.4674,39.97649,692,180
116.46667,39.97683,693,180
116.4665,39.97704,694,180
116.46646,39.97698,695,180
116.46646,39.97698,696,180
116.46646,39.97698,697,180
116.4664,39.97701,698,180
116.46589,39.98183,699,180
116.47124,39.97922,700,180
116.48191,39.97231,701,180
116.48317,39.9714,702,180
116.4905,39.97061,703,180
116.49051,39.9706,704,180
116.49055,39.9706,705,180
116.48262,39.97011,706,180
116.47656,39.96969,707,180
116.47414,39.96512,708,180
116.46043,39.95922,709,180
116.45733,39.95671,710,180
116.44725,39.95748,711,180
116.4412,39.95499,712,180
116.43341,39.95543,713,180
116.4335,39.95803,714,180
116.4335,39.95803,715,180
116.4329,39.96674,716,180
116.43314,39.96676,717,180
116.43174,39.96744,718,180
116.42203,39.96844,719,180
116.41128,39.96824,720,180
116.41128,39.96824,721,180
116.41169,39.96814,722,180
116.37877,39.96705,723,180
116.37266,39.96728,724,180
116.38168,39.96226,725,180
116.37885,39.96154,726,180
116.37431,39.96661,727,180
116.37077,39.96698,728,180
116.36411,39.96178,729,180
116.36411,39.96178,730,180
116.36449,39.95788,731,180
116.34873,39.95385,732,180
116.34898,39.94968,733,180
116.34939,39.93128,734,180
116.34957,39.92775,735,180
116.35022,39.91596,736,180
116.35035,39.91334,737,180
116.35044,39.89926,738,180
116.34238,39.89475,739,180
116.34166,39.86583,740,180
116.34155,39.85968,741,180
116.34788,39.86661,742,180
116.34841,39.86651,743,180
116.33834,39.86685,744,180
116.30597,39.87245,745,180
116.30593,39.87294,746,180
116.3016,39.87932,747,180
116.30152,39.87937,748,180
116.33643,39.8477,749,180
116.38635,39.85566,750,180
116.39139,39.85564,751,180
116.4435,39.85821,752,180
116.4487,39.86163,753,180
116.45574,39.90412,754,180
116.47179,39.90419,755,180
116.47185,39.90602,756,180
116.47216,39.90813,757,180
116.4722,39.90882,758,180
116.47218,39.92417,759,180
116.47218,39.92417,760,180
116.47654,39.92685,761,180
116.47864,39.92452,762,180
116.47865,39.92454,763,180
116.47865,39.92454,764,180
116.47224,39.92746,765,180
116.47224,39.92746,766,180
116.4723,39.92747,767,180
116.46844,39.93545,768,180
116.46873,39.9362,769,180
116.45925,39.94395,770,180
116.45891,39.94391,771,180
116.4561,39.9463,772,180
116.4561,39.9463,773,180
116.45617,39.94641,774,180
116.45619,39.94629,775,180
116.44965,39.95576,776,180
116.44927,39.95599,777,180
116.4089,39.96776,778,180
116.40741,39.96772,779,180
116.37781,39.9669,780,180
116.37711,39.9669,781,180
116.35637,39.96657,782,180
116.35566,39.96665,783,180
116.34128,39.97483,784,180
116.34029,39.97494,785,180
116.31985,39.97517,786,180
116.31963,39.97521,787,180
116.30675,39.9745,788,180
116.31385,39.96843,789,180
116.31416,39.96747,790,180
116.3038,39.94212,791,180
116.30387,39.94063,792,180
116.30395,39.92153,793,180
116.30394,39.92152,794,180
116.30398,39.91035,795,180
116.30398,39.91035,796,180
116.30398,39.91008,797,180
116.30398,39.91008,798,180
116.30483,39.89563,799,180
116.30514,39.89564,800,180
116.31369,39.89528,801,180
116.3137,39.89524,802,180
116.31475,39.89504,803,180
116.31477,39.89504,804,180
116.31359,39.89601,805,180
116.31328,39.89602,806,180
116.31075,39.90553,807,180
116.31077,39.9055,808,180
116.30458,39.90792,809,180
116.30462,39.9079,810,180
116.30451,39.93036,811,180
116.3045,39.93039,812,180
116.29864,39.93695,813,180
116.29888,39.93753,814,180
116.30359,39.95084,815,180
116.34434,39.96624,816,180
116.34573,39.96628,817,180
116.37207,39.96658,818,180
116.37344,39.96679,819,180
116.36907,39.99565,820,180
116.36906,39.99571,821,180
116.37023,39.98693,822,180
116.37016,39.98607,823,180
116.40252,39.98692,824,180
116.40348,39.98692,825,180
116.41292,39.98721,826,180
116.39732,39.98895,827,180
116.38124,39.98667,828,180
116.32671,39.98472,829,180
116.32009,39.9845,830,180
116.26899,39.96786,831,180
116.26873,39.96297,832,180
116.26873,39.96297,833,180
116.26902,39.92114,834,180
116.26884,39.91747,835,180
116.27048,39.90611,836,180
116.27048,39.90611,837,180
116.27049,39.90619,838,180
116.28819,39.90624,839,180
116.28808,39.90618,840,180
116.30448,39.90469,841,180
116.30544,39.90512,842,180
116.30493,39.90771,843,180
116.30464,39.90787,844,180
116.30425,39.91874,845,180
116.30426,39.92102,846,180
116.30366,39.95036,847,180
116.30346,39.95295,848,180
116.29957,39.97436,849,180
116.2999,39.97438,850,180
116.29964,39.98081,851,180
116.29989,39.97803,852,180
116.29989,39.97803,853,180
116.31907,39.97348,854,180
116.31909,39.97267,855,180
116.31385,39.96848,856,180
116.31394,39.96847,857,180
116.31385,39.96832,858,180
116.31382,39.96832,859,180
116.31381,39.96838,860,180
116.31383,39.96834,861,180
116.29566,39.97311,862,180
116.2976,39.97412,863,180
116.30573,39.97899,864,180
116.30605,39.9828,865,180
116.30489,39.98359,866,180
116.34077,39.98517,867,180
116.34604,39.98525,868,180
116.34631,40.00745,869,180
116.34618,40.01014,870,180
116.33962,40.01156,871,180
116.33845,40.00635,872,180
116.3357,40.00632,873,180
116.32645,39.99179,874,180
116.32706,39.98418,875,180
116.3272,39.98091,876,180
116.32785,39.96666,877,180
116.32665,39.96639,878,180
116.30391,39.94145,879,180
116.3039,39.93667,880,180
116.30412,39.89971,881,180
116.30413,39.89658,882,180
116.29662,39.8895,883,180
116.30466,39.88604,884,180
116.30472,39.88605,885,180
116.30486,39.88593,886,180
116.3046,39.88605,887,180
116.30417,39.89918,888,180
116.3375,39.90589,889,180
116.34084,39.90587,890,180
116.35705,39.89923,891,180
116.35708,39.89918,892,180
116.37841,39.89252,893,180
116.37842,39.8912,894,180
116.38833,39.88891,895,180
116.38866,39.88904,896,180
116.37432,39.89875,897,180
116.37143,39.89874,898,180
116.36805,39.90535,899,180
116.36791,39.90531,900,180
116.37115,39.91327,901,180
116.37112,39.91324,902,180
116.38406,39.92088,903,180
116.38634,39.92176,904,180
116.38982,39.93714,905,180
116.39942,39.93942,906,180
116.3986,39.93949,907,180
116.38973,39.93763,908,180
116.3897,39.93709,909,180
116.37371,39.93167,910,180
116.37034,39.93149,911,180
116.35834,39.92126,912,180
116.35835,39.91818,913,180
116.35021,39.91128,914,180
116.34955,39.91255,915,180
116.35001,39.90727,916,180
116.35017,39.90568,917,180
116.34184,39.88886,918,180
116.33854,39.88847,919,180
116.33631,39.88252,920,180
116.33549,39.88091,921,180
116.32187,39.87582,922,180
116.32072,39.87641,923,180
116.31507,39.8836,924,180
116.31504,39.8847,925,180
116.35211,39.88798,926,180
116.35283,39.88799,927,180
116.36779,39.88781,928,180
116.37076,39.88786,929,180
116.39921,39.89116,930,180
116.39921,39.89116,931,180
116.40543,39.89136,932,180
116.4213,39.89202,933,180
116.42202,39.89207,934,180
116.45505,39.89048,935,180
116.45493,39.88762,936,180
116.45536,39.88022,937,180
116.45533,39.88209,938,180
116.45566,39.88852,939,180
116.45559,39.88848,940,180
116.45553,39.88856,941,180
116.45553,39.88848,942,180
116.45561,39.88853,943,180
116.45555,39.88856,944,180
116.45397,39.8923,945,180
116.45064,39.89216,946,180
116.46621,39.89193,947,180
116.4669,39.89187,948,180
116.47191,39.90737,949,180
116.47191,39.90759,950,180
116.46143,39.90691,951,180
116.4679,39.90688,952,180
116.52362,39.90759,953,180
116.51064,39.91535,954,180
116.50559,39.91496,955,180
116.47105,39.91439,956,180
116.45533,39.95117,957,180
116.4411,39.95667,958,180
116.44012,39.95572,959,180
116.42849,39.93978,960,180
116.42437,39.93982,961,180
116.42825,39.93899,962,180
116.44264,39.95383,963,180
116.4401,39.95562,964,180
116.44236,39.95795,965,180
116.44238,39.95785,966,180
116.44231,39.95803,967,180
116.44228,39.95815,968,180
116.44228,39.95815,969,180
116.43829,39.95415,970,180
116.42088,39.93511,971,180
116.42089,39.93513,972,180
116.42094,39.9351,973,180
116.42086,39.93516,974,180
116.42088,39.93513,975,180
116.42088,39.93513,976,180
116.41978,39.93517,977,180
116.41963,39.9359,978,180
116.4102,39.94811,979,180
116.4102,39.94811,980,180
116.4101,39.9494,981,180
116.40167,39.95765,982,180
116.40168,39.95756,983,180
116.38771,39.9502,984,180
116.38773,39.95024,985,180
116.37337,39.9576,986,180
116.37352,39.95951,987,180
116.38923,39.96707,988,180
116.3914,39.96706,989,180
116.40139,39.98842,990,180
116.40141,39.99076,991,180
116.40219,40.01873,992,180
116.4025,40.0208,993,180
116.40563,40.04873,994,180
116.4062,40.05056,995,180
116.40935,40.07461,996,180
116.40733,40.07524,997,180
116.40766,40.07695,998,180
116.40724,40.05891,999,180
116.40741,40.05691,1000,180
116.40468,40.03579,1001,180
116.40417,40.03277,1002,180
116.40151,40.00168,1003,180
116.40148,39.99966,1004,180
116.40123,39.97063,1005,180
116.40104,39.96887,1006,180
116.45465,39.95194,1007,180
116.45525,39.89615,1008,180
116.42422,39.85724,1009,180
116.42102,39.85699,1010,180
116.40545,39.85243,1011,180
116.41575,39.85587,1012,180
116.41593,39.85592,1013,180
116.43152,39.86909,1014,180
116.43273,39.8689,1015,180
116.41466,39.88179,1016,180
116.41462,39.88247,1017,180
116.41183,39.90722,1018,180
116.41169,39.90866,1019,180
116.41966,39.92295,1020,180
116.42024,39.91646,1021,180
116.42032,39.91489,1022,180
116.42032,39.91489,1023,180
116.38945,39.90541,1024,180
116.38949,39.90401,1025,180
116.38543,39.9102,1026,180
116.38529,39.91187,1027,180
116.37104,39.92245,1028,180
116.37077,39.92282,1029,180
116.34726,39.92664,1030,180
116.34656,39.92687,1031,180
116.34264,39.93812,1032,180
116.34374,39.93831,1033,180
116.34106,39.9532,1034,180
116.34062,39.95493,1035,180
116.35668,39.96626,1036,180
116.35912,39.9663,1037,180
116.41555,39.96778,1038,180
116.4187,39.96787,1039,180
116.44197,39.96038,1040,180
116.45527,39.91885,1041,180
116.45538,39.91662,1042,180
116.47507,39.90675,1043,180
116.4741,39.90259,1044,180
116.47177,39.90332,1045,180
116.47183,39.90746,1046,180
116.47167,39.90735,1047,180
116.47175,39.90748,1048,180
116.47177,39.90944,1049,180
116.47199,39.91962,1050,180
116.47224,39.92553,1051,180
116.46962,39.92967,1052,180
116.46421,39.92895,1053,180
116.46131,39.92819,1054,180
116.4557,39.93985,1055,180
116.45585,39.94751,1056,180
116.45452,39.95263,1057,180
116.45964,39.95827,1058,180
116.46589,39.96915,1059,180
116.45951,39.97661,1060,180
116.46154,39.97791,1061,180
116.46541,39.98156,1062,180
116.47628,39.98812,1063,180
116.47679,39.98885,1064,180
116.47679,39.98893,1065,180
116.47679,39.98893,1066,180
116.47679,39.98893,1067,180
116.47679,39.98893,1068,180
116.47679,39.98893,1069,180
116.47679,39.98893,1070,180
116.47531,39.98195,1071,180
116.47177,39.97879,1072,180
116.46639,39.97696,1073,180
116.46639,39.97696,1074,180
116.46639,39.97696,1075,180
116.46643,39.97695,1076,180
116.46638,39.97686,1077,180
116.46638,39.97686,1078,180
116.46633,39.97696,1079,180
116.46641,39.97689,1080,180
116.46634,39.97692,1081,180
116.46641,39.97686,1082,180
116.4664,39.97683,1083,180
116.46636,39.97683,1084,180
116.46637,39.97689,1085,180
116.46628,39.97684,1086,180
116.46637,39.97686,1087,180
116.46631,39.97689,1088,180
116.46638,39.97696,1089,180
116.46658,39.97685,1090,180
116.46657,39.97682,1091,180
116.45973,39.96781,1092,180
116.44757,39.95769,1093,180
116.43478,39.95377,1094,180
116.43356,39.95959,1095,180
116.42963,39.96748,1096,180
116.43806,39.96288,1097,180
116.45552,39.94274,1098,180
116.45538,39.92182,1099,180
116.45581,39.9069,1100,180
116.47308,39.9067,1101,180
116.49019,39.90642,1102,180
116.48459,39.90906,1103,180
116.47159,39.90933,1104,180
116.47181,39.9082,1105,180
116.47181,39.9082,1106,180
116.45767,39.90733,1107,180
116.45196,39.90732,1108,180
116.43778,39.90713,1109,180
116.41566,39.90699,1110,180
116.40692,39.90681,1111,180
116.39804,39.90654,1112,180
116.38668,39.90619,1113,180
116.37876,39.90595,1114,180
116.36714,39.90584,1115,180
116.35306,39.90599,1116,180
116.35293,39.90764,1117,180
116.35459,39.91317,1118,180
116.35387,39.91231,1119,180
116.35387,39.91231,1120,180
116.35616,39.91237,1121,180
116.35966,39.91262,1122,180
116.36754,39.90811,1123,180
116.36607,39.91088,1124,180
116.36814,39.9131,1125,180
116.37154,39.91329,1126,180
116.37137,39.91599,1127,180
116.36816,39.92113,1128,180
116.36718,39.92431,1129,180
116.36718,39.92431,1130,180
116.36679,39.93061,1131,180
116.36238,39.93848,1132,180
116.35766,39.94081,1133,180
116.35767,39.94382,1134,180
116.35735,39.94389,1135,180
116.35724,39.94382,1136,180
116.35757,39.94123,1137,180
116.34903,39.93826,1138,180
116.34639,39.93818,1139,180
116.33835,39.94479,1140,180
116.33,39.95076,1141,180
116.31911,39.95069,1142,180
116.32994,39.95046,1143,180
116.34406,39.94277,1144,180
116.34009,39.93596,1145,180
116.33497,39.9373,1146,180
116.31902,39.94326,1147,180
116.31746,39.95485,1148,180
116.3161,39.96553,1149,180
116.31936,39.96559,1150,180
116.33001,39.96614,1151,180
116.32789,39.97442,1152,180
116.33915,39.97508,1153,180
116.33849,39.97708,1154,180
116.3467,39.97209,1155,180
116.3525,39.96617,1156,180
116.3525,39.96617,1157,180
116.36359,39.96626,1158,180
116.37046,39.96644,1159,180
116.39579,39.96688,1160,180
116.39077,39.96642,1161,180
116.39064,39.9664,1162,180
116.39092,39.96591,1163,180
116.40505,39.96734,1164,180
116.4126,39.96747,1165,180
116.42704,39.96792,1166,180
116.43017,39.96201,1167,180
116.42612,39.95799,1168,180
116.4262,39.94876,1169,180
116.42732,39.9412,1170,180
116.428,39.92427,1171,180
116.4283,39.91656,1172,180
116.41991,39.91399,1173,180
116.40973,39.91372,1174,180
116.40621,39.90902,1175,180
116.40418,39.90674,1176,180
116.39645,39.90649,1177,180
116.38535,39.90616,1178,180
116.37858,39.90598,1179,180
116.37017,39.90619,1180,180
116.37015,39.90753,1181,180
116.37028,39.90854,1182,180
116.37024,39.91012,1183,180
116.37159,39.91148,1184,180
116.37149,39.91229,1185,180
116.37437,39.91305,1186,180
116.37521,39.91297,1187,180
116.38249,39.92095,1188,180
116.38382,39.92084,1189,180
116.39605,39.92209,1190,180
116.40343,39.92292,1191,180
116.41133,39.91772,1192,180
116.41204,39.91466,1193,180
116.41938,39.91443,1194,180
116.42035,39.91758,1195,180
116.42746,39.92327,1196,180
116.43341,39.92283,1197,180
116.43624,39.92241,1198,180
116.44265,39.92145,1199,180
116.44395,39.91474,1200,180
116.44489,39.91194,1201,180
116.45602,39.91211,1202,180
116.46572,39.91268,1203,180
116.47164,39.90834,1204,180
116.47167,39.90715,1205,180
116.47187,39.90361,1206,180
116.47155,39.90275,1207,180
116.47155,39.90275,1208,180
116.45833,39.89938,1209,180
116.45825,39.8995,1210,180
116.45506,39.9031,1211,180
116.45524,39.90319,1212,180
116.4577,39.90676,1213,180
116.45943,39.90679,1214,180
116.475,39.91407,1215,180
116.47535,39.91405,1216,180
116.47303,39.91436,1217,180
116.47303,39.91435,1218,180
116.4643,39.90724,1219,180
116.46414,39.90724,1220,180
116.44556,39.90725,1221,180
116.4454,39.90751,1222,180
116.4454,39.90751,1223,180
116.44402,39.90782,1224,180
116.44402,39.90782,1225,180
116.44418,39.90704,1226,180
116.47152,39.9026,1227,180
116.47149,39.90238,1228,180
116.47759,39.89926,1229,180
116.47928,39.8993,1230,180
116.5024,39.89955,1231,180
116.50377,39.89954,1232,180
116.49738,39.89953,1233,180
116.49604,39.89955,1234,180
116.48322,39.89236,1235,180
116.48323,39.89234,1236,180
116.47436,39.88311,1237,180
116.47284,39.88312,1238,180
116.45763,39.88305,1239,180
116.45631,39.88311,1240,180
116.45473,39.87448,1241,180
116.45476,39.87285,1242,180
116.41237,39.85577,1243,180
116.41176,39.85577,1244,180
116.39383,39.85155,1245,180
116.39394,39.84935,1246,180
116.3912,39.84389,1247,180
116.39128,39.84387,1248,180
116.38745,39.84391,1249,180
116.38934,39.84395,1250,180
116.39536,39.85294,1251,180
116.39507,39.85413,1252,180
116.41749,39.85579,1253,180
116.41749,39.85487,1254,180
116.41747,39.85003,1255,180
116.41754,39.85077,1256,180
116.41567,39.86245,1257,180
116.41562,39.86397,1258,180
116.4147,39.88226,1259,180
116.41457,39.88327,1260,180
116.40583,39.89759,1261,180
116.40575,39.89757,1262,180
116.40044,39.91439,1263,180
116.40041,39.91583,1264,180
116.39531,39.92401,1265,180
116.39536,39.92401,1266,180
116.39638,39.92067,1267,180
116.4076,39.91119,1268,180
116.40752,39.91072,1269,180
116.41149,39.90879,1270,180
116.41146,39.90879,1271,180
116.41181,39.90729,1272,180
116.41187,39.90728,1273,180
116.41187,39.90728,1274,180
116.4125,39.89516,1275,180
116.4125,39.89516,1276,180
116.41252,39.89342,1277,180
116.39793,39.88644,1278,180
116.39602,39.88593,1279,180
116.39407,39.87766,1280,180
116.39312,39.87878,1281,180
116.40629,39.89085,1282,180
116.40632,39.89084,1283,180
116.41043,39.89564,1284,180
116.4106,39.89562,1285,180
116.41248,39.8922,1286,180
116.41252,39.89217,1287,180
116.41452,39.88282,1288,180
116.41453,39.88278,1289,180
116.43819,39.8831,1290,180
116.4415,39.8832,1291,180
116.45474,39.86782,1292,180
116.45375,39.86577,1293,180
116.39878,39.85593,1294,180
116.39439,39.84125,1295,180
116.39811,39.83359,1296,180
116.39478,39.83254,1297,180
116.39495,39.82947,1298,180
116.39387,39.81232,1299,180
116.3943,39.81227,1300,180
116.39511,39.83363,1301,180
116.39509,39.83502,1302,180
116.40441,39.85551,1303,180
116.40663,39.85551,1304,180
116.40741,39.86349,1305,180
116.40754,39.86423,1306,180
116.41479,39.88024,1307,180
116.41477,39.88148,1308,180
116.41661,39.88265,1309,180
116.41527,39.88264,1310,180
116.41251,39.89906,1311,180
116.41254,39.89906,1312,180
116.4076,39.91064,1313,180
116.40771,39.91244,1314,180
116.39391,39.92212,1315,180
116.3735,39.9295,1316,180
116.37372,39.9309,1317,180
116.36784,39.94056,1318,180
116.36785,39.94056,1319,180
116.36938,39.94719,1320,180
116.37087,39.94721,1321,180
116.37087,39.94721,1322,180
116.38977,39.93862,1323,180
116.38977,39.93862,1324,180
116.38977,39.93864,1325,180
116.37352,39.95009,1326,180
116.37328,39.95239,1327,180
116.37294,39.96487,1328,180
116.37289,39.96489,1329,180
116.37284,39.94722,1330,180
116.37285,39.94722,1331,180
116.39007,39.93231,1332,180
116.3901,39.93235,1333,180
116.40005,39.92241,1334,180
116.40011,39.9207,1335,180
116.4116,39.9181,1336,180
116.41977,39.93241,1337,180
116.41973,39.93385,1338,180
116.42548,39.93829,1339,180
116.4201,39.92123,1340,180
116.41168,39.91428,1341,180
116.41179,39.91566,1342,180
116.43269,39.92296,1343,180
116.43269,39.92296,1344,180
116.44412,39.91165,1345,180
116.44414,39.91017,1346,180
116.45621,39.90856,1347,180
116.46349,39.9161,1348,180
116.46349,39.91747,1349,180
116.45045,39.92701,1350,180
116.45593,39.94726,1351,180
116.4559,39.9477,1352,180
116.46836,39.96643,1353,180
116.46824,39.96718,1354,180
116.46638,39.97689,1355,180
116.46644,39.9769,1356,180
116.46639,39.97686,1357,180
116.46266,39.97904,1358,180
116.46389,39.98013,1359,180
116.62985,40.16315,1360,180
116.63601,40.19462,1361,180
116.64369,40.22668,1362,180
116.63599,40.24706,1363,180
116.63288,40.27197,1364,180
116.63639,40.28757,1365,180
116.64479,40.30756,1366,180
116.66337,40.32327,1367,180
116.70638,40.327,1368,180
116.738,40.33004,1369,180
116.76864,40.3436,1370,180
116.78342,40.3506,1371,180
116.8176,40.36605,1372,180
116.83505,40.3708,1373,180
116.83505,40.37072,1374,180
116.83488,40.3708,1375,180
116.83488,40.3708,1376,180
116.83488,40.3708,1377,180
116.83488,40.3708,1378,180
116.83488,40.3708,1379,180
116.83488,40.3708,1380,180
116.83488,40.3708,1381,180
116.83488,40.3708,1382,180
116.83488,40.3708,1383,180
116.83488,40.3708,1384,180
116.83488,40.3708,1385,180
116.83488,40.3708,1386,180
116.83488,40.3708,1387,180
116.83488,40.3708,1388,180
116.83488,40.3708,1389,180
116.83488,40.3708,1390,180
116.83488,40.3708,1391,180
116.83488,40.3708,1392,180
116.83488,40.3708,1393,180
116.83488,40.3708,1394,180
116.83488,40.3708,1395,180
116.83488,40.3708,1396,180
116.83488,40.3708,1397,180
116.83488,40.3708,1398,180
116.83488,40.3708,1399,180
116.83488,40.3708,1400,180
116.83488,40.3708,1401,180
116.83488,40.3708,1402,180
116.83488,40.3708,1403,180
116.83498,40.37087,1404,180
116.83646,40.37032,1405,180
116.83858,40.34956,1406,180
116.85015,40.35066,1407,180
116.87407,40.35028,1408,180
116.87406,40.35026,1409,180
116.87406,40.35022,1410,180
116.87404,40.35021,1411,180
116.87407,40.35022,1412,180
116.87651,40.35302,1413,180
116.87651,40.35301,1414,180
116.87403,40.35025,1415,180
116.87397,40.35019,1416,180
116.87397,40.35019,1417,180
116.87397,40.35019,1418,180
116.87397,40.35019,1419,180
116.87397,40.35019,1420,180
116.87397,40.35019,1421,180
116.87397,40.35019,1422,180
116.87397,40.35019,1423,180
116.87397,40.35019,1424,180
116.87397,40.35019,1425,180
116.86543,40.35045,1426,180
116.84123,40.35017,1427,180
116.83835,40.35674,1428,180
116.83652,40.36906,1429,180
116.8354,40.37047,1430,180
116.83507,40.37097,1431,180
116.83474,40.37158,1432,180
116.83466,40.37194,1433,180
116.82345,40.37645,1434,180
116.82345,40.37645,1435,180
116.82841,40.37647,1436,180
116.83961,40.37484,1437,180
116.85253,40.37127,1438,180
116.89324,40.39722,1439,180
116.89449,40.39961,1440,180
116.89449,40.39961,1441,180
116.89451,40.39961,1442,180
116.87985,40.38244,1443,180
116.86649,40.37702,1444,180
116.83653,40.37134,1445,180
116.835,40.37087,1446,180
116.83524,40.37081,1447,180
116.83835,40.37303,1448,180
116.83818,40.37339,1449,180
116.83813,40.37329,1450,180
116.83813,40.37329,1451,180
116.83813,40.37329,1452,180
116.83813,40.37329,1453,180
116.83813,40.37329,1454,180
116.83813,40.37329,1455,180
116.83813,40.37329,1456,180
116.83813,40.37329,1457,180
116.83813,40.37329,1458,180
116.83813,40.37329,1459,180
116.83929,40.36886,1460,180
116.87933,40.38209,1461,180
116.88489,40.38445,1462,180
116.93532,40.40958,1463,180
116.94785,40.40599,1464,180
117.00434,40.44106,1465,180
117.01086,40.44823,1466,180
117.04959,40.49047,1467,180
117.05956,40.49955,1468,180
117.10338,40.5265,1469,180
117.11167,40.53776,1470,180
117.09951,40.5438,1471,180
117.09952,40.54378,1472,180
117.09937,40.543,1473,180
117.09938,40.54324,1474,180
117.09895,40.54336,1475,180
117.09891,40.54335,1476,180
117.09889,40.54336,1477,180
117.09891,40.54335,1478,180
117.09891,40.54337,1479,180
117.09892,40.54337,1480,180
117.09891,40.54337,1481,180
117.09894,40.54336,1482,180
117.0989,40.54339,1483,180
117.0989,40.54337,1484,180
117.09889,40.54342,1485,180
117.09888,40.54336,1486,180
117.09891,40.54337,1487,180
117.09892,40.54338,1488,180
117.09891,40.54338,1489,180
117.09891,40.54338,1490,180
117.09889,40.54341,1491,180
117.09893,40.54336,1492,180
117.09891,40.54334,1493,180
117.09891,40.54335,1494,180
117.09894,40.54333,1495,180
117.09893,40.54336,1496,180
117.09893,40.54334,1497,180
117.09894,40.5433,1498,180
117.09894,40.5433,1499,180
117.09894,40.54334,1500,180
117.09892,40.54337,1501,180
117.09894,40.54336,1502,180
117.09894,40.54337,1503,180
117.09895,40.54338,1504,180
117.09892,40.54336,1505,180
117.09892,40.54338,1506,180
117.09891,40.54337,1507,180
117.09891,40.54335,1508,180
117.0989,40.54336,1509,180
117.09892,40.54333,1510,180
117.09892,40.54333,1511,180
117.09892,40.54335,1512,180
117.09899,40.54332,1513,180
117.09896,40.54334,1514,180
117.09891,40.54338,1515,180
117.09888,40.54334,1516,180
117.0989,40.54332,1517,180
117.09889,40.54337,1518,180
117.09891,40.54337,1519,180
117.09892,40.54334,1520,180
117.09893,40.54339,1521,180
117.09896,40.5434,1522,180
117.09894,40.54338,1523,180
117.09889,40.54339,1524,180
117.09892,40.54341,1525,180
117.09891,40.54337,1526,180
117.09887,40.54337,1527,180
117.09894,40.54337,1528,180
117.09893,40.54336,1529,180
117.09891,40.54337,1530,180
117.09893,40.54335,1531,180
117.09893,40.54337,1532,180
117.09893,40.54337,1533,180
117.09891,40.54335,1534,180
117.09896,40.54337,1535,180
117.09892,40.54338,1536,180
117.0989,40.54336,1537,180
117.09892,40.54336,1538,180
117.09892,40.54339,1539,180
117.09892,40.54338,1540,180
117.09893,40.54337,1541,180
117.0989,40.54335,1542,180
117.09892,40.5434,1543,180
117.09893,40.54335,1544,180
117.09891,40.54338,1545,180
117.0989,40.54336,1546,180
117.0989,40.54336,1547,180
117.0989,40.54336,1548,180
117.09889,40.54338,1549,180
117.0989,40.54335,1550,180
117.09895,40.54337,1551,180
117.0989,40.54339,1552,180
117.09892,40.54333,1553,180
117.09892,40.54333,1554,180
117.09892,40.54334,1555,180
117.09897,40.54335,1556,180
117.09893,40.54341,1557,180
117.09891,40.54337,1558,180
117.09891,40.54337,1559,180
117.0989,40.54339,1560,180
117.09891,40.54337,1561,180
117.09893,40.54334,1562,180
117.09891,40.54337,1563,180
117.09892,40.54338,1564,180
117.0989,40.54337,1565,180
117.09892,40.5434,1566,180
117.09892,40.54338,1567,180
117.09892,40.54332,1568,180
117.09892,40.54336,1569,180
117.09895,40.54333,1570,180
117.09892,40.54332,1571,180
117.0989,40.54338,1572,180
117.0989,40.54332,1573,180
117.0989,40.54342,1574,180
117.0989,40.54337,1575,180
117.09891,40.54343,1576,180
117.09889,40.54339,1577,180
117.09893,40.54343,1578,180
117.09892,40.54338,1579,180
117.09891,40.54345,1580,180
117.09894,40.54344,1581,180
117.09888,40.54339,1582,180
117.09892,40.54339,1583,180
117.0989,40.54336,1584,180
117.09895,40.54344,1585,180
117.09891,40.54341,1586,180
117.09892,40.54337,1587,180
117.09891,40.54342,1588,180
117.09891,40.54338,1589,180
117.09893,40.54341,1590,180
117.09892,40.5434,1591,180
117.09892,40.54338,1592,180
117.09894,40.54343,1593,180
117.09892,40.54339,1594,180
117.09892,40.54339,1595,180
117.09891,40.54337,1596,180
117.09891,40.5434,1597,180
117.09889,40.54338,1598,180
117.0989,40.54339,1599,180
117.0989,40.54337,1600,180
117.09888,40.54335,1601,180
117.09897,40.54345,1602,180
117.099,40.54348,1603,180
117.09891,40.54339,1604,180
117.09896,40.54344,1605,180
117.0989,40.54335,1606,180
117.09892,40.5434,1607,180
117.0989,40.54341,1608,180
117.09893,40.5434,1609,180
117.0989,40.54337,1610,180
117.09891,40.54337,1611,180
117.0989,40.54337,1612,180
117.09892,40.5434,1613,180
117.0989,40.54339,1614,180
117.09889,40.54338,1615,180
117.09892,40.54337,1616,180
117.09891,40.54337,1617,180
117.09892,40.54336,1618,180
117.09894,40.54337,1619,180
117.09892,40.54336,1620,180
117.09894,40.54336,1621,180
117.09894,40.54341,1622,180
117.09893,40.54337,1623,180
117.09894,40.54337,1624,180
117.09894,40.54336,1625,180
117.09897,40.54337,1626,180
117.09893,40.54337,1627,180
117.09893,40.54337,1628,180
117.09894,40.54336,1629,180
117.09893,40.54336,1630,180
117.09896,40.54336,1631,180
117.09891,40.54335,1632,180
117.09896,40.54337,1633,180
117.09893,40.54336,1634,180
117.09891,40.54336,1635,180
117.0989,40.54334,1636,180
117.09894,40.54337,1637,180
117.0989,40.54339,1638,180
117.09892,40.54337,1639,180
117.09902,40.54335,1640,180
117.09907,40.54325,1641,180
117.09907,40.54329,1642,180
117.09902,40.54325,1643,180
117.09904,40.54327,1644,180
117.09899,40.54329,1645,180
117.099,40.54323,1646,180
117.09901,40.54322,1647,180
117.09901,40.54325,1648,180
117.099,40.54321,1649,180
117.099,40.54324,1650,180
117.09901,40.54323,1651,180
117.099,40.54322,1652,180
117.09904,40.54334,1653,180
117.10796,40.54138,1654,180
117.10793,40.54141,1655,180
117.12531,40.54084,1656,180
117.13584,40.54607,1657,180
117.15387,40.58063,1658,180
117.16588,40.58339,1659,180
117.16588,40.58339,1660,180
117.19088,40.57864,1661,180
117.19661,40.57897,1662,180
117.19704,40.57927,1663,180
117.18884,40.57922,1664,180
117.18277,40.58719,1665,180
117.1537,40.58054,1666,180
117.14594,40.56684,1667,180
117.14194,40.55447,1668,180
117.13569,40.54577,1669,180
117.11058,40.54033,1670,180
117.10253,40.54221,1671,180
117.1004,40.54232,1672,180
117.09564,40.54253,1673,180
117.09567,40.54256,1674,180
117.09565,40.54255,1675,180
117.09566,40.54255,1676,180
117.09566,40.54256,1677,180
117.09567,40.54255,1678,180
117.09564,40.54257,1679,180
117.09566,40.54256,1680,180
117.09565,40.54255,1681,180
117.09567,40.54254,1682,180
117.09566,40.54255,1683,180
117.09572,40.54253,1684,180
117.09569,40.54254,1685,180
117.09566,40.54254,1686,180
117.09568,40.54255,1687,180
117.09569,40.54254,1688,180
117.09569,40.54256,1689,180
117.09554,40.54252,1690,180
117.09926,40.54229,1691,180
117.10453,40.54179,1692,180
117.10587,40.54164,1693,180
117.11893,40.53619,1694,180
117.12306,40.53879,1695,180
117.14333,40.5611,1696,180
117.14331,40.56115,1697,180
117.14335,40.56111,1698,180
117.14331,40.56117,1699,180
117.14332,40.5611,1700,180
117.14333,40.56112,1701,180
117.14416,40.55754,1702,180
117.14416,40.55755,1703,180
117.1442,40.55754,1704,180
117.14415,40.55748,1705,180
117.14418,40.55764,1706,180
117.1442,40.55752,1707,180
117.1442,40.55754,1708,180
117.14391,40.55756,1709,180
117.13566,40.54589,1710,180
117.1279,40.54046,1711,180
117.10044,40.54318,1712,180
117.0992,40.5434,1713,180
117.0992,40.5434,1714,180
117.09921,40.54338,1715,180
117.09918,40.54343,1716,180
117.09913,40.54327,1717,180
117.09915,40.54333,1718,180
117.09915,40.54332,1719,180
117.09917,40.54336,1720,180
117.0991,40.54333,1721,180
117.0991,40.54333,1722,180
117.09913,40.54337,1723,180
117.09913,40.54337,1724,180
117.09914,40.54336,1725,180
117.09912,40.54335,1726,180
117.09913,40.54336,1727,180
117.09917,40.54337,1728,180
117.09914,40.54336,1729,180
117.09914,40.54338,1730,180
117.09914,40.54336,1731,180
117.09916,40.54336,1732,180
117.09912,40.54335,1733,180
117.09918,40.54341,1734,180
117.09918,40.54343,1735,180
117.09915,40.54338,1736,180
117.09916,40.54338,1737,180
117.09917,40.54339,1738,180
117.09918,40.54341,1739,180
117.10359,40.54193,1740,180
117.10359,40.54199,1741,180
117.12209,40.53301,1742,180
117.11878,40.52884,1743,180
117.12346,40.53504,1744,180
117.12229,40.53543,1745,180
117.09951,40.54338,1746,180
117.09943,40.54325,1747,180
117.09939,40.54327,1748,180
117.09939,40.54327,1749,180
117.10127,40.543,1750,180
