x,y,k,tid
116.32385,39.92345,0,1846
116.32385,39.92345,1,1846
116.32385,39.92345,2,1846
116.32385,39.92345,3,1846
116.32385,39.92345,4,1846
116.32385,39.92345,5,1846
116.32385,39.92345,6,1846
116.32385,39.92345,7,1846
116.32385,39.92345,8,1846
0.0,0.0,9,1846
0.0,0.0,10,1846
0.0,0.0,11,1846
0.0,0.0,12,1846
0.0,0.0,13,1846
0.0,0.0,14,1846
0.0,0.0,15,1846
116.32317,39.92357,16,1846
116.32317,39.92357,17,1846
116.32305,39.924,18,1846
116.32333,39.92342,19,1846
116.32302,39.92362,20,1846
116.32302,39.92362,21,1846
116.32313,39.92367,22,1846
116.323,39.92372,23,1846
116.32277,39.92398,24,1846
116.32283,39.92398,25,1846
116.32297,39.92402,26,1846
116.32348,39.92362,27,1846
0.0,0.0,28,1846
0.0,0.0,29,1846
0.0,0.0,30,1846
0.0,0.0,31,1846
0.0,0.0,32,1846
0.0,0.0,33,1846
0.0,0.0,34,1846
0.0,0.0,35,1846
0.0,0.0,36,1846
116.32472,39.923,37,1846
116.32472,39.923,38,1846
116.32472,39.923,39,1846
116.32472,39.923,40,1846
116.32472,39.923,41,1846
116.32472,39.923,42,1846
116.32472,39.923,43,1846
116.32472,39.923,44,1846
116.32472,39.923,45,1846
116.32472,39.923,46,1846
116.32472,39.923,47,1846
116.58157,40.07005,48,1846
116.47487,39.92167,49,1846
116.47487,39.92167,50,1846
116.48313,41.18427,51,1846
116.48313,41.18427,52,1846
116.48313,41.18427,53,1846
116.48313,41.18427,54,1846
116.48313,41.18427,55,1846
116.48313,41.18427,56,1846
116.48313,41.18427,57,1846
116.48313,41.18427,58,1846
116.48313,41.18427,59,1846
116.48313,41.18427,60,1846
116.48313,41.18427,61,1846
116.48313,41.18427,62,1846
116.48313,41.18427,63,1846
116.48313,41.18427,64,1846
116.3253,39.9229,65,1846
116.32517,39.92297,66,1846
116.32532,39.9227,67,1846
116.32532,39.9227,68,1846
116.32397,39.92263,69,1846
116.32397,39.92263,70,1846
116.32397,39.92263,71,1846
116.32397,39.92263,72,1846
116.32397,39.92263,73,1846
116.32397,39.92263,74,1846
116.32397,39.92263,75,1846
116.32315,39.92305,76,1846
116.32315,39.92305,77,1846
116.32315,39.92305,78,1846
116.32315,39.92305,79,1846
116.32315,39.92305,80,1846
116.32315,39.92305,81,1846
116.32315,39.92305,82,1846
116.32315,39.92305,83,1846
116.32315,39.92305,84,1846
116.32315,39.92305,85,1846
116.32315,39.92305,86,1846
116.325,39.92227,87,1846
116.32495,39.92237,88,1846
116.32515,39.92213,89,1846
116.32518,39.92208,90,1846
116.32483,39.92233,91,1846
116.32483,39.92233,92,1846
116.32512,39.9222,93,1846
116.32517,39.92207,94,1846
116.32658,39.92247,95,1846
116.32832,39.91282,96,1846
116.32835,39.91277,97,1846
116.32835,39.91277,98,1846
116.3249,39.92215,99,1846
116.32565,39.92337,100,1846
116.32577,39.92358,101,1846
116.32582,39.9237,102,1846
116.32457,39.92223,103,1846
116.32433,39.92235,104,1846
116.32443,39.9223,105,1846
116.32432,39.92235,106,1846
116.32455,39.9221,107,1846
116.32447,39.92195,108,1846
116.32527,39.92175,109,1846
116.3251,39.92152,110,1846
116.32517,39.92148,111,1846
116.32517,39.92148,112,1846
116.32517,39.92148,113,1846
116.32517,39.92148,114,1846
