x,y,k,tid
116.37755,39.85775,0,1954
116.37915,39.86263,1,1954
116.37778,39.86095,2,1954
116.37602,39.85588,3,1954
116.35437,39.85242,4,1954
116.33125,39.8476,5,1954
116.30502,39.88357,6,1954
116.31277,39.88702,7,1954
116.31512,39.88803,8,1954
116.34213,39.88208,9,1954
116.34053,39.882,10,1954
116.34103,39.88805,11,1954
116.34403,39.89177,12,1954
116.3507,39.8973,13,1954
116.35082,39.90312,14,1954
116.4018,39.97992,15,1954
116.40505,39.98175,16,1954
116.41067,39.98192,17,1954
116.41513,39.98513,18,1954
116.41503,39.98642,19,1954
116.4181,39.98742,20,1954
116.4262,39.98747,21,1954
116.44462,39.98195,22,1954
116.4571,39.98497,23,1954
116.47267,39.99785,24,1954
116.4729,39.99853,25,1954
116.46393,39.99132,26,1954
116.46237,39.97885,27,1954
116.46337,39.97785,28,1954
116.46337,39.97785,29,1954
116.46422,39.97688,30,1954
116.46215,39.97857,31,1954
116.46887,39.98087,32,1954
116.46655,39.97502,33,1954
116.46427,39.98053,34,1954
116.47135,39.97922,35,1954
116.46283,39.97073,36,1954
116.48313,39.9071,37,1954
116.48343,39.90332,38,1954
116.48743,39.89952,39,1954
116.47642,39.89918,40,1954
116.47175,39.90582,41,1954
116.47177,39.90643,42,1954
116.47188,39.91293,43,1954
116.47835,39.91422,44,1954
116.48865,39.91438,45,1954
116.50042,39.91477,46,1954
116.49897,39.91482,47,1954
116.49258,39.91413,48,1954
116.48425,39.91443,49,1954
116.47322,39.91458,50,1954
116.4719,39.9183,51,1954
116.46625,39.91488,52,1954
116.46332,39.91902,53,1954
116.46332,39.91902,54,1954
116.45517,39.91665,55,1954
116.4553,39.90802,56,1954
116.4551,39.89828,57,1954
116.4476,39.89762,58,1954
116.44468,39.89773,59,1954
116.44978,39.89753,60,1954
116.45498,39.89307,61,1954
116.44708,39.89222,62,1954
116.43318,39.89338,63,1954
116.42937,39.89633,64,1954
116.4246,39.8946,65,1954
116.42298,39.88952,66,1954
116.42567,39.88278,67,1954
116.42567,39.88278,68,1954
116.43342,39.87332,69,1954
116.43298,39.86795,70,1954
116.4326,39.86483,71,1954
116.43603,39.86445,72,1954
116.4328,39.86452,73,1954
116.4277,39.86452,74,1954
116.4204,39.86433,75,1954
116.41725,39.87028,76,1954
116.3962,39.8705,77,1954
116.34657,39.86715,78,1954
116.33012,39.86685,79,1954
116.32263,39.86675,80,1954
116.29828,39.86563,81,1954
116.27565,39.8646,82,1954
116.27672,39.85982,83,1954
116.33145,39.8474,84,1954
116.3406,39.85053,85,1954
116.34228,39.86327,86,1954
116.35482,39.86515,87,1954
116.35837,39.86153,88,1954
116.35832,39.8624,89,1954
116.35808,39.8671,90,1954
116.358,39.86902,91,1954
116.35832,39.86143,92,1954
116.3483,39.86378,93,1954
116.3543,39.86513,94,1954
116.36522,39.86468,95,1954
116.36522,39.86468,96,1954
116.35867,39.86523,97,1954
116.36302,39.864,98,1954
116.36998,39.8688,99,1954
116.42308,39.8895,100,1954
116.42462,39.88752,101,1954
116.42483,39.88657,102,1954
116.43005,39.89212,103,1954
116.43192,39.88775,104,1954
116.40842,39.88698,105,1954
116.40123,39.89288,106,1954
116.39522,39.89055,107,1954
116.40623,39.8879,108,1954
116.40395,39.88692,109,1954
116.41447,39.88273,110,1954
116.40748,39.86598,111,1954
116.39752,39.86393,112,1954
116.40532,39.85593,113,1954
116.39433,39.86008,114,1954
116.38115,39.86298,115,1954
116.38148,39.87345,116,1954
116.37578,39.88097,117,1954
116.36782,39.88192,118,1954
116.36782,39.88192,119,1954
116.36168,39.8769,120,1954
116.35787,39.87285,121,1954
116.3549,39.87673,122,1954
116.35247,39.87672,123,1954
116.34863,39.87652,124,1954
116.34863,39.87652,125,1954
116.34863,39.87652,126,1954
116.34863,39.87652,127,1954
116.34863,39.87652,128,1954
116.34863,39.87652,129,1954
116.34863,39.87652,130,1954
116.34863,39.87652,131,1954
116.34863,39.87652,132,1954
116.34863,39.87652,133,1954
116.34863,39.87652,134,1954
116.34863,39.87652,135,1954
116.37253,39.85667,136,1954
116.37677,39.8577,137,1954
116.37778,39.8607,138,1954
116.3785,39.8622,139,1954
116.38065,39.86067,140,1954
116.38053,39.85617,141,1954
116.38063,39.8535,142,1954
116.3806,39.85525,143,1954
116.38127,39.86355,144,1954
116.38168,39.86988,145,1954
116.35842,39.868,146,1954
116.34327,39.87402,147,1954
116.3426,39.88908,148,1954
116.34255,39.89307,149,1954
116.34262,39.89525,150,1954
116.3458,39.89685,151,1954
116.34948,39.89738,152,1954
116.35055,39.90077,153,1954
116.35047,39.90335,154,1954
116.35035,39.90642,155,1954
116.35073,39.90763,156,1954
116.35327,39.9102,157,1954
116.3533,39.90872,158,1954
116.35147,39.9078,159,1954
116.35055,39.9096,160,1954
116.35052,39.91358,161,1954
116.3498,39.92758,162,1954
116.34967,39.93692,163,1954
116.30518,39.94063,164,1954
116.3029,39.94197,165,1954
116.30752,39.93935,166,1954
116.30552,39.9381,167,1954
116.30438,39.93938,168,1954
116.3163,39.9376,169,1954
116.3163,39.9376,170,1954
116.31867,39.94482,171,1954
116.32243,39.95048,172,1954
116.3297,39.952,173,1954
116.3383,39.9568,174,1954
116.35407,39.97878,175,1954
116.35417,39.9803,176,1954
116.3488,39.98015,177,1954
116.34707,39.99085,178,1954
116.34665,39.99913,179,1954
116.34603,40.01265,180,1954
116.34565,40.0195,181,1954
116.34578,40.02103,182,1954
116.34118,40.03008,183,1954
116.33698,40.03558,184,1954
116.33747,40.03842,185,1954
116.3372,40.03463,186,1954
116.34525,40.02398,187,1954
116.34028,40.0163,188,1954
116.33738,40.00975,189,1954
116.33543,40.0059,190,1954
116.33223,39.99925,191,1954
116.33405,39.99197,192,1954
116.33793,39.99168,193,1954
116.34688,39.9887,194,1954
116.33693,39.98552,195,1954
116.34358,39.98512,196,1954
116.34358,39.98512,197,1954
116.35707,39.98557,198,1954
116.36325,39.98383,199,1954
116.3636,39.97558,200,1954
116.44435,39.93162,201,1954
116.47142,39.96498,202,1954
116.4692,39.96698,203,1954
116.48347,39.93467,204,1954
116.4835,39.93257,205,1954
116.49297,39.9302,206,1954
116.49297,39.9302,207,1954
116.37262,39.85688,208,1954
116.3418,39.85888,209,1954
116.34183,39.85903,210,1954
116.34608,39.86652,211,1954
116.3542,39.86513,212,1954
116.36103,39.86542,213,1954
116.36245,39.86413,214,1954
116.3618,39.86413,215,1954
116.3622,39.8642,216,1954
116.381,39.86198,217,1954
116.381,39.86198,218,1954
116.381,39.86198,219,1954
116.381,39.86198,220,1954
116.381,39.86198,221,1954
116.381,39.86198,222,1954
116.37758,39.85917,223,1954
116.37877,39.86227,224,1954
116.38668,39.86383,225,1954
116.38252,39.86227,226,1954
116.38643,39.86997,227,1954
116.42235,39.86967,228,1954
116.4351,39.89783,229,1954
116.42422,39.89912,230,1954
116.42102,39.90478,231,1954
116.42097,39.90688,232,1954
116.41928,39.91428,233,1954
116.41975,39.9229,234,1954
116.44718,39.9221,235,1954
116.45635,39.92178,236,1954
116.46275,39.92183,237,1954
116.47225,39.93087,238,1954
116.47383,39.93265,239,1954
116.46718,39.9326,240,1954
116.46827,39.94068,241,1954
116.46843,39.93902,242,1954
116.46278,39.94393,243,1954
116.45162,39.94732,244,1954
116.43935,39.9398,245,1954
116.42693,39.93985,246,1954
116.4201,39.93968,247,1954
116.41847,39.93238,248,1954
116.41107,39.93227,249,1954
116.36503,39.93133,250,1954
116.3588,39.93245,251,1954
116.3579,39.93892,252,1954
116.34687,39.93893,253,1954
116.33413,39.93708,254,1954
116.32502,39.93717,255,1954
116.321,39.93763,256,1954
116.321,39.93763,257,1954
116.3127,39.93825,258,1954
116.30377,39.9393,259,1954
116.30405,39.91928,260,1954
116.30268,39.90523,261,1954
116.30407,39.90042,262,1954
116.30535,39.89672,263,1954
116.3046,39.90223,264,1954
116.3107,39.90433,265,1954
116.31315,39.89918,266,1954
116.31517,39.90532,267,1954
116.32285,39.90517,268,1954
116.3201,39.90617,269,1954
116.31142,39.90628,270,1954
116.29287,39.90637,271,1954
116.27895,39.90627,272,1954
116.27723,39.90552,273,1954
116.27728,39.89895,274,1954
116.27737,39.89858,275,1954
116.27735,39.90585,276,1954
116.29102,39.90725,277,1954
116.31185,39.90757,278,1954
116.31185,39.90757,279,1954
116.32367,39.9052,280,1954
116.32287,39.9053,281,1954
116.35658,39.90588,282,1954
116.37263,39.90582,283,1954
116.3953,39.9063,284,1954
116.40892,39.90668,285,1954
116.4188,39.907,286,1954
116.42392,39.90708,287,1954
116.4407,39.90707,288,1954
116.46457,39.90698,289,1954
116.48403,39.9222,290,1954
116.48345,39.9259,291,1954
116.47857,39.92193,292,1954
116.48247,39.92078,293,1954
116.48295,39.91427,294,1954
116.47233,39.91438,295,1954
116.47197,39.90795,296,1954
116.4716,39.91053,297,1954
116.4667,39.90723,298,1954
116.45638,39.90742,299,1954
116.45507,39.90898,300,1954
116.45498,39.8944,301,1954
116.4582,39.89402,302,1954
116.45498,39.8981,303,1954
116.45583,39.90663,304,1954
116.45987,39.91613,305,1954
116.46432,39.90722,306,1954
116.46558,39.9103,307,1954
116.42072,39.9071,308,1954
116.41752,39.9078,309,1954
116.41037,39.90688,310,1954
116.39995,39.9066,311,1954
116.37728,39.90588,312,1954
116.37695,39.90587,313,1954
116.35023,39.90517,314,1954
116.31753,39.89598,315,1954
116.31725,39.89842,316,1954
116.31488,39.90533,317,1954
116.31488,39.90533,318,1954
116.31627,39.906,319,1954
116.3186,39.90575,320,1954
116.31622,39.90603,321,1954
116.31733,39.8975,322,1954
116.3149,39.9056,323,1954
116.41098,39.9291,324,1954
116.4188,39.95738,325,1954
116.4107,39.93718,326,1954
116.41092,39.92998,327,1954
116.41078,39.93507,328,1954
116.40515,39.9228,329,1954
116.41132,39.92048,330,1954
116.41507,39.91708,331,1954
116.41777,39.91715,332,1954
116.41242,39.91442,333,1954
116.4113,39.92052,334,1954
116.41145,39.91748,335,1954
116.41182,39.90918,336,1954
116.41215,39.90087,337,1954
116.41282,39.88787,338,1954
116.4211,39.86395,339,1954
116.4275,39.86283,340,1954
116.42617,39.85753,341,1954
116.419,39.85673,342,1954
116.39282,39.85568,343,1954
116.36582,39.85548,344,1954
116.34032,39.84857,345,1954
116.3152,39.8519,346,1954
116.30593,39.8709,347,1954
116.38065,39.84702,348,1954
116.3806,39.85517,349,1954
107.41348,39.93073,350,1954
107.41348,39.93073,351,1954
116.37487,39.85587,352,1954
116.3498,39.85118,353,1954
116.3498,39.85118,354,1954
116.32333,39.84782,355,1954
116.30693,39.8626,356,1954
116.30437,39.90365,357,1954
116.30458,39.91975,358,1954
116.30458,39.91975,359,1954
116.27888,39.93098,360,1954
116.27882,39.92348,361,1954
116.28087,39.92287,362,1954
116.29598,39.92265,363,1954
116.29598,39.92265,364,1954
116.30403,39.91123,365,1954
116.30417,39.89035,366,1954
116.30572,39.87113,367,1954
116.31415,39.85288,368,1954
116.33813,39.84793,369,1954
116.36398,39.85502,370,1954
116.39083,39.85568,371,1954
116.4158,39.85588,372,1954
116.41995,39.86452,373,1954
116.4147,39.86075,374,1954
116.40635,39.8559,375,1954
116.39487,39.86215,376,1954
116.38397,39.86387,377,1954
116.37237,39.90445,378,1954
116.3752,39.90375,379,1954
116.36852,39.90282,380,1954
116.36665,39.89843,381,1954
116.3574,39.89812,382,1954
116.34355,39.89667,383,1954
116.34242,39.88725,384,1954
116.34275,39.8723,385,1954
116.34178,39.86367,386,1954
116.34103,39.85742,387,1954
116.34078,39.85552,388,1954
116.3381,39.84788,389,1954
116.3416,39.84788,390,1954
116.35995,39.85375,391,1954
116.38003,39.85573,392,1954
116.37265,39.85675,393,1954
116.3769,39.85787,394,1954
116.3767,39.85763,395,1954
116.38058,39.85748,396,1954
116.38068,39.8563,397,1954
116.3969,39.85562,398,1954
116.41317,39.85595,399,1954
116.4008,39.85567,400,1954
116.38267,39.85583,401,1954
116.38107,39.85588,402,1954
116.38017,39.84323,403,1954
116.3783,39.84068,404,1954
116.38883,39.85237,405,1954
116.3892,39.85235,406,1954
116.39505,39.8555,407,1954
116.41282,39.85568,408,1954
116.43965,39.85753,409,1954
116.45245,39.86442,410,1954
116.45555,39.86992,411,1954
116.45555,39.86992,412,1954
116.46162,39.86782,413,1954
116.46797,39.86645,414,1954
116.47132,39.8605,415,1954
116.46833,39.8574,416,1954
116.46617,39.85777,417,1954
116.35813,39.95115,418,1954
116.3552,39.95495,419,1954
116.35533,39.95233,420,1954
116.35542,39.95088,421,1954
116.35747,39.94473,422,1954
116.35427,39.9493,423,1954
116.3594,39.95118,424,1954
116.34922,39.9521,425,1954
116.3467,39.99917,426,1954
116.3467,39.99917,427,1954
116.34633,40.00618,428,1954
116.35033,40.02138,429,1954
116.33927,40.0332,430,1954
116.33438,40.03735,431,1954
116.32875,40.03705,432,1954
116.33975,40.03128,433,1954
116.34562,40.01415,434,1954
116.34608,40.00323,435,1954
116.34638,39.99665,436,1954
116.35552,39.99223,437,1954
116.359,39.99237,438,1954
116.35857,39.99212,439,1954
116.3604,39.99213,440,1954
116.33997,39.96638,441,1954
116.31373,39.96533,442,1954
116.31373,39.96533,443,1954
116.30355,39.94968,444,1954
116.29458,39.94435,445,1954
116.2731,39.9454,446,1954
116.2697,39.94555,447,1954
116.25847,39.94567,448,1954
116.2446,39.94613,449,1954
116.22848,39.95375,450,1954
116.20773,39.95482,451,1954
116.20867,39.95027,452,1954
116.18617,39.92805,453,1954
116.17282,39.92468,454,1954
116.15387,39.92288,455,1954
116.09375,39.94243,456,1954
116.08698,39.94143,457,1954
116.0891,39.94025,458,1954
116.09632,39.93677,459,1954
116.11235,39.93558,460,1954
116.13527,39.92673,461,1954
116.39432,39.84973,462,1954
116.39415,39.8567,463,1954
116.37738,39.858,464,1954
116.38062,39.85697,465,1954
116.44667,39.85993,466,1954
116.45272,39.86432,467,1954
116.46882,39.85663,468,1954
116.47375,39.85012,469,1954
116.47323,39.85008,470,1954
116.47832,39.8473,471,1954
116.46657,39.83733,472,1954
116.44145,39.83113,473,1954
116.44623,39.82405,474,1954
116.39535,39.82928,475,1954
116.39098,39.83648,476,1954
116.38987,39.844,477,1954
116.38067,39.8479,478,1954
116.3775,39.85912,479,1954
116.38088,39.86382,480,1954
116.38088,39.86382,481,1954
116.3806,39.85943,482,1954
116.3804,39.85603,483,1954
116.4018,39.85562,484,1954
116.40468,39.85263,485,1954
116.40895,39.85553,486,1954
116.41268,39.85555,487,1954
116.42032,39.86652,488,1954
116.40037,39.85857,489,1954
116.40738,39.86397,490,1954
116.4071,39.87073,491,1954
116.39433,39.87245,492,1954
116.4058,39.89842,493,1954
116.40525,39.90587,494,1954
116.40775,39.91323,495,1954
116.40507,39.91702,496,1954
116.40463,39.9247,497,1954
116.4028,39.9263,498,1954
116.40262,39.93182,499,1954
116.39048,39.93215,500,1954
116.38973,39.9386,501,1954
116.3876,39.94692,502,1954
116.40853,39.94778,503,1954
116.41933,39.94198,504,1954
116.42298,39.93772,505,1954
116.4196,39.93953,506,1954
116.41912,39.94785,507,1954
116.39815,39.94765,508,1954
116.37193,39.94752,509,1954
116.35525,39.9452,510,1954
116.39322,39.86322,511,1954
116.3938,39.85303,512,1954
116.3947,39.8359,513,1954
116.39533,39.8219,514,1954
116.39585,39.81135,515,1954
116.3963,39.80355,516,1954
116.4095,39.80338,517,1954
116.41795,39.80222,518,1954
116.40528,39.80388,519,1954
116.3965,39.80757,520,1954
116.39797,39.81235,521,1954
116.39503,39.83515,522,1954
116.45442,39.88312,523,1954
116.46473,39.88298,524,1954
116.4739,39.88297,525,1954
116.50185,39.87502,526,1954
116.50197,39.87968,527,1954
116.50063,39.87308,528,1954
116.4913,39.87653,529,1954
116.49393,39.87063,530,1954
116.4979,39.86263,531,1954
116.49412,39.86738,532,1954
116.49235,39.87415,533,1954
116.48497,39.88112,534,1954
116.45563,39.89095,535,1954
116.4557,39.89482,536,1954
116.45558,39.89508,537,1954
116.45492,39.8875,538,1954
116.45488,39.88335,539,1954
116.46202,39.88302,540,1954
116.48018,39.88293,541,1954
116.4911,39.87638,542,1954
116.48107,39.88293,543,1954
116.46708,39.8831,544,1954
116.4556,39.8831,545,1954
116.44982,39.87457,546,1954
116.44968,39.87312,547,1954
116.44968,39.87312,548,1954
116.44982,39.87288,549,1954
116.44468,39.87482,550,1954
116.43873,39.88657,551,1954
116.43023,39.90045,552,1954
116.42865,39.9184,553,1954
116.42418,39.92302,554,1954
116.41027,39.92295,555,1954
116.40495,39.92283,556,1954
116.42018,39.91865,557,1954
116.42025,39.91735,558,1954
116.41947,39.94023,559,1954
116.41882,39.957,560,1954
116.416,39.96817,561,1954
116.41177,39.9698,562,1954
116.41108,39.9808,563,1954
116.4026,39.97962,564,1954
116.4018,39.98008,565,1954
116.40345,39.97927,566,1954
116.40325,39.98067,567,1954
116.40112,39.97815,568,1954
116.40085,39.96768,569,1954
116.40175,39.94998,570,1954
116.40195,39.94922,571,1954
116.39948,39.95795,572,1954
116.40132,39.96692,573,1954
116.40127,39.9755,574,1954
116.40457,39.9828,575,1954
116.40338,39.97923,576,1954
116.4037,39.97918,577,1954
116.41145,39.96873,578,1954
116.40157,39.96995,579,1954
116.40107,39.97142,580,1954
116.40165,39.96235,581,1954
116.40207,39.95397,582,1954
116.41147,39.92103,583,1954
116.4117,39.91148,584,1954
116.41222,39.89958,585,1954
116.4129,39.88607,586,1954
116.4129,39.88607,587,1954
116.4259,39.85713,588,1954
116.4295,39.8672,589,1954
116.43222,39.86457,590,1954
116.41927,39.86427,591,1954
116.39505,39.86412,592,1954
116.39515,39.86375,593,1954
116.39722,39.85537,594,1954
116.40727,39.8556,595,1954
116.35548,39.85273,596,1954
116.34325,39.87488,597,1954
116.35043,39.90582,598,1954
116.35043,39.90582,599,1954
116.35052,39.91577,600,1954
116.34837,39.91703,601,1954
116.34997,39.90733,602,1954
116.35277,39.8976,603,1954
116.35713,39.89207,604,1954
116.35713,39.89207,605,1954
116.35767,39.88207,606,1954
116.35782,39.87435,607,1954
116.35567,39.86527,608,1954
116.35645,39.86693,609,1954
116.35683,39.86732,610,1954
116.37843,39.86935,611,1954
116.37785,39.86025,612,1954
116.37272,39.85728,613,1954
116.3773,39.85775,614,1954
116.37975,39.86298,615,1954
116.3805,39.85603,616,1954
116.38058,39.85607,617,1954
116.38072,39.84868,618,1954
116.374,39.84827,619,1954
116.3662,39.84933,620,1954
116.3533,39.84443,621,1954
116.35292,39.84207,622,1954
116.35292,39.84207,623,1954
116.34655,39.84448,624,1954
116.3492,39.84457,625,1954
116.37783,39.85577,626,1954
116.35687,39.85312,627,1954
116.33817,39.84868,628,1954
116.33947,39.84425,629,1954
116.33943,39.84408,630,1954
116.34148,39.85003,631,1954
116.34168,39.85793,632,1954
116.3481,39.8663,633,1954
116.34742,39.87593,634,1954
116.34778,39.88192,635,1954
116.35295,39.88797,636,1954
116.35735,39.88803,637,1954
116.35732,39.89165,638,1954
116.35717,39.89698,639,1954
116.32675,39.95075,640,1954
116.32097,39.95042,641,1954
116.32553,39.95073,642,1954
116.31563,39.95557,643,1954
116.30167,39.95627,644,1954
116.29705,39.95855,645,1954
116.2867,39.95688,646,1954
116.28225,39.96047,647,1954
116.28225,39.96047,648,1954
116.2825,39.96047,649,1954
116.27807,39.95827,650,1954
116.2821,39.95603,651,1954
116.29455,39.95823,652,1954
116.30307,39.95468,653,1954
116.304,39.93717,654,1954
116.30407,39.91868,655,1954
116.30407,39.91868,656,1954
116.30412,39.89912,657,1954
116.3053,39.89562,658,1954
116.3142,39.89498,659,1954
116.31632,39.89515,660,1954
116.31062,39.89638,661,1954
116.30813,39.9063,662,1954
116.30398,39.91565,663,1954
116.30398,39.91565,664,1954
116.30423,39.92988,665,1954
116.31358,39.93102,666,1954
116.32042,39.92685,667,1954
116.32838,39.923,668,1954
116.32822,39.91193,669,1954
116.3489,39.90587,670,1954
116.36588,39.90572,671,1954
116.3897,39.90017,672,1954
116.38902,39.88935,673,1954
116.38723,39.88498,674,1954
116.38378,39.88458,675,1954
116.41105,39.86982,676,1954
116.4201,39.86778,677,1954
116.42292,39.859,678,1954
116.42193,39.85863,679,1954
116.42028,39.86467,680,1954
116.41603,39.86992,681,1954
116.39405,39.87037,682,1954
116.3654,39.86873,683,1954
116.34293,39.86867,684,1954
116.34293,39.86867,685,1954
116.34267,39.888,686,1954
116.33948,39.89652,687,1954
116.25845,39.9166,688,1954
116.24705,39.91572,689,1954
116.247,39.91525,690,1954
116.2558,39.91652,691,1954
116.25893,39.92263,692,1954
116.26307,39.92292,693,1954
116.32223,39.92213,694,1954
116.33522,39.9219,695,1954
116.353,39.92225,696,1954
116.35918,39.9224,697,1954
116.37013,39.91632,698,1954
116.37018,39.91653,699,1954
116.3711,39.9217,700,1954
116.36705,39.92443,701,1954
116.37083,39.92113,702,1954
116.39477,39.90633,703,1954
116.41112,39.90682,704,1954
116.42532,39.88288,705,1954
116.41808,39.8838,706,1954
116.41833,39.88337,707,1954
116.41495,39.87295,708,1954
116.41005,39.86397,709,1954
116.39915,39.8598,710,1954
116.41368,39.85437,711,1954
116.41407,39.85017,712,1954
116.41,39.84452,713,1954
116.40823,39.85115,714,1954
116.40823,39.85115,715,1954
116.41767,39.85622,716,1954
116.44423,39.85852,717,1954
116.44803,39.8722,718,1954
116.4496,39.87035,719,1954
116.43808,39.87128,720,1954
116.43857,39.88755,721,1954
116.4303,39.90093,722,1954
116.42352,39.93975,723,1954
116.42032,39.93983,724,1954
116.41572,39.9396,725,1954
116.41043,39.94287,726,1954
116.41028,39.9496,727,1954
116.41233,39.9563,728,1954
116.41193,39.96563,729,1954
116.41152,39.97275,730,1954
116.41122,39.97855,731,1954
116.41072,39.98518,732,1954
116.40857,39.99858,733,1954
116.40897,39.99382,734,1954
116.40143,39.98722,735,1954
116.40322,39.98085,736,1954
116.4115,39.96888,737,1954
116.41172,39.96267,738,1954
116.40565,39.95782,739,1954
116.40172,39.95477,740,1954
116.38333,39.86227,741,1954
116.38917,39.8639,742,1954
116.3983,39.86387,743,1954
116.40753,39.86235,744,1954
116.40763,39.8622,745,1954
116.39468,39.87045,746,1954
116.34342,39.86805,747,1954
116.34273,39.88538,748,1954
116.35045,39.89818,749,1954
116.35045,39.89818,750,1954
116.3503,39.91817,751,1954
116.35995,39.92485,752,1954
116.35898,39.92247,753,1954
116.36707,39.92265,754,1954
116.36743,39.91737,755,1954
116.36797,39.89903,756,1954
116.36832,39.888,757,1954
116.37843,39.88808,758,1954
116.38987,39.88937,759,1954
116.40595,39.89143,760,1954
116.42013,39.8921,761,1954
116.42897,39.89232,762,1954
116.44857,39.89213,763,1954
116.45495,39.90842,764,1954
116.46317,39.91525,765,1954
116.47653,39.91403,766,1954
116.4843,39.91423,767,1954
116.5029,39.9147,768,1954
116.49453,39.91467,769,1954
116.48,39.91427,770,1954
116.46368,39.91545,771,1954
116.46368,39.91545,772,1954
116.45572,39.91795,773,1954
116.45523,39.90753,774,1954
116.45523,39.90753,775,1954
116.45495,39.89305,776,1954
116.45495,39.87942,777,1954
116.44893,39.86195,778,1954
116.42918,39.85755,779,1954
116.41962,39.8643,780,1954
116.40755,39.86378,781,1954
116.40082,39.85587,782,1954
116.39418,39.86395,783,1954
116.40333,39.87045,784,1954
116.40375,39.87025,785,1954
116.40375,39.87025,786,1954
116.40375,39.87025,787,1954
116.40375,39.87025,788,1954
116.40375,39.87025,789,1954
116.40375,39.87025,790,1954
116.40375,39.87025,791,1954
116.40375,39.87025,792,1954
116.40375,39.87025,793,1954
116.40375,39.87025,794,1954
116.40375,39.87025,795,1954
116.40375,39.87025,796,1954
116.40375,39.87025,797,1954
116.40375,39.87025,798,1954
116.40375,39.87025,799,1954
116.40375,39.87025,800,1954
116.40375,39.87025,801,1954
116.40375,39.87025,802,1954
116.40375,39.87025,803,1954
116.40375,39.87025,804,1954
116.40375,39.87025,805,1954
116.40375,39.87025,806,1954
116.40375,39.87025,807,1954
116.40375,39.87025,808,1954
116.40375,39.87025,809,1954
116.40375,39.87025,810,1954
116.40375,39.87025,811,1954
116.40375,39.87025,812,1954
116.40375,39.87025,813,1954
116.40375,39.87025,814,1954
116.40375,39.87025,815,1954
116.40375,39.87025,816,1954
116.40375,39.87025,817,1954
116.40375,39.87025,818,1954
116.40375,39.87025,819,1954
116.40375,39.87025,820,1954
116.40375,39.87025,821,1954
