x,y,k,tid
116.30457,39.90267,0,2046
116.30427,39.92567,1,2046
116.30143,39.96462,2,2046
116.34705,39.98767,3,2046
116.34775,39.9662,4,2046
116.3886,39.95882,5,2046
116.41038,39.9456,6,2046
116.41085,39.93168,7,2046
116.41125,39.92035,8,2046
116.40532,39.90732,9,2046
116.41325,39.91425,10,2046
116.42005,39.92302,11,2046
116.41905,39.94878,12,2046
116.42532,39.95805,13,2046
116.4467,39.95675,14,2046
116.4755,39.98212,15,2046
116.4755,39.98212,16,2046
116.49225,39.99782,17,2046
116.5185,40.026,18,2046
116.5544,40.0953,19,2046
116.59463,40.11667,20,2046
116.651,40.11532,21,2046
116.65237,40.11427,22,2046
116.60248,40.11675,23,2046
116.56443,40.11765,24,2046
116.52987,40.10407,25,2046
116.52987,40.10407,26,2046
116.52182,40.10625,27,2046
116.52967,40.07713,28,2046
116.53442,40.05302,29,2046
116.51627,40.02288,30,2046
116.51627,40.02288,31,2046
116.49522,39.997,32,2046
116.47968,39.9811,33,2046
116.48075,39.98833,34,2046
116.48372,39.96813,35,2046
116.4438,39.94527,36,2046
116.43262,39.93957,37,2046
116.43757,39.93477,38,2046
116.42927,39.93255,39,2046
116.41845,39.94815,40,2046
116.38903,39.95508,41,2046
116.38878,39.96128,42,2046
116.3881,39.98315,43,2046
116.3809,39.99607,44,2046
116.38148,39.981,45,2046
116.3881,39.96693,46,2046
116.40685,39.9675,47,2046
116.43153,39.96727,48,2046
116.43427,39.96587,49,2046
116.43278,39.96685,50,2046
116.4296,39.96262,51,2046
116.43843,39.94248,52,2046
116.4442,39.93292,53,2046
116.45513,39.93162,54,2046
116.45537,39.90193,55,2046
116.45545,39.88788,56,2046
116.4551,39.90313,57,2046
116.43625,39.91193,58,2046
116.44135,39.9163,59,2046
116.44135,39.9163,60,2046
116.45885,39.92192,61,2046
116.4786,39.92835,62,2046
116.46615,39.9325,63,2046
116.4443,39.94097,64,2046
116.43873,39.9451,65,2046
116.44303,39.9468,66,2046
116.43675,39.93522,67,2046
116.41108,39.92865,68,2046
116.42835,39.92262,69,2046
116.43433,39.92167,70,2046
116.41132,39.84674,71,2046
116.41132,39.84674,72,2046
116.43235,39.92283,73,2046
116.45397,39.92195,74,2046
116.45697,39.9295,75,2046
116.44872,39.92563,76,2046
116.44428,39.93303,77,2046
116.44008,39.95518,78,2046
116.44658,39.95117,79,2046
116.45553,39.95147,80,2046
116.45553,39.95147,81,2046
116.44903,39.90715,82,2046
116.40525,39.90675,83,2046
116.38858,39.90628,84,2046
116.35848,39.9059,85,2046
116.34377,39.91252,86,2046
116.34165,39.9221,87,2046
116.35148,39.93907,88,2046
116.36395,39.94705,89,2046
116.34745,39.98467,90,2046
116.33242,39.99157,91,2046
116.33588,40.0372,92,2046
116.34108,40.05905,93,2046
116.34333,40.05727,94,2046
116.34333,40.05727,95,2046
116.32872,40.04533,96,2046
116.34562,40.01885,97,2046
116.35805,39.99987,98,2046
116.36377,39.97302,99,2046
116.38922,39.95082,100,2046
116.37337,39.9668,101,2046
116.30577,39.97743,102,2046
116.39012,39.96188,103,2046
116.40778,39.9628,104,2046
116.38968,39.96363,105,2046
116.39392,39.96205,106,2046
116.39182,39.9686,107,2046
116.38857,39.96308,108,2046
116.38877,39.96357,109,2046
116.3885,39.96717,110,2046
116.36318,39.97535,111,2046
116.36068,39.97638,112,2046
116.28233,39.94847,113,2046
116.30195,39.9607,114,2046
116.37935,39.96678,115,2046
116.44213,39.99447,116,2046
116.47598,40.06545,117,2046
116.51662,40.09587,118,2046
116.53665,40.09852,119,2046
116.52178,40.1063,120,2046
116.52178,40.1063,121,2046
116.53405,40.10377,122,2046
116.52257,40.10667,123,2046
116.52177,40.10595,124,2046
116.5218,40.10637,125,2046
116.52497,40.08262,126,2046
116.53537,40.0539,127,2046
116.508,40.01177,128,2046
116.49113,40.00323,129,2046
116.47232,40.00728,130,2046
116.47092,40.00282,131,2046
116.48197,40.0085,132,2046
116.48843,40.02123,133,2046
116.50268,40.04562,134,2046
116.52788,40.07915,135,2046
116.52162,40.10697,136,2046
116.53278,40.07373,137,2046
116.52962,40.04517,138,2046
116.52868,40.04307,139,2046
116.52713,40.06792,140,2046
116.52185,40.10643,141,2046
116.52185,40.10643,142,2046
116.52182,40.1062,143,2046
116.54692,40.10527,144,2046
116.55262,40.10667,145,2046
116.52182,40.10585,146,2046
116.52638,40.10487,147,2046
116.55495,40.09963,148,2046
116.54438,40.05952,149,2046
116.52382,40.03407,150,2046
116.50223,40.00672,151,2046
116.48158,39.98768,152,2046
116.45313,39.96193,153,2046
116.45313,39.96193,154,2046
116.42608,39.96832,155,2046
116.41878,39.95497,156,2046
116.4301,39.93968,157,2046
116.43697,39.93988,158,2046
116.40705,39.94783,159,2046
116.38855,39.96472,160,2046
116.4104,39.9675,161,2046
116.41022,39.96078,162,2046
116.40177,39.95115,163,2046
116.3888,39.9618,164,2046
116.3888,39.9618,165,2046
116.44423,39.93247,166,2046
116.4293,39.94012,167,2046
116.42088,39.87,168,2046
116.3931,39.86788,169,2046
116.39563,39.88573,170,2046
116.41278,39.89107,171,2046
116.41278,39.89107,172,2046
116.4118,39.91415,173,2046
116.41988,39.92283,174,2046
116.40278,39.93043,175,2046
116.40218,39.94395,176,2046
116.41905,39.95217,177,2046
116.41895,39.94905,178,2046
116.41255,39.9553,179,2046
116.41165,39.96855,180,2046
116.41168,39.96915,181,2046
116.41327,39.96763,182,2046
116.41327,39.96763,183,2046
116.46083,39.93183,184,2046
116.47638,39.97347,185,2046
116.48377,39.97935,186,2046
116.49178,39.9974,187,2046
116.5171,40.02392,188,2046
116.5171,40.02392,189,2046
116.54635,40.06097,190,2046
116.55348,40.09057,191,2046
116.54682,40.08775,192,2046
116.54682,40.08775,193,2046
116.53772,40.0986,194,2046
116.54907,40.11588,195,2046
116.55898,40.14478,196,2046
116.6272,40.1615,197,2046
116.63255,40.19257,198,2046
116.6109,40.15368,199,2046
116.55945,40.11365,200,2046
116.55082,40.07448,201,2046
116.50822,40.00967,202,2046
116.48378,39.98662,203,2046
116.47312,39.97065,204,2046
116.4427,39.96052,205,2046
116.33682,39.96637,206,2046
116.30435,39.96215,207,2046
116.30252,39.96137,208,2046
116.29315,39.96247,209,2046
116.31077,39.9639,210,2046
116.31403,39.96507,211,2046
116.32708,39.96595,212,2046
116.32708,39.96595,213,2046
116.36638,39.96632,214,2046
116.39055,39.96182,215,2046
116.41048,39.96065,216,2046
116.41048,39.96065,217,2046
116.42133,39.96073,218,2046
116.40787,39.96767,219,2046
116.3269,39.98913,220,2046
116.31788,39.9985,221,2046
116.32677,39.98928,222,2046
116.34702,39.97032,223,2046
116.35005,39.92138,224,2046
116.35983,39.90575,225,2046
116.38188,39.90472,226,2046
116.37662,39.90617,227,2046
116.36697,39.93043,228,2046
116.36605,39.94668,229,2046
116.379,39.96147,230,2046
116.379,39.96147,231,2046
116.34945,39.9333,232,2046
116.3258,39.90733,233,2046
116.32923,39.91057,234,2046
116.34723,39.92105,235,2046
116.35257,39.93893,236,2046
116.39955,39.94758,237,2046
116.42952,39.9069,238,2046
116.45445,39.89202,239,2046
116.4454,39.90252,240,2046
116.4375,39.9072,241,2046
116.4375,39.9072,242,2046
116.38717,39.90623,243,2046
116.35092,39.90598,244,2046
116.3464,39.90665,245,2046
116.35027,39.93098,246,2046
116.34853,39.96735,247,2046
116.35963,39.9662,248,2046
116.38408,39.96163,249,2046
116.40188,39.94903,250,2046
116.42755,39.9395,251,2046
116.43733,39.92822,252,2046
116.43273,39.92362,253,2046
116.44707,39.92848,254,2046
116.43633,39.91903,255,2046
116.43463,39.92078,256,2046
116.43463,39.92078,257,2046
116.4349,39.93238,258,2046
116.43755,39.93162,259,2046
116.43755,39.93162,260,2046
116.43662,39.91915,261,2046
116.43543,39.93967,262,2046
116.48015,39.95598,263,2046
116.4897,39.96133,264,2046
116.48307,39.98705,265,2046
116.50758,40.00917,266,2046
116.42768,39.93422,267,2046
116.42285,39.90625,268,2046
116.43227,39.91678,269,2046
116.43698,39.93248,270,2046
116.41907,39.93975,271,2046
116.41227,39.9575,272,2046
116.38975,39.96343,273,2046
116.38937,39.96377,274,2046
116.43962,39.99077,275,2046
116.47598,40.04382,276,2046
116.47598,40.04382,277,2046
116.53662,40.09855,278,2046
116.52177,40.10638,279,2046
116.54065,40.1039,280,2046
116.53475,40.10365,281,2046
116.52228,40.1067,282,2046
116.55518,40.10738,283,2046
116.55515,40.10742,284,2046
116.56707,40.08597,285,2046
116.56587,40.08565,286,2046
116.55633,40.10708,287,2046
116.5132,40.0955,288,2046
116.47517,40.08483,289,2046
116.44823,40.01175,290,2046
116.43088,39.96175,291,2046
116.4427,39.94708,292,2046
116.47537,40.0841,293,2046
116.51737,40.10692,294,2046
