x,y,k,tid
116.3403,39.88814,0,2118
116.34046,39.89009,1,2118
116.3429,39.87415,2,2118
116.34827,39.86465,3,2118
116.3483,39.86547,4,2118
116.34278,39.88324,5,2118
116.34278,39.88324,6,2118
116.32734,39.88867,7,2118
116.31878,39.89212,8,2118
116.31839,39.89213,9,2118
116.3467,39.89467,10,2118
116.34751,39.87697,11,2118
116.34748,39.8767,12,2118
116.34069,39.87956,13,2118
116.34766,39.87343,14,2118
116.35726,39.8717,15,2118
116.35726,39.8717,16,2118
116.35728,39.87168,17,2118
116.35729,39.87169,18,2118
116.34876,39.86836,19,2118
116.34276,39.88923,20,2118
116.32855,39.91893,21,2118
116.32782,39.92778,22,2118
116.32761,39.93191,23,2118
116.31977,39.92688,24,2118
116.32389,39.92688,25,2118
116.33658,39.92684,26,2118
116.33872,39.91715,27,2118
116.34886,39.91713,28,2118
116.35688,39.91331,29,2118
116.36521,39.90923,30,2118
116.36789,39.90041,31,2118
116.36802,39.89762,32,2118
116.36817,39.89239,33,2118
116.35263,39.88817,34,2118
116.31083,39.88479,35,2118
116.31338,39.87819,36,2118
116.31338,39.87819,37,2118
116.31219,39.87851,38,2118
116.30722,39.88075,39,2118
116.31229,39.88671,40,2118
116.31841,39.88827,41,2118
116.39413,39.89061,42,2118
116.41888,39.89218,43,2118
116.43799,39.89621,44,2118
116.45077,39.90519,45,2118
116.45462,39.90301,46,2118
116.43391,39.89234,47,2118
116.4248,39.88619,48,2118
116.42516,39.88291,49,2118
116.41286,39.89245,50,2118
116.41326,39.89548,51,2118
116.42219,39.89053,52,2118
116.42263,39.88994,53,2118
116.41516,39.88239,54,2118
116.38052,39.85968,55,2118
116.38089,39.86379,56,2118
116.3788,39.884,57,2118
116.37864,39.88681,58,2118
116.37939,39.89835,59,2118
116.37804,39.89638,60,2118
116.37816,39.8954,61,2118
116.37846,39.88811,62,2118
116.38119,39.87875,63,2118
116.38064,39.85897,64,2118
116.38053,39.85663,65,2118
116.38058,39.84709,66,2118
116.38058,39.84709,67,2118
116.39464,39.83567,68,2118
116.39572,39.81232,69,2118
116.40858,39.80368,70,2118
116.41223,39.79823,71,2118
116.40968,39.80387,72,2118
116.3822,39.80196,73,2118
116.35999,39.79292,74,2118
116.34503,39.7886,75,2118
116.3675,39.79431,76,2118
116.37138,39.79862,77,2118
116.35981,39.81228,78,2118
116.35909,39.81432,79,2118
116.38093,39.83072,80,2118
116.38037,39.84044,81,2118
116.38075,39.85456,82,2118
116.3832,39.86145,83,2118
116.3832,39.86173,84,2118
116.39836,39.87046,85,2118
116.4224,39.86969,86,2118
116.42488,39.86443,87,2118
116.42668,39.86463,88,2118
116.42495,39.86462,89,2118
116.44031,39.88034,90,2118
116.43437,39.88274,91,2118
116.42142,39.87489,92,2118
116.41344,39.87196,93,2118
116.40866,39.87183,94,2118
116.40866,39.87183,95,2118
116.36115,39.86887,96,2118
116.35836,39.86425,97,2118
116.36859,39.87045,98,2118
116.36859,39.87043,99,2118
116.37097,39.87728,100,2118
116.36887,39.86958,101,2118
116.34518,39.86817,102,2118
116.34759,39.87633,103,2118
116.35168,39.88627,104,2118
116.35168,39.88627,105,2118
116.35084,39.88623,106,2118
116.35304,39.87886,107,2118
116.35299,39.87525,108,2118
116.35729,39.87668,109,2118
116.3574,39.89098,110,2118
116.3579,39.89788,111,2118
116.36848,39.89498,112,2118
116.37845,39.89158,113,2118
116.37843,39.89121,114,2118
116.37841,39.88844,115,2118
116.37841,39.88844,116,2118
116.39171,39.87945,117,2118
116.39487,39.8723,118,2118
116.38417,39.87091,119,2118
116.35483,39.86866,120,2118
116.35483,39.86866,121,2118
116.35034,39.86834,122,2118
116.35903,39.87692,123,2118
116.37556,39.88143,124,2118
116.37776,39.88403,125,2118
116.38485,39.87948,126,2118
116.38324,39.87936,127,2118
116.38064,39.86055,128,2118
116.38055,39.85697,129,2118
116.3774,39.84862,130,2118
116.36774,39.851,131,2118
116.36568,39.84938,132,2118
116.36495,39.84579,133,2118
116.36495,39.84579,134,2118
116.38462,39.85565,135,2118
116.43215,39.8575,136,2118
116.39751,39.87062,137,2118
116.36825,39.90056,138,2118
116.3766,39.88811,139,2118
116.36809,39.87641,140,2118
116.36759,39.86303,141,2118
116.36912,39.84342,142,2118
116.36937,39.84362,143,2118
116.36318,39.84463,144,2118
116.34537,39.84093,145,2118
116.3391,39.82431,146,2118
116.33887,39.82276,147,2118
116.31711,39.81753,148,2118
116.30231,39.80949,149,2118
116.3161,39.79321,150,2118
116.33039,39.77121,151,2118
116.33422,39.77119,152,2118
116.33695,39.75799,153,2118
116.33897,39.73164,154,2118
116.339,39.73198,155,2118
116.33928,39.7318,156,2118
116.3411,39.73349,157,2118
116.34109,39.73348,158,2118
116.3411,39.73347,159,2118
116.3411,39.73348,160,2118
116.34109,39.7335,161,2118
116.34109,39.7335,162,2118
116.34104,39.73376,163,2118
116.34104,39.73373,164,2118
116.34105,39.73368,165,2118
116.34105,39.73364,166,2118
116.34105,39.73364,167,2118
116.34131,39.73378,168,2118
116.34115,39.73372,169,2118
116.34115,39.73373,170,2118
116.34115,39.73372,171,2118
116.34116,39.73371,172,2118
116.34116,39.73371,173,2118
116.34117,39.73371,174,2118
116.34117,39.73371,175,2118
116.34117,39.7337,176,2118
116.34116,39.73369,177,2118
116.34116,39.73368,178,2118
116.34116,39.73367,179,2118
116.34116,39.73367,180,2118
116.34116,39.73367,181,2118
116.34115,39.73367,182,2118
116.34115,39.73366,183,2118
116.34122,39.73332,184,2118
116.3411,39.73342,185,2118
116.34102,39.7334,186,2118
116.34102,39.7334,187,2118
116.3414,39.73348,188,2118
116.34135,39.73349,189,2118
116.34132,39.73348,190,2118
116.34129,39.73349,191,2118
116.34129,39.7335,192,2118
116.34126,39.73349,193,2118
116.34119,39.7335,194,2118
116.34119,39.73349,195,2118
116.34123,39.73348,196,2118
116.34119,39.73347,197,2118
116.34096,39.7338,198,2118
116.34128,39.73325,199,2118
116.34116,39.73347,200,2118
116.34117,39.73348,201,2118
116.34117,39.73352,202,2118
116.34118,39.73353,203,2118
116.34119,39.73354,204,2118
116.34117,39.73354,205,2118
116.34107,39.73356,206,2118
116.34127,39.73363,207,2118
116.34118,39.73363,208,2118
116.34115,39.73368,209,2118
116.34108,39.73363,210,2118
116.34102,39.7336,211,2118
116.34112,39.73351,212,2118
116.341,39.73359,213,2118
116.34105,39.73357,214,2118
116.34121,39.73348,215,2118
116.3412,39.73355,216,2118
116.34117,39.73354,217,2118
116.34114,39.73356,218,2118
116.34111,39.73359,219,2118
116.34111,39.73359,220,2118
116.3411,39.73361,221,2118
116.34108,39.73361,222,2118
116.34116,39.73344,223,2118
116.34113,39.73346,224,2118
116.34109,39.73349,225,2118
116.34108,39.73351,226,2118
116.34107,39.73353,227,2118
116.34111,39.7337,228,2118
116.34098,39.73358,229,2118
116.34125,39.73352,230,2118
116.34123,39.73355,231,2118
116.34115,39.73365,232,2118
116.34112,39.7336,233,2118
116.34107,39.73355,234,2118
116.34109,39.73356,235,2118
116.34104,39.73357,236,2118
116.34131,39.73355,237,2118
116.33951,39.73815,238,2118
116.33733,39.76022,239,2118
116.33991,39.78251,240,2118
116.3516,39.82953,241,2118
116.35334,39.84695,242,2118
116.35341,39.84879,243,2118
116.40007,39.8556,244,2118
116.40017,39.85597,245,2118
116.39444,39.86048,246,2118
116.40282,39.8638,247,2118
116.40724,39.87052,248,2118
116.38299,39.87082,249,2118
116.34805,39.86858,250,2118
116.345,39.87647,251,2118
116.33013,39.86693,252,2118
116.31011,39.8668,253,2118
116.30948,39.86688,254,2118
116.31145,39.881,255,2118
116.31118,39.88366,256,2118
116.30899,39.88665,257,2118
116.30434,39.91504,258,2118
116.31175,39.92072,259,2118
116.33786,39.91698,260,2118
116.34921,39.917,261,2118
116.35039,39.91811,262,2118
116.3528,39.91919,263,2118
116.35969,39.93094,264,2118
116.3847,39.92061,265,2118
116.3856,39.90305,266,2118
116.38831,39.8963,267,2118
116.38433,39.88842,268,2118
116.38002,39.88824,269,2118
116.36897,39.88798,270,2118
116.35842,39.88794,271,2118
116.33385,39.88615,272,2118
116.32814,39.88321,273,2118
116.32814,39.88321,274,2118
116.328,39.8762,275,2118
116.32514,39.87591,276,2118
116.3205,39.88263,277,2118
116.31831,39.88872,278,2118
116.31044,39.88614,279,2118
116.3041,39.93395,280,2118
116.30365,39.9744,281,2118
116.31218,39.9727,282,2118
116.31375,39.9688,283,2118
116.31263,39.96442,284,2118
116.30646,39.94423,285,2118
116.30557,39.94013,286,2118
116.31469,39.9311,287,2118
116.32417,39.93099,288,2118
116.33704,39.93127,289,2118
116.33817,39.92231,290,2118
116.35166,39.91993,291,2118
116.35191,39.91898,292,2118
116.35154,39.91935,293,2118
116.35144,39.91931,294,2118
116.34943,39.91802,295,2118
116.35018,39.92186,296,2118
116.36212,39.94615,297,2118
116.4258,39.94787,298,2118
116.44901,39.9399,299,2118
116.46291,39.94549,300,2118
116.45699,39.94826,301,2118
116.43719,39.96394,302,2118
116.40783,39.96795,303,2118
116.38849,39.9616,304,2118
116.40494,39.94767,305,2118
116.40507,39.94768,306,2118
116.44614,39.95143,307,2118
116.44571,39.94662,308,2118
116.43603,39.93985,309,2118
116.42605,39.92944,310,2118
116.42637,39.92962,311,2118
116.42577,39.9294,312,2118
116.42544,39.92967,313,2118
116.42588,39.93227,314,2118
116.43004,39.93885,315,2118
116.43004,39.93872,316,2118
116.42607,39.92602,317,2118
116.42152,39.92303,318,2118
116.42064,39.90937,319,2118
116.42081,39.90829,320,2118
116.42343,39.90696,321,2118
116.45447,39.90668,322,2118
116.46554,39.9056,323,2118
116.43725,39.90143,324,2118
116.43777,39.87123,325,2118
116.41974,39.87002,326,2118
116.401,39.87073,327,2118
116.35514,39.86737,328,2118
116.33989,39.84542,329,2118
116.29769,39.82941,330,2118
116.2814,39.83468,331,2118
116.27801,39.83068,332,2118
116.28352,39.83129,333,2118
116.28319,39.83132,334,2118
116.28302,39.83072,335,2118
116.28302,39.83072,336,2118
116.32966,39.82927,337,2118
116.34126,39.85483,338,2118
116.34826,39.86706,339,2118
116.34767,39.87443,340,2118
116.3464,39.88002,341,2118
116.3464,39.88002,342,2118
116.34628,39.88183,343,2118
116.34622,39.88182,344,2118
116.34393,39.88247,345,2118
116.34387,39.88415,346,2118
116.34312,39.89763,347,2118
116.32255,39.89596,348,2118
116.32094,39.89584,349,2118
116.32066,39.89594,350,2118
116.31524,39.90402,351,2118
116.3311,39.90139,352,2118
116.33869,39.90062,353,2118
116.33963,39.90003,354,2118
116.34237,39.88379,355,2118
116.34583,39.87626,356,2118
116.35548,39.87598,357,2118
116.35728,39.87678,358,2118
116.36839,39.88136,359,2118
116.36855,39.8957,360,2118
116.36801,39.90323,361,2118
116.36805,39.90513,362,2118
116.35835,39.90602,363,2118
116.3335,39.90627,364,2118
116.32212,39.90617,365,2118
116.31173,39.9063,366,2118
116.30387,39.8979,367,2118
116.30123,39.8823,368,2118
116.29681,39.88471,369,2118
116.29681,39.8847,370,2118
116.29681,39.8847,371,2118
116.29666,39.88637,372,2118
116.30453,39.88082,373,2118
116.30686,39.86185,374,2118
116.31156,39.86623,375,2118
116.31497,39.86645,376,2118
116.32677,39.87174,377,2118
116.32955,39.87176,378,2118
116.33025,39.8836,379,2118
116.34271,39.89243,380,2118
116.36023,39.90584,381,2118
116.37293,39.90576,382,2118
116.3862,39.90602,383,2118
116.39051,39.90618,384,2118
116.42046,39.90481,385,2118
116.42046,39.90481,386,2118
116.42071,39.90525,387,2118
116.42049,39.91405,388,2118
116.4069,39.91288,389,2118
116.41463,39.91423,390,2118
116.41176,39.90592,391,2118
116.41202,39.90017,392,2118
116.41201,39.89567,393,2118
116.41472,39.87624,394,2118
116.42109,39.85644,395,2118
116.42212,39.84044,396,2118
116.42139,39.83608,397,2118
116.42136,39.85711,398,2118
116.41573,39.86253,399,2118
116.41965,39.86966,400,2118
116.44437,39.87006,401,2118
116.44437,39.87006,402,2118
116.46463,39.87006,403,2118
116.46629,39.8705,404,2118
116.45538,39.87613,405,2118
116.44166,39.88335,406,2118
116.41885,39.88157,407,2118
116.41762,39.87965,408,2118
116.41462,39.88207,409,2118
116.41503,39.87131,410,2118
116.41885,39.86535,411,2118
116.43284,39.86884,412,2118
116.45003,39.88226,413,2118
116.4402,39.8767,414,2118
116.4402,39.8767,415,2118
116.43041,39.90159,416,2118
116.43041,39.90159,417,2118
116.42077,39.91077,418,2118
116.41148,39.91967,419,2118
116.3969,39.91094,420,2118
116.37935,39.90596,421,2118
116.3545,39.90597,422,2118
116.31638,39.90628,423,2118
116.30402,39.88951,424,2118
116.30402,39.88951,425,2118
116.30141,39.89097,426,2118
116.30411,39.88579,427,2118
116.31691,39.84651,428,2118
116.33908,39.8463,429,2118
116.35109,39.8446,430,2118
116.35039,39.8446,431,2118
116.3234,39.84784,432,2118
116.30982,39.89564,433,2118
116.31095,39.89552,434,2118
116.31518,39.89694,435,2118
116.35362,39.91976,436,2118
116.35398,39.9218,437,2118
116.35398,39.9218,438,2118
116.3288,39.92182,439,2118
116.28348,39.92297,440,2118
116.25409,39.92324,441,2118
116.24388,39.92593,442,2118
116.30382,39.92143,443,2118
116.30436,39.91979,444,2118
116.31775,39.92676,445,2118
116.3428,39.92662,446,2118
116.35124,39.91819,447,2118
116.35117,39.91828,448,2118
116.35121,39.91874,449,2118
116.35121,39.91874,450,2118
116.35405,39.92088,451,2118
116.35438,39.92102,452,2118
116.3535,39.9199,453,2118
116.35024,39.94864,454,2118
116.34617,40.01245,455,2118
116.35014,40.02138,456,2118
116.3357,40.03731,457,2118
116.31574,40.04834,458,2118
116.3032,40.04875,459,2118
116.29405,40.04598,460,2118
116.30388,40.03523,461,2118
116.31201,40.01197,462,2118
116.30973,39.99029,463,2118
116.31065,39.97962,464,2118
116.31705,39.95638,465,2118
116.31942,39.93785,466,2118
116.33741,39.93699,467,2118
116.35361,39.9126,468,2118
116.34654,39.90033,469,2118
116.34276,39.87651,470,2118
116.33812,39.84862,471,2118
116.33863,39.81764,472,2118
116.34196,39.78907,473,2118
116.33523,39.77069,474,2118
116.33849,39.74212,475,2118
116.33893,39.7317,476,2118
116.33901,39.73186,477,2118
116.3395,39.73066,478,2118
116.3412,39.73325,479,2118
116.34118,39.73323,480,2118
116.34118,39.73322,481,2118
116.34118,39.73322,482,2118
116.34116,39.73323,483,2118
116.34116,39.73323,484,2118
116.34102,39.73316,485,2118
116.34102,39.73322,486,2118
116.34096,39.7333,487,2118
116.34098,39.73329,488,2118
116.34099,39.73329,489,2118
116.34107,39.73338,490,2118
116.34109,39.73332,491,2118
116.3412,39.73317,492,2118
116.34112,39.73316,493,2118
116.34113,39.73318,494,2118
116.34111,39.7332,495,2118
116.34111,39.7332,496,2118
116.34112,39.7332,497,2118
116.34123,39.73336,498,2118
116.34119,39.73335,499,2118
116.34118,39.73333,500,2118
116.34116,39.73333,501,2118
116.34115,39.73332,502,2118
116.34114,39.73331,503,2118
116.34114,39.7333,504,2118
116.34114,39.73329,505,2118
116.34115,39.73328,506,2118
116.34115,39.73328,507,2118
116.34114,39.73329,508,2118
116.34107,39.7334,509,2118
116.3411,39.73335,510,2118
116.3411,39.73335,511,2118
116.34111,39.73333,512,2118
116.34112,39.7333,513,2118
116.34111,39.7333,514,2118
116.34112,39.7333,515,2118
116.34113,39.73329,516,2118
116.34113,39.73328,517,2118
116.34113,39.73328,518,2118
116.34113,39.73327,519,2118
116.34113,39.73326,520,2118
116.34115,39.73327,521,2118
116.34114,39.73326,522,2118
116.34113,39.73325,523,2118
116.34111,39.73321,524,2118
116.34111,39.7332,525,2118
116.33929,39.74036,526,2118
116.33929,39.74036,527,2118
116.33621,39.76785,528,2118
116.3497,39.79137,529,2118
116.37129,39.79938,530,2118
116.3508,39.81754,531,2118
116.34005,39.83924,532,2118
116.3651,39.8446,533,2118
116.36517,39.84746,534,2118
116.36517,39.84746,535,2118
116.369,39.86634,536,2118
116.3683,39.87611,537,2118
116.36811,39.88618,538,2118
116.36828,39.89695,539,2118
116.36788,39.90549,540,2118
116.37324,39.93733,541,2118
116.37092,39.9314,542,2118
116.37145,39.91523,543,2118
116.35725,39.90003,544,2118
116.35655,39.89833,545,2118
116.33658,39.88815,546,2118
116.35016,39.8972,547,2118
116.35133,39.9004,548,2118
116.35727,39.90542,549,2118
116.35727,39.90542,550,2118
116.35731,39.91212,551,2118
116.34967,39.93468,552,2118
116.34602,39.94047,553,2118
116.34007,39.94836,554,2118
116.34152,39.95687,555,2118
116.34877,39.95178,556,2118
116.3499,39.92649,557,2118
116.3392,39.84806,558,2118
116.36619,39.85546,559,2118
116.40261,39.85542,560,2118
116.39435,39.85742,561,2118
116.40675,39.8704,562,2118
116.37866,39.87047,563,2118
116.36846,39.8742,564,2118
116.36831,39.87463,565,2118
116.4165,39.86983,566,2118
116.42467,39.86696,567,2118
116.42436,39.86604,568,2118
116.41744,39.86424,569,2118
116.41616,39.86426,570,2118
116.41272,39.89104,571,2118
116.3952,39.89063,572,2118
116.38646,39.90049,573,2118
116.38963,39.90034,574,2118
116.39234,39.8849,575,2118
116.39397,39.85557,576,2118
116.4061,39.85545,577,2118
116.40731,39.84532,578,2118
116.40824,39.84455,579,2118
116.40802,39.85319,580,2118
116.39316,39.86049,581,2118
116.38381,39.85581,582,2118
116.32745,39.84765,583,2118
116.30428,39.8878,584,2118
116.31034,39.92682,585,2118
116.31974,39.92819,586,2118
116.32227,39.93002,587,2118
116.34751,39.931,588,2118
116.35384,39.93911,589,2118
116.36118,39.9279,590,2118
116.35757,39.91342,591,2118
116.35624,39.89838,592,2118
116.35227,39.89923,593,2118
116.31094,39.93857,594,2118
116.30748,39.94051,595,2118
116.31559,39.93095,596,2118
116.31559,39.93095,597,2118
116.31559,39.93095,598,2118
116.31559,39.93095,599,2118
116.32554,39.93107,600,2118
116.34699,39.92072,601,2118
116.35684,39.89917,602,2118
116.35723,39.88903,603,2118
116.35315,39.88202,604,2118
116.3475,39.87847,605,2118
116.35025,39.87205,606,2118
116.35745,39.87171,607,2118
116.35751,39.87163,608,2118
116.35746,39.87166,609,2118
116.35747,39.87162,610,2118
116.35751,39.87181,611,2118
116.35745,39.87158,612,2118
116.35793,39.86843,613,2118
116.34872,39.86828,614,2118
116.36486,39.84709,615,2118
116.36482,39.8462,616,2118
116.36455,39.83378,617,2118
116.35341,39.80986,618,2118
116.33934,39.821,619,2118
116.34001,39.84309,620,2118
116.35322,39.84599,621,2118
116.3532,39.8499,622,2118
116.3532,39.8499,623,2118
116.35963,39.84942,624,2118
116.37313,39.84943,625,2118
116.38071,39.85307,626,2118
116.37783,39.86147,627,2118
116.36832,39.86981,628,2118
116.36791,39.87502,629,2118
116.36788,39.87502,630,2118
116.35894,39.86899,631,2118
116.3461,39.87617,632,2118
116.3649,39.87709,633,2118
116.36502,39.85435,634,2118
116.40673,39.85546,635,2118
116.40813,39.84542,636,2118
116.40836,39.84482,637,2118
116.42233,39.85015,638,2118
116.4258,39.85779,639,2118
116.42427,39.86553,640,2118
116.44102,39.87491,641,2118
116.42805,39.85766,642,2118
116.41834,39.85694,643,2118
116.40911,39.85605,644,2118
116.39617,39.85601,645,2118
116.40051,39.86497,646,2118
116.40048,39.86492,647,2118
116.39422,39.86639,648,2118
116.40354,39.87055,649,2118
116.40712,39.87162,650,2118
116.3813,39.87837,651,2118
116.39142,39.87374,652,2118
116.36317,39.86934,653,2118
116.35782,39.86693,654,2118
116.35782,39.86693,655,2118
116.3685,39.86867,656,2118
116.39316,39.86425,657,2118
116.38076,39.85952,658,2118
116.38135,39.87629,659,2118
116.39723,39.87038,660,2118
116.40604,39.87052,661,2118
116.40708,39.87195,662,2118
116.39632,39.87143,663,2118
116.36827,39.87426,664,2118
116.366,39.8819,665,2118
116.38357,39.88832,666,2118
116.41206,39.89159,667,2118
116.41249,39.8987,668,2118
116.41194,39.91067,669,2118
116.41199,39.91068,670,2118
116.41199,39.91068,671,2118
116.42104,39.90474,672,2118
116.42104,39.90474,673,2118
116.43358,39.86958,674,2118
116.43238,39.85915,675,2118
116.44756,39.85041,676,2118
116.44925,39.84632,677,2118
116.44354,39.85854,678,2118
116.42449,39.86226,679,2118
116.41315,39.86407,680,2118
116.39666,39.86401,681,2118
116.38798,39.85834,682,2118
116.37687,39.87024,683,2118
116.36844,39.87427,684,2118
116.36831,39.89034,685,2118
116.36809,39.89203,686,2118
116.36801,39.8788,687,2118
116.35779,39.87747,688,2118
116.35076,39.88221,689,2118
116.347,39.89599,690,2118
116.34634,39.90407,691,2118
116.35712,39.89381,692,2118
116.35726,39.88617,693,2118
116.35784,39.87791,694,2118
116.35886,39.84987,695,2118
116.35886,39.84987,696,2118
116.35605,39.84178,697,2118
116.33011,39.8295,698,2118
116.27774,39.84921,699,2118
116.28202,39.86051,700,2118
116.29376,39.86371,701,2118
116.28295,39.85813,702,2118
116.28295,39.85813,703,2118
116.30586,39.85671,704,2118
116.30586,39.85671,705,2118
116.33859,39.8459,706,2118
116.33858,39.84591,707,2118
116.34258,39.84852,708,2118
116.3773,39.85626,709,2118
116.37322,39.87004,710,2118
116.36834,39.88756,711,2118
116.36812,39.89092,712,2118
116.36795,39.87083,713,2118
116.34817,39.864,714,2118
116.34816,39.86398,715,2118
116.3664,39.86855,716,2118
116.36835,39.8829,717,2118
116.36786,39.88822,718,2118
116.35763,39.89208,719,2118
116.35707,39.89742,720,2118
116.30898,39.93051,721,2118
116.30908,39.92978,722,2118
116.32786,39.92745,723,2118
116.33178,39.92163,724,2118
116.34947,39.93635,725,2118
116.36822,39.98067,726,2118
116.37298,39.93855,727,2118
116.3711,39.92111,728,2118
116.37159,39.91333,729,2118
116.38515,39.90605,730,2118
116.43118,39.90703,731,2118
116.45694,39.8919,732,2118
116.45936,39.88788,733,2118
116.45484,39.88584,734,2118
116.39062,39.85528,735,2118
116.39398,39.8442,736,2118
116.39475,39.80163,737,2118
116.36702,39.7943,738,2118
116.34246,39.78884,739,2118
116.33702,39.75631,740,2118
116.33934,39.7321,741,2118
116.33934,39.7321,742,2118
116.33875,39.73176,743,2118
116.33934,39.7315,744,2118
116.33925,39.73149,745,2118
116.33872,39.73178,746,2118
116.33893,39.73244,747,2118
116.33876,39.73203,748,2118
116.34113,39.73324,749,2118
116.34117,39.73324,750,2118
116.34117,39.73324,751,2118
116.34116,39.73323,752,2118
116.34115,39.73322,753,2118
116.34112,39.73324,754,2118
116.34112,39.73324,755,2118
116.34111,39.73322,756,2118
116.34102,39.73353,757,2118
116.34106,39.73311,758,2118
116.34106,39.73312,759,2118
116.34107,39.73316,760,2118
116.34107,39.73317,761,2118
116.34107,39.73317,762,2118
116.34106,39.73317,763,2118
116.34106,39.73316,764,2118
116.34105,39.73316,765,2118
116.34105,39.73316,766,2118
116.34106,39.73317,767,2118
116.34107,39.73318,768,2118
116.34108,39.73318,769,2118
116.34109,39.73318,770,2118
116.3411,39.73318,771,2118
116.34108,39.73336,772,2118
116.34113,39.7333,773,2118
116.34114,39.7334,774,2118
116.34106,39.73331,775,2118
116.34109,39.73328,776,2118
116.34116,39.73326,777,2118
116.34115,39.73324,778,2118
116.34137,39.73313,779,2118
116.34102,39.73325,780,2118
116.34103,39.73309,781,2118
116.34105,39.73311,782,2118
116.34106,39.73313,783,2118
116.34106,39.73314,784,2118
116.34106,39.73314,785,2118
116.34107,39.73314,786,2118
116.34102,39.7333,787,2118
116.34101,39.73331,788,2118
116.34103,39.73329,789,2118
116.34106,39.73327,790,2118
116.34109,39.73326,791,2118
116.34111,39.73326,792,2118
116.34112,39.73327,793,2118
116.34112,39.73326,794,2118
116.34111,39.73325,795,2118
116.34112,39.73325,796,2118
116.34113,39.73324,797,2118
116.34113,39.73324,798,2118
116.34114,39.73324,799,2118
116.34114,39.73324,800,2118
116.34115,39.73323,801,2118
116.34115,39.73322,802,2118
116.34114,39.73323,803,2118
116.34114,39.73322,804,2118
116.33991,39.7247,805,2118
116.36754,39.72055,806,2118
116.43055,39.72112,807,2118
116.47693,39.70355,808,2118
116.51005,39.67147,809,2118
116.56712,39.65413,810,2118
116.56629,39.65245,811,2118
116.57631,39.65079,812,2118
116.588,39.62532,813,2118
116.58939,39.62634,814,2118
116.58939,39.62634,815,2118
116.57598,39.65337,816,2118
116.57493,39.69071,817,2118
116.54779,39.75657,818,2118
116.52653,39.77447,819,2118
116.49419,39.79449,820,2118
116.47477,39.79927,821,2118
116.44784,39.82297,822,2118
116.44389,39.826,823,2118
116.42711,39.83584,824,2118
116.42222,39.84533,825,2118
116.43212,39.83219,826,2118
116.46144,39.81231,827,2118
116.47819,39.79297,828,2118
116.49341,39.79031,829,2118
116.48702,39.8016,830,2118
116.46274,39.81127,831,2118
116.44147,39.8301,832,2118
116.44499,39.82473,833,2118
116.44486,39.8248,834,2118
116.44488,39.8248,835,2118
116.44425,39.82501,836,2118
116.44423,39.82496,837,2118
116.44423,39.82492,838,2118
116.44423,39.82493,839,2118
116.44423,39.82492,840,2118
116.44423,39.82492,841,2118
116.44431,39.82492,842,2118
116.44276,39.82755,843,2118
116.44038,39.85729,844,2118
116.45519,39.89407,845,2118
116.46799,39.9056,846,2118
116.45508,39.89674,847,2118
116.45179,39.89211,848,2118
116.4387,39.89244,849,2118
116.42977,39.90519,850,2118
116.43938,39.92169,851,2118
116.43971,39.92168,852,2118
116.43522,39.91546,853,2118
116.42837,39.92801,854,2118
116.34947,39.93634,855,2118
116.42789,39.92991,856,2118
116.41484,39.92297,857,2118
116.40025,39.91867,858,2118
116.40045,39.90697,859,2118
116.40045,39.90697,860,2118
116.4007,39.9002,861,2118
116.40904,39.89362,862,2118
116.37048,39.80279,863,2118
116.40908,39.89336,864,2118
116.39498,39.89435,865,2118
116.3648,39.90269,866,2118
116.3648,39.90269,867,2118
116.36244,39.89947,868,2118
116.32295,39.8962,869,2118
116.32227,39.89922,870,2118
116.31693,39.89603,871,2118
116.23328,39.90258,872,2118
116.27428,39.8992,873,2118
116.28749,39.89896,874,2118
116.314,39.90614,875,2118
116.38298,39.90596,876,2118
116.40678,39.9067,877,2118
116.42905,39.91097,878,2118
116.43134,39.9396,879,2118
116.43262,39.94204,880,2118
116.43253,39.9422,881,2118
116.43947,39.95079,882,2118
116.45091,39.95944,883,2118
116.47776,39.97478,884,2118
116.48365,39.96997,885,2118
116.48065,39.9565,886,2118
116.45515,39.94768,887,2118
116.44528,39.93259,888,2118
116.43308,39.93255,889,2118
116.42751,39.9348,890,2118
116.42828,39.91693,891,2118
116.4388,39.88483,892,2118
116.4153,39.86569,893,2118
116.40912,39.85591,894,2118
116.4079,39.85392,895,2118
116.40806,39.8532,896,2118
116.40731,39.85589,897,2118
116.39443,39.86029,898,2118
116.39442,39.86029,899,2118
116.39442,39.8603,900,2118
116.39417,39.86339,901,2118
116.39403,39.8675,902,2118
116.39784,39.87152,903,2118
116.39651,39.87146,904,2118
116.36827,39.87578,905,2118
116.36837,39.8851,906,2118
116.36836,39.88652,907,2118
116.36833,39.89684,908,2118
116.36802,39.90375,909,2118
116.36803,39.90623,910,2118
116.36784,39.90874,911,2118
116.36913,39.90994,912,2118
116.37001,39.90949,913,2118
116.37024,39.90875,914,2118
116.37006,39.90776,915,2118
116.36774,39.90605,916,2118
116.42076,39.9079,917,2118
116.43767,39.90404,918,2118
116.43764,39.90442,919,2118
116.43748,39.90671,920,2118
116.43492,39.90751,921,2118
116.43491,39.90908,922,2118
116.43491,39.90908,923,2118
116.44408,39.90766,924,2118
116.45496,39.89307,925,2118
116.46782,39.89186,926,2118
116.46782,39.89186,927,2118
116.46455,39.88323,928,2118
116.45546,39.89077,929,2118
116.45584,39.89888,930,2118
116.44973,39.89584,931,2118
116.43315,39.89134,932,2118
116.43407,39.8862,933,2118
116.43136,39.87641,934,2118
116.41524,39.86715,935,2118
116.41024,39.85598,936,2118
116.41016,39.85605,937,2118
116.40698,39.85593,938,2118
116.40351,39.85578,939,2118
116.3806,39.853,940,2118
116.38059,39.853,941,2118
116.37529,39.85255,942,2118
116.38265,39.85944,943,2118
116.38796,39.85774,944,2118
116.38801,39.85772,945,2118
116.38801,39.85771,946,2118
116.38801,39.8577,947,2118
116.38797,39.85684,948,2118
116.38114,39.85939,949,2118
116.38114,39.85939,950,2118
116.37958,39.87053,951,2118
116.37958,39.87053,952,2118
116.35296,39.86849,953,2118
116.34401,39.88176,954,2118
116.34594,39.88223,955,2118
116.34446,39.88796,956,2118
116.35024,39.89947,957,2118
116.35094,39.91134,958,2118
116.35037,39.9013,959,2118
116.33516,39.8887,960,2118
116.33025,39.88175,961,2118
116.32842,39.87973,962,2118
116.32842,39.87973,963,2118
116.32681,39.87989,964,2118
116.34789,39.88201,965,2118
116.34508,39.89621,966,2118
116.34547,39.89631,967,2118
116.35062,39.91586,968,2118
116.35098,39.91845,969,2118
116.35123,39.91838,970,2118
116.35123,39.91838,971,2118
116.35129,39.91925,972,2118
116.35103,39.92219,973,2118
116.37105,39.92159,974,2118
116.384,39.92082,975,2118
116.40413,39.92286,976,2118
116.40413,39.92286,977,2118
116.42874,39.92265,978,2118
116.42874,39.92265,979,2118
116.43926,39.92184,980,2118
116.44926,39.91661,981,2118
116.44718,39.91845,982,2118
116.44718,39.91845,983,2118
116.45502,39.90755,984,2118
116.43081,39.90217,985,2118
116.42843,39.92422,986,2118
116.42474,39.94851,987,2118
116.42768,39.93141,988,2118
116.41569,39.91426,989,2118
116.39835,39.91388,990,2118
116.37588,39.92133,991,2118
116.3616,39.91297,992,2118
116.35122,39.91913,993,2118
116.35072,39.91731,994,2118
116.3496,39.91698,995,2118
116.35018,39.90662,996,2118
116.34182,39.88977,997,2118
116.34182,39.88977,998,2118
116.34094,39.86759,999,2118
116.36184,39.86833,1000,2118
116.38963,39.86977,1001,2118
116.39416,39.84409,1002,2118
116.39546,39.81722,1003,2118
116.4013,39.80363,1004,2118
116.41327,39.79273,1005,2118
116.44774,39.74538,1006,2118
116.46855,39.71361,1007,2118
116.49227,39.6865,1008,2118
116.50003,39.67793,1009,2118
116.52585,39.67169,1010,2118
116.56689,39.65479,1011,2118
116.56689,39.65479,1012,2118
116.56618,39.65248,1013,2118
116.56618,39.65248,1014,2118
116.56617,39.65248,1015,2118
116.56617,39.65248,1016,2118
116.56617,39.65248,1017,2118
116.56617,39.65248,1018,2118
116.56618,39.65249,1019,2118
116.56618,39.6525,1020,2118
116.56617,39.6525,1021,2118
116.56617,39.6525,1022,2118
116.56617,39.6525,1023,2118
116.56617,39.6525,1024,2118
116.56617,39.6525,1025,2118
116.56617,39.65251,1026,2118
116.56616,39.65251,1027,2118
116.56616,39.65252,1028,2118
116.56616,39.65252,1029,2118
116.56616,39.65252,1030,2118
116.56616,39.65252,1031,2118
116.56616,39.65252,1032,2118
116.56616,39.65252,1033,2118
116.56616,39.65252,1034,2118
116.56616,39.65252,1035,2118
116.56616,39.65252,1036,2118
116.56616,39.65252,1037,2118
116.56616,39.65252,1038,2118
116.56616,39.65252,1039,2118
116.56609,39.65257,1040,2118
116.56609,39.65257,1041,2118
116.5661,39.65257,1042,2118
116.5661,39.65256,1043,2118
116.5661,39.65256,1044,2118
116.56611,39.65256,1045,2118
116.56611,39.65256,1046,2118
116.56611,39.65256,1047,2118
116.56611,39.65255,1048,2118
116.56612,39.65256,1049,2118
116.56613,39.65256,1050,2118
116.56613,39.65256,1051,2118
116.56613,39.65256,1052,2118
116.56612,39.65257,1053,2118
116.56612,39.65257,1054,2118
116.56612,39.65257,1055,2118
116.56612,39.65257,1056,2118
116.56612,39.65257,1057,2118
116.56612,39.65257,1058,2118
116.56612,39.65257,1059,2118
116.56612,39.65257,1060,2118
116.56612,39.65257,1061,2118
116.56612,39.65257,1062,2118
116.56612,39.65257,1063,2118
116.56612,39.65257,1064,2118
116.56612,39.65257,1065,2118
116.56612,39.65257,1066,2118
116.56612,39.65257,1067,2118
116.56612,39.65257,1068,2118
116.56612,39.65257,1069,2118
116.56612,39.65257,1070,2118
116.56611,39.65257,1071,2118
116.56611,39.65257,1072,2118
116.56611,39.65257,1073,2118
116.56611,39.65257,1074,2118
116.56611,39.65257,1075,2118
116.56611,39.65257,1076,2118
116.56611,39.65257,1077,2118
116.56611,39.65257,1078,2118
116.56611,39.65257,1079,2118
116.56621,39.65245,1080,2118
116.57767,39.64262,1081,2118
116.57834,39.63878,1082,2118
116.56073,39.66126,1083,2118
116.50229,39.67399,1084,2118
116.4962,39.68223,1085,2118
116.4962,39.68223,1086,2118
116.49151,39.68747,1087,2118
116.45685,39.72724,1088,2118
116.43677,39.77044,1089,2118
116.41291,39.79658,1090,2118
116.39642,39.80957,1091,2118
116.38071,39.84764,1092,2118
116.37434,39.85071,1093,2118
116.38117,39.86325,1094,2118
116.38703,39.88391,1095,2118
116.38712,39.88418,1096,2118
116.37855,39.88759,1097,2118
116.35256,39.88817,1098,2118
116.32406,39.88897,1099,2118
116.34648,39.88797,1100,2118
116.35023,39.88212,1101,2118
116.35014,39.88195,1102,2118
116.35459,39.87662,1103,2118
116.34808,39.86663,1104,2118
116.36426,39.86427,1105,2118
116.36505,39.84608,1106,2118
116.38047,39.85566,1107,2118
116.38142,39.86344,1108,2118
116.40375,39.87053,1109,2118
116.36617,39.85997,1110,2118
116.36507,39.85364,1111,2118
116.36466,39.84941,1112,2118
116.34336,39.87526,1113,2118
116.3231,39.89741,1114,2118
116.32452,39.90138,1115,2118
116.33562,39.90193,1116,2118
116.34005,39.9019,1117,2118
116.56617,39.65254,1118,2118
116.35044,39.89488,1119,2118
116.35727,39.88725,1120,2118
116.35261,39.88764,1121,2118
116.35281,39.88223,1122,2118
116.36322,39.87708,1123,2118
116.38075,39.87758,1124,2118
116.38579,39.87103,1125,2118
116.35308,39.87161,1126,2118
116.35426,39.87166,1127,2118
116.36173,39.87682,1128,2118
116.37311,39.87618,1129,2118
116.37075,39.86969,1130,2118
116.35114,39.87206,1131,2118
116.35753,39.87129,1132,2118
116.35743,39.87146,1133,2118
116.35737,39.87175,1134,2118
116.35734,39.87173,1135,2118
116.35789,39.87166,1136,2118
116.34368,39.86804,1137,2118
116.32265,39.89594,1138,2118
116.30113,39.9228,1139,2118
116.2857,39.92311,1140,2118
116.32285,39.92191,1141,2118
116.33602,39.92175,1142,2118
116.33658,39.90207,1143,2118
116.33652,39.88952,1144,2118
116.32048,39.88134,1145,2118
116.32034,39.88056,1146,2118
116.3278,39.87902,1147,2118
116.34254,39.88576,1148,2118
116.34279,39.87751,1149,2118
116.36269,39.87694,1150,2118
116.35799,39.86731,1151,2118
116.35891,39.84971,1152,2118
116.35875,39.83499,1153,2118
116.35875,39.83499,1154,2118
116.34864,39.84085,1155,2118
116.34874,39.8408,1156,2118
116.34857,39.84101,1157,2118
116.34881,39.84062,1158,2118
116.34817,39.84057,1159,2118
116.3484,39.84116,1160,2118
116.3484,39.84116,1161,2118
116.34843,39.84112,1162,2118
116.35271,39.84452,1163,2118
116.37994,39.85582,1164,2118
116.34217,39.86322,1165,2118
116.33036,39.88071,1166,2118
116.33035,39.88358,1167,2118
116.34705,39.88782,1168,2118
116.3441,39.87901,1169,2118
116.32396,39.89591,1170,2118
116.25526,39.8958,1171,2118
116.19435,39.91539,1172,2118
116.20059,39.90603,1173,2118
116.20059,39.90603,1174,2118
116.22769,39.90602,1175,2118
116.25814,39.90572,1176,2118
116.27926,39.90632,1177,2118
116.30665,39.90523,1178,2118
116.31095,39.90406,1179,2118
116.26537,39.89584,1180,2118
116.22987,39.90235,1181,2118
116.21987,39.91045,1182,2118
116.21571,39.91053,1183,2118
116.21246,39.90624,1184,2118
116.22762,39.91097,1185,2118
116.23228,39.90619,1186,2118
116.23688,39.90613,1187,2118
116.25702,39.90617,1188,2118
116.25109,39.88756,1189,2118
116.26857,39.88269,1190,2118
116.27469,39.86885,1191,2118
116.28375,39.82457,1192,2118
116.28189,39.82225,1193,2118
116.28499,39.82936,1194,2118
116.30674,39.82907,1195,2118
116.33222,39.82175,1196,2118
116.33996,39.83912,1197,2118
116.35347,39.84865,1198,2118
116.39276,39.86995,1199,2118
116.40726,39.86726,1200,2118
116.39998,39.86374,1201,2118
116.41346,39.85483,1202,2118
116.41382,39.85385,1203,2118
116.40796,39.85581,1204,2118
116.39441,39.8602,1205,2118
116.39439,39.86027,1206,2118
116.39066,39.85596,1207,2118
116.38912,39.85586,1208,2118
116.32435,39.84763,1209,2118
116.30443,39.88281,1210,2118
116.30488,39.87226,1211,2118
116.31482,39.85191,1212,2118
116.34728,39.85016,1213,2118
116.36428,39.84439,1214,2118
116.38057,39.84766,1215,2118
116.39385,39.8358,1216,2118
116.39408,39.83569,1217,2118
116.39591,39.80883,1218,2118
116.3994,39.80352,1219,2118
116.41562,39.79314,1220,2118
116.41457,39.78635,1221,2118
116.44167,39.76462,1222,2118
116.45626,39.73102,1223,2118
116.48516,39.69443,1224,2118
116.50008,39.6779,1225,2118
116.51029,39.67425,1226,2118
116.56678,39.6557,1227,2118
116.56956,39.65236,1228,2118
116.58798,39.6255,1229,2118
116.58802,39.62529,1230,2118
116.58803,39.6253,1231,2118
116.58802,39.6253,1232,2118
116.58802,39.62529,1233,2118
116.58802,39.62529,1234,2118
116.58954,39.62599,1235,2118
116.57198,39.652,1236,2118
116.57198,39.652,1237,2118
116.56623,39.65252,1238,2118
116.56622,39.65249,1239,2118
116.5662,39.65248,1240,2118
116.5662,39.65249,1241,2118
116.5662,39.6525,1242,2118
116.56621,39.6525,1243,2118
116.56621,39.65249,1244,2118
116.56621,39.65248,1245,2118
116.56621,39.65248,1246,2118
116.56621,39.65247,1247,2118
116.5662,39.65247,1248,2118
116.5662,39.65247,1249,2118
116.56621,39.65246,1250,2118
116.56621,39.65247,1251,2118
116.56621,39.65247,1252,2118
116.56621,39.65247,1253,2118
116.56622,39.65247,1254,2118
116.56622,39.65248,1255,2118
116.56622,39.65248,1256,2118
116.56622,39.65248,1257,2118
116.56622,39.65248,1258,2118
116.56622,39.65249,1259,2118
116.56621,39.65249,1260,2118
116.56621,39.65249,1261,2118
116.56621,39.65249,1262,2118
116.56621,39.65249,1263,2118
116.56622,39.6525,1264,2118
116.56622,39.6525,1265,2118
116.56622,39.6525,1266,2118
116.56622,39.6525,1267,2118
116.56621,39.6525,1268,2118
116.56622,39.6525,1269,2118
116.56622,39.6525,1270,2118
116.56622,39.6525,1271,2118
116.56622,39.6525,1272,2118
116.56622,39.6525,1273,2118
116.56621,39.65251,1274,2118
116.56621,39.65251,1275,2118
116.56622,39.65251,1276,2118
116.56622,39.65251,1277,2118
116.56622,39.65251,1278,2118
116.56622,39.65251,1279,2118
116.56621,39.65251,1280,2118
116.56621,39.65251,1281,2118
116.56621,39.65251,1282,2118
116.56621,39.6525,1283,2118
116.56622,39.6525,1284,2118
116.56622,39.6525,1285,2118
116.56622,39.6525,1286,2118
116.56621,39.65251,1287,2118
116.56621,39.65251,1288,2118
116.56621,39.65251,1289,2118
116.56621,39.65251,1290,2118
116.56621,39.65251,1291,2118
116.56621,39.65251,1292,2118
116.56621,39.65251,1293,2118
116.56621,39.65251,1294,2118
116.56621,39.65251,1295,2118
116.56621,39.65251,1296,2118
116.56621,39.65251,1297,2118
116.56626,39.65248,1298,2118
116.56622,39.65248,1299,2118
116.56622,39.65245,1300,2118
116.56623,39.65245,1301,2118
116.56623,39.65244,1302,2118
116.56623,39.65244,1303,2118
116.56623,39.65244,1304,2118
116.56623,39.65245,1305,2118
116.56623,39.65245,1306,2118
116.56622,39.65246,1307,2118
116.56622,39.65246,1308,2118
116.56622,39.65246,1309,2118
116.56622,39.65247,1310,2118
116.56623,39.65247,1311,2118
116.56623,39.65248,1312,2118
116.56624,39.65248,1313,2118
116.56624,39.65249,1314,2118
116.56624,39.65249,1315,2118
116.56624,39.65249,1316,2118
116.56624,39.65249,1317,2118
116.56624,39.6525,1318,2118
116.56624,39.6525,1319,2118
116.56624,39.6525,1320,2118
116.56625,39.6525,1321,2118
116.56625,39.6525,1322,2118
116.56625,39.65251,1323,2118
116.56625,39.65251,1324,2118
116.56625,39.65251,1325,2118
116.56624,39.65251,1326,2118
116.56624,39.65251,1327,2118
116.56624,39.65251,1328,2118
116.56624,39.65251,1329,2118
116.56624,39.65251,1330,2118
116.56624,39.65251,1331,2118
116.56623,39.65251,1332,2118
116.56623,39.65251,1333,2118
116.56623,39.65251,1334,2118
116.56623,39.65251,1335,2118
116.56623,39.65251,1336,2118
116.56623,39.65251,1337,2118
116.56623,39.65251,1338,2118
116.56622,39.6525,1339,2118
116.56622,39.6525,1340,2118
116.56622,39.6525,1341,2118
116.56622,39.6525,1342,2118
116.56622,39.6525,1343,2118
116.56622,39.6525,1344,2118
116.56622,39.6525,1345,2118
116.56622,39.6525,1346,2118
116.56622,39.6525,1347,2118
116.56622,39.6525,1348,2118
116.56621,39.6525,1349,2118
116.56621,39.6525,1350,2118
116.56621,39.6525,1351,2118
116.56621,39.6525,1352,2118
116.56621,39.6525,1353,2118
116.56621,39.6525,1354,2118
116.56621,39.6525,1355,2118
116.56622,39.6525,1356,2118
116.56622,39.6525,1357,2118
116.56623,39.6525,1358,2118
116.56623,39.6525,1359,2118
116.56623,39.6525,1360,2118
116.56623,39.6525,1361,2118
116.56623,39.6525,1362,2118
116.56623,39.6525,1363,2118
116.56623,39.6525,1364,2118
116.56623,39.6525,1365,2118
116.56623,39.6525,1366,2118
116.56622,39.6525,1367,2118
116.56622,39.6525,1368,2118
116.56622,39.6525,1369,2118
116.56623,39.6525,1370,2118
116.56623,39.6525,1371,2118
116.56623,39.6525,1372,2118
116.56623,39.6525,1373,2118
116.56719,39.65353,1374,2118
116.54805,39.66558,1375,2118
116.50487,39.67158,1376,2118
116.48563,39.69385,1377,2118
116.4571,39.72575,1378,2118
116.44314,39.7601,1379,2118
116.44603,39.78853,1380,2118
116.44923,39.8126,1381,2118
116.44165,39.82921,1382,2118
116.43289,39.84636,1383,2118
116.42772,39.85747,1384,2118
116.40762,39.86412,1385,2118
116.38665,39.87097,1386,2118
116.38138,39.87634,1387,2118
116.39433,39.89052,1388,2118
116.40064,39.91115,1389,2118
116.40237,39.93182,1390,2118
116.40483,39.94739,1391,2118
116.40483,39.94739,1392,2118
116.41252,39.94769,1393,2118
116.41533,39.94785,1394,2118
116.41142,39.91197,1395,2118
116.40766,39.90421,1396,2118
116.40704,39.88739,1397,2118
116.40664,39.88735,1398,2118
116.40831,39.87296,1399,2118
116.39321,39.8713,1400,2118
116.38134,39.86397,1401,2118
116.38173,39.86375,1402,2118
116.41568,39.86985,1403,2118
116.41259,39.89505,1404,2118
116.41172,39.91244,1405,2118
116.42548,39.93891,1406,2118
116.44175,39.95231,1407,2118
116.47232,39.97911,1408,2118
116.47181,39.98513,1409,2118
116.47366,39.98253,1410,2118
116.45249,39.9612,1411,2118
116.43763,39.95873,1412,2118
116.42046,39.94834,1413,2118
116.4222,39.94803,1414,2118
116.42797,39.92404,1415,2118
116.43784,39.89142,1416,2118
116.43312,39.86947,1417,2118
116.43248,39.85977,1418,2118
116.42588,39.84792,1419,2118
116.42668,39.8569,1420,2118
116.45518,39.87868,1421,2118
116.45573,39.92871,1422,2118
116.43322,39.96649,1423,2118
116.46286,39.98718,1424,2118
116.46164,39.99787,1425,2118
116.46163,39.99729,1426,2118
116.46174,40.00061,1427,2118
116.45551,40.01926,1428,2118
116.43095,40.03266,1429,2118
116.42933,40.03166,1430,2118
116.41346,40.03129,1431,2118
116.41237,40.03136,1432,2118
116.41075,40.00338,1433,2118
116.41046,39.99221,1434,2118
116.40552,39.9818,1435,2118
116.4001,39.96772,1436,2118
116.36803,39.96688,1437,2118
116.36545,39.94976,1438,2118
116.36194,39.9338,1439,2118
116.37164,39.92115,1440,2118
116.37164,39.92115,1441,2118
116.3779,39.90202,1442,2118
116.3898,39.89845,1443,2118
116.39259,39.88083,1444,2118
116.39901,39.85998,1445,2118
116.39424,39.86059,1446,2118
116.39422,39.86062,1447,2118
116.39402,39.86298,1448,2118
116.40778,39.8567,1449,2118
116.40521,39.85271,1450,2118
116.40617,39.85269,1451,2118
116.41772,39.84995,1452,2118
116.41769,39.85153,1453,2118
116.43342,39.86329,1454,2118
116.4394,39.87478,1455,2118
116.44273,39.87469,1456,2118
116.44994,39.88345,1457,2118
116.45402,39.88644,1458,2118
116.46154,39.88228,1459,2118
116.46148,39.88107,1460,2118
116.47344,39.88123,1461,2118
116.46365,39.88316,1462,2118
116.45373,39.88602,1463,2118
116.43599,39.88311,1464,2118
116.43452,39.88551,1465,2118
116.41365,39.89177,1466,2118
116.38833,39.88891,1467,2118
116.3841,39.88845,1468,2118
116.38182,39.88826,1469,2118
116.38182,39.88826,1470,2118
116.37671,39.88811,1471,2118
116.35261,39.88821,1472,2118
116.3214,39.88929,1473,2118
116.32206,39.89202,1474,2118
116.28948,39.89767,1475,2118
116.28918,39.90176,1476,2118
116.29338,39.89562,1477,2118
116.30353,39.88432,1478,2118
116.31926,39.88314,1479,2118
116.31926,39.88314,1480,2118
116.32541,39.87578,1481,2118
116.32542,39.87576,1482,2118
116.35722,39.91244,1483,2118
116.35118,39.91885,1484,2118
116.34761,39.91722,1485,2118
116.34457,39.92688,1486,2118
116.35826,39.9167,1487,2118
116.36286,39.91043,1488,2118
116.35774,39.91276,1489,2118
116.33623,39.90114,1490,2118
116.31489,39.90958,1491,2118
116.32899,39.90652,1492,2118
116.33496,39.8958,1493,2118
116.30327,39.88803,1494,2118
116.28283,39.84744,1495,2118
116.27401,39.83822,1496,2118
116.27359,39.84038,1497,2118
116.28007,39.8405,1498,2118
116.27742,39.85885,1499,2118
116.29499,39.86518,1500,2118
116.33674,39.89131,1501,2118
116.30441,39.92198,1502,2118
116.30441,39.92198,1503,2118
116.28299,39.92317,1504,2118
116.28833,39.93047,1505,2118
116.28833,39.93047,1506,2118
116.28741,39.92978,1507,2118
116.28747,39.93099,1508,2118
116.29783,39.9269,1509,2118
116.30414,39.9095,1510,2118
116.30507,39.88032,1511,2118
116.30514,39.88034,1512,2118
116.30516,39.88035,1513,2118
116.3201,39.88857,1514,2118
116.34264,39.87817,1515,2118
116.34291,39.87513,1516,2118
116.35704,39.85296,1517,2118
116.35704,39.85296,1518,2118
116.38055,39.85115,1519,2118
116.38092,39.86255,1520,2118
116.38092,39.86255,1521,2118
116.38135,39.86353,1522,2118
116.3684,39.87696,1523,2118
116.36305,39.88776,1524,2118
116.36811,39.86983,1525,2118
116.36487,39.84923,1526,2118
116.36988,39.84021,1527,2118
116.37351,39.84521,1528,2118
116.37639,39.85599,1529,2118
116.3227,39.84785,1530,2118
116.30419,39.91136,1531,2118
116.30419,39.93324,1532,2118
116.30177,39.96156,1533,2118
116.30833,40.01931,1534,2118
116.31497,40.03544,1535,2118
116.33232,40.03239,1536,2118
116.33232,40.03239,1537,2118
116.31762,40.03462,1538,2118
116.30757,40.02361,1539,2118
116.30895,40.00029,1540,2118
116.31038,39.98418,1541,2118
116.32708,39.98229,1542,2118
116.3262,39.96597,1543,2118
116.3492,39.95199,1544,2118
116.34856,39.95609,1545,2118
116.35207,39.92209,1546,2118
116.35207,39.92209,1547,2118
116.35207,39.92209,1548,2118
116.35207,39.92209,1549,2118
116.35207,39.92209,1550,2118
116.35207,39.92209,1551,2118
116.35207,39.92209,1552,2118
116.35207,39.92209,1553,2118
116.35207,39.92209,1554,2118
116.35207,39.92209,1555,2118
116.35207,39.92209,1556,2118
116.35207,39.92209,1557,2118
116.35207,39.92209,1558,2118
116.35207,39.92209,1559,2118
116.35207,39.92209,1560,2118
116.38972,39.89886,1561,2118
116.39213,39.88501,1562,2118
116.39174,39.8851,1563,2118
116.36753,39.88805,1564,2118
116.33878,39.84774,1565,2118
116.39606,39.8066,1566,2118
116.41108,39.80149,1567,2118
116.42608,39.77793,1568,2118
116.4454,39.75285,1569,2118
116.46583,39.71637,1570,2118
116.49993,39.67786,1571,2118
116.49995,39.67787,1572,2118
116.54252,39.6672,1573,2118
116.56627,39.65249,1574,2118
116.56629,39.65248,1575,2118
116.56629,39.65248,1576,2118
116.56628,39.65249,1577,2118
116.56628,39.65249,1578,2118
116.56628,39.65249,1579,2118
116.56628,39.6525,1580,2118
116.56628,39.6525,1581,2118
116.56628,39.65249,1582,2118
116.56628,39.65249,1583,2118
116.56628,39.65249,1584,2118
116.56628,39.6525,1585,2118
116.56628,39.6525,1586,2118
116.56628,39.6525,1587,2118
116.56628,39.6525,1588,2118
116.56628,39.6525,1589,2118
116.56628,39.6525,1590,2118
116.56628,39.6525,1591,2118
116.56628,39.6525,1592,2118
116.56628,39.6525,1593,2118
116.56628,39.6525,1594,2118
116.56628,39.6525,1595,2118
116.56628,39.6525,1596,2118
116.56628,39.6525,1597,2118
116.56628,39.65251,1598,2118
116.56628,39.65251,1599,2118
116.56628,39.65251,1600,2118
116.56628,39.65251,1601,2118
116.56627,39.65251,1602,2118
116.56627,39.65251,1603,2118
116.56627,39.65252,1604,2118
116.56626,39.65252,1605,2118
116.56626,39.65252,1606,2118
116.56626,39.65252,1607,2118
116.56626,39.65252,1608,2118
116.56625,39.65252,1609,2118
116.56625,39.65252,1610,2118
116.56622,39.65245,1611,2118
116.56625,39.65244,1612,2118
116.56624,39.65245,1613,2118
116.56624,39.65246,1614,2118
116.56624,39.65246,1615,2118
116.56624,39.65245,1616,2118
116.56625,39.65246,1617,2118
116.5663,39.65247,1618,2118
116.56589,39.65242,1619,2118
116.56605,39.65247,1620,2118
116.5661,39.65249,1621,2118
116.56609,39.65248,1622,2118
116.56609,39.65248,1623,2118
116.56611,39.65247,1624,2118
116.56612,39.65246,1625,2118
116.56613,39.65247,1626,2118
116.56613,39.65247,1627,2118
116.56613,39.65246,1628,2118
116.56613,39.65247,1629,2118
116.56613,39.65247,1630,2118
116.56614,39.65247,1631,2118
116.56614,39.65248,1632,2118
116.56614,39.65248,1633,2118
116.56614,39.65249,1634,2118
116.56614,39.65249,1635,2118
116.56615,39.65249,1636,2118
116.56615,39.65249,1637,2118
116.56616,39.65249,1638,2118
116.56616,39.65249,1639,2118
116.56616,39.65249,1640,2118
116.56617,39.65249,1641,2118
116.56617,39.65249,1642,2118
116.56617,39.65249,1643,2118
116.56617,39.65249,1644,2118
116.56617,39.65249,1645,2118
116.56629,39.65236,1646,2118
116.57798,39.64045,1647,2118
116.5881,39.62516,1648,2118
116.58814,39.62516,1649,2118
116.58815,39.62517,1650,2118
116.58808,39.62516,1651,2118
116.58807,39.62515,1652,2118
116.58807,39.62515,1653,2118
116.58808,39.62516,1654,2118
116.58808,39.62516,1655,2118
116.58808,39.62517,1656,2118
116.58761,39.63606,1657,2118
116.56711,39.65473,1658,2118
116.57428,39.68417,1659,2118
116.57868,39.68653,1660,2118
116.57868,39.68653,1661,2118
116.5787,39.68652,1662,2118
116.5743,39.70361,1663,2118
116.56139,39.74478,1664,2118
116.53669,39.7631,1665,2118
116.4969,39.77708,1666,2118
116.47232,39.80201,1667,2118
116.44212,39.82803,1668,2118
116.42328,39.83777,1669,2118
116.42236,39.85404,1670,2118
116.42815,39.86063,1671,2118
116.43413,39.86464,1672,2118
116.42017,39.86446,1673,2118
116.40743,39.86766,1674,2118
116.37615,39.86965,1675,2118
116.34269,39.88809,1676,2118
116.35035,39.92008,1677,2118
116.33576,39.93118,1678,2118
116.30999,39.93368,1679,2118
116.31016,39.93367,1680,2118
116.30493,39.93118,1681,2118
116.27925,39.92653,1682,2118
116.25909,39.92781,1683,2118
116.25553,39.92806,1684,2118
116.26423,39.9276,1685,2118
116.41134,39.92089,1686,2118
116.26263,39.92317,1687,2118
116.25856,39.92352,1688,2118
116.25659,39.91153,1689,2118
116.25835,39.91153,1690,2118
116.27846,39.92285,1691,2118
116.31899,39.9221,1692,2118
116.34693,39.92195,1693,2118
116.34714,39.92387,1694,2118
116.3475,39.91476,1695,2118
116.34636,39.90676,1696,2118
116.33663,39.90604,1697,2118
116.30333,39.91122,1698,2118
116.29615,39.91356,1699,2118
116.29602,39.91281,1700,2118
116.31439,39.90673,1701,2118
116.31439,39.90673,1702,2118
116.31723,39.90051,1703,2118
116.32827,39.90533,1704,2118
116.32334,39.89602,1705,2118
116.31496,39.88495,1706,2118
116.31062,39.87878,1707,2118
116.30779,39.88006,1708,2118
116.31977,39.88315,1709,2118
116.32507,39.88336,1710,2118
116.34279,39.88678,1711,2118
116.35149,39.91063,1712,2118
116.35147,39.90779,1713,2118
116.35716,39.89594,1714,2118
116.35712,39.89305,1715,2118
116.35761,39.87796,1716,2118
116.36586,39.86843,1717,2118
116.37638,39.86915,1718,2118
116.38808,39.85845,1719,2118
116.3858,39.85948,1720,2118
116.35931,39.86809,1721,2118
116.33851,39.89656,1722,2118
116.33461,39.91267,1723,2118
116.33327,39.91391,1724,2118
116.33651,39.90201,1725,2118
116.34222,39.89853,1726,2118
116.34234,39.89731,1727,2118
116.35782,39.88248,1728,2118
116.35782,39.88249,1729,2118
116.34768,39.87545,1730,2118
116.34845,39.86265,1731,2118
116.36113,39.84897,1732,2118
116.35823,39.86728,1733,2118
116.35784,39.8718,1734,2118
116.36613,39.86437,1735,2118
116.3655,39.86429,1736,2118
116.37255,39.86891,1737,2118
116.37467,39.86891,1738,2118
116.43658,39.86952,1739,2118
116.45884,39.9034,1740,2118
116.47182,39.90587,1741,2118
116.46412,39.89226,1742,2118
116.46082,39.89244,1743,2118
116.46737,39.90691,1744,2118
116.46338,39.90741,1745,2118
116.45511,39.89359,1746,2118
116.44714,39.89252,1747,2118
116.41323,39.89193,1748,2118
116.38401,39.88845,1749,2118
116.37924,39.88835,1750,2118
116.36849,39.88821,1751,2118
116.34277,39.89181,1752,2118
116.30407,39.89642,1753,2118
116.30334,39.89027,1754,2118
116.30588,39.86612,1755,2118
116.33145,39.86654,1756,2118
116.33158,39.86654,1757,2118
116.33806,39.83026,1758,2118
116.2864,39.83382,1759,2118
116.28925,39.83572,1760,2118
116.28925,39.83572,1761,2118
116.30665,39.83495,1762,2118
116.30878,39.84319,1763,2118
116.31437,39.84464,1764,2118
116.34059,39.84987,1765,2118
116.34661,39.86652,1766,2118
116.34661,39.86652,1767,2118
116.34884,39.86669,1768,2118
116.35811,39.86518,1769,2118
116.36216,39.84813,1770,2118
116.36128,39.84501,1771,2118
116.3615,39.84462,1772,2118
116.34462,39.84092,1773,2118
116.34386,39.84101,1774,2118
116.35808,39.85326,1775,2118
116.36248,39.85812,1776,2118
