x,y,k,tid
116.29118,39.90764,0,2136
116.29583,39.90783,1,2136
116.29603,39.91081,2,2136
116.29634,39.91057,3,2136
116.29621,39.91055,4,2136
116.29194,39.91682,5,2136
116.29305,39.91666,6,2136
116.29305,39.91666,7,2136
116.29305,39.91666,8,2136
116.29305,39.91666,9,2136
116.29305,39.91666,10,2136
116.29305,39.91666,11,2136
116.29305,39.91666,12,2136
116.29305,39.91666,13,2136
116.29305,39.91666,14,2136
116.29305,39.91666,15,2136
116.29305,39.91666,16,2136
116.29305,39.91666,17,2136
116.29305,39.91666,18,2136
116.29305,39.91666,19,2136
116.29305,39.91666,20,2136
116.29305,39.91666,21,2136
116.29305,39.91666,22,2136
116.29305,39.91666,23,2136
116.29305,39.91666,24,2136
116.29305,39.91666,25,2136
116.29307,39.91665,26,2136
116.29482,39.9151,27,2136
116.29625,39.91408,28,2136
116.29549,39.91466,29,2136
116.27782,39.91835,30,2136
116.27782,39.91835,31,2136
116.27787,39.91841,32,2136
116.26794,39.91311,33,2136
116.26776,39.9112,34,2136
116.26508,39.87075,35,2136
116.26208,39.8694,36,2136
116.24839,39.85854,37,2136
116.26448,39.86697,38,2136
116.27734,39.87349,39,2136
116.27736,39.87358,40,2136
116.28865,39.8745,41,2136
116.2889,39.87078,42,2136
116.28887,39.87071,43,2136
116.30221,39.88222,44,2136
116.30517,39.88446,45,2136
116.3096,39.89555,46,2136
116.31732,39.89687,47,2136
116.31736,39.89687,48,2136
116.31567,39.89891,49,2136
116.31521,39.90394,50,2136
116.31872,39.90583,51,2136
116.31868,39.90458,52,2136
116.31862,39.90321,53,2136
116.3152,39.90053,54,2136
116.31508,39.90223,55,2136
116.31757,39.89953,56,2136
116.31728,39.89688,57,2136
116.31518,39.90454,58,2136
116.31838,39.90605,59,2136
116.31555,39.90382,60,2136
116.3152,39.9056,61,2136
116.30599,39.90758,62,2136
116.30432,39.91892,63,2136
116.30427,39.92036,64,2136
116.30429,39.92168,65,2136
116.30604,39.92718,66,2136
116.31206,39.92678,67,2136
116.32552,39.92178,68,2136
116.32835,39.91535,69,2136
116.32832,39.91324,70,2136
116.33238,39.91276,71,2136
116.33305,39.91316,72,2136
116.33756,39.91708,73,2136
116.33756,39.91708,74,2136
116.33534,39.922,75,2136
116.3363,39.92676,76,2136
116.33869,39.9143,77,2136
116.33811,39.90769,78,2136
116.3338,39.90629,79,2136
116.32917,39.9057,80,2136
116.32534,39.90135,81,2136
116.32301,39.89644,82,2136
116.31797,39.89199,83,2136
116.31512,39.88852,84,2136
116.3121,39.88456,85,2136
116.3107,39.885,86,2136
116.3058,39.88615,87,2136
116.31018,39.88654,88,2136
116.31494,39.88426,89,2136
116.31494,39.88426,90,2136
116.31556,39.88313,91,2136
116.31795,39.88312,92,2136
116.31858,39.88315,93,2136
116.31887,39.88328,94,2136
116.31733,39.8831,95,2136
116.31559,39.88307,96,2136
116.31177,39.88677,97,2136
116.31183,39.88675,98,2136
116.30593,39.88608,99,2136
116.30593,39.88608,100,2136
116.30602,39.88599,101,2136
116.30581,39.88606,102,2136
116.31087,39.88754,103,2136
116.31913,39.88857,104,2136
116.31917,39.88865,105,2136
116.34235,39.88614,106,2136
116.34257,39.88152,107,2136
116.34782,39.8666,108,2136
116.34821,39.86427,109,2136
116.34775,39.87343,110,2136
116.34766,39.87453,111,2136
116.34458,39.87635,112,2136
116.34323,39.87633,113,2136
116.34058,39.87488,114,2136
116.34168,39.87611,115,2136
116.34208,39.87633,116,2136
116.34507,39.87633,117,2136
116.34507,39.87633,118,2136
116.34723,39.88473,119,2136
116.34713,39.88884,120,2136
116.35546,39.89795,121,2136
116.35688,39.8979,122,2136
116.35725,39.89647,123,2136
116.35722,39.89736,124,2136
116.35732,39.89724,125,2136
116.35732,39.89724,126,2136
116.35719,39.89992,127,2136
116.35694,39.90691,128,2136
116.35699,39.90264,129,2136
116.35703,39.90117,130,2136
116.35686,39.90047,131,2136
116.35722,39.8994,132,2136
116.35719,39.89877,133,2136
116.35728,39.89119,134,2136
116.35729,39.88827,135,2136
116.35729,39.88816,136,2136
116.3574,39.88772,137,2136
116.34696,39.88935,138,2136
116.34658,39.9015,139,2136
116.34668,39.90541,140,2136
116.34662,39.90552,141,2136
116.34657,39.91031,142,2136
116.35046,39.92022,143,2136
116.35032,39.93092,144,2136
116.35064,39.93091,145,2136
116.36766,39.93361,146,2136
116.36881,39.93363,147,2136
116.38131,39.93258,148,2136
116.46252,39.93258,149,2136
116.38128,39.93252,150,2136
116.38128,39.93252,151,2136
116.38128,39.93252,152,2136
116.38128,39.93252,153,2136
116.38128,39.93252,154,2136
116.38213,39.93204,155,2136
116.37985,39.93204,156,2136
116.37985,39.93204,157,2136
116.37985,39.93204,158,2136
116.37985,39.93204,159,2136
116.37985,39.93204,160,2136
116.37985,39.93204,161,2136
116.37985,39.93204,162,2136
116.37985,39.93204,163,2136
116.37985,39.93204,164,2136
116.37985,39.93204,165,2136
116.37985,39.93204,166,2136
116.37985,39.93204,167,2136
116.37985,39.93204,168,2136
116.37985,39.93204,169,2136
116.37985,39.93204,170,2136
116.37985,39.93204,171,2136
116.37985,39.93204,172,2136
116.37985,39.93204,173,2136
116.37985,39.93204,174,2136
116.37985,39.93204,175,2136
116.37986,39.93198,176,2136
116.37984,39.932,177,2136
116.3798,39.93203,178,2136
116.37986,39.93211,179,2136
116.37424,39.9317,180,2136
116.37314,39.93778,181,2136
116.3735,39.94337,182,2136
116.37317,39.95013,183,2136
116.36636,39.9481,184,2136
116.36631,39.9481,185,2136
116.36584,39.94803,186,2136
116.3543,39.96386,187,2136
116.35062,39.96364,188,2136
116.31437,39.97509,189,2136
116.31241,39.97493,190,2136
116.31811,39.97485,191,2136
116.33403,39.97101,192,2136
116.33429,39.97101,193,2136
116.33267,39.96962,194,2136
116.33267,39.96962,195,2136
116.33272,39.96948,196,2136
116.33275,39.9695,197,2136
116.33277,39.96942,198,2136
116.33277,39.9694,199,2136
116.33277,39.96907,200,2136
116.33305,39.96693,201,2136
116.36585,39.9665,202,2136
116.40071,39.96716,203,2136
116.40071,39.96716,204,2136
116.40203,39.96092,205,2136
116.40125,39.96658,206,2136
116.39725,39.98719,207,2136
116.35129,39.98593,208,2136
116.3475,39.98604,209,2136
116.33825,39.9849,210,2136
116.33805,39.98494,211,2136
116.32624,39.98486,212,2136
116.29024,39.99159,213,2136
116.29126,39.99071,214,2136
116.29728,39.98302,215,2136
116.29972,39.98256,216,2136
116.30657,39.97993,217,2136
116.30742,39.98079,218,2136
116.31107,39.97544,219,2136
116.31911,39.97275,220,2136
116.31382,39.9747,221,2136
116.32791,39.96969,222,2136
116.32789,39.97008,223,2136
116.34668,39.97515,224,2136
116.34696,39.97515,225,2136
116.34807,39.97807,226,2136
116.34805,39.97806,227,2136
116.3472,39.99168,228,2136
116.34723,39.99188,229,2136
116.35266,39.99667,230,2136
116.35336,39.99656,231,2136
116.35327,39.99658,232,2136
116.35348,39.9956,233,2136
116.34967,39.99183,234,2136
116.35894,39.99117,235,2136
116.35958,39.98843,236,2136
116.35948,39.98837,237,2136
116.34785,39.98592,238,2136
116.35885,39.97523,239,2136
116.35958,39.97585,240,2136
116.35327,39.9802,241,2136
116.35306,39.98021,242,2136
116.3467,39.97263,243,2136
116.34914,39.96363,244,2136
116.34913,39.96363,245,2136
116.34912,39.96375,246,2136
116.34884,39.96371,247,2136
116.35945,39.97387,248,2136
116.35941,39.97163,249,2136
116.3596,39.97155,250,2136
116.35955,39.97293,251,2136
116.36485,39.95719,252,2136
116.36693,39.96258,253,2136
116.36896,39.96085,254,2136
116.36829,39.94962,255,2136
116.35299,39.94353,256,2136
116.34956,39.93535,257,2136
116.3497,39.92509,258,2136
116.34904,39.92245,259,2136
116.35147,39.92217,260,2136
116.35368,39.91372,261,2136
116.35349,39.91156,262,2136
116.35398,39.91667,263,2136
116.33863,39.91987,264,2136
116.32918,39.92178,265,2136
116.31991,39.92655,266,2136
116.32416,39.92665,267,2136
116.32717,39.92681,268,2136
116.34148,39.92673,269,2136
116.34692,39.92292,270,2136
116.34666,39.92233,271,2136
116.32809,39.92609,272,2136
116.32821,39.92609,273,2136
116.33094,39.93669,274,2136
116.36539,39.94695,275,2136
116.36414,39.96404,276,2136
116.36326,39.98321,277,2136
116.36517,39.98885,278,2136
116.364,39.98798,279,2136
116.36294,39.98945,280,2136
116.34938,39.99198,281,2136
116.35908,39.98794,282,2136
116.36321,39.98365,283,2136
116.35896,39.98047,284,2136
116.35894,39.98043,285,2136
116.359,39.98049,286,2136
116.34052,39.98559,287,2136
116.34266,39.98474,288,2136
116.34777,39.98521,289,2136
116.35911,39.98391,290,2136
116.35924,39.98389,291,2136
116.35951,39.97573,292,2136
116.35946,39.97509,293,2136
116.35949,39.97385,294,2136
116.35948,39.97342,295,2136
116.35948,39.97342,296,2136
116.35837,39.97145,297,2136
116.35835,39.97142,298,2136
116.35946,39.97293,299,2136
116.35952,39.9776,300,2136
116.35952,39.9776,301,2136
116.3569,39.98391,302,2136
116.35562,39.98213,303,2136
116.36378,39.96888,304,2136
116.36378,39.96778,305,2136
116.37057,39.96643,306,2136
116.37043,39.96648,307,2136
116.37291,39.95773,308,2136
116.37425,39.9556,309,2136
116.38225,39.95221,310,2136
116.38119,39.95181,311,2136
116.37197,39.94885,312,2136
116.37006,39.94835,313,2136
116.37006,39.94835,314,2136
116.36662,39.94807,315,2136
116.37218,39.95662,316,2136
116.37427,39.95541,317,2136
116.37427,39.95001,318,2136
116.36964,39.94945,319,2136
116.37708,39.95008,320,2136
116.38715,39.95008,321,2136
116.39893,39.95579,322,2136
116.39946,39.95981,323,2136
116.40147,39.96065,324,2136
116.40164,39.95845,325,2136
116.40227,39.93983,326,2136
116.40058,39.93955,327,2136
116.39379,39.93942,328,2136
116.39244,39.93943,329,2136
116.39038,39.93923,330,2136
116.38967,39.93874,331,2136
116.38773,39.93207,332,2136
116.38573,39.93211,333,2136
116.3808,39.93284,334,2136
116.38081,39.93284,335,2136
116.38081,39.93284,336,2136
116.38081,39.93284,337,2136
116.38081,39.93284,338,2136
116.38081,39.93284,339,2136
116.38081,39.93284,340,2136
116.38081,39.93284,341,2136
116.38081,39.93284,342,2136
116.38081,39.93284,343,2136
116.38081,39.93284,344,2136
116.38081,39.93284,345,2136
116.38081,39.93284,346,2136
116.38081,39.93284,347,2136
116.38081,39.93284,348,2136
116.38081,39.93284,349,2136
116.38081,39.93284,350,2136
116.38081,39.93284,351,2136
116.38081,39.93284,352,2136
116.38081,39.93284,353,2136
116.38079,39.93282,354,2136
116.38079,39.93282,355,2136
116.38079,39.93282,356,2136
116.38079,39.93282,357,2136
116.38079,39.93282,358,2136
116.38079,39.93282,359,2136
116.38079,39.93282,360,2136
116.38079,39.93282,361,2136
116.38079,39.93282,362,2136
116.38079,39.93282,363,2136
116.37976,39.93213,364,2136
116.3797,39.93206,365,2136
116.3797,39.93206,366,2136
116.3797,39.93206,367,2136
116.3797,39.93206,368,2136
116.3797,39.93206,369,2136
116.3797,39.93206,370,2136
116.3797,39.93206,371,2136
116.3797,39.93206,372,2136
116.3797,39.93206,373,2136
116.3797,39.93206,374,2136
116.3797,39.93206,375,2136
116.3797,39.93206,376,2136
116.3797,39.93206,377,2136
116.3797,39.93206,378,2136
116.3797,39.93206,379,2136
116.3797,39.93206,380,2136
116.3797,39.93206,381,2136
116.3797,39.93206,382,2136
116.3797,39.93206,383,2136
116.3797,39.93206,384,2136
116.3797,39.93206,385,2136
116.3797,39.93206,386,2136
116.3797,39.93206,387,2136
116.3798,39.9321,388,2136
116.37976,39.93205,389,2136
116.37982,39.93206,390,2136
116.37975,39.93205,391,2136
116.37334,39.93696,392,2136
116.37298,39.94059,393,2136
116.37298,39.94059,394,2136
116.36971,39.94954,395,2136
116.3663,39.94814,396,2136
116.36603,39.94807,397,2136
116.36598,39.94804,398,2136
116.36601,39.94805,399,2136
116.36523,39.95344,400,2136
116.36425,39.96509,401,2136
116.36639,39.96636,402,2136
116.37051,39.96264,403,2136
116.37299,39.96006,404,2136
116.36528,39.94955,405,2136
116.36528,39.94955,406,2136
116.35457,39.94396,407,2136
116.34371,39.93831,408,2136
116.34935,39.93329,409,2136
116.34989,39.92169,410,2136
116.35393,39.91568,411,2136
116.35373,39.91596,412,2136
116.35109,39.91281,413,2136
116.33972,39.89656,414,2136
116.31026,39.8959,415,2136
116.30843,39.8962,416,2136
116.30453,39.89972,417,2136
116.30454,39.90441,418,2136
116.30087,39.90655,419,2136
116.29971,39.90656,420,2136
116.29611,39.9096,421,2136
116.28215,39.91228,422,2136
116.28225,39.91227,423,2136
116.28206,39.91414,424,2136
116.28208,39.9142,425,2136
116.28212,39.91418,426,2136
116.2857,39.91803,427,2136
116.29124,39.94534,428,2136
116.31712,39.93748,429,2136
116.32252,39.93695,430,2136
116.32338,39.93698,431,2136
116.34066,39.93101,432,2136
116.34953,39.92884,433,2136
116.35089,39.9187,434,2136
116.35087,39.9187,435,2136
116.34696,39.92168,436,2136
116.3469,39.9211,437,2136
116.34688,39.921,438,2136
116.34806,39.91696,439,2136
116.34825,39.91695,440,2136
116.34825,39.91695,441,2136
116.34998,39.91374,442,2136
116.34998,39.91374,443,2136
116.34996,39.91373,444,2136
116.34999,39.91279,445,2136
116.35,39.91279,446,2136
116.35766,39.90573,447,2136
116.35819,39.90573,448,2136
116.35892,39.8982,449,2136
116.35889,39.89825,450,2136
116.35448,39.89835,451,2136
116.3545,39.89832,452,2136
116.34803,39.90012,453,2136
116.34758,39.9001,454,2136
116.34658,39.91067,455,2136
116.34738,39.91461,456,2136
116.34706,39.91978,457,2136
116.34695,39.92101,458,2136
116.34733,39.93061,459,2136
116.34733,39.93072,460,2136
116.34876,39.93113,461,2136
116.36522,39.94684,462,2136
116.3653,39.94686,463,2136
116.36677,39.93747,464,2136
116.36659,39.93581,465,2136
116.37963,39.93398,466,2136
116.38038,39.9332,467,2136
116.38093,39.93285,468,2136
116.3809,39.93271,469,2136
116.3809,39.93271,470,2136
116.3809,39.93271,471,2136
116.3809,39.93271,472,2136
116.3809,39.93271,473,2136
116.3809,39.93271,474,2136
116.3809,39.93271,475,2136
116.3809,39.93271,476,2136
116.3809,39.93271,477,2136
116.3809,39.93271,478,2136
116.3809,39.93271,479,2136
116.3809,39.93271,480,2136
116.3809,39.93271,481,2136
116.3809,39.93271,482,2136
116.3809,39.93271,483,2136
116.3809,39.93271,484,2136
116.38079,39.93283,485,2136
116.37351,39.9295,486,2136
116.39138,39.93202,487,2136
116.40249,39.93834,488,2136
116.40182,39.9591,489,2136
116.41052,39.96076,490,2136
116.41161,39.96062,491,2136
116.41891,39.97025,492,2136
116.41993,39.96962,493,2136
116.41831,39.97731,494,2136
116.45963,39.98685,495,2136
116.46443,39.98377,496,2136
116.46685,39.98237,497,2136
116.47378,39.97524,498,2136
116.47379,39.97522,499,2136
116.47611,39.97344,500,2136
116.47411,39.97021,501,2136
116.47411,39.97021,502,2136
116.47423,39.97023,503,2136
116.47412,39.97027,504,2136
116.47425,39.97032,505,2136
116.47425,39.97032,506,2136
116.47425,39.97032,507,2136
116.47425,39.97032,508,2136
116.46937,39.96725,509,2136
116.4335,39.96616,510,2136
116.40178,39.9678,511,2136
116.40155,39.99145,512,2136
116.40154,39.99159,513,2136
116.40097,39.99089,514,2136
116.40102,39.99085,515,2136
116.40115,39.99096,516,2136
116.3821,39.98107,517,2136
116.38148,39.97952,518,2136
116.37724,39.981,519,2136
116.37658,39.98098,520,2136
116.36068,39.98611,521,2136
116.34747,39.98559,522,2136
116.3001,39.98417,523,2136
116.29944,39.98457,524,2136
116.29606,39.9737,525,2136
116.29585,39.97346,526,2136
116.30035,39.98364,527,2136
116.30073,39.98366,528,2136
116.30993,39.97746,529,2136
116.30828,39.97742,530,2136
116.3006,39.97443,531,2136
116.29917,39.97439,532,2136
116.29074,39.9672,533,2136
116.29076,39.96724,534,2136
116.29602,39.96316,535,2136
116.29648,39.96284,536,2136
116.29666,39.96104,537,2136
116.29706,39.95886,538,2136
116.30221,39.95815,539,2136
116.30363,39.94538,540,2136
116.30379,39.92941,541,2136
116.30787,39.92123,542,2136
116.30817,39.92241,543,2136
116.32464,39.92182,544,2136
116.32985,39.92167,545,2136
116.33777,39.92211,546,2136
116.33796,39.92204,547,2136
116.34562,39.93102,548,2136
116.34769,39.93099,549,2136
116.3515,39.93088,550,2136
116.3515,39.93088,551,2136
116.36699,39.92663,552,2136
116.36984,39.92634,553,2136
116.37346,39.92941,554,2136
116.37454,39.93162,555,2136
116.37769,39.93172,556,2136
116.37761,39.93174,557,2136
116.38021,39.9334,558,2136
116.38078,39.93295,559,2136
116.37982,39.932,560,2136
116.37982,39.93199,561,2136
116.37982,39.93199,562,2136
116.37982,39.93199,563,2136
116.37982,39.93199,564,2136
116.37982,39.93199,565,2136
116.37982,39.93199,566,2136
116.37982,39.93199,567,2136
116.37982,39.93199,568,2136
116.37982,39.93199,569,2136
116.37982,39.93199,570,2136
116.37982,39.93199,571,2136
116.37982,39.93199,572,2136
116.37982,39.93199,573,2136
116.37982,39.93199,574,2136
116.37982,39.93199,575,2136
116.37982,39.93199,576,2136
116.37982,39.93199,577,2136
116.37982,39.93199,578,2136
116.37982,39.93199,579,2136
116.37982,39.93199,580,2136
116.37982,39.93199,581,2136
116.37982,39.93199,582,2136
116.37977,39.93206,583,2136
116.37979,39.93212,584,2136
116.3798,39.93202,585,2136
116.37987,39.93213,586,2136
116.37811,39.93178,587,2136
116.37544,39.93168,588,2136
116.37355,39.93023,589,2136
116.34696,39.93125,590,2136
116.34658,39.93111,591,2136
116.34334,39.93122,592,2136
116.34338,39.93079,593,2136
116.34711,39.92365,594,2136
116.3471,39.92358,595,2136
116.35839,39.91782,596,2136
116.37127,39.91342,597,2136
116.37129,39.91343,598,2136
116.37445,39.90597,599,2136
116.37429,39.90597,600,2136
116.37276,39.91099,601,2136
116.37276,39.91099,602,2136
116.37276,39.91099,603,2136
116.37276,39.91099,604,2136
116.37158,39.91346,605,2136
116.37158,39.91345,606,2136
116.36787,39.90336,607,2136
116.36788,39.90332,608,2136
116.368,39.88257,609,2136
116.368,39.88257,610,2136
116.37544,39.87747,611,2136
116.37555,39.87747,612,2136
116.38057,39.85642,613,2136
116.38056,39.85642,614,2136
116.38019,39.84374,615,2136
116.37815,39.83201,616,2136
116.37779,39.83289,617,2136
116.37779,39.83289,618,2136
116.37785,39.8327,619,2136
116.37307,39.83461,620,2136
116.37315,39.83282,621,2136
116.37287,39.8343,622,2136
116.37272,39.84238,623,2136
116.37272,39.84238,624,2136
116.38086,39.84998,625,2136
116.38089,39.85045,626,2136
116.39117,39.85564,627,2136
116.42545,39.8569,628,2136
116.42617,39.85646,629,2136
116.42549,39.857,630,2136
116.43174,39.85743,631,2136
116.4329,39.86399,632,2136
116.43298,39.86701,633,2136
116.42829,39.87933,634,2136
116.4138,39.88495,635,2136
116.41266,39.89835,636,2136
116.4119,39.90981,637,2136
116.41278,39.9107,638,2136
116.41987,39.91418,639,2136
116.42683,39.92262,640,2136
116.43443,39.92268,641,2136
116.43762,39.93064,642,2136
116.43816,39.93233,643,2136
116.45452,39.93241,644,2136
116.45459,39.93238,645,2136
116.46657,39.93214,646,2136
116.46654,39.9294,647,2136
116.46688,39.92608,648,2136
116.46414,39.92443,649,2136
116.46428,39.92394,650,2136
116.46404,39.92416,651,2136
116.46095,39.92937,652,2136
116.46113,39.93182,653,2136
116.45593,39.93976,654,2136
116.45656,39.94421,655,2136
116.45664,39.94409,656,2136
116.45598,39.94638,657,2136
116.45838,39.94857,658,2136
116.45807,39.94843,659,2136
116.45821,39.94851,660,2136
116.45821,39.94851,661,2136
116.45831,39.94825,662,2136
116.45817,39.94802,663,2136
116.46088,39.94641,664,2136
116.45179,39.93216,665,2136
116.44508,39.93243,666,2136
116.44514,39.93986,667,2136
116.45191,39.95413,668,2136
116.41301,39.96788,669,2136
116.40144,39.98442,670,2136
116.40163,39.99159,671,2136
116.40155,39.99315,672,2136
116.4012,39.99087,673,2136
116.40107,39.97545,674,2136
116.40159,39.95587,675,2136
116.39285,39.95,676,2136
116.39368,39.94993,677,2136
116.41898,39.9472,678,2136
116.41924,39.94163,679,2136
116.42067,39.93505,680,2136
116.42072,39.93513,681,2136
116.42831,39.91606,682,2136
116.41536,39.90699,683,2136
116.38765,39.90624,684,2136
116.36872,39.90585,685,2136
116.36872,39.90585,686,2136
116.33685,39.90598,687,2136
116.31495,39.8968,688,2136
116.3107,39.90693,689,2136
116.31062,39.90864,690,2136
116.31058,39.90852,691,2136
116.31062,39.90854,692,2136
116.3039,39.90375,693,2136
116.28907,39.89886,694,2136
116.28906,39.89899,695,2136
116.2983,39.90608,696,2136
116.29829,39.90609,697,2136
116.30422,39.8928,698,2136
116.30753,39.86064,699,2136
116.31413,39.84806,700,2136
116.31508,39.84704,701,2136
116.31611,39.83712,702,2136
116.31477,39.84543,703,2136
116.31482,39.8457,704,2136
116.32522,39.84789,705,2136
116.32283,39.84808,706,2136
116.30851,39.86489,707,2136
116.30854,39.86489,708,2136
116.30573,39.88375,709,2136
116.3052,39.8843,710,2136
116.30599,39.88617,711,2136
116.30588,39.8861,712,2136
116.30476,39.88605,713,2136
116.30475,39.88597,714,2136
116.30669,39.90531,715,2136
116.30938,39.90613,716,2136
116.32937,39.90644,717,2136
116.32935,39.90872,718,2136
116.33843,39.91706,719,2136
116.33838,39.91703,720,2136
116.35039,39.92123,721,2136
116.35021,39.92457,722,2136
116.36145,39.93093,723,2136
116.36151,39.92896,724,2136
116.37066,39.93142,725,2136
116.37296,39.93159,726,2136
116.38069,39.93291,727,2136
116.38075,39.93293,728,2136
116.38071,39.93289,729,2136
116.38059,39.93291,730,2136
116.38059,39.93291,731,2136
116.38059,39.93291,732,2136
116.38059,39.93291,733,2136
116.38059,39.93291,734,2136
116.38059,39.93291,735,2136
116.38059,39.93291,736,2136
116.38059,39.93291,737,2136
116.38059,39.93291,738,2136
116.38059,39.93291,739,2136
116.38059,39.93291,740,2136
116.37808,39.93183,741,2136
116.37808,39.93183,742,2136
116.36836,39.93356,743,2136
116.36873,39.93358,744,2136
116.36945,39.93389,745,2136
116.38069,39.93185,746,2136
116.38312,39.93206,747,2136
116.37986,39.93203,748,2136
116.37986,39.93203,749,2136
116.37986,39.93203,750,2136
116.37986,39.93203,751,2136
116.37986,39.93203,752,2136
116.37986,39.93203,753,2136
116.37986,39.93203,754,2136
116.37986,39.93203,755,2136
116.37986,39.93203,756,2136
116.37986,39.93203,757,2136
116.37986,39.93203,758,2136
116.37986,39.93203,759,2136
116.37986,39.93203,760,2136
116.37986,39.93203,761,2136
116.37986,39.93203,762,2136
116.37986,39.93203,763,2136
116.37986,39.93203,764,2136
116.37986,39.93203,765,2136
116.37986,39.93203,766,2136
116.37986,39.93203,767,2136
116.37986,39.93203,768,2136
116.37986,39.93203,769,2136
116.37986,39.93203,770,2136
116.37992,39.93201,771,2136
116.3798,39.93201,772,2136
116.37988,39.93201,773,2136
116.37986,39.93207,774,2136
116.37986,39.93207,775,2136
116.38002,39.9323,776,2136
116.37874,39.93192,777,2136
116.37291,39.94044,778,2136
116.37347,39.94356,779,2136
116.38783,39.94082,780,2136
116.38758,39.94686,781,2136
116.385,39.94778,782,2136
116.37335,39.95954,783,2136
116.37212,39.98662,784,2136
116.36,40.00569,785,2136
116.35304,40.03265,786,2136
116.35313,40.03294,787,2136
116.3605,40.03051,788,2136
116.38305,40.03074,789,2136
116.40444,40.04521,790,2136
116.41125,40.02722,791,2136
116.41104,40.02543,792,2136
116.41078,40.01575,793,2136
116.41053,39.99445,794,2136
116.41157,39.96933,795,2136
116.41229,39.95617,796,2136
116.41918,39.94654,797,2136
116.41964,39.93413,798,2136
116.41963,39.93307,799,2136
116.41959,39.93247,800,2136
116.42056,39.91238,801,2136
116.42065,39.91096,802,2136
116.40091,39.90668,803,2136
116.39609,39.90652,804,2136
116.37167,39.90614,805,2136
116.37098,39.90591,806,2136
116.40877,39.92737,807,2136
116.38541,39.93213,808,2136
116.38523,39.93212,809,2136
116.38089,39.9328,810,2136
116.38082,39.93286,811,2136
116.37533,39.93168,812,2136
116.29975,39.94305,813,2136
116.27503,39.943,814,2136
116.27541,39.94269,815,2136
116.27559,39.94495,816,2136
116.3081,39.93922,817,2136
116.34978,39.94125,818,2136
116.36045,39.9454,819,2136
116.4097,39.94786,820,2136
116.42345,39.94814,821,2136
116.45311,39.95294,822,2136
116.45552,39.94634,823,2136
116.49431,39.93426,824,2136
116.50369,39.93696,825,2136
116.53698,39.94026,826,2136
116.54063,39.94061,827,2136
116.55111,39.94722,828,2136
116.55273,39.94572,829,2136
116.54125,39.94545,830,2136
116.53766,39.94033,831,2136
116.51178,39.93936,832,2136
116.48911,39.93306,833,2136
116.48498,39.93258,834,2136
116.4765,39.93255,835,2136
116.45596,39.93272,836,2136
116.45083,39.93249,837,2136
116.44923,39.94314,838,2136
116.4493,39.94933,839,2136
116.44543,39.95207,840,2136
116.43885,39.94305,841,2136
116.42605,39.94809,842,2136
116.36713,39.94736,843,2136
116.34979,39.92039,844,2136
116.3441,39.91252,845,2136
116.34309,39.91289,846,2136
116.34677,39.92213,847,2136
116.34485,39.92548,848,2136
116.34716,39.92507,849,2136
116.34704,39.92385,850,2136
116.33852,39.92199,851,2136
116.33664,39.90224,852,2136
116.33685,39.90248,853,2136
116.33908,39.91206,854,2136
116.33908,39.91206,855,2136
116.32831,39.92172,856,2136
116.31514,39.92106,857,2136
116.3152,39.92208,858,2136
116.30608,39.92686,859,2136
116.3058,39.92685,860,2136
116.31352,39.93733,861,2136
116.31352,39.93733,862,2136
116.3135,39.93707,863,2136
116.31372,39.93711,864,2136
116.31332,39.92739,865,2136
116.31573,39.92691,866,2136
116.32758,39.92689,867,2136
116.34721,39.93077,868,2136
116.34895,39.95054,869,2136
116.36513,39.95191,870,2136
116.37062,39.94729,871,2136
116.37062,39.94729,872,2136
116.42658,39.94756,873,2136
116.42718,39.9433,874,2136
116.42561,39.9325,875,2136
116.42513,39.93241,876,2136
116.41959,39.938,877,2136
116.4096,39.94795,878,2136
116.37386,39.963,879,2136
116.37191,39.98087,880,2136
116.36559,39.98066,881,2136
116.36358,39.96936,882,2136
116.36416,39.9667,883,2136
116.36536,39.95022,884,2136
116.36563,39.94777,885,2136
116.37311,39.94211,886,2136
116.37319,39.93715,887,2136
116.37982,39.93204,888,2136
116.37981,39.93209,889,2136
116.37981,39.93209,890,2136
116.37981,39.93209,891,2136
116.37981,39.93209,892,2136
116.37981,39.93209,893,2136
116.37981,39.93209,894,2136
116.37981,39.93209,895,2136
116.37981,39.93209,896,2136
116.37981,39.93209,897,2136
116.37981,39.93209,898,2136
116.37981,39.93209,899,2136
116.37981,39.93209,900,2136
116.37981,39.93209,901,2136
116.37981,39.93209,902,2136
116.37981,39.93209,903,2136
116.37981,39.93209,904,2136
116.37981,39.93209,905,2136
116.37981,39.93209,906,2136
116.37981,39.93209,907,2136
116.37981,39.93209,908,2136
116.37981,39.93209,909,2136
116.37991,39.93211,910,2136
116.37986,39.93205,911,2136
116.37986,39.93205,912,2136
116.37992,39.93208,913,2136
116.37992,39.93208,914,2136
116.37993,39.93212,915,2136
116.37991,39.93212,916,2136
116.37995,39.93208,917,2136
116.37838,39.93187,918,2136
116.37838,39.93187,919,2136
116.37816,39.93188,920,2136
116.33879,39.93119,921,2136
116.29582,39.93114,922,2136
116.29583,39.93121,923,2136
116.27915,39.92313,924,2136
116.27519,39.92319,925,2136
116.24173,39.92636,926,2136
116.23865,39.92586,927,2136
116.21819,39.92374,928,2136
116.21533,39.92373,929,2136
116.19214,39.92968,930,2136
116.19451,39.93105,931,2136
116.22126,39.92759,932,2136
116.19221,39.91905,933,2136
116.20004,39.90949,934,2136
116.20027,39.9095,935,2136
116.21532,39.9061,936,2136
116.22135,39.90614,937,2136
116.24246,39.90615,938,2136
116.24693,39.90657,939,2136
116.25019,39.90612,940,2136
116.25858,39.90958,941,2136
116.25862,39.90945,942,2136
116.25861,39.90919,943,2136
116.2762,39.90615,944,2136
116.27646,39.90614,945,2136
116.28898,39.89633,946,2136
116.33408,39.89597,947,2136
116.33411,39.89597,948,2136
116.33786,39.89096,949,2136
116.33864,39.89099,950,2136
116.33656,39.89583,951,2136
116.33028,39.89616,952,2136
116.32319,39.89608,953,2136
116.32958,39.90665,954,2136
116.32936,39.91164,955,2136
116.34738,39.91442,956,2136
116.34736,39.91687,957,2136
116.34774,39.91711,958,2136
116.35076,39.93089,959,2136
116.35076,39.93089,960,2136
116.37404,39.93157,961,2136
116.37404,39.93157,962,2136
116.39899,39.93204,963,2136
116.41077,39.93804,964,2136
116.41061,39.93854,965,2136
116.39048,39.93209,966,2136
116.39054,39.93208,967,2136
116.38073,39.93278,968,2136
116.38109,39.93272,969,2136
116.37654,39.93177,970,2136
116.37385,39.9467,971,2136
116.39521,39.97382,972,2136
116.39848,39.9738,973,2136
116.40137,39.96342,974,2136
116.40167,39.9577,975,2136
116.39232,39.95242,976,2136
116.39153,39.94994,977,2136
116.38772,39.94239,978,2136
116.37501,39.94413,979,2136
116.37301,39.93843,980,2136
116.36792,39.92265,981,2136
116.36752,39.92272,982,2136
116.35161,39.92229,983,2136
116.31116,39.92274,984,2136
116.29847,39.9229,985,2136
116.29513,39.92552,986,2136
116.29874,39.93727,987,2136
116.29563,39.94233,988,2136
116.29964,39.9436,989,2136
116.29974,39.94383,990,2136
116.29966,39.94358,991,2136
116.29916,39.94256,992,2136
116.29917,39.94259,993,2136
116.31754,39.93746,994,2136
116.31946,39.93093,995,2136
116.31946,39.93093,996,2136
116.32792,39.9217,997,2136
116.33746,39.91706,998,2136
116.34821,39.91708,999,2136
116.35344,39.91267,1000,2136
116.36044,39.91269,1001,2136
116.36753,39.91228,1002,2136
116.36743,39.90887,1003,2136
116.36733,39.90874,1004,2136
116.36758,39.90836,1005,2136
116.36984,39.90286,1006,2136
116.37788,39.90071,1007,2136
116.38776,39.89882,1008,2136
116.38818,39.89547,1009,2136
116.38887,39.88938,1010,2136
116.38669,39.88881,1011,2136
116.38367,39.88847,1012,2136
116.38028,39.88818,1013,2136
116.37884,39.88819,1014,2136
116.35667,39.88804,1015,2136
116.34268,39.89754,1016,2136
116.31521,39.89614,1017,2136
116.31525,39.89789,1018,2136
116.32263,39.89905,1019,2136
116.3229,39.89942,1020,2136
116.33264,39.91279,1021,2136
116.33313,39.91338,1022,2136
116.34035,39.918,1023,2136
116.34032,39.91834,1024,2136
116.34942,39.93824,1025,2136
116.3467,39.97033,1026,2136
116.34672,39.9704,1027,2136
116.36379,39.97499,1028,2136
116.3652,39.98803,1029,2136
116.36638,39.98876,1030,2136
116.36326,39.98316,1031,2136
116.35995,39.98053,1032,2136
116.35949,39.97142,1033,2136
116.32817,39.96635,1034,2136
116.32984,39.95069,1035,2136
116.33022,39.94999,1036,2136
116.3465,39.93723,1037,2136
116.34655,39.93657,1038,2136
116.34655,39.93657,1039,2136
116.35072,39.93089,1040,2136
116.35072,39.93089,1041,2136
116.35073,39.93087,1042,2136
116.35543,39.93099,1043,2136
116.37968,39.93178,1044,2136
116.39035,39.928,1045,2136
116.3841,39.93206,1046,2136
116.37979,39.93201,1047,2136
116.37987,39.93202,1048,2136
116.37987,39.93202,1049,2136
116.37987,39.93202,1050,2136
116.37987,39.93202,1051,2136
116.37987,39.93202,1052,2136
116.37987,39.93202,1053,2136
116.37987,39.93202,1054,2136
116.37987,39.93202,1055,2136
116.37987,39.93202,1056,2136
116.37987,39.93202,1057,2136
116.37987,39.93202,1058,2136
116.37987,39.93202,1059,2136
116.37987,39.93202,1060,2136
116.37987,39.93202,1061,2136
116.37987,39.93202,1062,2136
116.37987,39.93202,1063,2136
116.37987,39.93202,1064,2136
116.37987,39.93202,1065,2136
116.37987,39.93202,1066,2136
116.37987,39.93202,1067,2136
116.37987,39.93202,1068,2136
116.37987,39.93202,1069,2136
116.37987,39.93202,1070,2136
116.37987,39.93212,1071,2136
116.37986,39.93207,1072,2136
116.37987,39.93211,1073,2136
116.3799,39.932,1074,2136
116.37302,39.94098,1075,2136
116.37337,39.94279,1076,2136
116.37383,39.94677,1077,2136
116.42114,39.9482,1078,2136
116.43029,39.94803,1079,2136
116.47183,39.97752,1080,2136
116.48304,39.98763,1081,2136
116.52853,40.02056,1082,2136
116.53917,40.02425,1083,2136
116.56573,40.03249,1084,2136
116.58147,40.04802,1085,2136
116.57564,40.05058,1086,2136
116.57165,40.03661,1087,2136
116.57016,40.0349,1088,2136
116.56618,40.03268,1089,2136
116.54931,40.02667,1090,2136
116.53231,40.02058,1091,2136
116.53231,40.02058,1092,2136
116.50958,40.01096,1093,2136
116.49865,40.00099,1094,2136
116.48976,39.99298,1095,2136
116.48227,39.98757,1096,2136
116.47688,39.99109,1097,2136
116.47159,39.98685,1098,2136
116.46653,39.98257,1099,2136
116.47497,39.97696,1100,2136
116.47333,39.97522,1101,2136
116.47331,39.97515,1102,2136
116.47399,39.97021,1103,2136
116.47369,39.9705,1104,2136
116.46193,39.96061,1105,2136
116.46289,39.94317,1106,2136
116.45965,39.94257,1107,2136
116.45555,39.91455,1108,2136
116.44081,39.89245,1109,2136
116.43426,39.8694,1110,2136
116.43267,39.86472,1111,2136
116.43549,39.86211,1112,2136
116.43291,39.86457,1113,2136
116.41912,39.86451,1114,2136
116.41586,39.86446,1115,2136
116.41472,39.88221,1116,2136
116.41465,39.88305,1117,2136
116.41286,39.8914,1118,2136
116.41075,39.89733,1119,2136
116.40052,39.90043,1120,2136
116.40062,39.90618,1121,2136
116.40035,39.91659,1122,2136
116.4001,39.92262,1123,2136
116.39962,39.93186,1124,2136
116.39016,39.93208,1125,2136
116.39016,39.93208,1126,2136
116.38078,39.9328,1127,2136
116.38076,39.9329,1128,2136
116.38076,39.9329,1129,2136
116.38076,39.9329,1130,2136
116.38076,39.9329,1131,2136
116.38076,39.9329,1132,2136
116.38076,39.9329,1133,2136
116.38076,39.9329,1134,2136
116.38076,39.9329,1135,2136
116.38076,39.9329,1136,2136
116.38076,39.9329,1137,2136
116.38076,39.9329,1138,2136
116.38076,39.9329,1139,2136
116.38076,39.9329,1140,2136
116.38076,39.9329,1141,2136
116.38076,39.9329,1142,2136
116.38076,39.9329,1143,2136
116.38082,39.93287,1144,2136
116.37505,39.93177,1145,2136
116.353,39.93289,1146,2136
116.35072,39.93114,1147,2136
116.35072,39.93114,1148,2136
116.34341,39.93346,1149,2136
116.34325,39.93134,1150,2136
116.34317,39.93131,1151,2136
116.35026,39.90577,1152,2136
116.35026,39.90577,1153,2136
116.34993,39.90392,1154,2136
116.34657,39.90185,1155,2136
116.34657,39.90185,1156,2136
116.34665,39.90554,1157,2136
116.34317,39.91269,1158,2136
116.34321,39.91555,1159,2136
116.34078,39.92062,1160,2136
116.34057,39.9207,1161,2136
116.34057,39.9207,1162,2136
116.34057,39.9207,1163,2136
116.3571,39.92239,1164,2136
116.37503,39.92124,1165,2136
116.3955,39.92202,1166,2136
116.40217,39.91389,1167,2136
116.40281,39.91413,1168,2136
116.40502,39.91728,1169,2136
116.40469,39.92139,1170,2136
116.41057,39.9322,1171,2136
116.41088,39.93224,1172,2136
116.42204,39.93966,1173,2136
116.42454,39.93996,1174,2136
116.43041,39.93425,1175,2136
116.43014,39.93425,1176,2136
116.43256,39.93957,1177,2136
116.44902,39.94486,1178,2136
116.44925,39.94187,1179,2136
116.44926,39.94759,1180,2136
116.44923,39.94688,1181,2136
116.46298,39.94166,1182,2136
116.4629,39.94192,1183,2136
116.45543,39.93158,1184,2136
116.44277,39.90709,1185,2136
116.4189,39.90794,1186,2136
116.42069,39.91052,1187,2136
