x,y,k,tid
116.41466,39.88192,0,2216
116.41779,39.88566,1,2216
116.41759,39.8858,2,2216
116.41759,39.8858,3,2216
116.41759,39.8858,4,2216
116.41759,39.8858,5,2216
116.41759,39.8858,6,2216
116.41759,39.8858,7,2216
116.41759,39.8858,8,2216
116.41759,39.8858,9,2216
116.41759,39.8858,10,2216
116.41759,39.8858,11,2216
116.41759,39.8858,12,2216
116.41759,39.8858,13,2216
116.41759,39.8858,14,2216
116.41759,39.8858,15,2216
116.41759,39.8858,16,2216
116.41759,39.8858,17,2216
116.41759,39.8858,18,2216
116.41759,39.8858,19,2216
116.41759,39.8858,20,2216
116.41759,39.8858,21,2216
116.41759,39.8858,22,2216
116.41759,39.8858,23,2216
116.4202,39.89718,24,2216
116.4089,39.9238,25,2216
116.40756,39.90919,26,2216
116.40658,39.90798,27,2216
116.41316,39.90669,28,2216
116.44387,39.90703,29,2216
116.54741,39.90778,30,2216
116.56863,39.90924,31,2216
116.54473,39.90844,32,2216
116.50712,39.90675,33,2216
116.44788,39.94683,34,2216
116.45835,39.95331,35,2216
116.45674,39.94811,36,2216
116.45586,39.94892,37,2216
116.46174,39.99464,38,2216
116.41832,39.97898,39,2216
116.46669,40.01237,40,2216
116.46682,40.0119,41,2216
116.48899,39.79699,42,2216
116.501,39.80034,43,2216
116.49284,39.7782,44,2216
116.43285,39.84897,45,2216
116.43491,39.91335,46,2216
116.41153,39.908,47,2216
116.41178,39.91407,48,2216
116.41225,39.89886,49,2216
116.41783,39.88562,50,2216
116.41773,39.88565,51,2216
116.41766,39.88568,52,2216
116.41766,39.88568,53,2216
116.41773,39.88578,54,2216
116.41773,39.88578,55,2216
116.41773,39.88578,56,2216
116.41773,39.88578,57,2216
116.41773,39.88578,58,2216
116.41773,39.88578,59,2216
116.41773,39.88578,60,2216
116.41773,39.88578,61,2216
116.41773,39.88578,62,2216
116.41773,39.88578,63,2216
116.41773,39.88578,64,2216
116.41773,39.88578,65,2216
116.41773,39.88578,66,2216
116.41773,39.88578,67,2216
116.41773,39.88578,68,2216
116.41773,39.88578,69,2216
116.41773,39.88578,70,2216
116.41773,39.88578,71,2216
116.41773,39.88578,72,2216
116.41773,39.88578,73,2216
116.42797,39.92574,74,2216
116.43574,39.89747,75,2216
116.43598,39.88308,76,2216
116.45459,39.87223,77,2216
116.46171,39.88029,78,2216
116.48323,39.88716,79,2216
116.47394,39.89184,80,2216
116.50734,39.89176,81,2216
116.52667,39.85054,82,2216
116.50228,39.87223,83,2216
116.4484,39.87494,84,2216
116.42178,39.89196,85,2216
116.418,39.88553,86,2216
116.418,39.88553,87,2216
116.418,39.88553,88,2216
116.418,39.88553,89,2216
116.418,39.88553,90,2216
116.418,39.88553,91,2216
116.418,39.88553,92,2216
116.418,39.88553,93,2216
116.418,39.88553,94,2216
116.418,39.88553,95,2216
116.418,39.88553,96,2216
116.418,39.88553,97,2216
116.418,39.88553,98,2216
116.418,39.88553,99,2216
116.418,39.88553,100,2216
116.418,39.88553,101,2216
116.418,39.88553,102,2216
116.418,39.88553,103,2216
116.418,39.88553,104,2216
116.418,39.88553,105,2216
116.418,39.88553,106,2216
116.418,39.88553,107,2216
116.418,39.88553,108,2216
116.41566,39.88244,109,2216
116.40893,39.91421,110,2216
116.45641,39.95545,111,2216
116.45669,39.95505,112,2216
116.46852,39.9123,113,2216
116.45946,39.90675,114,2216
116.44432,39.90815,115,2216
116.43435,39.91067,116,2216
116.43481,39.90796,117,2216
116.43614,39.86452,118,2216
116.4399,39.88008,119,2216
116.43888,39.88749,120,2216
116.43888,39.88749,121,2216
116.43608,39.89143,122,2216
116.43025,39.89991,123,2216
116.43485,39.90812,124,2216
116.48235,39.87483,125,2216
116.48697,39.87484,126,2216
116.48328,39.87654,127,2216
116.48403,39.89087,128,2216
116.47051,39.90716,129,2216
116.4021,40.07275,130,2216
116.4021,40.07275,131,2216
116.41366,39.99275,132,2216
116.41774,39.98582,133,2216
116.41225,39.90272,134,2216
116.41299,39.84459,135,2216
116.41595,39.85671,136,2216
116.41664,39.88595,137,2216
116.41769,39.88565,138,2216
116.41769,39.88565,139,2216
116.41769,39.88565,140,2216
116.36752,39.91247,141,2216
116.31586,39.92696,142,2216
116.30458,39.93114,143,2216
116.29892,39.93763,144,2216
116.34713,40.01398,145,2216
116.34294,39.99948,146,2216
116.37843,39.88843,147,2216
116.41779,39.88546,148,2216
116.41779,39.88546,149,2216
116.41779,39.88546,150,2216
116.41779,39.88546,151,2216
116.41779,39.88546,152,2216
116.41779,39.88546,153,2216
116.41779,39.88546,154,2216
116.41779,39.88546,155,2216
116.41779,39.88546,156,2216
116.41779,39.88546,157,2216
116.41779,39.88546,158,2216
116.41779,39.88546,159,2216
116.41779,39.88546,160,2216
116.41779,39.88546,161,2216
116.41779,39.88546,162,2216
116.41779,39.88546,163,2216
116.41779,39.88546,164,2216
116.41779,39.88546,165,2216
116.41779,39.88546,166,2216
116.41779,39.88546,167,2216
116.41779,39.88546,168,2216
116.41779,39.88546,169,2216
116.41779,39.88546,170,2216
116.41804,39.88289,171,2216
116.41384,39.885,172,2216
116.41307,39.88923,173,2216
116.45885,39.88966,174,2216
116.4557,39.88332,175,2216
116.47611,39.92143,176,2216
116.48323,39.91447,177,2216
116.43202,39.92278,178,2216
116.4356,39.92114,179,2216
116.43334,39.923,180,2216
116.42832,39.92886,181,2216
116.42822,39.92899,182,2216
116.42965,39.90445,183,2216
116.41863,39.8984,184,2216
116.43215,39.89964,185,2216
116.43478,39.91038,186,2216
116.4347,39.90875,187,2216
116.43471,39.90794,188,2216
116.40093,39.90667,189,2216
116.36373,39.90591,190,2216
116.32024,39.90624,191,2216
116.26852,39.90634,192,2216
116.25425,39.90269,193,2216
116.25284,39.90161,194,2216
116.25846,39.90268,195,2216
116.26907,39.91511,196,2216
116.29493,39.92267,197,2216
116.31604,39.92235,198,2216
116.33794,39.92183,199,2216
116.34705,39.91941,200,2216
116.32842,39.91566,201,2216
116.30894,39.90994,202,2216
116.285,39.93504,203,2216
116.30345,39.93104,204,2216
116.32928,39.93102,205,2216
116.34742,39.93085,206,2216
116.34732,39.93083,207,2216
116.34732,39.93083,208,2216
116.34815,39.93089,209,2216
116.34942,39.93059,210,2216
116.36008,39.89809,211,2216
116.38964,39.89868,212,2216
116.41251,39.89207,213,2216
116.41788,39.88558,214,2216
116.41774,39.88556,215,2216
116.41774,39.88556,216,2216
116.41774,39.88556,217,2216
116.41774,39.88556,218,2216
116.41774,39.88556,219,2216
116.41774,39.88556,220,2216
116.41774,39.88556,221,2216
116.41774,39.88556,222,2216
116.41774,39.88556,223,2216
116.41774,39.88556,224,2216
116.41774,39.88556,225,2216
116.41774,39.88556,226,2216
116.41774,39.88556,227,2216
116.41783,39.88555,228,2216
116.42481,39.88685,229,2216
116.42844,39.88833,230,2216
116.4195,39.90339,231,2216
116.4213,39.90335,232,2216
116.39703,39.8995,233,2216
116.38852,39.89866,234,2216
116.41885,39.89197,235,2216
116.42358,39.8895,236,2216
116.41782,39.88575,237,2216
116.41807,39.88299,238,2216
116.45266,39.88151,239,2216
116.46906,39.88301,240,2216
116.49009,39.87524,241,2216
116.48332,39.87642,242,2216
116.46616,39.87465,243,2216
116.45525,39.87654,244,2216
116.45558,39.92755,245,2216
116.43897,39.9599,246,2216
116.43631,39.95364,247,2216
116.45394,39.91261,248,2216
116.44834,39.95466,249,2216
116.45574,39.9484,250,2216
116.44514,39.95897,251,2216
116.45675,39.99347,252,2216
116.45675,39.99347,253,2216
116.45984,39.98669,254,2216
116.46222,39.98444,255,2216
116.46883,39.98096,256,2216
116.47339,39.97504,257,2216
116.63945,39.88432,258,2216
116.63487,39.89815,259,2216
116.60233,39.90811,260,2216
116.58944,39.90855,261,2216
116.55723,39.90859,262,2216
116.51404,39.90696,263,2216
116.47175,39.90971,264,2216
116.45844,39.90652,265,2216
116.45345,39.90545,266,2216
116.45329,39.90685,267,2216
116.43975,39.92206,268,2216
116.42914,39.92888,269,2216
116.43314,39.93233,270,2216
116.42875,39.92357,271,2216
116.43448,39.92301,272,2216
116.45319,39.87493,273,2216
116.43851,39.88975,274,2216
116.43208,39.88787,275,2216
116.43757,39.92788,276,2216
116.40671,39.92448,277,2216
116.40671,39.92448,278,2216
116.41156,39.91342,279,2216
116.41221,39.89591,280,2216
116.41783,39.88559,281,2216
116.41788,39.8856,282,2216
116.41777,39.88555,283,2216
116.41777,39.88555,284,2216
116.41777,39.88555,285,2216
116.41777,39.88555,286,2216
116.41777,39.88555,287,2216
116.41777,39.88555,288,2216
116.41777,39.88555,289,2216
116.41777,39.88555,290,2216
116.41777,39.88555,291,2216
116.41777,39.88555,292,2216
116.41777,39.88555,293,2216
116.41777,39.88555,294,2216
116.41777,39.88555,295,2216
116.41777,39.88555,296,2216
116.41777,39.88555,297,2216
116.41777,39.88555,298,2216
116.41777,39.88555,299,2216
116.41777,39.88555,300,2216
116.41777,39.88555,301,2216
116.41777,39.88555,302,2216
116.41777,39.88555,303,2216
116.41777,39.88555,304,2216
116.41777,39.88555,305,2216
116.42497,39.88414,306,2216
116.44957,39.88303,307,2216
116.43865,39.88915,308,2216
116.37168,39.90626,309,2216
116.36919,39.90598,310,2216
116.34244,39.89165,311,2216
116.35157,39.8638,312,2216
116.35374,39.86474,313,2216
116.35392,39.86672,314,2216
116.36524,39.8657,315,2216
116.40505,39.87069,316,2216
116.42757,39.87974,317,2216
116.4281,39.8895,318,2216
116.35119,39.84493,319,2216
116.35315,39.84567,320,2216
116.3535,39.84883,321,2216
116.35339,39.85004,322,2216
116.40077,39.84314,323,2216
116.64948,40.0348,324,2216
116.66606,40.03524,325,2216
116.67016,39.99466,326,2216
116.6504,39.94843,327,2216
116.63787,39.92564,328,2216
116.63845,39.92547,329,2216
116.65135,39.90881,330,2216
116.66262,39.90742,331,2216
116.63923,39.9058,332,2216
116.61634,39.90569,333,2216
116.59016,39.90851,334,2216
116.5549,39.90854,335,2216
116.52388,39.90858,336,2216
116.47758,39.90717,337,2216
116.45615,39.90334,338,2216
116.45001,39.89224,339,2216
116.42465,39.84606,340,2216
116.4147,39.88044,341,2216
116.41781,39.88569,342,2216
116.42409,39.88271,343,2216
116.42632,39.90381,344,2216
116.42021,39.9143,345,2216
116.426,39.90359,346,2216
116.42058,39.90336,347,2216
116.45742,39.88813,348,2216
116.49259,39.89719,349,2216
116.47121,39.88267,350,2216
116.45051,39.88321,351,2216
116.42738,39.8829,352,2216
116.41773,39.88567,353,2216
116.41785,39.88562,354,2216
116.46154,39.878,355,2216
116.46955,39.87055,356,2216
116.46968,39.87178,357,2216
116.43354,39.8709,358,2216
116.43759,39.87374,359,2216
116.4388,39.8793,360,2216
116.43652,39.88022,361,2216
116.43656,39.88298,362,2216
116.43961,39.87553,363,2216
116.43748,39.8833,364,2216
116.41779,39.8857,365,2216
116.41769,39.88566,366,2216
116.41769,39.88566,367,2216
116.41769,39.88566,368,2216
116.41769,39.88566,369,2216
116.41769,39.88566,370,2216
116.41769,39.88566,371,2216
116.41769,39.88566,372,2216
116.41769,39.88566,373,2216
116.41769,39.88566,374,2216
116.41769,39.88566,375,2216
116.41769,39.88566,376,2216
116.41769,39.88566,377,2216
116.41769,39.88566,378,2216
116.41769,39.88566,379,2216
116.41769,39.88566,380,2216
116.41769,39.88566,381,2216
116.41769,39.88566,382,2216
116.41769,39.88566,383,2216
116.41769,39.88566,384,2216
116.41769,39.88566,385,2216
116.41769,39.88566,386,2216
116.41769,39.88566,387,2216
116.41769,39.88566,388,2216
116.41843,39.88606,389,2216
116.43399,39.883,390,2216
116.45404,39.88298,391,2216
116.46172,39.8825,392,2216
116.45487,39.8873,393,2216
116.45487,39.8873,394,2216
116.47284,39.84716,395,2216
116.46572,39.86079,396,2216
116.47071,39.87001,397,2216
116.46194,39.8832,398,2216
116.45682,39.88478,399,2216
116.44992,39.89234,400,2216
116.41508,39.89918,401,2216
116.41508,39.89918,402,2216
116.42136,39.90337,403,2216
116.42152,39.9034,404,2216
116.36931,39.92274,405,2216
116.35021,39.92445,406,2216
116.34857,39.92689,407,2216
116.34978,39.9407,408,2216
116.24657,39.92708,409,2216
116.26822,39.92718,410,2216
116.27534,39.94515,411,2216
116.29925,39.94261,412,2216
116.30384,39.93223,413,2216
116.30384,39.93223,414,2216
116.31108,39.95186,415,2216
116.31769,39.95344,416,2216
116.31955,39.96628,417,2216
116.31464,39.89504,418,2216
116.31531,39.90524,419,2216
116.57665,40.06013,420,2216
116.56702,40.07079,421,2216
116.57762,40.06265,422,2216
116.58128,40.07117,423,2216
116.58128,40.07117,424,2216
116.58055,40.07496,425,2216
116.58058,40.07519,426,2216
116.58185,40.0758,427,2216
116.58185,40.07586,428,2216
116.58382,40.0764,429,2216
116.57078,40.03874,430,2216
116.49094,39.99508,431,2216
116.43542,39.98666,432,2216
116.3622,39.98603,433,2216
116.28935,39.98278,434,2216
116.2792,39.97219,435,2216
116.29308,39.9596,436,2216
116.29021,39.96193,437,2216
116.30179,39.96054,438,2216
116.30366,39.94212,439,2216
116.30366,39.94212,440,2216
116.31345,39.93107,441,2216
116.32649,39.92177,442,2216
116.41775,39.88557,443,2216
116.41752,39.88559,444,2216
116.41752,39.88559,445,2216
116.41752,39.88559,446,2216
116.41752,39.88559,447,2216
116.41752,39.88559,448,2216
116.41752,39.88559,449,2216
116.41752,39.88559,450,2216
116.41752,39.88559,451,2216
116.41752,39.88559,452,2216
116.41752,39.88559,453,2216
116.41752,39.88559,454,2216
116.41752,39.88559,455,2216
116.41752,39.88559,456,2216
116.41752,39.88559,457,2216
116.41752,39.88559,458,2216
116.41752,39.88559,459,2216
116.41752,39.88559,460,2216
116.41752,39.88559,461,2216
116.41752,39.88559,462,2216
116.41752,39.88559,463,2216
116.41752,39.88559,464,2216
116.41752,39.88559,465,2216
116.41752,39.88559,466,2216
116.45432,39.88312,467,2216
116.4711,39.88148,468,2216
116.46948,39.87017,469,2216
116.47314,39.86996,470,2216
116.49276,39.90642,471,2216
116.49127,39.90721,472,2216
116.48008,39.89778,473,2216
116.46515,39.91516,474,2216
116.4757,39.93233,475,2216
116.43425,39.88103,476,2216
116.40537,39.85866,477,2216
116.40858,39.86062,478,2216
116.4525,39.88027,479,2216
116.46055,39.86995,480,2216
116.47072,39.86999,481,2216
116.47012,39.87063,482,2216
116.47,39.87057,483,2216
116.47,39.87057,484,2216
116.47,39.87057,485,2216
116.47,39.87057,486,2216
116.47,39.87057,487,2216
116.47,39.87057,488,2216
116.46997,39.87063,489,2216
116.46156,39.8711,490,2216
116.46163,39.87527,491,2216
116.46164,39.87525,492,2216
116.46164,39.87525,493,2216
116.46164,39.87525,494,2216
116.46164,39.87525,495,2216
116.46164,39.87525,496,2216
116.46164,39.87525,497,2216
116.46164,39.87525,498,2216
116.46164,39.87525,499,2216
116.46164,39.87525,500,2216
116.46164,39.87525,501,2216
116.46164,39.87525,502,2216
116.46164,39.87525,503,2216
116.46164,39.87525,504,2216
116.46164,39.87525,505,2216
116.46164,39.87525,506,2216
116.46164,39.87525,507,2216
116.46164,39.87525,508,2216
116.46164,39.87525,509,2216
116.46164,39.87525,510,2216
116.46164,39.87525,511,2216
116.46164,39.87525,512,2216
116.46164,39.87525,513,2216
116.46992,39.87047,514,2216
116.47003,39.87039,515,2216
116.47003,39.87039,516,2216
116.47121,39.88277,517,2216
116.45526,39.88309,518,2216
116.43148,39.88322,519,2216
116.41791,39.88577,520,2216
116.41778,39.88571,521,2216
116.41778,39.88571,522,2216
116.41778,39.88571,523,2216
116.41778,39.88571,524,2216
116.41778,39.88571,525,2216
116.41778,39.88571,526,2216
116.41778,39.88571,527,2216
116.41778,39.88571,528,2216
116.41778,39.88571,529,2216
116.41778,39.88571,530,2216
116.41778,39.88571,531,2216
116.41778,39.88571,532,2216
116.41778,39.88571,533,2216
116.41778,39.88571,534,2216
