x,y,k,tid
116.44586,39.95125,0,2433
116.44586,39.95125,1,2433
116.44586,39.95125,2,2433
116.44586,39.95125,3,2433
116.44586,39.95125,4,2433
116.44586,39.95125,5,2433
116.44586,39.95125,6,2433
116.44586,39.95125,7,2433
116.44586,39.95125,8,2433
116.44586,39.95125,9,2433
116.44586,39.95125,10,2433
116.44586,39.95125,11,2433
116.44586,39.95125,12,2433
116.44586,39.95125,13,2433
116.44586,39.95125,14,2433
116.44586,39.95125,15,2433
116.44655,39.9546,16,2433
116.44772,39.95519,17,2433
116.42745,39.93709,18,2433
116.42751,39.93552,19,2433
116.42849,39.91627,20,2433
116.42854,39.91494,21,2433
116.41201,39.90689,22,2433
116.41001,39.9069,23,2433
116.40763,39.90916,24,2433
116.42261,39.90703,25,2433
116.42798,39.92614,26,2433
116.42757,39.94455,27,2433
116.42727,39.94693,28,2433
116.3892,39.95087,29,2433
116.38904,39.95305,30,2433
116.38822,39.98152,31,2433
116.38814,39.98334,32,2433
116.38082,39.99634,33,2433
116.38008,39.99643,34,2433
116.35239,39.9858,35,2433
116.35062,39.98586,36,2433
116.33983,39.98499,37,2433
116.34051,39.98504,38,2433
116.33986,39.97514,39,2433
116.33951,39.97514,40,2433
116.32255,39.97505,41,2433
116.32075,39.97501,42,2433
116.31241,39.97226,43,2433
116.30089,39.96922,44,2433
116.30549,39.97757,45,2433
116.31275,39.97147,46,2433
116.31275,39.97147,47,2433
116.31341,39.96987,48,2433
116.33799,39.96623,49,2433
116.33949,39.9662,50,2433
116.34806,39.95726,51,2433
116.34806,39.95726,52,2433
116.34987,39.94655,53,2433
116.34991,39.94569,54,2433
116.34922,39.93857,55,2433
116.34929,39.93795,56,2433
116.34987,39.92589,57,2433
116.34989,39.92523,58,2433
116.35628,39.91695,59,2433
116.35808,39.91697,60,2433
116.36513,39.90858,61,2433
116.36516,39.90856,62,2433
116.36227,39.91039,63,2433
116.36104,39.91041,64,2433
116.35487,39.91252,65,2433
116.35198,39.91044,66,2433
116.35273,39.91035,67,2433
116.35167,39.91227,68,2433
116.35164,39.91232,69,2433
116.33878,39.91405,70,2433
116.33878,39.91405,71,2433
116.34806,39.91703,72,2433
116.34806,39.91703,73,2433
116.3501,39.92507,74,2433
116.35007,39.9258,75,2433
116.36695,39.94724,76,2433
116.37054,39.94743,77,2433
116.39373,39.94757,78,2433
116.39373,39.94757,79,2433
116.39462,39.94762,80,2433
116.41237,39.94791,81,2433
116.41283,39.94791,82,2433
116.44931,39.9553,83,2433
116.45294,39.9548,84,2433
116.45281,39.95467,85,2433
116.45288,39.95455,86,2433
116.45288,39.95455,87,2433
116.45445,39.95436,88,2433
116.45449,39.95393,89,2433
116.45537,39.92196,90,2433
116.45534,39.92102,91,2433
116.45293,39.90731,92,2433
116.45293,39.90731,93,2433
116.4473,39.90719,94,2433
116.4473,39.90719,95,2433
116.44707,39.90719,96,2433
116.43139,39.90724,97,2433
116.42948,39.90728,98,2433
116.4228,39.90657,99,2433
116.42289,39.90666,100,2433
116.43438,39.89777,101,2433
116.4361,39.89738,102,2433
116.42251,39.89231,103,2433
116.42251,39.89231,104,2433
116.4158,39.89188,105,2433
116.4158,39.89188,106,2433
116.40657,39.89156,107,2433
116.40657,39.89156,108,2433
116.38627,39.88876,109,2433
116.38536,39.88866,110,2433
116.37805,39.89832,111,2433
116.37805,39.89832,112,2433
116.36808,39.90375,113,2433
116.36905,39.90409,114,2433
116.36799,39.90516,115,2433
116.36799,39.90516,116,2433
116.36982,39.90598,117,2433
116.36976,39.90597,118,2433
116.34759,39.90591,119,2433
116.34759,39.90591,120,2433
116.33374,39.90628,121,2433
116.33355,39.90628,122,2433
116.32998,39.90629,123,2433
116.32998,39.90629,124,2433
116.33163,39.90121,125,2433
116.33126,39.90131,126,2433
116.32938,39.90565,127,2433
116.32938,39.90565,128,2433
116.32914,39.91074,129,2433
116.32942,39.91266,130,2433
116.32974,39.91266,131,2433
116.33283,39.91266,132,2433
116.33669,39.91272,133,2433
116.34655,39.91252,134,2433
116.35025,39.91214,135,2433
116.35021,39.90634,136,2433
116.3504,39.90289,137,2433
116.32993,39.89605,138,2433
116.32562,39.89588,139,2433
116.30366,39.89585,140,2433
116.28805,39.8958,141,2433
116.26789,39.88703,142,2433
116.27124,39.87598,143,2433
116.27305,39.84806,144,2433
116.27491,39.84513,145,2433
116.27733,39.85598,146,2433
116.27748,39.85992,147,2433
116.30973,39.86626,148,2433
116.343,39.86674,149,2433
116.343,39.86674,150,2433
116.35752,39.86769,151,2433
116.39361,39.87026,152,2433
116.39774,39.8705,153,2433
116.41185,39.8696,154,2433
116.41518,39.86785,155,2433
116.4154,39.86477,156,2433
116.41544,39.8646,157,2433
116.41728,39.87029,158,2433
116.40545,39.87089,159,2433
116.38128,39.87816,160,2433
116.38104,39.88199,161,2433
116.37861,39.88729,162,2433
116.37854,39.89042,163,2433
116.37785,39.90204,164,2433
116.37766,39.90371,165,2433
116.37696,39.90428,166,2433
116.37696,39.90428,167,2433
116.37696,39.90428,168,2433
116.3766,39.90498,169,2433
116.37659,39.90504,170,2433
116.3766,39.90514,171,2433
116.3756,39.92084,172,2433
116.37248,39.92124,173,2433
116.37089,39.92916,174,2433
116.37315,39.93148,175,2433
116.38951,39.93198,176,2433
116.39389,39.93201,177,2433
116.40026,39.91704,178,2433
116.40371,39.91404,179,2433
116.41219,39.91411,180,2433
116.41163,39.916,181,2433
116.41878,39.92292,182,2433
116.4238,39.923,183,2433
116.43405,39.92273,184,2433
116.43405,39.92273,185,2433
116.44421,39.92246,186,2433
116.44429,39.9309,187,2433
116.44429,39.9309,188,2433
116.44696,39.93457,189,2433
116.44835,39.93453,190,2433
116.44929,39.9456,191,2433
116.44924,39.94897,192,2433
116.44611,39.95153,193,2433
116.44602,39.95152,194,2433
116.44926,39.94809,195,2433
116.44454,39.94643,196,2433
116.44425,39.94009,197,2433
116.45537,39.93765,198,2433
116.45539,39.92279,199,2433
116.45545,39.91529,200,2433
116.46528,39.90695,201,2433
116.47155,39.90394,202,2433
116.47965,39.89936,203,2433
116.48058,39.8972,204,2433
116.48001,39.89878,205,2433
116.48169,39.89939,206,2433
116.48558,39.90529,207,2433
116.48394,39.9158,208,2433
116.50557,39.9219,209,2433
116.51004,39.92189,210,2433
116.51968,39.92259,211,2433
116.51843,39.92448,212,2433
116.5124,39.92203,213,2433
116.50502,39.93749,214,2433
116.4677,39.93234,215,2433
116.47773,39.93236,216,2433
116.48174,39.93046,217,2433
116.47641,39.93255,218,2433
116.44516,39.93245,219,2433
116.42912,39.93232,220,2433
116.42788,39.92419,221,2433
116.41994,39.92715,222,2433
116.41975,39.93215,223,2433
116.41935,39.94411,224,2433
116.41917,39.948,225,2433
116.38327,39.94763,226,2433
116.37322,39.9541,227,2433
116.3702,39.99189,228,2433
116.3702,39.99189,229,2433
116.35707,40.00946,230,2433
116.33637,40.03621,231,2433
116.32613,40.04977,232,2433
116.31421,40.07004,233,2433
116.3318,40.06986,234,2433
116.33303,40.07725,235,2433
116.34228,40.07904,236,2433
116.36531,40.08015,237,2433
116.37598,40.07915,238,2433
116.39393,40.06606,239,2433
116.40302,40.06334,240,2433
116.40761,40.0566,241,2433
116.41112,40.0582,242,2433
116.41076,40.06255,243,2433
116.42032,40.06571,244,2433
116.43408,40.07626,245,2433
116.47308,40.09027,246,2433
116.49363,40.09377,247,2433
116.51743,40.10686,248,2433
116.5198,40.10746,249,2433
116.5198,40.10746,250,2433
116.5198,40.10746,251,2433
116.51982,40.1075,252,2433
116.51977,40.10762,253,2433
116.51977,40.10762,254,2433
116.51977,40.10762,255,2433
116.51977,40.10762,256,2433
116.51977,40.10762,257,2433
116.51977,40.10762,258,2433
116.51977,40.10762,259,2433
116.51977,40.10762,260,2433
116.51977,40.10762,261,2433
116.51977,40.10762,262,2433
116.51977,40.10762,263,2433
116.51977,40.10762,264,2433
116.51977,40.10762,265,2433
116.51977,40.10762,266,2433
116.51977,40.10762,267,2433
116.51977,40.10762,268,2433
116.51977,40.10762,269,2433
116.51977,40.10762,270,2433
116.51977,40.10762,271,2433
116.51977,40.10762,272,2433
116.51977,40.10762,273,2433
116.51977,40.10762,274,2433
116.51977,40.10762,275,2433
116.50973,40.09496,276,2433
116.50973,40.09496,277,2433
116.50564,40.09438,278,2433
116.45138,40.08072,279,2433
116.45015,40.08167,280,2433
116.4304,40.06624,281,2433
116.43042,40.06494,282,2433
116.42757,40.06104,283,2433
116.42632,40.06121,284,2433
116.40796,40.05665,285,2433
116.40796,40.05665,286,2433
116.40716,40.04209,287,2433
116.40721,40.04199,288,2433
116.4077,40.02064,289,2433
116.41125,40.02066,290,2433
116.49045,40.0011,291,2433
116.49106,39.99869,292,2433
116.55237,40.02864,293,2433
116.55671,40.03034,294,2433
116.57301,40.04101,295,2433
116.57364,40.04173,296,2433
116.57905,40.04654,297,2433
116.57921,40.04669,298,2433
116.58436,40.05517,299,2433
116.58434,40.05545,300,2433
116.58329,40.06222,301,2433
116.58318,40.0629,302,2433
116.582,40.07292,303,2433
116.58579,40.07992,304,2433
116.58093,40.07209,305,2433
116.55912,40.0616,306,2433
116.55635,40.06232,307,2433
116.5094,40.0801,308,2433
116.50617,40.08147,309,2433
116.46981,40.08785,310,2433
116.46651,40.08533,311,2433
116.42875,40.07229,312,2433
116.42851,40.07207,313,2433
116.42444,40.0645,314,2433
116.42422,40.06389,315,2433
116.41325,40.06037,316,2433
116.41431,40.06044,317,2433
116.43041,40.06698,318,2433
116.43044,40.06597,319,2433
116.42458,40.06514,320,2433
116.42458,40.06514,321,2433
116.42458,40.06514,322,2433
116.40734,40.0666,323,2433
116.40734,40.0666,324,2433
116.40666,40.05175,325,2433
116.40666,40.05175,326,2433
116.4065,40.05156,327,2433
116.40355,40.02907,328,2433
116.40318,40.02692,329,2433
116.41065,40.00466,330,2433
116.41099,40.00236,331,2433
116.41774,39.99198,332,2433
116.42009,39.98455,333,2433
116.41918,39.98453,334,2433
116.3493,39.93414,335,2433
116.3538,39.93098,336,2433
116.35457,39.93097,337,2433
116.35024,39.93931,338,2433
116.34531,39.93854,339,2433
116.34531,39.93854,340,2433
116.35691,39.94414,341,2433
116.37412,39.94926,342,2433
116.37407,39.94958,343,2433
116.38397,39.9513,344,2433
116.38397,39.95224,345,2433
116.38912,39.95598,346,2433
116.38909,39.95658,347,2433
116.39605,39.96314,348,2433
116.39607,39.96283,349,2433
116.39998,39.96074,350,2433
116.39961,39.96076,351,2433
116.40633,39.96747,352,2433
116.40718,39.96747,353,2433
116.41123,39.97964,354,2433
116.41121,39.98038,355,2433
116.41791,39.98855,356,2433
116.41791,39.98855,357,2433
116.41101,39.99358,358,2433
116.41101,39.99358,359,2433
116.41101,39.99358,360,2433
116.40088,39.99079,361,2433
116.40062,39.99078,362,2433
116.46896,39.99566,363,2433
116.4663,39.99333,364,2433
116.46582,39.9929,365,2433
116.46582,39.9929,366,2433
116.44674,39.98107,367,2433
116.44608,39.98151,368,2433
116.4189,39.96804,369,2433
116.41837,39.96802,370,2433
116.38401,39.96705,371,2433
116.38316,39.96703,372,2433
116.33996,39.96634,373,2433
116.33869,39.96636,374,2433
116.30425,39.96214,375,2433
116.30386,39.96205,376,2433
116.30664,39.96246,377,2433
116.30725,39.96264,378,2433
116.31715,39.95531,379,2433
116.31723,39.95471,380,2433
116.32222,39.93594,381,2433
116.32212,39.93585,382,2433
116.3414,39.93778,383,2433
116.34204,39.93799,384,2433
116.35045,39.93882,385,2433
116.35045,39.93882,386,2433
116.35047,39.93868,387,2433
116.35047,39.93868,388,2433
116.34823,39.96984,389,2433
116.3482,39.97095,390,2433
116.34675,39.99793,391,2433
116.34675,39.99793,392,2433
116.34563,40.02066,393,2433
116.3459,40.02093,394,2433
116.35024,40.03211,395,2433
116.34993,40.03272,396,2433
116.34776,40.02887,397,2433
116.34775,40.02887,398,2433
116.33606,40.03691,399,2433
116.33606,40.03691,400,2433
116.32869,40.047,401,2433
116.3281,40.04779,402,2433
116.34768,40.06025,403,2433
116.34781,40.06036,404,2433
116.3344,40.05791,405,2433
116.3344,40.05791,406,2433
116.32385,40.05184,407,2433
116.32415,40.05137,408,2433
116.34104,40.02977,409,2433
116.3415,40.02913,410,2433
116.36058,40.00816,411,2433
116.40166,40.00677,412,2433
116.40159,40.00598,413,2433
116.40128,39.99254,414,2433
116.40128,39.99229,415,2433
116.40139,39.97113,416,2433
116.4013,39.97022,417,2433
116.40165,39.94746,418,2433
116.4293,39.94803,419,2433
116.43078,39.94802,420,2433
116.44608,39.95144,421,2433
116.44738,39.95067,422,2433
116.44206,39.94947,423,2433
116.44206,39.94947,424,2433
116.44206,39.94947,425,2433
116.44206,39.94947,426,2433
116.44206,39.94947,427,2433
116.44206,39.94947,428,2433
116.44206,39.94947,429,2433
116.44206,39.94947,430,2433
116.44206,39.94947,431,2433
116.44206,39.94947,432,2433
116.44207,39.94947,433,2433
116.44207,39.94947,434,2433
116.44207,39.94947,435,2433
116.44207,39.94947,436,2433
116.44207,39.94947,437,2433
116.44207,39.94947,438,2433
116.44207,39.94947,439,2433
116.44207,39.94947,440,2433
116.44207,39.94947,441,2433
116.44207,39.94947,442,2433
116.44207,39.94947,443,2433
116.44884,39.94973,444,2433
116.45028,39.95015,445,2433
116.45547,39.94845,446,2433
116.45548,39.94169,447,2433
116.45547,39.92987,448,2433
116.4554,39.92627,449,2433
116.45535,39.91423,450,2433
116.45502,39.90879,451,2433
116.45515,39.90459,452,2433
116.45498,39.90385,453,2433
116.45495,39.87941,454,2433
116.45576,39.86053,455,2433
116.45404,39.86253,456,2433
116.46115,39.86653,457,2433
116.45686,39.86659,458,2433
116.44069,39.85772,459,2433
116.43536,39.85727,460,2433
116.43863,39.85727,461,2433
116.43863,39.85727,462,2433
116.43863,39.85727,463,2433
116.44512,39.85876,464,2433
116.4548,39.86685,465,2433
116.45503,39.86986,466,2433
116.38982,39.8894,467,2433
116.37984,39.8883,468,2433
116.3797,39.88829,469,2433
116.37018,39.88809,470,2433
116.3683,39.89358,471,2433
116.37228,39.89846,472,2433
116.37782,39.89867,473,2433
116.39363,39.89882,474,2433
116.40075,39.89935,475,2433
116.40411,39.89945,476,2433
116.40411,39.89945,477,2433
116.4115,39.8996,478,2433
116.42453,39.89474,479,2433
116.42225,39.89475,480,2433
116.42119,39.89764,481,2433
116.42647,39.89935,482,2433
116.43246,39.90508,483,2433
116.43265,39.90472,484,2433
116.43265,39.90472,485,2433
116.43265,39.90472,486,2433
116.43265,39.90472,487,2433
116.43602,39.90479,488,2433
116.43758,39.9065,489,2433
116.43762,39.90794,490,2433
116.43432,39.9212,491,2433
116.43756,39.9258,492,2433
116.43835,39.93243,493,2433
116.44396,39.93988,494,2433
116.44624,39.94339,495,2433
116.44349,39.94682,496,2433
116.44014,39.96183,497,2433
116.43266,39.96674,498,2433
116.40494,39.96877,499,2433
116.40676,39.96987,500,2433
116.40402,39.96774,501,2433
116.39115,39.96744,502,2433
116.3867,39.97545,503,2433
116.38109,39.97498,504,2433
116.38104,39.97498,505,2433
116.38104,39.97498,506,2433
116.38104,39.97498,507,2433
116.38104,39.97499,508,2433
116.38104,39.97499,509,2433
116.38117,39.97531,510,2433
116.37511,39.97743,511,2433
116.3782,39.98606,512,2433
116.3782,39.98605,513,2433
116.37821,39.98605,514,2433
116.37821,39.98605,515,2433
116.37833,39.98604,516,2433
116.38813,39.97077,517,2433
116.38861,39.96131,518,2433
116.38921,39.94856,519,2433
116.39211,39.94745,520,2433
116.4093,39.94772,521,2433
116.40991,39.94774,522,2433
116.41272,39.95038,523,2433
116.41272,39.95038,524,2433
116.41304,39.95262,525,2433
116.41894,39.95558,526,2433
116.41757,39.95802,527,2433
116.40218,39.9578,528,2433
116.39849,39.96085,529,2433
116.3947,39.96209,530,2433
116.39317,39.96204,531,2433
116.39071,39.9619,532,2433
116.37655,39.96159,533,2433
116.37407,39.96401,534,2433
116.37521,39.97185,535,2433
116.37561,39.97515,536,2433
116.3746,39.97894,537,2433
116.38251,39.9863,538,2433
116.40051,39.98697,539,2433
116.43908,39.98511,540,2433
116.4479,39.98075,541,2433
116.4479,39.98075,542,2433
116.51977,40.10749,543,2433
116.51747,40.10692,544,2433
116.51277,40.0954,545,2433
116.4854,40.09355,546,2433
116.44584,40.08107,547,2433
116.43226,40.06715,548,2433
116.4304,40.06228,549,2433
116.42474,40.06166,550,2433
116.4181,40.06096,551,2433
116.4152,40.05987,552,2433
116.41285,40.06042,553,2433
116.41285,40.06042,554,2433
116.41281,40.06043,555,2433
116.41281,40.06043,556,2433
116.41281,40.06043,557,2433
116.41281,40.06043,558,2433
116.41281,40.06043,559,2433
116.41281,40.06043,560,2433
116.40747,40.05552,561,2433
116.40613,40.04373,562,2433
116.41563,40.04206,563,2433
116.41602,40.04204,564,2433
116.40971,40.03618,565,2433
116.41152,40.02712,566,2433
116.40593,40.00771,567,2433
116.40229,40.00465,568,2433
116.39646,40.00385,569,2433
116.39647,40.00385,570,2433
116.39647,40.00385,571,2433
116.39642,40.00364,572,2433
116.39645,40.00359,573,2433
116.39645,40.00359,574,2433
116.39643,40.00373,575,2433
116.39643,40.00373,576,2433
116.39642,40.00419,577,2433
116.40459,40.0049,578,2433
116.41105,40.00146,579,2433
116.41811,39.99737,580,2433
116.41791,39.98932,581,2433
116.43071,39.98761,582,2433
116.42533,39.96965,583,2433
116.43163,39.96717,584,2433
116.4455,39.95806,585,2433
116.43894,39.94965,586,2433
116.43431,39.94381,587,2433
116.43584,39.9469,588,2433
116.4409,39.94661,589,2433
116.44116,39.94447,590,2433
116.43633,39.93986,591,2433
116.42517,39.93976,592,2433
116.4111,39.93955,593,2433
116.40947,39.93663,594,2433
116.41004,39.93225,595,2433
116.40224,39.9425,596,2433
116.40224,39.9425,597,2433
116.40895,39.94779,598,2433
116.42938,39.94807,599,2433
116.45959,39.95833,600,2433
116.46886,39.96669,601,2433
116.47711,39.97413,602,2433
116.47357,39.97792,603,2433
116.47355,39.97794,604,2433
116.47355,39.97794,605,2433
116.47355,39.97794,606,2433
116.47355,39.97794,607,2433
116.47312,39.97817,608,2433
116.46165,39.97832,609,2433
116.45583,39.97503,610,2433
116.42125,39.98767,611,2433
116.40139,39.99094,612,2433
116.403,39.99746,613,2433
116.40641,39.99917,614,2433
116.40663,39.99658,615,2433
116.40663,39.99658,616,2433
116.40611,39.99357,617,2433
116.40715,39.99001,618,2433
116.40715,39.99001,619,2433
116.40426,39.99067,620,2433
116.40941,39.99374,621,2433
116.41514,39.98767,622,2433
116.38417,39.98666,623,2433
116.38417,39.98666,624,2433
116.37308,39.98237,625,2433
116.36771,39.97925,626,2433
116.36381,39.98064,627,2433
116.35434,39.98037,628,2433
116.34794,39.98017,629,2433
116.32922,39.9849,630,2433
116.29924,39.98401,631,2433
116.29924,39.98401,632,2433
116.28652,40.00022,633,2433
116.28041,40.00053,634,2433
116.26485,40.00731,635,2433
116.25853,40.00473,636,2433
116.24631,40.00382,637,2433
116.24203,40.0041,638,2433
116.24786,40.00432,639,2433
116.26232,40.00419,640,2433
116.27608,40.00049,641,2433
116.28592,39.99635,642,2433
116.28942,39.99566,643,2433
116.29372,39.99599,644,2433
116.29552,39.99389,645,2433
116.29801,39.99334,646,2433
116.29801,39.99334,647,2433
116.29832,39.99264,648,2433
116.29841,39.99189,649,2433
116.29841,39.99189,650,2433
116.29841,39.99189,651,2433
116.29841,39.99189,652,2433
116.29841,39.99189,653,2433
116.29841,39.99189,654,2433
116.29841,39.99189,655,2433
116.29841,39.99189,656,2433
116.30066,39.9964,657,2433
116.30882,39.99843,658,2433
116.31039,39.98111,659,2433
116.31105,39.97569,660,2433
116.31465,39.96626,661,2433
116.30404,39.93445,662,2433
116.30412,39.9133,663,2433
116.31774,39.89553,664,2433
116.35139,39.89491,665,2433
116.35017,39.90056,666,2433
116.40002,39.89929,667,2433
116.43656,39.89605,668,2433
116.43896,39.89502,669,2433
116.43928,39.89374,670,2433
116.43516,39.89243,671,2433
116.42966,39.89601,672,2433
116.42137,39.89411,673,2433
116.41152,39.91744,674,2433
116.4113,39.92279,675,2433
116.40721,39.92735,676,2433
116.40264,39.93092,677,2433
116.33894,39.93111,678,2433
116.32013,39.93117,679,2433
116.31949,39.92703,680,2433
116.31445,39.92701,681,2433
116.31314,39.92609,682,2433
116.31794,39.93111,683,2433
116.31794,39.93111,684,2433
116.29989,39.9174,685,2433
116.29405,39.92242,686,2433
116.29915,39.92254,687,2433
116.32822,39.92389,688,2433
116.3212,39.92214,689,2433
116.30912,39.92264,690,2433
116.27975,39.92304,691,2433
116.26447,39.92313,692,2433
116.2633,39.92313,693,2433
116.26177,39.92322,694,2433
116.24585,39.92512,695,2433
116.24709,39.92824,696,2433
116.25805,39.92786,697,2433
116.25859,39.9234,698,2433
116.26805,39.91151,699,2433
116.2682,39.88455,700,2433
116.26897,39.88366,701,2433
116.26838,39.89885,702,2433
116.27252,39.899,703,2433
116.27737,39.89995,704,2433
116.27735,39.90526,705,2433
116.27738,39.91077,706,2433
116.28508,39.92048,707,2433
116.27882,39.92198,708,2433
116.30422,39.88477,709,2433
116.30901,39.88653,710,2433
116.31099,39.88618,711,2433
116.35637,39.88791,712,2433
116.38424,39.88833,713,2433
116.39227,39.88714,714,2433
116.4014,39.88866,715,2433
116.40456,39.89124,716,2433
116.4146,39.87974,717,2433
116.42587,39.85803,718,2433
116.42847,39.86449,719,2433
116.43163,39.86448,720,2433
116.43945,39.84996,721,2433
116.44408,39.85827,722,2433
116.45538,39.88259,723,2433
116.45602,39.89228,724,2433
116.44417,39.90822,725,2433
116.44422,39.92095,726,2433
116.44421,39.92824,727,2433
116.4477,39.94741,728,2433
116.44533,39.95353,729,2433
116.47234,39.9781,730,2433
116.52635,40.08107,731,2433
116.52635,40.08107,732,2433
116.52173,40.10533,733,2433
116.52117,40.10561,734,2433
116.52117,40.10561,735,2433
116.52117,40.10561,736,2433
116.52117,40.10561,737,2433
116.51699,40.09624,738,2433
116.51851,40.09472,739,2433
116.54322,40.05881,740,2433
116.49909,40.00427,741,2433
116.48358,39.9867,742,2433
116.46688,39.98851,743,2433
116.46788,39.98847,744,2433
116.46477,39.97239,745,2433
116.44628,39.96622,746,2433
116.4581,39.97305,747,2433
116.48339,39.92392,748,2433
116.50018,39.92131,749,2433
116.48386,39.9455,750,2433
116.49815,40.00138,751,2433
116.56839,40.03617,752,2433
116.57056,40.0382,753,2433
116.58657,40.07876,754,2433
116.58039,40.07543,755,2433
116.4769,40.09312,756,2433
116.43825,40.0795,757,2433
116.40973,39.9939,758,2433
116.40108,39.99085,759,2433
116.44177,39.95766,760,2433
116.4413,39.95792,761,2433
116.43478,39.94741,762,2433
116.43367,39.94653,763,2433
116.42607,39.95615,764,2433
116.4284,39.95816,765,2433
116.42884,39.95773,766,2433
116.42884,39.95773,767,2433
116.44458,39.95869,768,2433
116.4464,39.9513,769,2433
116.42311,39.96827,770,2433
116.4215,39.96083,771,2433
116.42035,39.96086,772,2433
116.4023,39.9577,773,2433
116.41591,39.95794,774,2433
116.41048,39.94804,775,2433
116.41048,39.94804,776,2433
116.39055,39.96183,777,2433
116.39049,39.96183,778,2433
116.37385,39.9475,779,2433
116.35027,39.90544,780,2433
116.35044,39.91859,781,2433
116.36491,39.95433,782,2433
116.36414,39.95137,783,2433
116.36414,39.95137,784,2433
116.35565,39.95652,785,2433
116.35911,39.9565,786,2433
116.35952,39.95656,787,2433
116.3591,39.95669,788,2433
116.35905,39.95669,789,2433
116.35906,39.95666,790,2433
116.35906,39.95666,791,2433
116.35903,39.95667,792,2433
116.35903,39.95667,793,2433
116.35903,39.95667,794,2433
116.35903,39.95667,795,2433
116.359,39.95668,796,2433
116.359,39.95668,797,2433
116.359,39.95668,798,2433
116.359,39.95668,799,2433
116.359,39.95668,800,2433
116.359,39.95668,801,2433
116.359,39.95668,802,2433
116.359,39.95668,803,2433
116.359,39.95668,804,2433
116.35901,39.95667,805,2433
116.35901,39.95667,806,2433
116.35901,39.95667,807,2433
116.35901,39.95667,808,2433
116.35901,39.95667,809,2433
116.35902,39.95667,810,2433
116.35902,39.95667,811,2433
116.35435,39.95098,812,2433
116.35209,39.95084,813,2433
116.35526,39.95582,814,2433
116.35708,39.95646,815,2433
116.3595,39.96816,816,2433
116.35938,39.97159,817,2433
116.34548,39.97514,818,2433
116.34163,39.97485,819,2433
116.31632,39.97488,820,2433
116.30831,39.97464,821,2433
116.2962,39.9736,822,2433
116.29246,39.97314,823,2433
116.29488,39.96287,824,2433
116.29545,39.96306,825,2433
116.29545,39.96306,826,2433
116.3028,39.95327,827,2433
116.30319,39.95272,828,2433
116.30377,39.93103,829,2433
116.30616,39.931,830,2433
116.31125,39.92679,831,2433
116.31345,39.92688,832,2433
116.32764,39.92704,833,2433
116.32816,39.92687,834,2433
116.33886,39.91259,835,2433
116.33886,39.91259,836,2433
116.34008,39.91005,837,2433
116.33771,39.90655,838,2433
116.339,39.91117,839,2433
116.35031,39.91961,840,2433
116.35,39.92518,841,2433
116.37604,39.94745,842,2433
116.38775,39.94751,843,2433
116.40168,39.957,844,2433
116.40175,39.95924,845,2433
116.40121,39.97523,846,2433
116.40121,39.97523,847,2433
116.3809,39.98663,848,2433
116.37056,39.98622,849,2433
116.33442,39.98989,850,2433
116.3342,39.99166,851,2433
116.33305,39.99167,852,2433
116.33136,39.99161,853,2433
116.31449,39.99105,854,2433
116.30956,39.99286,855,2433
116.2942,39.99605,856,2433
116.28965,39.99576,857,2433
116.27906,40.00048,858,2433
116.27682,39.9986,859,2433
116.27577,39.99657,860,2433
116.27577,39.99657,861,2433
116.28316,39.9974,862,2433
116.28379,39.99744,863,2433
116.28264,39.98912,864,2433
116.28757,39.98896,865,2433
116.29959,39.98365,866,2433
116.30387,39.98389,867,2433
116.34696,39.97432,868,2433
116.34732,39.96719,869,2433
116.34904,39.93153,870,2433
116.34904,39.93131,871,2433
116.36303,39.93118,872,2433
116.36223,39.93507,873,2433
116.36603,39.9469,874,2433
116.37228,39.94731,875,2433
116.42703,39.94716,876,2433
116.42745,39.93919,877,2433
116.43403,39.92278,878,2433
116.43403,39.92278,879,2433
116.45441,39.91817,880,2433
116.45441,39.91817,881,2433
116.46944,39.9143,882,2433
116.47202,39.91676,883,2433
116.46345,39.91662,884,2433
116.46346,39.91983,885,2433
116.45499,39.91875,886,2433
116.45499,39.91875,887,2433
116.44283,39.9072,888,2433
116.43487,39.9072,889,2433
116.43487,39.9072,890,2433
116.42061,39.90406,891,2433
116.42399,39.90719,892,2433
116.41499,39.90698,893,2433
116.38227,39.90603,894,2433
116.37764,39.90588,895,2433
116.36747,39.91694,896,2433
116.36822,39.91731,897,2433
116.37565,39.91032,898,2433
116.37657,39.90617,899,2433
116.37767,39.9036,900,2433
116.3779,39.89972,901,2433
116.38015,39.88809,902,2433
116.3883,39.88891,903,2433
116.40574,39.89137,904,2433
116.40879,39.89151,905,2433
116.43369,39.89119,906,2433
116.43398,39.88761,907,2433
116.45656,39.88465,908,2433
116.45553,39.89181,909,2433
116.45553,39.89181,910,2433
116.4559,39.90412,911,2433
116.45584,39.90426,912,2433
116.45571,39.9174,913,2433
116.45571,39.9174,914,2433
116.47152,39.92155,915,2433
116.47739,39.92157,916,2433
116.52927,39.92244,917,2433
116.54051,39.92244,918,2433
116.58471,39.92076,919,2433
116.58407,39.9204,920,2433
116.5854,39.91391,921,2433
116.56843,39.91405,922,2433
116.56378,39.91458,923,2433
116.53969,39.91499,924,2433
116.53493,39.91515,925,2433
116.51336,39.90673,926,2433
116.49942,39.90676,927,2433
116.45531,39.89831,928,2433
116.45519,39.89039,929,2433
116.42776,39.85752,930,2433
116.42613,39.85747,931,2433
116.42452,39.8482,932,2433
116.42447,39.84904,933,2433
116.42417,39.84823,934,2433
116.42229,39.84981,935,2433
116.42755,39.86389,936,2433
116.43141,39.86454,937,2433
116.43141,39.86454,938,2433
116.43309,39.86842,939,2433
116.4335,39.87318,940,2433
116.42087,39.88378,941,2433
116.42087,39.88378,942,2433
116.41522,39.86718,943,2433
116.41547,39.86314,944,2433
116.41309,39.853,945,2433
116.41309,39.85299,946,2433
116.40803,39.85409,947,2433
116.40619,39.85596,948,2433
116.39424,39.84424,949,2433
116.39529,39.82235,950,2433
116.39554,39.81793,951,2433
116.39621,39.8038,952,2433
116.39622,39.80378,953,2433
116.4123,39.79796,954,2433
116.41335,39.79275,955,2433
116.40968,39.78479,956,2433
116.41117,39.78534,957,2433
116.41162,39.80122,958,2433
116.411,39.80237,959,2433
116.3962,39.81131,960,2433
116.39609,39.8134,961,2433
116.39598,39.83017,962,2433
116.39281,39.83101,963,2433
116.36458,39.83921,964,2433
116.36506,39.84424,965,2433
116.36824,39.86695,966,2433
116.37227,39.86899,967,2433
116.39322,39.8653,968,2433
116.39327,39.86415,969,2433
116.39938,39.84593,970,2433
116.39828,39.84816,971,2433
116.39431,39.84239,972,2433
116.3946,39.83673,973,2433
116.39508,39.83473,974,2433
116.39491,39.8379,975,2433
116.40297,39.85563,976,2433
116.41279,39.85559,977,2433
116.42776,39.86033,978,2433
116.42766,39.86272,979,2433
116.42861,39.87906,980,2433
116.42972,39.88289,981,2433
116.42955,39.89635,982,2433
116.42576,39.89621,983,2433
116.41328,39.89577,984,2433
116.41114,39.89581,985,2433
116.40546,39.90249,986,2433
116.40991,39.90666,987,2433
116.41902,39.90698,988,2433
116.45633,39.90663,989,2433
116.45576,39.91028,990,2433
116.45841,39.95184,991,2433
116.45841,39.95184,992,2433
116.45841,39.95185,993,2433
116.44122,39.96131,994,2433
116.4411,39.96143,995,2433
116.44666,39.97704,996,2433
116.44843,39.97891,997,2433
116.45672,39.99317,998,2433
116.45672,39.99893,999,2433
116.45672,40.01029,1000,2433
116.46026,40.0101,1001,2433
116.44673,39.99534,1002,2433
116.44166,39.99323,1003,2433
116.41793,39.98335,1004,2433
116.41441,39.98209,1005,2433
116.41855,39.98729,1006,2433
116.42192,39.98742,1007,2433
116.42631,39.97592,1008,2433
116.43092,39.97518,1009,2433
116.43391,39.97508,1010,2433
116.44086,39.97543,1011,2433
116.44792,39.98079,1012,2433
116.4471,40.00664,1013,2433
116.47602,40.06536,1014,2433
116.47558,40.07897,1015,2433
116.49711,40.0939,1016,2433
116.50372,40.09416,1017,2433
116.51978,40.10747,1018,2433
116.51978,40.10747,1019,2433
116.51979,40.10748,1020,2433
116.51848,40.10735,1021,2433
116.51797,40.10715,1022,2433
116.51788,40.10011,1023,2433
116.4935,40.09389,1024,2433
116.49119,40.09379,1025,2433
116.45201,40.08065,1026,2433
116.45072,40.08115,1027,2433
116.43563,40.06712,1028,2433
116.43369,40.06715,1029,2433
116.41022,40.06661,1030,2433
116.40908,40.06662,1031,2433
116.40309,40.064,1032,2433
116.40307,40.06324,1033,2433
116.40549,40.04895,1034,2433
116.40583,40.04722,1035,2433
116.41673,40.04007,1036,2433
116.43529,40.02802,1037,2433
116.43525,40.0263,1038,2433
116.46104,40.01212,1039,2433
116.4615,39.99805,1040,2433
116.4615,39.99805,1041,2433
116.46655,39.98241,1042,2433
116.46767,39.9817,1043,2433
116.4735,39.97797,1044,2433
116.4735,39.97797,1045,2433
116.4735,39.97797,1046,2433
116.47568,39.98225,1047,2433
116.47405,39.98079,1048,2433
116.44517,39.95871,1049,2433
116.44333,39.95986,1050,2433
116.41898,39.95463,1051,2433
116.41904,39.9546,1052,2433
116.41257,39.95492,1053,2433
116.41929,39.9511,1054,2433
116.41929,39.9511,1055,2433
116.41931,39.95108,1056,2433
116.42153,39.94807,1057,2433
116.42254,39.94808,1058,2433
116.42909,39.91091,1059,2433
116.42917,39.91073,1060,2433
116.43993,39.87806,1061,2433
116.43964,39.87625,1062,2433
116.35807,39.79335,1063,2433
116.35662,39.79718,1064,2433
116.35831,39.79286,1065,2433
116.35831,39.79286,1066,2433
116.35831,39.79286,1067,2433
116.35831,39.79286,1068,2433
116.35984,39.79292,1069,2433
116.37451,39.79883,1070,2433
116.38484,39.80181,1071,2433
116.40414,39.80367,1072,2433
116.40978,39.80402,1073,2433
116.40368,39.80384,1074,2433
116.39644,39.80581,1075,2433
116.39457,39.80598,1076,2433
116.39466,39.80594,1077,2433
116.39466,39.80594,1078,2433
116.39466,39.80594,1079,2433
116.39466,39.80594,1080,2433
116.39466,39.80594,1081,2433
116.39466,39.80594,1082,2433
116.39466,39.80594,1083,2433
116.39466,39.80594,1084,2433
116.39466,39.80594,1085,2433
116.39466,39.80594,1086,2433
116.39466,39.80594,1087,2433
116.39466,39.80594,1088,2433
116.39466,39.80594,1089,2433
116.39466,39.80594,1090,2433
116.39466,39.80594,1091,2433
116.39466,39.80594,1092,2433
116.39466,39.80594,1093,2433
116.39466,39.80594,1094,2433
116.39466,39.80594,1095,2433
116.39466,39.80594,1096,2433
116.39466,39.80594,1097,2433
116.39466,39.80594,1098,2433
116.39466,39.80594,1099,2433
116.39466,39.80594,1100,2433
116.3964,39.80987,1101,2433
116.3956,39.82608,1102,2433
116.3957,39.8315,1103,2433
116.40078,39.84311,1104,2433
116.39654,39.85134,1105,2433
116.41556,39.86193,1106,2433
116.41671,39.86987,1107,2433
116.43342,39.86887,1108,2433
116.4335,39.86916,1109,2433
116.43314,39.87009,1110,2433
116.4207,39.86998,1111,2433
116.40776,39.86027,1112,2433
116.40737,39.86763,1113,2433
116.39712,39.87148,1114,2433
116.39074,39.87113,1115,2433
116.38122,39.88114,1116,2433
116.37897,39.88201,1117,2433
116.37932,39.88791,1118,2433
116.38715,39.88867,1119,2433
116.40846,39.89153,1120,2433
116.41206,39.89163,1121,2433
116.41256,39.89847,1122,2433
116.41256,39.89847,1123,2433
116.41192,39.90652,1124,2433
116.41182,39.91051,1125,2433
116.41135,39.92237,1126,2433
116.4194,39.92286,1127,2433
116.42865,39.92372,1128,2433
116.42819,39.93122,1129,2433
116.43245,39.93953,1130,2433
116.43318,39.93529,1131,2433
116.42794,39.93979,1132,2433
116.42258,39.94296,1133,2433
116.42549,39.94792,1134,2433
116.42762,39.93764,1135,2433
116.4291,39.91093,1136,2433
116.42941,39.90952,1137,2433
116.42941,39.90952,1138,2433
116.43859,39.88663,1139,2433
116.44434,39.93562,1140,2433
116.44778,39.94683,1141,2433
116.44425,39.94639,1142,2433
116.45168,39.96038,1143,2433
116.46628,39.97362,1144,2433
116.48219,39.98794,1145,2433
116.48219,39.98794,1146,2433
116.50808,40.01174,1147,2433
116.52406,40.03413,1148,2433
116.53194,40.07482,1149,2433
116.52175,40.1054,1150,2433
116.52115,40.10545,1151,2433
116.52115,40.10545,1152,2433
116.52112,40.10547,1153,2433
116.52797,40.10415,1154,2433
116.53422,40.10365,1155,2433
116.54742,40.10646,1156,2433
116.5561,40.10735,1157,2433
116.56368,40.11439,1158,2433
116.56396,40.11451,1159,2433
116.56396,40.11451,1160,2433
116.56396,40.11451,1161,2433
116.56396,40.11451,1162,2433
116.56396,40.11451,1163,2433
116.56396,40.11451,1164,2433
116.56396,40.11451,1165,2433
116.56396,40.11451,1166,2433
116.56396,40.11451,1167,2433
116.56396,40.11451,1168,2433
116.56396,40.11451,1169,2433
116.56396,40.11451,1170,2433
116.56396,40.11451,1171,2433
116.56396,40.11451,1172,2433
116.56396,40.11451,1173,2433
116.56396,40.11451,1174,2433
116.56396,40.11451,1175,2433
116.56496,40.11783,1176,2433
116.56496,40.11783,1177,2433
116.55933,40.11721,1178,2433
116.55094,40.11638,1179,2433
116.51864,40.11422,1180,2433
116.51683,40.11098,1181,2433
116.52177,40.1055,1182,2433
116.52115,40.10547,1183,2433
116.52116,40.1056,1184,2433
116.52116,40.1056,1185,2433
116.52116,40.1056,1186,2433
116.52116,40.1056,1187,2433
116.52116,40.1056,1188,2433
116.52116,40.1056,1189,2433
116.52116,40.1056,1190,2433
116.52116,40.1056,1191,2433
116.52116,40.1056,1192,2433
116.52116,40.1056,1193,2433
116.52116,40.1056,1194,2433
116.52116,40.1056,1195,2433
116.52116,40.1056,1196,2433
116.52116,40.1056,1197,2433
116.52116,40.1056,1198,2433
116.52116,40.1056,1199,2433
116.52116,40.1056,1200,2433
116.52116,40.1056,1201,2433
116.52116,40.1056,1202,2433
116.52116,40.1056,1203,2433
116.52116,40.1056,1204,2433
116.52116,40.1056,1205,2433
116.52116,40.1056,1206,2433
116.52116,40.1056,1207,2433
116.52116,40.1056,1208,2433
116.52116,40.1056,1209,2433
116.52116,40.1056,1210,2433
116.52116,40.1056,1211,2433
116.52116,40.1056,1212,2433
116.52116,40.1056,1213,2433
116.52116,40.1056,1214,2433
116.52116,40.1056,1215,2433
116.52116,40.1056,1216,2433
116.52116,40.1056,1217,2433
116.52116,40.1056,1218,2433
116.52116,40.1056,1219,2433
116.52116,40.1056,1220,2433
116.52116,40.1056,1221,2433
116.52116,40.1056,1222,2433
116.52116,40.1056,1223,2433
116.52116,40.1056,1224,2433
116.52116,40.1056,1225,2433
116.52116,40.1056,1226,2433
116.52116,40.1056,1227,2433
116.52116,40.1056,1228,2433
116.52116,40.1056,1229,2433
116.52116,40.1056,1230,2433
116.52116,40.1056,1231,2433
116.52116,40.1056,1232,2433
116.52116,40.1056,1233,2433
116.52116,40.1056,1234,2433
116.52116,40.1056,1235,2433
116.52116,40.1056,1236,2433
116.52116,40.1056,1237,2433
116.52116,40.1056,1238,2433
116.52116,40.1056,1239,2433
116.52116,40.1056,1240,2433
116.52116,40.1056,1241,2433
116.52116,40.1056,1242,2433
116.52116,40.1056,1243,2433
116.52116,40.1056,1244,2433
116.52116,40.1056,1245,2433
116.52116,40.1056,1246,2433
116.52116,40.1056,1247,2433
116.52116,40.1056,1248,2433
116.52116,40.1056,1249,2433
116.52116,40.1056,1250,2433
116.52116,40.1056,1251,2433
116.52116,40.1056,1252,2433
116.52116,40.1056,1253,2433
116.52116,40.1056,1254,2433
116.52116,40.1056,1255,2433
116.52116,40.1056,1256,2433
116.52116,40.1056,1257,2433
116.52116,40.1056,1258,2433
116.52116,40.1056,1259,2433
116.52116,40.1056,1260,2433
116.52116,40.1056,1261,2433
116.52116,40.1056,1262,2433
116.52116,40.1056,1263,2433
116.52116,40.1056,1264,2433
116.52116,40.1056,1265,2433
116.52116,40.1056,1266,2433
116.52116,40.1056,1267,2433
116.52116,40.1056,1268,2433
116.52116,40.1056,1269,2433
116.52116,40.1056,1270,2433
116.52116,40.1056,1271,2433
116.52116,40.1056,1272,2433
116.52116,40.1056,1273,2433
116.52116,40.1056,1274,2433
116.52116,40.1056,1275,2433
116.52116,40.1056,1276,2433
116.52116,40.1056,1277,2433
116.52116,40.1056,1278,2433
116.52116,40.1056,1279,2433
116.52116,40.1056,1280,2433
116.52116,40.1056,1281,2433
116.52116,40.1056,1282,2433
116.52116,40.1056,1283,2433
116.52116,40.1056,1284,2433
116.52116,40.1056,1285,2433
116.52116,40.1056,1286,2433
116.52116,40.1056,1287,2433
116.52116,40.1056,1288,2433
116.52116,40.1056,1289,2433
116.52116,40.1056,1290,2433
116.52116,40.1056,1291,2433
116.52116,40.1056,1292,2433
116.52116,40.1056,1293,2433
116.52116,40.1056,1294,2433
116.52116,40.1056,1295,2433
116.52116,40.1056,1296,2433
116.52116,40.1056,1297,2433
116.52116,40.1056,1298,2433
116.52116,40.1056,1299,2433
116.52116,40.1056,1300,2433
116.52116,40.1056,1301,2433
116.52116,40.1056,1302,2433
116.52116,40.1056,1303,2433
116.52116,40.1056,1304,2433
116.52116,40.1056,1305,2433
116.52116,40.1056,1306,2433
116.52116,40.1056,1307,2433
116.52116,40.1056,1308,2433
116.52116,40.1056,1309,2433
116.52116,40.1056,1310,2433
116.52116,40.1056,1311,2433
116.52116,40.1056,1312,2433
116.52116,40.1056,1313,2433
116.52116,40.1056,1314,2433
116.52116,40.1056,1315,2433
116.52116,40.1056,1316,2433
116.52116,40.1056,1317,2433
116.52116,40.1056,1318,2433
116.52116,40.1056,1319,2433
116.52116,40.1056,1320,2433
116.52116,40.1056,1321,2433
116.52116,40.1056,1322,2433
116.52116,40.1056,1323,2433
116.52116,40.1056,1324,2433
116.52116,40.1056,1325,2433
116.52116,40.1056,1326,2433
116.52116,40.1056,1327,2433
116.52116,40.1056,1328,2433
116.52116,40.1056,1329,2433
116.52116,40.1056,1330,2433
116.52116,40.1056,1331,2433
116.52116,40.1056,1332,2433
116.52116,40.1056,1333,2433
116.52116,40.1056,1334,2433
116.52116,40.1056,1335,2433
116.52116,40.1056,1336,2433
116.52116,40.1056,1337,2433
116.52116,40.1056,1338,2433
116.52116,40.1056,1339,2433
116.52116,40.1056,1340,2433
116.52116,40.1056,1341,2433
116.52116,40.1056,1342,2433
116.52116,40.1056,1343,2433
116.52116,40.1056,1344,2433
116.52116,40.1056,1345,2433
116.52116,40.1056,1346,2433
116.52116,40.1056,1347,2433
116.52116,40.1056,1348,2433
116.52116,40.1056,1349,2433
116.52116,40.1056,1350,2433
116.52116,40.1056,1351,2433
116.52116,40.1056,1352,2433
116.52116,40.1056,1353,2433
116.52116,40.1056,1354,2433
116.52116,40.1056,1355,2433
116.52116,40.1056,1356,2433
116.52116,40.1056,1357,2433
116.52116,40.1056,1358,2433
116.52116,40.1056,1359,2433
116.52116,40.1056,1360,2433
116.52116,40.1056,1361,2433
116.52116,40.1056,1362,2433
116.52116,40.1056,1363,2433
116.52116,40.1056,1364,2433
116.52116,40.1056,1365,2433
116.52116,40.1056,1366,2433
116.52116,40.1056,1367,2433
116.52116,40.1056,1368,2433
116.52116,40.1056,1369,2433
116.52116,40.1056,1370,2433
116.52116,40.1056,1371,2433
116.52116,40.1056,1372,2433
116.52116,40.1056,1373,2433
116.52116,40.1056,1374,2433
116.52116,40.1056,1375,2433
116.52116,40.1056,1376,2433
116.52116,40.1056,1377,2433
116.52116,40.1056,1378,2433
116.52116,40.1056,1379,2433
116.52116,40.1056,1380,2433
116.52116,40.1056,1381,2433
116.52116,40.1056,1382,2433
116.52116,40.1056,1383,2433
116.52116,40.1056,1384,2433
116.52116,40.1056,1385,2433
116.52116,40.1056,1386,2433
116.52116,40.1056,1387,2433
116.52116,40.1056,1388,2433
116.52116,40.1056,1389,2433
116.52116,40.1056,1390,2433
116.52116,40.1056,1391,2433
116.52116,40.1056,1392,2433
116.52116,40.1056,1393,2433
116.52116,40.1056,1394,2433
116.52116,40.1056,1395,2433
116.52116,40.1056,1396,2433
116.52116,40.1056,1397,2433
116.52116,40.1056,1398,2433
116.52116,40.1056,1399,2433
116.52116,40.1056,1400,2433
116.52116,40.1056,1401,2433
116.52116,40.1056,1402,2433
116.52116,40.1056,1403,2433
116.52116,40.1056,1404,2433
116.52116,40.1056,1405,2433
116.52116,40.1056,1406,2433
116.52116,40.1056,1407,2433
116.52116,40.1056,1408,2433
116.52116,40.1056,1409,2433
116.52116,40.1056,1410,2433
116.52116,40.1056,1411,2433
116.52116,40.1056,1412,2433
116.52116,40.1056,1413,2433
116.52116,40.1056,1414,2433
116.52116,40.1056,1415,2433
116.52116,40.1056,1416,2433
116.52116,40.1056,1417,2433
116.52116,40.1056,1418,2433
116.52116,40.1056,1419,2433
116.52116,40.1056,1420,2433
116.52116,40.1056,1421,2433
116.52116,40.1056,1422,2433
116.52116,40.1056,1423,2433
116.52116,40.1056,1424,2433
116.52116,40.1056,1425,2433
116.52116,40.1056,1426,2433
116.52116,40.1056,1427,2433
116.52116,40.1056,1428,2433
116.52116,40.1056,1429,2433
116.52116,40.1056,1430,2433
116.52116,40.1056,1431,2433
116.52116,40.1056,1432,2433
116.52116,40.1056,1433,2433
116.52116,40.1056,1434,2433
116.52116,40.1056,1435,2433
116.52116,40.1056,1436,2433
116.52116,40.1056,1437,2433
116.52116,40.1056,1438,2433
116.52116,40.1056,1439,2433
116.51975,40.10747,1440,2433
116.51975,40.10747,1441,2433
116.54576,40.11127,1442,2433
116.55018,40.10898,1443,2433
116.55191,40.10596,1444,2433
116.55191,40.10596,1445,2433
116.55191,40.10596,1446,2433
116.55191,40.10596,1447,2433
116.55191,40.10596,1448,2433
116.55191,40.10596,1449,2433
116.52315,40.09689,1450,2433
116.51501,40.0957,1451,2433
116.47473,40.09178,1452,2433
116.46537,40.08451,1453,2433
116.43389,40.07625,1454,2433
116.43114,40.07425,1455,2433
116.43114,40.07425,1456,2433
116.404,40.06661,1457,2433
116.3942,40.06613,1458,2433
116.3635,40.05987,1459,2433
116.35916,40.05959,1460,2433
116.32955,40.05712,1461,2433
116.32373,40.05457,1462,2433
116.30809,40.04299,1463,2433
116.30809,40.04299,1464,2433
116.30472,40.04206,1465,2433
116.30687,40.02884,1466,2433
116.30686,40.02886,1467,2433
116.29502,40.04281,1468,2433
116.30002,40.04268,1469,2433
116.30112,40.02455,1470,2433
116.29593,40.02401,1471,2433
116.28101,40.01357,1472,2433
116.28231,40.00533,1473,2433
116.27943,39.97456,1474,2433
116.27611,39.97392,1475,2433
116.27766,39.95848,1476,2433
116.27766,39.95848,1477,2433
116.27441,39.95899,1478,2433
116.27441,39.95899,1479,2433
116.2741,39.96018,1480,2433
116.26766,39.96888,1481,2433
116.2627,39.96867,1482,2433
116.23872,39.97195,1483,2433
116.23376,39.97196,1484,2433
116.20124,39.97323,1485,2433
116.20095,39.97567,1486,2433
116.20512,39.98812,1487,2433
116.20567,39.98755,1488,2433
116.20498,39.98751,1489,2433
116.20109,39.983,1490,2433
116.21262,39.97183,1491,2433
116.22141,39.97185,1492,2433
116.23982,39.96457,1493,2433
116.23979,39.9645,1494,2433
116.25387,39.97213,1495,2433
116.25643,39.97204,1496,2433
116.27777,39.96184,1497,2433
116.27813,39.95781,1498,2433
116.27763,39.95596,1499,2433
116.26984,39.95646,1500,2433
116.25141,39.97208,1501,2433
116.24675,39.97201,1502,2433
116.25581,39.97213,1503,2433
116.26155,39.96851,1504,2433
116.29458,39.97648,1505,2433
116.29487,39.97355,1506,2433
116.29928,39.97425,1507,2433
116.30001,39.97432,1508,2433
116.30001,39.97432,1509,2433
116.31492,39.96596,1510,2433
116.315,39.96581,1511,2433
116.36171,39.96641,1512,2433
116.37195,39.96676,1513,2433
116.39882,40.00388,1514,2433
116.39891,40.00383,1515,2433
116.39896,40.00384,1516,2433
116.40205,40.0142,1517,2433
116.4533,40.02299,1518,2433
116.45906,40.028,1519,2433
116.47568,40.07576,1520,2433
116.47545,40.08404,1521,2433
116.51842,40.09526,1522,2433
116.5181,40.09885,1523,2433
116.52114,40.10542,1524,2433
116.52114,40.10542,1525,2433
116.52114,40.10542,1526,2433
116.51694,40.11144,1527,2433
116.51886,40.11916,1528,2433
116.51346,40.12445,1529,2433
116.51455,40.12465,1530,2433
116.54296,40.11573,1531,2433
116.54956,40.1162,1532,2433
116.5857,40.11691,1533,2433
116.59748,40.11671,1534,2433
116.61107,40.11551,1535,2433
116.61107,40.11551,1536,2433
116.61107,40.11551,1537,2433
116.61107,40.11551,1538,2433
116.61107,40.11551,1539,2433
116.61107,40.11551,1540,2433
116.61107,40.11551,1541,2433
116.61107,40.11551,1542,2433
116.61107,40.11551,1543,2433
116.61107,40.11551,1544,2433
116.61107,40.11551,1545,2433
116.61107,40.11551,1546,2433
116.61107,40.11551,1547,2433
116.61107,40.11551,1548,2433
116.61107,40.11551,1549,2433
116.61107,40.11551,1550,2433
116.61107,40.11551,1551,2433
116.61107,40.11551,1552,2433
116.61107,40.11551,1553,2433
116.61107,40.11551,1554,2433
116.61107,40.11551,1555,2433
116.61107,40.11551,1556,2433
116.61107,40.11551,1557,2433
116.61107,40.11551,1558,2433
116.61107,40.11551,1559,2433
116.61107,40.11551,1560,2433
116.61107,40.11551,1561,2433
116.61107,40.11551,1562,2433
116.61107,40.11551,1563,2433
116.61107,40.11551,1564,2433
116.61107,40.11551,1565,2433
116.61107,40.11551,1566,2433
116.6118,40.11611,1567,2433
116.5689,40.11662,1568,2433
116.56482,40.11772,1569,2433
116.56477,40.11771,1570,2433
116.55189,40.10612,1571,2433
116.55192,40.106,1572,2433
116.55192,40.106,1573,2433
116.55192,40.106,1574,2433
116.55468,40.10705,1575,2433
116.55608,40.10738,1576,2433
116.58075,40.11683,1577,2433
116.58158,40.11686,1578,2433
116.62583,40.11627,1579,2433
116.63124,40.11614,1580,2433
116.62413,40.11649,1581,2433
116.62413,40.11649,1582,2433
