x,y,k,tid
116.47204,39.90691,0,2456
116.47204,39.90691,1,2456
116.54346,39.9079,2,2456
116.62195,39.91312,3,2456
116.6868,39.92243,4,2456
116.75923,39.93387,5,2456
116.80532,39.94292,6,2456
116.84603,39.94567,7,2456
116.90974,39.9529,8,2456
116.96927,39.96322,9,2456
117.02313,39.97833,10,2456
117.068,39.98591,11,2456
117.10543,39.99072,12,2456
117.16427,39.99945,13,2456
117.18721,39.99847,14,2456
117.25496,39.98977,15,2456
117.20486,39.99545,16,2456
117.1617,39.99934,17,2456
117.10739,39.99105,18,2456
117.09706,39.98917,19,2456
117.05713,39.98423,20,2456
117.0564,39.98732,21,2456
117.05651,39.98641,22,2456
117.05651,39.98641,23,2456
117.05648,39.9864,24,2456
117.05677,39.98443,25,2456
117.01042,39.97357,26,2456
117.01042,39.97357,27,2456
116.94674,39.95872,28,2456
116.89647,39.95123,29,2456
116.87232,39.94817,30,2456
116.85418,39.96594,31,2456
116.85555,39.96012,32,2456
116.83387,39.94469,33,2456
116.81615,39.9425,34,2456
116.81588,39.94274,35,2456
116.80021,39.94237,36,2456
116.76045,39.93536,37,2456
116.70906,39.92225,38,2456
116.63141,39.91739,39,2456
116.56948,39.90903,40,2456
116.49918,39.90698,41,2456
116.46861,39.907,42,2456
116.46457,39.90655,43,2456
116.4566,39.91399,44,2456
116.45487,39.87192,45,2456
116.45536,39.88184,46,2456
116.45759,39.88273,47,2456
116.45594,39.8848,48,2456
116.4412,39.89246,49,2456
116.41299,39.89984,50,2456
116.41013,39.9026,51,2456
116.41012,39.90263,52,2456
116.39739,39.89937,53,2456
116.39471,39.89909,54,2456
116.37076,39.8986,55,2456
116.35564,39.89806,56,2456
116.30495,39.89719,57,2456
116.30417,39.92151,58,2456
116.31411,39.96108,59,2456
116.3154,39.96198,60,2456
116.31815,39.94813,61,2456
116.30451,39.94089,62,2456
116.29975,39.93108,63,2456
116.29287,39.92784,64,2456
116.29513,39.92783,65,2456
116.3023,39.93113,66,2456
116.30416,39.93939,67,2456
116.32152,39.96597,68,2456
116.34416,39.96616,69,2456
116.35389,39.96417,70,2456
116.35308,39.9641,71,2456
116.35439,39.96373,72,2456
116.3541,39.96406,73,2456
116.35413,39.96404,74,2456
116.35413,39.96406,75,2456
116.3541,39.96406,76,2456
116.3541,39.96406,77,2456
116.35412,39.96428,78,2456
116.35443,39.96412,79,2456
116.35417,39.96421,80,2456
116.35389,39.96442,81,2456
116.35388,39.96436,82,2456
116.3539,39.9644,83,2456
116.35388,39.9645,84,2456
116.35428,39.96423,85,2456
116.35437,39.96416,86,2456
116.35434,39.96422,87,2456
116.35431,39.96423,88,2456
116.35405,39.96419,89,2456
116.3542,39.96428,90,2456
116.35419,39.96425,91,2456
116.35419,39.96435,92,2456
116.35412,39.9643,93,2456
116.35407,39.96429,94,2456
116.3541,39.96429,95,2456
116.35412,39.96429,96,2456
116.35406,39.96442,97,2456
116.35367,39.96419,98,2456
116.35408,39.96423,99,2456
116.35406,39.96425,100,2456
116.35372,39.96421,101,2456
116.35348,39.96406,102,2456
116.35389,39.96426,103,2456
116.3544,39.96426,104,2456
116.3544,39.96426,105,2456
116.35411,39.96443,106,2456
116.35416,39.96436,107,2456
116.35424,39.96435,108,2456
116.35433,39.96409,109,2456
116.35433,39.96409,110,2456
116.35421,39.96408,111,2456
116.3541,39.96434,112,2456
116.35433,39.96393,113,2456
116.35419,39.96448,114,2456
116.35413,39.96441,115,2456
116.3542,39.96414,116,2456
116.31788,39.96602,117,2456
116.31078,39.96418,118,2456
116.308,39.96327,119,2456
116.30493,39.96218,120,2456
116.30266,39.96084,121,2456
116.30243,39.9589,122,2456
116.30284,39.95839,123,2456
116.30307,39.95602,124,2456
116.302,39.93119,125,2456
116.29294,39.92776,126,2456
116.29296,39.92775,127,2456
116.29296,39.92774,128,2456
116.29296,39.92774,129,2456
116.29297,39.92774,130,2456
116.29296,39.92773,131,2456
116.29297,39.92773,132,2456
116.29297,39.92772,133,2456
116.29297,39.92772,134,2456
116.29297,39.92771,135,2456
116.29297,39.92771,136,2456
116.29297,39.92771,137,2456
116.29297,39.92771,138,2456
116.29297,39.9277,139,2456
116.29297,39.9277,140,2456
116.29297,39.9277,141,2456
116.29297,39.9277,142,2456
116.29297,39.92769,143,2456
116.29296,39.92769,144,2456
116.29296,39.92769,145,2456
116.29296,39.92769,146,2456
116.29296,39.92769,147,2456
116.29296,39.92769,148,2456
116.29296,39.92769,149,2456
116.29295,39.92769,150,2456
116.29295,39.92769,151,2456
116.29295,39.92769,152,2456
116.2927,39.92777,153,2456
116.2927,39.92777,154,2456
116.29276,39.92773,155,2456
116.29276,39.92773,156,2456
116.29277,39.92773,157,2456
116.29279,39.92773,158,2456
116.29281,39.92774,159,2456
116.29281,39.92774,160,2456
116.29281,39.92775,161,2456
116.29282,39.92775,162,2456
116.29283,39.92775,163,2456
116.29283,39.92776,164,2456
116.29284,39.92776,165,2456
116.29284,39.92775,166,2456
116.29284,39.92775,167,2456
116.29284,39.92774,168,2456
116.29284,39.92773,169,2456
116.29285,39.92773,170,2456
116.29285,39.92773,171,2456
116.29285,39.92773,172,2456
116.34366,39.92772,173,2456
116.34366,39.92772,174,2456
116.29285,39.92772,175,2456
116.29286,39.92772,176,2456
116.29286,39.92772,177,2456
116.2929,39.92767,178,2456
116.2929,39.92768,179,2456
116.29291,39.92767,180,2456
116.2929,39.92767,181,2456
116.29282,39.92771,182,2456
116.29284,39.92769,183,2456
116.29287,39.92769,184,2456
116.29288,39.92769,185,2456
116.29289,39.92769,186,2456
116.2929,39.9277,187,2456
116.2929,39.9277,188,2456
116.2929,39.9277,189,2456
116.2929,39.9277,190,2456
116.29291,39.92771,191,2456
116.29291,39.92771,192,2456
116.29291,39.92771,193,2456
116.29292,39.92771,194,2456
116.29292,39.92772,195,2456
116.29292,39.92772,196,2456
116.29292,39.92772,197,2456
116.29292,39.92772,198,2456
116.29291,39.92772,199,2456
116.29291,39.92772,200,2456
116.29291,39.92772,201,2456
116.29278,39.92775,202,2456
116.29289,39.92772,203,2456
116.29298,39.92766,204,2456
116.29302,39.92772,205,2456
116.29294,39.92771,206,2456
116.29295,39.9277,207,2456
116.29294,39.92769,208,2456
116.29294,39.92768,209,2456
116.30108,39.9268,210,2456
116.3039,39.90952,211,2456
116.36803,39.94731,212,2456
116.49284,39.99652,213,2456
116.56351,40.03349,214,2456
116.58079,40.04802,215,2456
116.57995,40.06252,216,2456
116.56415,40.06438,217,2456
116.56412,40.06442,218,2456
116.56413,40.0644,219,2456
116.5497,40.06431,220,2456
116.52817,40.04203,221,2456
116.48264,39.98855,222,2456
116.43115,39.94358,223,2456
116.38969,39.94776,224,2456
116.35537,39.9442,225,2456
116.31867,39.94546,226,2456
116.35021,39.93864,227,2456
116.34066,39.93821,228,2456
116.31371,39.93431,229,2456
116.31543,39.93111,230,2456
116.31543,39.93111,231,2456
116.34273,39.93097,232,2456
116.35031,39.90891,233,2456
116.3458,39.90586,234,2456
116.31702,39.90639,235,2456
116.31519,39.89921,236,2456
116.31536,39.89614,237,2456
116.31716,39.89581,238,2456
116.3043,39.90617,239,2456
116.30433,39.93903,240,2456
116.30433,39.93903,241,2456
116.34532,39.93849,242,2456
116.33781,39.92869,243,2456
116.33816,39.92689,244,2456
116.32193,39.92697,245,2456
116.31317,39.92721,246,2456
116.32647,39.93116,247,2456
116.32993,39.92682,248,2456
116.3194,39.93379,249,2456
116.30332,39.95223,250,2456
116.30237,39.97972,251,2456
116.29974,39.97982,252,2456
116.29394,39.99605,253,2456
116.2904,39.99583,254,2456
116.27514,39.98947,255,2456
116.28641,39.96058,256,2456
116.28861,39.95255,257,2456
116.29604,39.91309,258,2456
116.30753,39.9103,259,2456
116.30753,39.9103,260,2456
116.30753,39.9103,261,2456
116.30753,39.9103,262,2456
116.3232,39.90616,263,2456
116.32703,39.90593,264,2456
116.31515,39.90086,265,2456
116.32156,39.89899,266,2456
116.32325,39.89276,267,2456
116.32324,39.89272,268,2456
116.32325,39.89272,269,2456
116.32327,39.89271,270,2456
116.32328,39.8927,271,2456
116.32328,39.89271,272,2456
116.31074,39.90637,273,2456
116.29284,39.928,274,2456
116.29288,39.92791,275,2456
116.29288,39.92789,276,2456
116.29287,39.92788,277,2456
116.2927,39.92793,278,2456
116.29278,39.9279,279,2456
116.2928,39.92788,280,2456
116.29281,39.92786,281,2456
116.29283,39.9278,282,2456
116.29277,39.92814,283,2456
116.29277,39.92814,284,2456
116.29324,39.92699,285,2456
116.29288,39.92779,286,2456
116.29285,39.92782,287,2456
116.29283,39.92771,288,2456
116.29283,39.92777,289,2456
116.29284,39.92775,290,2456
116.29283,39.92778,291,2456
116.29282,39.9278,292,2456
116.29282,39.9278,293,2456
116.29282,39.92781,294,2456
116.29282,39.92781,295,2456
116.29282,39.92782,296,2456
116.29281,39.92782,297,2456
116.29282,39.92782,298,2456
116.29282,39.92782,299,2456
116.29282,39.92782,300,2456
116.29282,39.92782,301,2456
116.29282,39.92782,302,2456
116.29282,39.92782,303,2456
116.29282,39.92782,304,2456
116.29282,39.92782,305,2456
116.29282,39.92782,306,2456
116.29282,39.92782,307,2456
116.29282,39.92782,308,2456
116.29282,39.92782,309,2456
116.29283,39.92782,310,2456
116.29283,39.92782,311,2456
116.29282,39.92781,312,2456
116.29282,39.92781,313,2456
116.29282,39.92782,314,2456
116.29282,39.92781,315,2456
116.29286,39.92784,316,2456
116.29284,39.92785,317,2456
116.29287,39.92784,318,2456
116.29287,39.92786,319,2456
116.29287,39.92786,320,2456
116.29286,39.92786,321,2456
116.29286,39.92787,322,2456
116.29286,39.92786,323,2456
116.29286,39.92787,324,2456
116.29286,39.92786,325,2456
116.29286,39.92786,326,2456
116.29286,39.92785,327,2456
116.29287,39.92785,328,2456
116.29287,39.92785,329,2456
116.29286,39.92785,330,2456
116.29287,39.92785,331,2456
116.29287,39.92785,332,2456
116.29283,39.92787,333,2456
116.29283,39.92786,334,2456
116.29283,39.92786,335,2456
116.29283,39.92786,336,2456
116.29284,39.92786,337,2456
116.29284,39.92785,338,2456
116.29284,39.92785,339,2456
116.29278,39.92783,340,2456
116.29278,39.92783,341,2456
116.29279,39.92755,342,2456
116.30392,39.92413,343,2456
116.30391,39.92397,344,2456
116.30394,39.91208,345,2456
116.3041,39.90091,346,2456
116.34035,39.89648,347,2456
116.34247,39.87982,348,2456
116.34064,39.88782,349,2456
116.32301,39.8971,350,2456
116.32301,39.8971,351,2456
116.32435,39.90141,352,2456
116.328,39.90179,353,2456
116.328,39.9018,354,2456
116.328,39.90178,355,2456
116.32802,39.90144,356,2456
116.32516,39.9018,357,2456
116.32441,39.90134,358,2456
116.32279,39.90747,359,2456
116.31338,39.90987,360,2456
116.30288,39.91134,361,2456
116.30038,39.91063,362,2456
116.29931,39.91038,363,2456
116.29943,39.91039,364,2456
116.29858,39.91038,365,2456
116.29956,39.9105,366,2456
116.29124,39.91953,367,2456
116.27474,39.9232,368,2456
116.26363,39.9232,369,2456
116.26025,39.92334,370,2456
116.24928,39.92833,371,2456
116.25592,39.93021,372,2456
116.25583,39.93013,373,2456
116.25584,39.93014,374,2456
116.25586,39.93013,375,2456
116.25586,39.93013,376,2456
116.25587,39.93013,377,2456
116.25586,39.93013,378,2456
116.25586,39.93012,379,2456
116.25586,39.93012,380,2456
116.25586,39.93012,381,2456
116.25564,39.9302,382,2456
116.25609,39.93021,383,2456
116.24709,39.92913,384,2456
116.26493,39.94568,385,2456
116.26641,39.96877,386,2456
116.25544,39.97999,387,2456
116.25255,39.97678,388,2456
116.26005,39.97648,389,2456
116.26004,39.97663,390,2456
116.26004,39.97661,391,2456
116.26004,39.97662,392,2456
116.26003,39.9766,393,2456
116.25993,39.97655,394,2456
116.25994,39.97655,395,2456
116.25997,39.97657,396,2456
116.25997,39.97657,397,2456
116.25997,39.97658,398,2456
116.25996,39.97657,399,2456
116.25713,39.97797,400,2456
116.2694,39.95688,401,2456
116.27842,39.92292,402,2456
116.30378,39.92139,403,2456
116.3104,39.90619,404,2456
116.32487,39.90146,405,2456
116.31674,39.90624,406,2456
116.30438,39.92973,407,2456
116.29289,39.92803,408,2456
116.29287,39.92799,409,2456
116.29288,39.92801,410,2456
116.29288,39.92801,411,2456
116.2929,39.92801,412,2456
116.2929,39.92801,413,2456
116.2929,39.92801,414,2456
116.2929,39.92801,415,2456
116.2929,39.92801,416,2456
116.2929,39.92801,417,2456
116.29291,39.92801,418,2456
116.2929,39.92801,419,2456
116.2929,39.92801,420,2456
116.2929,39.928,421,2456
116.29289,39.928,422,2456
116.29289,39.928,423,2456
116.29289,39.928,424,2456
116.29289,39.928,425,2456
116.29288,39.928,426,2456
116.29288,39.928,427,2456
116.29288,39.928,428,2456
116.29288,39.928,429,2456
116.29288,39.928,430,2456
116.29288,39.92799,431,2456
116.29288,39.928,432,2456
116.29288,39.928,433,2456
116.29288,39.928,434,2456
116.29288,39.928,435,2456
116.29288,39.928,436,2456
116.29288,39.928,437,2456
116.29288,39.928,438,2456
116.29288,39.928,439,2456
116.29288,39.928,440,2456
116.29288,39.928,441,2456
116.29288,39.928,442,2456
116.29288,39.92799,443,2456
116.29288,39.92799,444,2456
116.29288,39.92799,445,2456
116.29288,39.92799,446,2456
116.29288,39.92799,447,2456
116.29288,39.92799,448,2456
116.29288,39.92799,449,2456
116.29288,39.92799,450,2456
116.29288,39.92799,451,2456
116.29288,39.92799,452,2456
116.29288,39.92799,453,2456
116.29288,39.92799,454,2456
116.29288,39.92799,455,2456
116.29288,39.92799,456,2456
116.29288,39.92799,457,2456
116.29288,39.92799,458,2456
116.29288,39.92799,459,2456
116.29288,39.92799,460,2456
116.29287,39.92799,461,2456
116.29304,39.92826,462,2456
116.29287,39.92808,463,2456
116.29288,39.92805,464,2456
116.29288,39.92804,465,2456
116.29288,39.92803,466,2456
116.29288,39.92803,467,2456
116.29288,39.92803,468,2456
116.29288,39.92803,469,2456
116.29288,39.92802,470,2456
116.29289,39.92802,471,2456
116.29289,39.92802,472,2456
116.29289,39.92801,473,2456
116.2929,39.92801,474,2456
116.2929,39.92801,475,2456
116.2929,39.92801,476,2456
116.2929,39.92801,477,2456
116.2929,39.92801,478,2456
116.2929,39.92801,479,2456
116.2929,39.92801,480,2456
116.2929,39.928,481,2456
116.2929,39.928,482,2456
116.2929,39.928,483,2456
116.2929,39.928,484,2456
116.2929,39.928,485,2456
116.2929,39.928,486,2456
116.2929,39.928,487,2456
116.2929,39.928,488,2456
116.2929,39.928,489,2456
116.2929,39.928,490,2456
116.2929,39.928,491,2456
116.2929,39.928,492,2456
116.29289,39.928,493,2456
116.29289,39.928,494,2456
116.29289,39.928,495,2456
116.29289,39.928,496,2456
116.29289,39.928,497,2456
116.29289,39.928,498,2456
116.29289,39.928,499,2456
116.29289,39.928,500,2456
116.29412,39.92792,501,2456
116.29481,39.92351,502,2456
116.29539,39.92362,503,2456
116.30392,39.9234,504,2456
116.33676,39.89636,505,2456
116.36747,39.86876,506,2456
116.3822,39.86943,507,2456
116.36819,39.88313,508,2456
116.35606,39.88809,509,2456
116.33927,39.85539,510,2456
116.33779,39.8554,511,2456
116.30951,39.85824,512,2456
116.31467,39.89549,513,2456
116.31547,39.89547,514,2456
116.30438,39.88076,515,2456
116.30521,39.88351,516,2456
116.31463,39.8955,517,2456
116.31578,39.8954,518,2456
116.31551,39.89546,519,2456
116.31551,39.89546,520,2456
116.31551,39.89546,521,2456
116.31608,39.8955,522,2456
116.31605,39.89548,523,2456
116.31551,39.89596,524,2456
116.3174,39.89654,525,2456
116.31775,39.89644,526,2456
116.31692,39.89684,527,2456
116.30329,39.88315,528,2456
116.30474,39.88507,529,2456
116.30667,39.90534,530,2456
116.31843,39.90608,531,2456
116.30423,39.92,532,2456
116.31782,39.93746,533,2456
116.31872,39.94517,534,2456
116.3271,39.93593,535,2456
116.3271,39.93593,536,2456
116.32743,39.93178,537,2456
116.32743,39.93178,538,2456
116.32743,39.93178,539,2456
116.32743,39.93178,540,2456
116.32127,39.90636,541,2456
116.31526,39.89612,542,2456
116.32726,39.90597,543,2456
116.31511,39.90391,544,2456
116.31537,39.90572,545,2456
116.31895,39.90656,546,2456
116.31856,39.90649,547,2456
116.31737,39.90626,548,2456
116.30469,39.88046,549,2456
116.30162,39.87833,550,2456
116.30088,39.88014,551,2456
116.30439,39.89231,552,2456
116.3043,39.91823,553,2456
116.31648,39.90603,554,2456
116.31891,39.90643,555,2456
116.31512,39.90635,556,2456
116.31571,39.906,557,2456
116.31581,39.90653,558,2456
116.31525,39.90378,559,2456
116.31687,39.90649,560,2456
116.31772,39.89671,561,2456
116.3177,39.89669,562,2456
116.26716,39.89575,563,2456
116.20513,39.90005,564,2456
116.21029,39.95291,565,2456
116.20925,39.99241,566,2456
116.20927,39.99241,567,2456
116.22333,39.99154,568,2456
116.24651,39.98385,569,2456
116.2499,39.97987,570,2456
116.26323,39.96851,571,2456
116.27442,39.95754,572,2456
116.27442,39.95752,573,2456
116.26808,39.94683,574,2456
116.26636,39.94254,575,2456
116.26636,39.94254,576,2456
116.268,39.94202,577,2456
116.28931,39.93104,578,2456
116.2928,39.92777,579,2456
116.29283,39.92779,580,2456
116.29284,39.92783,581,2456
116.29285,39.92785,582,2456
116.29285,39.92785,583,2456
116.29285,39.92785,584,2456
116.29285,39.92784,585,2456
116.29285,39.92784,586,2456
116.29285,39.92783,587,2456
116.29285,39.92783,588,2456
116.29284,39.92783,589,2456
116.29284,39.92783,590,2456
116.29284,39.92783,591,2456
116.29285,39.92783,592,2456
116.29285,39.92784,593,2456
116.29285,39.92784,594,2456
116.29285,39.92784,595,2456
116.29285,39.92784,596,2456
116.29286,39.92785,597,2456
116.29286,39.92784,598,2456
116.29286,39.92784,599,2456
116.29283,39.92783,600,2456
116.29284,39.92783,601,2456
116.29286,39.92781,602,2456
116.29287,39.92779,603,2456
116.29287,39.9278,604,2456
116.29288,39.9278,605,2456
116.29288,39.9278,606,2456
116.29288,39.9278,607,2456
116.29288,39.92779,608,2456
116.29288,39.9278,609,2456
116.29288,39.9278,610,2456
116.29288,39.9278,611,2456
116.29287,39.9278,612,2456
116.29287,39.9278,613,2456
116.29287,39.9278,614,2456
116.29287,39.9278,615,2456
116.29509,39.9271,616,2456
116.28535,39.91804,617,2456
116.28535,39.91804,618,2456
116.26696,39.9197,619,2456
116.26375,39.9206,620,2456
116.26368,39.92057,621,2456
116.26368,39.92057,622,2456
116.26403,39.91982,623,2456
116.26367,39.92028,624,2456
116.26367,39.9203,625,2456
116.2637,39.92021,626,2456
116.26684,39.91994,627,2456
116.26674,39.921,628,2456
116.26672,39.921,629,2456
116.27045,39.92229,630,2456
116.28252,39.92629,631,2456
116.30354,39.93096,632,2456
116.30498,39.93972,633,2456
116.31125,39.93127,634,2456
116.29432,39.92779,635,2456
116.29289,39.92795,636,2456
116.29287,39.92795,637,2456
116.29286,39.92801,638,2456
116.29287,39.92798,639,2456
116.29288,39.92796,640,2456
116.29279,39.92801,641,2456
116.2928,39.92798,642,2456
116.2928,39.92797,643,2456
116.29281,39.92796,644,2456
116.29281,39.92796,645,2456
116.29282,39.92795,646,2456
116.29282,39.92794,647,2456
116.29282,39.92794,648,2456
116.29282,39.92794,649,2456
116.29282,39.92794,650,2456
116.29282,39.92795,651,2456
116.29283,39.92794,652,2456
116.29283,39.92794,653,2456
116.29284,39.92794,654,2456
116.29284,39.92794,655,2456
116.29284,39.92795,656,2456
116.29299,39.92799,657,2456
116.29291,39.92797,658,2456
116.29291,39.92797,659,2456
116.29291,39.92795,660,2456
116.29291,39.92795,661,2456
116.29291,39.92795,662,2456
116.29291,39.92795,663,2456
116.29291,39.92795,664,2456
116.29289,39.92788,665,2456
116.29287,39.92788,666,2456
116.29286,39.92788,667,2456
116.29288,39.92788,668,2456
116.29287,39.92789,669,2456
116.29287,39.9279,670,2456
116.29287,39.9279,671,2456
116.29288,39.92791,672,2456
116.29288,39.92791,673,2456
116.29288,39.92791,674,2456
116.29298,39.92807,675,2456
116.29295,39.928,676,2456
116.29289,39.92799,677,2456
116.2929,39.92796,678,2456
116.2929,39.92796,679,2456
116.29291,39.92796,680,2456
116.29289,39.92796,681,2456
116.29289,39.92795,682,2456
116.29288,39.92794,683,2456
116.29288,39.92794,684,2456
116.29288,39.92793,685,2456
116.29288,39.92793,686,2456
116.29288,39.92792,687,2456
116.29288,39.92792,688,2456
116.29288,39.92792,689,2456
116.29288,39.92792,690,2456
116.29288,39.92791,691,2456
116.29288,39.92791,692,2456
116.29288,39.92791,693,2456
116.29288,39.92791,694,2456
116.29288,39.92791,695,2456
116.29287,39.92791,696,2456
116.29287,39.92791,697,2456
116.29287,39.92791,698,2456
116.29289,39.9279,699,2456
116.29289,39.92791,700,2456
116.29289,39.92791,701,2456
116.2928,39.92799,702,2456
116.29299,39.92787,703,2456
116.29293,39.92791,704,2456
116.29292,39.92784,705,2456
116.2929,39.92809,706,2456
116.29292,39.92805,707,2456
116.29291,39.92804,708,2456
116.29291,39.92803,709,2456
116.2929,39.92798,710,2456
116.2929,39.92797,711,2456
116.2929,39.92797,712,2456
116.29289,39.92797,713,2456
116.29289,39.92797,714,2456
116.29289,39.92796,715,2456
116.29289,39.92796,716,2456
116.29289,39.92796,717,2456
116.29289,39.92796,718,2456
116.29296,39.928,719,2456
116.29295,39.92797,720,2456
116.29295,39.92797,721,2456
116.29294,39.92797,722,2456
116.29294,39.92797,723,2456
116.29294,39.92797,724,2456
116.29294,39.92797,725,2456
116.29294,39.92797,726,2456
116.29294,39.92797,727,2456
116.29293,39.92797,728,2456
116.29293,39.92797,729,2456
116.29293,39.92797,730,2456
116.29293,39.92797,731,2456
116.29293,39.92797,732,2456
116.29293,39.92797,733,2456
116.29292,39.92797,734,2456
116.29292,39.92797,735,2456
116.29292,39.92796,736,2456
116.29292,39.92796,737,2456
116.29292,39.92796,738,2456
116.29292,39.92796,739,2456
116.29291,39.92796,740,2456
116.29291,39.92796,741,2456
116.29291,39.92796,742,2456
116.29291,39.92796,743,2456
116.29291,39.92796,744,2456
116.29291,39.92795,745,2456
116.29291,39.92795,746,2456
116.29291,39.92795,747,2456
116.29291,39.92795,748,2456
116.29291,39.92795,749,2456
116.29291,39.92795,750,2456
116.29291,39.92795,751,2456
116.2929,39.92796,752,2456
116.2929,39.92796,753,2456
116.2929,39.92796,754,2456
116.2929,39.92796,755,2456
116.2929,39.92796,756,2456
116.2929,39.92796,757,2456
116.29378,39.92801,758,2456
116.29567,39.92685,759,2456
116.31032,39.89565,760,2456
116.31534,39.89529,761,2456
116.31551,39.89554,762,2456
116.31557,39.89556,763,2456
116.31556,39.89554,764,2456
116.31556,39.89553,765,2456
116.32826,39.89589,766,2456
116.37716,39.90591,767,2456
116.40511,39.9066,768,2456
116.45401,39.90675,769,2456
116.43945,39.90715,770,2456
116.43926,39.90715,771,2456
116.4398,39.87828,772,2456
116.37985,39.86972,773,2456
116.34288,39.89496,774,2456
116.31643,39.89608,775,2456
116.31471,39.8956,776,2456
116.31462,39.89554,777,2456
116.31596,39.89511,778,2456
116.31573,39.89548,779,2456
116.3262,39.89586,780,2456
116.36191,39.86837,781,2456
116.43258,39.86931,782,2456
116.44758,39.86105,783,2456
116.34657,39.9204,784,2456
116.34655,39.9204,785,2456
116.34652,39.92049,786,2456
116.34652,39.92024,787,2456
116.34648,39.92044,788,2456
116.34658,39.92031,789,2456
116.34657,39.92032,790,2456
116.34659,39.92049,791,2456
116.34723,39.91894,792,2456
116.34613,39.92133,793,2456
116.34604,39.92158,794,2456
116.34656,39.92074,795,2456
116.34647,39.92047,796,2456
116.34637,39.92051,797,2456
116.34651,39.92054,798,2456
116.34633,39.92116,799,2456
116.34633,39.92116,800,2456
116.3469,39.92181,801,2456
116.34465,39.92228,802,2456
116.33186,39.94808,803,2456
116.31995,39.9504,804,2456
116.30525,39.94047,805,2456
116.30341,39.93684,806,2456
116.29459,39.92797,807,2456
116.29284,39.92774,808,2456
116.29283,39.92775,809,2456
116.29285,39.92777,810,2456
116.29285,39.92776,811,2456
116.29284,39.92777,812,2456
116.29284,39.92777,813,2456
116.29284,39.92778,814,2456
116.29289,39.92806,815,2456
116.29287,39.92803,816,2456
116.29286,39.92802,817,2456
116.29286,39.92802,818,2456
116.29286,39.92802,819,2456
116.29287,39.92801,820,2456
116.29287,39.92801,821,2456
116.29286,39.928,822,2456
116.29287,39.928,823,2456
116.29287,39.92799,824,2456
116.29287,39.92799,825,2456
116.29287,39.92798,826,2456
116.29287,39.92798,827,2456
116.29289,39.92796,828,2456
116.29289,39.92795,829,2456
116.29289,39.92795,830,2456
116.29289,39.92795,831,2456
116.29289,39.92794,832,2456
116.29329,39.9282,833,2456
116.30259,39.92337,834,2456
116.30215,39.92369,835,2456
116.30235,39.92357,836,2456
116.30235,39.92357,837,2456
116.30235,39.92357,838,2456
116.30207,39.9237,839,2456
116.30245,39.92315,840,2456
116.30103,39.92395,841,2456
116.2929,39.92803,842,2456
116.29536,39.92967,843,2456
116.30408,39.90624,844,2456
116.31495,39.89777,845,2456
116.31523,39.89989,846,2456
116.35041,39.90584,847,2456
116.38324,39.90599,848,2456
116.41091,39.90671,849,2456
116.44372,39.90706,850,2456
116.49451,39.90675,851,2456
116.63961,39.90441,852,2456
116.63961,39.9044,853,2456
116.63963,39.9044,854,2456
116.63962,39.9044,855,2456
116.65197,39.90019,856,2456
116.64478,39.88223,857,2456
116.62295,39.86103,858,2456
116.62934,39.84584,859,2456
116.63321,39.81148,860,2456
116.64445,39.79111,861,2456
116.65473,39.77172,862,2456
116.66201,39.77198,863,2456
116.66201,39.772,864,2456
116.66202,39.772,865,2456
116.66202,39.772,866,2456
116.66203,39.772,867,2456
116.66203,39.77199,868,2456
116.66204,39.772,869,2456
116.66205,39.772,870,2456
116.66205,39.77201,871,2456
116.66205,39.77201,872,2456
116.66205,39.77201,873,2456
116.66205,39.77201,874,2456
116.66205,39.77201,875,2456
116.66205,39.772,876,2456
116.66205,39.77201,877,2456
116.66205,39.772,878,2456
116.66205,39.772,879,2456
116.66205,39.772,880,2456
116.66205,39.772,881,2456
116.66206,39.772,882,2456
116.66206,39.772,883,2456
116.66206,39.772,884,2456
116.66206,39.772,885,2456
116.66206,39.772,886,2456
116.66206,39.772,887,2456
116.66206,39.772,888,2456
116.66206,39.772,889,2456
116.66206,39.772,890,2456
116.66206,39.772,891,2456
116.66205,39.772,892,2456
116.66205,39.772,893,2456
116.66205,39.772,894,2456
116.66205,39.77201,895,2456
116.66205,39.77201,896,2456
116.66204,39.77201,897,2456
116.66204,39.77201,898,2456
116.66204,39.77201,899,2456
116.66204,39.77201,900,2456
116.66204,39.77201,901,2456
116.66204,39.77201,902,2456
116.66203,39.77201,903,2456
116.66203,39.77201,904,2456
116.66203,39.77202,905,2456
116.66203,39.77202,906,2456
116.66203,39.77202,907,2456
116.66203,39.77202,908,2456
116.66203,39.77202,909,2456
116.66203,39.77202,910,2456
116.66203,39.77201,911,2456
116.66203,39.77201,912,2456
116.66204,39.77201,913,2456
116.66204,39.77201,914,2456
116.66204,39.77201,915,2456
116.66204,39.77201,916,2456
116.66204,39.77201,917,2456
116.66204,39.772,918,2456
116.66204,39.772,919,2456
116.66203,39.772,920,2456
116.66203,39.772,921,2456
116.66203,39.772,922,2456
116.66218,39.77188,923,2456
116.66214,39.7719,924,2456
116.66212,39.77191,925,2456
116.66211,39.77192,926,2456
116.66211,39.77192,927,2456
116.66209,39.77193,928,2456
116.66209,39.77194,929,2456
116.66209,39.77194,930,2456
116.66208,39.77195,931,2456
116.66208,39.77196,932,2456
116.66207,39.77196,933,2456
116.66207,39.77197,934,2456
116.66206,39.77197,935,2456
116.66206,39.77197,936,2456
116.66206,39.77198,937,2456
116.66205,39.77198,938,2456
116.66205,39.77198,939,2456
116.66205,39.77198,940,2456
116.66204,39.77198,941,2456
116.66204,39.77198,942,2456
116.66204,39.77198,943,2456
116.66204,39.77198,944,2456
116.66204,39.77198,945,2456
116.66204,39.77198,946,2456
116.66203,39.77198,947,2456
116.66203,39.77198,948,2456
116.66203,39.77198,949,2456
116.66203,39.77198,950,2456
116.66203,39.77198,951,2456
116.66203,39.77198,952,2456
116.66203,39.77198,953,2456
116.66203,39.77198,954,2456
116.66203,39.77198,955,2456
116.66203,39.77198,956,2456
116.66203,39.77198,957,2456
116.66203,39.77198,958,2456
116.66203,39.77198,959,2456
116.66203,39.77198,960,2456
116.66203,39.77198,961,2456
116.66203,39.77198,962,2456
116.66202,39.77198,963,2456
116.66202,39.77198,964,2456
116.66202,39.77199,965,2456
116.66202,39.77199,966,2456
116.66202,39.77199,967,2456
116.66202,39.77199,968,2456
116.66202,39.77199,969,2456
116.66202,39.772,970,2456
116.66202,39.772,971,2456
116.66202,39.772,972,2456
116.66202,39.772,973,2456
116.66202,39.772,974,2456
116.66202,39.772,975,2456
116.66202,39.77201,976,2456
116.66209,39.77209,977,2456
116.66205,39.77207,978,2456
116.66204,39.77207,979,2456
116.66205,39.77205,980,2456
116.66206,39.77205,981,2456
116.66206,39.77205,982,2456
116.66206,39.77205,983,2456
116.66206,39.77205,984,2456
116.66205,39.77205,985,2456
116.66205,39.77204,986,2456
116.66205,39.77204,987,2456
116.66205,39.77203,988,2456
116.66204,39.77203,989,2456
116.66204,39.77203,990,2456
116.66204,39.77203,991,2456
116.66204,39.77203,992,2456
116.66204,39.77203,993,2456
116.66204,39.77203,994,2456
116.66204,39.77202,995,2456
116.66204,39.77202,996,2456
116.66204,39.77203,997,2456
116.66204,39.77203,998,2456
116.66204,39.77203,999,2456
116.66204,39.77203,1000,2456
116.66204,39.77202,1001,2456
116.66204,39.77202,1002,2456
116.6621,39.77212,1003,2456
116.66207,39.77209,1004,2456
116.66205,39.77208,1005,2456
116.66206,39.77209,1006,2456
116.66206,39.77208,1007,2456
116.66206,39.77206,1008,2456
116.66205,39.77206,1009,2456
116.66204,39.77204,1010,2456
116.66204,39.77204,1011,2456
116.66203,39.77202,1012,2456
116.6619,39.7718,1013,2456
116.66192,39.77183,1014,2456
116.66194,39.77187,1015,2456
116.66197,39.7719,1016,2456
116.66204,39.7722,1017,2456
116.66201,39.77216,1018,2456
116.66201,39.77212,1019,2456
116.66202,39.7721,1020,2456
116.66203,39.77209,1021,2456
116.66203,39.77208,1022,2456
116.66204,39.77209,1023,2456
116.66204,39.77209,1024,2456
116.66204,39.77209,1025,2456
116.66203,39.77209,1026,2456
116.66203,39.7721,1027,2456
116.66203,39.7721,1028,2456
116.66203,39.7721,1029,2456
116.66203,39.7721,1030,2456
116.66203,39.77209,1031,2456
116.66203,39.77209,1032,2456
116.66203,39.77209,1033,2456
116.66203,39.77208,1034,2456
116.66203,39.77208,1035,2456
116.66203,39.77207,1036,2456
116.66203,39.77206,1037,2456
116.66203,39.77206,1038,2456
116.66203,39.77206,1039,2456
116.66203,39.77206,1040,2456
116.66203,39.77205,1041,2456
116.66203,39.77205,1042,2456
116.66203,39.77205,1043,2456
116.66204,39.77205,1044,2456
116.66214,39.77206,1045,2456
116.66214,39.77205,1046,2456
116.66212,39.77205,1047,2456
116.66211,39.77205,1048,2456
116.6621,39.77206,1049,2456
116.66209,39.77205,1050,2456
116.66208,39.77205,1051,2456
116.66207,39.77204,1052,2456
116.66207,39.77203,1053,2456
116.66207,39.77203,1054,2456
116.66206,39.77203,1055,2456
116.66206,39.77202,1056,2456
116.66206,39.77202,1057,2456
116.66206,39.77202,1058,2456
116.66206,39.77202,1059,2456
116.66206,39.77202,1060,2456
116.66206,39.77202,1061,2456
116.66206,39.77201,1062,2456
116.66206,39.77201,1063,2456
116.66206,39.77201,1064,2456
116.66206,39.77202,1065,2456
116.66206,39.77202,1066,2456
116.66206,39.77202,1067,2456
116.66206,39.77202,1068,2456
116.66206,39.77202,1069,2456
116.66206,39.77201,1070,2456
116.66207,39.77201,1071,2456
116.66207,39.77202,1072,2456
116.66207,39.77202,1073,2456
116.66207,39.77202,1074,2456
116.66207,39.77202,1075,2456
116.66207,39.77202,1076,2456
116.66207,39.77202,1077,2456
116.66207,39.77201,1078,2456
116.66207,39.77201,1079,2456
116.66207,39.77201,1080,2456
116.66207,39.77201,1081,2456
116.66207,39.772,1082,2456
116.66207,39.772,1083,2456
116.66207,39.772,1084,2456
116.66207,39.772,1085,2456
116.66207,39.77201,1086,2456
116.66207,39.77201,1087,2456
116.66207,39.77201,1088,2456
116.66207,39.77201,1089,2456
116.66207,39.77201,1090,2456
116.66207,39.77201,1091,2456
116.66207,39.77201,1092,2456
116.66207,39.77201,1093,2456
116.66207,39.77201,1094,2456
116.66207,39.77201,1095,2456
116.66207,39.772,1096,2456
116.66207,39.772,1097,2456
116.66206,39.772,1098,2456
116.66206,39.772,1099,2456
116.66206,39.77199,1100,2456
116.66206,39.77199,1101,2456
116.66206,39.77199,1102,2456
116.66206,39.77199,1103,2456
116.66206,39.77199,1104,2456
116.66206,39.77199,1105,2456
116.66206,39.77199,1106,2456
116.66206,39.77199,1107,2456
116.66205,39.77199,1108,2456
116.66205,39.77199,1109,2456
116.66205,39.77199,1110,2456
116.66205,39.77199,1111,2456
116.66205,39.77198,1112,2456
116.66206,39.77198,1113,2456
116.66206,39.77198,1114,2456
116.66206,39.77199,1115,2456
116.66207,39.77199,1116,2456
116.66207,39.77199,1117,2456
116.66207,39.77199,1118,2456
116.66207,39.77199,1119,2456
116.66207,39.77199,1120,2456
116.66207,39.77199,1121,2456
116.66207,39.77199,1122,2456
116.66208,39.772,1123,2456
116.66207,39.772,1124,2456
116.66207,39.772,1125,2456
116.66207,39.772,1126,2456
116.66207,39.772,1127,2456
116.66207,39.772,1128,2456
116.66207,39.772,1129,2456
116.66207,39.772,1130,2456
116.66207,39.772,1131,2456
116.66207,39.772,1132,2456
116.66208,39.772,1133,2456
116.66208,39.772,1134,2456
116.66208,39.772,1135,2456
116.66208,39.77199,1136,2456
116.66208,39.772,1137,2456
116.66208,39.772,1138,2456
116.66207,39.772,1139,2456
116.66207,39.772,1140,2456
116.66208,39.772,1141,2456
116.66208,39.772,1142,2456
116.66208,39.77199,1143,2456
116.66208,39.77199,1144,2456
116.66208,39.77199,1145,2456
116.66208,39.77199,1146,2456
116.66208,39.77199,1147,2456
116.66207,39.77199,1148,2456
116.66207,39.77198,1149,2456
116.66207,39.77198,1150,2456
116.66207,39.77198,1151,2456
116.66207,39.77198,1152,2456
116.66207,39.77198,1153,2456
116.66207,39.77198,1154,2456
116.66207,39.77198,1155,2456
116.66207,39.77199,1156,2456
116.66207,39.77199,1157,2456
116.66207,39.77199,1158,2456
116.66207,39.77199,1159,2456
116.66207,39.77199,1160,2456
116.66207,39.77199,1161,2456
116.66207,39.77199,1162,2456
116.66207,39.77199,1163,2456
116.66207,39.77199,1164,2456
116.66207,39.77199,1165,2456
116.66207,39.77199,1166,2456
116.66207,39.77199,1167,2456
116.66207,39.77199,1168,2456
116.66207,39.77199,1169,2456
116.66207,39.77199,1170,2456
116.66208,39.77199,1171,2456
116.66208,39.77199,1172,2456
116.66208,39.77199,1173,2456
116.66208,39.77199,1174,2456
116.66208,39.772,1175,2456
116.66208,39.772,1176,2456
116.66208,39.772,1177,2456
116.66208,39.772,1178,2456
116.66209,39.77199,1179,2456
116.66209,39.77199,1180,2456
116.66209,39.77199,1181,2456
116.66209,39.772,1182,2456
116.66209,39.772,1183,2456
116.66209,39.772,1184,2456
116.66208,39.772,1185,2456
116.66208,39.772,1186,2456
116.66208,39.772,1187,2456
116.66208,39.772,1188,2456
116.66208,39.772,1189,2456
116.66207,39.772,1190,2456
116.66207,39.77201,1191,2456
116.66207,39.77201,1192,2456
116.66207,39.77201,1193,2456
116.66207,39.77201,1194,2456
116.66207,39.77201,1195,2456
116.66207,39.77201,1196,2456
116.66207,39.77201,1197,2456
116.66207,39.77201,1198,2456
116.66208,39.77199,1199,2456
116.66208,39.77199,1200,2456
116.66208,39.77199,1201,2456
116.66208,39.77199,1202,2456
116.66208,39.77199,1203,2456
116.66208,39.77199,1204,2456
116.66208,39.77199,1205,2456
116.66208,39.77199,1206,2456
116.66207,39.77198,1207,2456
116.66207,39.77198,1208,2456
116.66207,39.77198,1209,2456
116.66207,39.77198,1210,2456
116.36703,39.93143,1211,2456
116.36703,39.93143,1212,2456
116.66207,39.77198,1213,2456
116.66207,39.77198,1214,2456
116.66207,39.77198,1215,2456
116.66207,39.77198,1216,2456
116.66207,39.77198,1217,2456
116.66207,39.77198,1218,2456
116.66207,39.77198,1219,2456
116.66207,39.77198,1220,2456
116.66207,39.77199,1221,2456
116.66207,39.77199,1222,2456
116.66207,39.77199,1223,2456
116.66207,39.77199,1224,2456
116.66208,39.77199,1225,2456
116.66208,39.77199,1226,2456
116.66208,39.77199,1227,2456
116.66208,39.77199,1228,2456
116.66208,39.77199,1229,2456
116.66208,39.77199,1230,2456
116.66208,39.77199,1231,2456
116.66208,39.77199,1232,2456
116.66208,39.77199,1233,2456
116.66208,39.77199,1234,2456
116.66208,39.77199,1235,2456
116.66208,39.77199,1236,2456
116.66208,39.77199,1237,2456
116.66208,39.77199,1238,2456
116.66208,39.77199,1239,2456
116.66209,39.77199,1240,2456
116.66209,39.77199,1241,2456
116.66208,39.77199,1242,2456
116.66208,39.77199,1243,2456
116.66208,39.77199,1244,2456
116.66208,39.77199,1245,2456
116.66208,39.77198,1246,2456
116.66208,39.77198,1247,2456
116.66208,39.77198,1248,2456
116.66208,39.77198,1249,2456
116.66208,39.77198,1250,2456
116.66208,39.77198,1251,2456
116.66208,39.77198,1252,2456
116.66207,39.77199,1253,2456
116.66207,39.77198,1254,2456
116.66207,39.77198,1255,2456
116.66207,39.77198,1256,2456
116.66207,39.77199,1257,2456
116.66207,39.77198,1258,2456
116.66207,39.77198,1259,2456
116.66207,39.77199,1260,2456
116.66208,39.77199,1261,2456
116.66207,39.77199,1262,2456
116.66207,39.77199,1263,2456
116.66207,39.77199,1264,2456
116.66207,39.77199,1265,2456
116.66207,39.77199,1266,2456
116.66207,39.77199,1267,2456
116.66208,39.77199,1268,2456
116.66208,39.77199,1269,2456
116.66208,39.77199,1270,2456
116.66208,39.77199,1271,2456
116.66208,39.77199,1272,2456
116.66208,39.77199,1273,2456
116.66208,39.77199,1274,2456
116.66208,39.77199,1275,2456
116.66209,39.77199,1276,2456
116.66209,39.77198,1277,2456
116.66209,39.77199,1278,2456
116.66209,39.77198,1279,2456
116.66209,39.77198,1280,2456
116.66209,39.77198,1281,2456
116.66209,39.77198,1282,2456
116.66209,39.77198,1283,2456
116.66206,39.77196,1284,2456
116.66206,39.77195,1285,2456
116.66206,39.77195,1286,2456
116.66206,39.77195,1287,2456
116.66205,39.77194,1288,2456
116.66204,39.77193,1289,2456
116.66202,39.77194,1290,2456
116.66202,39.77194,1291,2456
116.66202,39.77194,1292,2456
116.662,39.77193,1293,2456
116.66196,39.77184,1294,2456
116.66194,39.77188,1295,2456
116.66194,39.7719,1296,2456
116.66194,39.7719,1297,2456
116.66197,39.77192,1298,2456
116.66202,39.77201,1299,2456
116.66212,39.77241,1300,2456
116.66203,39.77225,1301,2456
116.66203,39.77219,1302,2456
116.66208,39.77201,1303,2456
116.66205,39.77208,1304,2456
116.66204,39.7721,1305,2456
116.66204,39.77227,1306,2456
116.66201,39.77221,1307,2456
116.66202,39.77217,1308,2456
116.66202,39.77213,1309,2456
116.66202,39.7721,1310,2456
116.66204,39.77208,1311,2456
116.66204,39.77207,1312,2456
116.66205,39.77205,1313,2456
116.66205,39.77204,1314,2456
116.66205,39.77203,1315,2456
116.66205,39.77201,1316,2456
116.66205,39.772,1317,2456
116.66205,39.77199,1318,2456
116.66205,39.77198,1319,2456
116.66205,39.77198,1320,2456
116.66205,39.77198,1321,2456
116.66206,39.77197,1322,2456
116.66206,39.77197,1323,2456
116.66207,39.77197,1324,2456
116.66207,39.77197,1325,2456
116.66207,39.77197,1326,2456
116.66207,39.77197,1327,2456
116.66207,39.77198,1328,2456
116.66207,39.77198,1329,2456
116.66208,39.77198,1330,2456
116.66208,39.77198,1331,2456
116.66208,39.77198,1332,2456
116.66208,39.77198,1333,2456
116.66208,39.77198,1334,2456
116.66208,39.77198,1335,2456
116.66208,39.77198,1336,2456
116.66208,39.77198,1337,2456
116.66207,39.77198,1338,2456
116.66207,39.77198,1339,2456
116.66207,39.77198,1340,2456
116.66207,39.77198,1341,2456
116.66207,39.77198,1342,2456
116.66207,39.77199,1343,2456
116.66207,39.77199,1344,2456
116.66207,39.77199,1345,2456
116.66207,39.77198,1346,2456
116.66207,39.77198,1347,2456
116.66207,39.77198,1348,2456
116.66207,39.77198,1349,2456
116.66206,39.77198,1350,2456
116.66206,39.77199,1351,2456
116.66206,39.77199,1352,2456
116.66206,39.77199,1353,2456
116.66206,39.77199,1354,2456
116.66206,39.77199,1355,2456
116.66206,39.77199,1356,2456
116.66206,39.77199,1357,2456
116.66206,39.77199,1358,2456
116.66206,39.772,1359,2456
116.66206,39.772,1360,2456
116.66206,39.772,1361,2456
116.66206,39.772,1362,2456
116.66206,39.772,1363,2456
116.66206,39.772,1364,2456
116.66206,39.772,1365,2456
116.65889,39.77125,1366,2456
116.64567,39.79072,1367,2456
116.65219,39.81727,1368,2456
116.64113,39.83243,1369,2456
116.6405,39.83262,1370,2456
116.64054,39.83263,1371,2456
116.64056,39.83265,1372,2456
116.64058,39.83267,1373,2456
116.64061,39.83266,1374,2456
116.64075,39.83279,1375,2456
116.64108,39.83246,1376,2456
116.64067,39.83271,1377,2456
116.6407,39.83269,1378,2456
116.6407,39.83266,1379,2456
116.6407,39.83277,1380,2456
116.64053,39.83265,1381,2456
116.64052,39.83261,1382,2456
116.64049,39.83253,1383,2456
116.64053,39.83266,1384,2456
116.64053,39.83266,1385,2456
116.64043,39.83257,1386,2456
116.64043,39.83257,1387,2456
116.64052,39.83251,1388,2456
116.64042,39.83227,1389,2456
116.64044,39.83269,1390,2456
116.64194,39.83205,1391,2456
116.65232,39.82916,1392,2456
116.65233,39.82912,1393,2456
116.6523,39.82917,1394,2456
116.65231,39.82917,1395,2456
116.65231,39.82917,1396,2456
116.6523,39.82918,1397,2456
116.6523,39.82918,1398,2456
116.65229,39.82919,1399,2456
116.6523,39.82919,1400,2456
116.6523,39.82919,1401,2456
116.6523,39.82919,1402,2456
116.65231,39.82919,1403,2456
116.65231,39.82919,1404,2456
116.65232,39.8292,1405,2456
116.65232,39.8292,1406,2456
116.65232,39.82921,1407,2456
116.65232,39.82922,1408,2456
116.65232,39.82923,1409,2456
116.65232,39.82923,1410,2456
116.65232,39.82924,1411,2456
116.65231,39.82924,1412,2456
116.65231,39.82925,1413,2456
116.65231,39.82925,1414,2456
116.65231,39.82926,1415,2456
116.65231,39.82926,1416,2456
116.65231,39.82926,1417,2456
116.65231,39.82926,1418,2456
116.65231,39.82926,1419,2456
116.65231,39.82927,1420,2456
116.6523,39.82927,1421,2456
116.6523,39.82927,1422,2456
116.6523,39.82927,1423,2456
116.6523,39.82927,1424,2456
116.64833,39.7999,1425,2456
116.64969,39.77167,1426,2456
116.66212,39.77196,1427,2456
116.6621,39.77198,1428,2456
116.6621,39.77202,1429,2456
116.66209,39.77203,1430,2456
116.66208,39.77205,1431,2456
116.66208,39.77206,1432,2456
116.66208,39.77206,1433,2456
116.6621,39.77205,1434,2456
116.6621,39.77204,1435,2456
116.6621,39.77204,1436,2456
116.6621,39.77203,1437,2456
116.66209,39.77202,1438,2456
116.66209,39.77201,1439,2456
116.66208,39.77201,1440,2456
116.66208,39.772,1441,2456
116.66208,39.772,1442,2456
116.66208,39.772,1443,2456
116.66207,39.772,1444,2456
116.66208,39.77199,1445,2456
116.66207,39.772,1446,2456
116.66207,39.772,1447,2456
116.66207,39.772,1448,2456
116.66207,39.772,1449,2456
116.66207,39.77199,1450,2456
116.66207,39.772,1451,2456
116.66207,39.772,1452,2456
116.66206,39.772,1453,2456
116.66206,39.772,1454,2456
116.66206,39.772,1455,2456
116.66206,39.772,1456,2456
116.66206,39.772,1457,2456
116.66206,39.772,1458,2456
116.66206,39.772,1459,2456
116.66206,39.772,1460,2456
116.66206,39.772,1461,2456
116.66206,39.772,1462,2456
116.66206,39.772,1463,2456
116.66206,39.772,1464,2456
116.66206,39.772,1465,2456
116.66206,39.772,1466,2456
116.66206,39.772,1467,2456
116.66206,39.77201,1468,2456
116.66206,39.77201,1469,2456
116.66206,39.77201,1470,2456
116.66206,39.77201,1471,2456
116.66206,39.77201,1472,2456
116.66206,39.77201,1473,2456
116.66206,39.77201,1474,2456
116.66206,39.77201,1475,2456
116.66206,39.77201,1476,2456
116.66206,39.77201,1477,2456
116.66206,39.77201,1478,2456
116.66206,39.77201,1479,2456
116.66206,39.77201,1480,2456
116.66206,39.77201,1481,2456
116.66206,39.77201,1482,2456
116.66206,39.77201,1483,2456
116.66206,39.77201,1484,2456
116.66205,39.77201,1485,2456
116.66206,39.77201,1486,2456
116.66205,39.77201,1487,2456
116.66205,39.77201,1488,2456
116.66205,39.77202,1489,2456
116.66205,39.77202,1490,2456
116.66205,39.77202,1491,2456
116.66205,39.77202,1492,2456
116.66205,39.77201,1493,2456
116.66205,39.77201,1494,2456
116.66205,39.77201,1495,2456
116.66205,39.77201,1496,2456
116.66209,39.77203,1497,2456
116.66209,39.77203,1498,2456
116.66209,39.77202,1499,2456
116.66209,39.77202,1500,2456
116.66209,39.77202,1501,2456
116.66209,39.77202,1502,2456
116.66209,39.77202,1503,2456
116.66209,39.77202,1504,2456
116.66209,39.77202,1505,2456
116.66209,39.77202,1506,2456
116.66209,39.77202,1507,2456
116.66209,39.77202,1508,2456
116.66209,39.77201,1509,2456
116.66209,39.77201,1510,2456
116.66209,39.77201,1511,2456
116.66209,39.77201,1512,2456
116.66209,39.77202,1513,2456
116.6621,39.77202,1514,2456
116.66209,39.77201,1515,2456
116.66209,39.77201,1516,2456
116.66209,39.77201,1517,2456
116.66209,39.77201,1518,2456
116.66209,39.772,1519,2456
116.66209,39.77201,1520,2456
116.66209,39.772,1521,2456
116.66209,39.772,1522,2456
116.66209,39.77201,1523,2456
116.66209,39.77201,1524,2456
116.66209,39.77201,1525,2456
116.66209,39.77201,1526,2456
116.66209,39.77201,1527,2456
116.66209,39.77201,1528,2456
116.66209,39.77201,1529,2456
116.66209,39.77201,1530,2456
116.66209,39.77201,1531,2456
116.66209,39.77201,1532,2456
116.6621,39.77201,1533,2456
116.6621,39.77201,1534,2456
116.6621,39.77201,1535,2456
116.6621,39.77201,1536,2456
116.6621,39.77201,1537,2456
116.6621,39.77201,1538,2456
116.6621,39.77201,1539,2456
116.6621,39.77201,1540,2456
116.6621,39.77201,1541,2456
116.6621,39.77201,1542,2456
116.6621,39.77201,1543,2456
116.6621,39.77201,1544,2456
116.6621,39.77201,1545,2456
116.6621,39.77201,1546,2456
116.66209,39.77202,1547,2456
116.66209,39.77202,1548,2456
116.66209,39.77201,1549,2456
116.66209,39.77201,1550,2456
116.66209,39.77202,1551,2456
116.66209,39.77201,1552,2456
116.66209,39.77201,1553,2456
116.6621,39.77201,1554,2456
116.6621,39.77201,1555,2456
116.6621,39.77201,1556,2456
116.6621,39.77201,1557,2456
116.66209,39.77201,1558,2456
116.66209,39.77201,1559,2456
116.66209,39.77201,1560,2456
116.6621,39.77201,1561,2456
116.6621,39.77201,1562,2456
116.6621,39.772,1563,2456
116.6621,39.772,1564,2456
116.6621,39.772,1565,2456
116.6621,39.772,1566,2456
116.6621,39.772,1567,2456
116.6621,39.77199,1568,2456
116.6621,39.77199,1569,2456
116.6621,39.77198,1570,2456
116.6621,39.77198,1571,2456
116.6621,39.77198,1572,2456
116.6621,39.77197,1573,2456
116.6621,39.77197,1574,2456
116.6621,39.77197,1575,2456
116.6621,39.77197,1576,2456
116.66209,39.77197,1577,2456
116.66209,39.77197,1578,2456
116.6621,39.77198,1579,2456
116.6621,39.77197,1580,2456
116.6621,39.77197,1581,2456
116.6621,39.77197,1582,2456
116.6621,39.77197,1583,2456
116.6621,39.77197,1584,2456
116.66209,39.77197,1585,2456
116.66209,39.77197,1586,2456
116.66197,39.77193,1587,2456
116.66197,39.77197,1588,2456
116.66195,39.77197,1589,2456
116.66194,39.77197,1590,2456
116.66196,39.77198,1591,2456
116.66196,39.77199,1592,2456
116.66196,39.77199,1593,2456
116.66198,39.772,1594,2456
116.66198,39.772,1595,2456
116.662,39.77202,1596,2456
116.66201,39.77203,1597,2456
116.66202,39.77204,1598,2456
116.66202,39.77204,1599,2456
116.66203,39.77205,1600,2456
116.66204,39.77205,1601,2456
116.66205,39.77206,1602,2456
116.66205,39.77206,1603,2456
116.66205,39.77206,1604,2456
116.66205,39.77206,1605,2456
116.66205,39.77206,1606,2456
116.66205,39.77206,1607,2456
116.66206,39.77206,1608,2456
116.66206,39.77206,1609,2456
116.66218,39.77201,1610,2456
116.66218,39.77197,1611,2456
116.66217,39.77196,1612,2456
116.66217,39.77196,1613,2456
116.66217,39.77196,1614,2456
116.66219,39.77194,1615,2456
116.6622,39.77193,1616,2456
116.6622,39.77193,1617,2456
116.66219,39.77193,1618,2456
116.66218,39.77193,1619,2456
116.66217,39.77194,1620,2456
116.66216,39.77196,1621,2456
116.66215,39.77197,1622,2456
116.66214,39.77197,1623,2456
116.66214,39.77198,1624,2456
116.66214,39.77198,1625,2456
116.66214,39.77198,1626,2456
116.66214,39.77199,1627,2456
116.66213,39.77199,1628,2456
116.66213,39.77199,1629,2456
116.66213,39.772,1630,2456
116.66213,39.772,1631,2456
116.66213,39.772,1632,2456
116.66213,39.772,1633,2456
116.66212,39.772,1634,2456
116.66212,39.772,1635,2456
116.66212,39.772,1636,2456
116.66212,39.772,1637,2456
116.66212,39.772,1638,2456
116.66212,39.772,1639,2456
116.66212,39.772,1640,2456
116.66212,39.772,1641,2456
116.66212,39.77201,1642,2456
116.66212,39.77201,1643,2456
116.66212,39.77201,1644,2456
116.66212,39.772,1645,2456
116.66212,39.772,1646,2456
116.66212,39.772,1647,2456
116.66212,39.77201,1648,2456
116.66212,39.77201,1649,2456
116.66212,39.77201,1650,2456
116.66212,39.77201,1651,2456
116.66212,39.77201,1652,2456
116.66212,39.77201,1653,2456
116.66212,39.77201,1654,2456
116.66212,39.77201,1655,2456
116.66212,39.77201,1656,2456
116.66212,39.77201,1657,2456
116.66212,39.77201,1658,2456
116.66212,39.77202,1659,2456
116.66212,39.77202,1660,2456
116.66212,39.77202,1661,2456
116.66211,39.77202,1662,2456
116.66211,39.77202,1663,2456
116.66211,39.77201,1664,2456
116.66211,39.77201,1665,2456
116.66211,39.77201,1666,2456
116.66211,39.77201,1667,2456
116.6621,39.77201,1668,2456
116.6621,39.77201,1669,2456
116.6621,39.77201,1670,2456
116.6621,39.77201,1671,2456
116.6621,39.77202,1672,2456
116.6621,39.77202,1673,2456
