x,y,k,tid
116.44363,39.82538,0,260
116.44362,39.82539,1,260
116.44362,39.82539,2,260
116.44362,39.82539,3,260
116.44361,39.8254,4,260
116.44361,39.82541,5,260
116.44361,39.82543,6,260
116.4436,39.82543,7,260
116.4436,39.82544,8,260
116.4436,39.82544,9,260
116.4436,39.82544,10,260
116.44359,39.82544,11,260
116.44359,39.82544,12,260
116.4436,39.82545,13,260
116.44361,39.82546,14,260
116.44361,39.82548,15,260
116.44362,39.82549,16,260
116.44694,39.82366,17,260
116.44141,39.83037,18,260
116.42193,39.83862,19,260
116.42681,39.85323,20,260
116.41848,39.85678,21,260
116.40821,39.89163,22,260
116.39897,39.89255,23,260
116.39896,39.89254,24,260
116.39897,39.89254,25,260
116.39898,39.89252,26,260
116.39898,39.89251,27,260
116.39898,39.89251,28,260
116.39897,39.89251,29,260
116.39897,39.8925,30,260
116.39897,39.89249,31,260
116.39898,39.89247,32,260
116.39899,39.89246,33,260
116.39899,39.89246,34,260
116.39899,39.89246,35,260
116.399,39.89246,36,260
116.39904,39.89258,37,260
116.39903,39.89267,38,260
116.39901,39.89258,39,260
116.39899,39.89256,40,260
116.39893,39.89244,41,260
116.39896,39.89251,42,260
116.39899,39.89254,43,260
116.39899,39.89254,44,260
116.39901,39.89255,45,260
116.39901,39.89256,46,260
116.39901,39.89256,47,260
116.39901,39.89256,48,260
116.39902,39.89256,49,260
116.39902,39.89257,50,260
116.39903,39.89257,51,260
116.39903,39.89257,52,260
116.39902,39.89257,53,260
116.39902,39.89257,54,260
116.39902,39.89257,55,260
116.39902,39.89257,56,260
116.39902,39.89257,57,260
116.39902,39.89257,58,260
116.39901,39.89257,59,260
116.39901,39.89256,60,260
116.39901,39.89256,61,260
116.399,39.89256,62,260
116.399,39.89255,63,260
116.399,39.89255,64,260
116.39968,39.89137,65,260
116.39698,39.89896,66,260
116.40608,39.89281,67,260
116.40636,39.88729,68,260
116.41492,39.87479,69,260
116.41567,39.86083,70,260
116.41538,39.85659,71,260
116.40951,39.85594,72,260
116.40091,39.85604,73,260
116.40091,39.85604,74,260
116.39222,39.85594,75,260
116.37019,39.85602,76,260
116.35655,39.84885,77,260
116.35655,39.84885,78,260
116.34255,39.8447,79,260
116.3429,39.86991,80,260
116.34289,39.89019,81,260
116.3212,39.88862,82,260
116.3203,39.88816,83,260
116.32048,39.88478,84,260
116.32849,39.88711,85,260
116.35354,39.88807,86,260
116.36779,39.88784,87,260
116.37653,39.88802,88,260
116.37828,39.88807,89,260
116.41454,39.88271,90,260
116.43216,39.87475,91,260
116.41894,39.88223,92,260
116.42081,39.88256,93,260
116.44825,39.88331,94,260
116.44941,39.88309,95,260
116.45288,39.88639,96,260
116.44673,39.89228,97,260
116.4138,39.89181,98,260
116.39878,39.89131,99,260
116.3796,39.88811,100,260
116.37181,39.88776,101,260
116.40251,39.89123,102,260
116.42135,39.89214,103,260
116.42923,39.8968,104,260
116.42921,39.89725,105,260
116.42241,39.89602,106,260
116.41249,39.89621,107,260
116.39678,39.89942,108,260
116.37852,39.89887,109,260
116.35715,39.90389,110,260
116.35715,39.90389,111,260
116.35882,39.92184,112,260
116.36203,39.93314,113,260
116.36121,39.93563,114,260
116.3611,39.92741,115,260
116.35703,39.91547,116,260
116.35716,39.8998,117,260
116.35714,39.89673,118,260
116.3572,39.89622,119,260
116.35739,39.88662,120,260
116.356,39.88013,121,260
116.36461,39.88192,122,260
116.38851,39.88902,123,260
116.42818,39.8923,124,260
116.43412,39.92283,125,260
116.4354,39.92142,126,260
116.4296,39.91487,127,260
116.4296,39.91487,128,260
116.43616,39.92204,129,260
116.45379,39.91801,130,260
116.45549,39.90051,131,260
116.46111,39.88303,132,260
116.47418,39.87982,133,260
116.45793,39.88463,134,260
116.43051,39.89238,135,260
116.39975,39.89194,136,260
116.39883,39.8926,137,260
116.39883,39.8926,138,260
116.39882,39.8926,139,260
116.39882,39.8926,140,260
116.39882,39.89259,141,260
116.39882,39.89259,142,260
116.39882,39.89259,143,260
116.39882,39.89259,144,260
116.39882,39.89261,145,260
116.39882,39.89262,146,260
116.39882,39.89262,147,260
116.39882,39.89263,148,260
116.39882,39.89264,149,260
116.39883,39.89287,150,260
116.39877,39.89275,151,260
116.39885,39.89273,152,260
116.39881,39.89272,153,260
116.3988,39.8927,154,260
116.39881,39.89269,155,260
116.39881,39.89269,156,260
116.3988,39.89269,157,260
116.3988,39.89269,158,260
116.39879,39.89269,159,260
116.3988,39.89268,160,260
116.3988,39.89268,161,260
116.3988,39.89266,162,260
116.3988,39.89266,163,260
116.39894,39.89276,164,260
116.39874,39.89254,165,260
116.39878,39.89255,166,260
116.39879,39.89252,167,260
116.39879,39.89253,168,260
116.3988,39.89254,169,260
116.39879,39.89254,170,260
116.39878,39.89255,171,260
116.39878,39.89255,172,260
116.39885,39.89296,173,260
116.39873,39.89262,174,260
116.39884,39.89286,175,260
116.39882,39.89283,176,260
116.39881,39.89282,177,260
116.39878,39.89274,178,260
116.3988,39.89274,179,260
116.39879,39.89273,180,260
116.3988,39.89272,181,260
116.39881,39.89272,182,260
116.39881,39.89271,183,260
116.39881,39.8927,184,260
116.39881,39.8927,185,260
116.39881,39.89269,186,260
116.39881,39.89268,187,260
116.3988,39.89268,188,260
116.39879,39.89267,189,260
116.39879,39.89267,190,260
116.39878,39.89272,191,260
116.39875,39.89236,192,260
116.39877,39.89262,193,260
116.39885,39.89263,194,260
116.39882,39.89264,195,260
116.39881,39.89263,196,260
116.39879,39.89264,197,260
116.39878,39.89263,198,260
116.39878,39.89262,199,260
116.39877,39.89261,200,260
116.39876,39.8926,201,260
116.39875,39.89259,202,260
116.39875,39.89259,203,260
116.39875,39.89259,204,260
116.39875,39.89259,205,260
116.39875,39.89258,206,260
116.39876,39.89258,207,260
116.39883,39.89264,208,260
116.39879,39.89264,209,260
116.39878,39.89264,210,260
116.39879,39.89263,211,260
116.3988,39.89262,212,260
116.39882,39.89262,213,260
116.39883,39.89262,214,260
116.39892,39.89266,215,260
116.39887,39.89263,216,260
116.39884,39.89264,217,260
116.39884,39.89264,218,260
116.39885,39.89264,219,260
116.39885,39.89264,220,260
116.39886,39.89263,221,260
116.39868,39.89268,222,260
116.39871,39.89268,223,260
116.39871,39.89268,224,260
116.39876,39.89264,225,260
116.39876,39.89262,226,260
116.39881,39.89235,227,260
116.39543,39.89069,228,260
116.39611,39.88578,229,260
116.4143,39.88351,230,260
116.41522,39.87431,231,260
116.41548,39.89178,232,260
116.42598,39.89208,233,260
116.42559,39.8829,234,260
116.41479,39.87371,235,260
116.41483,39.87276,236,260
116.37219,39.86935,237,260
116.31365,39.82959,238,260
116.30686,39.83411,239,260
116.31632,39.84665,240,260
116.33297,39.84749,241,260
116.33908,39.82392,242,260
116.33967,39.82432,243,260
116.34493,39.84438,244,260
116.34161,39.85829,245,260
116.34172,39.85893,246,260
116.37043,39.86892,247,260
116.38141,39.87409,248,260
116.3695,39.87748,249,260
116.36752,39.87589,250,260
116.58393,39.80726,251,260
116.58393,39.80726,252,260
116.36789,39.87532,253,260
116.36363,39.87448,254,260
116.3482,39.8683,255,260
116.34994,39.86667,256,260
116.36151,39.87187,257,260
116.36454,39.88169,258,260
116.36777,39.89723,259,260
116.35957,39.90247,260,260
116.35701,39.89964,261,260
116.3572,39.89854,262,260
116.37312,39.89864,263,260
116.37312,39.89864,264,260
116.3961,39.8991,265,260
116.39873,39.89265,266,260
116.39877,39.89265,267,260
116.39877,39.89267,268,260
116.3988,39.89264,269,260
116.39881,39.89263,270,260
116.39882,39.89262,271,260
116.39882,39.89261,272,260
116.39883,39.8926,273,260
116.399,39.89235,274,260
116.39897,39.89243,275,260
116.39896,39.89248,276,260
116.39894,39.8925,277,260
116.39892,39.89251,278,260
116.39891,39.89252,279,260
116.3989,39.89252,280,260
116.39889,39.89253,281,260
116.39889,39.89254,282,260
116.39888,39.89255,283,260
116.39887,39.89256,284,260
116.39887,39.89257,285,260
116.39886,39.89256,286,260
116.39885,39.89256,287,260
116.3988,39.89267,288,260
116.39878,39.89262,289,260
116.39877,39.89258,290,260
116.39878,39.89259,291,260
116.39878,39.89259,292,260
116.39878,39.89258,293,260
116.39878,39.89258,294,260
116.39878,39.89258,295,260
116.39878,39.89258,296,260
116.39878,39.89258,297,260
116.39878,39.89258,298,260
116.39878,39.89258,299,260
116.39879,39.89258,300,260
116.39878,39.89259,301,260
116.39878,39.89259,302,260
116.39879,39.89259,303,260
116.39879,39.89259,304,260
116.39879,39.89259,305,260
116.39879,39.89259,306,260
116.39879,39.8926,307,260
116.39879,39.8926,308,260
116.39879,39.8926,309,260
116.39879,39.8926,310,260
116.39879,39.8926,311,260
116.39879,39.8926,312,260
116.39879,39.89261,313,260
116.39879,39.89261,314,260
116.39879,39.89261,315,260
116.39879,39.89261,316,260
116.3988,39.89261,317,260
116.3988,39.89261,318,260
116.39889,39.8926,319,260
116.39888,39.89262,320,260
116.39869,39.8924,321,260
116.39872,39.89245,322,260
116.39872,39.89245,323,260
116.39873,39.89248,324,260
116.39875,39.89251,325,260
116.39875,39.89252,326,260
116.39876,39.89252,327,260
116.39876,39.89252,328,260
116.39877,39.89253,329,260
116.39877,39.89253,330,260
116.39876,39.89253,331,260
116.39876,39.89254,332,260
116.39877,39.89254,333,260
116.39896,39.89266,334,260
116.39892,39.89265,335,260
116.3989,39.89265,336,260
116.39889,39.89264,337,260
116.39888,39.89264,338,260
116.39887,39.89264,339,260
116.39887,39.89263,340,260
116.39886,39.89263,341,260
116.39886,39.89263,342,260
116.39886,39.89263,343,260
116.39886,39.89263,344,260
116.39885,39.89262,345,260
116.39873,39.89274,346,260
116.39876,39.89268,347,260
116.39879,39.89267,348,260
116.3988,39.89266,349,260
116.39879,39.89266,350,260
116.39879,39.89266,351,260
116.39879,39.89265,352,260
116.39879,39.89265,353,260
116.39879,39.89266,354,260
116.38398,39.88848,355,260
116.38013,39.88407,356,260
116.38882,39.88899,357,260
116.39694,39.89084,358,260
116.41891,39.89207,359,260
116.44134,39.89231,360,260
116.4587,39.89198,361,260
116.47158,39.89874,362,260
116.47158,39.89874,363,260
116.47184,39.90245,364,260
116.47167,39.90376,365,260
116.43669,39.89554,366,260
116.41332,39.89196,367,260
116.38877,39.88915,368,260
116.35312,39.88809,369,260
116.33719,39.88842,370,260
116.30078,39.88049,371,260
116.3009,39.88011,372,260
116.31081,39.84707,373,260
116.30951,39.84878,374,260
116.31922,39.84644,375,260
116.3212,39.8464,376,260
116.30879,39.85913,377,260
116.27324,39.87172,378,260
116.27269,39.89186,379,260
116.27275,39.89186,380,260
116.30258,39.89576,381,260
116.30404,39.89571,382,260
116.30507,39.8957,383,260
116.30423,39.90687,384,260
116.30343,39.95241,385,260
116.36331,39.9841,386,260
116.35939,39.97566,387,260
116.36383,39.98048,388,260
116.3657,39.98049,389,260
116.36355,39.98036,390,260
116.37379,39.96669,391,260
116.40389,39.97241,392,260
116.41847,39.97136,393,260
116.39393,39.96747,394,260
116.36441,39.9668,395,260
116.36651,39.97725,396,260
116.36466,39.95688,397,260
116.36567,39.94785,398,260
116.37535,39.94622,399,260
116.37626,39.94554,400,260
116.38228,39.94241,401,260
116.40995,39.94783,402,260
116.41708,39.96075,403,260
116.4152,39.96078,404,260
116.41135,39.97317,405,260
116.41927,39.94622,406,260
116.41976,39.92716,407,260
116.40469,39.92028,408,260
116.40287,39.91706,409,260
116.3823,39.92113,410,260
116.35921,39.92249,411,260
116.34235,39.92181,412,260
116.34248,39.92091,413,260
116.35022,39.91032,414,260
116.36739,39.8983,415,260
116.40029,39.89539,416,260
116.39869,39.89266,417,260
116.39869,39.89264,418,260
116.39869,39.89264,419,260
116.39869,39.89264,420,260
116.39869,39.89264,421,260
116.39869,39.89264,422,260
116.39869,39.89264,423,260
116.39869,39.89264,424,260
116.39869,39.89265,425,260
116.39869,39.89265,426,260
116.3987,39.89265,427,260
116.3987,39.89265,428,260
116.3987,39.89265,429,260
116.3987,39.89265,430,260
116.3987,39.89265,431,260
116.39871,39.89265,432,260
116.39871,39.89265,433,260
116.39872,39.89265,434,260
116.39872,39.89265,435,260
116.39864,39.89251,436,260
116.39867,39.89253,437,260
116.39872,39.89254,438,260
116.39874,39.89255,439,260
116.39875,39.89256,440,260
116.39875,39.89256,441,260
116.39876,39.89257,442,260
116.39878,39.89258,443,260
116.39906,39.89256,444,260
116.399,39.89258,445,260
116.39896,39.89258,446,260
116.39894,39.89259,447,260
116.39892,39.89259,448,260
116.39891,39.89259,449,260
116.3989,39.8926,450,260
116.39889,39.8926,451,260
116.39889,39.8926,452,260
116.39888,39.89261,453,260
116.39887,39.89262,454,260
116.39886,39.89262,455,260
116.39886,39.89262,456,260
116.39886,39.89262,457,260
116.39886,39.89262,458,260
116.39885,39.89263,459,260
116.39885,39.89263,460,260
116.39885,39.89263,461,260
116.39885,39.89263,462,260
116.39873,39.89258,463,260
116.39878,39.89261,464,260
116.39886,39.89269,465,260
116.3988,39.89264,466,260
116.39879,39.89264,467,260
116.39879,39.89265,468,260
116.3988,39.89264,469,260
116.39909,39.8922,470,260
116.399,39.89231,471,260
116.39896,39.89238,472,260
116.39893,39.89241,473,260
116.39891,39.89243,474,260
116.39889,39.89244,475,260
116.39888,39.89246,476,260
116.39887,39.89248,477,260
116.39886,39.89249,478,260
116.39885,39.89251,479,260
116.39885,39.89251,480,260
116.39884,39.89253,481,260
116.39883,39.89254,482,260
116.39883,39.89255,483,260
116.40141,39.88721,484,260
116.3931,39.86719,485,260
116.38802,39.85801,486,260
116.37914,39.86258,487,260
116.38065,39.86131,488,260
116.38609,39.86161,489,260
116.39286,39.87932,490,260
116.39403,39.89739,491,260
116.40054,39.90637,492,260
116.39989,39.92578,493,260
116.40537,39.9442,494,260
116.41102,39.92808,495,260
116.41102,39.92808,496,260
116.40455,39.92047,497,260
116.42072,39.90734,498,260
116.4206,39.905,499,260
116.40787,39.89957,500,260
116.43025,39.9007,501,260
116.42762,39.94647,502,260
116.47535,39.98081,503,260
116.52693,40.02004,504,260
116.57929,40.04696,505,260
116.58281,40.06524,506,260
116.58281,40.06524,507,260
116.58341,40.07632,508,260
116.58724,40.07722,509,260
116.5871,40.07723,510,260
116.58075,40.07651,511,260
116.57,40.06312,512,260
116.57,40.06312,513,260
116.56989,40.0633,514,260
116.56989,40.0633,515,260
116.54538,40.06022,516,260
116.52591,40.03738,517,260
116.50229,40.0066,518,260
116.51021,39.97913,519,260
116.52916,39.94043,520,260
116.49256,39.93396,521,260
116.4818,39.92202,522,260
116.4786,39.92208,523,260
116.48342,39.9131,524,260
116.48791,39.90795,525,260
116.48312,39.90409,526,260
116.48073,39.89788,527,260
116.46356,39.89206,528,260
116.39622,39.88614,529,260
116.43433,39.89231,530,260
116.41344,39.8918,531,260
116.38074,39.88822,532,260
116.37369,39.88819,533,260
116.36801,39.88201,534,260
116.36148,39.88349,535,260
116.36285,39.8877,536,260
116.36778,39.88447,537,260
116.36654,39.8818,538,260
116.36649,39.87458,539,260
116.36687,39.87458,540,260
116.36834,39.88145,541,260
116.36849,39.88644,542,260
116.36793,39.8972,543,260
116.368,39.90907,544,260
116.37562,39.92047,545,260
116.37577,39.93023,546,260
116.38137,39.93417,547,260
116.37866,39.93636,548,260
116.3743,39.93166,549,260
116.3505,39.93113,550,260
116.32242,39.93102,551,260
116.2961,39.93108,552,260
116.2961,39.93108,553,260
116.27963,39.92306,554,260
116.2675,39.90631,555,260
116.24458,39.90614,556,260
116.22965,39.90023,557,260
116.22956,39.89773,558,260
116.22989,39.89588,559,260
116.28796,39.89575,560,260
116.34496,39.89647,561,260
116.36752,39.89834,562,260
116.39884,39.89258,563,260
116.39881,39.89259,564,260
116.3988,39.89258,565,260
116.3988,39.89258,566,260
116.3988,39.89257,567,260
116.3988,39.89258,568,260
116.3988,39.89259,569,260
116.3988,39.89259,570,260
116.39879,39.89259,571,260
116.39879,39.8926,572,260
116.39879,39.8926,573,260
116.39879,39.89259,574,260
116.39879,39.89259,575,260
116.39879,39.8926,576,260
116.39879,39.8926,577,260
116.39879,39.8926,578,260
116.39879,39.8926,579,260
116.39878,39.89261,580,260
116.39878,39.89261,581,260
116.39878,39.89261,582,260
116.39878,39.89262,583,260
116.39877,39.89262,584,260
116.39877,39.89262,585,260
116.39877,39.89262,586,260
116.39877,39.89262,587,260
116.39856,39.8924,588,260
116.39881,39.89269,589,260
116.39879,39.89263,590,260
116.39879,39.89263,591,260
116.39879,39.89264,592,260
116.39878,39.89264,593,260
116.39879,39.89266,594,260
116.39879,39.89266,595,260
116.39879,39.89265,596,260
116.3988,39.89265,597,260
116.39879,39.89265,598,260
116.39879,39.89265,599,260
116.39879,39.89265,600,260
116.39878,39.89264,601,260
116.39878,39.89264,602,260
116.39878,39.89264,603,260
116.39878,39.89264,604,260
116.39878,39.89264,605,260
116.39878,39.89264,606,260
116.39878,39.89264,607,260
116.39878,39.89264,608,260
116.39878,39.89264,609,260
116.39878,39.89264,610,260
116.39877,39.89264,611,260
116.39878,39.89265,612,260
116.39878,39.89265,613,260
116.39878,39.89265,614,260
116.39878,39.89265,615,260
116.39878,39.89265,616,260
116.39878,39.89265,617,260
116.39878,39.89265,618,260
116.39878,39.89265,619,260
116.39878,39.89265,620,260
116.39878,39.89265,621,260
116.39871,39.89263,622,260
116.39872,39.89262,623,260
116.39871,39.89262,624,260
116.39871,39.89263,625,260
116.39871,39.89262,626,260
116.39871,39.89262,627,260
116.39871,39.89262,628,260
116.39872,39.89261,629,260
116.39872,39.89261,630,260
116.39873,39.89261,631,260
116.39872,39.89261,632,260
116.39872,39.89261,633,260
116.39873,39.89261,634,260
116.39873,39.89261,635,260
116.39873,39.89261,636,260
116.39873,39.89261,637,260
116.39873,39.89261,638,260
116.39873,39.89261,639,260
116.39873,39.8926,640,260
116.39873,39.8926,641,260
116.39874,39.8926,642,260
116.39851,39.89113,643,260
116.41359,39.88494,644,260
116.41667,39.87452,645,260
116.4169,39.87449,646,260
116.41552,39.8756,647,260
116.41508,39.87598,648,260
116.41508,39.87598,649,260
116.415,39.88251,650,260
116.415,39.88251,651,260
116.41482,39.8729,652,260
116.33334,39.86677,653,260
116.33066,39.87116,654,260
116.32819,39.87815,655,260
116.32819,39.87815,656,260
116.3296,39.88333,657,260
116.34412,39.88649,658,260
116.34253,39.8938,659,260
116.34931,39.8973,660,260
116.35261,39.90588,661,260
116.37006,39.90453,662,260
116.37515,39.90584,663,260
116.39664,39.90639,664,260
116.41931,39.90699,665,260
116.45528,39.90153,666,260
116.45841,39.90105,667,260
116.45413,39.90317,668,260
116.43352,39.87214,669,260
116.43354,39.87418,670,260
116.42172,39.8917,671,260
116.41759,39.89418,672,260
116.41761,39.89419,673,260
116.40164,39.89935,674,260
116.426,39.89941,675,260
116.45502,39.89877,676,260
116.45478,39.88506,677,260
116.46124,39.88309,678,260
116.44013,39.87616,679,260
116.36994,39.88809,680,260
116.35715,39.888,681,260
116.31979,39.89089,682,260
116.31548,39.8922,683,260
116.31952,39.88873,684,260
116.31952,39.88873,685,260
116.32797,39.88628,686,260
116.32797,39.88628,687,260
116.3301,39.87594,688,260
116.33591,39.87156,689,260
116.33077,39.8722,690,260
116.3302,39.88331,691,260
116.34306,39.87493,692,260
116.3396,39.83668,693,260
116.38548,39.83044,694,260
116.44053,39.83045,695,260
116.44954,39.81058,696,260
116.44954,39.81058,697,260
116.44588,39.78828,698,260
116.45118,39.79193,699,260
116.44541,39.80843,700,260
116.44808,39.82265,701,260
116.43745,39.83113,702,260
116.42217,39.84581,703,260
116.4206,39.86078,704,260
116.38555,39.8557,705,260
116.35876,39.84456,706,260
116.35886,39.84715,707,260
116.40176,39.85567,708,260
116.455,39.87564,709,260
116.45568,39.92663,710,260
116.46904,39.93666,711,260
116.46985,39.93595,712,260
116.46693,39.93237,713,260
116.4719,39.91644,714,260
116.47159,39.90385,715,260
116.47134,39.91439,716,260
116.46586,39.91491,717,260
116.45526,39.89722,718,260
116.42274,39.89234,719,260
116.39912,39.89253,720,260
116.39869,39.89256,721,260
116.3987,39.89259,722,260
116.39869,39.89259,723,260
116.39868,39.89278,724,260
116.39868,39.8927,725,260
116.39853,39.89244,726,260
116.39873,39.89258,727,260
116.39875,39.89259,728,260
116.39876,39.8926,729,260
116.39876,39.8926,730,260
116.39876,39.8926,731,260
116.39931,39.89274,732,260
116.3992,39.89273,733,260
116.3988,39.89259,734,260
116.39881,39.89259,735,260
116.3988,39.89259,736,260
116.39879,39.89259,737,260
116.3988,39.89259,738,260
116.39879,39.8926,739,260
116.39878,39.89261,740,260
116.39878,39.89262,741,260
116.39878,39.89262,742,260
116.39878,39.89262,743,260
116.39877,39.89262,744,260
116.39874,39.8927,745,260
116.39874,39.8927,746,260
116.39873,39.8927,747,260
116.39827,39.89131,748,260
116.39875,39.89276,749,260
116.39876,39.89274,750,260
116.39876,39.89272,751,260
116.39876,39.89271,752,260
116.39876,39.8927,753,260
116.39877,39.89269,754,260
116.39877,39.89269,755,260
116.39877,39.89268,756,260
116.39877,39.89268,757,260
116.39877,39.89268,758,260
116.39878,39.89267,759,260
116.39878,39.89267,760,260
116.3988,39.89274,761,260
116.39881,39.89272,762,260
116.39881,39.89271,763,260
116.39881,39.8927,764,260
116.3988,39.8927,765,260
116.3988,39.8927,766,260
116.39879,39.89269,767,260
116.39878,39.89269,768,260
116.39878,39.89269,769,260
116.39877,39.89268,770,260
116.39877,39.89267,771,260
116.39877,39.89267,772,260
116.39877,39.89267,773,260
116.39876,39.89268,774,260
116.39876,39.89267,775,260
116.39876,39.89267,776,260
116.39876,39.89267,777,260
116.39876,39.89267,778,260
116.39876,39.89266,779,260
116.39876,39.89266,780,260
116.39876,39.89266,781,260
116.39876,39.89266,782,260
116.39876,39.89266,783,260
116.39875,39.89267,784,260
116.39875,39.89266,785,260
116.39875,39.89266,786,260
116.39875,39.89266,787,260
116.39875,39.89266,788,260
116.39875,39.89266,789,260
116.39875,39.89266,790,260
116.39875,39.89266,791,260
116.39874,39.89269,792,260
116.39871,39.89266,793,260
116.39872,39.89266,794,260
116.39872,39.89265,795,260
116.39873,39.89264,796,260
116.3986,39.89264,797,260
116.39862,39.89266,798,260
116.39866,39.89267,799,260
116.39867,39.89266,800,260
116.39521,39.89071,801,260
116.39239,39.88504,802,260
116.37865,39.88282,803,260
116.36117,39.88475,804,260
116.36115,39.88474,805,260
116.41934,39.89221,806,260
116.36118,39.88479,807,260
116.39756,39.89261,808,260
116.39756,39.89261,809,260
116.39868,39.89271,810,260
116.39868,39.89271,811,260
116.3987,39.89271,812,260
116.3987,39.8927,813,260
116.39871,39.8927,814,260
116.39872,39.8927,815,260
116.39873,39.89269,816,260
116.3988,39.89258,817,260
116.39882,39.89252,818,260
116.39881,39.89255,819,260
116.39882,39.89255,820,260
116.39881,39.89256,821,260
116.39882,39.89256,822,260
116.39881,39.89258,823,260
116.3988,39.89258,824,260
116.3988,39.89259,825,260
116.39879,39.89259,826,260
116.39878,39.89259,827,260
116.39878,39.89259,828,260
116.39878,39.89259,829,260
116.39877,39.89258,830,260
116.39877,39.89258,831,260
116.39877,39.89258,832,260
116.39877,39.89258,833,260
116.39876,39.89258,834,260
116.39876,39.89257,835,260
116.39876,39.89257,836,260
116.39876,39.89257,837,260
116.39876,39.89257,838,260
116.39876,39.89257,839,260
116.39875,39.89257,840,260
116.39875,39.89258,841,260
116.39875,39.89259,842,260
116.39875,39.89259,843,260
116.39875,39.89259,844,260
116.39875,39.89259,845,260
116.39875,39.89259,846,260
116.39875,39.89259,847,260
116.39875,39.89259,848,260
116.39875,39.89259,849,260
116.39875,39.89259,850,260
116.39875,39.89259,851,260
116.39875,39.89259,852,260
116.39875,39.89259,853,260
116.39875,39.89258,854,260
116.39875,39.89258,855,260
116.39875,39.89258,856,260
116.39875,39.89258,857,260
116.39875,39.89258,858,260
116.39875,39.89258,859,260
116.39875,39.89259,860,260
116.39875,39.89259,861,260
116.39875,39.89259,862,260
116.39875,39.89259,863,260
116.39875,39.8926,864,260
116.39876,39.8926,865,260
116.39876,39.8926,866,260
116.39876,39.8926,867,260
116.39876,39.8926,868,260
116.39876,39.8926,869,260
116.39876,39.8926,870,260
116.39876,39.8926,871,260
116.39876,39.8926,872,260
116.39876,39.8926,873,260
116.39876,39.8926,874,260
116.39876,39.89259,875,260
116.39876,39.8926,876,260
116.39876,39.89259,877,260
116.39876,39.89259,878,260
116.39876,39.89259,879,260
116.39875,39.89259,880,260
116.39875,39.89259,881,260
116.39875,39.8926,882,260
116.39875,39.8926,883,260
116.39875,39.8926,884,260
116.39875,39.8926,885,260
116.39875,39.8926,886,260
116.39875,39.89261,887,260
116.39875,39.89261,888,260
116.39875,39.89261,889,260
116.39876,39.89262,890,260
116.39876,39.89262,891,260
116.39876,39.89262,892,260
116.39876,39.89262,893,260
116.39876,39.89262,894,260
116.39876,39.89262,895,260
116.39876,39.89262,896,260
116.39876,39.89262,897,260
116.39876,39.89262,898,260
116.39876,39.89262,899,260
116.39876,39.89262,900,260
116.39876,39.89262,901,260
116.39876,39.89262,902,260
116.39876,39.89262,903,260
116.39876,39.89262,904,260
116.39876,39.89262,905,260
116.39876,39.89262,906,260
116.39876,39.89262,907,260
116.39876,39.89262,908,260
116.39876,39.89262,909,260
116.39876,39.89262,910,260
116.39965,39.89229,911,260
116.40139,39.89038,912,260
116.42011,39.89194,913,260
116.42142,39.892,914,260
116.42978,39.90668,915,260
116.42904,39.93931,916,260
116.43292,39.93954,917,260
116.42776,39.9298,918,260
116.4148,39.92302,919,260
116.40471,39.91815,920,260
116.41066,39.91424,921,260
116.42937,39.90889,922,260
116.45491,39.90299,923,260
116.46666,39.90679,924,260
116.48362,39.89343,925,260
116.49396,39.86393,926,260
116.49625,39.85975,927,260
116.49059,39.87613,928,260
116.49168,39.8773,929,260
116.48397,39.8904,930,260
116.4671,39.89212,931,260
116.42545,39.89249,932,260
116.40885,39.89171,933,260
116.39912,39.89131,934,260
116.37638,39.88808,935,260
116.36086,39.87696,936,260
116.35413,39.86528,937,260
116.35413,39.86529,938,260
116.35804,39.86857,939,260
116.35788,39.87004,940,260
116.35788,39.87004,941,260
116.35798,39.86799,942,260
116.35885,39.84493,943,260
116.36196,39.83647,944,260
116.36354,39.83669,945,260
116.35897,39.8441,946,260
116.37737,39.85618,947,260
116.37745,39.85796,948,260
116.38757,39.88851,949,260
116.39872,39.89255,950,260
116.39872,39.89252,951,260
116.39946,39.89231,952,260
116.39436,39.89662,953,260
116.39951,39.89161,954,260
116.39958,39.89236,955,260
116.39867,39.89266,956,260
116.3987,39.89266,957,260
116.3987,39.89265,958,260
116.39831,39.89249,959,260
116.39877,39.89269,960,260
116.39878,39.89261,961,260
116.39878,39.89262,962,260
116.39878,39.89262,963,260
116.39877,39.89263,964,260
116.39882,39.8926,965,260
116.39881,39.89263,966,260
116.39881,39.89268,967,260
116.39894,39.89274,968,260
116.39893,39.89275,969,260
116.39891,39.89275,970,260
116.39889,39.89273,971,260
116.39887,39.89271,972,260
116.39886,39.8927,973,260
116.39884,39.89269,974,260
116.39884,39.89269,975,260
116.39884,39.89268,976,260
116.39883,39.89268,977,260
116.39882,39.89268,978,260
116.39882,39.89268,979,260
116.39881,39.89268,980,260
116.3988,39.89267,981,260
116.3988,39.89267,982,260
116.3988,39.89267,983,260
116.39879,39.89266,984,260
116.39879,39.89266,985,260
116.39878,39.89266,986,260
116.39878,39.89266,987,260
116.39878,39.89266,988,260
116.39877,39.89266,989,260
116.39877,39.89266,990,260
116.39877,39.89266,991,260
116.39876,39.89266,992,260
116.39876,39.89266,993,260
116.39876,39.89266,994,260
116.39876,39.89266,995,260
116.39875,39.89266,996,260
116.39875,39.89266,997,260
116.39875,39.89266,998,260
116.39875,39.89266,999,260
116.39875,39.89266,1000,260
116.39875,39.89266,1001,260
116.39875,39.89266,1002,260
116.39875,39.89266,1003,260
116.39875,39.89266,1004,260
116.39875,39.89266,1005,260
116.39874,39.89266,1006,260
116.39875,39.89265,1007,260
116.39875,39.89265,1008,260
116.39875,39.89265,1009,260
116.39875,39.89265,1010,260
116.39875,39.89265,1011,260
116.39875,39.89265,1012,260
116.39875,39.89264,1013,260
116.39876,39.89264,1014,260
116.39876,39.89264,1015,260
116.39876,39.89264,1016,260
116.39876,39.89264,1017,260
116.39876,39.89264,1018,260
116.39876,39.89263,1019,260
116.39876,39.89263,1020,260
116.39876,39.89263,1021,260
116.39876,39.89263,1022,260
116.39876,39.89263,1023,260
116.39876,39.89264,1024,260
116.39876,39.89264,1025,260
116.39876,39.89264,1026,260
116.39875,39.89264,1027,260
116.39875,39.89264,1028,260
116.39875,39.89265,1029,260
116.39875,39.89265,1030,260
116.39875,39.89265,1031,260
116.39874,39.89265,1032,260
116.39875,39.89266,1033,260
116.39864,39.89271,1034,260
116.3987,39.89281,1035,260
116.39875,39.89277,1036,260
116.39877,39.89277,1037,260
116.39877,39.89273,1038,260
116.39877,39.89271,1039,260
116.39878,39.89269,1040,260
116.39877,39.89269,1041,260
116.39877,39.89268,1042,260
116.39877,39.89268,1043,260
116.39876,39.89267,1044,260
116.39876,39.89267,1045,260
116.39875,39.89266,1046,260
116.39875,39.89266,1047,260
116.39875,39.89265,1048,260
116.39875,39.89265,1049,260
116.39875,39.89265,1050,260
116.39875,39.89264,1051,260
116.39875,39.89264,1052,260
116.39875,39.89264,1053,260
116.39876,39.89263,1054,260
116.39876,39.89263,1055,260
116.39875,39.89263,1056,260
116.39875,39.89263,1057,260
116.39875,39.89263,1058,260
116.39875,39.89263,1059,260
116.39875,39.89264,1060,260
116.39874,39.89264,1061,260
116.39874,39.89264,1062,260
116.39618,39.8908,1063,260
116.39186,39.8727,1064,260
116.3881,39.85833,1065,260
116.38189,39.85961,1066,260
116.3785,39.86223,1067,260
116.38266,39.86235,1068,260
116.381,39.85955,1069,260
116.38239,39.85981,1070,260
116.38101,39.88198,1071,260
116.37959,39.89848,1072,260
116.37896,39.88824,1073,260
116.38355,39.88789,1074,260
116.37857,39.8822,1075,260
116.37857,39.8822,1076,260
116.37779,39.90123,1077,260
116.37617,39.90795,1078,260
116.37309,39.90619,1079,260
116.36788,39.90428,1080,260
116.36818,39.88828,1081,260
116.35751,39.88202,1082,260
116.35769,39.88004,1083,260
116.36144,39.87685,1084,260
116.36155,39.87602,1085,260
116.35988,39.87445,1086,260
116.35282,39.88811,1087,260
116.32136,39.89596,1088,260
116.31674,39.89694,1089,260
116.32944,39.90195,1090,260
116.3405,39.89635,1091,260
116.34694,39.89363,1092,260
116.36303,39.88787,1093,260
116.38376,39.88516,1094,260
116.38722,39.88422,1095,260
116.38123,39.88101,1096,260
116.3786,39.86216,1097,260
116.38159,39.86706,1098,260
116.36748,39.87588,1099,260
116.36414,39.87454,1100,260
116.34414,39.86689,1101,260
116.33922,39.82337,1102,260
116.36133,39.88492,1103,260
116.33666,39.77472,1104,260
116.36096,39.77052,1105,260
116.3647,39.76177,1106,260
116.39532,39.76459,1107,260
116.40867,39.74595,1108,260
116.40867,39.74595,1109,260
116.4302,39.73133,1110,260
116.4302,39.73133,1111,260
116.43034,39.73135,1112,260
116.40602,39.73288,1113,260
116.38125,39.74978,1114,260
116.37574,39.74609,1115,260
116.34716,39.73549,1116,260
116.34006,39.78282,1117,260
116.36144,39.79649,1118,260
116.36338,39.82902,1119,260
116.38066,39.83357,1120,260
116.38076,39.85917,1121,260
116.38108,39.88203,1122,260
116.37821,39.8972,1123,260
116.38679,39.90151,1124,260
116.40043,39.8955,1125,260
116.39876,39.89275,1126,260
116.39875,39.89273,1127,260
116.39875,39.89273,1128,260
116.39875,39.89271,1129,260
116.39875,39.89271,1130,260
116.39875,39.89271,1131,260
116.39875,39.8927,1132,260
116.39875,39.8927,1133,260
116.39876,39.89269,1134,260
116.39887,39.89255,1135,260
116.39887,39.89253,1136,260
116.39888,39.89248,1137,260
116.39885,39.89251,1138,260
116.39886,39.8925,1139,260
116.39886,39.89251,1140,260
116.39859,39.89303,1141,260
116.39872,39.89279,1142,260
116.39872,39.89279,1143,260
116.39875,39.89276,1144,260
116.39875,39.89276,1145,260
116.39875,39.89276,1146,260
116.39875,39.89274,1147,260
116.39875,39.89273,1148,260
116.39875,39.89272,1149,260
116.39875,39.89271,1150,260
116.39876,39.89271,1151,260
116.39877,39.8927,1152,260
116.39878,39.8927,1153,260
116.39874,39.8926,1154,260
116.39873,39.89257,1155,260
116.39874,39.89257,1156,260
116.39875,39.89258,1157,260
116.39875,39.89259,1158,260
116.39876,39.89259,1159,260
116.39876,39.8926,1160,260
116.39877,39.89261,1161,260
116.39878,39.89261,1162,260
116.39878,39.89261,1163,260
116.39877,39.89259,1164,260
116.39877,39.89259,1165,260
116.39876,39.8926,1166,260
116.39876,39.8926,1167,260
116.39876,39.8926,1168,260
116.39876,39.8926,1169,260
116.39876,39.89261,1170,260
116.39877,39.89261,1171,260
116.39877,39.89261,1172,260
116.39877,39.89261,1173,260
116.39877,39.89262,1174,260
116.39877,39.89262,1175,260
116.39877,39.89263,1176,260
116.39877,39.89263,1177,260
116.39877,39.89262,1178,260
116.39877,39.89262,1179,260
116.39877,39.89261,1180,260
116.39877,39.89261,1181,260
116.39442,39.89677,1182,260
116.39356,39.89834,1183,260
116.36955,39.90623,1184,260
116.34025,39.90634,1185,260
116.34039,39.90604,1186,260
116.34756,39.90102,1187,260
116.35731,39.88853,1188,260
116.35731,39.88853,1189,260
116.36175,39.88191,1190,260
116.37805,39.88805,1191,260
116.39484,39.89423,1192,260
116.40057,39.89834,1193,260
116.39977,39.89222,1194,260
116.41306,39.88623,1195,260
116.41891,39.87958,1196,260
116.41965,39.87484,1197,260
116.41387,39.88469,1198,260
116.39568,39.89083,1199,260
116.39362,39.8985,1200,260
116.38497,39.91748,1201,260
116.39016,39.93163,1202,260
116.39128,39.93931,1203,260
116.39017,39.93911,1204,260
116.39314,39.94744,1205,260
116.40357,39.96733,1206,260
116.4135,39.97238,1207,260
116.41194,39.96072,1208,260
116.41893,39.95547,1209,260
116.41893,39.95547,1210,260
116.41925,39.94914,1211,260
116.41965,39.93405,1212,260
116.41179,39.92291,1213,260
116.40249,39.91547,1214,260
116.40248,39.91553,1215,260
116.4006,39.90994,1216,260
116.39927,39.89229,1217,260
116.39872,39.89253,1218,260
116.39873,39.89254,1219,260
116.39874,39.89254,1220,260
116.39874,39.89256,1221,260
116.39874,39.89256,1222,260
116.39875,39.89257,1223,260
116.39875,39.89257,1224,260
116.39876,39.89259,1225,260
116.39877,39.89259,1226,260
116.39856,39.89269,1227,260
116.39871,39.89264,1228,260
116.39875,39.89265,1229,260
116.39879,39.89265,1230,260
116.39883,39.89262,1231,260
116.39875,39.89246,1232,260
116.3987,39.89258,1233,260
116.39872,39.89259,1234,260
116.39865,39.89266,1235,260
116.39871,39.89265,1236,260
116.39873,39.89264,1237,260
116.39873,39.89263,1238,260
116.39874,39.89263,1239,260
116.39876,39.89262,1240,260
116.39877,39.89262,1241,260
116.39879,39.89261,1242,260
116.3988,39.89259,1243,260
116.39879,39.89258,1244,260
116.39879,39.89258,1245,260
116.39879,39.89258,1246,260
116.39879,39.89258,1247,260
116.39879,39.89258,1248,260
116.39879,39.89258,1249,260
116.3988,39.89259,1250,260
116.3988,39.89259,1251,260
116.39879,39.89259,1252,260
116.39879,39.89259,1253,260
116.39879,39.89259,1254,260
116.39879,39.89259,1255,260
116.39879,39.89259,1256,260
116.39879,39.8926,1257,260
116.39879,39.8926,1258,260
116.39879,39.89261,1259,260
116.39879,39.89261,1260,260
116.39879,39.89261,1261,260
116.39879,39.89262,1262,260
116.3988,39.89262,1263,260
116.3988,39.89262,1264,260
116.39879,39.89262,1265,260
116.39879,39.89262,1266,260
116.39879,39.89262,1267,260
116.3988,39.89263,1268,260
116.3988,39.89263,1269,260
116.39879,39.89263,1270,260
116.39879,39.89263,1271,260
116.3988,39.89263,1272,260
116.3988,39.89263,1273,260
116.3988,39.89263,1274,260
116.39879,39.89263,1275,260
116.39879,39.89263,1276,260
116.39879,39.89263,1277,260
116.39879,39.89263,1278,260
116.39879,39.89263,1279,260
116.39879,39.89263,1280,260
116.39879,39.89263,1281,260
116.39879,39.89263,1282,260
116.39879,39.89263,1283,260
116.39879,39.89263,1284,260
116.39879,39.89263,1285,260
116.39878,39.89263,1286,260
116.39878,39.89264,1287,260
116.39878,39.89264,1288,260
116.39878,39.89264,1289,260
116.39878,39.89264,1290,260
116.39878,39.89264,1291,260
116.39877,39.89271,1292,260
116.39879,39.89266,1293,260
116.39878,39.89262,1294,260
116.39879,39.89261,1295,260
116.3988,39.89262,1296,260
116.39883,39.89265,1297,260
116.39884,39.89266,1298,260
116.39884,39.89266,1299,260
116.39883,39.89266,1300,260
116.39883,39.89266,1301,260
116.39884,39.89265,1302,260
116.39883,39.89265,1303,260
116.39883,39.89265,1304,260
116.39814,39.89251,1305,260
116.39821,39.89259,1306,260
116.39892,39.89281,1307,260
116.39885,39.89272,1308,260
116.39883,39.89269,1309,260
116.3988,39.89268,1310,260
116.39878,39.89267,1311,260
116.39878,39.89266,1312,260
116.39844,39.89282,1313,260
116.3988,39.89248,1314,260
116.39879,39.8926,1315,260
116.39877,39.89259,1316,260
116.39877,39.89257,1317,260
116.39876,39.89252,1318,260
116.39876,39.89257,1319,260
116.39876,39.89259,1320,260
116.39875,39.8926,1321,260
116.39876,39.89261,1322,260
116.39877,39.89264,1323,260
116.39878,39.89266,1324,260
116.39879,39.89268,1325,260
116.39879,39.89269,1326,260
116.39879,39.89269,1327,260
116.39879,39.8927,1328,260
116.39879,39.8927,1329,260
116.39879,39.8927,1330,260
116.39878,39.89269,1331,260
116.39878,39.89269,1332,260
116.39878,39.89268,1333,260
116.39878,39.89268,1334,260
116.39866,39.89246,1335,260
116.39866,39.89246,1336,260
116.39866,39.89252,1337,260
116.39867,39.89254,1338,260
116.39868,39.89255,1339,260
116.3987,39.89256,1340,260
116.39871,39.89257,1341,260
116.39872,39.89258,1342,260
116.39872,39.89259,1343,260
116.39873,39.89259,1344,260
116.39873,39.8926,1345,260
116.39873,39.8926,1346,260
116.39873,39.8926,1347,260
116.39873,39.8926,1348,260
116.39873,39.8926,1349,260
116.39873,39.8926,1350,260
116.39873,39.8926,1351,260
116.39872,39.8926,1352,260
116.39872,39.8926,1353,260
116.39917,39.89244,1354,260
116.39878,39.89254,1355,260
116.39878,39.89256,1356,260
116.39242,39.88348,1357,260
116.3908,39.85749,1358,260
116.42967,39.86926,1359,260
116.43405,39.8979,1360,260
116.42783,39.93774,1361,260
116.40958,39.93958,1362,260
116.41978,39.92768,1363,260
116.41996,39.92723,1364,260
116.41163,39.93973,1365,260
116.41091,39.93963,1366,260
116.42819,39.93947,1367,260
116.43288,39.93959,1368,260
116.42763,39.93996,1369,260
116.40175,39.95736,1370,260
116.40144,39.98506,1371,260
116.39603,39.99599,1372,260
116.39603,39.99599,1373,260
116.39422,40.00355,1374,260
116.39422,40.00355,1375,260
116.40136,40.00413,1376,260
116.40167,39.99418,1377,260
116.41575,39.99753,1378,260
116.42312,40.00262,1379,260
116.41759,39.98912,1380,260
116.41759,39.98808,1381,260
116.41822,39.96822,1382,260
116.41948,39.95289,1383,260
116.41365,39.94773,1384,260
116.41884,39.9454,1385,260
116.41915,39.93828,1386,260
116.42028,39.93509,1387,260
116.41985,39.92408,1388,260
116.41999,39.92325,1389,260
116.42065,39.90938,1390,260
116.4055,39.90729,1391,260
116.40504,39.89955,1392,260
116.40504,39.89955,1393,260
116.39884,39.89254,1394,260
116.39885,39.89255,1395,260
116.39885,39.89257,1396,260
116.39884,39.89256,1397,260
116.39884,39.89255,1398,260
116.39884,39.89255,1399,260
116.39881,39.89253,1400,260
116.3951,39.89046,1401,260
116.38803,39.88483,1402,260
116.37295,39.87732,1403,260
116.34887,39.86678,1404,260
116.35298,39.86689,1405,260
116.35778,39.87309,1406,260
116.34717,39.88718,1407,260
116.34555,39.88795,1408,260
116.34731,39.88142,1409,260
116.34664,39.89981,1410,260
116.32939,39.90558,1411,260
116.32849,39.92125,1412,260
116.32405,39.93121,1413,260
116.32834,39.92308,1414,260
116.32845,39.92205,1415,260
116.33169,39.90572,1416,260
116.34876,39.90169,1417,260
116.37132,39.86911,1418,260
116.42816,39.86946,1419,260
116.43563,39.86182,1420,260
116.43522,39.86256,1421,260
116.43282,39.86566,1422,260
116.43282,39.86566,1423,260
116.43282,39.86566,1424,260
116.43219,39.86124,1425,260
116.43219,39.86124,1426,260
116.4477,39.84989,1427,260
116.44917,39.84033,1428,260
116.44801,39.84696,1429,260
116.43626,39.83121,1430,260
116.43626,39.83121,1431,260
116.44973,39.81014,1432,260
116.43617,39.8058,1433,260
116.44965,39.81003,1434,260
116.44129,39.83036,1435,260
116.43936,39.85207,1436,260
116.43929,39.85688,1437,260
116.43929,39.85688,1438,260
116.43765,39.85761,1439,260
116.38067,39.85565,1440,260
116.36156,39.84875,1441,260
116.35995,39.84856,1442,260
116.36539,39.85347,1443,260
116.36988,39.86908,1444,260
116.32251,39.86683,1445,260
116.27571,39.86825,1446,260
116.26859,39.88811,1447,260
116.10163,39.92387,1448,260
116.10163,39.92387,1449,260
116.26211,39.91639,1450,260
116.36282,39.89828,1451,260
116.37476,39.89855,1452,260
116.38959,39.89881,1453,260
116.39873,39.89249,1454,260
116.39873,39.89244,1455,260
116.39875,39.89247,1456,260
116.39877,39.89249,1457,260
116.39878,39.8925,1458,260
116.39878,39.89251,1459,260
116.39879,39.89252,1460,260
116.39877,39.89251,1461,260
116.39876,39.8925,1462,260
116.39866,39.89239,1463,260
116.39872,39.8925,1464,260
116.39874,39.89254,1465,260
116.39875,39.89255,1466,260
116.39876,39.89256,1467,260
116.39877,39.89255,1468,260
116.39877,39.89256,1469,260
116.39877,39.89257,1470,260
116.39877,39.89257,1471,260
116.39876,39.89258,1472,260
116.39871,39.89245,1473,260
116.39871,39.89245,1474,260
116.39874,39.89267,1475,260
116.39875,39.89254,1476,260
116.39876,39.89253,1477,260
116.39877,39.89255,1478,260
116.39878,39.89257,1479,260
116.39873,39.89282,1480,260
116.39876,39.89278,1481,260
116.3988,39.89272,1482,260
116.39872,39.89281,1483,260
116.39877,39.89276,1484,260
116.39879,39.89272,1485,260
116.3988,39.8927,1486,260
116.39881,39.89268,1487,260
116.39882,39.89267,1488,260
116.39887,39.89254,1489,260
116.39887,39.89255,1490,260
116.39889,39.89257,1491,260
116.39888,39.89256,1492,260
116.39886,39.89256,1493,260
116.39886,39.89257,1494,260
116.39886,39.89258,1495,260
116.39886,39.89259,1496,260
116.39885,39.89259,1497,260
116.39886,39.89259,1498,260
116.39921,39.89253,1499,260
116.39919,39.89254,1500,260
116.39915,39.89255,1501,260
116.39912,39.89256,1502,260
116.39909,39.89256,1503,260
116.39909,39.89256,1504,260
116.39905,39.89256,1505,260
116.39903,39.89257,1506,260
116.399,39.89257,1507,260
116.39898,39.89257,1508,260
116.39896,39.89257,1509,260
116.39895,39.89257,1510,260
116.39894,39.89256,1511,260
116.39893,39.89256,1512,260
116.39893,39.89255,1513,260
116.39871,39.89261,1514,260
116.3987,39.8926,1515,260
116.39872,39.89255,1516,260
116.39874,39.89253,1517,260
116.39875,39.89252,1518,260
116.39876,39.89247,1519,260
116.39877,39.89246,1520,260
116.39877,39.89247,1521,260
116.39878,39.89248,1522,260
116.39878,39.89249,1523,260
116.39879,39.89252,1524,260
116.39863,39.89286,1525,260
116.39896,39.89278,1526,260
116.39893,39.89267,1527,260
116.39892,39.89266,1528,260
116.39891,39.89265,1529,260
116.3989,39.89267,1530,260
116.39888,39.89268,1531,260
116.39886,39.89268,1532,260
116.39886,39.89269,1533,260
116.39886,39.89269,1534,260
116.39885,39.89269,1535,260
116.39885,39.89269,1536,260
116.39885,39.89268,1537,260
116.39885,39.89268,1538,260
116.39886,39.89268,1539,260
116.39886,39.89268,1540,260
116.39885,39.89268,1541,260
116.39885,39.89268,1542,260
116.39885,39.89268,1543,260
116.39885,39.89268,1544,260
116.39892,39.89266,1545,260
116.39893,39.8926,1546,260
116.39894,39.89256,1547,260
116.39537,39.89092,1548,260
116.38859,39.88494,1549,260
116.38442,39.88708,1550,260
116.36768,39.89753,1551,260
116.3679,39.90899,1552,260
116.36754,39.90904,1553,260
116.35395,39.91704,1554,260
116.3502,39.92692,1555,260
116.3502,39.92692,1556,260
116.36646,39.93116,1557,260
116.37182,39.91346,1558,260
116.37182,39.91346,1559,260
116.3929,39.90618,1560,260
116.42059,39.90682,1561,260
116.43044,39.91266,1562,260
116.43044,39.91267,1563,260
116.44422,39.90803,1564,260
116.48281,39.90481,1565,260
116.49644,39.89539,1566,260
116.49828,39.89504,1567,260
116.48446,39.89943,1568,260
116.46444,39.89589,1569,260
116.44946,39.89321,1570,260
116.44844,39.89312,1571,260
116.40297,39.89161,1572,260
116.36903,39.8882,1573,260
116.35193,39.88811,1574,260
116.32923,39.88329,1575,260
116.32821,39.88315,1576,260
116.32821,39.88315,1577,260
116.35444,39.88784,1578,260
116.35732,39.88641,1579,260
116.35777,39.87671,1580,260
116.35798,39.86911,1581,260
116.35798,39.86911,1582,260
116.35798,39.86911,1583,260
116.35798,39.86911,1584,260
116.35798,39.86911,1585,260
116.35798,39.86911,1586,260
116.35798,39.86911,1587,260
116.43253,39.86388,1588,260
116.43253,39.86388,1589,260
116.42886,39.86455,1590,260
116.39309,39.85575,1591,260
116.33886,39.84884,1592,260
116.30786,39.82929,1593,260
116.29623,39.83337,1594,260
116.28748,39.83816,1595,260
116.28572,39.84025,1596,260
116.2709,39.87754,1597,260
116.29992,39.89569,1598,260
116.32286,39.90111,1599,260
116.3314,39.90661,1600,260
116.35029,39.90139,1601,260
116.35679,39.88902,1602,260
116.35729,39.87339,1603,260
116.36483,39.84896,1604,260
116.36547,39.8489,1605,260
116.36547,39.8489,1606,260
116.36547,39.8489,1607,260
116.36547,39.8489,1608,260
116.40541,39.88959,1609,260
116.41117,39.89037,1610,260
116.40393,39.89138,1611,260
116.37924,39.89251,1612,260
116.37909,39.89412,1613,260
116.39485,39.89879,1614,260
116.39908,39.89261,1615,260
116.39922,39.89265,1616,260
116.39871,39.89244,1617,260
116.39875,39.89256,1618,260
116.39878,39.89258,1619,260
116.39878,39.89259,1620,260
116.39878,39.89259,1621,260
116.39878,39.89259,1622,260
116.39878,39.89259,1623,260
116.39878,39.8926,1624,260
116.39877,39.8926,1625,260
116.39877,39.8926,1626,260
116.39878,39.8926,1627,260
116.39885,39.89264,1628,260
116.39885,39.89263,1629,260
116.39886,39.89237,1630,260
116.39886,39.89237,1631,260
116.39886,39.89239,1632,260
116.39885,39.89239,1633,260
116.39881,39.89265,1634,260
116.39881,39.89266,1635,260
116.39881,39.89264,1636,260
116.39881,39.89264,1637,260
116.39881,39.89262,1638,260
116.39883,39.89262,1639,260
116.39883,39.89262,1640,260
116.39883,39.89262,1641,260
116.39883,39.89261,1642,260
116.39883,39.89262,1643,260
116.39883,39.89262,1644,260
116.39883,39.89262,1645,260
116.39883,39.89262,1646,260
116.39883,39.89262,1647,260
116.39883,39.89262,1648,260
116.39883,39.89262,1649,260
116.39882,39.89262,1650,260
116.39883,39.89265,1651,260
116.39875,39.89262,1652,260
116.39875,39.89263,1653,260
116.39873,39.89262,1654,260
116.39874,39.8926,1655,260
116.39873,39.8926,1656,260
116.39873,39.89261,1657,260
116.39873,39.89262,1658,260
116.39873,39.89261,1659,260
116.39873,39.89261,1660,260
116.39873,39.89261,1661,260
116.39873,39.89261,1662,260
116.39873,39.89261,1663,260
116.39874,39.8926,1664,260
116.39874,39.8926,1665,260
116.39874,39.8926,1666,260
116.39874,39.89259,1667,260
116.39874,39.89259,1668,260
116.39874,39.89259,1669,260
116.39874,39.89258,1670,260
116.39875,39.89258,1671,260
116.39874,39.89258,1672,260
116.39875,39.89257,1673,260
116.39875,39.89258,1674,260
116.39876,39.89258,1675,260
116.39876,39.89258,1676,260
116.39877,39.89257,1677,260
116.39877,39.89258,1678,260
116.39669,39.89081,1679,260
116.39178,39.87453,1680,260
116.38083,39.85975,1681,260
116.38609,39.86201,1682,260
116.40853,39.87083,1683,260
116.45019,39.88302,1684,260
116.45581,39.9217,1685,260
116.46092,39.93009,1686,260
116.46668,39.92924,1687,260
116.46092,39.92436,1688,260
116.46697,39.92714,1689,260
116.45739,39.9274,1690,260
116.47677,39.93224,1691,260
116.48618,39.95897,1692,260
116.49318,39.96303,1693,260
116.49279,39.96277,1694,260
116.4654,39.95117,1695,260
116.45433,39.9476,1696,260
116.45525,39.92611,1697,260
116.45532,39.91246,1698,260
116.44198,39.90277,1699,260
116.43638,39.89259,1700,260
116.40632,39.89159,1701,260
116.38712,39.8846,1702,260
116.37449,39.88192,1703,260
116.37481,39.88144,1704,260
116.3683,39.87711,1705,260
116.39111,39.87013,1706,260
116.4428,39.87015,1707,260
116.4623,39.87494,1708,260
116.46237,39.87517,1709,260
116.4405,39.87728,1710,260
116.4399,39.88143,1711,260
116.4295,39.90983,1712,260
116.39861,39.89275,1713,260
116.41703,39.93228,1714,260
116.39032,39.93206,1715,260
116.36192,39.93111,1716,260
116.36096,39.9273,1717,260
116.36024,39.91148,1718,260
116.3681,39.89759,1719,260
116.36734,39.8761,1720,260
116.36784,39.87514,1721,260
116.36221,39.88191,1722,260
116.36505,39.88592,1723,260
116.36467,39.87705,1724,260
116.36585,39.87697,1725,260
116.37536,39.88788,1726,260
116.40601,39.89137,1727,260
116.4263,39.89242,1728,260
116.45809,39.90318,1729,260
116.48394,39.92891,1730,260
116.45936,39.97279,1731,260
116.45991,39.98541,1732,260
116.45878,39.98562,1733,260
116.46172,39.97846,1734,260
116.48225,39.95524,1735,260
116.48257,39.90796,1736,260
116.43688,39.89516,1737,260
116.42403,39.89242,1738,260
116.42403,39.89242,1739,260
116.39597,39.89079,1740,260
116.37993,39.88824,1741,260
116.37838,39.8881,1742,260
116.35691,39.88794,1743,260
116.34313,39.89589,1744,260
116.35054,39.90409,1745,260
116.35015,39.92034,1746,260
116.34941,39.94006,1747,260
116.34418,39.96641,1748,260
116.31381,39.96927,1749,260
116.30413,39.97453,1750,260
116.30409,39.97453,1751,260
116.30122,39.96431,1752,260
116.301,39.96426,1753,260
116.30198,39.96093,1754,260
116.35189,39.96622,1755,260
116.37757,39.98081,1756,260
116.37877,39.98096,1757,260
116.38571,39.97174,1758,260
116.38493,39.9712,1759,260
116.3512,39.96656,1760,260
116.3497,39.94912,1761,260
116.3497,39.94912,1762,260
116.34999,39.94558,1763,260
116.34938,39.93757,1764,260
116.35006,39.92009,1765,260
116.35026,39.91143,1766,260
116.36268,39.89814,1767,260
116.37491,39.89849,1768,260
116.38914,39.89859,1769,260
116.38914,39.89859,1770,260
116.39877,39.89261,1771,260
116.3988,39.89263,1772,260
116.39883,39.89266,1773,260
116.39882,39.89264,1774,260
116.39882,39.89264,1775,260
116.39882,39.89264,1776,260
116.39882,39.89264,1777,260
116.39882,39.89263,1778,260
116.39882,39.89264,1779,260
116.39883,39.89263,1780,260
116.39883,39.89263,1781,260
116.39884,39.89263,1782,260
116.39884,39.89263,1783,260
116.39884,39.89263,1784,260
116.39884,39.89263,1785,260
116.39883,39.89263,1786,260
116.39883,39.89264,1787,260
116.39883,39.89264,1788,260
116.39883,39.89263,1789,260
116.39882,39.89264,1790,260
116.39882,39.89263,1791,260
116.39882,39.89263,1792,260
116.39882,39.89263,1793,260
116.39882,39.89262,1794,260
116.39882,39.89262,1795,260
116.39882,39.89262,1796,260
116.39883,39.89262,1797,260
116.39883,39.89262,1798,260
116.39882,39.89262,1799,260
116.39882,39.89262,1800,260
116.39882,39.89261,1801,260
116.39882,39.89261,1802,260
116.39882,39.8926,1803,260
116.39882,39.8926,1804,260
116.39882,39.8926,1805,260
116.39882,39.8926,1806,260
116.39882,39.8926,1807,260
116.39882,39.8926,1808,260
116.39882,39.8926,1809,260
116.39882,39.8926,1810,260
116.39882,39.8926,1811,260
116.39882,39.8926,1812,260
116.39881,39.89261,1813,260
