x,y,k,tid
116.36814,39.90357,0,271
116.36778,39.90912,1,271
116.36781,39.90917,2,271
116.37157,39.91358,3,271
116.37151,39.91408,4,271
116.38469,39.92098,5,271
116.38534,39.9216,6,271
116.40625,39.92293,7,271
116.4079,39.92301,8,271
116.41912,39.92295,9,271
116.41912,39.92295,10,271
116.41964,39.93465,11,271
116.41965,39.93465,12,271
116.4191,39.95022,13,271
116.41913,39.95062,14,271
116.41858,39.96648,15,271
116.41858,39.96648,16,271
116.41812,39.97801,17,271
116.41809,39.97802,18,271
116.4318,39.98214,19,271
116.43148,39.98221,20,271
116.43148,39.98221,21,271
116.41822,39.98225,22,271
116.4188,39.95701,23,271
116.41938,39.948,24,271
116.42692,39.94038,25,271
116.43812,39.93987,26,271
116.44888,39.93237,27,271
116.44659,39.93449,28,271
116.44475,39.93242,29,271
116.43806,39.93235,30,271
116.43447,39.92386,31,271
116.42856,39.92339,32,271
116.42211,39.91423,33,271
116.41268,39.91433,34,271
116.40753,39.9098,35,271
116.41162,39.90899,36,271
116.41214,39.90215,37,271
116.41226,39.90069,38,271
116.41982,39.89916,39,271
116.4303,39.90124,40,271
116.42906,39.91224,41,271
116.42871,39.92209,42,271
116.42287,39.923,43,271
116.42023,39.91721,44,271
116.42078,39.90755,45,271
116.42082,39.9039,46,271
116.42993,39.90171,47,271
116.43369,39.89083,48,271
116.43333,39.87212,49,271
116.43816,39.87098,50,271
116.44958,39.87493,51,271
116.45852,39.87497,52,271
116.4448,39.88037,53,271
116.4447,39.87172,54,271
116.44864,39.87017,55,271
116.45385,39.87008,56,271
116.4617,39.86983,57,271
116.47446,39.86988,58,271
116.48498,39.8711,59,271
116.48402,39.88863,60,271
116.48403,39.89082,61,271
116.48331,39.88726,62,271
116.48415,39.88081,63,271
116.48999,39.87439,64,271
116.48999,39.87439,65,271
116.48422,39.87474,66,271
116.47151,39.87813,67,271
116.46177,39.87485,68,271
116.45537,39.89169,69,271
116.45554,39.90174,70,271
116.45559,39.90633,71,271
116.45585,39.91152,72,271
116.45566,39.91715,73,271
116.45539,39.92925,74,271
116.45562,39.935,75,271
116.45573,39.94692,76,271
116.45104,39.95876,77,271
116.47381,39.97928,78,271
116.48164,39.97837,79,271
116.47895,39.97571,80,271
116.46898,39.96695,81,271
116.45964,39.95849,82,271
116.45382,39.95336,83,271
116.4442,39.94514,84,271
116.44408,39.93313,85,271
116.44408,39.93313,86,271
116.44398,39.92597,87,271
116.43746,39.92036,88,271
116.43551,39.92136,89,271
116.43551,39.92136,90,271
116.43445,39.92468,91,271
116.43043,39.92867,92,271
116.42766,39.93417,93,271
116.42944,39.93935,94,271
116.43359,39.93482,95,271
116.43194,39.93237,96,271
116.43003,39.9323,97,271
116.42902,39.93236,98,271
116.41959,39.92862,99,271
116.41999,39.92336,100,271
116.42021,39.91714,101,271
116.42787,39.91411,102,271
116.42982,39.9027,103,271
116.43199,39.89817,104,271
116.43351,39.89099,105,271
116.43407,39.88459,106,271
116.45403,39.88301,107,271
116.4654,39.88297,108,271
116.4654,39.88297,109,271
116.47347,39.86992,110,271
116.49488,39.86953,111,271
116.50163,39.86135,112,271
116.49955,39.86253,113,271
116.50027,39.86973,114,271
116.48251,39.87236,115,271
116.48094,39.86085,116,271
116.47625,39.84412,117,271
116.451,39.85942,118,271
116.4483,39.86151,119,271
116.437,39.85776,120,271
116.43677,39.85736,121,271
116.43969,39.84811,122,271
116.4401,39.84821,123,271
116.43993,39.84649,124,271
116.43992,39.84662,125,271
116.43294,39.84602,126,271
116.43274,39.85229,127,271
116.43822,39.85267,128,271
116.43267,39.85338,129,271
116.43951,39.84902,130,271
116.44026,39.84443,131,271
116.43283,39.84556,132,271
116.42872,39.84527,133,271
116.42847,39.85412,134,271
116.4326,39.85305,135,271
116.38231,39.8699,136,271
116.36911,39.86899,137,271
116.34295,39.8688,138,271
116.34283,39.87937,139,271
116.3426,39.89018,140,271
116.34261,39.89162,141,271
116.34401,39.89662,142,271
116.34867,39.89708,143,271
116.35058,39.90121,144,271
116.35074,39.90863,145,271
116.35162,39.91637,146,271
116.34856,39.91708,147,271
116.3476,39.91627,148,271
116.34649,39.90754,149,271
116.34644,39.9063,150,271
116.34647,39.90267,151,271
116.34656,39.90019,152,271
116.34656,39.90019,153,271
116.34696,39.89073,154,271
116.35227,39.88489,155,271
116.36171,39.87694,156,271
116.37169,39.87731,157,271
116.38134,39.87577,158,271
116.38083,39.86257,159,271
116.38858,39.85747,160,271
116.39283,39.8555,161,271
116.41657,39.85617,162,271
116.44087,39.85744,163,271
116.44603,39.85698,164,271
116.44522,39.85877,165,271
116.43726,39.85727,166,271
116.45432,39.86631,167,271
116.46151,39.87496,168,271
116.46164,39.87769,169,271
116.45782,39.88071,170,271
116.45444,39.88306,171,271
116.42984,39.89958,172,271
116.41394,39.90008,173,271
116.4185,39.90327,174,271
116.42944,39.90374,175,271
116.42146,39.8993,176,271
116.41307,39.89981,177,271
116.41307,39.89981,178,271
116.41273,39.89975,179,271
116.41219,39.89433,180,271
116.41223,39.89433,181,271
116.41217,39.89429,182,271
116.41261,39.89226,183,271
116.41444,39.88264,184,271
116.41527,39.86552,185,271
116.41141,39.85598,186,271
116.39437,39.85841,187,271
116.39847,39.86386,188,271
116.40707,39.86391,189,271
116.40718,39.87016,190,271
116.415,39.87517,191,271
116.42803,39.88065,192,271
116.43341,39.87423,193,271
116.42557,39.86974,194,271
116.41525,39.86441,195,271
116.4077,39.86396,196,271
116.39644,39.86253,197,271
116.40173,39.85904,198,271
116.40173,39.85904,199,271
116.40088,39.85593,200,271
116.39449,39.86404,201,271
116.4064,39.86389,202,271
116.41348,39.86409,203,271
116.42169,39.86444,204,271
116.41751,39.86444,205,271
116.41506,39.873,206,271
116.4137,39.88535,207,271
116.41286,39.89113,208,271
116.41255,39.89909,209,271
116.41463,39.90677,210,271
116.42331,39.90524,211,271
116.41742,39.90281,212,271
116.4132,39.89996,213,271
116.41213,39.89784,214,271
116.41254,39.89276,215,271
116.41441,39.88315,216,271
116.41532,39.86535,217,271
116.41759,39.85622,218,271
116.43168,39.85735,219,271
116.43281,39.84762,220,271
116.44059,39.83736,221,271
116.44377,39.82597,222,271
116.47159,39.8025,223,271
116.47483,39.79298,224,271
116.47525,39.79318,225,271
116.4727,39.80184,226,271
116.44136,39.83084,227,271
116.44033,39.84488,228,271
116.43418,39.84448,229,271
116.43259,39.85245,230,271
116.43259,39.85099,231,271
116.43259,39.85099,232,271
116.43259,39.85099,233,271
116.43256,39.8509,234,271
116.43262,39.8509,235,271
116.43262,39.8509,236,271
116.43267,39.85068,237,271
116.43286,39.86546,238,271
116.43344,39.87095,239,271
116.42289,39.88995,240,271
116.42148,39.89394,241,271
116.41234,39.8953,242,271
116.41243,39.89219,243,271
116.4153,39.86686,244,271
116.42027,39.86444,245,271
116.43228,39.86136,246,271
116.43228,39.86136,247,271
116.43007,39.85775,248,271
116.46158,39.88323,249,271
116.46819,39.8831,250,271
116.44228,39.85801,251,271
116.43446,39.85732,252,271
116.43453,39.85731,253,271
116.43449,39.85732,254,271
116.43449,39.85732,255,271
116.43449,39.85732,256,271
116.43457,39.85733,257,271
116.4335,39.85272,258,271
116.43265,39.85107,259,271
116.43265,39.85107,260,271
116.43264,39.85098,261,271
116.43264,39.85098,262,271
116.43264,39.85098,263,271
116.43267,39.85052,264,271
116.42209,39.84334,265,271
116.42204,39.83935,266,271
116.40165,39.84078,267,271
116.40075,39.83767,268,271
116.39221,39.80524,269,271
116.39221,39.80524,270,271
116.39221,39.80524,271,271
116.39221,39.80524,272,271
116.39221,39.80524,273,271
116.39221,39.80524,274,271
116.39221,39.80524,275,271
116.39221,39.80524,276,271
116.39221,39.80524,277,271
116.39221,39.80524,278,271
116.39221,39.80524,279,271
116.39221,39.80524,280,271
116.39221,39.80524,281,271
116.39221,39.80524,282,271
116.39221,39.80524,283,271
116.39221,39.80524,284,271
116.39221,39.80524,285,271
116.39221,39.80524,286,271
116.39221,39.80524,287,271
116.39221,39.80524,288,271
116.39221,39.80524,289,271
116.39221,39.80524,290,271
0.0,0.0,291,271
0.0,0.0,292,271
116.391,39.80514,293,271
116.38842,39.80511,294,271
116.38835,39.8051,295,271
116.39531,39.80599,296,271
116.39531,39.80599,297,271
116.39583,39.82146,298,271
116.39573,39.82212,299,271
116.39457,39.84479,300,271
116.39453,39.84574,301,271
116.39442,39.86027,302,271
116.40364,39.86377,303,271
116.39974,39.86383,304,271
116.39375,39.85366,305,271
116.39375,39.85366,306,271
116.39664,39.85109,307,271
116.39766,39.84931,308,271
116.3937,39.86342,309,271
116.3937,39.86342,310,271
116.39539,39.86955,311,271
116.42296,39.86974,312,271
116.43846,39.87333,313,271
116.43801,39.89323,314,271
116.4356,39.89767,315,271
116.43029,39.90132,316,271
116.42974,39.90588,317,271
116.43038,39.91396,318,271
116.42869,39.9202,319,271
116.43259,39.9256,320,271
116.42076,39.9231,321,271
116.42017,39.92308,322,271
116.42052,39.9148,323,271
116.42076,39.90732,324,271
116.42132,39.90348,325,271
116.42974,39.90282,326,271
116.43325,39.89348,327,271
116.42475,39.89303,328,271
116.42158,39.89601,329,271
116.42147,39.8924,330,271
116.4248,39.88657,331,271
116.42678,39.88287,332,271
116.43285,39.86881,333,271
116.43265,39.86544,334,271
116.42577,39.86458,335,271
116.42082,39.86436,336,271
116.41413,39.86389,337,271
116.40766,39.86385,338,271
116.39438,39.86407,339,271
116.39231,39.86169,340,271
116.39231,39.86169,341,271
116.39344,39.85622,342,271
116.39655,39.86405,343,271
116.39335,39.85922,344,271
116.38117,39.85537,345,271
116.38937,39.85548,346,271
116.39064,39.85548,347,271
116.39077,39.84999,348,271
116.39436,39.84003,349,271
116.39508,39.82465,350,271
116.39581,39.81124,351,271
116.39555,39.80597,352,271
116.38776,39.815,353,271
116.39525,39.83088,354,271
116.4003,39.83653,355,271
116.40561,39.84088,356,271
116.40676,39.84083,357,271
116.40844,39.84083,358,271
116.40844,39.84083,359,271
116.40858,39.84442,360,271
116.40812,39.85363,361,271
116.4129,39.85549,362,271
116.40859,39.85594,363,271
116.39993,39.85909,364,271
116.40134,39.86374,365,271
116.40957,39.86394,366,271
116.41512,39.8642,367,271
116.41729,39.86426,368,271
116.42427,39.86692,369,271
116.43833,39.89017,370,271
116.44059,39.90226,371,271
116.47973,39.90444,372,271
116.4996,39.90665,373,271
116.53822,39.90604,374,271
116.54637,39.90775,375,271
116.5679,39.9085,376,271
116.55991,39.90861,377,271
116.53936,39.90982,378,271
116.52857,39.90857,379,271
116.51104,39.9067,380,271
116.48754,39.90696,381,271
116.46583,39.90725,382,271
116.45685,39.90731,383,271
116.45472,39.90351,384,271
116.4552,39.89348,385,271
116.46586,39.89196,386,271
116.46658,39.89277,387,271
116.4629,39.89227,388,271
116.4569,39.89225,389,271
116.4569,39.89225,390,271
116.451,39.89236,391,271
116.43881,39.8925,392,271
116.43411,39.88461,393,271
116.42905,39.88292,394,271
116.43341,39.87282,395,271
116.43267,39.86544,396,271
116.43235,39.85826,397,271
116.42987,39.85769,398,271
116.42879,39.85758,399,271
116.42334,39.85282,400,271
116.42229,39.84879,401,271
116.41365,39.84452,402,271
116.41365,39.84452,403,271
116.40863,39.84354,404,271
116.40631,39.84095,405,271
116.40214,39.84079,406,271
116.39541,39.85308,407,271
116.3937,39.86375,408,271
116.3878,39.8702,409,271
116.3878,39.8702,410,271
116.37062,39.8692,411,271
116.36825,39.88084,412,271
116.36832,39.88643,413,271
116.36821,39.88778,414,271
116.35743,39.88805,415,271
116.35706,39.89515,416,271
116.357,39.8954,417,271
116.357,39.89607,418,271
116.35716,39.89692,419,271
116.35714,39.89757,420,271
116.36218,39.90322,421,271
116.36735,39.90263,422,271
116.36038,39.89835,423,271
116.35742,39.89816,424,271
116.34341,39.89747,425,271
116.33501,39.88879,426,271
116.33359,39.88503,427,271
116.32415,39.88342,428,271
116.32095,39.88348,429,271
116.32843,39.88847,430,271
116.3422,39.88823,431,271
116.35664,39.88772,432,271
116.35719,39.88537,433,271
116.35754,39.87834,434,271
116.35767,39.87707,435,271
116.35783,39.87028,436,271
116.35835,39.86002,437,271
116.35835,39.85776,438,271
116.35835,39.85776,439,271
116.3634,39.84928,440,271
116.3673,39.84923,441,271
116.3707,39.85216,442,271
116.39118,39.85563,443,271
116.42733,39.85724,444,271
116.42874,39.85731,445,271
116.43756,39.85699,446,271
116.43888,39.85627,447,271
116.43985,39.84674,448,271
116.43982,39.84682,449,271
116.43982,39.84682,450,271
116.43982,39.84682,451,271
116.43982,39.84682,452,271
116.43982,39.84682,453,271
116.43988,39.8471,454,271
116.43267,39.85659,455,271
116.43244,39.85975,456,271
116.43286,39.86357,457,271
116.43294,39.86384,458,271
116.42826,39.87937,459,271
116.42624,39.88286,460,271
116.42358,39.88285,461,271
116.41915,39.88265,462,271
116.41467,39.87947,463,271
116.4151,39.87018,464,271
116.41522,39.86726,465,271
116.41529,39.86663,466,271
116.41443,39.85614,467,271
116.41014,39.85604,468,271
116.41029,39.85665,469,271
116.41017,39.85626,470,271
116.4176,39.85382,471,271
116.41744,39.85089,472,271
116.40899,39.84458,473,271
116.40671,39.84604,474,271
116.40827,39.84451,475,271
116.40831,39.85043,476,271
116.40831,39.85043,477,271
116.42167,39.84821,478,271
116.42545,39.84818,479,271
116.43078,39.84892,480,271
116.43275,39.84887,481,271
116.43265,39.85667,482,271
116.43265,39.85667,483,271
116.43275,39.86429,484,271
116.43275,39.86429,485,271
116.43347,39.8718,486,271
116.42901,39.87869,487,271
116.4238,39.88902,488,271
116.4238,39.88902,489,271
116.42211,39.89147,490,271
116.42712,39.89622,491,271
116.4293,39.89392,492,271
116.42151,39.89517,493,271
116.41754,39.89407,494,271
116.41963,39.89309,495,271
116.42149,39.89251,496,271
116.414,39.87194,497,271
116.36951,39.86968,498,271
116.36504,39.85331,499,271
116.36128,39.8494,500,271
116.35883,39.84358,501,271
116.37919,39.85558,502,271
116.38079,39.85906,503,271
116.39101,39.85736,504,271
116.41269,39.85553,505,271
116.40394,39.8558,506,271
116.38101,39.85586,507,271
116.39357,39.85422,508,271
116.38046,39.84628,509,271
116.37437,39.85983,510,271
116.37437,39.85983,511,271
116.3805,39.85671,512,271
116.38064,39.85193,513,271
116.3795,39.8438,514,271
116.39458,39.83607,515,271
116.39507,39.82763,516,271
116.39576,39.81388,517,271
116.39868,39.81235,518,271
116.3961,39.81701,519,271
116.40254,39.83066,520,271
116.44044,39.84442,521,271
116.44044,39.84442,522,271
116.43992,39.84656,523,271
116.43992,39.84656,524,271
116.43992,39.84656,525,271
116.43992,39.84656,526,271
116.43992,39.84656,527,271
116.43992,39.84656,528,271
116.43992,39.84656,529,271
116.43992,39.84656,530,271
116.43992,39.84656,531,271
116.43992,39.84656,532,271
116.43992,39.84656,533,271
116.43992,39.84656,534,271
116.43992,39.84656,535,271
116.43285,39.84865,536,271
116.43256,39.85094,537,271
116.43256,39.85094,538,271
116.43256,39.85094,539,271
116.43256,39.85094,540,271
116.42363,39.85281,541,271
116.42222,39.8485,542,271
116.43683,39.84436,543,271
116.44061,39.83728,544,271
116.44832,39.81789,545,271
116.44983,39.8069,546,271
116.44527,39.79809,547,271
116.44536,39.79703,548,271
116.44536,39.79703,549,271
116.44536,39.79703,550,271
116.44997,39.80695,551,271
116.45038,39.80333,552,271
116.45169,39.8007,553,271
116.4498,39.80867,554,271
116.44776,39.82139,555,271
116.45459,39.832,556,271
116.48391,39.87988,557,271
116.4786,39.89201,558,271
116.4718,39.9042,559,271
116.47201,39.91193,560,271
116.48321,39.91426,561,271
116.4904,39.91428,562,271
116.50731,39.91514,563,271
116.51069,39.91531,564,271
116.47918,39.91429,565,271
116.47155,39.90592,566,271
116.46841,39.8993,567,271
116.45289,39.8976,568,271
116.45193,39.89249,569,271
116.43302,39.89232,570,271
116.43413,39.88341,571,271
116.42852,39.87989,572,271
116.4332,39.86998,573,271
116.42757,39.86433,574,271
116.4324,39.85897,575,271
116.43261,39.85094,576,271
116.43267,39.85096,577,271
116.43267,39.85096,578,271
116.43267,39.85096,579,271
116.43267,39.85096,580,271
116.43267,39.85096,581,271
116.43267,39.85096,582,271
116.43267,39.85096,583,271
116.43261,39.8509,584,271
116.43261,39.8509,585,271
116.43263,39.85088,586,271
116.43265,39.85087,587,271
116.43265,39.85087,588,271
116.43265,39.85087,589,271
116.43265,39.85087,590,271
116.43264,39.85089,591,271
116.43264,39.85089,592,271
116.43264,39.85089,593,271
116.43264,39.85089,594,271
116.43264,39.85089,595,271
116.4327,39.85016,596,271
116.41605,39.8562,597,271
116.3946,39.85585,598,271
116.39118,39.84395,599,271
116.38976,39.84273,600,271
116.39078,39.84047,601,271
116.39326,39.83606,602,271
116.41564,39.83077,603,271
116.43824,39.83065,604,271
116.44926,39.81246,605,271
116.44953,39.80964,606,271
116.44898,39.8158,607,271
116.44812,39.82238,608,271
116.43356,39.84458,609,271
116.42019,39.85007,610,271
116.41857,39.84968,611,271
116.4128,39.8504,612,271
116.4128,39.8504,613,271
116.40179,39.8576,614,271
116.40058,39.87002,615,271
116.40388,39.87023,616,271
116.40424,39.87027,617,271
116.40424,39.87027,618,271
116.40424,39.87027,619,271
116.40424,39.87027,620,271
116.40424,39.87027,621,271
116.39373,39.85217,622,271
116.39434,39.83958,623,271
116.39595,39.80856,624,271
116.39329,39.80508,625,271
116.39231,39.80506,626,271
116.39228,39.80499,627,271
116.39228,39.80499,628,271
116.39228,39.80499,629,271
116.39228,39.80499,630,271
116.39228,39.80499,631,271
116.39228,39.80499,632,271
116.39228,39.80499,633,271
116.39228,39.80499,634,271
116.39228,39.80499,635,271
116.39228,39.80499,636,271
116.39228,39.80499,637,271
116.39228,39.80499,638,271
116.39228,39.80499,639,271
116.39228,39.80499,640,271
116.39228,39.80499,641,271
116.39228,39.80499,642,271
116.39228,39.80499,643,271
116.39228,39.80499,644,271
116.39228,39.80499,645,271
116.39228,39.80499,646,271
116.39228,39.80499,647,271
116.39228,39.80499,648,271
116.39228,39.80499,649,271
116.39228,39.80499,650,271
116.39228,39.80499,651,271
116.39228,39.80499,652,271
116.39228,39.80499,653,271
116.39228,39.80499,654,271
116.39228,39.80499,655,271
116.39228,39.80499,656,271
116.39228,39.80499,657,271
116.39228,39.80499,658,271
116.39228,39.80499,659,271
116.39228,39.80499,660,271
116.39228,39.80499,661,271
116.39228,39.80499,662,271
116.39228,39.80499,663,271
116.39228,39.80499,664,271
116.39228,39.80499,665,271
116.39243,39.80494,666,271
116.39132,39.80513,667,271
116.38827,39.8051,668,271
116.38818,39.80503,669,271
116.38801,39.80938,670,271
116.38794,39.81363,671,271
116.37626,39.82175,672,271
116.37273,39.82301,673,271
116.38753,39.82882,674,271
116.38675,39.82897,675,271
116.38092,39.82843,676,271
116.38092,39.82843,677,271
116.38092,39.82843,678,271
116.38092,39.82843,679,271
116.38092,39.82843,680,271
116.38094,39.8286,681,271
116.37903,39.83882,682,271
116.37334,39.8389,683,271
116.37561,39.84893,684,271
116.3799,39.84794,685,271
116.38784,39.8555,686,271
116.389,39.8555,687,271
116.39686,39.85068,688,271
116.39686,39.85068,689,271
116.39695,39.85049,690,271
116.39367,39.86367,691,271
116.39345,39.86809,692,271
116.3909,39.88505,693,271
116.39043,39.88505,694,271
116.38023,39.88485,695,271
116.37867,39.88651,696,271
116.37822,39.89744,697,271
116.37822,39.89744,698,271
116.3782,39.8975,699,271
116.37806,39.89768,700,271
116.36974,39.88799,701,271
116.36806,39.88426,702,271
116.36806,39.88426,703,271
116.36489,39.86974,704,271
116.36455,39.86988,705,271
116.35812,39.86941,706,271
116.35801,39.87095,707,271
116.35789,39.87393,708,271
116.35788,39.87437,709,271
116.36948,39.87719,710,271
116.36948,39.87719,711,271
116.37354,39.87734,712,271
116.38505,39.8698,713,271
116.39047,39.86936,714,271
116.40051,39.86381,715,271
116.40459,39.86375,716,271
116.40891,39.86388,717,271
116.41233,39.86403,718,271
116.41392,39.86412,719,271
116.41403,39.86416,720,271
116.42484,39.86441,721,271
116.42758,39.8629,722,271
116.42684,39.86021,723,271
116.42639,39.86011,724,271
116.42768,39.86708,725,271
116.43062,39.86707,726,271
116.43263,39.86544,727,271
116.43191,39.86459,728,271
116.42577,39.86461,729,271
116.42577,39.86461,730,271
116.43328,39.87035,731,271
116.43294,39.87257,732,271
116.43819,39.87165,733,271
116.43998,39.87861,734,271
116.43022,39.90041,735,271
116.43014,39.90232,736,271
116.42809,39.92732,737,271
116.42772,39.93403,738,271
116.44589,39.95427,739,271
116.45325,39.96088,740,271
116.49451,39.99811,741,271
116.50357,40.00623,742,271
116.56288,40.03327,743,271
116.57275,40.04065,744,271
116.58388,40.07895,745,271
116.5795,40.07983,746,271
116.58272,40.1027,747,271
116.58259,40.10991,748,271
116.61672,40.11643,749,271
116.62542,40.11633,750,271
116.63527,40.12994,751,271
116.63386,40.13585,752,271
116.64214,40.13109,753,271
116.64312,40.13319,754,271
116.64312,40.13319,755,271
116.63399,40.13466,756,271
116.63533,40.12944,757,271
116.62588,40.11646,758,271
116.6157,40.11655,759,271
116.58242,40.11701,760,271
116.58242,40.11701,761,271
116.55543,40.10266,762,271
116.55543,40.10266,763,271
116.55427,40.09566,764,271
116.5493,40.06561,765,271
116.54905,40.06479,766,271
116.52926,40.04437,767,271
116.52713,40.03998,768,271
116.48034,39.9865,769,271
116.47715,39.98363,770,271
116.45921,39.96743,771,271
116.4536,39.96235,772,271
116.43965,39.94918,773,271
116.44215,39.94749,774,271
116.43315,39.93981,775,271
116.43238,39.93977,776,271
116.39918,39.93947,777,271
116.39849,39.93946,778,271
116.39539,39.93946,779,271
116.39361,39.93945,780,271
116.39018,39.93911,781,271
116.39018,39.93911,782,271
116.39771,39.93199,783,271
116.40046,39.93196,784,271
116.41122,39.92444,785,271
116.41141,39.91697,786,271
116.41184,39.91398,787,271
116.4119,39.90551,788,271
116.41187,39.90478,789,271
116.41326,39.88546,790,271
116.41405,39.88407,791,271
116.42372,39.8797,792,271
116.43259,39.87525,793,271
116.4246,39.86976,794,271
116.41525,39.86408,795,271
116.40944,39.86386,796,271
116.41301,39.86401,797,271
116.41418,39.86395,798,271
116.41507,39.86392,799,271
116.42243,39.8643,800,271
116.42243,39.8643,801,271
116.42727,39.86706,802,271
116.43067,39.86733,803,271
116.4313,39.8671,804,271
116.43272,39.86569,805,271
116.42842,39.86445,806,271
116.42538,39.86444,807,271
116.42538,39.86444,808,271
116.42447,39.86216,809,271
116.42542,39.86044,810,271
116.42585,39.85799,811,271
116.43102,39.85732,812,271
116.44839,39.86135,813,271
116.45996,39.8699,814,271
116.46554,39.86888,815,271
116.46365,39.86902,816,271
116.46605,39.87285,817,271
116.46241,39.87491,818,271
116.45016,39.87489,819,271
116.4499,39.87993,820,271
116.44229,39.88036,821,271
116.43341,39.88304,822,271
116.4332,39.87462,823,271
116.43276,39.8669,824,271
116.44549,39.82463,825,271
116.44606,39.81651,826,271
116.44606,39.81651,827,271
116.44012,39.8118,828,271
116.44534,39.81165,829,271
116.43769,39.8053,830,271
116.43785,39.80379,831,271
116.43015,39.80323,832,271
116.42118,39.80231,833,271
116.41826,39.80225,834,271
116.41799,39.8038,835,271
116.41569,39.80198,836,271
116.41051,39.80406,837,271
116.39648,39.80541,838,271
116.39614,39.81208,839,271
116.39554,39.82419,840,271
116.39482,39.84034,841,271
116.39418,39.85225,842,271
116.39357,39.86378,843,271
116.38018,39.86983,844,271
116.36827,39.87559,845,271
116.36822,39.88551,846,271
116.36835,39.89351,847,271
116.36851,39.89759,848,271
116.36851,39.89759,849,271
116.3681,39.90054,850,271
116.36785,39.90686,851,271
116.36783,39.90947,852,271
116.36797,39.90957,853,271
116.37772,39.90332,854,271
116.37796,39.8991,855,271
116.38866,39.8987,856,271
116.38853,39.89069,857,271
116.39235,39.8856,858,271
116.39257,39.88034,859,271
116.39326,39.85478,860,271
116.40236,39.85564,861,271
116.42754,39.85732,862,271
116.43885,39.85723,863,271
116.43973,39.8481,864,271
116.43986,39.84673,865,271
116.43783,39.8479,866,271
116.43794,39.84663,867,271
116.44354,39.85806,868,271
116.45265,39.86475,869,271
116.45524,39.88178,870,271
116.45525,39.88184,871,271
116.45525,39.88184,872,271
116.45525,39.88184,873,271
116.45525,39.88184,874,271
116.46136,39.88312,875,271
116.46282,39.88294,876,271
116.46038,39.88331,877,271
116.4577,39.88338,878,271
116.45665,39.88336,879,271
116.45528,39.88329,880,271
116.45449,39.87041,881,271
116.45447,39.86744,882,271
116.44281,39.85832,883,271
116.43402,39.85781,884,271
116.43964,39.84874,885,271
116.44044,39.84407,886,271
116.44437,39.83073,887,271
116.44437,39.83073,888,271
116.46049,39.83344,889,271
116.47168,39.82689,890,271
116.47258,39.82649,891,271
116.46709,39.83644,892,271
116.45888,39.83326,893,271
116.44226,39.82787,894,271
116.44644,39.82429,895,271
116.44642,39.82433,896,271
116.44642,39.82433,897,271
116.44642,39.82433,898,271
116.44642,39.82433,899,271
116.44642,39.82433,900,271
116.44012,39.84606,901,271
116.44007,39.84655,902,271
116.43264,39.85599,903,271
116.40845,39.87169,904,271
116.4082,39.87182,905,271
116.39265,39.88128,906,271
116.39262,39.88176,907,271
116.38368,39.8864,908,271
116.38292,39.88644,909,271
116.37072,39.88803,910,271
116.36961,39.8915,911,271
116.36936,39.89144,912,271
116.36936,39.89144,913,271
116.36936,39.89144,914,271
116.36936,39.89144,915,271
116.36936,39.89144,916,271
116.36936,39.89144,917,271
116.36936,39.89144,918,271
116.36936,39.89144,919,271
116.36936,39.89144,920,271
116.36936,39.89144,921,271
116.36936,39.89144,922,271
116.36936,39.89144,923,271
116.36936,39.89144,924,271
116.36936,39.89144,925,271
116.36936,39.89144,926,271
116.36827,39.88979,927,271
116.36831,39.88979,928,271
116.37895,39.88192,929,271
116.38136,39.87477,930,271
116.40381,39.87072,931,271
116.42414,39.86966,932,271
116.43246,39.85795,933,271
116.43985,39.84672,934,271
116.43976,39.84672,935,271
116.43976,39.84672,936,271
116.43976,39.84672,937,271
116.43976,39.84672,938,271
116.43976,39.84672,939,271
116.43976,39.84672,940,271
116.43976,39.84672,941,271
116.43976,39.84672,942,271
116.43976,39.84672,943,271
116.43976,39.84672,944,271
116.43976,39.84672,945,271
116.43976,39.84672,946,271
116.43976,39.84672,947,271
116.44067,39.8419,948,271
116.43971,39.84434,949,271
116.43253,39.85091,950,271
116.43253,39.85091,951,271
116.43253,39.85091,952,271
116.43253,39.85091,953,271
116.43253,39.85091,954,271
116.43253,39.85091,955,271
116.43253,39.85091,956,271
116.4325,39.85087,957,271
116.43499,39.8574,958,271
116.45713,39.86996,959,271
116.47028,39.86997,960,271
116.49397,39.86288,961,271
116.49608,39.86022,962,271
116.49416,39.86607,963,271
116.49526,39.87583,964,271
116.4711,39.8808,965,271
116.46887,39.87014,966,271
116.43276,39.85292,967,271
116.43267,39.86421,968,271
116.42932,39.87993,969,271
116.43552,39.88292,970,271
116.43186,39.87595,971,271
116.42907,39.8646,972,271
116.42028,39.86638,973,271
116.41996,39.86894,974,271
116.41804,39.86431,975,271
116.42392,39.86457,976,271
116.4204,39.86424,977,271
116.42291,39.86455,978,271
116.42291,39.86455,979,271
116.42291,39.86455,980,271
116.41836,39.86429,981,271
116.41845,39.86387,982,271
116.43101,39.86448,983,271
116.43262,39.85132,984,271
116.43269,39.84998,985,271
116.43269,39.84998,986,271
116.42712,39.85186,987,271
116.41364,39.88537,988,271
116.41273,39.89261,989,271
116.41904,39.90345,990,271
116.4195,39.9036,991,271
116.4055,39.89959,992,271
116.39376,39.89895,993,271
116.37363,39.89711,994,271
116.36125,39.89825,995,271
116.36811,39.89084,996,271
116.37827,39.88792,997,271
116.38695,39.88225,998,271
116.39151,39.87769,999,271
116.39368,39.85441,1000,271
116.39384,39.85117,1001,271
116.3954,39.81715,1002,271
116.39238,39.80509,1003,271
116.39135,39.80515,1004,271
116.39135,39.80515,1005,271
116.39144,39.80509,1006,271
116.39144,39.80509,1007,271
116.3892,39.80511,1008,271
116.3892,39.80511,1009,271
116.38921,39.8051,1010,271
116.39123,39.80423,1011,271
116.39123,39.80423,1012,271
116.39121,39.80421,1013,271
116.39121,39.80421,1014,271
116.39165,39.80418,1015,271
116.3919,39.80417,1016,271
116.39624,39.81195,1017,271
116.39615,39.81367,1018,271
116.39615,39.8302,1019,271
116.39631,39.83122,1020,271
116.31368,39.89523,1021,271
116.31371,39.89507,1022,271
116.31477,39.89493,1023,271
116.31944,39.89555,1024,271
116.33346,39.89595,1025,271
116.3357,39.89581,1026,271
116.3357,39.89581,1027,271
116.34326,39.89516,1028,271
116.35361,39.89741,1029,271
116.35701,39.89248,1030,271
116.35718,39.88962,1031,271
116.35715,39.88646,1032,271
116.35755,39.88523,1033,271
116.36255,39.88777,1034,271
116.36606,39.88777,1035,271
116.36691,39.88771,1036,271
116.36801,39.88786,1037,271
116.36865,39.89559,1038,271
116.37238,39.89826,1039,271
116.37844,39.8886,1040,271
116.37841,39.88785,1041,271
116.3812,39.87838,1042,271
116.37987,39.86918,1043,271
116.39011,39.86956,1044,271
116.40713,39.86385,1045,271
116.4072,39.86941,1046,271
116.38516,39.85568,1047,271
116.33301,39.84784,1048,271
116.32712,39.84796,1049,271
116.31512,39.84683,1050,271
116.31512,39.84683,1051,271
116.31193,39.84691,1052,271
116.31046,39.84736,1053,271
116.3141,39.84683,1054,271
116.33616,39.84764,1055,271
116.34531,39.84982,1056,271
116.38011,39.85549,1057,271
116.38011,39.85549,1058,271
116.39442,39.85777,1059,271
116.39437,39.86167,1060,271
116.40725,39.86388,1061,271
116.40766,39.86387,1062,271
116.41316,39.86406,1063,271
116.41413,39.86419,1064,271
116.42059,39.86434,1065,271
116.42441,39.86467,1066,271
116.41691,39.87009,1067,271
116.36829,39.87432,1068,271
116.36836,39.88065,1069,271
116.35768,39.88809,1070,271
116.35768,39.88809,1071,271
116.34779,39.89342,1072,271
116.34684,39.89277,1073,271
116.35676,39.88788,1074,271
116.35885,39.88786,1075,271
116.37264,39.88786,1076,271
116.37813,39.88797,1077,271
116.39457,39.89051,1078,271
116.39456,39.89052,1079,271
116.40602,39.89482,1080,271
116.40843,39.89581,1081,271
116.4128,39.89263,1082,271
116.41269,39.88888,1083,271
116.41504,39.87133,1084,271
116.41544,39.86329,1085,271
116.41512,39.86068,1086,271
116.40786,39.85807,1087,271
116.40786,39.85807,1088,271
116.40787,39.85696,1089,271
116.40787,39.85696,1090,271
116.40706,39.85257,1091,271
116.40457,39.85255,1092,271
116.40457,39.85255,1093,271
116.4141,39.85226,1094,271
116.41362,39.85464,1095,271
116.4157,39.86376,1096,271
116.41661,39.86409,1097,271
116.42444,39.86474,1098,271
116.42221,39.86443,1099,271
116.41697,39.86384,1100,271
116.41697,39.86384,1101,271
116.4155,39.86505,1102,271
116.41305,39.88797,1103,271
116.41295,39.89015,1104,271
116.42097,39.8919,1105,271
116.42121,39.89189,1106,271
116.42964,39.89614,1107,271
116.43319,39.8945,1108,271
116.4339,39.89226,1109,271
116.44254,39.89217,1110,271
116.45551,39.89433,1111,271
116.44979,39.89604,1112,271
116.4496,39.89278,1113,271
116.4393,39.8758,1114,271
116.43648,39.86959,1115,271
116.43259,39.86539,1116,271
116.431,39.8647,1117,271
116.43983,39.84641,1118,271
116.43987,39.84643,1119,271
116.42847,39.84537,1120,271
116.42593,39.84825,1121,271
116.41589,39.84492,1122,271
116.41328,39.84456,1123,271
116.41328,39.84456,1124,271
116.41363,39.84451,1125,271
116.41752,39.85277,1126,271
116.42142,39.85289,1127,271
116.43562,39.85269,1128,271
116.43957,39.8488,1129,271
116.43811,39.84667,1130,271
116.43823,39.84678,1131,271
116.43823,39.84678,1132,271
116.43823,39.84678,1133,271
116.43823,39.84678,1134,271
116.43823,39.84678,1135,271
116.43823,39.84678,1136,271
116.43823,39.84678,1137,271
116.43823,39.84678,1138,271
116.43823,39.84678,1139,271
116.43823,39.84678,1140,271
116.43823,39.84678,1141,271
116.43823,39.84678,1142,271
116.43823,39.84678,1143,271
116.43823,39.84678,1144,271
116.43823,39.84678,1145,271
116.43823,39.84678,1146,271
116.43823,39.84678,1147,271
116.43823,39.84678,1148,271
116.43823,39.84678,1149,271
116.43823,39.84678,1150,271
116.43823,39.84678,1151,271
116.43823,39.84678,1152,271
116.43823,39.84678,1153,271
116.43823,39.84678,1154,271
116.43823,39.84678,1155,271
116.43823,39.84678,1156,271
116.43823,39.84678,1157,271
116.43823,39.84678,1158,271
116.43823,39.84678,1159,271
116.43823,39.84678,1160,271
116.43823,39.84678,1161,271
116.43823,39.84678,1162,271
116.43823,39.84678,1163,271
116.43823,39.84678,1164,271
116.43823,39.84678,1165,271
116.43823,39.84678,1166,271
116.43823,39.84678,1167,271
116.43823,39.84678,1168,271
116.43823,39.84678,1169,271
116.43823,39.84678,1170,271
116.43823,39.84678,1171,271
116.43823,39.84678,1172,271
116.43812,39.84668,1173,271
116.43812,39.84668,1174,271
116.43942,39.8515,1175,271
116.43931,39.85235,1176,271
116.42615,39.85749,1177,271
116.42615,39.85749,1178,271
116.42595,39.85683,1179,271
116.42611,39.85617,1180,271
116.4317,39.84483,1181,271
116.4325,39.84477,1182,271
116.4325,39.84477,1183,271
116.43293,39.85562,1184,271
116.43332,39.85567,1185,271
116.44005,39.84598,1186,271
116.4401,39.84555,1187,271
116.43276,39.85124,1188,271
116.43273,39.85199,1189,271
116.43885,39.85488,1190,271
116.43884,39.8541,1191,271
116.44128,39.85743,1192,271
116.4426,39.85771,1193,271
116.38922,39.85572,1194,271
116.38709,39.85568,1195,271
116.32776,39.84789,1196,271
116.32776,39.84789,1197,271
116.31132,39.85054,1198,271
116.31061,39.85046,1199,271
116.30429,39.8501,1200,271
116.30553,39.85035,1201,271
116.31329,39.85042,1202,271
116.31334,39.85041,1203,271
116.31941,39.84747,1204,271
116.31986,39.84758,1205,271
116.31115,39.85639,1206,271
116.30996,39.85774,1207,271
116.27088,39.87757,1208,271
116.27028,39.87922,1209,271
116.24007,39.97034,1210,271
116.24007,39.97034,1211,271
116.24007,39.97034,1212,271
116.24007,39.97034,1213,271
116.26837,39.93325,1214,271
116.26785,39.91008,1215,271
116.26982,39.87975,1216,271
116.28142,39.8642,1217,271
116.30999,39.85743,1218,271
116.31788,39.84747,1219,271
116.31788,39.84747,1220,271
116.3151,39.84788,1221,271
116.31946,39.84664,1222,271
116.33097,39.8474,1223,271
116.34086,39.84858,1224,271
116.36216,39.85438,1225,271
116.37777,39.85567,1226,271
116.39886,39.85552,1227,271
116.40748,39.85553,1228,271
116.4158,39.8559,1229,271
116.41559,39.86355,1230,271
116.42989,39.86936,1231,271
116.43912,39.87289,1232,271
116.44227,39.87101,1233,271
116.44139,39.87064,1234,271
116.4546,39.86916,1235,271
116.37206,39.85578,1236,271
116.33381,39.84768,1237,271
116.31267,39.85488,1238,271
116.29745,39.85674,1239,271
116.29745,39.85674,1240,271
116.29257,39.85649,1241,271
116.30831,39.85673,1242,271
116.32715,39.84742,1243,271
116.33268,39.84745,1244,271
116.35607,39.85266,1245,271
116.37066,39.85552,1246,271
116.40268,39.85562,1247,271
116.41506,39.85567,1248,271
116.41708,39.86418,1249,271
116.42348,39.86441,1250,271
116.42722,39.86449,1251,271
116.42048,39.86447,1252,271
116.41553,39.87021,1253,271
116.3992,39.87071,1254,271
116.36902,39.86971,1255,271
116.36835,39.87687,1256,271
116.36825,39.88734,1257,271
116.3684,39.89625,1258,271
116.36799,39.90547,1259,271
116.36763,39.91415,1260,271
116.36727,39.92212,1261,271
116.36694,39.93078,1262,271
116.37026,39.9337,1263,271
116.37082,39.9294,1264,271
116.37349,39.92112,1265,271
116.37556,39.91088,1266,271
116.37035,39.90984,1267,271
116.36336,39.90593,1268,271
116.36336,39.90593,1269,271
116.35014,39.90457,1270,271
116.34543,39.89982,1271,271
116.34682,39.89473,1272,271
116.34721,39.88497,1273,271
116.35754,39.88067,1274,271
116.35762,39.87803,1275,271
116.36777,39.87721,1276,271
116.37598,39.87752,1277,271
116.37923,39.86935,1278,271
116.39317,39.86665,1279,271
116.40418,39.86377,1280,271
116.40765,39.86112,1281,271
116.40789,39.85636,1282,271
116.40798,39.85264,1283,271
116.4083,39.84523,1284,271
116.40835,39.84479,1285,271
116.4145,39.84443,1286,271
116.41617,39.84354,1287,271
116.41886,39.83341,1288,271
116.41905,39.83122,1289,271
116.39516,39.82342,1290,271
116.39546,39.81632,1291,271
116.39099,39.81406,1292,271
116.39099,39.81406,1293,271
116.39549,39.81223,1294,271
116.39608,39.81612,1295,271
116.3956,39.82661,1296,271
116.40254,39.83066,1297,271
116.40005,39.83624,1298,271
116.40171,39.84055,1299,271
116.40885,39.8408,1300,271
116.42858,39.835,1301,271
116.43302,39.83162,1302,271
116.4494,39.81052,1303,271
116.4419,39.82876,1304,271
116.44146,39.83021,1305,271
116.4397,39.84659,1306,271
116.43984,39.84652,1307,271
116.43984,39.84652,1308,271
116.43984,39.84652,1309,271
116.43984,39.84652,1310,271
116.43984,39.84652,1311,271
116.43984,39.84652,1312,271
116.43984,39.84652,1313,271
116.43984,39.84652,1314,271
116.43984,39.84652,1315,271
116.43984,39.84652,1316,271
116.43984,39.84652,1317,271
116.43984,39.84652,1318,271
116.43984,39.84652,1319,271
116.43984,39.84652,1320,271
116.43984,39.84652,1321,271
116.43984,39.84652,1322,271
116.43984,39.84652,1323,271
116.43984,39.84652,1324,271
116.43984,39.84652,1325,271
116.43984,39.84652,1326,271
116.43984,39.84652,1327,271
116.43984,39.84652,1328,271
116.43984,39.84652,1329,271
116.4402,39.84808,1330,271
116.43919,39.85261,1331,271
116.43263,39.85666,1332,271
116.43232,39.86074,1333,271
116.43289,39.86669,1334,271
116.43341,39.87429,1335,271
116.42488,39.88646,1336,271
116.42187,39.8917,1337,271
116.42141,39.89565,1338,271
116.41897,39.89392,1339,271
116.42002,39.89334,1340,271
116.42024,39.89403,1341,271
116.41907,39.89397,1342,271
116.41534,39.89183,1343,271
116.41299,39.88616,1344,271
116.41499,39.87146,1345,271
116.41566,39.8569,1346,271
116.41566,39.8569,1347,271
116.39502,39.85588,1348,271
116.40259,39.85556,1349,271
116.40273,39.85536,1350,271
116.40752,39.85549,1351,271
116.40752,39.85549,1352,271
116.4153,39.86871,1353,271
116.415,39.8758,1354,271
116.41293,39.89122,1355,271
116.41949,39.89207,1356,271
116.41911,39.89427,1357,271
116.42002,39.89325,1358,271
116.42003,39.89339,1359,271
116.42042,39.89331,1360,271
116.42042,39.89331,1361,271
116.42042,39.89331,1362,271
116.42042,39.89331,1363,271
116.42042,39.89331,1364,271
116.42042,39.89331,1365,271
116.42042,39.89331,1366,271
116.42042,39.89331,1367,271
116.42042,39.89331,1368,271
116.42042,39.89331,1369,271
116.42042,39.89331,1370,271
116.42042,39.89331,1371,271
116.42042,39.89331,1372,271
116.42042,39.89331,1373,271
116.42123,39.89423,1374,271
116.42508,39.88301,1375,271
116.42977,39.87786,1376,271
116.43273,39.86598,1377,271
116.43241,39.85796,1378,271
116.43892,39.85256,1379,271
116.43997,39.84663,1380,271
116.43997,39.84663,1381,271
116.43997,39.84663,1382,271
116.43997,39.84663,1383,271
116.43997,39.84663,1384,271
116.43997,39.84663,1385,271
116.43997,39.84663,1386,271
116.43997,39.84663,1387,271
116.43997,39.84663,1388,271
116.43997,39.84663,1389,271
116.43997,39.84663,1390,271
116.43997,39.84663,1391,271
116.43997,39.84663,1392,271
116.43997,39.84663,1393,271
116.43997,39.84663,1394,271
116.43997,39.84663,1395,271
116.43997,39.84663,1396,271
116.43997,39.84663,1397,271
116.43997,39.84663,1398,271
116.43997,39.84663,1399,271
116.43997,39.84663,1400,271
116.43997,39.84663,1401,271
116.43997,39.84663,1402,271
116.43969,39.84677,1403,271
116.43991,39.84675,1404,271
116.43261,39.8571,1405,271
116.43234,39.86091,1406,271
116.43806,39.87067,1407,271
116.42867,39.91397,1408,271
116.42787,39.93341,1409,271
116.4365,39.93984,1410,271
116.46038,39.9589,1411,271
116.47307,39.97051,1412,271
116.48328,39.97899,1413,271
116.48399,39.98662,1414,271
116.49433,39.99621,1415,271
116.50231,39.99924,1416,271
116.51536,39.99638,1417,271
116.5082,39.99362,1418,271
116.49203,39.97921,1419,271
116.48283,39.97906,1420,271
116.47579,39.97308,1421,271
116.46885,39.96689,1422,271
116.46885,39.96689,1423,271
116.45215,39.95194,1424,271
116.44928,39.94945,1425,271
116.44416,39.94265,1426,271
116.43753,39.94005,1427,271
116.42728,39.93798,1428,271
116.42829,39.92156,1429,271
116.43783,39.89317,1430,271
116.4345,39.88309,1431,271
116.4335,39.88321,1432,271
116.42787,39.88144,1433,271
116.43314,39.87471,1434,271
116.44359,39.87016,1435,271
116.45165,39.87009,1436,271
116.4702,39.86992,1437,271
116.47596,39.86981,1438,271
116.47127,39.87203,1439,271
116.4715,39.89143,1440,271
116.47169,39.90214,1441,271
116.47169,39.90214,1442,271
116.47179,39.90652,1443,271
116.47194,39.91398,1444,271
116.47215,39.9212,1445,271
116.47239,39.92709,1446,271
116.47196,39.92204,1447,271
116.47185,39.91487,1448,271
116.47032,39.9072,1449,271
116.44481,39.90713,1450,271
116.42996,39.90296,1451,271
116.43871,39.88636,1452,271
116.42506,39.86977,1453,271
116.40746,39.87177,1454,271
116.40746,39.86474,1455,271
116.40758,39.86454,1456,271
116.41286,39.86966,1457,271
116.43883,39.87419,1458,271
116.43872,39.89174,1459,271
116.45293,39.88647,1460,271
116.44237,39.88632,1461,271
116.44237,39.88632,1462,271
116.44018,39.88632,1463,271
116.43811,39.8962,1464,271
116.42961,39.90713,1465,271
116.42802,39.93021,1466,271
116.42755,39.94146,1467,271
116.41853,39.94812,1468,271
116.40481,39.9479,1469,271
116.40202,39.95208,1470,271
116.40174,39.95716,1471,271
116.40216,39.94261,1472,271
116.40252,39.93346,1473,271
116.40297,39.92583,1474,271
116.4065,39.91724,1475,271
116.41185,39.90954,1476,271
116.46848,39.90366,1477,271
116.49524,39.90665,1478,271
116.52904,39.90804,1479,271
116.55019,39.90779,1480,271
116.56297,39.90801,1481,271
116.55889,39.90856,1482,271
116.54145,39.91445,1483,271
116.54076,39.91354,1484,271
116.53894,39.915,1485,271
116.5249,39.91576,1486,271
116.52032,39.91199,1487,271
116.50987,39.90689,1488,271
116.49076,39.90719,1489,271
116.47009,39.90397,1490,271
116.455,39.90174,1491,271
116.45445,39.87039,1492,271
116.44478,39.85906,1493,271
116.43884,39.85647,1494,271
116.43983,39.84675,1495,271
116.43982,39.84673,1496,271
116.43982,39.84673,1497,271
116.43982,39.84673,1498,271
116.43982,39.84673,1499,271
116.43982,39.84673,1500,271
116.43982,39.84673,1501,271
116.43982,39.84673,1502,271
116.43982,39.84673,1503,271
116.43982,39.84673,1504,271
116.43982,39.84673,1505,271
116.43982,39.84673,1506,271
116.43982,39.84673,1507,271
116.43982,39.84673,1508,271
116.43982,39.84673,1509,271
116.43982,39.84673,1510,271
116.43982,39.84673,1511,271
116.43982,39.84673,1512,271
116.43982,39.84673,1513,271
116.43982,39.84673,1514,271
116.43982,39.84673,1515,271
116.43982,39.84673,1516,271
116.43982,39.84673,1517,271
116.43982,39.84673,1518,271
116.44021,39.84443,1519,271
116.42242,39.84828,1520,271
116.41624,39.84832,1521,271
116.41558,39.84601,1522,271
116.41799,39.84062,1523,271
116.41798,39.84063,1524,271
116.41798,39.84063,1525,271
116.41798,39.84063,1526,271
116.41798,39.84063,1527,271
116.41798,39.84063,1528,271
116.41798,39.84063,1529,271
116.41798,39.84063,1530,271
116.41798,39.84063,1531,271
116.41798,39.84063,1532,271
116.41798,39.84063,1533,271
116.41798,39.84063,1534,271
116.41367,39.84103,1535,271
116.41367,39.84103,1536,271
116.4161,39.84386,1537,271
116.41603,39.84437,1538,271
116.42556,39.84802,1539,271
116.42556,39.84802,1540,271
116.43734,39.84439,1541,271
116.43836,39.84437,1542,271
116.43984,39.84663,1543,271
116.43968,39.8467,1544,271
116.43968,39.8467,1545,271
116.43968,39.8467,1546,271
116.43968,39.8467,1547,271
116.43968,39.8467,1548,271
116.43968,39.8467,1549,271
116.43968,39.8467,1550,271
116.43968,39.8467,1551,271
116.43968,39.8467,1552,271
116.43968,39.8467,1553,271
116.43968,39.8467,1554,271
116.43968,39.8467,1555,271
116.43968,39.8467,1556,271
116.43968,39.8467,1557,271
116.43968,39.8467,1558,271
116.43968,39.8467,1559,271
116.43968,39.8467,1560,271
116.43968,39.8467,1561,271
116.43968,39.8467,1562,271
116.43968,39.8467,1563,271
116.43968,39.8467,1564,271
116.43968,39.8467,1565,271
116.43968,39.8467,1566,271
116.44036,39.84441,1567,271
116.44477,39.82519,1568,271
116.45432,39.81783,1569,271
116.466,39.80104,1570,271
116.43475,39.78936,1571,271
116.41153,39.76605,1572,271
116.39488,39.76456,1573,271
116.37559,39.75602,1574,271
116.36932,39.74084,1575,271
116.36243,39.73689,1576,271
116.37311,39.7417,1577,271
116.37311,39.7417,1578,271
116.37527,39.75872,1579,271
116.37364,39.77157,1580,271
116.37217,39.78868,1581,271
116.37511,39.79948,1582,271
116.39005,39.80149,1583,271
116.39639,39.81049,1584,271
116.39761,39.82145,1585,271
116.39574,39.82315,1586,271
116.40906,39.83055,1587,271
116.42625,39.83056,1588,271
116.44051,39.84423,1589,271
116.43985,39.84664,1590,271
116.43979,39.84657,1591,271
116.43979,39.84657,1592,271
116.43979,39.84657,1593,271
116.43979,39.84657,1594,271
116.43979,39.84657,1595,271
116.43979,39.84657,1596,271
116.43979,39.84657,1597,271
116.43979,39.84657,1598,271
116.43979,39.84657,1599,271
116.43979,39.84657,1600,271
116.43979,39.84657,1601,271
116.43979,39.84657,1602,271
116.43979,39.84657,1603,271
116.43979,39.84657,1604,271
116.43979,39.84657,1605,271
116.43979,39.84657,1606,271
116.43979,39.84657,1607,271
116.43979,39.84657,1608,271
116.43979,39.84657,1609,271
116.43979,39.84657,1610,271
116.43979,39.84657,1611,271
116.43979,39.84657,1612,271
116.4398,39.84659,1613,271
116.4398,39.84659,1614,271
116.4398,39.84659,1615,271
116.4398,39.84659,1616,271
116.4398,39.84659,1617,271
116.4398,39.84659,1618,271
116.4398,39.84659,1619,271
116.4398,39.84659,1620,271
116.4398,39.84659,1621,271
116.4398,39.84659,1622,271
116.4398,39.84659,1623,271
116.4398,39.84659,1624,271
116.4398,39.84659,1625,271
116.4398,39.84659,1626,271
116.4398,39.84659,1627,271
116.4398,39.84659,1628,271
116.4398,39.84659,1629,271
116.4398,39.84659,1630,271
116.4398,39.84659,1631,271
116.4398,39.84659,1632,271
116.4398,39.84659,1633,271
116.4398,39.84659,1634,271
116.43981,39.84709,1635,271
116.43981,39.84709,1636,271
116.43992,39.84717,1637,271
116.43981,39.84685,1638,271
116.43913,39.84434,1639,271
116.43321,39.84463,1640,271
116.43321,39.84463,1641,271
116.42504,39.84819,1642,271
116.42732,39.84901,1643,271
116.41281,39.85578,1644,271
116.40172,39.85585,1645,271
116.40138,39.86373,1646,271
116.40748,39.86378,1647,271
116.41745,39.85211,1648,271
116.41745,39.85211,1649,271
116.4174,39.85087,1650,271
116.42754,39.85148,1651,271
116.42755,39.85148,1652,271
116.45283,39.86486,1653,271
116.45508,39.86976,1654,271
116.4776,39.86992,1655,271
116.48992,39.8697,1656,271
116.52136,39.8728,1657,271
116.52144,39.87314,1658,271
116.52006,39.86897,1659,271
116.51262,39.8693,1660,271
116.48914,39.8789,1661,271
116.48284,39.88225,1662,271
116.45569,39.88345,1663,271
116.4539,39.88025,1664,271
116.44985,39.87608,1665,271
116.44999,39.88001,1666,271
116.45627,39.89472,1667,271
116.45843,39.89408,1668,271
116.45214,39.89652,1669,271
116.45198,39.89444,1670,271
116.44968,39.89516,1671,271
116.44957,39.89256,1672,271
116.45485,39.88442,1673,271
116.45031,39.8832,1674,271
116.45458,39.87093,1675,271
116.4546,39.87038,1676,271
116.43913,39.8575,1677,271
116.42798,39.85741,1678,271
116.38391,39.85587,1679,271
116.38103,39.85588,1680,271
116.3808,39.85428,1681,271
116.3845,39.85548,1682,271
116.40402,39.85545,1683,271
116.40494,39.8555,1684,271
116.40761,39.86308,1685,271
116.40755,39.8645,1686,271
116.41514,39.86693,1687,271
116.41544,39.8649,1688,271
116.42714,39.86454,1689,271
116.42633,39.86454,1690,271
116.4148,39.87901,1691,271
116.41461,39.88285,1692,271
116.41461,39.88285,1693,271
116.41101,39.89777,1694,271
116.41239,39.89747,1695,271
116.41438,39.88293,1696,271
116.41457,39.87901,1697,271
116.39342,39.87044,1698,271
116.38288,39.87003,1699,271
116.37244,39.86895,1700,271
116.37244,39.86895,1701,271
116.37909,39.86948,1702,271
116.41463,39.86981,1703,271
116.4231,39.86977,1704,271
116.44317,39.88322,1705,271
116.44929,39.88307,1706,271
116.45468,39.88302,1707,271
116.45529,39.88296,1708,271
116.45462,39.90743,1709,271
116.4517,39.90779,1710,271
116.45522,39.90606,1711,271
116.45492,39.90298,1712,271
116.45545,39.89291,1713,271
116.45552,39.89588,1714,271
116.45594,39.93173,1715,271
116.46253,39.93236,1716,271
116.47611,39.93217,1717,271
116.47611,39.93217,1718,271
116.48414,39.94217,1719,271
116.48414,39.94899,1720,271
116.48436,39.95977,1721,271
116.48466,39.95965,1722,271
116.48351,39.94255,1723,271
116.48349,39.93597,1724,271
116.49968,39.93579,1725,271
116.5094,39.93855,1726,271
116.50431,39.92836,1727,271
116.50443,39.92796,1728,271
116.51117,39.92521,1729,271
116.5103,39.92197,1730,271
116.48496,39.92188,1731,271
116.4549,39.90701,1732,271
116.44495,39.90711,1733,271
116.41407,39.90696,1734,271
116.40669,39.90681,1735,271
116.37691,39.90593,1736,271
116.37691,39.90593,1737,271
116.37327,39.9109,1738,271
116.37567,39.9097,1739,271
116.38503,39.89902,1740,271
116.38737,39.899,1741,271
116.40568,39.89815,1742,271
116.4068,39.8958,1743,271
116.4068,39.8958,1744,271
116.41417,39.88391,1745,271
116.4145,39.88219,1746,271
116.41501,39.87747,1747,271
116.41858,39.87962,1748,271
116.42503,39.88514,1749,271
116.42388,39.88862,1750,271
116.41954,39.89414,1751,271
116.41954,39.89414,1752,271
116.4199,39.8932,1753,271
116.42,39.89352,1754,271
116.42111,39.89391,1755,271
116.42111,39.89391,1756,271
116.42111,39.89391,1757,271
116.42111,39.89391,1758,271
116.42111,39.89391,1759,271
116.42111,39.89391,1760,271
116.42111,39.89391,1761,271
116.42111,39.89391,1762,271
116.42111,39.89391,1763,271
116.42111,39.89391,1764,271
116.42111,39.89391,1765,271
116.42111,39.89391,1766,271
116.42111,39.89391,1767,271
116.42061,39.8945,1768,271
116.41399,39.89195,1769,271
116.41249,39.89466,1770,271
116.40095,39.89952,1771,271
116.39513,39.89914,1772,271
116.37876,39.89883,1773,271
116.36949,39.90943,1774,271
116.37123,39.91906,1775,271
116.36787,39.90883,1776,271
116.36784,39.90852,1777,271
116.37619,39.90578,1778,271
116.37619,39.90578,1779,271
116.40525,39.90598,1780,271
116.40534,39.90451,1781,271
116.41232,39.89652,1782,271
116.41253,39.89258,1783,271
116.42266,39.89209,1784,271
116.4308,39.89224,1785,271
116.44715,39.88327,1786,271
116.44921,39.88328,1787,271
116.45009,39.88463,1788,271
116.45009,39.88463,1789,271
116.4499,39.87867,1790,271
116.44996,39.88168,1791,271
116.45543,39.89071,1792,271
116.45563,39.89251,1793,271
116.45503,39.89576,1794,271
116.4555,39.89924,1795,271
116.43743,39.90714,1796,271
116.43074,39.90725,1797,271
116.41489,39.923,1798,271
116.4108,39.92307,1799,271
116.4108,39.92307,1800,271
116.39844,39.92287,1801,271
116.39669,39.92231,1802,271
116.39519,39.93194,1803,271
116.39911,39.93195,1804,271
116.40018,39.91615,1805,271
