x,y,k,tid
116.34839,39.95698,0,2747
116.34985,39.94261,1,2747
116.33672,39.93736,2,2747
116.31848,39.94896,3,2747
116.3031,39.96169,4,2747
116.29645,39.95906,5,2747
116.29977,39.95982,6,2747
116.30172,39.96076,7,2747
116.31447,39.96496,8,2747
116.31016,39.97749,9,2747
116.31902,39.97557,10,2747
116.34781,39.96626,11,2747
116.36029,39.96614,12,2747
116.36046,39.96602,13,2747
116.36046,39.96602,14,2747
116.36325,39.96595,15,2747
116.35582,39.95733,16,2747
116.35526,39.95744,17,2747
116.35524,39.95779,18,2747
116.35523,39.95781,19,2747
116.35188,39.95746,20,2747
116.34386,39.94315,21,2747
116.34926,39.93441,22,2747
116.34891,39.93151,23,2747
116.37266,39.92135,24,2747
116.36815,39.92277,25,2747
116.35934,39.92266,26,2747
116.37213,39.93154,27,2747
116.38945,39.93183,28,2747
116.41184,39.93204,29,2747
116.42484,39.93184,30,2747
116.45605,39.91962,31,2747
116.48335,39.90436,32,2747
116.48331,39.87766,33,2747
116.48263,39.87494,34,2747
116.484,39.90734,35,2747
116.50019,39.92151,36,2747
116.51108,39.92191,37,2747
116.51155,39.93684,38,2747
116.51147,39.93686,39,2747
116.51147,39.93689,40,2747
116.43551,39.94792,41,2747
116.42693,39.94777,42,2747
116.40064,39.94772,43,2747
116.39087,39.94764,44,2747
116.35595,39.94426,45,2747
116.35595,39.94426,46,2747
116.34921,39.93506,47,2747
116.3496,39.92114,48,2747
116.34941,39.9221,49,2747
116.35042,39.92256,50,2747
116.34988,39.93522,51,2747
116.33774,39.93716,52,2747
116.26877,39.9237,53,2747
116.222,39.89584,54,2747
116.21509,39.90449,55,2747
116.23781,39.90625,56,2747
116.2612,39.90617,57,2747
116.27685,39.91844,58,2747
116.29165,39.92043,59,2747
116.29282,39.92258,60,2747
116.29334,39.92243,61,2747
116.30454,39.92718,62,2747
116.3126,39.9379,63,2747
116.33635,39.93655,64,2747
116.34018,39.91959,65,2747
116.3543,39.94613,66,2747
116.3543,39.94613,67,2747
116.36023,39.96617,68,2747
116.36022,39.96616,69,2747
116.36039,39.96616,70,2747
116.36383,39.97696,71,2747
116.36301,39.96636,72,2747
116.35688,39.96633,73,2747
116.38838,39.96102,74,2747
116.40196,39.94662,75,2747
116.40246,39.93282,76,2747
116.40457,39.92405,77,2747
116.39729,39.92298,78,2747
116.3932,39.92484,79,2747
116.40907,39.92295,80,2747
116.42821,39.91994,81,2747
116.42968,39.90438,82,2747
116.42048,39.90376,83,2747
116.41837,39.90656,84,2747
116.47044,39.90676,85,2747
116.46119,39.90516,86,2747
116.45594,39.9041,87,2747
116.45393,39.91244,88,2747
116.44014,39.90733,89,2747
116.39577,39.9065,90,2747
116.39577,39.9065,91,2747
116.39513,39.90652,92,2747
116.39513,39.90652,93,2747
116.38965,39.90626,94,2747
116.3704,39.90587,95,2747
116.34142,39.90605,96,2747
116.31541,39.90626,97,2747
116.29625,39.91402,98,2747
116.29564,39.91461,99,2747
116.2956,39.91454,100,2747
116.29548,39.91462,101,2747
116.29542,39.91495,102,2747
116.27947,39.91828,103,2747
116.2669,39.91957,104,2747
116.30309,39.9226,105,2747
116.34843,39.96958,106,2747
116.36324,39.98043,107,2747
116.37423,39.98429,108,2747
116.36768,39.98064,109,2747
116.35942,39.97526,110,2747
116.35878,39.96668,111,2747
116.35876,39.9667,112,2747
116.35877,39.9667,113,2747
116.31979,39.96625,114,2747
116.31979,39.96625,115,2747
116.31428,39.96377,116,2747
116.33306,39.9661,117,2747
116.36015,39.96606,118,2747
116.37452,39.96753,119,2747
116.34227,40.02901,120,2747
116.32369,40.05235,121,2747
116.33575,40.03657,122,2747
116.34573,40.01435,123,2747
116.34645,39.99789,124,2747
116.34676,39.96616,125,2747
116.36081,39.96599,126,2747
116.36082,39.96599,127,2747
116.36083,39.966,128,2747
116.36084,39.96602,129,2747
116.36084,39.96602,130,2747
116.36084,39.96604,131,2747
116.36109,39.96628,132,2747
116.36095,39.96613,133,2747
116.36093,39.96615,134,2747
116.36092,39.96615,135,2747
116.36092,39.96615,136,2747
116.36091,39.96615,137,2747
116.36077,39.96614,138,2747
116.36079,39.9661,139,2747
116.36084,39.96609,140,2747
116.36087,39.96611,141,2747
116.36087,39.96611,142,2747
116.36363,39.96592,143,2747
116.39215,39.96774,144,2747
116.45142,39.95564,145,2747
116.45141,39.95563,146,2747
116.45119,39.95532,147,2747
116.45125,39.95533,148,2747
116.45108,39.95548,149,2747
116.45095,39.95554,150,2747
116.44561,39.95844,151,2747
116.44914,39.99088,152,2747
116.45883,39.97242,153,2747
116.45301,39.95294,154,2747
116.46662,39.95081,155,2747
116.46607,39.95085,156,2747
116.46694,39.95075,157,2747
116.46685,39.95073,158,2747
116.46688,39.95038,159,2747
116.46716,39.95083,160,2747
116.46705,39.95078,161,2747
116.46705,39.95078,162,2747
116.46713,39.95092,163,2747
116.46695,39.95056,164,2747
116.46695,39.95056,165,2747
116.46695,39.95056,166,2747
116.57925,40.04682,167,2747
116.58269,40.07554,168,2747
116.58439,40.07973,169,2747
116.58057,40.07532,170,2747
116.56391,40.06318,171,2747
116.50582,40.01094,172,2747
116.50574,40.01106,173,2747
116.50573,40.01034,174,2747
116.50534,40.0109,175,2747
116.50533,40.01094,176,2747
116.50535,40.01096,177,2747
116.50536,40.01098,178,2747
116.50532,40.01097,179,2747
116.50532,40.01097,180,2747
116.50531,40.01097,181,2747
116.5053,40.01097,182,2747
116.50531,40.01096,183,2747
116.50531,40.01096,184,2747
116.50531,40.01096,185,2747
116.50594,40.01111,186,2747
116.50532,40.01105,187,2747
116.50531,40.01104,188,2747
116.50531,40.01104,189,2747
116.5053,40.01104,190,2747
116.5053,40.01104,191,2747
116.5053,40.01104,192,2747
116.5053,40.01104,193,2747
116.5053,40.01104,194,2747
116.5053,40.01105,195,2747
116.5053,40.01105,196,2747
116.50529,40.01106,197,2747
116.50516,40.01089,198,2747
116.50516,40.01089,199,2747
116.50518,40.01098,200,2747
116.50519,40.01099,201,2747
116.5052,40.01101,202,2747
116.5052,40.01101,203,2747
116.5052,40.01101,204,2747
116.50519,40.01101,205,2747
116.5052,40.01101,206,2747
116.5052,40.01101,207,2747
116.5052,40.01101,208,2747
116.50521,40.01101,209,2747
116.50521,40.01101,210,2747
116.50521,40.01101,211,2747
116.50521,40.01101,212,2747
116.50521,40.01101,213,2747
116.50521,40.01101,214,2747
116.50522,40.01101,215,2747
116.50521,40.01101,216,2747
116.50522,40.01101,217,2747
116.50522,40.01101,218,2747
116.50522,40.01101,219,2747
116.50522,40.01101,220,2747
116.50522,40.011,221,2747
116.50522,40.011,222,2747
116.50522,40.011,223,2747
116.50522,40.011,224,2747
116.50522,40.011,225,2747
116.50522,40.011,226,2747
116.50522,40.011,227,2747
116.50522,40.011,228,2747
116.50523,40.011,229,2747
116.50523,40.011,230,2747
116.50523,40.011,231,2747
116.50601,40.01102,232,2747
116.506,40.01103,233,2747
116.49404,39.99604,234,2747
116.48336,39.98695,235,2747
116.47226,39.96396,236,2747
116.4836,39.9173,237,2747
116.47387,39.90751,238,2747
116.52385,40.03362,239,2747
116.56401,40.0719,240,2747
116.58153,40.06962,241,2747
116.58147,40.07651,242,2747
116.58167,40.07638,243,2747
116.58274,40.07471,244,2747
116.58703,40.07722,245,2747
116.56031,40.03226,246,2747
116.44712,39.95577,247,2747
116.4551,39.92744,248,2747
116.45568,39.91086,249,2747
116.45507,39.89044,250,2747
116.45471,39.88372,251,2747
116.4478,39.8787,252,2747
116.44693,39.87961,253,2747
116.45275,39.87225,254,2747
116.44953,39.88304,255,2747
116.43025,39.89958,256,2747
116.42221,39.90354,257,2747
116.42757,39.89385,258,2747
116.40688,39.89175,259,2747
116.40688,39.89175,260,2747
116.41215,39.89776,261,2747
116.40599,39.89908,262,2747
116.39327,39.90494,263,2747
116.38834,39.9063,264,2747
116.3708,39.93792,265,2747
116.37744,39.93163,266,2747
116.39909,39.932,267,2747
116.41926,39.93222,268,2747
116.44618,39.93229,269,2747
116.48346,39.9331,270,2747
116.50007,39.93256,271,2747
116.50009,39.93257,272,2747
116.50011,39.93258,273,2747
116.49929,39.93034,274,2747
116.4885,39.92198,275,2747
116.47234,39.92974,276,2747
116.46091,39.92987,277,2747
116.45514,39.92922,278,2747
116.45526,39.92743,279,2747
116.45036,39.9272,280,2747
116.44508,39.93258,281,2747
116.44407,39.91612,282,2747
116.45805,39.90693,283,2747
116.48217,39.89939,284,2747
116.48405,39.9017,285,2747
116.49023,39.91468,286,2747
116.46678,39.91468,287,2747
116.44663,39.92153,288,2747
116.44663,39.92153,289,2747
116.39634,39.93198,290,2747
116.472,39.93235,291,2747
116.48535,39.93749,292,2747
116.46871,39.93635,293,2747
116.45615,39.93276,294,2747
116.44924,39.93093,295,2747
116.44402,39.91197,296,2747
116.40586,39.90678,297,2747
116.34065,39.91264,298,2747
116.35667,39.91254,299,2747
116.37131,39.91313,300,2747
116.39753,39.9227,301,2747
116.41152,39.91438,302,2747
116.34806,39.89707,303,2747
116.27737,39.84855,304,2747
116.28002,39.84021,305,2747
116.28002,39.84021,306,2747
116.30758,39.85675,307,2747
116.35763,39.87857,308,2747
116.38893,39.88902,309,2747
116.40052,39.90646,310,2747
116.41138,39.9115,311,2747
116.41135,39.91153,312,2747
116.41137,39.91152,313,2747
116.4114,39.91151,314,2747
116.41133,39.9116,315,2747
116.41138,39.91159,316,2747
116.41141,39.91156,317,2747
116.41142,39.91156,318,2747
116.41142,39.91155,319,2747
116.41143,39.91155,320,2747
116.41143,39.91155,321,2747
116.41143,39.91154,322,2747
116.41144,39.91153,323,2747
116.41144,39.91153,324,2747
116.41144,39.91153,325,2747
116.41144,39.91153,326,2747
116.4141,39.92286,327,2747
116.45102,39.91853,328,2747
116.52435,39.9157,329,2747
116.55152,39.91672,330,2747
116.51534,39.91472,331,2747
116.51637,39.9081,332,2747
116.51637,39.9081,333,2747
116.5162,39.9083,334,2747
116.51647,39.90851,335,2747
116.51657,39.9084,336,2747
116.51651,39.90842,337,2747
116.5165,39.90821,338,2747
116.51655,39.90834,339,2747
116.51633,39.90807,340,2747
116.51664,39.90824,341,2747
116.51663,39.90828,342,2747
116.51657,39.90828,343,2747
116.51643,39.90837,344,2747
116.51621,39.90811,345,2747
116.51622,39.90813,346,2747
116.5162,39.90818,347,2747
116.51618,39.9082,348,2747
116.51619,39.90821,349,2747
116.51618,39.90823,350,2747
116.51619,39.90823,351,2747
116.51654,39.9085,352,2747
116.51669,39.90844,353,2747
116.51651,39.90822,354,2747
116.51647,39.90825,355,2747
116.51652,39.90843,356,2747
116.51651,39.90844,357,2747
116.51653,39.90845,358,2747
116.51653,39.90846,359,2747
116.51637,39.90863,360,2747
116.51637,39.90863,361,2747
116.51644,39.90856,362,2747
116.51644,39.90856,363,2747
116.51584,39.9083,364,2747
116.51618,39.90857,365,2747
116.51624,39.9085,366,2747
116.51608,39.90856,367,2747
116.51644,39.90844,368,2747
116.48813,39.90758,369,2747
116.467,39.90744,370,2747
116.43067,39.90731,371,2747
116.4168,39.9143,372,2747
116.40063,39.91222,373,2747
116.40686,39.90918,374,2747
116.40687,39.90905,375,2747
116.40705,39.90877,376,2747
116.40409,39.91399,377,2747
116.40684,39.90917,378,2747
116.407,39.90881,379,2747
116.40692,39.90944,380,2747
116.40689,39.90939,381,2747
116.40048,39.90833,382,2747
116.40552,39.9092,383,2747
116.41129,39.92267,384,2747
116.44365,39.92135,385,2747
116.45554,39.93024,386,2747
116.4606,39.97181,387,2747
116.34681,40.00027,388,2747
116.38157,39.98612,389,2747
116.42007,39.98736,390,2747
116.42007,39.98736,391,2747
116.45349,39.97616,392,2747
116.48038,39.9864,393,2747
116.4935,39.99889,394,2747
116.50576,40.01055,395,2747
116.50567,40.01056,396,2747
116.50533,40.01098,397,2747
116.50537,40.011,398,2747
116.50537,40.01098,399,2747
116.50538,40.01099,400,2747
116.50539,40.01098,401,2747
116.50539,40.01098,402,2747
116.50539,40.01098,403,2747
116.50539,40.01098,404,2747
116.5054,40.01099,405,2747
116.5054,40.01099,406,2747
116.5054,40.01099,407,2747
116.5054,40.01098,408,2747
116.50541,40.01098,409,2747
116.50541,40.01098,410,2747
116.50541,40.01098,411,2747
116.50541,40.01098,412,2747
116.50542,40.01098,413,2747
116.50542,40.01098,414,2747
116.50667,40.01101,415,2747
116.4742,39.98909,416,2747
116.45905,39.98663,417,2747
116.47344,39.98815,418,2747
116.47344,39.98815,419,2747
116.48066,39.98844,420,2747
116.48066,39.98844,421,2747
116.48144,39.98794,422,2747
116.48352,39.97241,423,2747
116.49048,39.97062,424,2747
116.49049,39.9706,425,2747
116.4905,39.97059,426,2747
116.48374,39.95793,427,2747
116.47981,39.9562,428,2747
116.45885,39.94903,429,2747
116.4536,39.94575,430,2747
116.44911,39.94582,431,2747
116.44898,39.94594,432,2747
116.44965,39.94606,433,2747
116.44989,39.94623,434,2747
116.44832,39.94652,435,2747
116.44921,39.94617,436,2747
116.44672,39.94733,437,2747
116.44657,39.94723,438,2747
116.48431,39.9324,439,2747
116.49507,39.92198,440,2747
116.47183,39.92104,441,2747
116.48167,39.93222,442,2747
116.48167,39.93222,443,2747
116.48351,39.88648,444,2747
116.48351,39.88648,445,2747
116.46551,39.83674,446,2747
116.4422,39.82765,447,2747
116.44365,39.82552,448,2747
116.44365,39.82552,449,2747
116.44364,39.82547,450,2747
116.44393,39.82576,451,2747
116.43976,39.84811,452,2747
116.45195,39.8639,453,2747
116.47061,39.95266,454,2747
116.44992,39.8717,455,2747
116.44983,39.87197,456,2747
116.44985,39.87199,457,2747
116.44985,39.87202,458,2747
116.4503,39.87186,459,2747
116.45498,39.88179,460,2747
116.45546,39.88657,461,2747
116.45554,39.88695,462,2747
116.45549,39.88671,463,2747
116.45555,39.88653,464,2747
116.45575,39.89093,465,2747
116.45584,39.90374,466,2747
116.45281,39.9109,467,2747
116.4539,39.91808,468,2747
116.45531,39.91771,469,2747
116.44779,39.92197,470,2747
116.44424,39.93207,471,2747
116.44424,39.93207,472,2747
116.43076,39.93251,473,2747
116.41112,39.93233,474,2747
116.39125,39.93215,475,2747
116.37431,39.93167,476,2747
116.34972,39.92675,477,2747
116.35345,39.91031,478,2747
116.35138,39.91702,479,2747
116.35143,39.91703,480,2747
116.35154,39.91718,481,2747
116.35343,39.92188,482,2747
116.36914,39.92262,483,2747
116.37783,39.9211,484,2747
116.38662,39.92164,485,2747
116.40436,39.92288,486,2747
116.41213,39.92292,487,2747
116.42783,39.92542,488,2747
116.43475,39.93974,489,2747
116.44294,39.94697,490,2747
116.44546,39.94642,491,2747
116.44919,39.94024,492,2747
116.44438,39.94438,493,2747
116.4424,39.95102,494,2747
116.45182,39.95606,495,2747
116.44457,39.9596,496,2747
116.43827,39.96322,497,2747
116.44069,39.96422,498,2747
116.43447,39.96578,499,2747
116.41855,39.97403,500,2747
116.41801,39.9864,501,2747
116.41824,39.99482,502,2747
116.41876,40.00246,503,2747
116.41045,39.9976,504,2747
116.40588,39.98765,505,2747
116.37998,39.98668,506,2747
116.34664,39.99185,507,2747
116.34729,39.96616,508,2747
116.41084,39.99719,509,2747
116.41083,39.98499,510,2747
116.41494,39.96813,511,2747
116.35914,39.96665,512,2747
116.35887,39.96667,513,2747
116.35856,39.96672,514,2747
116.35858,39.96672,515,2747
116.31574,39.93183,516,2747
116.29583,39.9319,517,2747
116.35166,39.93936,518,2747
116.35167,39.93932,519,2747
116.35168,39.93929,520,2747
116.34996,39.92287,521,2747
116.34641,39.90517,522,2747
116.35578,39.90448,523,2747
116.35518,39.90348,524,2747
116.34858,39.91706,525,2747
116.34529,39.92032,526,2747
116.34707,39.92414,527,2747
116.36687,39.92255,528,2747
116.38554,39.92165,529,2747
116.40037,39.9181,530,2747
116.38016,39.92121,531,2747
116.35915,39.92249,532,2747
116.35915,39.92249,533,2747
116.34721,39.92935,534,2747
116.35508,39.95772,535,2747
116.35508,39.95681,536,2747
116.37481,39.94649,537,2747
116.38956,39.93887,538,2747
116.40697,39.93942,539,2747
116.4283,39.93957,540,2747
116.44932,39.94559,541,2747
116.45091,39.95493,542,2747
116.45121,39.95499,543,2747
116.43516,39.94757,544,2747
116.33959,39.90352,545,2747
116.35558,39.90438,546,2747
116.35516,39.9048,547,2747
116.35535,39.90394,548,2747
116.35534,39.90386,549,2747
116.35578,39.904,550,2747
116.35582,39.9045,551,2747
116.35563,39.90406,552,2747
116.35652,39.90372,553,2747
116.35635,39.90386,554,2747
116.35569,39.90398,555,2747
116.35551,39.90353,556,2747
116.34991,39.93505,557,2747
116.36348,39.96592,558,2747
116.36363,39.97943,559,2747
116.39775,39.9868,560,2747
116.44405,39.98249,561,2747
116.45676,39.98857,562,2747
116.44653,40.01973,563,2747
116.41469,40.02116,564,2747
116.41028,40.00331,565,2747
116.48296,39.98662,566,2747
116.47341,39.97517,567,2747
116.47336,39.9751,568,2747
116.47339,39.97509,569,2747
116.47339,39.97509,570,2747
116.4734,39.97509,571,2747
116.47332,39.97504,572,2747
116.47342,39.97513,573,2747
116.47341,39.97515,574,2747
116.47341,39.97515,575,2747
116.4734,39.97512,576,2747
116.47337,39.97511,577,2747
116.47337,39.97511,578,2747
116.47338,39.97514,579,2747
116.47339,39.97515,580,2747
116.47339,39.97514,581,2747
116.47339,39.97514,582,2747
116.50786,39.9974,583,2747
116.52754,40.0009,584,2747
116.52406,40.00187,585,2747
116.51172,40.00014,586,2747
116.4856,39.98932,587,2747
116.47806,39.97532,588,2747
116.46254,39.96128,589,2747
116.45371,39.95331,590,2747
116.4448,39.93991,591,2747
116.43754,39.93265,592,2747
116.43845,39.93952,593,2747
116.44441,39.94567,594,2747
116.46721,39.95064,595,2747
116.46721,39.95064,596,2747
116.46682,39.95079,597,2747
116.46743,39.95087,598,2747
116.46725,39.95072,599,2747
116.46744,39.95077,600,2747
116.46744,39.95077,601,2747
116.4671,39.95032,602,2747
116.4671,39.95032,603,2747
116.46706,39.95029,604,2747
116.46711,39.9502,605,2747
116.46773,39.95055,606,2747
116.46773,39.95056,607,2747
116.48368,39.9346,608,2747
116.51076,39.92192,609,2747
116.51258,39.92201,610,2747
116.48405,39.9241,611,2747
116.46801,39.93254,612,2747
116.46734,39.95079,613,2747
116.46693,39.95064,614,2747
116.46789,39.95091,615,2747
116.48376,39.97988,616,2747
116.4896,39.99495,617,2747
116.49957,40.00437,618,2747
116.50547,40.01055,619,2747
116.50566,40.01052,620,2747
116.50538,40.01103,621,2747
116.50537,40.01102,622,2747
116.50595,40.01107,623,2747
116.48421,39.99002,624,2747
116.46642,39.96784,625,2747
116.48324,39.92352,626,2747
116.51109,39.92191,627,2747
116.51109,39.92191,628,2747
116.53283,39.92225,629,2747
116.52197,39.91809,630,2747
116.48365,39.9128,631,2747
116.47468,39.8426,632,2747
116.44369,39.82527,633,2747
116.44324,39.82553,634,2747
116.44168,39.83006,635,2747
116.4821,39.86565,636,2747
116.48381,39.92213,637,2747
116.46455,39.96945,638,2747
116.48214,39.98787,639,2747
116.50708,40.01085,640,2747
116.50824,40.0098,641,2747
116.49114,39.987,642,2747
116.49235,39.97516,643,2747
116.47643,39.96865,644,2747
116.48119,39.95671,645,2747
116.47259,39.90728,646,2747
116.45432,39.8925,647,2747
116.45474,39.88333,648,2747
116.4457,39.87479,649,2747
116.44155,39.89201,650,2747
116.43695,39.89325,651,2747
116.42027,39.86991,652,2747
116.36552,39.86884,653,2747
116.36504,39.8489,654,2747
116.37267,39.84259,655,2747
116.38101,39.85236,656,2747
116.40795,39.85317,657,2747
116.40795,39.85317,658,2747
116.42348,39.8543,659,2747
116.427,39.85639,660,2747
116.42581,39.85992,661,2747
116.43047,39.89626,662,2747
116.43209,39.85974,663,2747
116.43454,39.85274,664,2747
116.43461,39.8528,665,2747
116.43589,39.85463,666,2747
116.43458,39.85281,667,2747
116.43294,39.8531,668,2747
116.43245,39.85709,669,2747
116.43885,39.86693,670,2747
116.4379,39.89534,671,2747
116.49034,39.90667,672,2747
116.52806,39.90437,673,2747
116.42835,39.87899,674,2747
116.52682,39.90437,675,2747
116.51695,39.90773,676,2747
116.31132,39.97676,677,2747
116.3273,39.97533,678,2747
116.36493,39.95552,679,2747
116.36513,39.95395,680,2747
116.36526,39.95017,681,2747
116.37693,39.9473,682,2747
116.40271,39.92866,683,2747
116.428,39.91106,684,2747
116.43746,39.90355,685,2747
116.44436,39.92905,686,2747
116.44449,39.93115,687,2747
116.44443,39.93946,688,2747
116.44719,39.94723,689,2747
116.43608,39.9396,690,2747
116.46137,39.94954,691,2747
116.50008,39.93263,692,2747
116.50008,39.93264,693,2747
116.50021,39.93261,694,2747
116.49981,39.93039,695,2747
116.49574,39.92231,696,2747
116.46961,39.92174,697,2747
116.45692,39.9325,698,2747
116.45376,39.93997,699,2747
116.44466,39.93243,700,2747
116.44411,39.94595,701,2747
116.45681,39.97434,702,2747
116.45681,39.97434,703,2747
116.45925,39.98703,704,2747
116.47178,39.97348,705,2747
116.4836,39.93145,706,2747
116.48998,39.91824,707,2747
116.46803,39.91469,708,2747
116.45263,39.9221,709,2747
116.43763,39.93206,710,2747
116.43855,39.93962,711,2747
116.43346,39.95369,712,2747
116.43112,39.96356,713,2747
116.43701,39.95849,714,2747
116.41967,39.95287,715,2747
116.4197,39.94546,716,2747
116.42632,39.93161,717,2747
116.45214,39.93238,718,2747
116.4719,39.92193,719,2747
116.43221,39.92303,720,2747
116.43436,39.94797,721,2747
116.47137,39.97824,722,2747
116.4951,40.0004,723,2747
116.50491,40.01052,724,2747
116.50491,40.01052,725,2747
116.50491,40.01053,726,2747
116.50491,40.01053,727,2747
116.5049,40.01053,728,2747
116.50491,40.01053,729,2747
116.5049,40.01053,730,2747
116.50489,40.01052,731,2747
116.50489,40.01052,732,2747
116.50489,40.01051,733,2747
116.50489,40.0105,734,2747
116.5049,40.01049,735,2747
116.5049,40.01048,736,2747
116.50489,40.01049,737,2747
116.50489,40.01049,738,2747
116.50489,40.01048,739,2747
116.50489,40.01048,740,2747
116.50489,40.01048,741,2747
116.50488,40.01048,742,2747
116.50475,40.01067,743,2747
116.5048,40.01045,744,2747
116.50481,40.01046,745,2747
116.50487,40.01045,746,2747
116.50474,40.01046,747,2747
116.50474,40.01046,748,2747
116.50476,40.0105,749,2747
116.50479,40.01047,750,2747
116.50479,40.01053,751,2747
116.50488,40.01051,752,2747
116.50489,40.01053,753,2747
116.50489,40.01053,754,2747
116.50491,40.01054,755,2747
116.50491,40.01052,756,2747
116.50492,40.01052,757,2747
116.50492,40.0105,758,2747
116.50492,40.0105,759,2747
116.50492,40.0105,760,2747
116.50491,40.01049,761,2747
116.50491,40.01048,762,2747
116.50491,40.01048,763,2747
116.50491,40.01048,764,2747
116.50491,40.01048,765,2747
116.50492,40.01047,766,2747
116.50491,40.01047,767,2747
116.50491,40.01047,768,2747
116.5049,40.01047,769,2747
116.5049,40.01046,770,2747
116.5049,40.01046,771,2747
116.5049,40.01046,772,2747
116.50489,40.01037,773,2747
116.50489,40.01041,774,2747
116.50483,40.01046,775,2747
116.50483,40.01046,776,2747
116.50483,40.01047,777,2747
116.50484,40.0105,778,2747
116.50484,40.01034,779,2747
116.50472,40.01076,780,2747
116.50508,40.01018,781,2747
116.50486,40.01064,782,2747
116.50486,40.01064,783,2747
116.50486,40.01063,784,2747
116.50485,40.0106,785,2747
116.50484,40.01058,786,2747
116.50484,40.01059,787,2747
116.50483,40.01059,788,2747
116.50483,40.01059,789,2747
116.50484,40.01059,790,2747
116.50485,40.01059,791,2747
116.50485,40.01058,792,2747
116.50485,40.01057,793,2747
116.50486,40.01056,794,2747
116.50486,40.01056,795,2747
116.50456,40.01017,796,2747
116.50486,40.01047,797,2747
116.50487,40.01047,798,2747
116.50486,40.01045,799,2747
116.50486,40.01045,800,2747
116.50486,40.01045,801,2747
116.50484,40.01044,802,2747
116.50484,40.01044,803,2747
116.50484,40.01044,804,2747
116.50489,40.01062,805,2747
116.50463,40.01063,806,2747
116.50475,40.01055,807,2747
116.50478,40.01054,808,2747
116.50479,40.01054,809,2747
116.5048,40.01054,810,2747
116.5048,40.01054,811,2747
116.50482,40.01053,812,2747
116.50483,40.01054,813,2747
116.50483,40.01053,814,2747
116.50483,40.01053,815,2747
116.50483,40.01053,816,2747
116.50483,40.01053,817,2747
116.50483,40.01054,818,2747
116.50483,40.01053,819,2747
116.50481,40.01053,820,2747
116.5048,40.01053,821,2747
116.50478,40.01053,822,2747
116.50477,40.01053,823,2747
116.5049,40.01076,824,2747
116.50489,40.01072,825,2747
116.50487,40.0104,826,2747
116.50486,40.01042,827,2747
116.50484,40.01043,828,2747
116.50485,40.01044,829,2747
116.50486,40.01042,830,2747
116.50486,40.01043,831,2747
116.50486,40.01043,832,2747
116.50489,40.01044,833,2747
116.50488,40.01045,834,2747
116.50488,40.01046,835,2747
116.50483,40.01044,836,2747
116.50488,40.01043,837,2747
116.50511,40.01034,838,2747
116.50511,40.01034,839,2747
116.50518,40.01049,840,2747
116.50496,40.01052,841,2747
116.50481,40.01053,842,2747
116.50484,40.01052,843,2747
116.5049,40.01043,844,2747
116.50491,40.01038,845,2747
116.50474,40.01054,846,2747
116.50479,40.01052,847,2747
116.50481,40.0105,848,2747
116.5048,40.0105,849,2747
116.50481,40.0105,850,2747
116.50481,40.01051,851,2747
116.50484,40.0105,852,2747
116.50471,40.01075,853,2747
116.50475,40.0107,854,2747
116.50484,40.01038,855,2747
116.50484,40.01039,856,2747
116.5047,40.01053,857,2747
116.50475,40.01055,858,2747
116.50489,40.01041,859,2747
116.50487,40.01045,860,2747
116.50486,40.01048,861,2747
116.50484,40.01049,862,2747
116.50483,40.01047,863,2747
116.5052,40.01016,864,2747
116.48844,39.99385,865,2747
116.47299,39.97081,866,2747
116.48371,39.93278,867,2747
116.48371,39.93278,868,2747
116.44735,39.90735,869,2747
116.40746,39.90699,870,2747
116.41105,39.90893,871,2747
116.42023,39.91926,872,2747
116.43042,39.92877,873,2747
116.43055,39.92858,874,2747
116.43048,39.92882,875,2747
116.43059,39.92891,876,2747
116.43097,39.92879,877,2747
116.43029,39.929,878,2747
116.44159,39.93973,879,2747
116.45474,39.94752,880,2747
116.45653,39.94791,881,2747
116.45655,39.9479,882,2747
116.45657,39.94802,883,2747
116.45656,39.94805,884,2747
116.45656,39.94805,885,2747
116.45768,39.9486,886,2747
116.45558,39.913,887,2747
116.43778,39.91154,888,2747
116.45312,39.91883,889,2747
116.45156,39.91679,890,2747
116.45539,39.90941,891,2747
116.41027,39.9479,892,2747
116.36969,39.9477,893,2747
116.36969,39.9477,894,2747
116.35519,39.95793,895,2747
116.36013,39.96621,896,2747
116.36816,39.97535,897,2747
116.37129,39.98993,898,2747
116.33778,40.0337,899,2747
116.33133,39.97518,900,2747
116.3329,40.00088,901,2747
116.34733,39.97858,902,2747
116.30359,39.92284,903,2747
116.29641,39.91677,904,2747
116.31674,39.89592,905,2747
116.31487,39.90845,906,2747
116.30765,39.89543,907,2747
116.30787,39.89556,908,2747
116.30787,39.89556,909,2747
116.30787,39.89556,910,2747
116.30787,39.89556,911,2747
116.30787,39.89556,912,2747
116.30787,39.89556,913,2747
116.30787,39.89556,914,2747
116.30787,39.89556,915,2747
116.30787,39.89556,916,2747
116.30787,39.89556,917,2747
116.30787,39.89556,918,2747
116.30787,39.89556,919,2747
116.30787,39.89556,920,2747
116.30787,39.89556,921,2747
116.30787,39.89556,922,2747
116.30787,39.89556,923,2747
116.30787,39.89556,924,2747
116.30787,39.89556,925,2747
116.30787,39.89556,926,2747
116.30787,39.89556,927,2747
116.30787,39.89556,928,2747
116.30787,39.89556,929,2747
116.30787,39.89556,930,2747
116.30787,39.89556,931,2747
116.30787,39.89556,932,2747
116.30787,39.89556,933,2747
116.30787,39.89556,934,2747
116.35748,39.90569,935,2747
116.39801,39.90636,936,2747
116.42086,39.90538,937,2747
116.4138,39.91277,938,2747
116.40515,39.91422,939,2747
116.41439,39.92275,940,2747
116.42318,39.91398,941,2747
116.42871,39.90759,942,2747
116.42838,39.92744,943,2747
116.43551,39.947,944,2747
116.43552,39.94698,945,2747
116.43541,39.94726,946,2747
116.43913,39.94777,947,2747
116.44189,39.96111,948,2747
116.45124,39.95509,949,2747
116.43928,39.94941,950,2747
116.43845,39.93921,951,2747
116.43465,39.92582,952,2747
116.47192,39.91618,953,2747
116.44922,39.92691,954,2747
116.45102,39.92856,955,2747
116.44415,39.93183,956,2747
116.45593,39.93835,957,2747
116.454,39.95328,958,2747
116.47466,39.977,959,2747
116.47347,39.97505,960,2747
116.46886,39.96688,961,2747
116.46606,39.95143,962,2747
116.4537,39.95346,963,2747
116.45092,39.95544,964,2747
116.45055,39.95535,965,2747
116.41437,39.97647,966,2747
116.45539,39.94924,967,2747
116.45556,39.93225,968,2747
116.48291,39.93237,969,2747
116.49931,39.93016,970,2747
116.49615,39.93046,971,2747
116.45577,39.9394,972,2747
116.44904,39.93857,973,2747
116.43876,39.93986,974,2747
116.42066,39.93953,975,2747
116.4109,39.93189,976,2747
116.41297,39.92286,977,2747
116.43377,39.92226,978,2747
116.43494,39.92288,979,2747
116.45509,39.93999,980,2747
116.41725,39.968,981,2747
116.39504,39.96768,982,2747
116.389,39.95223,983,2747
116.38766,39.94476,984,2747
116.37419,39.94902,985,2747
116.34081,39.95685,986,2747
116.37835,39.97106,987,2747
116.40197,39.96745,988,2747
116.44258,39.96296,989,2747
116.39144,39.97104,990,2747
116.39153,39.96744,991,2747
116.40051,39.97555,992,2747
116.40252,39.97861,993,2747
116.41108,39.98207,994,2747
116.41148,39.99957,995,2747
116.40153,39.98741,996,2747
116.36359,39.97416,997,2747
116.36649,39.9386,998,2747
116.34925,39.93816,999,2747
116.34235,39.8903,1000,2747
116.33574,39.8785,1001,2747
116.33574,39.8785,1002,2747
116.33585,39.87879,1003,2747
116.33582,39.87884,1004,2747
116.33582,39.87896,1005,2747
116.32996,39.87058,1006,2747
116.31055,39.86685,1007,2747
116.32525,39.86666,1008,2747
116.34748,39.85032,1009,2747
116.39405,39.8444,1010,2747
116.39383,39.85953,1011,2747
116.39284,39.87941,1012,2747
116.40756,39.88711,1013,2747
116.40123,39.88803,1014,2747
116.34713,39.88573,1015,2747
116.35638,39.888,1016,2747
116.41195,39.89137,1017,2747
116.43718,39.89705,1018,2747
116.42802,39.93559,1019,2747
116.43318,39.95786,1020,2747
116.4379,39.96528,1021,2747
116.4379,39.96528,1022,2747
116.45488,39.95379,1023,2747
116.46772,39.9441,1024,2747
116.46772,39.9441,1025,2747
116.4802,39.93226,1026,2747
116.4674,39.93427,1027,2747
116.456,39.94417,1028,2747
116.45609,39.94585,1029,2747
116.4561,39.94586,1030,2747
116.45765,39.94549,1031,2747
116.45524,39.94756,1032,2747
116.45529,39.94434,1033,2747
116.45208,39.94259,1034,2747
116.46209,39.94974,1035,2747
116.46727,39.95086,1036,2747
116.46622,39.95033,1037,2747
116.4662,39.95036,1038,2747
116.4662,39.95036,1039,2747
116.46874,39.95091,1040,2747
116.46676,39.95116,1041,2747
116.46795,39.95109,1042,2747
116.46651,39.95077,1043,2747
116.46651,39.95077,1044,2747
116.46722,39.95081,1045,2747
116.46625,39.95071,1046,2747
116.4673,39.95093,1047,2747
116.46599,39.95078,1048,2747
116.467,39.95092,1049,2747
116.46736,39.95088,1050,2747
116.46705,39.95087,1051,2747
116.46705,39.95087,1052,2747
116.46721,39.95118,1053,2747
116.46655,39.95072,1054,2747
116.467,39.95086,1055,2747
116.46681,39.95092,1056,2747
116.46816,39.95069,1057,2747
116.46744,39.95081,1058,2747
116.46706,39.95083,1059,2747
116.46706,39.95083,1060,2747
116.47671,39.95473,1061,2747
116.54956,40.06489,1062,2747
116.54955,40.06489,1063,2747
116.53009,40.04592,1064,2747
116.50669,40.01091,1065,2747
116.50499,40.01047,1066,2747
116.505,40.01051,1067,2747
116.505,40.01052,1068,2747
116.50497,40.01053,1069,2747
116.5058,40.01017,1070,2747
116.5049,40.01048,1071,2747
116.50489,40.01048,1072,2747
116.50492,40.01051,1073,2747
116.50492,40.01053,1074,2747
116.50492,40.01052,1075,2747
116.50493,40.01052,1076,2747
116.50492,40.01051,1077,2747
116.50492,40.01051,1078,2747
116.50492,40.01052,1079,2747
116.50492,40.01052,1080,2747
116.50532,40.01034,1081,2747
116.50476,40.0107,1082,2747
116.50502,40.01059,1083,2747
116.50504,40.01053,1084,2747
116.50502,40.0105,1085,2747
116.50498,40.01048,1086,2747
116.50496,40.01047,1087,2747
116.50494,40.01047,1088,2747
116.50493,40.01046,1089,2747
116.50494,40.01045,1090,2747
116.50494,40.01044,1091,2747
116.50494,40.01045,1092,2747
116.50495,40.01046,1093,2747
116.50495,40.01046,1094,2747
116.50502,40.01042,1095,2747
116.50502,40.01042,1096,2747
116.50502,40.01042,1097,2747
116.50503,40.01043,1098,2747
116.505,40.01006,1099,2747
116.50489,40.01048,1100,2747
116.50489,40.01046,1101,2747
116.50491,40.01045,1102,2747
116.50496,40.01052,1103,2747
116.50501,40.01066,1104,2747
116.505,40.01068,1105,2747
116.505,40.01068,1106,2747
116.50495,40.01053,1107,2747
116.50499,40.01059,1108,2747
116.50502,40.01061,1109,2747
116.50502,40.01061,1110,2747
116.50502,40.01062,1111,2747
116.49396,39.99952,1112,2747
116.47669,39.98403,1113,2747
116.43367,39.96616,1114,2747
116.30382,39.90445,1115,2747
116.32266,39.89551,1116,2747
116.33698,39.89611,1117,2747
116.38867,39.89021,1118,2747
116.41253,39.89145,1119,2747
116.43317,39.89328,1120,2747
116.43032,39.8336,1121,2747
116.40858,39.84397,1122,2747
116.40758,39.85577,1123,2747
116.30621,39.869,1124,2747
116.39309,39.89853,1125,2747
116.39309,39.89853,1126,2747
116.40866,39.91328,1127,2747
116.3996,39.92879,1128,2747
116.34859,39.93566,1129,2747
116.35199,39.95252,1130,2747
116.37285,39.94794,1131,2747
116.37823,39.93422,1132,2747
116.39833,39.93194,1133,2747
116.42026,39.8992,1134,2747
116.44946,39.88295,1135,2747
116.45015,39.87233,1136,2747
116.42076,39.9684,1137,2747
116.45638,39.88302,1138,2747
116.45069,39.87506,1139,2747
116.45551,39.89096,1140,2747
116.44781,39.90662,1141,2747
116.43364,39.89806,1142,2747
116.42702,39.88296,1143,2747
116.41294,39.89544,1144,2747
116.42504,39.88394,1145,2747
116.4192,39.87976,1146,2747
116.39586,39.80602,1147,2747
116.39567,39.82449,1148,2747
116.39567,39.82449,1149,2747
116.40418,39.85542,1150,2747
116.40877,39.85754,1151,2747
116.45431,39.87461,1152,2747
116.43796,39.92238,1153,2747
116.44593,39.92083,1154,2747
116.45483,39.92391,1155,2747
116.43594,39.92277,1156,2747
116.35045,39.93086,1157,2747
116.35751,39.93951,1158,2747
116.36078,39.92646,1159,2747
116.37582,39.9291,1160,2747
116.39193,39.93196,1161,2747
116.40202,39.94646,1162,2747
116.40106,39.95974,1163,2747
116.40142,39.98887,1164,2747
116.41013,40.00926,1165,2747
116.40957,40.03914,1166,2747
116.41092,40.05999,1167,2747
116.42269,40.06513,1168,2747
116.41496,40.06065,1169,2747
116.40769,40.05579,1170,2747
116.40261,40.02365,1171,2747
116.36882,40.00842,1172,2747
116.37419,39.99956,1173,2747
116.38164,39.97593,1174,2747
116.38164,39.97593,1175,2747
116.39845,39.96111,1176,2747
116.39159,39.94776,1177,2747
116.38902,39.95311,1178,2747
116.40234,39.93957,1179,2747
116.41961,39.93056,1180,2747
116.42073,39.9073,1181,2747
116.41176,39.92271,1182,2747
116.39011,39.93424,1183,2747
116.40605,39.93914,1184,2747
116.4508,39.93966,1185,2747
116.47256,39.96988,1186,2747
116.49748,39.97519,1187,2747
116.49183,39.97081,1188,2747
116.47583,39.96434,1189,2747
116.44313,39.92161,1190,2747
116.43464,39.92463,1191,2747
116.45521,39.92901,1192,2747
116.45875,39.90728,1193,2747
116.45516,39.86155,1194,2747
116.41021,39.85603,1195,2747
116.39873,39.86392,1196,2747
116.41209,39.90529,1197,2747
116.42286,39.92052,1198,2747
116.42596,39.93225,1199,2747
116.43036,39.93947,1200,2747
116.45591,39.94761,1201,2747
116.47296,39.97049,1202,2747
116.49977,40.00462,1203,2747
116.50585,40.01201,1204,2747
116.50478,40.00969,1205,2747
116.50478,40.00968,1206,2747
116.50477,40.00969,1207,2747
116.50476,40.00968,1208,2747
116.50474,40.00969,1209,2747
116.50474,40.00969,1210,2747
116.50473,40.00968,1211,2747
116.50472,40.00968,1212,2747
116.50471,40.00967,1213,2747
116.50471,40.00967,1214,2747
116.5047,40.00967,1215,2747
116.50469,40.00967,1216,2747
116.50469,40.00967,1217,2747
116.50468,40.00967,1218,2747
116.50448,40.00961,1219,2747
116.50445,40.00956,1220,2747
116.50456,40.00961,1221,2747
116.50457,40.00959,1222,2747
116.50458,40.00959,1223,2747
116.50458,40.00961,1224,2747
116.50458,40.00968,1225,2747
116.50458,40.00968,1226,2747
116.50459,40.00959,1227,2747
116.50456,40.00984,1228,2747
116.50427,40.00942,1229,2747
116.50426,40.00941,1230,2747
116.50427,40.00936,1231,2747
116.5043,40.00938,1232,2747
116.50434,40.00937,1233,2747
116.50436,40.00938,1234,2747
116.50465,40.00956,1235,2747
116.50468,40.00957,1236,2747
116.50469,40.00957,1237,2747
116.50471,40.00958,1238,2747
116.50471,40.00959,1239,2747
116.50472,40.0096,1240,2747
116.50472,40.00961,1241,2747
116.50472,40.00962,1242,2747
116.50472,40.00963,1243,2747
116.50471,40.00964,1244,2747
116.50471,40.00965,1245,2747
116.50471,40.00965,1246,2747
116.5047,40.00966,1247,2747
116.5047,40.00966,1248,2747
116.50471,40.00966,1249,2747
116.50471,40.00967,1250,2747
116.50471,40.00967,1251,2747
116.50471,40.00967,1252,2747
116.50471,40.00968,1253,2747
116.50466,40.00967,1254,2747
116.50466,40.00968,1255,2747
116.50466,40.00968,1256,2747
116.50468,40.00968,1257,2747
116.50469,40.00969,1258,2747
116.50468,40.0097,1259,2747
116.50467,40.00972,1260,2747
116.50468,40.00973,1261,2747
116.50468,40.00973,1262,2747
116.50468,40.00974,1263,2747
116.50468,40.00974,1264,2747
116.50468,40.00974,1265,2747
116.5048,40.00969,1266,2747
116.50477,40.00969,1267,2747
116.50478,40.00967,1268,2747
116.50478,40.00967,1269,2747
116.50476,40.00966,1270,2747
116.50476,40.00966,1271,2747
116.50477,40.00965,1272,2747
116.50477,40.00964,1273,2747
116.50477,40.00964,1274,2747
116.50477,40.00964,1275,2747
116.50476,40.00965,1276,2747
116.50476,40.00965,1277,2747
116.50476,40.00966,1278,2747
116.50475,40.00966,1279,2747
116.50474,40.00966,1280,2747
116.50474,40.00966,1281,2747
116.50474,40.00966,1282,2747
116.50473,40.00966,1283,2747
116.50473,40.00966,1284,2747
116.5045,40.00988,1285,2747
116.5046,40.00953,1286,2747
116.50465,40.00972,1287,2747
116.50447,40.00945,1288,2747
116.50449,40.00956,1289,2747
116.50449,40.00957,1290,2747
116.50453,40.00973,1291,2747
116.50452,40.00971,1292,2747
116.50451,40.00972,1293,2747
116.50452,40.00974,1294,2747
116.50454,40.00975,1295,2747
116.50454,40.00975,1296,2747
116.50455,40.00976,1297,2747
116.50254,40.007,1298,2747
116.48122,39.98833,1299,2747
116.48122,39.98833,1300,2747
116.47607,39.98332,1301,2747
116.47338,39.97509,1302,2747
116.47339,39.97511,1303,2747
116.46724,39.96583,1304,2747
116.45454,39.95158,1305,2747
116.44596,39.96266,1306,2747
116.43806,39.9591,1307,2747
116.42445,39.94858,1308,2747
116.41939,39.93839,1309,2747
116.41963,39.92801,1310,2747
116.42058,39.91105,1311,2747
116.42059,39.9159,1312,2747
116.42778,39.93903,1313,2747
116.4142,39.94817,1314,2747
116.36646,39.97556,1315,2747
116.34265,39.97542,1316,2747
116.31942,39.97499,1317,2747
116.3002,39.97367,1318,2747
116.29186,39.96362,1319,2747
116.30014,39.97503,1320,2747
116.32726,39.96595,1321,2747
116.33055,39.96603,1322,2747
116.34007,39.95706,1323,2747
116.36552,39.94571,1324,2747
116.36552,39.94571,1325,2747
116.36689,39.92897,1326,2747
116.36747,39.91388,1327,2747
116.36863,39.90954,1328,2747
116.35888,39.92264,1329,2747
116.3505,39.93955,1330,2747
116.35073,39.93944,1331,2747
116.35071,39.93941,1332,2747
116.32517,39.95577,1333,2747
116.5048,40.00966,1334,2747
116.32428,39.9557,1335,2747
116.3354,39.96551,1336,2747
116.36061,39.96529,1337,2747
116.36067,39.96611,1338,2747
116.36067,39.96614,1339,2747
116.33209,39.97393,1340,2747
116.37488,39.98958,1341,2747
116.37543,39.98881,1342,2747
116.37061,39.98688,1343,2747
116.36339,39.97758,1344,2747
116.34662,39.96677,1345,2747
116.34245,39.89302,1346,2747
116.34694,39.8763,1347,2747
116.34694,39.8763,1348,2747
116.35296,39.8797,1349,2747
116.35594,39.88785,1350,2747
116.37858,39.88594,1351,2747
116.3706,39.88187,1352,2747
116.3683,39.88732,1353,2747
116.34599,39.88857,1354,2747
116.31058,39.88651,1355,2747
116.30477,39.88615,1356,2747
116.30469,39.88989,1357,2747
