x,y,k,tid
116.40064,39.83694,0,281
116.40177,39.8406,1,281
116.40177,39.8406,2,281
116.39731,39.84993,3,281
116.39062,39.85584,4,281
116.38294,39.86241,5,281
116.38444,39.86229,6,281
116.38115,39.88001,7,281
116.37863,39.88688,8,281
116.3693,39.88817,9,281
116.37041,39.89133,10,281
116.3681,39.88879,11,281
116.36799,39.87011,12,281
116.36394,39.86431,13,281
116.36546,39.86601,14,281
116.36534,39.866,15,281
116.36535,39.86602,16,281
116.36534,39.86599,17,281
116.36534,39.86599,18,281
116.3617,39.8653,19,281
116.3579,39.87583,20,281
116.34204,39.87625,21,281
116.34445,39.87641,22,281
116.34067,39.85273,23,281
116.32785,39.84796,24,281
116.32597,39.8517,25,281
116.3119,39.85585,26,281
116.29294,39.85686,27,281
116.27909,39.84622,28,281
116.27723,39.83869,29,281
116.27294,39.83961,30,281
116.27293,39.8396,31,281
116.27293,39.8396,32,281
116.27295,39.83958,33,281
116.27885,39.83891,34,281
116.2807,39.83841,35,281
116.28883,39.84334,36,281
116.28175,39.84702,37,281
116.2973,39.85675,38,281
116.32381,39.8474,39,281
116.33344,39.84739,40,281
116.33548,39.84756,41,281
116.34134,39.85642,42,281
116.34308,39.87096,43,281
116.3331,39.88866,44,281
116.33329,39.89065,45,281
116.3519,39.88845,46,281
116.36641,39.8877,47,281
116.34306,39.87459,48,281
116.34231,39.86965,49,281
116.33098,39.86761,50,281
116.32904,39.87596,51,281
116.32023,39.88023,52,281
116.3205,39.88825,53,281
116.32295,39.8987,54,281
116.32951,39.9081,55,281
116.32859,39.91929,56,281
116.32802,39.92772,57,281
116.32545,39.933,58,281
116.32732,39.93176,59,281
116.32847,39.91932,60,281
116.32835,39.91309,61,281
116.34009,39.90592,62,281
116.37178,39.90566,63,281
116.38373,39.9059,64,281
116.39232,39.90615,65,281
116.39726,39.90634,66,281
116.40788,39.90664,67,281
116.41989,39.90705,68,281
116.45511,39.90288,69,281
116.45509,39.88609,70,281
116.4652,39.88283,71,281
116.46508,39.88056,72,281
116.46508,39.88056,73,281
116.4617,39.87359,74,281
116.45549,39.86996,75,281
116.45451,39.86797,76,281
116.45095,39.8632,77,281
116.44137,39.85766,78,281
116.43019,39.85748,79,281
116.41855,39.85652,80,281
116.38843,39.8557,81,281
116.38164,39.86355,82,281
116.38271,39.86365,83,281
116.40286,39.87036,84,281
116.404,39.86858,85,281
116.40316,39.86877,86,281
116.40317,39.86873,87,281
116.40318,39.86874,88,281
116.4032,39.86879,89,281
116.4032,39.86879,90,281
116.40322,39.8688,91,281
116.40321,39.8688,92,281
116.40321,39.86881,93,281
116.40321,39.86881,94,281
116.40322,39.86882,95,281
116.40322,39.86881,96,281
116.40322,39.86881,97,281
116.40323,39.86883,98,281
116.40322,39.86882,99,281
116.40321,39.86881,100,281
116.4032,39.86881,101,281
116.40319,39.86881,102,281
116.40318,39.86881,103,281
116.40319,39.86875,104,281
116.40318,39.86875,105,281
116.40318,39.86875,106,281
116.40318,39.86875,107,281
116.40317,39.86876,108,281
116.40317,39.86876,109,281
116.40319,39.86887,110,281
116.40319,39.86883,111,281
116.40317,39.86882,112,281
116.40316,39.8688,113,281
116.40317,39.86879,114,281
116.40316,39.8688,115,281
116.40314,39.86881,116,281
116.40312,39.86882,117,281
116.40313,39.86876,118,281
116.40305,39.86879,119,281
116.40305,39.86879,120,281
116.40299,39.86861,121,281
116.40297,39.86863,122,281
116.40316,39.8691,123,281
116.40295,39.8687,124,281
116.40308,39.86887,125,281
116.4031,39.86888,126,281
116.40311,39.86888,127,281
116.40313,39.86888,128,281
116.40314,39.86887,129,281
116.43315,39.8579,130,281
116.40316,39.86887,131,281
116.40316,39.86887,132,281
116.40331,39.86882,133,281
116.40319,39.86877,134,281
116.40317,39.86878,135,281
116.40316,39.86877,136,281
116.40316,39.86877,137,281
116.40315,39.86877,138,281
116.40315,39.86877,139,281
116.40314,39.86877,140,281
116.40314,39.86877,141,281
116.40314,39.86878,142,281
116.40314,39.86878,143,281
116.40314,39.86877,144,281
116.40314,39.86876,145,281
116.40315,39.86876,146,281
116.40315,39.86876,147,281
116.40315,39.86876,148,281
116.40315,39.86875,149,281
116.40316,39.86875,150,281
116.40316,39.86875,151,281
116.40316,39.86875,152,281
116.40316,39.86875,153,281
116.40317,39.86875,154,281
116.40317,39.86875,155,281
116.40317,39.86875,156,281
116.40326,39.86876,157,281
116.40325,39.86873,158,281
116.40319,39.86874,159,281
116.40305,39.86881,160,281
116.40306,39.86882,161,281
116.40306,39.86882,162,281
116.40307,39.86882,163,281
116.40308,39.86884,164,281
116.40307,39.86885,165,281
116.40308,39.86885,166,281
116.40308,39.86885,167,281
116.40308,39.86885,168,281
116.40308,39.86884,169,281
116.40309,39.86884,170,281
116.40309,39.86884,171,281
116.40309,39.86884,172,281
116.40309,39.86884,173,281
116.40309,39.86884,174,281
116.40296,39.8688,175,281
116.40296,39.8688,176,281
116.40302,39.86881,177,281
116.40313,39.86867,178,281
116.40314,39.8687,179,281
116.40313,39.86868,180,281
116.40313,39.86867,181,281
116.40311,39.86866,182,281
116.40311,39.86866,183,281
116.40311,39.86868,184,281
116.40313,39.86898,185,281
116.40312,39.86895,186,281
116.40312,39.86893,187,281
116.4031,39.86892,188,281
116.40304,39.86881,189,281
116.40304,39.86882,190,281
116.40304,39.86883,191,281
116.33653,39.88855,192,281
116.40308,39.86882,193,281
116.40308,39.86879,194,281
116.4031,39.86878,195,281
116.40313,39.86879,196,281
116.40315,39.8688,197,281
116.40315,39.86881,198,281
116.40316,39.86882,199,281
116.40317,39.86882,200,281
116.40317,39.86881,201,281
116.40317,39.86882,202,281
116.40315,39.86882,203,281
116.40315,39.86882,204,281
116.40315,39.86882,205,281
116.40312,39.86889,206,281
116.40301,39.86892,207,281
116.40303,39.8689,208,281
116.4031,39.86882,209,281
116.4031,39.86882,210,281
116.40311,39.86883,211,281
116.40312,39.86879,212,281
116.40313,39.86879,213,281
116.40315,39.86851,214,281
116.40316,39.86872,215,281
116.40314,39.86873,216,281
116.40314,39.86874,217,281
116.40313,39.86873,218,281
116.40313,39.86874,219,281
116.40746,39.86728,220,281
116.40763,39.86144,221,281
116.4077,39.85882,222,281
116.41126,39.8607,223,281
116.4286,39.86444,224,281
116.37724,39.85637,225,281
116.37724,39.85684,226,281
116.3814,39.87733,227,281
116.38621,39.88403,228,281
116.40784,39.85963,229,281
116.41502,39.86398,230,281
116.41281,39.89126,231,281
116.41497,39.87422,232,281
116.40763,39.86487,233,281
116.39645,39.86508,234,281
116.39509,39.865,235,281
116.37905,39.86941,236,281
116.40363,39.8705,237,281
116.42964,39.90526,238,281
116.43937,39.92176,239,281
116.44409,39.92085,240,281
116.4341,39.92904,241,281
116.43975,39.91781,242,281
116.4295,39.90776,243,281
116.4309,39.89629,244,281
116.41723,39.89912,245,281
116.42678,39.89629,246,281
116.42197,39.89219,247,281
116.42783,39.89209,248,281
116.45503,39.88341,249,281
116.44999,39.88151,250,281
116.45531,39.88884,251,281
116.45557,39.94959,252,281
116.43578,39.95855,253,281
116.44328,39.95843,254,281
116.43808,39.95,255,281
116.44012,39.94522,256,281
116.43756,39.93296,257,281
116.43189,39.93258,258,281
116.43191,39.93259,259,281
116.43,39.93252,260,281
116.42856,39.91406,261,281
116.42167,39.89929,262,281
116.41306,39.89182,263,281
116.41587,39.88258,264,281
116.42033,39.88257,265,281
116.40741,39.86678,266,281
116.40189,39.86393,267,281
116.40159,39.86371,268,281
116.40739,39.86735,269,281
116.43537,39.86909,270,281
116.45234,39.87,271,281
116.46153,39.8805,272,281
116.45036,39.8833,273,281
116.45036,39.8833,274,281
116.43287,39.86761,275,281
116.42862,39.86461,276,281
116.42582,39.85764,277,281
116.43191,39.85724,278,281
116.43824,39.84427,279,281
116.4406,39.84124,280,281
116.44306,39.85786,281,281
116.44658,39.8596,282,281
116.43186,39.85782,283,281
116.43008,39.85768,284,281
116.41708,39.85643,285,281
116.39539,39.85577,286,281
116.38681,39.86229,287,281
116.39328,39.8646,288,281
116.40695,39.86385,289,281
116.40695,39.86385,290,281
116.40749,39.86553,291,281
116.43251,39.86874,292,281
116.418,39.86433,293,281
116.41417,39.86819,294,281
116.41418,39.8683,295,281
116.41419,39.86832,296,281
116.41419,39.86831,297,281
116.41421,39.86832,298,281
116.41496,39.86916,299,281
116.41157,39.88651,300,281
116.4068,39.88914,301,281
116.40834,39.89915,302,281
116.40924,39.89935,303,281
116.40935,39.89946,304,281
116.4121,39.89749,305,281
116.41258,39.894,306,281
116.41514,39.86839,307,281
116.41739,39.8501,308,281
116.41747,39.84977,309,281
116.42553,39.857,310,281
116.429,39.85769,311,281
116.42891,39.85764,312,281
116.42911,39.85781,313,281
116.42903,39.85781,314,281
116.42574,39.85908,315,281
116.43329,39.87034,316,281
116.43329,39.87034,317,281
116.43341,39.87256,318,281
116.41239,39.86402,319,281
116.39678,39.86405,320,281
116.3941,39.86478,321,281
116.36419,39.86869,322,281
116.3195,39.8905,323,281
116.3114,39.88667,324,281
116.29926,39.88849,325,281
116.3033,39.89022,326,281
116.30395,39.88859,327,281
116.30903,39.88521,328,281
116.30903,39.88521,329,281
116.30903,39.88521,330,281
116.30903,39.88521,331,281
116.31336,39.88716,332,281
116.32113,39.88855,333,281
116.32204,39.88856,334,281
116.34818,39.88799,335,281
116.36176,39.88779,336,281
116.37632,39.88792,337,281
116.40293,39.86846,338,281
116.38351,39.88108,339,281
116.38691,39.88364,340,281
116.38688,39.88297,341,281
116.38159,39.86457,342,281
116.37786,39.86161,343,281
116.3824,39.85937,344,281
116.38538,39.85544,345,281
116.39915,39.86379,346,281
116.41439,39.86077,347,281
116.41075,39.85607,348,281
116.40772,39.8621,349,281
116.40724,39.87079,350,281
116.36333,39.86859,351,281
116.36333,39.86859,352,281
116.36333,39.86859,353,281
116.36333,39.86859,354,281
116.3427,39.88874,355,281
116.34987,39.89765,356,281
116.35032,39.90803,357,281
116.35023,39.91801,358,281
116.34963,39.9344,359,281
116.33839,39.93614,360,281
116.33352,39.93595,361,281
116.32744,39.93495,362,281
116.32831,39.92218,363,281
116.32836,39.91602,364,281
116.32833,39.9102,365,281
116.31587,39.90624,366,281
116.30131,39.9063,367,281
116.28976,39.90636,368,281
116.26855,39.90667,369,281
116.24743,39.90634,370,281
116.26881,39.90549,371,281
116.26934,39.92141,372,281
116.27401,39.94396,373,281
116.27401,39.94394,374,281
116.28741,39.94093,375,281
116.28741,39.94093,376,281
116.29556,39.91466,377,281
116.29611,39.91232,378,281
116.31308,39.90989,379,281
116.339,39.90179,380,281
116.34246,39.89047,381,281
116.35599,39.86704,382,281
116.35612,39.86693,383,281
116.3567,39.86732,384,281
116.40559,39.87055,385,281
116.40304,39.86862,386,281
116.40304,39.86862,387,281
116.40299,39.86865,388,281
116.4029,39.86871,389,281
116.40293,39.86873,390,281
116.40295,39.86873,391,281
116.40295,39.86872,392,281
116.40296,39.86872,393,281
116.40297,39.86872,394,281
116.40296,39.86871,395,281
116.40295,39.86871,396,281
116.40298,39.86865,397,281
116.40294,39.86868,398,281
116.40292,39.86868,399,281
116.40289,39.86872,400,281
116.40287,39.86893,401,281
116.40287,39.86893,402,281
116.40285,39.86896,403,281
116.4028,39.86888,404,281
116.4032,39.86863,405,281
116.40298,39.86884,406,281
116.40295,39.8689,407,281
116.40296,39.86889,408,281
116.40306,39.86867,409,281
116.40205,39.86894,410,281
116.40281,39.86864,411,281
116.40277,39.86873,412,281
116.40253,39.86881,413,281
116.40311,39.86873,414,281
116.40311,39.86879,415,281
116.40308,39.86877,416,281
116.40296,39.86876,417,281
116.40292,39.86876,418,281
116.40295,39.86876,419,281
116.40294,39.86873,420,281
116.40289,39.86886,421,281
116.40288,39.86883,422,281
116.40288,39.86879,423,281
116.40288,39.86877,424,281
116.40288,39.86875,425,281
116.40295,39.86874,426,281
116.40274,39.86891,427,281
116.40274,39.86891,428,281
116.40288,39.86878,429,281
116.4029,39.86874,430,281
116.4029,39.86872,431,281
116.4029,39.86871,432,281
116.40291,39.86871,433,281
116.40292,39.8687,434,281
116.40293,39.86869,435,281
116.40293,39.8687,436,281
116.40293,39.8687,437,281
116.40302,39.86873,438,281
116.40297,39.86866,439,281
116.40295,39.86867,440,281
116.4029,39.86868,441,281
116.40289,39.86869,442,281
116.40321,39.86886,443,281
116.40302,39.86874,444,281
116.40283,39.86863,445,281
116.40293,39.86867,446,281
116.403,39.86866,447,281
116.40302,39.86866,448,281
116.40304,39.86867,449,281
116.40303,39.86868,450,281
116.40304,39.86869,451,281
116.40304,39.8687,452,281
116.40303,39.86869,453,281
116.40302,39.86869,454,281
116.40301,39.86869,455,281
116.40301,39.86869,456,281
116.403,39.86869,457,281
116.403,39.86869,458,281
116.40299,39.86869,459,281
116.40298,39.86869,460,281
116.40298,39.86869,461,281
116.40298,39.86869,462,281
116.40298,39.86869,463,281
116.40298,39.86869,464,281
116.40286,39.86868,465,281
116.40283,39.86869,466,281
116.40282,39.86869,467,281
116.40278,39.86882,468,281
116.4028,39.86877,469,281
116.40281,39.86876,470,281
116.40281,39.86875,471,281
116.40282,39.86874,472,281
116.40282,39.86874,473,281
116.40283,39.86874,474,281
116.40284,39.86874,475,281
116.40283,39.86874,476,281
116.40284,39.86874,477,281
116.40297,39.86886,478,281
116.40328,39.86857,479,281
116.40299,39.86867,480,281
116.40299,39.86866,481,281
116.40297,39.86867,482,281
116.40286,39.86863,483,281
116.40282,39.86871,484,281
116.40276,39.86874,485,281
116.40276,39.86874,486,281
116.40258,39.86869,487,281
116.40274,39.86871,488,281
116.40273,39.86879,489,281
116.40272,39.86878,490,281
116.40271,39.86878,491,281
116.40272,39.86877,492,281
116.40273,39.86876,493,281
116.40281,39.86884,494,281
116.40284,39.86877,495,281
116.40293,39.86864,496,281
116.40308,39.86853,497,281
116.40284,39.86868,498,281
116.4029,39.86865,499,281
116.40291,39.86865,500,281
116.40286,39.86869,501,281
116.40291,39.86867,502,281
116.40723,39.86744,503,281
116.40726,39.86904,504,281
116.41461,39.88208,505,281
116.42149,39.89215,506,281
116.42459,39.89466,507,281
116.43305,39.89148,508,281
116.43408,39.88486,509,281
116.41493,39.87228,510,281
116.40819,39.85092,511,281
116.40863,39.84061,512,281
116.41294,39.84454,513,281
116.41033,39.84456,514,281
116.41033,39.86082,515,281
116.41033,39.86087,516,281
116.41472,39.8821,517,281
116.41221,39.89997,518,281
116.40748,39.90868,519,281
116.41857,39.89712,520,281
116.43186,39.89198,521,281
116.45009,39.88465,522,281
116.44474,39.87846,523,281
116.44649,39.87483,524,281
116.45159,39.86412,525,281
116.4079,39.85562,526,281
116.40738,39.85251,527,281
116.40782,39.85758,528,281
116.40756,39.8628,529,281
116.40732,39.86735,530,281
116.40729,39.86735,531,281
116.39375,39.8654,532,281
116.36413,39.86863,533,281
116.34267,39.88841,534,281
116.35064,39.90041,535,281
116.35029,39.91113,536,281
116.34237,39.89659,537,281
116.34175,39.88202,538,281
116.34081,39.88199,539,281
116.34472,39.89671,540,281
116.3502,39.91903,541,281
116.34632,39.93841,542,281
116.33135,39.94871,543,281
116.32948,39.95224,544,281
116.34225,39.94886,545,281
116.34588,39.93972,546,281
116.34696,39.9344,547,281
116.34722,39.93324,548,281
116.34726,39.93842,549,281
116.34939,39.93466,550,281
116.35023,39.91914,551,281
116.35252,39.91616,552,281
116.35205,39.91618,553,281
116.35205,39.91618,554,281
116.35089,39.91219,555,281
116.33519,39.91284,556,281
116.33331,39.91261,557,281
116.32145,39.90616,558,281
116.32145,39.90616,559,281
116.30421,39.90377,560,281
116.25975,39.8958,561,281
116.2371,39.8884,562,281
116.23569,39.88864,563,281
116.22962,39.89555,564,281
116.26818,39.901,565,281
116.2819,39.92291,566,281
116.29318,39.92242,567,281
116.29764,39.92248,568,281
116.30425,39.93364,569,281
116.31824,39.96585,570,281
116.37006,39.96652,571,281
116.425,39.96643,572,281
116.42045,39.96088,573,281
116.41224,39.96802,574,281
116.39577,39.96862,575,281
116.38206,39.96705,576,281
116.37222,39.98713,577,281
116.36661,39.99672,578,281
116.3705,39.98706,579,281
116.36353,39.98049,580,281
116.35952,39.97573,581,281
116.36343,39.97815,582,281
116.36461,39.95843,583,281
116.36486,39.95838,584,281
116.36379,39.96952,585,281
116.34866,39.97527,586,281
116.32831,39.97528,587,281
116.31261,39.97477,588,281
116.29225,39.97306,589,281
116.29118,39.966,590,281
116.29665,39.96713,591,281
116.30273,39.9549,592,281
116.31732,39.95127,593,281
116.31737,39.95134,594,281
116.317,39.95047,595,281
116.31855,39.94342,596,281
116.31848,39.94347,597,281
116.31881,39.94257,598,281
116.31891,39.94183,599,281
116.319,39.93078,600,281
116.34047,39.93103,601,281
116.34832,39.92682,602,281
116.34686,39.92062,603,281
116.34703,39.91399,604,281
116.34646,39.9045,605,281
116.3424,39.89699,606,281
116.34193,39.89073,607,281
116.33644,39.88837,608,281
116.33378,39.88198,609,281
116.33377,39.88197,610,281
116.33376,39.88195,611,281
116.32029,39.88547,612,281
116.32213,39.8885,613,281
116.34397,39.8876,614,281
116.35041,39.9163,615,281
116.34859,39.93113,616,281
116.34745,39.9313,617,281
116.33349,39.93728,618,281
116.28754,39.94659,619,281
116.27723,39.9533,620,281
116.28159,39.95589,621,281
116.28379,39.94096,622,281
116.28219,39.94118,623,281
116.31661,39.93759,624,281
116.33142,39.9366,625,281
116.35199,39.94276,626,281
116.39795,39.94747,627,281
116.41034,39.94422,628,281
116.40754,39.94408,629,281
116.41063,39.94028,630,281
116.40089,39.93201,631,281
116.39989,39.92472,632,281
116.40002,39.92308,633,281
116.40092,39.91695,634,281
116.4044,39.91625,635,281
116.41935,39.92295,636,281
116.4325,39.92274,637,281
116.43932,39.92185,638,281
116.44311,39.92138,639,281
116.44415,39.93021,640,281
116.38359,39.88461,641,281
116.44429,39.93607,642,281
116.44254,39.94845,643,281
116.44906,39.94469,644,281
116.45469,39.94363,645,281
116.45496,39.94369,646,281
116.45501,39.94367,647,281
116.45506,39.9437,648,281
116.45512,39.94367,649,281
116.44917,39.94685,650,281
116.4441,39.94388,651,281
116.43818,39.93245,652,281
116.41208,39.93234,653,281
116.41102,39.9253,654,281
116.40528,39.91733,655,281
116.41152,39.91518,656,281
116.4119,39.90416,657,281
116.412,39.90047,658,281
116.4001,39.89939,659,281
116.38405,39.89897,660,281
116.3706,39.89849,661,281
116.36811,39.89767,662,281
116.36816,39.89174,663,281
116.36809,39.88594,664,281
116.36808,39.88532,665,281
116.36802,39.86985,666,281
116.36785,39.85552,667,281
116.36895,39.85551,668,281
116.3779,39.86136,669,281
116.37837,39.862,670,281
116.38061,39.85851,671,281
116.38056,39.8566,672,281
116.39434,39.85865,673,281
116.40414,39.86511,674,281
116.40419,39.86593,675,281
116.40287,39.86869,676,281
116.40311,39.8686,677,281
116.40338,39.86852,678,281
116.40309,39.8686,679,281
116.40304,39.86862,680,281
116.40254,39.86886,681,281
116.40254,39.86886,682,281
116.40295,39.86873,683,281
116.40284,39.86876,684,281
116.40283,39.86875,685,281
116.40282,39.86873,686,281
116.40289,39.86874,687,281
116.40286,39.86871,688,281
116.40286,39.86873,689,281
116.40286,39.86873,690,281
116.40286,39.86874,691,281
116.40284,39.86882,692,281
116.40294,39.86857,693,281
116.4029,39.86861,694,281
116.40288,39.86864,695,281
116.40286,39.86866,696,281
116.40287,39.86866,697,281
116.40287,39.86867,698,281
116.40286,39.86869,699,281
116.40278,39.86897,700,281
116.40292,39.86897,701,281
116.40282,39.86901,702,281
116.40284,39.86891,703,281
116.40289,39.86896,704,281
116.40297,39.8689,705,281
116.40204,39.86892,706,281
116.40281,39.86869,707,281
116.40358,39.86873,708,281
116.40295,39.86879,709,281
116.40343,39.86878,710,281
116.4036,39.86848,711,281
116.4036,39.86868,712,281
116.40288,39.86871,713,281
116.40289,39.8687,714,281
116.40288,39.86873,715,281
116.40293,39.86872,716,281
116.40298,39.86873,717,281
116.40298,39.86873,718,281
116.40296,39.86874,719,281
116.40294,39.86875,720,281
116.40293,39.86875,721,281
116.40292,39.86876,722,281
116.40291,39.86876,723,281
116.4029,39.86876,724,281
116.40278,39.86877,725,281
116.40278,39.86877,726,281
116.40278,39.86877,727,281
116.40279,39.86877,728,281
116.4028,39.86877,729,281
116.4028,39.86877,730,281
116.4028,39.86877,731,281
116.4028,39.86877,732,281
116.4028,39.86877,733,281
116.4028,39.86877,734,281
116.4028,39.86877,735,281
116.40245,39.86879,736,281
116.40262,39.86875,737,281
116.4027,39.86873,738,281
116.40275,39.86871,739,281
116.40305,39.86859,740,281
116.40301,39.86861,741,281
116.40298,39.86862,742,281
116.40284,39.8687,743,281
116.40285,39.8687,744,281
116.4029,39.86871,745,281
116.40292,39.86872,746,281
116.40291,39.86871,747,281
116.4029,39.86872,748,281
116.4029,39.86871,749,281
116.40289,39.86871,750,281
116.40289,39.86871,751,281
116.40289,39.86871,752,281
116.40289,39.86871,753,281
116.40288,39.86872,754,281
116.40289,39.86872,755,281
116.40289,39.86872,756,281
116.40289,39.86872,757,281
116.40288,39.86872,758,281
116.40288,39.86873,759,281
116.40287,39.86873,760,281
116.40287,39.86873,761,281
116.40244,39.86912,762,281
116.40294,39.86883,763,281
116.40291,39.86882,764,281
116.40289,39.86881,765,281
116.40288,39.86882,766,281
116.40287,39.86883,767,281
116.40289,39.86882,768,281
116.40289,39.86882,769,281
116.40309,39.86852,770,281
116.40296,39.86872,771,281
116.40295,39.86871,772,281
116.40294,39.86872,773,281
116.40297,39.86857,774,281
116.40256,39.86884,775,281
116.4028,39.86881,776,281
116.40252,39.86879,777,281
116.40262,39.86885,778,281
116.40275,39.86879,779,281
116.40264,39.86892,780,281
116.40267,39.86881,781,281
116.40278,39.86874,782,281
116.40285,39.86869,783,281
116.40285,39.86869,784,281
116.40306,39.86865,785,281
116.40278,39.86875,786,281
116.40302,39.86861,787,281
116.40297,39.86862,788,281
116.40294,39.86864,789,281
116.40292,39.86866,790,281
116.40279,39.86885,791,281
116.40279,39.86884,792,281
116.40292,39.86851,793,281
116.40281,39.86881,794,281
116.40284,39.86873,795,281
116.4068,39.86738,796,281
116.40722,39.86739,797,281
116.4073,39.86866,798,281
116.4119,39.9,799,281
116.41222,39.89822,800,281
116.41231,39.89816,801,281
116.41532,39.86651,802,281
116.40803,39.85339,803,281
116.40092,39.83885,804,281
116.40097,39.839,805,281
116.40438,39.85262,806,281
116.40799,39.85508,807,281
116.43232,39.86108,808,281
116.43282,39.86545,809,281
116.41539,39.86079,810,281
116.39552,39.81809,811,281
116.39374,39.80159,812,281
116.39146,39.78973,813,281
116.3891,39.80138,814,281
116.39628,39.81182,815,281
116.40247,39.82064,816,281
116.39529,39.8331,817,281
116.40822,39.84093,818,281
116.41648,39.86094,819,281
116.43011,39.86099,820,281
116.42938,39.85767,821,281
116.42027,39.86649,822,281
116.41157,39.86077,823,281
116.40984,39.86071,824,281
116.40717,39.87018,825,281
116.38247,39.87083,826,281
116.38688,39.88374,827,281
116.3869,39.88385,828,281
116.3701,39.88187,829,281
116.36723,39.87713,830,281
116.36889,39.89812,831,281
116.37815,39.89509,832,281
116.37863,39.88234,833,281
116.36541,39.88206,834,281
116.36096,39.88462,835,281
116.3619,39.88781,836,281
116.35045,39.89297,837,281
116.35151,39.89495,838,281
116.35761,39.89761,839,281
116.35728,39.89788,840,281
116.34223,39.89572,841,281
116.34235,39.8823,842,281
116.34253,39.88264,843,281
116.35072,39.90004,844,281
116.34972,39.9338,845,281
116.3968,39.94755,846,281
116.40212,39.9503,847,281
116.40143,39.96058,848,281
116.39058,39.96191,849,281
116.38022,39.96159,850,281
116.37933,39.96167,851,281
116.3816,39.96621,852,281
116.38185,39.96439,853,281
116.38906,39.94838,854,281
116.3883,39.93917,855,281
116.37271,39.93164,856,281
116.36566,39.92262,857,281
116.35006,39.92664,858,281
116.35001,39.9305,859,281
116.37347,39.93153,860,281
116.39583,39.932,861,281
116.41962,39.93039,862,281
116.41983,39.92402,863,281
116.4205,39.91156,864,281
116.40618,39.90677,865,281
116.40341,39.9067,866,281
116.39766,39.90661,867,281
116.39401,39.90653,868,281
116.39394,39.90652,869,281
116.39139,39.9064,870,281
116.39141,39.90638,871,281
116.39141,39.90638,872,281
116.38806,39.90634,873,281
116.35802,39.90614,874,281
116.34255,39.88959,875,281
116.3263,39.86683,876,281
116.30901,39.86706,877,281
116.31172,39.87382,878,281
116.31501,39.88511,879,281
116.32095,39.89088,880,281
116.32095,39.89088,881,281
116.32094,39.89041,882,281
116.32112,39.8911,883,281
116.32545,39.88857,884,281
116.32953,39.88827,885,281
116.32032,39.88858,886,281
116.32116,39.88845,887,281
116.32271,39.88853,888,281
116.33226,39.87639,889,281
116.33568,39.87713,890,281
116.32858,39.89098,891,281
116.33327,39.88173,892,281
116.33333,39.88173,893,281
116.33336,39.88173,894,281
116.33343,39.8817,895,281
116.33343,39.88172,896,281
116.32031,39.88584,897,281
116.3203,39.88612,898,281
116.33905,39.91241,899,281
116.34901,39.91249,900,281
116.38781,39.90605,901,281
116.41137,39.90669,902,281
116.42883,39.91326,903,281
116.43886,39.92188,904,281
116.4428,39.9216,905,281
116.44354,39.92154,906,281
116.44366,39.92152,907,281
116.4488,39.93226,908,281
116.45154,39.93232,909,281
116.45465,39.93239,910,281
116.46224,39.951,911,281
116.46193,39.95265,912,281
116.45504,39.94794,913,281
116.45504,39.94794,914,281
116.44752,39.95086,915,281
116.44752,39.95086,916,281
116.44364,39.94683,917,281
116.44364,39.94683,918,281
116.43849,39.93978,919,281
116.44417,39.93255,920,281
116.44406,39.94567,921,281
116.44425,39.93079,922,281
116.44857,39.93982,923,281
116.45563,39.92383,924,281
116.45519,39.89383,925,281
116.45686,39.88317,926,281
116.48469,39.8811,927,281
116.48736,39.87447,928,281
116.47284,39.87822,929,281
116.4624,39.87452,930,281
116.4498,39.87152,931,281
116.4451,39.88028,932,281
116.45093,39.88021,933,281
116.45237,39.86505,934,281
116.43325,39.8578,935,281
116.42606,39.86001,936,281
116.42788,39.86147,937,281
116.42761,39.86377,938,281
116.42668,39.86451,939,281
116.42256,39.86439,940,281
116.41821,39.86433,941,281
116.39203,39.87023,942,281
116.35791,39.87283,943,281
116.35796,39.87342,944,281
116.35328,39.87669,945,281
116.34413,39.87632,946,281
116.33236,39.87599,947,281
116.3209,39.88325,948,281
116.32033,39.8864,949,281
116.31462,39.89193,950,281
116.32038,39.8886,951,281
116.32266,39.88832,952,281
116.34501,39.86713,953,281
116.38176,39.86518,954,281
116.3806,39.85846,955,281
116.38046,39.85517,956,281
116.3805,39.85517,957,281
116.39423,39.86203,958,281
116.40727,39.86863,959,281
116.41607,39.87584,960,281
116.41474,39.87606,961,281
116.4069,39.86727,962,281
116.4069,39.86727,963,281
116.40278,39.86884,964,281
116.40275,39.86883,965,281
116.40272,39.86884,966,281
116.40271,39.86885,967,281
116.40272,39.86887,968,281
116.40277,39.86884,969,281
116.40271,39.86883,970,281
116.40271,39.86883,971,281
116.40271,39.86883,972,281
116.40271,39.86883,973,281
116.40271,39.86883,974,281
116.40271,39.86883,975,281
116.40271,39.86883,976,281
116.40271,39.86883,977,281
116.40271,39.86883,978,281
116.40271,39.86883,979,281
116.40271,39.86883,980,281
116.44421,39.94036,981,281
116.40265,39.86887,982,281
116.40286,39.86881,983,281
116.40324,39.86907,984,281
116.40284,39.8684,985,281
116.40342,39.86905,986,281
116.40326,39.86893,987,281
116.40289,39.86879,988,281
116.40298,39.86881,989,281
116.40307,39.86883,990,281
116.40307,39.86887,991,281
116.40216,39.86903,992,281
116.40216,39.86903,993,281
116.40198,39.86909,994,281
116.40356,39.8688,995,281
116.40312,39.86891,996,281
116.40251,39.8689,997,281
116.403,39.86886,998,281
116.4025,39.86899,999,281
116.40277,39.86897,1000,281
116.40277,39.86896,1001,281
116.40255,39.86876,1002,281
116.40277,39.86877,1003,281
116.40274,39.86877,1004,281
116.40332,39.86828,1005,281
116.40299,39.86865,1006,281
116.40294,39.86877,1007,281
116.40295,39.86875,1008,281
116.40304,39.8687,1009,281
116.40318,39.86862,1010,281
116.4031,39.86867,1011,281
116.40304,39.8687,1012,281
116.403,39.86871,1013,281
116.40299,39.86872,1014,281
116.40296,39.86872,1015,281
116.40271,39.86881,1016,281
116.40278,39.86877,1017,281
116.40281,39.86875,1018,281
116.40283,39.86874,1019,281
116.40282,39.86876,1020,281
116.40298,39.86867,1021,281
116.4029,39.86873,1022,281
116.4029,39.86873,1023,281
116.40308,39.8688,1024,281
116.40316,39.86863,1025,281
116.40335,39.86866,1026,281
116.4029,39.86878,1027,281
116.40221,39.86925,1028,281
116.40221,39.86925,1029,281
116.40221,39.86925,1030,281
116.40221,39.86925,1031,281
116.40273,39.86874,1032,281
116.40302,39.86873,1033,281
116.40291,39.86876,1034,281
116.40287,39.86883,1035,281
116.40281,39.86882,1036,281
116.40313,39.86909,1037,281
116.40192,39.86864,1038,281
116.40315,39.86863,1039,281
116.40312,39.86864,1040,281
116.40422,39.86897,1041,281
116.4031,39.86877,1042,281
116.40305,39.86877,1043,281
116.40338,39.86889,1044,281
116.40332,39.86883,1045,281
116.40318,39.86881,1046,281
116.40316,39.86879,1047,281
116.40282,39.8688,1048,281
116.40277,39.8688,1049,281
116.40278,39.8688,1050,281
116.40278,39.8688,1051,281
116.4028,39.86879,1052,281
116.40282,39.8688,1053,281
116.40284,39.8688,1054,281
116.40285,39.86883,1055,281
116.40286,39.86883,1056,281
116.40287,39.86883,1057,281
116.40302,39.86876,1058,281
116.4029,39.8688,1059,281
116.40286,39.86881,1060,281
116.40304,39.86875,1061,281
116.40304,39.86875,1062,281
116.40284,39.86872,1063,281
116.36815,39.88484,1064,281
115.73762,40.13124,1065,281
115.40343,40.27988,1066,281
116.40295,39.86878,1067,281
116.40283,39.86881,1068,281
116.40285,39.86878,1069,281
116.40284,39.86876,1070,281
116.40284,39.86876,1071,281
116.40284,39.86877,1072,281
116.40285,39.86878,1073,281
116.40286,39.86879,1074,281
116.40288,39.8688,1075,281
116.40372,39.86858,1076,281
116.4027,39.86885,1077,281
116.40278,39.86883,1078,281
116.40277,39.86882,1079,281
116.40286,39.86885,1080,281
116.4028,39.86883,1081,281
116.40303,39.86872,1082,281
116.40298,39.86873,1083,281
116.43452,39.85243,1084,281
116.40303,39.86884,1085,281
116.40301,39.86885,1086,281
116.40299,39.86884,1087,281
116.40298,39.86883,1088,281
116.40298,39.86883,1089,281
116.40278,39.86883,1090,281
116.40281,39.86879,1091,281
116.40283,39.8688,1092,281
116.40281,39.86891,1093,281
116.40284,39.86888,1094,281
116.40287,39.86888,1095,281
116.40288,39.86889,1096,281
116.40288,39.8689,1097,281
116.40745,39.86745,1098,281
116.40724,39.86746,1099,281
116.40998,39.86089,1100,281
116.41263,39.85602,1101,281
116.3464,39.85028,1102,281
116.33912,39.80604,1103,281
116.33496,39.77539,1104,281
116.3318,39.75671,1105,281
116.3343,39.75884,1106,281
116.3385,39.7802,1107,281
116.33909,39.82091,1108,281
116.35292,39.84481,1109,281
116.353,39.84474,1110,281
116.36464,39.84937,1111,281
116.36465,39.84937,1112,281
116.38854,39.85561,1113,281
116.40352,39.85546,1114,281
116.4148,39.87931,1115,281
116.41198,39.91527,1116,281
116.41188,39.90527,1117,281
116.40837,39.89917,1118,281
116.40921,39.89902,1119,281
116.40924,39.89905,1120,281
116.40947,39.89935,1121,281
116.40946,39.89922,1122,281
116.4097,39.89992,1123,281
116.41226,39.89553,1124,281
116.41313,39.89539,1125,281
116.43022,39.90057,1126,281
116.42736,39.94733,1127,281
116.47844,39.98358,1128,281
116.55719,40.01103,1129,281
116.55906,40.00443,1130,281
116.56763,39.96623,1131,281
116.58059,39.94321,1132,281
116.58469,39.92249,1133,281
116.5759,39.91326,1134,281
116.55781,39.91512,1135,281
116.54172,39.91509,1136,281
116.53627,39.9358,1137,281
116.53843,39.91517,1138,281
116.53724,39.9152,1139,281
116.5151,39.91659,1140,281
116.50982,39.93375,1141,281
116.50714,39.93182,1142,281
116.50714,39.93182,1143,281
116.496,39.92584,1144,281
116.49594,39.92983,1145,281
116.47873,39.9218,1146,281
116.45943,39.92207,1147,281
116.44012,39.92202,1148,281
116.42867,39.91537,1149,281
116.41289,39.89987,1150,281
116.3861,39.89907,1151,281
116.37361,39.89745,1152,281
116.38087,39.89867,1153,281
116.39721,39.90634,1154,281
116.47203,39.91378,1155,281
116.48833,39.92145,1156,281
116.48702,39.91823,1157,281
116.48431,39.91257,1158,281
116.47157,39.90253,1159,281
116.4716,39.9011,1160,281
116.45614,39.89231,1161,281
116.42325,39.89215,1162,281
116.423,39.88571,1163,281
116.42146,39.88605,1164,281
116.41719,39.88498,1165,281
116.4192,39.88263,1166,281
116.42491,39.88728,1167,281
116.43408,39.88579,1168,281
116.4317,39.88299,1169,281
116.43156,39.8825,1170,281
116.43167,39.88302,1171,281
116.43167,39.88302,1172,281
116.41834,39.88264,1173,281
116.4074,39.87167,1174,281
116.39436,39.8646,1175,281
116.39435,39.86464,1176,281
116.39433,39.86462,1177,281
116.39429,39.86458,1178,281
116.40475,39.86378,1179,281
116.41495,39.85615,1180,281
116.41495,39.85615,1181,281
116.41378,39.85606,1182,281
116.41103,39.85597,1183,281
116.38866,39.87102,1184,281
116.35824,39.86958,1185,281
116.35291,39.88208,1186,281
116.35296,39.88781,1187,281
116.35757,39.88197,1188,281
116.3749,39.88175,1189,281
116.41074,39.89546,1190,281
116.40915,39.89975,1191,281
116.40934,39.90014,1192,281
116.4113,39.89942,1193,281
116.42133,39.87969,1194,281
116.42634,39.87069,1195,281
116.40672,39.86728,1196,281
116.4058,39.86727,1197,281
116.40579,39.86726,1198,281
116.4075,39.86461,1199,281
116.40478,39.8583,1200,281
116.40475,39.85832,1201,281
116.40497,39.85811,1202,281
116.40477,39.85841,1203,281
116.4047,39.85857,1204,281
116.40491,39.85837,1205,281
116.40777,39.86005,1206,281
116.4071,39.86725,1207,281
116.40712,39.86725,1208,281
116.40712,39.86726,1209,281
116.40598,39.8702,1210,281
116.40702,39.86725,1211,281
116.40306,39.86879,1212,281
116.40321,39.86905,1213,281
116.40309,39.86849,1214,281
116.40303,39.86848,1215,281
116.40303,39.86852,1216,281
116.40304,39.86855,1217,281
116.40304,39.86855,1218,281
116.40304,39.86857,1219,281
116.40304,39.8686,1220,281
116.40303,39.86859,1221,281
116.40303,39.8686,1222,281
116.40297,39.86876,1223,281
116.40308,39.86872,1224,281
116.40304,39.86869,1225,281
116.40301,39.8687,1226,281
116.40299,39.86869,1227,281
116.40299,39.86868,1228,281
116.40297,39.86868,1229,281
116.40297,39.86868,1230,281
116.40296,39.86868,1231,281
116.40278,39.86899,1232,281
116.40283,39.86851,1233,281
116.40278,39.8686,1234,281
116.40283,39.86858,1235,281
116.40315,39.86797,1236,281
116.40297,39.86876,1237,281
116.40297,39.86869,1238,281
116.40296,39.8687,1239,281
116.40298,39.86869,1240,281
116.40301,39.86831,1241,281
116.40302,39.86842,1242,281
116.40303,39.86853,1243,281
116.40303,39.86854,1244,281
116.40312,39.8687,1245,281
116.40308,39.86867,1246,281
116.40308,39.86866,1247,281
116.40308,39.86866,1248,281
116.40307,39.86865,1249,281
116.40306,39.86865,1250,281
116.40273,39.8688,1251,281
116.40295,39.86876,1252,281
116.40304,39.86873,1253,281
116.40304,39.86885,1254,281
116.40303,39.86877,1255,281
116.40301,39.86878,1256,281
116.40295,39.86866,1257,281
116.40294,39.8687,1258,281
116.40297,39.86867,1259,281
116.40298,39.86869,1260,281
116.40261,39.86876,1261,281
116.40301,39.86866,1262,281
116.40301,39.86866,1263,281
116.40303,39.86866,1264,281
116.40304,39.86867,1265,281
116.40305,39.86872,1266,281
116.40304,39.86866,1267,281
116.40305,39.86866,1268,281
116.40296,39.86866,1269,281
116.40286,39.86838,1270,281
116.40299,39.8686,1271,281
116.40295,39.86861,1272,281
116.40295,39.8687,1273,281
116.40297,39.86871,1274,281
116.40296,39.86852,1275,281
116.40296,39.86866,1276,281
116.40297,39.8687,1277,281
116.40296,39.86873,1278,281
116.40297,39.86876,1279,281
116.40298,39.86878,1280,281
116.40299,39.86877,1281,281
116.403,39.86877,1282,281
116.40294,39.86875,1283,281
116.40308,39.86862,1284,281
116.40286,39.86865,1285,281
116.40304,39.86852,1286,281
116.40291,39.86872,1287,281
116.40315,39.86889,1288,281
116.40302,39.86878,1289,281
116.40301,39.86875,1290,281
116.40312,39.86886,1291,281
116.40312,39.86886,1292,281
116.40311,39.86885,1293,281
116.4031,39.86886,1294,281
116.4031,39.86886,1295,281
116.40309,39.86886,1296,281
116.40309,39.86885,1297,281
116.40308,39.86883,1298,281
116.40306,39.86882,1299,281
116.40294,39.86871,1300,281
116.40296,39.86869,1301,281
116.40294,39.86879,1302,281
116.40304,39.86863,1303,281
116.40293,39.86884,1304,281
116.40308,39.86904,1305,281
116.40308,39.86904,1306,281
116.40293,39.8687,1307,281
116.403,39.8686,1308,281
116.403,39.86865,1309,281
116.40299,39.86871,1310,281
116.40298,39.86872,1311,281
116.40298,39.86872,1312,281
116.40299,39.86871,1313,281
116.40271,39.86816,1314,281
116.40302,39.86857,1315,281
116.40301,39.86855,1316,281
116.4028,39.86835,1317,281
116.40314,39.86885,1318,281
116.40304,39.86864,1319,281
116.40313,39.86874,1320,281
116.40314,39.86874,1321,281
116.40284,39.86863,1322,281
116.40285,39.86867,1323,281
116.40291,39.8687,1324,281
116.40293,39.86872,1325,281
116.40295,39.86874,1326,281
116.40297,39.86874,1327,281
116.40294,39.8688,1328,281
116.4029,39.86874,1329,281
116.4029,39.86874,1330,281
116.40291,39.86875,1331,281
116.40291,39.86875,1332,281
116.4029,39.86875,1333,281
116.40291,39.86875,1334,281
116.40291,39.86875,1335,281
116.40285,39.86925,1336,281
116.40314,39.86895,1337,281
116.40303,39.86842,1338,281
116.40305,39.86824,1339,281
116.40307,39.86872,1340,281
116.40308,39.86865,1341,281
116.40308,39.86865,1342,281
116.40308,39.86865,1343,281
116.40288,39.86839,1344,281
116.40289,39.86843,1345,281
116.40325,39.8689,1346,281
116.40327,39.86869,1347,281
116.4033,39.86901,1348,281
116.40321,39.86895,1349,281
116.40281,39.86896,1350,281
116.40265,39.86914,1351,281
116.40278,39.8689,1352,281
116.40282,39.86893,1353,281
116.40281,39.86871,1354,281
116.40295,39.86873,1355,281
116.40297,39.86873,1356,281
116.40297,39.86872,1357,281
116.40297,39.86872,1358,281
116.40296,39.86873,1359,281
116.40297,39.86872,1360,281
116.40282,39.869,1361,281
116.4028,39.86901,1362,281
116.40282,39.86899,1363,281
116.40313,39.86856,1364,281
116.40311,39.86857,1365,281
116.40286,39.8687,1366,281
116.40287,39.86871,1367,281
116.40302,39.8687,1368,281
116.40299,39.86871,1369,281
116.40298,39.86871,1370,281
116.40296,39.86872,1371,281
116.40294,39.86873,1372,281
116.40294,39.86874,1373,281
116.40303,39.8689,1374,281
116.40301,39.86862,1375,281
116.40301,39.86866,1376,281
116.403,39.86867,1377,281
116.40296,39.86868,1378,281
116.40295,39.8687,1379,281
116.40295,39.86869,1380,281
116.4031,39.86813,1381,281
116.40281,39.86898,1382,281
116.40277,39.86876,1383,281
116.40297,39.8685,1384,281
116.40297,39.8685,1385,281
116.40316,39.8685,1386,281
116.40298,39.8687,1387,281
116.403,39.86861,1388,281
116.40299,39.86865,1389,281
116.40306,39.86869,1390,281
116.40308,39.8686,1391,281
116.40306,39.86865,1392,281
116.40302,39.86866,1393,281
116.40304,39.86864,1394,281
116.40303,39.86866,1395,281
116.40311,39.86849,1396,281
116.40286,39.86866,1397,281
116.40308,39.86872,1398,281
116.40308,39.86869,1399,281
116.40293,39.86848,1400,281
116.40295,39.8685,1401,281
116.40319,39.86857,1402,281
116.40313,39.8686,1403,281
116.40292,39.86834,1404,281
116.40296,39.86846,1405,281
116.40297,39.86847,1406,281
116.40298,39.86849,1407,281
116.40294,39.86858,1408,281
116.40292,39.86862,1409,281
116.40292,39.86864,1410,281
116.40294,39.86857,1411,281
116.40313,39.86892,1412,281
116.40295,39.86828,1413,281
116.40295,39.86828,1414,281
116.40299,39.86867,1415,281
116.40295,39.86874,1416,281
116.40284,39.86865,1417,281
116.40306,39.86887,1418,281
116.40305,39.86896,1419,281
116.40307,39.86894,1420,281
116.40307,39.86889,1421,281
116.40307,39.86887,1422,281
116.40306,39.86885,1423,281
116.40306,39.86885,1424,281
116.40306,39.86883,1425,281
116.40305,39.86883,1426,281
116.40304,39.86866,1427,281
116.40299,39.86868,1428,281
116.40303,39.86868,1429,281
116.40304,39.86867,1430,281
116.40305,39.86866,1431,281
116.40304,39.86866,1432,281
116.40304,39.86867,1433,281
116.40303,39.86866,1434,281
116.40303,39.86866,1435,281
116.40303,39.86866,1436,281
116.40354,39.86763,1437,281
116.40303,39.86838,1438,281
116.40285,39.86867,1439,281
116.40287,39.86865,1440,281
116.40305,39.86863,1441,281
116.40296,39.86857,1442,281
116.40296,39.86857,1443,281
116.40266,39.86962,1444,281
116.40282,39.86914,1445,281
116.40285,39.86877,1446,281
116.403,39.86874,1447,281
116.40299,39.86875,1448,281
116.40299,39.86875,1449,281
116.40312,39.86897,1450,281
116.40307,39.86894,1451,281
116.40314,39.86886,1452,281
116.40311,39.86862,1453,281
116.40307,39.86864,1454,281
116.40302,39.86867,1455,281
116.40302,39.86866,1456,281
116.40304,39.86867,1457,281
116.40304,39.86867,1458,281
116.40305,39.86878,1459,281
116.40311,39.86867,1460,281
116.40305,39.86872,1461,281
116.40301,39.86873,1462,281
116.40303,39.86879,1463,281
116.40299,39.86891,1464,281
116.40298,39.86895,1465,281
116.40298,39.86895,1466,281
116.40292,39.869,1467,281
116.40292,39.86896,1468,281
116.40293,39.86895,1469,281
116.40302,39.86884,1470,281
116.40302,39.86884,1471,281
116.40288,39.8691,1472,281
116.40294,39.86873,1473,281
116.40296,39.86866,1474,281
116.4029,39.86878,1475,281
116.40294,39.8687,1476,281
116.40298,39.86865,1477,281
116.403,39.86864,1478,281
116.40301,39.86863,1479,281
116.40302,39.86862,1480,281
116.40302,39.86862,1481,281
116.40302,39.86863,1482,281
116.40303,39.86863,1483,281
116.40303,39.86863,1484,281
116.40303,39.86862,1485,281
116.40303,39.86862,1486,281
116.40302,39.86852,1487,281
116.403,39.86852,1488,281
116.40297,39.86852,1489,281
116.40299,39.86854,1490,281
116.40299,39.86854,1491,281
116.40701,39.86716,1492,281
116.40282,39.86865,1493,281
116.40301,39.86883,1494,281
116.43051,39.96768,1495,281
116.43051,39.96768,1496,281
116.40304,39.86877,1497,281
116.40304,39.86877,1498,281
116.40306,39.86877,1499,281
116.40306,39.86876,1500,281
116.40306,39.86875,1501,281
116.40306,39.86873,1502,281
116.40306,39.86873,1503,281
116.4031,39.86859,1504,281
116.40313,39.86915,1505,281
116.40311,39.86888,1506,281
116.40308,39.86882,1507,281
116.40306,39.8688,1508,281
116.40304,39.86879,1509,281
116.40292,39.86863,1510,281
116.40293,39.86868,1511,281
116.40293,39.86868,1512,281
116.40294,39.86866,1513,281
116.40294,39.86865,1514,281
116.40293,39.86867,1515,281
116.40293,39.86867,1516,281
116.40294,39.86866,1517,281
116.40288,39.86904,1518,281
116.40304,39.86848,1519,281
116.40301,39.86869,1520,281
116.40301,39.86842,1521,281
116.40302,39.86851,1522,281
116.40303,39.86857,1523,281
116.40304,39.86859,1524,281
116.40304,39.8686,1525,281
116.40304,39.86861,1526,281
116.40274,39.86877,1527,281
116.40286,39.86863,1528,281
116.40299,39.86899,1529,281
116.403,39.86894,1530,281
116.40296,39.86871,1531,281
116.40295,39.86871,1532,281
116.40295,39.86871,1533,281
116.40296,39.86875,1534,281
116.40297,39.86875,1535,281
116.40295,39.86882,1536,281
116.40308,39.86879,1537,281
116.40305,39.86885,1538,281
116.40303,39.86883,1539,281
116.40294,39.86881,1540,281
116.40312,39.86863,1541,281
116.40259,39.86858,1542,281
116.40275,39.86853,1543,281
116.4033,39.86873,1544,281
116.40306,39.86867,1545,281
116.40306,39.86868,1546,281
116.40311,39.8687,1547,281
116.40311,39.8687,1548,281
116.40312,39.8687,1549,281
116.40312,39.86869,1550,281
116.40311,39.86869,1551,281
116.40303,39.86873,1552,281
116.40335,39.86875,1553,281
116.40299,39.86879,1554,281
116.40296,39.86884,1555,281
116.4031,39.86827,1556,281
116.40289,39.8688,1557,281
116.40298,39.86884,1558,281
116.40297,39.86877,1559,281
116.40298,39.86877,1560,281
116.40287,39.86877,1561,281
116.40291,39.8688,1562,281
116.40291,39.8688,1563,281
116.40293,39.86881,1564,281
116.40294,39.86881,1565,281
116.40296,39.86881,1566,281
116.40297,39.86882,1567,281
116.40303,39.86876,1568,281
116.40301,39.86871,1569,281
116.40281,39.86898,1570,281
116.403,39.86829,1571,281
116.40313,39.86881,1572,281
116.40323,39.86892,1573,281
116.40287,39.86844,1574,281
116.40299,39.86873,1575,281
116.40338,39.8689,1576,281
116.40298,39.86858,1577,281
116.40302,39.86867,1578,281
116.40307,39.86877,1579,281
116.40307,39.86877,1580,281
116.40307,39.86877,1581,281
116.40307,39.86877,1582,281
116.40306,39.86877,1583,281
116.40306,39.86876,1584,281
116.40306,39.86869,1585,281
116.40296,39.86868,1586,281
116.403,39.86866,1587,281
116.40294,39.86876,1588,281
116.40301,39.8686,1589,281
116.40294,39.86873,1590,281
116.40296,39.86852,1591,281
116.40296,39.86852,1592,281
116.403,39.86861,1593,281
116.40299,39.86883,1594,281
116.40292,39.86838,1595,281
116.40291,39.86866,1596,281
116.40301,39.86824,1597,281
116.40294,39.8684,1598,281
116.40311,39.86877,1599,281
116.40292,39.86836,1600,281
116.40298,39.86892,1601,281
116.40285,39.86854,1602,281
116.40292,39.86863,1603,281
116.40303,39.86885,1604,281
116.40303,39.86884,1605,281
116.40256,39.86876,1606,281
116.40298,39.86881,1607,281
116.40297,39.8688,1608,281
116.40297,39.8688,1609,281
116.40297,39.86878,1610,281
116.40297,39.86877,1611,281
116.40296,39.86878,1612,281
116.40297,39.86877,1613,281
116.40297,39.86877,1614,281
116.40317,39.86819,1615,281
116.40307,39.8686,1616,281
116.40306,39.86853,1617,281
116.40312,39.86808,1618,281
116.40313,39.86882,1619,281
116.40312,39.86884,1620,281
116.40296,39.86839,1621,281
116.40299,39.86845,1622,281
116.403,39.86852,1623,281
116.40302,39.86858,1624,281
116.40303,39.8686,1625,281
116.40302,39.86859,1626,281
116.40324,39.86898,1627,281
116.40324,39.86894,1628,281
116.40356,39.86863,1629,281
116.40378,39.86895,1630,281
116.40294,39.86873,1631,281
116.40294,39.86873,1632,281
116.40287,39.86882,1633,281
116.40288,39.8688,1634,281
116.40296,39.86867,1635,281
116.40312,39.86849,1636,281
116.403,39.86863,1637,281
116.40286,39.86881,1638,281
116.40294,39.86877,1639,281
116.40294,39.86874,1640,281
116.40294,39.86873,1641,281
116.4029,39.86874,1642,281
116.40341,39.86875,1643,281
116.40341,39.86875,1644,281
116.40297,39.86885,1645,281
116.40295,39.86882,1646,281
116.40294,39.86878,1647,281
116.40322,39.86874,1648,281
116.40301,39.86877,1649,281
116.40299,39.86874,1650,281
116.40298,39.86872,1651,281
116.40306,39.86867,1652,281
116.40304,39.86865,1653,281
116.40302,39.86866,1654,281
116.40302,39.86863,1655,281
116.403,39.86862,1656,281
116.40299,39.86863,1657,281
116.40311,39.86871,1658,281
116.40299,39.86875,1659,281
116.40302,39.86875,1660,281
116.40308,39.86868,1661,281
116.40307,39.86867,1662,281
116.40304,39.86867,1663,281
116.40303,39.8687,1664,281
116.40301,39.86873,1665,281
116.40301,39.86872,1666,281
116.40301,39.86871,1667,281
116.40287,39.86874,1668,281
116.40295,39.8682,1669,281
116.40321,39.86844,1670,281
116.40312,39.86852,1671,281
116.40319,39.86849,1672,281
116.40314,39.86849,1673,281
116.40314,39.86849,1674,281
116.4031,39.86859,1675,281
116.40302,39.86856,1676,281
116.4031,39.86875,1677,281
116.40307,39.86874,1678,281
116.40282,39.86856,1679,281
116.403,39.86885,1680,281
116.40301,39.86878,1681,281
116.40302,39.86874,1682,281
116.40303,39.8687,1683,281
116.403,39.86872,1684,281
116.403,39.86863,1685,281
116.40297,39.86865,1686,281
116.40297,39.86864,1687,281
116.40299,39.86866,1688,281
116.403,39.86864,1689,281
116.40305,39.86838,1690,281
116.40299,39.86847,1691,281
116.403,39.86848,1692,281
116.403,39.86848,1693,281
116.40298,39.86866,1694,281
116.40292,39.86865,1695,281
116.40291,39.86868,1696,281
116.4029,39.86869,1697,281
116.40273,39.86868,1698,281
116.40299,39.869,1699,281
116.40289,39.86837,1700,281
116.40672,39.8709,1701,281
116.34651,39.86729,1702,281
116.33644,39.88731,1703,281
116.33644,39.88731,1704,281
116.3319,39.88676,1705,281
116.33187,39.88762,1706,281
116.33195,39.88694,1707,281
116.33227,39.88723,1708,281
116.33205,39.88717,1709,281
116.33237,39.88161,1710,281
116.33237,39.88161,1711,281
116.33239,39.88167,1712,281
116.3325,39.88212,1713,281
116.33262,39.88178,1714,281
116.33263,39.88176,1715,281
116.33265,39.88178,1716,281
116.33234,39.88133,1717,281
116.3324,39.88142,1718,281
116.33237,39.88142,1719,281
116.33237,39.88141,1720,281
116.33237,39.8814,1721,281
116.33237,39.8814,1722,281
116.33236,39.88133,1723,281
116.33238,39.88134,1724,281
116.33238,39.88135,1725,281
116.33237,39.88135,1726,281
116.33259,39.88103,1727,281
116.33231,39.88149,1728,281
116.33225,39.88152,1729,281
116.33233,39.8814,1730,281
116.33224,39.88157,1731,281
116.33218,39.88146,1732,281
116.33221,39.88145,1733,281
116.33221,39.88145,1734,281
116.33222,39.88148,1735,281
116.33233,39.88137,1736,281
116.33234,39.88141,1737,281
116.33234,39.88145,1738,281
116.33234,39.88146,1739,281
116.33234,39.88145,1740,281
116.33229,39.88157,1741,281
116.33232,39.88147,1742,281
116.33232,39.88145,1743,281
116.33232,39.88142,1744,281
116.33241,39.88154,1745,281
116.33246,39.88138,1746,281
116.33249,39.88117,1747,281
116.33248,39.88125,1748,281
116.33236,39.88149,1749,281
116.33236,39.88149,1750,281
116.33238,39.8815,1751,281
116.33237,39.88154,1752,281
116.33238,39.88154,1753,281
116.33238,39.88153,1754,281
116.33238,39.88162,1755,281
116.33247,39.88155,1756,281
116.33245,39.88154,1757,281
116.33243,39.88153,1758,281
116.33242,39.88151,1759,281
116.33241,39.88151,1760,281
116.33233,39.88182,1761,281
116.33233,39.88164,1762,281
116.33244,39.88118,1763,281
116.33244,39.88118,1764,281
116.3324,39.88129,1765,281
116.33241,39.8813,1766,281
116.33241,39.88132,1767,281
116.33223,39.88161,1768,281
116.33228,39.88155,1769,281
116.33216,39.88152,1770,281
116.33229,39.8814,1771,281
116.3325,39.88092,1772,281
116.33235,39.88126,1773,281
116.33247,39.88127,1774,281
116.33252,39.88143,1775,281
116.33236,39.88141,1776,281
116.33236,39.88125,1777,281
116.33237,39.88123,1778,281
116.33238,39.88126,1779,281
116.33239,39.88128,1780,281
116.33241,39.88136,1781,281
116.33221,39.88112,1782,281
116.4028,39.86862,1783,281
116.33223,39.88118,1784,281
116.33247,39.88186,1785,281
116.33239,39.88147,1786,281
116.3323,39.88121,1787,281
116.33241,39.8815,1788,281
116.3324,39.88151,1789,281
