x,y,k,tid
116.42604,39.83636,0,2817
116.41563,39.8447,1,2817
116.40849,39.84409,2,2817
116.40866,39.83802,3,2817
116.41656,39.84111,4,2817
116.41776,39.85503,5,2817
116.42209,39.86442,6,2817
116.4162,39.86426,7,2817
116.40476,39.86154,8,2817
116.39374,39.86918,9,2817
116.37842,39.88997,10,2817
116.37839,39.88994,11,2817
116.37825,39.88839,12,2817
116.38107,39.87909,13,2817
116.38043,39.85955,14,2817
116.39077,39.85973,15,2817
116.38783,39.85907,16,2817
116.38074,39.86125,17,2817
116.37046,39.86957,18,2817
116.37671,39.86876,19,2817
116.38058,39.8616,20,2817
116.38072,39.86069,21,2817
116.37296,39.87812,22,2817
116.3805,39.85961,23,2817
116.39177,39.86166,24,2817
116.39626,39.85168,25,2817
116.40617,39.83461,26,2817
116.39601,39.84377,27,2817
116.39412,39.85643,28,2817
116.39329,39.85738,29,2817
116.40578,39.85546,30,2817
116.41429,39.84933,31,2817
116.42746,39.85728,32,2817
116.42776,39.86299,33,2817
116.42519,39.86462,34,2817
116.44829,39.87008,35,2817
116.45353,39.87016,36,2817
116.4828,39.8699,37,2817
116.54152,39.86597,38,2817
116.5516,39.86319,39,2817
116.55358,39.86631,40,2817
116.52236,39.86869,41,2817
116.47169,39.87012,42,2817
116.46169,39.87605,43,2817
116.47078,39.88299,44,2817
116.48524,39.88106,45,2817
116.45636,39.88475,46,2817
116.45636,39.88475,47,2817
116.45494,39.88907,48,2817
116.43532,39.8832,49,2817
116.41801,39.88268,50,2817
116.39584,39.89093,51,2817
116.39336,39.90373,52,2817
116.39315,39.90507,53,2817
116.38739,39.90626,54,2817
116.36658,39.90598,55,2817
116.34066,39.90615,56,2817
116.31218,39.90624,57,2817
116.30953,39.92682,58,2817
116.31384,39.92254,59,2817
116.30075,39.94249,60,2817
116.3038,39.94,61,2817
116.3039,39.92473,62,2817
116.30406,39.91611,63,2817
116.30408,39.91095,64,2817
116.30407,39.90424,65,2817
116.30409,39.9005,66,2817
116.304,39.89608,67,2817
116.30227,39.8957,68,2817
116.30623,39.8957,69,2817
116.30929,39.89572,70,2817
116.31363,39.89552,71,2817
116.31451,39.89509,72,2817
116.32396,39.89552,73,2817
116.36729,39.87712,74,2817
116.38087,39.86273,75,2817
116.39439,39.85552,76,2817
116.40851,39.84545,77,2817
116.40851,39.84545,78,2817
116.41103,39.84463,79,2817
116.41103,39.84463,80,2817
116.41007,39.84455,81,2817
116.41007,39.84463,82,2817
116.40853,39.84496,83,2817
116.40888,39.83971,84,2817
116.40888,39.83971,85,2817
116.41193,39.84441,86,2817
116.40802,39.85509,87,2817
116.41288,39.84453,88,2817
116.41755,39.85572,89,2817
116.40827,39.85583,90,2817
116.4058,39.86057,91,2817
116.40963,39.86075,92,2817
116.4002,39.85577,93,2817
116.38061,39.84809,94,2817
116.3809,39.8357,95,2817
116.37363,39.84464,96,2817
116.36542,39.85653,97,2817
116.35827,39.86681,98,2817
116.3603,39.87097,99,2817
116.3603,39.87097,100,2817
116.36162,39.87665,101,2817
116.34471,39.87641,102,2817
116.34275,39.88849,103,2817
116.30206,39.89586,104,2817
116.26901,39.91452,105,2817
116.27905,39.92277,106,2817
116.27605,39.92725,107,2817
116.29053,39.92268,108,2817
116.3039,39.91758,109,2817
116.30398,39.88556,110,2817
116.30107,39.87975,111,2817
116.32128,39.84794,112,2817
116.35319,39.85031,113,2817
116.35836,39.86287,114,2817
116.35818,39.86677,115,2817
116.34285,39.86916,116,2817
116.34185,39.89649,117,2817
116.32123,39.89596,118,2817
116.31875,39.89828,119,2817
116.32384,39.89555,120,2817
116.32384,39.89555,121,2817
116.3528,39.89783,122,2817
116.36648,39.89824,123,2817
116.36816,39.88833,124,2817
116.38116,39.88064,125,2817
116.38116,39.88064,126,2817
116.38053,39.86049,127,2817
116.39343,39.85502,128,2817
116.40764,39.8603,129,2817
116.41159,39.84284,130,2817
116.4189,39.84436,131,2817
116.42871,39.83481,132,2817
116.44344,39.82576,133,2817
116.44344,39.82576,134,2817
116.44337,39.82571,135,2817
116.44061,39.82483,136,2817
116.42647,39.83622,137,2817
116.41744,39.84896,138,2817
116.42405,39.85733,139,2817
116.40798,39.85664,140,2817
116.39506,39.8642,141,2817
116.39409,39.84684,142,2817
116.39524,39.82274,143,2817
116.39619,39.80439,144,2817
116.41086,39.80236,145,2817
116.41262,39.80152,146,2817
116.41495,39.80192,147,2817
116.40515,39.80401,148,2817
116.39616,39.81578,149,2817
116.39593,39.83518,150,2817
116.40808,39.84093,151,2817
116.40807,39.85513,152,2817
116.41578,39.86409,153,2817
116.42627,39.86451,154,2817
116.42707,39.86462,155,2817
116.42572,39.85834,156,2817
116.40879,39.8558,157,2817
116.39088,39.85001,158,2817
116.38914,39.85553,159,2817
116.40301,39.85598,160,2817
116.36085,39.85434,161,2817
116.30716,39.862,162,2817
116.30718,39.88466,163,2817
116.31827,39.88853,164,2817
116.34653,39.88795,165,2817
116.35709,39.88191,166,2817
116.36997,39.88782,167,2817
116.37811,39.88804,168,2817
116.37811,39.88804,169,2817
116.38907,39.89877,170,2817
116.41203,39.89889,171,2817
116.41187,39.89452,172,2817
116.41244,39.89224,173,2817
116.41489,39.87508,174,2817
116.40971,39.85607,175,2817
116.36174,39.86844,176,2817
116.34758,39.89696,177,2817
116.35904,39.99223,178,2817
116.3635,39.97864,179,2817
116.36395,39.96522,180,2817
116.36602,39.94526,181,2817
116.35716,39.93115,182,2817
116.33877,39.93123,183,2817
116.31383,39.93123,184,2817
116.29453,39.92278,185,2817
116.282,39.91258,186,2817
116.2888,39.90819,187,2817
116.29766,39.90611,188,2817
116.30388,39.8886,189,2817
116.31904,39.84869,190,2817
116.36999,39.85567,191,2817
116.4083,39.84735,192,2817
116.41306,39.84318,193,2817
116.41306,39.84443,194,2817
116.40998,39.84462,195,2817
116.40866,39.8411,196,2817
116.40784,39.83739,197,2817
116.41572,39.84469,198,2817
116.39349,39.86741,199,2817
116.36829,39.87585,200,2817
116.36826,39.89325,201,2817
116.36794,39.90505,202,2817
116.36566,39.90629,203,2817
116.36778,39.90626,204,2817
116.37775,39.9005,205,2817
116.37838,39.88862,206,2817
116.39313,39.88514,207,2817
116.41833,39.89189,208,2817
116.44713,39.89215,209,2817
116.44713,39.89215,210,2817
116.44849,39.89615,211,2817
116.43827,39.89438,212,2817
116.43027,39.89981,213,2817
116.42868,39.91449,214,2817
116.43109,39.92637,215,2817
116.43595,39.93241,216,2817
116.43363,39.93358,217,2817
116.42199,39.9351,218,2817
116.42742,39.93482,219,2817
116.42831,39.91902,220,2817
116.43524,39.90708,221,2817
116.45491,39.90281,222,2817
116.44845,39.89608,223,2817
116.36623,39.87704,224,2817
116.38147,39.87102,225,2817
116.38851,39.85743,226,2817
116.40581,39.85542,227,2817
116.41021,39.84317,228,2817
116.40825,39.85349,229,2817
116.41571,39.86407,230,2817
116.42757,39.8634,231,2817
116.42787,39.86299,232,2817
116.43022,39.86444,233,2817
116.43022,39.86444,234,2817
116.43885,39.86658,235,2817
116.43273,39.86518,236,2817
116.41504,39.87449,237,2817
116.41279,39.88998,238,2817
116.41276,39.89475,239,2817
116.41069,39.89566,240,2817
116.41263,39.89823,241,2817
116.41257,39.90679,242,2817
116.41669,39.90218,243,2817
116.41185,39.89795,244,2817
116.41243,39.89208,245,2817
116.41433,39.88304,246,2817
116.4114,39.86603,247,2817
116.41429,39.86976,248,2817
116.43086,39.86709,249,2817
116.4244,39.86241,250,2817
116.3849,39.85635,251,2817
116.3806,39.85443,252,2817
116.37252,39.84255,253,2817
116.37252,39.84255,254,2817
116.37779,39.83972,255,2817
116.38082,39.84892,256,2817
116.38075,39.86038,257,2817
116.37283,39.87748,258,2817
116.36277,39.88198,259,2817
116.35797,39.88808,260,2817
116.35253,39.88728,261,2817
116.36048,39.88191,262,2817
116.36048,39.88191,263,2817
116.37891,39.87741,264,2817
116.3807,39.8616,265,2817
116.38787,39.85894,266,2817
116.3947,39.85552,267,2817
116.41348,39.85556,268,2817
116.41883,39.86418,269,2817
116.42584,39.85802,270,2817
116.43891,39.85384,271,2817
116.43048,39.85783,272,2817
116.42057,39.8645,273,2817
116.41624,39.84267,274,2817
116.41513,39.84454,275,2817
116.40779,39.84341,276,2817
116.4076,39.8408,277,2817
116.40965,39.8387,278,2817
116.40879,39.84181,279,2817
116.41584,39.84549,280,2817
116.4103,39.84471,281,2817
116.40331,39.84559,282,2817
116.40338,39.83462,283,2817
116.40583,39.84316,284,2817
116.40716,39.8408,285,2817
116.40877,39.83902,286,2817
116.40895,39.83978,287,2817
116.40895,39.83978,288,2817
116.41202,39.84433,289,2817
116.41562,39.84827,290,2817
116.42164,39.85679,291,2817
116.41845,39.84841,292,2817
116.41467,39.84413,293,2817
116.40829,39.85089,294,2817
116.40812,39.85362,295,2817
116.41524,39.86834,296,2817
116.41289,39.88713,297,2817
116.41284,39.88952,298,2817
116.41283,39.89118,299,2817
116.41264,39.89379,300,2817
116.41315,39.89583,301,2817
116.41241,39.89238,302,2817
116.43247,39.8922,303,2817
116.45465,39.89197,304,2817
116.46958,39.89182,305,2817
116.46922,39.8786,306,2817
116.50777,39.86706,307,2817
116.50974,39.85893,308,2817
116.50855,39.84947,309,2817
116.51223,39.84927,310,2817
116.50793,39.86407,311,2817
116.49254,39.87721,312,2817
116.4622,39.88322,313,2817
116.45164,39.8833,314,2817
116.44994,39.87998,315,2817
116.45259,39.86457,316,2817
116.44687,39.86166,317,2817
116.42808,39.86156,318,2817
116.37043,39.84853,319,2817
116.37945,39.84797,320,2817
116.38347,39.85549,321,2817
116.40776,39.85536,322,2817
116.41437,39.84439,323,2817
116.41738,39.84832,324,2817
116.41986,39.8396,325,2817
116.41674,39.83097,326,2817
116.41892,39.83347,327,2817
116.4223,39.84727,328,2817
116.44965,39.86239,329,2817
116.44965,39.86239,330,2817
116.45582,39.9123,331,2817
116.44875,39.95626,332,2817
116.44875,39.95626,333,2817
116.43359,39.95841,334,2817
116.43768,39.9587,335,2817
116.43768,39.9587,336,2817
116.45263,39.95299,337,2817
116.45543,39.93416,338,2817
116.45492,39.90767,339,2817
116.45483,39.88758,340,2817
116.45371,39.86627,341,2817
116.43989,39.87639,342,2817
116.428,39.88302,343,2817
116.38069,39.85936,344,2817
116.4028,39.8555,345,2817
116.41019,39.84435,346,2817
116.40953,39.84463,347,2817
116.40984,39.84445,348,2817
116.41024,39.84443,349,2817
116.40803,39.855,350,2817
116.40744,39.86204,351,2817
116.41066,39.84319,352,2817
116.41238,39.84457,353,2817
116.41253,39.85552,354,2817
116.41978,39.86974,355,2817
116.42894,39.86451,356,2817
116.42766,39.86307,357,2817
116.41732,39.86443,358,2817
116.38123,39.86998,359,2817
116.33062,39.86774,360,2817
116.32625,39.88578,361,2817
116.33394,39.88824,362,2817
116.35266,39.88471,363,2817
116.3677,39.87695,364,2817
116.38064,39.86225,365,2817
116.385,39.84369,366,2817
116.38069,39.85397,367,2817
116.39186,39.8554,368,2817
116.40244,39.84082,369,2817
116.41252,39.83769,370,2817
116.4083,39.8463,371,2817
116.31456,39.8951,372,2817
116.33639,39.89629,373,2817
116.42608,39.86953,374,2817
116.44449,39.88023,375,2817
116.44807,39.86331,376,2817
116.43881,39.86489,377,2817
116.40838,39.85582,378,2817
116.40828,39.84498,379,2817
116.40814,39.85329,380,2817
116.40769,39.85593,381,2817
116.38045,39.85079,382,2817
116.37252,39.83984,383,2817
116.37454,39.84233,384,2817
116.37352,39.84306,385,2817
116.38057,39.85412,386,2817
116.41447,39.84431,387,2817
116.41447,39.84431,388,2817
116.41751,39.85263,389,2817
116.42811,39.86138,390,2817
116.43213,39.86446,391,2817
116.41759,39.84823,392,2817
116.42462,39.85696,393,2817
116.42715,39.86448,394,2817
116.42568,39.85799,395,2817
116.42568,39.85799,396,2817
116.39385,39.84817,397,2817
116.39516,39.82491,398,2817
116.39977,39.80351,399,2817
116.41336,39.79236,400,2817
116.4111,39.80169,401,2817
116.3961,39.81387,402,2817
116.39466,39.84193,403,2817
116.39382,39.86925,404,2817
116.43995,39.87887,405,2817
116.42846,39.92117,406,2817
116.41917,39.95425,407,2817
116.41894,39.95121,408,2817
116.42729,39.93365,409,2817
116.43835,39.88906,410,2817
116.41549,39.86231,411,2817
116.41598,39.84828,412,2817
116.44023,39.85744,413,2817
116.45564,39.90063,414,2817
116.46088,39.92149,415,2817
116.45862,39.92744,416,2817
116.45842,39.9221,417,2817
116.45842,39.9221,418,2817
116.44509,39.92242,419,2817
116.42681,39.9231,420,2817
116.40989,39.90546,421,2817
116.45631,39.90667,422,2817
116.45595,39.94757,423,2817
116.46732,39.94629,424,2817
116.46023,39.92203,425,2817
116.4551,39.91492,426,2817
116.45228,39.896,427,2817
116.45228,39.896,428,2817
116.45575,39.92794,429,2817
116.45536,39.91247,430,2817
116.4502,39.88323,431,2817
116.44986,39.87799,432,2817
116.44859,39.86592,433,2817
116.43769,39.86485,434,2817
116.43833,39.89041,435,2817
116.41881,39.9034,436,2817
116.43075,39.89636,437,2817
116.41223,39.89469,438,2817
116.41201,39.89451,439,2817
116.41077,39.89571,440,2817
116.41292,39.88627,441,2817
116.41289,39.87194,442,2817
116.35552,39.86751,443,2817
116.33731,39.89646,444,2817
116.31575,39.909,445,2817
116.32253,39.90959,446,2817
116.35015,39.91234,447,2817
116.35672,39.91248,448,2817
116.3681,39.89557,449,2817
116.3681,39.88215,450,2817
116.37537,39.88114,451,2817
116.38786,39.87008,452,2817
116.41913,39.86269,453,2817
116.42002,39.86323,454,2817
116.42574,39.86471,455,2817
116.40813,39.86386,456,2817
116.39154,39.86173,457,2817
116.4132,39.8557,458,2817
116.45507,39.88264,459,2817
116.46025,39.90671,460,2817
116.47019,39.89224,461,2817
