x,y,k,tid
116.46114,39.98336,0,2860
116.44182,39.9934,1,2860
116.45596,39.99568,2,2860
116.45878,39.98746,3,2860
116.46036,39.9792,4,2860
116.46034,39.97931,5,2860
116.46032,39.9794,6,2860
116.46062,39.97877,7,2860
116.44407,39.94604,8,2860
116.44423,39.92147,9,2860
116.44473,39.92155,10,2860
116.44041,39.92184,11,2860
116.38526,39.9476,12,2860
116.30168,39.94196,13,2860
116.3042,39.94074,14,2860
116.30475,39.9398,15,2860
116.31587,39.9643,16,2860
116.33071,39.97509,17,2860
116.34206,39.99188,18,2860
116.35582,39.9967,19,2860
116.35582,39.9967,20,2860
116.35574,39.9962,21,2860
116.35898,39.99139,22,2860
116.35876,39.99166,23,2860
116.35868,39.9916,24,2860
116.35861,39.99165,25,2860
116.35867,39.99145,26,2860
116.35887,39.99151,27,2860
116.35885,39.9916,28,2860
116.35881,39.99158,29,2860
116.35897,39.99185,30,2860
116.37526,39.98595,31,2860
116.38379,39.98627,32,2860
116.4092,39.98704,33,2860
116.41661,39.98767,34,2860
116.37487,39.98665,35,2860
116.48457,39.98909,36,2860
116.58049,40.07489,37,2860
116.57098,40.0606,38,2860
116.56983,40.0607,39,2860
116.56427,40.06156,40,2860
116.56379,40.06337,41,2860
116.56379,40.06337,42,2860
116.56383,40.0634,43,2860
116.56308,40.0666,44,2860
116.56301,40.06662,45,2860
116.56304,40.06658,46,2860
116.56228,40.06906,47,2860
116.56664,40.07047,48,2860
116.56669,40.07059,49,2860
116.56679,40.07117,50,2860
116.56677,40.07116,51,2860
116.56681,40.07114,52,2860
116.56677,40.07116,53,2860
116.56679,40.07114,54,2860
116.56681,40.07112,55,2860
116.56681,40.07115,56,2860
116.5668,40.07115,57,2860
116.56684,40.07111,58,2860
116.56682,40.07116,59,2860
116.56683,40.07114,60,2860
116.56679,40.07115,61,2860
116.56682,40.07117,62,2860
116.56684,40.07112,63,2860
116.56681,40.07114,64,2860
116.56679,40.07117,65,2860
116.56676,40.07113,66,2860
116.56677,40.07116,67,2860
116.56412,40.07064,68,2860
116.56419,40.07062,69,2860
116.56386,40.0643,70,2860
116.58271,40.06192,71,2860
116.58271,40.06192,72,2860
116.5827,40.06191,73,2860
116.58228,40.0647,74,2860
116.58221,40.06504,75,2860
116.58226,40.06511,76,2860
116.58219,40.06499,77,2860
116.58151,40.06929,78,2860
116.5815,40.06956,79,2860
116.5806,40.07464,80,2860
116.58187,40.07596,81,2860
116.58172,40.07596,82,2860
116.5846,40.07667,83,2860
116.58602,40.07677,84,2860
116.5874,40.07723,85,2860
116.57056,40.03836,86,2860
116.5331,40.02227,87,2860
116.50132,40.00449,88,2860
116.44401,40.0166,89,2860
116.40892,40.02092,90,2860
116.37107,40.02144,91,2860
116.35601,40.00826,92,2860
116.35601,40.00826,93,2860
116.35909,40.00007,94,2860
116.35895,39.99022,95,2860
116.36289,39.99186,96,2860
116.3632,39.98614,97,2860
116.42993,39.98776,98,2860
116.43369,39.96631,99,2860
116.43369,39.96631,100,2860
116.41847,39.97329,101,2860
116.41835,39.97641,102,2860
116.41835,39.97892,103,2860
116.41094,39.98419,104,2860
116.411,39.99284,105,2860
116.41069,40.00171,106,2860
116.41062,40.00169,107,2860
116.41062,40.00167,108,2860
116.41075,40.00166,109,2860
116.41115,40.00148,110,2860
116.41109,39.99806,111,2860
116.41434,39.99259,112,2860
116.41863,39.98733,113,2860
116.42498,39.98753,114,2860
116.47529,39.96207,115,2860
116.48019,39.93249,116,2860
116.47605,39.93138,117,2860
116.47221,39.92277,118,2860
116.46607,39.9325,119,2860
116.43905,39.94529,120,2860
116.4378,39.9457,121,2860
116.45659,39.99585,122,2860
116.45321,39.99583,123,2860
116.41776,39.98688,124,2860
116.41828,39.97904,125,2860
116.41825,39.9791,126,2860
116.42033,39.98743,127,2860
116.48029,39.97352,128,2860
116.47432,39.97574,129,2860
116.47429,39.97572,130,2860
116.4743,39.97573,131,2860
116.47292,39.97832,132,2860
116.49749,40.00265,133,2860
116.50099,40.00553,134,2860
116.53088,40.02,135,2860
116.56812,40.03334,136,2860
116.56998,40.03462,137,2860
116.58754,40.05061,138,2860
116.58623,40.04763,139,2860
116.57419,40.04798,140,2860
116.57183,40.04208,141,2860
116.4999,40.00311,142,2860
116.4654,39.97226,143,2860
116.48006,39.95826,144,2860
116.46807,39.90587,145,2860
116.45632,39.90765,146,2860
116.45013,39.95538,147,2860
116.4827,39.98736,148,2860
116.49075,40.00152,149,2860
116.39775,40.0211,150,2860
116.31199,40.07006,151,2860
116.35335,40.08254,152,2860
116.33596,40.08203,153,2860
116.32694,40.08022,154,2860
116.31343,40.06568,155,2860
116.32041,40.05188,156,2860
116.32155,40.04596,157,2860
116.30062,40.042,158,2860
116.30104,40.04077,159,2860
116.3011,40.04077,160,2860
116.30107,40.04076,161,2860
116.30133,40.04079,162,2860
116.30119,40.04067,163,2860
116.30119,40.04071,164,2860
116.31137,40.01497,165,2860
116.31224,40.0106,166,2860
116.31224,40.0106,167,2860
116.31019,39.98441,168,2860
116.2986,40.02416,169,2860
116.29857,40.02419,170,2860
116.31212,40.01168,171,2860
116.33374,39.99816,172,2860
116.33374,39.99816,173,2860
116.34685,39.9851,174,2860
116.37723,39.98605,175,2860
116.37724,39.98604,176,2860
116.39748,39.98671,177,2860
116.4183,39.97917,178,2860
116.4183,39.97921,179,2860
116.41809,39.98062,180,2860
116.4826,40.00786,181,2860
116.4883,40.01367,182,2860
116.48826,40.01369,183,2860
116.48829,40.01368,184,2860
116.48966,40.01017,185,2860
116.49711,40.00223,186,2860
116.49888,40.00384,187,2860
116.49945,40.00431,188,2860
116.47932,40.01288,189,2860
116.47938,40.01279,190,2860
116.479,40.0129,191,2860
116.47904,40.01284,192,2860
116.46164,40.01457,193,2860
116.4672,40.00219,194,2860
116.46634,39.99791,195,2860
116.46122,39.98871,196,2860
116.45851,39.98773,197,2860
116.45857,39.98778,198,2860
116.45859,39.98775,199,2860
116.45863,39.98779,200,2860
116.45862,39.98778,201,2860
116.45827,39.98777,202,2860
116.4581,39.98756,203,2860
116.45829,39.98769,204,2860
116.4589,39.98729,205,2860
116.46177,39.97084,206,2860
116.46829,39.95206,207,2860
116.46674,39.95149,208,2860
116.46657,39.95123,209,2860
116.47601,39.96201,210,2860
116.47371,39.96436,211,2860
116.47172,39.97908,212,2860
116.46673,39.98247,213,2860
116.4587,39.98774,214,2860
116.45836,39.98786,215,2860
116.45842,39.98789,216,2860
116.45826,39.98776,217,2860
116.45833,39.98771,218,2860
116.4584,39.98777,219,2860
116.45839,39.98781,220,2860
116.45721,39.98845,221,2860
116.45672,39.99052,222,2860
116.45661,39.99545,223,2860
116.44654,39.99523,224,2860
116.45846,39.98762,225,2860
116.45857,39.98781,226,2860
116.45837,39.98772,227,2860
116.45913,39.98698,228,2860
116.46213,39.98959,229,2860
116.45891,39.98752,230,2860
116.45891,39.98752,231,2860
116.45729,39.98833,232,2860
116.41451,39.98743,233,2860
116.22996,39.90619,234,2860
116.21501,39.90181,235,2860
116.21027,39.89837,236,2860
116.25824,39.90255,237,2860
116.29683,39.90625,238,2860
116.36719,39.90581,239,2860
116.41838,39.9068,240,2860
116.42077,39.90508,241,2860
116.42728,39.90697,242,2860
116.43012,39.91176,243,2860
116.43669,39.91195,244,2860
116.44446,39.91499,245,2860
116.444,39.92001,246,2860
116.43041,39.92318,247,2860
116.42331,39.92828,248,2860
116.37571,39.91755,249,2860
116.3781,39.89636,250,2860
116.38063,39.86072,251,2860
116.3731,39.83884,252,2860
116.3731,39.83884,253,2860
116.3767,39.8395,254,2860
116.37496,39.83889,255,2860
116.3741,39.8488,256,2860
116.36693,39.84935,257,2860
116.36818,39.86592,258,2860
116.36831,39.87672,259,2860
116.36833,39.88234,260,2860
116.36814,39.88691,261,2860
116.36851,39.89244,262,2860
116.3683,39.89757,263,2860
116.35032,39.90741,264,2860
116.33881,39.92208,265,2860
116.33713,39.92203,266,2860
116.32771,39.92958,267,2860
116.35408,39.9638,268,2860
116.36676,39.95659,269,2860
116.37284,39.9551,270,2860
116.37294,39.95271,271,2860
116.37294,39.95271,272,2860
116.37772,39.95006,273,2860
116.38454,39.95008,274,2860
116.38741,39.94997,275,2860
116.38917,39.95152,276,2860
116.38903,39.95417,277,2860
116.38855,39.96009,278,2860
116.39004,39.96775,279,2860
116.37413,39.9798,280,2860
116.37085,39.9909,281,2860
116.36143,40.00362,282,2860
116.34564,40.02456,283,2860
116.34456,40.02595,284,2860
116.34456,40.02595,285,2860
116.34147,40.03007,286,2860
116.3311,40.03101,287,2860
116.33021,40.03524,288,2860
116.30806,40.02809,289,2860
116.31008,39.98549,290,2860
116.31451,39.9672,291,2860
116.31398,39.96894,292,2860
116.32717,39.9752,293,2860
116.32728,39.9861,294,2860
116.33033,39.99151,295,2860
116.34807,39.95762,296,2860
116.34943,39.93267,297,2860
116.36082,39.92699,298,2860
116.36428,39.9311,299,2860
116.36703,39.9312,300,2860
116.38642,39.93203,301,2860
116.40543,39.93197,302,2860
116.40591,39.93199,303,2860
116.42618,39.93242,304,2860
116.44706,39.9322,305,2860
116.44704,39.93225,306,2860
116.45593,39.9514,307,2860
116.45846,39.95222,308,2860
116.46194,39.95391,309,2860
116.47606,39.95676,310,2860
116.47678,39.95512,311,2860
116.47381,39.96345,312,2860
116.47641,39.96728,313,2860
116.47418,39.97757,314,2860
116.4825,39.97191,315,2860
116.4825,39.97191,316,2860
116.49758,39.989,317,2860
116.4853,39.98668,318,2860
116.48223,39.9876,319,2860
116.46723,39.99394,320,2860
116.46702,39.99376,321,2860
116.46699,39.99389,322,2860
116.46719,39.99405,323,2860
116.46727,39.99412,324,2860
116.45554,39.99583,325,2860
116.44202,39.9938,326,2860
116.46838,39.99644,327,2860
116.4676,39.99523,328,2860
116.46759,39.9951,329,2860
116.46758,39.9951,330,2860
116.46758,39.9951,331,2860
116.46779,39.99503,332,2860
116.46759,39.99484,333,2860
116.4687,39.9749,334,2860
116.44419,39.90721,335,2860
116.4377,39.9033,336,2860
116.44517,39.90689,337,2860
116.45381,39.90553,338,2860
116.45198,39.90697,339,2860
116.42847,39.92089,340,2860
116.42817,39.94057,341,2860
116.42362,39.9432,342,2860
116.42691,39.9398,343,2860
116.43459,39.94718,344,2860
116.43562,39.94919,345,2860
116.50451,40.00711,346,2860
116.50451,40.00711,347,2860
116.58258,40.07938,348,2860
116.58026,40.07626,349,2860
116.57161,40.06331,350,2860
116.56688,40.07095,351,2860
116.56687,40.07094,352,2860
116.56685,40.07096,353,2860
116.56688,40.07093,354,2860
116.56689,40.07096,355,2860
116.56689,40.07093,356,2860
116.56689,40.07093,357,2860
116.56687,40.07095,358,2860
116.56686,40.07093,359,2860
116.56685,40.07095,360,2860
116.56679,40.07095,361,2860
116.56681,40.07095,362,2860
116.56689,40.07094,363,2860
116.56685,40.07094,364,2860
116.56685,40.07094,365,2860
116.56692,40.07096,366,2860
116.56693,40.07092,367,2860
116.5669,40.07094,368,2860
116.5669,40.07094,369,2860
116.56513,40.06411,370,2860
116.57505,40.06287,371,2860
116.57498,40.0629,372,2860
116.58116,40.0623,373,2860
116.58105,40.06233,374,2860
116.58108,40.0623,375,2860
116.58279,40.06182,376,2860
116.58254,40.06327,377,2860
116.58261,40.06328,378,2860
116.58211,40.06622,379,2860
116.58216,40.06616,380,2860
116.58148,40.06965,381,2860
116.58043,40.07516,382,2860
116.58059,40.07528,383,2860
116.58196,40.07541,384,2860
116.5817,40.07538,385,2860
116.58157,40.07544,386,2860
116.58188,40.07542,387,2860
116.58183,40.07539,388,2860
116.58206,40.07551,389,2860
116.58347,40.07628,390,2860
116.58352,40.07626,391,2860
116.58352,40.07626,392,2860
116.58359,40.07625,393,2860
116.58352,40.07625,394,2860
116.58359,40.07625,395,2860
116.58359,40.07626,396,2860
116.58352,40.07629,397,2860
116.5835,40.07629,398,2860
116.58355,40.07624,399,2860
116.58552,40.07679,400,2860
116.58559,40.07683,401,2860
116.58555,40.07677,402,2860
116.58563,40.07676,403,2860
116.58569,40.07668,404,2860
116.58563,40.07674,405,2860
116.5856,40.07673,406,2860
116.5856,40.07668,407,2860
116.58561,40.07668,408,2860
116.5856,40.07672,409,2860
116.58561,40.07666,410,2860
116.58554,40.07668,411,2860
116.58555,40.07671,412,2860
116.5856,40.07679,413,2860
116.58309,40.06273,414,2860
116.45504,39.97552,415,2860
116.30852,39.9842,416,2860
116.27614,39.95317,417,2860
116.28232,39.95562,418,2860
116.29248,39.96706,419,2860
116.29382,39.96468,420,2860
116.30483,39.97604,421,2860
116.30491,39.97584,422,2860
116.30475,39.976,423,2860
116.30479,39.97602,424,2860
116.30485,39.97596,425,2860
116.30472,39.97609,426,2860
116.30469,39.97609,427,2860
116.30472,39.97614,428,2860
116.30486,39.97602,429,2860
116.30486,39.97602,430,2860
116.30496,39.97604,431,2860
116.30481,39.9759,432,2860
116.305,39.97565,433,2860
116.30487,39.97561,434,2860
116.30504,39.97554,435,2860
116.30505,39.97563,436,2860
116.30505,39.97561,437,2860
116.30489,39.97581,438,2860
116.30483,39.976,439,2860
116.30425,39.97582,440,2860
116.30438,39.97554,441,2860
116.30441,39.97575,442,2860
116.30445,39.97564,443,2860
116.30448,39.9753,444,2860
116.3044,39.97545,445,2860
116.30454,39.97518,446,2860
116.30432,39.97576,447,2860
116.30449,39.97571,448,2860
116.30455,39.97562,449,2860
116.30422,39.9757,450,2860
116.30449,39.97578,451,2860
116.30425,39.97578,452,2860
116.3043,39.97586,453,2860
116.30417,39.97579,454,2860
116.3042,39.97582,455,2860
116.30413,39.97584,456,2860
116.30412,39.9758,457,2860
116.3042,39.97584,458,2860
116.30436,39.97585,459,2860
116.30418,39.97574,460,2860
116.30397,39.97595,461,2860
116.30948,39.984,462,2860
116.33086,39.99055,463,2860
116.33102,39.99014,464,2860
116.33108,39.99009,465,2860
116.33098,39.99015,466,2860
116.3311,39.99,467,2860
116.33101,39.99001,468,2860
116.33139,39.98984,469,2860
116.3314,39.98993,470,2860
116.33123,39.98998,471,2860
116.33108,39.98995,472,2860
116.33423,39.98743,473,2860
116.39549,39.97486,474,2860
116.3955,39.97218,475,2860
116.39562,39.96958,476,2860
116.37039,39.96686,477,2860
116.36439,39.96044,478,2860
116.36546,39.94853,479,2860
116.3499,39.92494,480,2860
116.34128,39.85811,481,2860
116.40488,39.85545,482,2860
116.40442,39.85305,483,2860
116.4077,39.85951,484,2860
116.4077,39.85951,485,2860
116.41708,39.86446,486,2860
116.43251,39.86452,487,2860
116.4363,39.85732,488,2860
116.43858,39.85733,489,2860
116.44996,39.86124,490,2860
116.45917,39.86662,491,2860
116.4616,39.87395,492,2860
116.43931,39.92105,493,2860
116.4442,39.92838,494,2860
116.449,39.94691,495,2860
116.45388,39.94766,496,2860
116.45723,39.95609,497,2860
116.46803,39.9662,498,2860
116.46802,39.96615,499,2860
116.47249,40.00178,500,2860
116.4736,40.00462,501,2860
116.48992,40.00355,502,2860
116.48988,40.00358,503,2860
116.4901,40.00364,504,2860
116.49012,40.00363,505,2860
116.49013,40.00363,506,2860
116.49405,40.00676,507,2860
116.5056,40.02303,508,2860
116.50514,40.02614,509,2860
116.52105,40.03302,510,2860
116.52238,40.03358,511,2860
116.52238,40.03358,512,2860
116.52235,40.03358,513,2860
116.52238,40.03354,514,2860
116.52238,40.03362,515,2860
116.52238,40.03359,516,2860
116.52245,40.03361,517,2860
116.52237,40.03361,518,2860
116.52239,40.0336,519,2860
116.52236,40.03369,520,2860
116.5044,40.03108,521,2860
116.50471,40.0289,522,2860
116.48851,40.01873,523,2860
116.49296,40.00998,524,2860
116.49303,40.00992,525,2860
116.49959,40.00685,526,2860
116.48215,39.98822,527,2860
116.48321,39.98682,528,2860
116.48346,39.98293,529,2860
116.48337,39.9835,530,2860
116.48311,39.98313,531,2860
116.43718,39.96398,532,2860
116.43697,39.96407,533,2860
116.41838,39.97503,534,2860
116.41827,39.97893,535,2860
116.41815,39.97895,536,2860
116.41812,39.97887,537,2860
116.47332,39.977,538,2860
116.46549,39.96462,539,2860
116.46509,39.96424,540,2860
116.45286,39.95484,541,2860
116.45263,39.95485,542,2860
116.45263,39.95485,543,2860
116.45265,39.95484,544,2860
116.45265,39.95484,545,2860
116.45264,39.95482,546,2860
116.45227,39.94747,547,2860
116.42001,39.9208,548,2860
116.4215,39.92059,549,2860
116.41939,39.93243,550,2860
116.41934,39.94378,551,2860
116.41911,39.95068,552,2860
116.43387,39.95064,553,2860
116.42821,39.9453,554,2860
116.41918,39.95067,555,2860
116.50262,40.00547,556,2860
116.5159,40.02259,557,2860
116.49062,39.99634,558,2860
116.48215,39.98805,559,2860
116.48364,39.97637,560,2860
116.48369,39.9737,561,2860
116.47272,39.97433,562,2860
116.46723,39.96576,563,2860
116.46459,39.96371,564,2860
116.45823,39.95707,565,2860
116.45548,39.9384,566,2860
116.45197,39.93243,567,2860
116.45533,39.9335,568,2860
116.46644,39.9322,569,2860
116.46692,39.9285,570,2860
116.467,39.92478,571,2860
116.46866,39.92305,572,2860
116.46866,39.92305,573,2860
116.46712,39.92427,574,2860
116.46674,39.92549,575,2860
116.46692,39.92494,576,2860
116.46713,39.92447,577,2860
116.46802,39.92162,578,2860
116.48011,39.92161,579,2860
116.48365,39.91165,580,2860
116.48124,39.86086,581,2860
116.46095,39.83378,582,2860
116.44218,39.83114,583,2860
116.44307,39.82562,584,2860
116.44309,39.82577,585,2860
116.44311,39.82575,586,2860
116.44311,39.82575,587,2860
116.44311,39.82575,588,2860
116.44311,39.82575,589,2860
116.44311,39.82575,590,2860
116.44311,39.82575,591,2860
116.44311,39.82575,592,2860
116.44311,39.82575,593,2860
116.44311,39.82575,594,2860
116.44311,39.82575,595,2860
116.44311,39.82575,596,2860
116.44311,39.82575,597,2860
116.44311,39.82575,598,2860
116.44311,39.82575,599,2860
116.44311,39.82575,600,2860
116.44311,39.82575,601,2860
116.44311,39.82575,602,2860
116.44311,39.82575,603,2860
116.44302,39.8257,604,2860
116.44331,39.8266,605,2860
116.47717,39.8446,606,2860
116.47173,39.86653,607,2860
116.47175,39.86654,608,2860
116.47142,39.87618,609,2860
116.4712,39.88076,610,2860
116.4555,39.89088,611,2860
116.45554,39.89447,612,2860
116.4556,39.89517,613,2860
116.45428,39.90468,614,2860
116.43777,39.90237,615,2860
116.39116,39.94767,616,2860
116.36379,39.97425,617,2860
116.34761,39.98484,618,2860
116.34235,39.98564,619,2860
116.33816,39.98492,620,2860
116.3808,39.98644,621,2860
116.48366,39.94557,622,2860
116.47008,39.9297,623,2860
116.47008,39.9297,624,2860
116.46674,39.92891,625,2860
116.46666,39.92897,626,2860
116.41847,39.9722,627,2860
116.41806,39.98177,628,2860
116.42481,39.97654,629,2860
116.41816,39.979,630,2860
116.4184,39.97918,631,2860
116.3473,39.9646,632,2860
116.34361,39.94418,633,2860
116.34243,39.94875,634,2860
116.33158,39.94873,635,2860
116.32735,39.96639,636,2860
116.32041,39.96623,637,2860
116.31864,39.96557,638,2860
116.31878,39.96583,639,2860
116.31876,39.96582,640,2860
116.3187,39.96576,641,2860
116.37448,39.96679,642,2860
116.44061,39.95621,643,2860
116.43375,39.95158,644,2860
116.4352,39.9538,645,2860
116.4629,39.96939,646,2860
116.45036,40.00086,647,2860
116.44837,39.99937,648,2860
116.45155,39.99986,649,2860
116.41626,40.04238,650,2860
116.41981,40.04404,651,2860
116.41981,40.04404,652,2860
116.41697,40.03604,653,2860
116.41028,40.03628,654,2860
116.45478,39.95191,655,2860
116.4553,39.94188,656,2860
116.44924,39.93498,657,2860
116.4488,39.90729,658,2860
116.44786,39.90735,659,2860
116.44769,39.91539,660,2860
116.44669,39.92073,661,2860
116.41241,39.93705,662,2860
116.41237,39.937,663,2860
116.41449,39.96071,664,2860
116.41851,39.97179,665,2860
116.41294,39.98761,666,2860
116.41294,39.98761,667,2860
116.40705,39.98742,668,2860
116.39926,39.99845,669,2860
116.40233,40.01958,670,2860
116.40145,40.0564,671,2860
116.40691,40.06633,672,2860
116.4055,40.10908,673,2860
116.4229,40.10001,674,2860
116.40821,40.10287,675,2860
116.40682,40.10295,676,2860
116.40776,40.07898,677,2860
116.40669,40.06709,678,2860
116.4067,40.06702,679,2860
116.48821,40.0137,680,2860
116.48821,40.0137,681,2860
116.48821,40.0137,682,2860
116.48821,40.0137,683,2860
116.48821,40.0137,684,2860
116.48821,40.0137,685,2860
116.48821,40.0137,686,2860
116.48821,40.0137,687,2860
116.48821,40.0137,688,2860
116.48821,40.0137,689,2860
116.48821,40.0137,690,2860
116.48821,40.0137,691,2860
116.48821,40.0137,692,2860
116.48821,40.0137,693,2860
116.48821,40.0137,694,2860
116.48821,40.0137,695,2860
116.4881,40.01365,696,2860
116.48816,40.01361,697,2860
116.48816,40.01361,698,2860
116.48819,40.01363,699,2860
116.4748,40.01254,700,2860
116.46236,40.01034,701,2860
116.4229,40.02073,702,2860
116.34828,40.0231,703,2860
116.34708,40.02358,704,2860
116.31562,40.06319,705,2860
116.31562,40.06319,706,2860
116.30374,40.07708,707,2860
116.30197,40.07945,708,2860
116.29304,40.07691,709,2860
116.29313,40.07681,710,2860
116.29308,40.07682,711,2860
116.29313,40.0769,712,2860
116.30116,40.08102,713,2860
116.30471,40.07639,714,2860
116.29283,40.09339,715,2860
116.25912,40.13653,716,2860
116.25348,40.14329,717,2860
116.27424,40.17406,718,2860
116.36268,40.1622,719,2860
116.37349,40.16047,720,2860
116.45786,40.15715,721,2860
116.49031,40.20155,722,2860
116.49579,40.20942,723,2860
116.56058,40.25572,724,2860
116.63418,40.27593,725,2860
116.63414,40.27692,726,2860
116.64204,40.30298,727,2860
116.67838,40.32589,728,2860
116.68615,40.32671,729,2860
116.73878,40.33032,730,2860
116.78236,40.35016,731,2860
116.78802,40.35285,732,2860
116.8204,40.37363,733,2860
116.82679,40.37282,734,2860
116.82682,40.37277,735,2860
116.83702,40.37481,736,2860
116.83931,40.372,737,2860
116.83908,40.37208,738,2860
116.83882,40.37215,739,2860
116.82997,40.36758,740,2860
116.8032,40.38655,741,2860
116.7709,40.40481,742,2860
116.77088,40.4056,743,2860
116.75042,40.43199,744,2860
116.73032,40.43429,745,2860
116.73032,40.43429,746,2860
116.7303,40.4343,747,2860
116.7303,40.4343,748,2860
116.73029,40.43432,749,2860
116.73029,40.43432,750,2860
116.7303,40.43431,751,2860
116.73035,40.43427,752,2860
116.73035,40.43426,753,2860
116.73035,40.43425,754,2860
116.73526,40.43389,755,2860
116.73641,40.43406,756,2860
116.75973,40.42859,757,2860
116.77226,40.3992,758,2860
116.77364,40.39829,759,2860
116.82267,40.37648,760,2860
116.83951,40.3748,761,2860
116.83995,40.37482,762,2860
116.8417,40.37438,763,2860
116.84172,40.37422,764,2860
116.84189,40.3746,765,2860
116.84484,40.36919,766,2860
116.82706,40.37284,767,2860
116.82708,40.37288,768,2860
116.81244,40.36654,769,2860
116.81093,40.36649,770,2860
116.80826,40.36628,771,2860
116.80916,40.36463,772,2860
116.80918,40.36463,773,2860
116.80918,40.36463,774,2860
116.80918,40.36463,775,2860
116.80918,40.36463,776,2860
116.80918,40.36463,777,2860
116.80918,40.36463,778,2860
116.80918,40.36463,779,2860
116.80918,40.36463,780,2860
116.80918,40.36463,781,2860
116.80918,40.36463,782,2860
116.80918,40.36463,783,2860
116.80918,40.36463,784,2860
116.80918,40.36463,785,2860
116.80918,40.36463,786,2860
116.80919,40.36467,787,2860
116.80919,40.36467,788,2860
116.80786,40.36619,789,2860
116.80781,40.36615,790,2860
116.807,40.366,791,2860
116.80701,40.36596,792,2860
116.80699,40.36595,793,2860
116.80701,40.366,794,2860
116.80707,40.36608,795,2860
116.80698,40.366,796,2860
116.80921,40.36622,797,2860
116.82273,40.37374,798,2860
116.82628,40.37305,799,2860
116.82701,40.37268,800,2860
116.82704,40.37284,801,2860
116.82831,40.37221,802,2860
116.83137,40.37872,803,2860
116.83141,40.37882,804,2860
116.83141,40.37882,805,2860
116.83141,40.37882,806,2860
116.83121,40.37877,807,2860
116.85062,40.38753,808,2860
116.85181,40.38422,809,2860
116.85155,40.37498,810,2860
116.83984,40.3749,811,2860
116.83825,40.37368,812,2860
116.83732,40.37111,813,2860
116.83732,40.37111,814,2860
116.8327,40.37162,815,2860
116.81369,40.36665,816,2860
116.81124,40.36639,817,2860
116.81116,40.36659,818,2860
116.82693,40.37302,819,2860
116.82046,40.37393,820,2860
116.82033,40.37711,821,2860
116.77221,40.39928,822,2860
116.76224,40.42451,823,2860
116.75485,40.43194,824,2860
116.7303,40.43425,825,2860
116.7303,40.43425,826,2860
116.7303,40.43425,827,2860
116.7303,40.43425,828,2860
116.7303,40.43425,829,2860
116.7303,40.43425,830,2860
116.7303,40.43425,831,2860
116.7303,40.43425,832,2860
116.7303,40.43425,833,2860
116.7303,40.43425,834,2860
116.7303,40.43425,835,2860
116.7303,40.43425,836,2860
116.7303,40.43425,837,2860
116.7303,40.43425,838,2860
116.7303,40.43425,839,2860
116.7303,40.43425,840,2860
116.7303,40.43425,841,2860
116.7303,40.43425,842,2860
116.7303,40.43425,843,2860
116.7303,40.43425,844,2860
116.7303,40.43425,845,2860
116.7303,40.43425,846,2860
116.7303,40.43425,847,2860
116.73031,40.43433,848,2860
116.73033,40.4343,849,2860
116.73033,40.43429,850,2860
116.7303,40.4343,851,2860
116.73029,40.43427,852,2860
116.7303,40.43428,853,2860
116.7303,40.43428,854,2860
116.73033,40.43431,855,2860
116.73034,40.43432,856,2860
116.73035,40.43432,857,2860
116.73029,40.43434,858,2860
116.7303,40.43425,859,2860
116.73032,40.43426,860,2860
116.7303,40.43437,861,2860
116.7303,40.43437,862,2860
116.73036,40.43436,863,2860
116.73036,40.43436,864,2860
116.73037,40.43437,865,2860
116.73028,40.43434,866,2860
116.73033,40.43428,867,2860
116.73033,40.43429,868,2860
116.73029,40.43432,869,2860
116.73032,40.43436,870,2860
116.73032,40.43435,871,2860
116.73034,40.43433,872,2860
116.73031,40.43428,873,2860
116.73029,40.43429,874,2860
116.73029,40.43436,875,2860
116.73028,40.43436,876,2860
116.73036,40.43435,877,2860
116.73033,40.43435,878,2860
116.73033,40.43435,879,2860
116.73035,40.43433,880,2860
116.73036,40.43433,881,2860
116.73036,40.43434,882,2860
116.73035,40.43433,883,2860
116.73034,40.4343,884,2860
116.73031,40.43426,885,2860
116.73033,40.4343,886,2860
116.73034,40.43429,887,2860
116.73038,40.43433,888,2860
116.73039,40.43432,889,2860
116.73032,40.4343,890,2860
116.73032,40.43433,891,2860
116.73031,40.43433,892,2860
116.73029,40.43435,893,2860
116.73027,40.43437,894,2860
116.73026,40.43438,895,2860
116.73032,40.43431,896,2860
116.73033,40.43435,897,2860
116.73033,40.43434,898,2860
116.73033,40.43434,899,2860
116.73034,40.43431,900,2860
116.73037,40.43431,901,2860
116.73036,40.43431,902,2860
116.73032,40.4343,903,2860
116.7303,40.4343,904,2860
116.7303,40.43429,905,2860
116.73034,40.4343,906,2860
116.73032,40.4343,907,2860
116.73033,40.4343,908,2860
116.73034,40.4343,909,2860
116.73034,40.4343,910,2860
116.73033,40.4343,911,2860
116.7303,40.43429,912,2860
116.73035,40.43424,913,2860
116.73035,40.43425,914,2860
116.73039,40.43426,915,2860
116.73022,40.43448,916,2860
116.73021,40.4345,917,2860
116.73029,40.43431,918,2860
116.73028,40.43439,919,2860
116.73026,40.4344,920,2860
116.7292,40.43483,921,2860
116.76113,40.42756,922,2860
116.77791,40.39634,923,2860
116.82037,40.37399,924,2860
116.8273,40.37266,925,2860
116.82734,40.37265,926,2860
116.82728,40.3728,927,2860
116.82733,40.37272,928,2860
116.81522,40.36686,929,2860
116.80919,40.36467,930,2860
116.80984,40.36347,931,2860
116.82691,40.37278,932,2860
116.8302,40.37647,933,2860
116.83115,40.37828,934,2860
116.83161,40.37864,935,2860
116.82218,40.37673,936,2860
116.809,40.3825,937,2860
116.74766,40.43201,938,2860
116.73438,40.43406,939,2860
116.73031,40.43431,940,2860
116.7303,40.43432,941,2860
116.7303,40.43432,942,2860
116.7303,40.43432,943,2860
116.7303,40.43432,944,2860
116.7303,40.43432,945,2860
116.7303,40.43432,946,2860
116.7303,40.43432,947,2860
116.7303,40.43432,948,2860
116.7303,40.43432,949,2860
116.7303,40.43432,950,2860
116.7303,40.43432,951,2860
116.7303,40.43432,952,2860
116.7303,40.43432,953,2860
116.7303,40.43432,954,2860
116.7303,40.43432,955,2860
116.7303,40.43432,956,2860
116.7303,40.43432,957,2860
116.7303,40.43432,958,2860
116.7303,40.43432,959,2860
116.7303,40.43432,960,2860
116.7303,40.43432,961,2860
116.7303,40.43432,962,2860
116.7303,40.43432,963,2860
116.7303,40.43432,964,2860
116.7303,40.43432,965,2860
116.7303,40.43432,966,2860
116.7303,40.43432,967,2860
116.7303,40.43432,968,2860
116.7303,40.43432,969,2860
116.7303,40.43432,970,2860
116.7303,40.43432,971,2860
116.7303,40.43432,972,2860
116.7303,40.43432,973,2860
116.7303,40.43432,974,2860
116.7303,40.43432,975,2860
116.7303,40.43432,976,2860
116.7303,40.43432,977,2860
116.7303,40.43432,978,2860
116.7303,40.43432,979,2860
116.7303,40.43432,980,2860
116.7303,40.43432,981,2860
116.74042,40.43459,982,2860
116.76725,40.42719,983,2860
116.76215,40.42042,984,2860
116.78168,40.39468,985,2860
116.80325,40.3865,986,2860
116.81943,40.37611,987,2860
116.81934,40.37634,988,2860
116.81939,40.37628,989,2860
116.8195,40.37661,990,2860
116.81938,40.37662,991,2860
116.81953,40.37661,992,2860
116.81943,40.37668,993,2860
116.81941,40.37661,994,2860
116.81943,40.37659,995,2860
116.81949,40.37662,996,2860
116.81949,40.37667,997,2860
116.81952,40.3767,998,2860
116.81952,40.37664,999,2860
116.81946,40.37661,1000,2860
116.81946,40.37661,1001,2860
116.81949,40.37658,1002,2860
116.8195,40.37662,1003,2860
116.81935,40.37666,1004,2860
116.81941,40.37644,1005,2860
116.81934,40.37662,1006,2860
116.81933,40.37669,1007,2860
116.81923,40.37663,1008,2860
116.81933,40.37654,1009,2860
116.81922,40.37651,1010,2860
116.81927,40.3765,1011,2860
116.81935,40.37634,1012,2860
116.81927,40.37638,1013,2860
116.81932,40.37661,1014,2860
116.8191,40.37648,1015,2860
116.82675,40.37654,1016,2860
116.83106,40.37879,1017,2860
116.83111,40.3787,1018,2860
116.83098,40.37874,1019,2860
116.83108,40.37871,1020,2860
116.83109,40.37875,1021,2860
116.83122,40.37874,1022,2860
116.83116,40.37874,1023,2860
116.83099,40.3788,1024,2860
116.83124,40.37868,1025,2860
116.83125,40.37865,1026,2860
116.83122,40.3786,1027,2860
116.83121,40.37866,1028,2860
116.83118,40.37861,1029,2860
116.83115,40.37888,1030,2860
116.83117,40.3789,1031,2860
116.83122,40.3788,1032,2860
116.83122,40.37889,1033,2860
116.83115,40.37876,1034,2860
116.83116,40.37877,1035,2860
116.8313,40.37861,1036,2860
116.8312,40.37867,1037,2860
116.8312,40.37889,1038,2860
116.83119,40.37885,1039,2860
116.83131,40.37894,1040,2860
116.83127,40.37871,1041,2860
116.83132,40.3787,1042,2860
116.83124,40.37889,1043,2860
116.83112,40.37879,1044,2860
116.83112,40.37883,1045,2860
116.83114,40.37884,1046,2860
116.83119,40.37889,1047,2860
116.83111,40.379,1048,2860
116.83111,40.379,1049,2860
116.83112,40.37878,1050,2860
116.83108,40.37889,1051,2860
116.83113,40.37894,1052,2860
116.8311,40.37882,1053,2860
116.83108,40.37893,1054,2860
116.83113,40.37891,1055,2860
116.83121,40.37896,1056,2860
116.83121,40.37869,1057,2860
116.83117,40.37878,1058,2860
116.83118,40.37878,1059,2860
116.83127,40.3787,1060,2860
116.83117,40.37872,1061,2860
116.83114,40.37893,1062,2860
116.8315,40.37874,1063,2860
116.83124,40.37872,1064,2860
116.83102,40.37893,1065,2860
116.83122,40.37881,1066,2860
116.83107,40.3788,1067,2860
116.83119,40.37875,1068,2860
116.83123,40.37884,1069,2860
116.83112,40.37873,1070,2860
116.83114,40.37866,1071,2860
116.83117,40.37885,1072,2860
116.83117,40.37879,1073,2860
116.83126,40.37892,1074,2860
116.8312,40.37886,1075,2860
116.83105,40.37884,1076,2860
116.83119,40.37906,1077,2860
116.83112,40.37882,1078,2860
116.83115,40.3789,1079,2860
116.8311,40.37891,1080,2860
116.83112,40.37887,1081,2860
116.83118,40.37894,1082,2860
116.83116,40.37887,1083,2860
116.8311,40.37886,1084,2860
116.8311,40.37886,1085,2860
116.83118,40.37891,1086,2860
116.83127,40.37882,1087,2860
116.83121,40.37887,1088,2860
116.83121,40.37889,1089,2860
116.8312,40.37885,1090,2860
116.83096,40.37893,1091,2860
116.83121,40.37882,1092,2860
116.83119,40.37896,1093,2860
116.83108,40.37885,1094,2860
116.8311,40.3789,1095,2860
116.83109,40.37898,1096,2860
116.83111,40.37891,1097,2860
116.83103,40.37882,1098,2860
116.83115,40.37892,1099,2860
116.8312,40.37896,1100,2860
116.8311,40.37889,1101,2860
116.83125,40.3788,1102,2860
116.83129,40.37899,1103,2860
116.83124,40.37893,1104,2860
116.83119,40.37892,1105,2860
116.83134,40.37912,1106,2860
116.83124,40.37886,1107,2860
116.83124,40.37886,1108,2860
116.83117,40.37894,1109,2860
116.83108,40.37889,1110,2860
116.83126,40.37884,1111,2860
116.83135,40.37896,1112,2860
116.83094,40.37863,1113,2860
116.8311,40.37852,1114,2860
116.82474,40.37658,1115,2860
116.77654,40.39698,1116,2860
116.76535,40.40834,1117,2860
116.76773,40.42563,1118,2860
116.76244,40.42731,1119,2860
116.74403,40.43238,1120,2860
116.7318,40.43144,1121,2860
116.7318,40.43144,1122,2860
116.73173,40.43143,1123,2860
116.73175,40.43141,1124,2860
116.73174,40.43139,1125,2860
116.73172,40.43141,1126,2860
116.73175,40.4314,1127,2860
116.73174,40.43141,1128,2860
116.73165,40.43142,1129,2860
116.73177,40.43144,1130,2860
116.73178,40.43139,1131,2860
116.7317,40.43142,1132,2860
116.73176,40.43143,1133,2860
116.73181,40.43144,1134,2860
116.73179,40.43137,1135,2860
116.73175,40.43144,1136,2860
116.7318,40.43142,1137,2860
116.73177,40.43154,1138,2860
116.73172,40.43132,1139,2860
116.73177,40.43152,1140,2860
116.73174,40.43147,1141,2860
116.73125,40.43139,1142,2860
116.73034,40.43435,1143,2860
116.73034,40.43435,1144,2860
116.73034,40.43435,1145,2860
116.73034,40.43435,1146,2860
116.73034,40.43435,1147,2860
116.73034,40.43435,1148,2860
116.73034,40.43435,1149,2860
116.73034,40.43435,1150,2860
116.73034,40.43435,1151,2860
116.73034,40.43435,1152,2860
116.73034,40.43435,1153,2860
116.73034,40.43435,1154,2860
116.73034,40.43435,1155,2860
116.73034,40.43435,1156,2860
116.73036,40.4344,1157,2860
116.73031,40.4343,1158,2860
116.73031,40.43429,1159,2860
116.73329,40.4341,1160,2860
116.7328,40.43401,1161,2860
116.73279,40.43402,1162,2860
116.73282,40.43403,1163,2860
116.73281,40.43398,1164,2860
116.73282,40.43398,1165,2860
116.73531,40.43274,1166,2860
116.74211,40.43282,1167,2860
116.74333,40.43244,1168,2860
116.77064,40.40815,1169,2860
116.81242,40.3807,1170,2860
116.82794,40.37357,1171,2860
116.82132,40.36669,1172,2860
116.81934,40.36646,1173,2860
116.79297,40.35563,1174,2860
116.81946,40.36641,1175,2860
116.82706,40.37268,1176,2860
116.82706,40.37268,1177,2860
116.82706,40.37276,1178,2860
116.82542,40.37361,1179,2860
116.81532,40.37004,1180,2860
116.81536,40.3701,1181,2860
116.82036,40.37359,1182,2860
116.81057,40.38163,1183,2860
116.77326,40.39851,1184,2860
116.74834,40.432,1185,2860
116.7311,40.43505,1186,2860
116.72911,40.43427,1187,2860
116.72912,40.43421,1188,2860
116.72912,40.43421,1189,2860
116.72912,40.43421,1190,2860
116.72912,40.43421,1191,2860
116.72912,40.43421,1192,2860
116.72912,40.43421,1193,2860
116.72912,40.43421,1194,2860
116.72912,40.43421,1195,2860
116.72912,40.43421,1196,2860
116.72912,40.43421,1197,2860
116.72912,40.43421,1198,2860
116.72912,40.43421,1199,2860
116.72912,40.43421,1200,2860
116.72912,40.43421,1201,2860
116.72912,40.43421,1202,2860
116.72912,40.43421,1203,2860
116.72912,40.43421,1204,2860
116.72912,40.43421,1205,2860
116.72912,40.43421,1206,2860
116.72912,40.43421,1207,2860
116.72912,40.43421,1208,2860
116.72912,40.43421,1209,2860
116.72912,40.43421,1210,2860
116.72917,40.43422,1211,2860
116.72916,40.43421,1212,2860
116.72919,40.43426,1213,2860
116.7292,40.43424,1214,2860
116.72914,40.43421,1215,2860
116.72861,40.43422,1216,2860
116.7389,40.43444,1217,2860
116.76206,40.4254,1218,2860
116.76262,40.4149,1219,2860
116.77093,40.40314,1220,2860
116.80271,40.38676,1221,2860
116.81649,40.37861,1222,2860
116.8153,40.36724,1223,2860
116.80923,40.36473,1224,2860
116.80917,40.36472,1225,2860
116.80921,40.36477,1226,2860
116.80781,40.36448,1227,2860
116.80782,40.36449,1228,2860
116.80778,40.3645,1229,2860
116.80783,40.36454,1230,2860
116.80782,40.3645,1231,2860
116.80782,40.36444,1232,2860
116.81132,40.3664,1233,2860
116.82004,40.37031,1234,2860
116.82705,40.37279,1235,2860
116.82708,40.3729,1236,2860
116.82708,40.3729,1237,2860
116.82708,40.3729,1238,2860
116.82708,40.3729,1239,2860
116.82708,40.3729,1240,2860
116.82479,40.36709,1241,2860
116.81466,40.36672,1242,2860
116.82034,40.37072,1243,2860
116.82715,40.37284,1244,2860
116.82709,40.3728,1245,2860
116.82709,40.3728,1246,2860
116.82709,40.3728,1247,2860
116.82709,40.3728,1248,2860
116.82709,40.3728,1249,2860
116.82709,40.3728,1250,2860
116.82709,40.3728,1251,2860
116.82709,40.3728,1252,2860
116.82709,40.3728,1253,2860
116.82709,40.3728,1254,2860
116.82709,40.3728,1255,2860
116.82709,40.3728,1256,2860
116.82709,40.3728,1257,2860
116.82709,40.3728,1258,2860
116.82709,40.3728,1259,2860
116.82709,40.3728,1260,2860
116.82709,40.3728,1261,2860
116.82709,40.3728,1262,2860
116.82709,40.3728,1263,2860
116.82709,40.3728,1264,2860
116.82709,40.3728,1265,2860
116.82709,40.3728,1266,2860
116.82709,40.3728,1267,2860
116.39378,39.83882,1268,2860
116.81533,40.37368,1269,2860
116.81158,40.36646,1270,2860
116.81379,40.36668,1271,2860
116.82696,40.37299,1272,2860
116.82696,40.37319,1273,2860
116.82696,40.37319,1274,2860
116.82696,40.37319,1275,2860
116.82696,40.37319,1276,2860
116.82696,40.37319,1277,2860
116.82696,40.37319,1278,2860
116.82696,40.37319,1279,2860
116.82696,40.37319,1280,2860
116.82696,40.37319,1281,2860
116.82696,40.37319,1282,2860
116.82696,40.37319,1283,2860
116.82696,40.37319,1284,2860
116.82696,40.37319,1285,2860
116.82696,40.37319,1286,2860
116.82696,40.37319,1287,2860
116.82696,40.37319,1288,2860
116.82696,40.37319,1289,2860
116.82696,40.37319,1290,2860
116.82696,40.37319,1291,2860
116.82696,40.37319,1292,2860
116.82696,40.37319,1293,2860
116.82696,40.37319,1294,2860
116.82696,40.37319,1295,2860
116.81535,40.37046,1296,2860
116.80918,40.36463,1297,2860
116.80918,40.36463,1298,2860
116.80917,40.3646,1299,2860
116.80917,40.3646,1300,2860
116.80917,40.3646,1301,2860
116.80917,40.3646,1302,2860
116.80917,40.3646,1303,2860
116.80917,40.3646,1304,2860
116.80917,40.3646,1305,2860
116.80917,40.3646,1306,2860
116.80917,40.3646,1307,2860
116.80917,40.3646,1308,2860
116.80917,40.3646,1309,2860
116.80917,40.3646,1310,2860
116.80917,40.3646,1311,2860
116.80917,40.3646,1312,2860
116.80917,40.3646,1313,2860
116.80917,40.3646,1314,2860
116.80917,40.3646,1315,2860
116.80917,40.3646,1316,2860
116.80917,40.3646,1317,2860
116.80917,40.3646,1318,2860
116.80917,40.3646,1319,2860
116.80917,40.3646,1320,2860
