x,y,k,tid
116.35064,39.94696,0,2946
116.35059,39.94677,1,2946
116.35103,39.94712,2,2946
116.34703,39.94583,3,2946
116.35088,39.947,4,2946
116.35078,39.94697,5,2946
116.35043,39.94675,6,2946
116.34963,39.9468,7,2946
116.35031,39.94648,8,2946
116.35063,39.94713,9,2946
116.35063,39.94713,10,2946
116.35064,39.94694,11,2946
