x,y,k,tid
116.38139,39.87845,0,323
116.3874,39.88203,1,323
116.39269,39.88018,2,323
116.40534,39.87046,3,323
116.40722,39.86884,4,323
116.40755,39.8642,5,323
116.40781,39.85705,6,323
116.40793,39.85448,7,323
116.40445,39.85534,8,323
116.40445,39.85534,9,323
116.40669,39.85548,10,323
116.42231,39.85702,11,323
116.44076,39.84169,12,323
116.45839,39.83257,13,323
116.46298,39.84055,14,323
116.46259,39.83491,15,323
116.44754,39.85157,16,323
116.45456,39.86864,17,323
116.43823,39.89578,18,323
116.42682,39.92097,19,323
116.42059,39.92317,20,323
116.42823,39.91382,21,323
116.42854,39.91274,22,323
116.40036,39.90658,23,323
116.36985,39.90593,24,323
116.3294,39.90626,25,323
116.2983,39.9062,26,323
116.29634,39.90738,27,323
116.32118,39.90973,28,323
116.3328,39.91679,29,323
116.34912,39.91692,30,323
116.35029,39.90962,31,323
116.34254,39.89196,32,323
116.36516,39.86853,33,323
116.4092,39.87062,34,323
116.41635,39.86746,35,323
116.4158,39.8569,36,323
116.43261,39.85721,37,323
116.44037,39.84508,38,323
116.44103,39.83149,39,323
116.44931,39.81243,40,323
116.43792,39.80406,41,323
116.42588,39.80596,42,323
116.42581,39.80595,43,323
116.42582,39.80594,44,323
116.42582,39.80593,45,323
116.42611,39.8064,46,323
116.42611,39.8064,47,323
116.42587,39.80584,48,323
116.42587,39.80584,49,323
116.42582,39.80595,50,323
116.42593,39.80606,51,323
116.42586,39.80586,52,323
116.42586,39.80592,53,323
116.42586,39.80592,54,323
116.42585,39.80591,55,323
116.42584,39.8059,56,323
116.42583,39.8059,57,323
116.42583,39.8059,58,323
116.42583,39.80591,59,323
116.42582,39.80589,60,323
116.42565,39.80591,61,323
116.4257,39.80593,62,323
116.42574,39.80594,63,323
116.42575,39.80595,64,323
116.42576,39.80596,65,323
116.42577,39.80598,66,323
116.42578,39.80599,67,323
116.42579,39.80599,68,323
116.42579,39.80599,69,323
116.4258,39.80599,70,323
116.4258,39.80599,71,323
116.4258,39.806,72,323
116.42581,39.806,73,323
116.42581,39.806,74,323
116.42581,39.80599,75,323
116.42581,39.80599,76,323
116.42581,39.80599,77,323
116.42581,39.80598,78,323
116.42582,39.80598,79,323
116.42582,39.80598,80,323
116.42583,39.80598,81,323
116.42583,39.80598,82,323
116.42583,39.80597,83,323
116.42583,39.80597,84,323
116.42584,39.80597,85,323
116.42584,39.80597,86,323
116.42584,39.80597,87,323
116.42585,39.80597,88,323
116.42585,39.80597,89,323
116.42585,39.80597,90,323
116.42583,39.80624,91,323
116.42592,39.80612,92,323
116.426,39.80608,93,323
116.42587,39.80592,94,323
116.42993,39.80464,95,323
116.43059,39.80303,96,323
116.4491,39.81515,97,323
116.44156,39.82997,98,323
116.44156,39.82997,99,323
116.43928,39.85328,100,323
116.46817,39.88307,101,323
116.46162,39.87659,102,323
116.45544,39.87003,103,323
116.41259,39.85592,104,323
116.40627,39.85249,105,323
116.40793,39.85481,106,323
116.41346,39.8641,107,323
116.4375,39.89677,108,323
116.4375,39.89677,109,323
116.45351,39.91224,110,323
116.44976,39.89167,111,323
116.45024,39.88562,112,323
116.45023,39.88565,113,323
116.45021,39.88566,114,323
116.44778,39.88437,115,323
116.42767,39.86455,116,323
116.42896,39.86456,117,323
116.43235,39.86463,118,323
116.42784,39.88181,119,323
116.42784,39.88181,120,323
116.42784,39.88181,121,323
116.42784,39.88181,122,323
116.42602,39.88501,123,323
116.43166,39.89216,124,323
116.42812,39.87955,125,323
116.43325,39.87226,126,323
116.42445,39.86279,127,323
116.42785,39.86094,128,323
116.42798,39.86104,129,323
116.42569,39.85921,130,323
116.40735,39.85588,131,323
116.34296,39.84935,132,323
116.30625,39.86832,133,323
116.30583,39.87696,134,323
116.30444,39.88712,135,323
116.30423,39.90536,136,323
116.42454,39.80531,137,323
116.30412,39.94272,138,323
116.30264,39.95945,139,323
116.30119,39.96385,140,323
116.3027,39.95562,141,323
116.30336,39.94425,142,323
116.30388,39.90222,143,323
116.3043,39.88481,144,323
116.30566,39.87108,145,323
116.30662,39.86234,146,323
116.31664,39.86107,147,323
116.34221,39.86577,148,323
116.37566,39.86905,149,323
116.38096,39.85593,150,323
116.40326,39.85548,151,323
116.43874,39.85726,152,323
116.44496,39.82498,153,323
116.44794,39.82225,154,323
116.42583,39.8061,155,323
116.4258,39.806,156,323
116.42578,39.80599,157,323
116.42578,39.80599,158,323
116.42579,39.80597,159,323
116.42579,39.80598,160,323
116.42579,39.80598,161,323
116.42579,39.80598,162,323
116.42579,39.80598,163,323
116.42577,39.80595,164,323
116.4258,39.80603,165,323
116.42581,39.80609,166,323
116.42581,39.80613,167,323
116.42581,39.80617,168,323
116.42581,39.80616,169,323
116.42582,39.80614,170,323
116.42582,39.80613,171,323
116.42582,39.80611,172,323
116.42582,39.80611,173,323
116.42583,39.8061,174,323
116.42583,39.8061,175,323
116.42582,39.80609,176,323
116.42582,39.80609,177,323
116.42583,39.80609,178,323
116.42586,39.80587,179,323
116.42589,39.80593,180,323
116.4259,39.80593,181,323
116.42591,39.80595,182,323
116.42591,39.80597,183,323
116.42591,39.80597,184,323
116.42591,39.80597,185,323
116.42611,39.80633,186,323
116.42611,39.80633,187,323
116.42881,39.80842,188,323
116.44337,39.82349,189,323
116.44374,39.82533,190,323
116.44379,39.82538,191,323
116.4438,39.82538,192,323
116.44379,39.82538,193,323
116.44379,39.82538,194,323
116.44394,39.82543,195,323
116.44375,39.8254,196,323
116.43931,39.81115,197,323
116.42502,39.80552,198,323
116.42585,39.80616,199,323
116.42584,39.80613,200,323
116.42584,39.80611,201,323
116.42583,39.80611,202,323
116.42583,39.80611,203,323
116.42582,39.8061,204,323
116.42582,39.8061,205,323
116.42582,39.80611,206,323
116.42583,39.8061,207,323
116.42584,39.80609,208,323
116.42585,39.80608,209,323
116.42585,39.80607,210,323
116.42831,39.80538,211,323
116.4404,39.80403,212,323
116.44036,39.80412,213,323
116.44037,39.80409,214,323
116.43446,39.80687,215,323
116.43446,39.80687,216,323
116.43178,39.80655,217,323
116.43178,39.80655,218,323
116.43177,39.80655,219,323
116.43176,39.80655,220,323
116.43177,39.80655,221,323
116.43177,39.80655,222,323
116.43177,39.80655,223,323
116.43178,39.80656,224,323
116.43178,39.80656,225,323
116.43179,39.80656,226,323
116.43178,39.80656,227,323
116.43178,39.80656,228,323
116.43178,39.80657,229,323
116.43178,39.80657,230,323
116.43164,39.80659,231,323
116.43196,39.80669,232,323
116.43155,39.80645,233,323
116.43157,39.80645,234,323
116.43167,39.80653,235,323
116.43172,39.80651,236,323
116.43175,39.80651,237,323
116.43175,39.8065,238,323
116.43181,39.80641,239,323
116.43058,39.80587,240,323
116.43155,39.80633,241,323
116.43129,39.80671,242,323
116.43173,39.80649,243,323
116.43179,39.8066,244,323
116.43148,39.80639,245,323
116.43159,39.80672,246,323
116.43165,39.80654,247,323
116.43162,39.80661,248,323
116.43163,39.80661,249,323
116.43164,39.80661,250,323
116.43166,39.8066,251,323
116.4314,39.80628,252,323
116.43169,39.80654,253,323
116.43165,39.80653,254,323
116.43164,39.80654,255,323
116.43165,39.80653,256,323
116.43162,39.80637,257,323
116.43169,39.80648,258,323
116.43175,39.80651,259,323
116.43202,39.80649,260,323
116.43152,39.80638,261,323
116.4318,39.80661,262,323
116.43179,39.80661,263,323
116.43177,39.80659,264,323
116.43176,39.80658,265,323
116.43176,39.80658,266,323
116.43177,39.80658,267,323
116.43178,39.80658,268,323
116.43178,39.80659,269,323
116.43178,39.80659,270,323
116.43386,39.80374,271,323
116.42588,39.80623,272,323
116.42589,39.80623,273,323
116.42589,39.80623,274,323
116.42589,39.80622,275,323
116.4259,39.80621,276,323
116.42591,39.80621,277,323
116.42591,39.80619,278,323
116.42591,39.80619,279,323
116.42591,39.80609,280,323
116.42589,39.80607,281,323
116.4259,39.80609,282,323
116.42591,39.80613,283,323
116.42592,39.80616,284,323
116.42599,39.80641,285,323
116.426,39.80645,286,323
116.42607,39.80627,287,323
116.42604,39.80638,288,323
116.42603,39.80639,289,323
116.42606,39.80633,290,323
116.42588,39.80585,291,323
116.42599,39.80623,292,323
116.42594,39.80616,293,323
116.42604,39.80616,294,323
116.42602,39.80615,295,323
116.42579,39.80593,296,323
116.42588,39.80602,297,323
116.4259,39.80604,298,323
116.4259,39.80603,299,323
116.42589,39.80597,300,323
116.42589,39.80595,301,323
116.42589,39.80595,302,323
116.4259,39.80596,303,323
116.4259,39.80596,304,323
116.4259,39.80596,305,323
116.42591,39.80597,306,323
116.42591,39.80597,307,323
116.42591,39.80598,308,323
116.42591,39.80598,309,323
116.42591,39.80598,310,323
116.42592,39.80598,311,323
116.42592,39.80598,312,323
116.42591,39.80599,313,323
116.42587,39.80619,314,323
116.42586,39.80618,315,323
116.426,39.80595,316,323
116.426,39.80619,317,323
116.42596,39.80617,318,323
116.42594,39.80616,319,323
116.42612,39.80657,320,323
116.42591,39.80609,321,323
116.42592,39.80613,322,323
116.42574,39.80583,323,323
116.42597,39.80627,324,323
116.42588,39.80609,325,323
116.426,39.80617,326,323
116.42596,39.80612,327,323
116.42593,39.80608,328,323
116.42574,39.80617,329,323
116.42554,39.8062,330,323
116.42558,39.80619,331,323
116.42563,39.80618,332,323
116.42564,39.80617,333,323
116.42567,39.80615,334,323
116.42599,39.80596,335,323
116.42567,39.80613,336,323
116.42577,39.80611,337,323
116.42578,39.80611,338,323
116.42607,39.80585,339,323
116.42597,39.80604,340,323
116.42595,39.80605,341,323
116.4259,39.80609,342,323
116.42588,39.80608,343,323
116.4259,39.80609,344,323
116.4259,39.80609,345,323
116.42591,39.8061,346,323
116.4259,39.80611,347,323
116.4259,39.80611,348,323
116.4259,39.80611,349,323
116.4259,39.8061,350,323
116.42589,39.8061,351,323
116.42589,39.8061,352,323
116.42589,39.80609,353,323
116.42582,39.80564,354,323
116.42585,39.80572,355,323
116.4259,39.80606,356,323
116.4259,39.80609,357,323
116.4259,39.8061,358,323
116.42589,39.80612,359,323
116.4259,39.80612,360,323
116.42591,39.80612,361,323
116.42597,39.80568,362,323
116.42595,39.80597,363,323
116.42604,39.80584,364,323
116.42597,39.80604,365,323
116.42596,39.806,366,323
116.42594,39.80598,367,323
116.42592,39.80597,368,323
116.42593,39.80601,369,323
116.42593,39.80601,370,323
116.42593,39.80603,371,323
116.42062,39.80231,372,323
116.42644,39.80267,373,323
116.42412,39.80247,374,323
116.40626,39.81999,375,323
116.39475,39.84102,376,323
116.3942,39.8496,377,323
116.39371,39.86293,378,323
116.39087,39.88229,379,323
116.37888,39.88492,380,323
116.37814,39.8976,381,323
116.37708,39.90411,382,323
116.37671,39.90452,383,323
116.37619,39.90792,384,323
116.37568,39.92073,385,323
116.37568,39.92073,386,323
116.37568,39.92073,387,323
116.37121,39.91797,388,323
116.37137,39.91711,389,323
116.36696,39.93069,390,323
116.366,39.94639,391,323
116.364,39.96565,392,323
116.36322,39.98557,393,323
116.35881,39.9961,394,323
116.3588,39.99612,395,323
116.36164,39.99243,396,323
116.37837,39.9863,397,323
116.40178,39.99157,398,323
116.40106,39.97904,399,323
116.39903,39.97444,400,323
116.40112,39.96942,401,323
116.40189,39.94819,402,323
116.42759,39.94441,403,323
116.4296,39.93037,404,323
116.42842,39.91647,405,323
116.42925,39.89714,406,323
116.42562,39.86711,407,323
116.42765,39.86267,408,323
116.42765,39.86267,409,323
116.42711,39.86234,410,323
116.42763,39.86261,411,323
116.42774,39.86442,412,323
116.42499,39.86473,413,323
116.41453,39.86998,414,323
116.37077,39.8691,415,323
116.34277,39.88348,416,323
116.34499,39.89684,417,323
116.35053,39.91554,418,323
116.3536,39.91985,419,323
116.35328,39.91242,420,323
116.35711,39.90655,421,323
116.35616,39.89965,422,323
116.35703,39.89841,423,323
116.35727,39.88879,424,323
116.35772,39.87783,425,323
116.35767,39.87884,426,323
116.36761,39.88201,427,323
116.36064,39.88185,428,323
116.36064,39.88185,429,323
116.39034,39.8822,430,323
116.39087,39.88095,431,323
116.39377,39.85312,432,323
116.39642,39.8514,433,323
116.39674,39.85103,434,323
116.39429,39.86191,435,323
116.39454,39.86212,436,323
116.40632,39.86378,437,323
116.4151,39.87508,438,323
116.41277,39.89098,439,323
116.41887,39.89688,440,323
116.4228,39.88987,441,323
116.42478,39.88605,442,323
116.43075,39.87686,443,323
116.42953,39.86492,444,323
116.42451,39.8649,445,323
116.42565,39.85756,446,323
116.42734,39.84783,447,323
116.42716,39.85214,448,323
116.42716,39.85214,449,323
116.45168,39.86396,450,323
116.45597,39.91127,451,323
116.4516,39.92725,452,323
116.45166,39.92727,453,323
116.45908,39.93236,454,323
116.45908,39.93236,455,323
116.46883,39.93652,456,323
116.47032,39.93601,457,323
116.45572,39.93199,458,323
116.45617,39.9142,459,323
116.455,39.89297,460,323
116.45003,39.88422,461,323
116.4515,39.88317,462,323
116.45561,39.9005,463,323
116.4859,39.90549,464,323
116.47246,39.91448,465,323
116.47178,39.90405,466,323
116.47133,39.89233,467,323
116.47125,39.88878,468,323
116.46096,39.87486,469,323
116.44325,39.87406,470,323
116.44325,39.87406,471,323
116.44325,39.87406,472,323
116.44325,39.87406,473,323
116.45452,39.86819,474,323
116.43442,39.85773,475,323
116.43885,39.85566,476,323
116.43892,39.85366,477,323
116.44057,39.83909,478,323
116.44109,39.83126,479,323
116.44109,39.83126,480,323
116.44794,39.82222,481,323
116.44515,39.80081,482,323
116.45357,39.79936,483,323
116.43806,39.80345,484,323
116.42589,39.80605,485,323
116.42588,39.80606,486,323
116.42588,39.80605,487,323
116.42588,39.80605,488,323
116.4259,39.80609,489,323
116.4259,39.8061,490,323
116.4259,39.8061,491,323
116.42593,39.806,492,323
116.42593,39.806,493,323
116.42598,39.80642,494,323
116.42558,39.80507,495,323
116.42584,39.80585,496,323
116.42584,39.80595,497,323
116.42582,39.806,498,323
116.42583,39.80602,499,323
116.42584,39.80603,500,323
116.42584,39.80603,501,323
116.42583,39.80603,502,323
116.4258,39.80612,503,323
116.42582,39.80612,504,323
116.42583,39.8061,505,323
116.42584,39.80608,506,323
116.42584,39.80608,507,323
116.42584,39.80603,508,323
116.42586,39.80603,509,323
116.42586,39.80603,510,323
116.42586,39.80604,511,323
116.42585,39.80605,512,323
116.42585,39.80605,513,323
116.42586,39.80604,514,323
116.42587,39.80604,515,323
116.42586,39.80604,516,323
116.42586,39.80604,517,323
116.42587,39.80603,518,323
116.42587,39.80603,519,323
116.42587,39.80603,520,323
116.42587,39.80604,521,323
116.42587,39.80605,522,323
116.42587,39.80605,523,323
116.42587,39.80606,524,323
116.42587,39.80606,525,323
116.42587,39.80606,526,323
116.42587,39.80606,527,323
116.42587,39.80606,528,323
116.42588,39.80607,529,323
116.42588,39.80607,530,323
116.42588,39.80607,531,323
116.42577,39.80647,532,323
116.42608,39.80579,533,323
116.42608,39.80579,534,323
116.42602,39.80583,535,323
116.4261,39.80577,536,323
116.42593,39.80597,537,323
116.42591,39.80599,538,323
116.42591,39.80598,539,323
116.4259,39.80599,540,323
116.42591,39.80601,541,323
116.42591,39.80601,542,323
116.4259,39.80601,543,323
116.4259,39.80602,544,323
116.4259,39.80602,545,323
116.42591,39.80602,546,323
116.42591,39.80602,547,323
116.42591,39.80602,548,323
116.4259,39.80602,549,323
116.4259,39.80603,550,323
116.4259,39.80604,551,323
116.4259,39.80605,552,323
116.4259,39.80605,553,323
116.42595,39.80641,554,323
116.42598,39.80621,555,323
116.42596,39.80627,556,323
116.42595,39.80629,557,323
116.42594,39.80627,558,323
116.42593,39.80627,559,323
116.42593,39.80627,560,323
116.42592,39.80628,561,323
116.42591,39.80627,562,323
116.4259,39.80628,563,323
116.4259,39.80628,564,323
116.4259,39.80628,565,323
116.4259,39.80628,566,323
116.4259,39.80626,567,323
116.42589,39.80624,568,323
116.4259,39.80623,569,323
116.42587,39.80601,570,323
116.42588,39.80606,571,323
116.4259,39.80612,572,323
116.4259,39.80611,573,323
116.42589,39.80611,574,323
116.42588,39.80612,575,323
116.42588,39.80612,576,323
116.42589,39.80612,577,323
116.42592,39.80608,578,323
116.42592,39.80608,579,323
116.42591,39.80607,580,323
116.42591,39.80606,581,323
116.42591,39.80607,582,323
116.42591,39.80605,583,323
116.42592,39.80604,584,323
116.42593,39.80603,585,323
116.42594,39.80601,586,323
116.42594,39.80601,587,323
116.42594,39.806,588,323
116.42594,39.80615,589,323
116.42594,39.80615,590,323
116.4259,39.806,591,323
116.42591,39.80602,592,323
116.4259,39.80602,593,323
116.4259,39.80601,594,323
116.4259,39.806,595,323
116.4259,39.80599,596,323
116.42591,39.80598,597,323
116.42591,39.80599,598,323
116.42591,39.80599,599,323
116.42591,39.80599,600,323
116.42591,39.806,601,323
116.42591,39.80601,602,323
116.42591,39.80602,603,323
116.4259,39.80603,604,323
116.4259,39.80603,605,323
116.4259,39.80614,606,323
116.4259,39.80611,607,323
116.42591,39.8061,608,323
116.4259,39.80612,609,323
116.4259,39.80612,610,323
116.4259,39.80611,611,323
116.4259,39.8061,612,323
116.42591,39.80611,613,323
116.42591,39.80611,614,323
116.42606,39.80635,615,323
116.42574,39.80594,616,323
116.42591,39.80616,617,323
116.42591,39.80614,618,323
116.42593,39.80618,619,323
116.42595,39.80622,620,323
116.42596,39.80623,621,323
116.42596,39.80624,622,323
116.42597,39.80623,623,323
116.42584,39.80637,624,323
116.42612,39.80608,625,323
116.42567,39.8063,626,323
116.42595,39.80607,627,323
116.42593,39.8061,628,323
116.42592,39.80611,629,323
116.42582,39.80592,630,323
116.42574,39.80599,631,323
116.42559,39.8064,632,323
116.4259,39.80615,633,323
116.4261,39.80572,634,323
116.42582,39.80642,635,323
116.4258,39.80589,636,323
116.42587,39.80626,637,323
116.42587,39.80626,638,323
116.42589,39.80627,639,323
116.42589,39.80628,640,323
116.42588,39.80628,641,323
116.42587,39.80629,642,323
116.42586,39.80629,643,323
116.42585,39.80609,644,323
116.42587,39.80611,645,323
116.42587,39.80612,646,323
116.42588,39.80614,647,323
116.42588,39.80613,648,323
116.42589,39.80613,649,323
116.4259,39.80613,650,323
116.42579,39.806,651,323
116.42594,39.80646,652,323
116.42596,39.80636,653,323
116.42593,39.80628,654,323
116.42591,39.80622,655,323
116.42591,39.8062,656,323
116.42591,39.80619,657,323
116.42591,39.80604,658,323
116.42589,39.80609,659,323
116.42591,39.80609,660,323
116.4259,39.80609,661,323
116.42588,39.80607,662,323
116.42592,39.80609,663,323
116.42587,39.80614,664,323
116.42587,39.80613,665,323
116.42587,39.80613,666,323
116.42587,39.80613,667,323
116.42587,39.80613,668,323
116.42588,39.80612,669,323
116.42588,39.80612,670,323
116.42613,39.80544,671,323
116.42862,39.80295,672,323
116.44921,39.81356,673,323
116.46049,39.83348,674,323
116.48382,39.87724,675,323
116.4835,39.89891,676,323
116.4835,39.89891,677,323
116.48802,39.90842,678,323
116.48419,39.91381,679,323
116.51212,39.91532,680,323
116.49422,39.91468,681,323
116.48387,39.94669,682,323
116.44211,39.98385,683,323
116.37931,39.98665,684,323
116.32697,39.98821,685,323
116.32595,39.99216,686,323
116.31359,39.99107,687,323
116.33094,39.99727,688,323
116.34566,40.00629,689,323
116.36342,40.0004,690,323
116.36962,40.0041,691,323
116.37287,39.9835,692,323
116.37436,39.9783,693,323
116.37256,39.94114,694,323
116.38725,39.94739,695,323
116.39321,39.95065,696,323
116.39886,39.95,697,323
116.41926,39.94528,698,323
116.41999,39.92362,699,323
116.42477,39.9141,700,323
116.42527,39.91413,701,323
116.44441,39.912,702,323
116.45525,39.90773,703,323
116.45004,39.89281,704,323
116.43283,39.88306,705,323
116.43316,39.87225,706,323
116.43328,39.87203,707,323
116.42462,39.86712,708,323
116.42473,39.86157,709,323
116.42908,39.85719,710,323
116.45536,39.88413,711,323
116.47163,39.89767,712,323
116.47171,39.90116,713,323
116.46113,39.89936,714,323
116.45486,39.88739,715,323
116.4531,39.86568,716,323
116.4531,39.86568,717,323
116.4369,39.86461,718,323
116.43354,39.86462,719,323
116.42628,39.86462,720,323
116.42429,39.86674,721,323
116.41172,39.86955,722,323
116.42583,39.8061,723,323
116.42208,39.86449,724,323
116.41754,39.85687,725,323
116.42221,39.85145,726,323
116.40883,39.84459,727,323
116.40883,39.8446,728,323
116.40795,39.8542,729,323
116.3991,39.85605,730,323
116.3991,39.85605,731,323
116.38091,39.86986,732,323
116.36832,39.88155,733,323
116.36819,39.88662,734,323
116.3685,39.89773,735,323
116.36812,39.90287,736,323
116.37386,39.90434,737,323
116.37877,39.88812,738,323
116.38673,39.88223,739,323
116.38133,39.87226,740,323
116.38042,39.85638,741,323
116.38051,39.85324,742,323
116.3846,39.83836,743,323
116.3846,39.83836,744,323
116.39528,39.82293,745,323
116.41952,39.81887,746,323
116.42586,39.80599,747,323
116.42567,39.80538,748,323
116.42578,39.80567,749,323
116.42581,39.80573,750,323
116.42582,39.80576,751,323
116.42582,39.80577,752,323
116.42583,39.80578,753,323
116.42584,39.8058,754,323
116.42592,39.80636,755,323
116.42591,39.80619,756,323
116.4259,39.80614,757,323
116.4259,39.80612,758,323
116.4259,39.80612,759,323
116.42837,39.80541,760,323
116.43649,39.8036,761,323
116.43807,39.80445,762,323
116.438,39.8035,763,323
116.45815,39.80219,764,323
116.47494,39.79436,765,323
116.47494,39.79441,766,323
116.47409,39.799,767,323
116.47308,39.80161,768,323
116.44758,39.82332,769,323
116.42366,39.83766,770,323
116.42247,39.85312,771,323
116.42247,39.85312,772,323
116.42578,39.85721,773,323
116.42745,39.86005,774,323
116.42815,39.86082,775,323
116.43217,39.86076,776,323
116.4387,39.85307,777,323
116.44016,39.83918,778,323
116.44802,39.82237,779,323
116.43764,39.80534,780,323
116.43259,39.80366,781,323
116.40526,39.82019,782,323
116.34259,39.89503,783,323
116.3503,39.90366,784,323
116.35007,39.9227,785,323
116.34966,39.93507,786,323
116.35653,39.94447,787,323
116.34973,39.93312,788,323
116.34978,39.91966,789,323
116.29394,39.8959,790,323
116.30383,39.88234,791,323
116.3417,39.84786,792,323
116.37485,39.85542,793,323
116.38056,39.8477,794,323
116.38913,39.83647,795,323
116.40223,39.82065,796,323
116.43033,39.80705,797,323
116.43115,39.80336,798,323
116.43114,39.80336,799,323
116.43114,39.80336,800,323
116.43114,39.80338,801,323
116.42587,39.806,802,323
116.42587,39.80602,803,323
116.42586,39.80606,804,323
116.42586,39.80611,805,323
116.42586,39.80613,806,323
116.42586,39.80613,807,323
116.42585,39.80613,808,323
116.42585,39.80612,809,323
116.42585,39.80612,810,323
116.42585,39.80612,811,323
116.42586,39.80612,812,323
116.42586,39.80613,813,323
116.42585,39.80613,814,323
116.42595,39.806,815,323
116.42595,39.806,816,323
116.42572,39.80648,817,323
116.42577,39.80633,818,323
116.42577,39.80628,819,323
116.42572,39.80624,820,323
116.42573,39.80616,821,323
116.42574,39.80614,822,323
116.42575,39.80612,823,323
116.42577,39.80609,824,323
116.42578,39.80608,825,323
116.42579,39.80608,826,323
116.42579,39.80608,827,323
116.42579,39.80608,828,323
116.42579,39.80608,829,323
116.4258,39.80607,830,323
116.4258,39.80607,831,323
116.42581,39.80607,832,323
116.42581,39.80606,833,323
116.42581,39.80606,834,323
116.42581,39.80607,835,323
116.42581,39.80608,836,323
116.42581,39.80608,837,323
116.42581,39.80609,838,323
116.42581,39.80609,839,323
116.42582,39.80609,840,323
116.42582,39.8061,841,323
116.42582,39.8061,842,323
116.42582,39.80611,843,323
116.42582,39.80611,844,323
116.42582,39.8061,845,323
116.4256,39.80615,846,323
116.42589,39.80601,847,323
116.42589,39.80605,848,323
116.42589,39.80607,849,323
116.42589,39.80609,850,323
116.42588,39.8061,851,323
116.42573,39.80566,852,323
116.42583,39.80607,853,323
116.42583,39.80605,854,323
116.42582,39.80598,855,323
116.42581,39.80598,856,323
116.42581,39.80597,857,323
116.42581,39.80596,858,323
116.42581,39.80597,859,323
116.42581,39.80597,860,323
116.42581,39.80598,861,323
116.42584,39.80603,862,323
116.42583,39.80602,863,323
116.42581,39.80602,864,323
116.42578,39.80603,865,323
116.42577,39.80602,866,323
116.42578,39.80603,867,323
116.42595,39.80572,868,323
116.42588,39.80612,869,323
116.42603,39.80597,870,323
116.42588,39.80567,871,323
116.42594,39.80602,872,323
116.4259,39.80586,873,323
116.42587,39.80588,874,323
116.42584,39.80582,875,323
116.42584,39.80585,876,323
116.42584,39.80587,877,323
116.42583,39.80588,878,323
116.42584,39.80588,879,323
116.42582,39.80588,880,323
116.42581,39.80588,881,323
116.42581,39.80589,882,323
116.4258,39.80596,883,323
116.42579,39.80586,884,323
116.4258,39.80586,885,323
116.42579,39.80585,886,323
116.42579,39.80585,887,323
116.42579,39.80586,888,323
116.42579,39.80587,889,323
116.42579,39.80587,890,323
116.4258,39.80588,891,323
116.42581,39.80609,892,323
116.42581,39.8061,893,323
116.42577,39.8062,894,323
116.42582,39.80596,895,323
116.42581,39.80604,896,323
116.4258,39.80605,897,323
116.4258,39.80605,898,323
116.42579,39.80606,899,323
116.4258,39.80607,900,323
116.4258,39.80607,901,323
116.4258,39.80607,902,323
116.4258,39.80607,903,323
116.42581,39.80607,904,323
116.42581,39.80606,905,323
116.42581,39.80606,906,323
116.42581,39.80606,907,323
116.42581,39.80607,908,323
116.42581,39.80607,909,323
116.42573,39.806,910,323
116.42609,39.80638,911,323
116.42562,39.80591,912,323
116.42574,39.80602,913,323
116.42575,39.80605,914,323
116.42575,39.80604,915,323
116.42573,39.80607,916,323
116.42553,39.80622,917,323
116.42562,39.80623,918,323
116.42578,39.80598,919,323
116.42572,39.80613,920,323
116.42571,39.80612,921,323
116.42572,39.80613,922,323
116.42572,39.80614,923,323
116.42553,39.80631,924,323
116.42556,39.80629,925,323
116.42588,39.80593,926,323
116.42577,39.80627,927,323
116.42577,39.80627,928,323
116.42577,39.80623,929,323
116.42578,39.80622,930,323
116.42579,39.80621,931,323
116.4258,39.80621,932,323
116.4258,39.80621,933,323
116.4258,39.80621,934,323
116.42579,39.80621,935,323
116.4258,39.8062,936,323
116.4258,39.80619,937,323
116.4258,39.80619,938,323
116.4258,39.80618,939,323
116.4258,39.80618,940,323
116.4258,39.80618,941,323
116.42583,39.80588,942,323
116.4257,39.8063,943,323
116.42566,39.80654,944,323
116.42566,39.80658,945,323
116.42555,39.8067,946,323
116.42557,39.80662,947,323
116.42581,39.80625,948,323
116.42584,39.80621,949,323
116.42589,39.80613,950,323
116.4259,39.80613,951,323
116.42561,39.80633,952,323
116.42584,39.80618,953,323
116.42579,39.80614,954,323
116.42584,39.80618,955,323
116.42584,39.8062,956,323
116.42584,39.8062,957,323
116.4251,39.80256,958,323
116.40246,39.82063,959,323
116.39665,39.8513,960,323
116.41162,39.86072,961,323
116.42038,39.86399,962,323
116.41381,39.88494,963,323
116.40542,39.9022,964,323
116.40686,39.90358,965,323
116.4125,39.89224,966,323
116.43225,39.87577,967,323
116.43268,39.87526,968,323
116.4282,39.86077,969,323
116.41938,39.86058,970,323
116.4231,39.85735,971,323
116.42408,39.84823,972,323
116.42562,39.84822,973,323
116.42692,39.84826,974,323
116.45209,39.86435,975,323
116.46666,39.89199,976,323
116.46181,39.88004,977,323
116.46577,39.86654,978,323
116.47596,39.85065,979,323
116.47601,39.85069,980,323
116.46541,39.85808,981,323
116.45786,39.84674,982,323
116.45955,39.83348,983,323
116.45094,39.84103,984,323
116.43274,39.84474,985,323
116.41786,39.84823,986,323
116.40878,39.84119,987,323
116.40558,39.84101,988,323
116.39303,39.85168,989,323
116.39111,39.8526,990,323
116.39281,39.85567,991,323
116.41538,39.8641,992,323
116.41571,39.88957,993,323
116.41567,39.88983,994,323
116.41474,39.87755,995,323
116.42447,39.86305,996,323
116.42764,39.86284,997,323
116.44396,39.85727,998,323
116.47115,39.85442,999,323
116.47189,39.85366,1000,323
116.47857,39.84706,1001,323
116.49977,39.84421,1002,323
116.47928,39.84659,1003,323
116.46865,39.85714,1004,323
116.45787,39.86157,1005,323
116.41597,39.85702,1006,323
116.41418,39.88423,1007,323
116.41263,39.88877,1008,323
116.42,39.86845,1009,323
116.42807,39.86071,1010,323
116.42977,39.86088,1011,323
116.42675,39.85766,1012,323
116.408,39.85369,1013,323
116.408,39.85369,1014,323
116.40628,39.85247,1015,323
116.40628,39.85247,1016,323
116.41862,39.85633,1017,323
116.43174,39.85731,1018,323
116.43306,39.86411,1019,323
116.43306,39.86411,1020,323
116.42807,39.88248,1021,323
116.42161,39.89463,1022,323
116.41833,39.89413,1023,323
116.42485,39.88592,1024,323
116.42485,39.88592,1025,323
116.43287,39.86908,1026,323
116.44035,39.83944,1027,323
116.44099,39.83154,1028,323
116.4435,39.81158,1029,323
116.42645,39.80545,1030,323
116.4259,39.80598,1031,323
116.42592,39.80603,1032,323
116.42592,39.80605,1033,323
116.42592,39.80606,1034,323
116.42591,39.80605,1035,323
116.42588,39.80608,1036,323
116.42589,39.80608,1037,323
116.4259,39.80607,1038,323
116.42579,39.8058,1039,323
116.42585,39.80594,1040,323
116.42588,39.80607,1041,323
116.42589,39.80608,1042,323
116.42589,39.80607,1043,323
116.42589,39.80609,1044,323
116.42589,39.8061,1045,323
116.42591,39.80609,1046,323
116.42592,39.80607,1047,323
116.42593,39.80605,1048,323
116.42593,39.80605,1049,323
116.42593,39.80605,1050,323
116.42594,39.80605,1051,323
116.42594,39.80605,1052,323
116.42594,39.80605,1053,323
116.42594,39.80605,1054,323
116.42594,39.80605,1055,323
116.42594,39.80605,1056,323
116.42594,39.80605,1057,323
116.42594,39.80605,1058,323
116.426,39.80603,1059,323
116.42599,39.80602,1060,323
116.42602,39.80612,1061,323
116.42615,39.8067,1062,323
116.42613,39.80622,1063,323
116.42614,39.80624,1064,323
116.42617,39.80644,1065,323
116.42605,39.80624,1066,323
116.42601,39.80618,1067,323
116.426,39.80616,1068,323
116.42599,39.80615,1069,323
116.42598,39.80612,1070,323
116.42584,39.80584,1071,323
116.42588,39.80588,1072,323
116.42591,39.80601,1073,323
116.42593,39.80604,1074,323
116.42597,39.80603,1075,323
116.42595,39.80604,1076,323
116.42595,39.80604,1077,323
116.42594,39.80603,1078,323
116.42593,39.80604,1079,323
116.42593,39.80603,1080,323
116.42593,39.80602,1081,323
116.42593,39.80601,1082,323
116.42594,39.80599,1083,323
116.42595,39.80597,1084,323
116.42596,39.80595,1085,323
116.42596,39.80594,1086,323
116.42596,39.80594,1087,323
116.42596,39.80593,1088,323
116.42596,39.80593,1089,323
116.42596,39.80593,1090,323
116.42596,39.80593,1091,323
116.42601,39.80626,1092,323
116.42601,39.80624,1093,323
116.42601,39.80619,1094,323
116.426,39.80614,1095,323
116.426,39.80613,1096,323
116.4296,39.80546,1097,323
116.42588,39.80599,1098,323
116.4258,39.80612,1099,323
116.4258,39.80612,1100,323
116.42584,39.80614,1101,323
116.42584,39.80614,1102,323
116.42586,39.80612,1103,323
116.42997,39.80525,1104,323
116.44523,39.78429,1105,323
116.4562,39.73075,1106,323
116.49615,39.68161,1107,323
116.55921,39.66174,1108,323
116.61176,39.649,1109,323
116.61209,39.64917,1110,323
116.61221,39.64892,1111,323
116.61218,39.64892,1112,323
116.61214,39.64902,1113,323
116.6121,39.64906,1114,323
116.61207,39.64907,1115,323
116.61205,39.64908,1116,323
116.61204,39.64909,1117,323
116.61204,39.6491,1118,323
116.61203,39.6491,1119,323
116.61203,39.64911,1120,323
116.61202,39.64911,1121,323
116.61202,39.64912,1122,323
116.61201,39.64912,1123,323
116.61201,39.64912,1124,323
116.61201,39.64913,1125,323
116.612,39.64913,1126,323
116.612,39.64914,1127,323
116.612,39.64914,1128,323
116.61517,39.65295,1129,323
116.61607,39.65582,1130,323
116.61607,39.65582,1131,323
116.61607,39.65582,1132,323
116.61607,39.65583,1133,323
116.61608,39.65582,1134,323
116.61609,39.65582,1135,323
116.61609,39.65582,1136,323
116.61609,39.65581,1137,323
116.61615,39.65561,1138,323
116.61601,39.65592,1139,323
116.61603,39.65588,1140,323
116.61606,39.65581,1141,323
116.61607,39.65579,1142,323
116.61608,39.65577,1143,323
116.61609,39.65576,1144,323
116.61609,39.65575,1145,323
116.61609,39.65574,1146,323
116.6161,39.65574,1147,323
116.61608,39.65577,1148,323
116.616,39.65571,1149,323
116.6161,39.65567,1150,323
116.61611,39.65566,1151,323
116.6161,39.65567,1152,323
116.61607,39.65568,1153,323
116.61605,39.65569,1154,323
116.61604,39.65569,1155,323
116.61604,39.6557,1156,323
116.61605,39.6557,1157,323
116.61604,39.65571,1158,323
116.61604,39.65571,1159,323
116.61603,39.65571,1160,323
116.61602,39.65571,1161,323
116.61318,39.64922,1162,323
116.61205,39.64925,1163,323
116.61206,39.64924,1164,323
116.61204,39.64922,1165,323
116.61203,39.6492,1166,323
116.61203,39.6492,1167,323
116.61203,39.64921,1168,323
116.61204,39.64922,1169,323
116.61204,39.64922,1170,323
116.61204,39.64922,1171,323
116.61204,39.64922,1172,323
116.61205,39.64922,1173,323
116.61205,39.64922,1174,323
116.61206,39.64922,1175,323
116.61205,39.64922,1176,323
116.61205,39.64922,1177,323
116.61205,39.64922,1178,323
116.61205,39.64922,1179,323
116.61204,39.64922,1180,323
116.61204,39.64923,1181,323
116.61204,39.64922,1182,323
116.61204,39.64922,1183,323
116.61204,39.64922,1184,323
116.61204,39.64922,1185,323
116.61204,39.64922,1186,323
116.61204,39.64922,1187,323
116.61597,39.65592,1188,323
116.61597,39.65592,1189,323
116.61596,39.65584,1190,323
116.61594,39.65507,1191,323
116.61586,39.65559,1192,323
116.61587,39.65559,1193,323
116.61588,39.65559,1194,323
116.61589,39.6556,1195,323
116.61589,39.65561,1196,323
116.61589,39.65563,1197,323
116.61608,39.65593,1198,323
116.616,39.65588,1199,323
116.61598,39.65584,1200,323
116.61598,39.65583,1201,323
116.61598,39.65583,1202,323
116.61598,39.65583,1203,323
116.61598,39.65582,1204,323
116.61599,39.65582,1205,323
116.61599,39.65581,1206,323
116.61599,39.6558,1207,323
116.61599,39.6558,1208,323
116.61598,39.65587,1209,323
116.61595,39.65588,1210,323
116.61596,39.65588,1211,323
116.61174,39.65256,1212,323
116.56857,39.6574,1213,323
116.50311,39.673,1214,323
116.47113,39.71071,1215,323
116.44547,39.75264,1216,323
116.44106,39.79003,1217,323
116.4274,39.80535,1218,323
116.4274,39.80535,1219,323
116.42599,39.80595,1220,323
116.42601,39.8059,1221,323
116.426,39.80588,1222,323
116.42598,39.80589,1223,323
116.42601,39.80588,1224,323
116.426,39.80587,1225,323
116.42599,39.80586,1226,323
116.42599,39.80586,1227,323
116.42598,39.80587,1228,323
116.42599,39.8059,1229,323
116.42599,39.80593,1230,323
116.426,39.80595,1231,323
116.42605,39.80623,1232,323
116.42596,39.80602,1233,323
116.42596,39.80604,1234,323
116.42599,39.80608,1235,323
116.426,39.8061,1236,323
116.42601,39.80612,1237,323
116.42601,39.80612,1238,323
116.426,39.80612,1239,323
116.42599,39.80612,1240,323
116.42599,39.80613,1241,323
116.42609,39.80613,1242,323
116.42597,39.80592,1243,323
116.42601,39.80601,1244,323
116.4259,39.806,1245,323
116.42595,39.80595,1246,323
116.42597,39.80594,1247,323
116.42597,39.80596,1248,323
116.42597,39.80596,1249,323
116.42598,39.80596,1250,323
116.42598,39.80596,1251,323
116.42599,39.80598,1252,323
116.426,39.80601,1253,323
116.42601,39.80601,1254,323
116.42601,39.806,1255,323
116.426,39.80599,1256,323
116.426,39.80598,1257,323
116.42598,39.80596,1258,323
116.42598,39.80596,1259,323
116.42598,39.80598,1260,323
116.42598,39.80599,1261,323
116.42597,39.80599,1262,323
116.42597,39.80599,1263,323
116.42597,39.80599,1264,323
116.42597,39.80599,1265,323
116.42597,39.80597,1266,323
116.42596,39.80597,1267,323
116.42596,39.80597,1268,323
116.42596,39.80598,1269,323
116.42559,39.80619,1270,323
116.42584,39.80635,1271,323
116.42588,39.80636,1272,323
116.42588,39.80634,1273,323
116.42587,39.80636,1274,323
116.42586,39.80635,1275,323
116.42586,39.80631,1276,323
116.42587,39.80629,1277,323
116.42587,39.80629,1278,323
116.42588,39.80627,1279,323
116.42589,39.80625,1280,323
116.4259,39.80625,1281,323
116.42591,39.80626,1282,323
116.42591,39.80624,1283,323
116.42591,39.80623,1284,323
116.42591,39.80622,1285,323
116.42591,39.80622,1286,323
116.42591,39.80621,1287,323
116.42591,39.80621,1288,323
116.4259,39.80621,1289,323
116.4259,39.8062,1290,323
116.42591,39.8062,1291,323
116.42596,39.80602,1292,323
116.42595,39.80602,1293,323
116.42595,39.80602,1294,323
116.42595,39.80601,1295,323
116.42595,39.80601,1296,323
116.42595,39.80602,1297,323
116.42598,39.80613,1298,323
116.42592,39.80614,1299,323
116.42595,39.80557,1300,323
116.42599,39.80589,1301,323
116.42596,39.80595,1302,323
116.42596,39.80617,1303,323
116.42591,39.80609,1304,323
116.42592,39.80604,1305,323
116.42593,39.80602,1306,323
116.42587,39.80609,1307,323
116.42589,39.80611,1308,323
116.4259,39.8061,1309,323
116.4259,39.8061,1310,323
116.4259,39.80611,1311,323
116.4259,39.80611,1312,323
116.4259,39.80611,1313,323
116.4259,39.80611,1314,323
116.4259,39.80611,1315,323
116.4259,39.8063,1316,323
116.42597,39.80591,1317,323
116.42595,39.80596,1318,323
116.4259,39.80591,1319,323
116.42591,39.80594,1320,323
116.42592,39.80594,1321,323
116.42581,39.80626,1322,323
116.42591,39.80615,1323,323
116.4259,39.80614,1324,323
116.42592,39.80609,1325,323
116.42593,39.80604,1326,323
116.42594,39.80604,1327,323
116.4261,39.80616,1328,323
116.42605,39.80619,1329,323
116.42605,39.80619,1330,323
116.42595,39.80611,1331,323
116.4259,39.80615,1332,323
116.42611,39.80615,1333,323
116.42573,39.80582,1334,323
116.42579,39.80588,1335,323
116.42581,39.80588,1336,323
116.42581,39.80618,1337,323
116.42583,39.80613,1338,323
116.42585,39.80611,1339,323
116.42584,39.80611,1340,323
116.42585,39.8061,1341,323
116.426,39.80599,1342,323
116.42594,39.80602,1343,323
116.4259,39.80607,1344,323
116.42583,39.80612,1345,323
116.42587,39.80612,1346,323
116.42613,39.80583,1347,323
116.42612,39.80596,1348,323
116.42585,39.80631,1349,323
116.42602,39.80607,1350,323
116.42598,39.8061,1351,323
116.42597,39.80611,1352,323
116.42597,39.8061,1353,323
116.42597,39.80611,1354,323
116.42596,39.80613,1355,323
116.42595,39.80613,1356,323
116.42595,39.80613,1357,323
116.42595,39.80612,1358,323
116.42595,39.80612,1359,323
116.42595,39.80612,1360,323
116.42595,39.80611,1361,323
116.42595,39.80611,1362,323
116.42596,39.80611,1363,323
116.42595,39.8061,1364,323
116.42603,39.80683,1365,323
116.42602,39.80617,1366,323
116.42605,39.8064,1367,323
116.42601,39.80618,1368,323
116.42599,39.80612,1369,323
116.42597,39.80593,1370,323
116.42621,39.80558,1371,323
116.42593,39.80606,1372,323
116.42596,39.80601,1373,323
116.42594,39.80606,1374,323
116.42599,39.80579,1375,323
116.426,39.80582,1376,323
116.42599,39.80583,1377,323
116.42599,39.80583,1378,323
116.42599,39.80586,1379,323
116.42594,39.80625,1380,323
116.42592,39.80622,1381,323
116.42592,39.80622,1382,323
116.42589,39.80623,1383,323
116.42588,39.80617,1384,323
116.42591,39.80618,1385,323
116.42593,39.80618,1386,323
116.426,39.80615,1387,323
116.42607,39.80626,1388,323
116.42607,39.80626,1389,323
116.42597,39.80586,1390,323
116.42598,39.80586,1391,323
116.42599,39.80586,1392,323
116.42601,39.80585,1393,323
116.426,39.80586,1394,323
116.426,39.80586,1395,323
116.426,39.80587,1396,323
116.426,39.80587,1397,323
116.42582,39.80626,1398,323
116.42588,39.80605,1399,323
116.42589,39.80603,1400,323
116.4259,39.80603,1401,323
116.42989,39.80519,1402,323
116.43776,39.80438,1403,323
116.43774,39.80485,1404,323
116.43779,39.80513,1405,323
116.42407,39.80255,1406,323
116.40228,39.82064,1407,323
116.36165,39.82995,1408,323
116.28534,39.82988,1409,323
116.26857,39.88406,1410,323
116.26852,39.94348,1411,323
116.2746,39.98689,1412,323
116.27344,40.00093,1413,323
116.26852,40.00238,1414,323
116.27127,40.00142,1415,323
116.29418,39.98179,1416,323
116.30404,39.93694,1417,323
116.30227,39.8957,1418,323
116.33887,39.89645,1419,323
116.3472,39.86707,1420,323
116.38077,39.86233,1421,323
116.38076,39.86221,1422,323
116.38076,39.86221,1423,323
116.3855,39.8624,1424,323
116.38122,39.88133,1425,323
116.37882,39.88792,1426,323
116.38893,39.88907,1427,323
116.38893,39.88907,1428,323
116.42505,39.89216,1429,323
116.42505,39.89216,1430,323
116.42505,39.89216,1431,323
116.43359,39.88322,1432,323
116.43359,39.88321,1433,323
116.43332,39.88321,1434,323
116.41968,39.88272,1435,323
116.43128,39.87642,1436,323
116.43285,39.86742,1437,323
116.42567,39.8647,1438,323
116.42763,39.86932,1439,323
116.43788,39.89341,1440,323
116.42826,39.92484,1441,323
116.42676,39.94768,1442,323
116.42601,39.80588,1443,323
116.38764,39.94761,1444,323
116.37036,39.94765,1445,323
116.35183,39.94312,1446,323
116.30993,39.93887,1447,323
116.30391,39.90975,1448,323
116.3023,39.9076,1449,323
116.30369,39.91128,1450,323
116.32027,39.90998,1451,323
116.34169,39.90592,1452,323
116.34697,39.89133,1453,323
116.35276,39.87658,1454,323
116.37631,39.87745,1455,323
116.38148,39.87164,1456,323
116.38048,39.85603,1457,323
116.37406,39.84765,1458,323
116.36624,39.83948,1459,323
116.36867,39.84322,1460,323
116.38067,39.85253,1461,323
116.40904,39.85552,1462,323
116.41919,39.85656,1463,323
116.44174,39.8579,1464,323
116.42773,39.8624,1465,323
116.42994,39.84906,1466,323
116.43294,39.84979,1467,323
116.43294,39.84981,1468,323
116.43294,39.8498,1469,323
116.43296,39.84979,1470,323
116.4329,39.85285,1471,323
116.4329,39.85285,1472,323
116.4328,39.85488,1473,323
116.4332,39.86645,1474,323
116.3808,39.86989,1475,323
116.36885,39.87883,1476,323
116.37852,39.87728,1477,323
116.3807,39.85628,1478,323
116.37692,39.8506,1479,323
116.38073,39.8502,1480,323
116.41553,39.85609,1481,323
116.41504,39.87904,1482,323
116.41685,39.89576,1483,323
116.42493,39.88553,1484,323
116.42716,39.87986,1485,323
116.40639,39.87083,1486,323
116.3815,39.86438,1487,323
116.41421,39.85561,1488,323
116.41874,39.85659,1489,323
116.35201,39.85176,1490,323
116.35201,39.85176,1491,323
116.32008,39.84652,1492,323
116.30494,39.85024,1493,323
116.30496,39.85018,1494,323
116.31543,39.8466,1495,323
116.33964,39.84314,1496,323
116.37749,39.83016,1497,323
116.40955,39.81965,1498,323
116.42951,39.80316,1499,323
116.43288,39.80329,1500,323
116.42723,39.80561,1501,323
116.42589,39.80594,1502,323
116.42565,39.80549,1503,323
116.42567,39.80556,1504,323
