x,y,k,tid
116.15301,39.80871,0,3472
116.15679,39.80896,1,3472
116.16375,39.81468,2,3472
116.1438,39.83919,3,3472
116.13964,39.85694,4,3472
116.13906,39.85675,5,3472
116.13906,39.85677,6,3472
116.13901,39.85658,7,3472
116.13901,39.85658,8,3472
116.13901,39.85658,9,3472
116.13901,39.85658,10,3472
116.13901,39.85658,11,3472
116.13901,39.85658,12,3472
116.13901,39.85658,13,3472
116.13901,39.85659,14,3472
116.139,39.85659,15,3472
116.13901,39.85659,16,3472
116.13901,39.85659,17,3472
116.13901,39.8566,18,3472
116.13901,39.8566,19,3472
116.13901,39.85661,20,3472
116.13901,39.85661,21,3472
116.13901,39.85661,22,3472
116.13901,39.85662,23,3472
116.13901,39.85663,24,3472
116.13901,39.85663,25,3472
116.13901,39.85663,26,3472
116.13901,39.85663,27,3472
116.13901,39.85663,28,3472
116.13901,39.85664,29,3472
116.13901,39.85664,30,3472
116.13901,39.85664,31,3472
116.13901,39.85664,32,3472
116.13901,39.85665,33,3472
116.13901,39.85665,34,3472
116.13901,39.85664,35,3472
116.13902,39.85664,36,3472
116.13895,39.85663,37,3472
116.13912,39.85655,38,3472
116.13911,39.85654,39,3472
116.139,39.85657,40,3472
116.13898,39.85659,41,3472
116.13896,39.85661,42,3472
116.13893,39.85662,43,3472
116.13892,39.85663,44,3472
116.13892,39.85664,45,3472
116.13897,39.85668,46,3472
116.13899,39.85669,47,3472
116.13901,39.8567,48,3472
116.13904,39.85672,49,3472
116.13905,39.85673,50,3472
116.13906,39.85673,51,3472
116.13907,39.85673,52,3472
116.13907,39.85673,53,3472
116.13907,39.85673,54,3472
116.13908,39.85674,55,3472
116.13908,39.85674,56,3472
116.13907,39.85674,57,3472
116.13907,39.85674,58,3472
116.13907,39.85674,59,3472
116.13907,39.85673,60,3472
116.13907,39.85673,61,3472
116.13907,39.85673,62,3472
116.13907,39.85673,63,3472
116.13907,39.85673,64,3472
116.13907,39.85672,65,3472
116.13907,39.85672,66,3472
116.13907,39.85672,67,3472
116.13907,39.85672,68,3472
116.13907,39.85672,69,3472
116.13874,39.8566,70,3472
116.13882,39.85664,71,3472
116.13883,39.85665,72,3472
116.13883,39.85665,73,3472
116.13884,39.85666,74,3472
116.13885,39.85666,75,3472
116.13886,39.85666,76,3472
116.13887,39.85667,77,3472
116.13888,39.85667,78,3472
116.13888,39.85668,79,3472
116.13889,39.85668,80,3472
116.13889,39.85668,81,3472
116.1389,39.85668,82,3472
116.1389,39.85668,83,3472
116.1389,39.85669,84,3472
116.13891,39.85669,85,3472
116.13891,39.85669,86,3472
116.13901,39.85679,87,3472
116.13913,39.85673,88,3472
116.13899,39.85673,89,3472
116.13902,39.8567,90,3472
116.13903,39.8567,91,3472
116.13901,39.85669,92,3472
116.13899,39.85667,93,3472
116.13898,39.85667,94,3472
116.13897,39.85666,95,3472
116.1394,39.85687,96,3472
116.13944,39.85677,97,3472
116.13933,39.85674,98,3472
116.13933,39.85674,99,3472
116.13904,39.85667,100,3472
116.13897,39.85661,101,3472
116.13894,39.85659,102,3472
116.13893,39.8566,103,3472
116.139,39.85676,104,3472
116.13896,39.85675,105,3472
116.13895,39.85673,106,3472
116.13894,39.8567,107,3472
116.13895,39.8567,108,3472
116.13896,39.85671,109,3472
116.13896,39.85671,110,3472
116.13896,39.8567,111,3472
116.13896,39.8567,112,3472
116.13896,39.8567,113,3472
116.13897,39.8567,114,3472
116.13891,39.85663,115,3472
116.13898,39.85668,116,3472
116.13899,39.8567,117,3472
116.13899,39.85672,118,3472
116.139,39.85673,119,3472
116.139,39.85673,120,3472
116.139,39.85673,121,3472
116.13899,39.85673,122,3472
116.13898,39.85672,123,3472
116.13898,39.85672,124,3472
116.13898,39.85672,125,3472
116.13898,39.85672,126,3472
116.13899,39.85673,127,3472
116.13899,39.85673,128,3472
116.139,39.85672,129,3472
116.139,39.85672,130,3472
116.139,39.85673,131,3472
116.13901,39.85672,132,3472
116.13901,39.85672,133,3472
116.13901,39.85672,134,3472
116.13901,39.85672,135,3472
116.13902,39.85672,136,3472
116.13902,39.85671,137,3472
116.13904,39.85671,138,3472
116.13904,39.85669,139,3472
116.13904,39.85669,140,3472
116.13903,39.85666,141,3472
116.13903,39.85665,142,3472
116.13903,39.85664,143,3472
116.13904,39.85642,144,3472
116.13898,39.85672,145,3472
116.13899,39.85672,146,3472
116.13896,39.85672,147,3472
116.13898,39.85672,148,3472
116.37703,39.85672,149,3472
116.13903,39.85673,150,3472
116.13907,39.85674,151,3472
116.1397,39.85685,152,3472
116.13965,39.85685,153,3472
116.13925,39.85673,154,3472
116.1392,39.85676,155,3472
116.13911,39.85678,156,3472
116.13911,39.85681,157,3472
116.13902,39.85683,158,3472
116.13889,39.85682,159,3472
116.13857,39.85681,160,3472
116.13868,39.85684,161,3472
116.13894,39.85678,162,3472
116.13903,39.85675,163,3472
116.13905,39.85673,164,3472
116.13905,39.85673,165,3472
116.13902,39.85672,166,3472
116.13902,39.85672,167,3472
116.13902,39.85672,168,3472
116.13902,39.85671,169,3472
116.13902,39.85671,170,3472
116.13905,39.85673,171,3472
116.13905,39.85673,172,3472
116.13904,39.85673,173,3472
116.13903,39.85672,174,3472
116.13905,39.85674,175,3472
116.13904,39.85673,176,3472
116.13903,39.85671,177,3472
116.13902,39.8567,178,3472
116.13902,39.8567,179,3472
116.139,39.85669,180,3472
116.13855,39.85663,181,3472
116.13881,39.85669,182,3472
116.13889,39.8567,183,3472
116.13894,39.85672,184,3472
116.139,39.85673,185,3472
116.13902,39.85673,186,3472
116.13902,39.85674,187,3472
116.13902,39.85675,188,3472
116.13903,39.85676,189,3472
116.13902,39.85677,190,3472
116.13901,39.85677,191,3472
116.13901,39.85677,192,3472
116.13879,39.85676,193,3472
116.13878,39.85676,194,3472
116.13879,39.85677,195,3472
116.1393,39.85682,196,3472
116.13931,39.85678,197,3472
116.139,39.85674,198,3472
116.13898,39.85674,199,3472
116.13876,39.8567,200,3472
116.13892,39.85671,201,3472
116.13899,39.85672,202,3472
116.13902,39.85671,203,3472
116.13905,39.8567,204,3472
116.13907,39.85671,205,3472
116.13908,39.85671,206,3472
116.13907,39.85671,207,3472
116.13907,39.85671,208,3472
116.13906,39.85672,209,3472
116.13905,39.85672,210,3472
116.1386,39.85657,211,3472
116.13865,39.85659,212,3472
116.13866,39.85658,213,3472
116.13874,39.85659,214,3472
116.139,39.85683,215,3472
116.13877,39.85675,216,3472
116.13898,39.85685,217,3472
116.1376,39.85613,218,3472
116.139,39.85665,219,3472
116.13834,39.85637,220,3472
116.13843,39.85644,221,3472
116.13931,39.85686,222,3472
116.13906,39.85676,223,3472
116.139,39.85673,224,3472
116.13899,39.85674,225,3472
116.13892,39.85671,226,3472
116.13892,39.85671,227,3472
116.13889,39.85668,228,3472
116.139,39.85658,229,3472
116.13881,39.85671,230,3472
116.13883,39.85672,231,3472
116.13775,39.85709,232,3472
116.16437,39.86041,233,3472
116.16436,39.8604,234,3472
116.16435,39.8604,235,3472
116.1644,39.86036,236,3472
116.16442,39.86038,237,3472
116.16447,39.86036,238,3472
116.16447,39.86037,239,3472
116.2173,39.8447,240,3472
116.2173,39.8447,241,3472
116.27555,39.84499,242,3472
116.29698,39.85639,243,3472
116.30899,39.86536,244,3472
116.31107,39.88301,245,3472
116.31201,39.87078,246,3472
116.32005,39.84796,247,3472
116.31697,39.84124,248,3472
116.3408,39.85175,249,3472
116.34272,39.88907,250,3472
116.35069,39.89913,251,3472
116.36995,39.90558,252,3472
116.36973,39.9059,253,3472
116.34362,39.90598,254,3472
116.32826,39.90404,255,3472
116.33607,39.89527,256,3472
116.33607,39.89527,257,3472
116.33658,39.88956,258,3472
116.32048,39.87574,259,3472
116.31688,39.86898,260,3472
116.31624,39.86857,261,3472
116.32044,39.87922,262,3472
116.32044,39.87922,263,3472
116.32076,39.88841,264,3472
116.3555,39.88797,265,3472
116.35613,39.88795,266,3472
116.35736,39.89021,267,3472
116.34725,39.88839,268,3472
116.3476,39.87666,269,3472
116.34266,39.87616,270,3472
116.34702,39.88815,271,3472
116.34477,39.88839,272,3472
116.33347,39.88587,273,3472
116.32227,39.86748,274,3472
116.26751,39.8642,275,3472
116.26888,39.8638,276,3472
116.27672,39.85942,277,3472
116.282,39.84723,278,3472
116.27825,39.84585,279,3472
116.28332,39.83522,280,3472
116.28221,39.83519,281,3472
116.27944,39.84641,282,3472
116.29778,39.85652,283,3472
116.30841,39.86472,284,3472
116.32548,39.86654,285,3472
116.31187,39.86715,286,3472
116.37159,39.85563,287,3472
116.41726,39.85632,288,3472
116.41726,39.85632,289,3472
116.43365,39.85228,290,3472
116.43365,39.85228,291,3472
116.43276,39.8566,292,3472
116.43286,39.86582,293,3472
116.41905,39.88032,294,3472
116.41269,39.89113,295,3472
116.39348,39.89002,296,3472
116.36256,39.88777,297,3472
116.35071,39.88804,298,3472
116.32348,39.88876,299,3472
116.31701,39.88831,300,3472
116.32034,39.88791,301,3472
116.32018,39.8855,302,3472
116.33211,39.88832,303,3472
116.35683,39.88784,304,3472
116.3663,39.88717,305,3472
116.36826,39.89557,306,3472
116.36803,39.90186,307,3472
116.3716,39.90433,308,3472
116.36789,39.90016,309,3472
116.36808,39.89456,310,3472
116.35884,39.88802,311,3472
116.3363,39.88712,312,3472
116.33368,39.88565,313,3472
116.32236,39.88329,314,3472
116.32236,39.88329,315,3472
116.32195,39.88314,316,3472
116.32041,39.88249,317,3472
116.32036,39.88108,318,3472
116.31863,39.86695,319,3472
116.31863,39.86695,320,3472
116.31802,39.86611,321,3472
116.31582,39.86554,322,3472
116.3164,39.86221,323,3472
116.29553,39.86545,324,3472
116.23811,39.85921,325,3472
116.22682,39.84893,326,3472
116.22268,39.8465,327,3472
116.22149,39.84585,328,3472
116.22106,39.84568,329,3472
116.2127,39.84401,330,3472
116.19277,39.85069,331,3472
116.16645,39.86001,332,3472
116.14397,39.85932,333,3472
116.14398,39.85927,334,3472
116.14397,39.85929,335,3472
116.14397,39.85929,336,3472
116.14397,39.85928,337,3472
116.14397,39.85928,338,3472
116.14397,39.85929,339,3472
116.14396,39.8593,340,3472
116.14396,39.85933,341,3472
116.14383,39.85946,342,3472
116.14385,39.85942,343,3472
116.14406,39.85929,344,3472
116.14386,39.85935,345,3472
116.14388,39.85935,346,3472
116.14389,39.85934,347,3472
116.1439,39.85934,348,3472
116.1439,39.85934,349,3472
116.14369,39.85928,350,3472
116.1437,39.85928,351,3472
116.144,39.85884,352,3472
116.14391,39.85934,353,3472
116.14392,39.85934,354,3472
116.14395,39.85934,355,3472
116.14395,39.85934,356,3472
116.14396,39.85934,357,3472
116.14396,39.85933,358,3472
116.14396,39.85933,359,3472
116.14396,39.85933,360,3472
116.14396,39.85934,361,3472
116.14396,39.85934,362,3472
116.14396,39.85935,363,3472
116.14396,39.85935,364,3472
116.14396,39.85935,365,3472
116.14396,39.85934,366,3472
116.14398,39.85935,367,3472
116.14397,39.85933,368,3472
116.14396,39.85931,369,3472
116.14397,39.85931,370,3472
116.14397,39.85931,371,3472
116.14398,39.85933,372,3472
116.14398,39.85933,373,3472
116.14398,39.85934,374,3472
116.14399,39.85934,375,3472
116.14399,39.85934,376,3472
116.14399,39.85935,377,3472
116.144,39.85935,378,3472
116.144,39.85935,379,3472
116.144,39.85935,380,3472
116.144,39.85935,381,3472
116.144,39.85935,382,3472
116.144,39.85935,383,3472
116.144,39.85935,384,3472
116.144,39.85935,385,3472
116.144,39.85934,386,3472
116.144,39.85934,387,3472
116.144,39.85934,388,3472
116.144,39.85934,389,3472
116.144,39.85933,390,3472
116.144,39.85933,391,3472
116.144,39.85933,392,3472
116.144,39.85933,393,3472
116.144,39.85933,394,3472
116.144,39.85933,395,3472
116.14401,39.85933,396,3472
116.14401,39.85933,397,3472
116.14401,39.85933,398,3472
116.14401,39.85933,399,3472
116.14401,39.85933,400,3472
116.14401,39.85933,401,3472
116.14401,39.85933,402,3472
116.14401,39.85933,403,3472
116.14401,39.85933,404,3472
116.14401,39.85933,405,3472
116.14401,39.85933,406,3472
116.14401,39.85933,407,3472
116.14401,39.85933,408,3472
116.14402,39.85933,409,3472
116.14401,39.85934,410,3472
116.14402,39.85934,411,3472
116.14401,39.85934,412,3472
116.14401,39.85934,413,3472
116.14401,39.85936,414,3472
116.14401,39.85936,415,3472
116.14401,39.85936,416,3472
116.14401,39.85936,417,3472
116.14401,39.85936,418,3472
116.14401,39.85936,419,3472
116.144,39.85935,420,3472
116.144,39.85935,421,3472
116.14401,39.85935,422,3472
116.14401,39.85935,423,3472
116.14401,39.85935,424,3472
116.144,39.85935,425,3472
116.144,39.85934,426,3472
116.144,39.85935,427,3472
116.144,39.85935,428,3472
116.144,39.85935,429,3472
116.14394,39.85941,430,3472
116.14392,39.85939,431,3472
116.14393,39.85936,432,3472
116.14395,39.85938,433,3472
116.14396,39.85938,434,3472
116.14396,39.85938,435,3472
116.14396,39.85937,436,3472
116.14396,39.85937,437,3472
116.14396,39.85937,438,3472
116.14396,39.85936,439,3472
116.14396,39.85936,440,3472
116.14396,39.85936,441,3472
116.14396,39.85936,442,3472
116.14396,39.85936,443,3472
116.14396,39.85936,444,3472
116.14396,39.85937,445,3472
116.14396,39.85936,446,3472
116.14396,39.85936,447,3472
116.14396,39.85936,448,3472
116.14396,39.85936,449,3472
116.14396,39.85936,450,3472
116.14396,39.85936,451,3472
116.14396,39.85936,452,3472
116.14396,39.85935,453,3472
116.14396,39.85935,454,3472
116.14396,39.85935,455,3472
116.14396,39.85935,456,3472
116.14396,39.85935,457,3472
116.14396,39.85935,458,3472
116.14396,39.85935,459,3472
116.14396,39.85935,460,3472
116.14396,39.85935,461,3472
116.14396,39.85935,462,3472
116.14396,39.85935,463,3472
116.14396,39.85935,464,3472
116.14396,39.85936,465,3472
116.14396,39.85936,466,3472
116.14396,39.85936,467,3472
116.14396,39.85936,468,3472
116.14396,39.85936,469,3472
116.14396,39.85936,470,3472
116.14396,39.85936,471,3472
116.14396,39.85936,472,3472
116.14391,39.8595,473,3472
116.14396,39.85911,474,3472
116.14387,39.85917,475,3472
116.14389,39.8592,476,3472
116.1439,39.8592,477,3472
116.1439,39.85921,478,3472
116.14391,39.85922,479,3472
116.14391,39.85923,480,3472
116.14391,39.85924,481,3472
116.14392,39.85924,482,3472
116.14392,39.85924,483,3472
116.14392,39.85924,484,3472
116.14392,39.85925,485,3472
116.14392,39.85925,486,3472
116.14393,39.85925,487,3472
116.13908,39.8578,488,3472
116.13905,39.85671,489,3472
116.13903,39.85669,490,3472
116.13905,39.8567,491,3472
116.13904,39.8567,492,3472
116.13903,39.8567,493,3472
116.13904,39.85671,494,3472
116.13778,39.85749,495,3472
116.144,39.85934,496,3472
116.15672,39.86323,497,3472
116.16439,39.86035,498,3472
116.16438,39.86034,499,3472
116.16438,39.86033,500,3472
116.16438,39.86034,501,3472
116.16438,39.86035,502,3472
116.16191,39.86104,503,3472
116.16061,39.88727,504,3472
116.22719,39.89566,505,3472
116.25871,39.90346,506,3472
116.26729,39.89905,507,3472
116.27703,39.86221,508,3472
116.28733,39.85798,509,3472
116.30209,39.8568,510,3472
116.28781,39.8595,511,3472
116.30753,39.85657,512,3472
116.30877,39.86489,513,3472
116.31167,39.87991,514,3472
116.31167,39.87991,515,3472
116.31083,39.88444,516,3472
116.31149,39.88636,517,3472
116.32301,39.88865,518,3472
116.35619,39.88787,519,3472
116.37184,39.88795,520,3472
116.37841,39.89348,521,3472
116.37837,39.89115,522,3472
116.36233,39.88812,523,3472
116.35138,39.89494,524,3472
116.32438,39.88872,525,3472
116.32123,39.88672,526,3472
116.32123,39.88672,527,3472
116.28656,39.87801,528,3472
116.27419,39.86925,529,3472
116.27667,39.85522,530,3472
116.28133,39.84697,531,3472
116.29408,39.85663,532,3472
116.30584,39.87283,533,3472
116.30551,39.87595,534,3472
116.31521,39.87387,535,3472
116.32037,39.88212,536,3472
116.32597,39.88296,537,3472
116.32585,39.88322,538,3472
116.32586,39.8832,539,3472
116.32592,39.88317,540,3472
116.32592,39.88318,541,3472
116.32592,39.88318,542,3472
116.32594,39.88316,543,3472
116.32596,39.88316,544,3472
116.32597,39.88316,545,3472
116.32628,39.8827,546,3472
116.32897,39.88341,547,3472
116.33279,39.883,548,3472
116.3323,39.88325,549,3472
116.33271,39.88338,550,3472
116.33306,39.8839,551,3472
116.33269,39.88354,552,3472
116.33271,39.88351,553,3472
116.33275,39.88351,554,3472
116.33278,39.88349,555,3472
116.33286,39.88321,556,3472
116.33283,39.8836,557,3472
116.33275,39.88358,558,3472
116.33278,39.88331,559,3472
116.3328,39.88328,560,3472
116.33281,39.8833,561,3472
116.33291,39.88342,562,3472
116.3328,39.88342,563,3472
116.33281,39.88338,564,3472
116.32441,39.88334,565,3472
116.32045,39.8801,566,3472
116.31691,39.88318,567,3472
116.31883,39.88317,568,3472
116.32027,39.88299,569,3472
116.32027,39.88299,570,3472
116.32055,39.87712,571,3472
116.34207,39.87607,572,3472
116.34463,39.87271,573,3472
116.34065,39.87277,574,3472
116.34088,39.87719,575,3472
116.34075,39.88324,576,3472
116.33639,39.89477,577,3472
116.34103,39.90402,578,3472
116.34821,39.89711,579,3472
116.35,39.88819,580,3472
116.34391,39.88706,581,3472
116.34435,39.89663,582,3472
116.35047,39.90717,583,3472
116.34989,39.94198,584,3472
116.34981,39.95019,585,3472
116.34899,39.9398,586,3472
116.33719,39.93605,587,3472
116.33802,39.92353,588,3472
116.32998,39.92181,589,3472
116.32172,39.92209,590,3472
116.30508,39.92285,591,3472
116.30383,39.91407,592,3472
116.30382,39.91086,593,3472
116.30377,39.90848,594,3472
116.30311,39.89644,595,3472
116.30311,39.89644,596,3472
116.30549,39.8729,597,3472
116.30876,39.85682,598,3472
116.28791,39.85799,599,3472
116.28155,39.86448,600,3472
116.23167,39.85354,601,3472
116.22,39.84514,602,3472
116.20224,39.84075,603,3472
116.18762,39.85241,604,3472
116.14796,39.86046,605,3472
116.13897,39.8568,606,3472
116.13897,39.85678,607,3472
116.13897,39.85677,608,3472
116.13898,39.85676,609,3472
116.13897,39.85675,610,3472
116.13897,39.85675,611,3472
116.13897,39.85681,612,3472
116.15857,39.8832,613,3472
116.20469,39.89277,614,3472
116.27252,39.89573,615,3472
116.35076,39.90009,616,3472
116.35094,39.91146,617,3472
116.34919,39.91148,618,3472
116.34919,39.91148,619,3472
116.34919,39.91148,620,3472
116.34919,39.91148,621,3472
116.34919,39.91148,622,3472
116.34919,39.91148,623,3472
116.34919,39.91148,624,3472
116.34919,39.91148,625,3472
116.34919,39.91148,626,3472
116.34919,39.91148,627,3472
116.34919,39.91148,628,3472
116.34919,39.91148,629,3472
116.34919,39.91148,630,3472
116.34919,39.91148,631,3472
116.34919,39.91148,632,3472
116.34919,39.91148,633,3472
116.34919,39.91148,634,3472
116.34919,39.91148,635,3472
116.34919,39.91148,636,3472
116.34919,39.91148,637,3472
116.34461,39.89698,638,3472
116.24108,39.89579,639,3472
116.21712,39.89581,640,3472
116.16427,39.88949,641,3472
116.15835,39.87016,642,3472
116.13897,39.8568,643,3472
116.1389,39.85663,644,3472
116.1389,39.85663,645,3472
116.13894,39.85666,646,3472
116.13894,39.85666,647,3472
116.13893,39.85665,648,3472
116.13895,39.85667,649,3472
116.13894,39.85667,650,3472
116.13894,39.85667,651,3472
116.13894,39.85667,652,3472
116.13894,39.85666,653,3472
116.13895,39.85667,654,3472
116.13893,39.85666,655,3472
116.13893,39.85666,656,3472
116.13893,39.85666,657,3472
116.13893,39.85666,658,3472
116.13893,39.85666,659,3472
116.13893,39.85666,660,3472
116.13876,39.85659,661,3472
116.13897,39.85675,662,3472
116.13898,39.85673,663,3472
116.13899,39.85674,664,3472
116.139,39.85675,665,3472
116.13899,39.85674,666,3472
116.13896,39.85672,667,3472
116.13895,39.85672,668,3472
116.13895,39.85672,669,3472
116.13895,39.85671,670,3472
116.13899,39.85651,671,3472
116.13898,39.85652,672,3472
116.13897,39.85651,673,3472
116.13896,39.85649,674,3472
116.13896,39.85649,675,3472
116.13895,39.85648,676,3472
116.13918,39.85683,677,3472
116.13917,39.85683,678,3472
116.13917,39.85684,679,3472
116.13917,39.85683,680,3472
116.13916,39.85682,681,3472
116.13914,39.85683,682,3472
116.13915,39.85682,683,3472
116.13872,39.85685,684,3472
116.13873,39.85688,685,3472
116.13887,39.8569,686,3472
116.13893,39.85684,687,3472
116.13895,39.85685,688,3472
116.13898,39.85684,689,3472
116.13901,39.85683,690,3472
116.13901,39.85682,691,3472
116.13901,39.85682,692,3472
116.13902,39.85681,693,3472
116.13903,39.85682,694,3472
116.13904,39.85682,695,3472
116.13905,39.85682,696,3472
116.13906,39.85682,697,3472
116.13906,39.85682,698,3472
116.13906,39.85682,699,3472
116.13905,39.85673,700,3472
116.13906,39.85671,701,3472
116.13905,39.8567,702,3472
116.139,39.85669,703,3472
116.139,39.85668,704,3472
116.139,39.85669,705,3472
116.13896,39.85669,706,3472
116.13897,39.8567,707,3472
116.13897,39.8567,708,3472
116.13897,39.85671,709,3472
116.13897,39.85671,710,3472
116.13897,39.85671,711,3472
116.13898,39.85671,712,3472
116.13898,39.85671,713,3472
116.13898,39.85672,714,3472
116.13899,39.85672,715,3472
116.139,39.85672,716,3472
116.13901,39.85673,717,3472
116.13901,39.85672,718,3472
116.139,39.85673,719,3472
116.13901,39.85673,720,3472
116.13902,39.85673,721,3472
116.13902,39.85674,722,3472
116.13902,39.85674,723,3472
116.13902,39.85674,724,3472
116.13902,39.85674,725,3472
116.13902,39.85674,726,3472
116.13902,39.85674,727,3472
116.13903,39.85674,728,3472
116.13903,39.85674,729,3472
116.13903,39.85674,730,3472
116.13903,39.85674,731,3472
116.13903,39.85674,732,3472
116.13904,39.85674,733,3472
116.13903,39.85674,734,3472
116.13903,39.85674,735,3472
116.13903,39.85674,736,3472
116.13902,39.85674,737,3472
116.13902,39.85674,738,3472
116.13903,39.85674,739,3472
116.13903,39.85674,740,3472
116.13903,39.85674,741,3472
116.13903,39.85674,742,3472
116.13903,39.85674,743,3472
116.13903,39.85674,744,3472
116.13903,39.85674,745,3472
116.13903,39.85674,746,3472
116.13903,39.85674,747,3472
116.13893,39.85674,748,3472
116.13897,39.85677,749,3472
116.25489,39.91956,750,3472
116.25489,39.91956,751,3472
116.13895,39.85677,752,3472
116.13895,39.85678,753,3472
116.13895,39.85678,754,3472
116.13942,39.85682,755,3472
116.13921,39.8568,756,3472
116.13886,39.85678,757,3472
116.13889,39.85678,758,3472
116.13891,39.85678,759,3472
116.13892,39.85678,760,3472
116.13892,39.85677,761,3472
116.13895,39.85676,762,3472
116.3502,39.90597,763,3472
116.3502,39.90597,764,3472
116.13901,39.85678,765,3472
116.15687,39.86322,766,3472
116.15807,39.86223,767,3472
116.16437,39.86041,768,3472
116.16436,39.86043,769,3472
116.16438,39.86044,770,3472
116.16438,39.86043,771,3472
116.16439,39.86042,772,3472
116.16439,39.86041,773,3472
116.1644,39.86042,774,3472
116.1644,39.86041,775,3472
116.1644,39.86041,776,3472
116.16436,39.86041,777,3472
116.16444,39.86031,778,3472
116.1889,39.852,779,3472
116.2052,39.83971,780,3472
116.25015,39.86378,781,3472
116.32075,39.86672,782,3472
116.35784,39.86777,783,3472
116.35784,39.86777,784,3472
116.42168,39.8586,785,3472
116.40945,39.85591,786,3472
116.41509,39.87257,787,3472
116.42663,39.88281,788,3472
116.43278,39.86527,789,3472
116.42862,39.85751,790,3472
116.41726,39.85635,791,3472
116.42378,39.85692,792,3472
116.41217,39.85559,793,3472
116.3596,39.85393,794,3472
116.30792,39.86027,795,3472
116.30435,39.85592,796,3472
116.30803,39.85522,797,3472
116.31941,39.86653,798,3472
116.32238,39.87136,799,3472
116.32241,39.8713,800,3472
116.32399,39.87141,801,3472
116.32976,39.88329,802,3472
116.32015,39.88211,803,3472
116.32047,39.88002,804,3472
116.3094,39.86641,805,3472
116.27716,39.86196,806,3472
116.2779,39.83733,807,3472
116.28401,39.82965,808,3472
116.33462,39.82949,809,3472
116.35373,39.82964,810,3472
116.39554,39.81654,811,3472
116.38908,39.80101,812,3472
116.38908,39.80101,813,3472
116.39231,39.79326,814,3472
116.39654,39.80585,815,3472
116.39567,39.82363,816,3472
116.37723,39.83057,817,3472
116.37811,39.83291,818,3472
116.378,39.83278,819,3472
116.37797,39.83276,820,3472
116.37797,39.83276,821,3472
116.37764,39.83267,822,3472
116.37768,39.83277,823,3472
116.37802,39.83273,824,3472
116.33945,39.83237,825,3472
116.30607,39.83574,826,3472
116.28566,39.84235,827,3472
116.28791,39.85361,828,3472
116.31648,39.85721,829,3472
116.32516,39.86407,830,3472
116.32265,39.87141,831,3472
116.32238,39.8713,832,3472
116.32238,39.87132,833,3472
116.32239,39.87132,834,3472
116.3207,39.87574,835,3472
116.32544,39.87293,836,3472
116.32237,39.87131,837,3472
116.32205,39.87178,838,3472
116.32201,39.87154,839,3472
116.32354,39.87584,840,3472
116.32093,39.88286,841,3472
116.31615,39.88778,842,3472
116.31615,39.88778,843,3472
116.28514,39.87785,844,3472
116.2584,39.86515,845,3472
116.26041,39.84525,846,3472
116.27565,39.84502,847,3472
116.2964,39.85654,848,3472
116.31039,39.85748,849,3472
116.30592,39.87306,850,3472
116.30609,39.87609,851,3472
116.31196,39.87024,852,3472
116.31145,39.88231,853,3472
116.31904,39.88864,854,3472
116.34187,39.88713,855,3472
116.33869,39.84753,856,3472
116.35977,39.84435,857,3472
116.35833,39.86181,858,3472
116.35757,39.87617,859,3472
116.34452,39.87636,860,3472
116.33959,39.8405,861,3472
116.32995,39.82232,862,3472
116.3068,39.83431,863,3472
116.34332,39.82968,864,3472
116.41253,39.83075,865,3472
116.47477,39.84173,866,3472
116.50117,39.83529,867,3472
116.49282,39.83577,868,3472
116.48027,39.85393,869,3472
116.48027,39.85393,870,3472
116.43946,39.90697,871,3472
116.42769,39.9375,872,3472
116.3912,39.94774,873,3472
116.38773,39.94085,874,3472
116.38975,39.93748,875,3472
116.37582,39.93179,876,3472
116.35031,39.9316,877,3472
116.33784,39.92588,878,3472
116.32343,39.96632,879,3472
116.31914,39.97216,880,3472
116.3194,39.96724,881,3472
116.30252,39.96119,882,3472
116.30372,39.93966,883,3472
116.30386,39.92181,884,3472
116.30395,39.9018,885,3472
116.25837,39.89574,886,3472
116.19584,39.88787,887,3472
116.15766,39.88475,888,3472
116.15275,39.86186,889,3472
116.139,39.85669,890,3472
116.13898,39.85668,891,3472
116.13899,39.85669,892,3472
116.13898,39.8567,893,3472
116.13896,39.85669,894,3472
116.13893,39.85668,895,3472
116.13891,39.85667,896,3472
116.13891,39.85667,897,3472
116.13891,39.85667,898,3472
116.13891,39.85667,899,3472
116.13891,39.85667,900,3472
116.13891,39.85667,901,3472
116.13892,39.85667,902,3472
116.13892,39.85667,903,3472
116.13892,39.85668,904,3472
116.13893,39.85668,905,3472
116.13894,39.85669,906,3472
116.13894,39.85669,907,3472
116.13894,39.85669,908,3472
116.13895,39.8567,909,3472
116.13895,39.8567,910,3472
116.13895,39.8567,911,3472
116.13895,39.85669,912,3472
116.13895,39.85669,913,3472
116.13909,39.85665,914,3472
116.13905,39.85665,915,3472
116.13905,39.85665,916,3472
116.13904,39.85664,917,3472
116.13884,39.85663,918,3472
116.13888,39.85665,919,3472
116.13915,39.85685,920,3472
116.13912,39.85681,921,3472
116.13903,39.85671,922,3472
116.13902,39.85668,923,3472
116.13901,39.85667,924,3472
116.13901,39.85666,925,3472
116.13901,39.85666,926,3472
116.13901,39.85666,927,3472
116.13902,39.85668,928,3472
116.13902,39.85669,929,3472
116.13904,39.85669,930,3472
116.13904,39.8567,931,3472
116.13903,39.85669,932,3472
116.13902,39.85669,933,3472
116.13901,39.85669,934,3472
116.139,39.85669,935,3472
116.139,39.85669,936,3472
116.139,39.85669,937,3472
116.13899,39.85669,938,3472
116.13898,39.85669,939,3472
116.13898,39.85669,940,3472
116.13898,39.85669,941,3472
116.13898,39.85669,942,3472
116.13898,39.85669,943,3472
116.13894,39.85671,944,3472
116.13892,39.85667,945,3472
116.14055,39.85844,946,3472
116.14106,39.85909,947,3472
116.14101,39.85904,948,3472
116.14097,39.85901,949,3472
116.14092,39.85898,950,3472
116.14088,39.85895,951,3472
116.14085,39.85893,952,3472
116.13895,39.85671,953,3472
116.13899,39.85672,954,3472
116.13902,39.85671,955,3472
116.13901,39.85671,956,3472
116.13908,39.85672,957,3472
116.13907,39.85671,958,3472
116.13906,39.85671,959,3472
116.13906,39.85671,960,3472
116.13904,39.85672,961,3472
116.13903,39.85672,962,3472
116.13903,39.85672,963,3472
116.13903,39.85672,964,3472
116.13903,39.85672,965,3472
116.13903,39.85672,966,3472
116.13902,39.85672,967,3472
116.13901,39.85672,968,3472
116.13891,39.85668,969,3472
116.13895,39.85671,970,3472
116.13904,39.85696,971,3472
116.13907,39.85684,972,3472
116.13907,39.85682,973,3472
116.13904,39.8568,974,3472
116.13905,39.8568,975,3472
116.13907,39.8568,976,3472
116.13908,39.8568,977,3472
116.13908,39.8568,978,3472
116.13906,39.85678,979,3472
116.13877,39.85655,980,3472
116.13874,39.85641,981,3472
116.13874,39.85641,982,3472
116.13898,39.85665,983,3472
116.13899,39.85668,984,3472
116.139,39.85669,985,3472
116.13898,39.85654,986,3472
116.139,39.8566,987,3472
116.13899,39.85663,988,3472
116.13899,39.85665,989,3472
116.13896,39.85666,990,3472
116.13898,39.85667,991,3472
116.13898,39.85668,992,3472
116.13898,39.85669,993,3472
116.13899,39.85669,994,3472
116.13899,39.85669,995,3472
116.13899,39.8567,996,3472
116.13899,39.8567,997,3472
116.13899,39.8567,998,3472
116.139,39.8567,999,3472
116.139,39.8567,1000,3472
116.139,39.8567,1001,3472
116.139,39.8567,1002,3472
116.13901,39.8567,1003,3472
116.13902,39.85671,1004,3472
116.13902,39.85671,1005,3472
116.13903,39.85671,1006,3472
116.13902,39.85672,1007,3472
116.13864,39.85667,1008,3472
116.13873,39.85674,1009,3472
116.13905,39.85678,1010,3472
116.13905,39.85679,1011,3472
116.13905,39.85679,1012,3472
116.13903,39.85677,1013,3472
116.13905,39.85679,1014,3472
116.13905,39.85679,1015,3472
116.13903,39.85679,1016,3472
116.13902,39.85679,1017,3472
116.13901,39.85679,1018,3472
116.13901,39.85678,1019,3472
116.13901,39.85678,1020,3472
116.13901,39.85678,1021,3472
116.13902,39.85678,1022,3472
116.13902,39.85678,1023,3472
116.13903,39.85677,1024,3472
116.13903,39.85677,1025,3472
116.13904,39.85676,1026,3472
116.13904,39.85677,1027,3472
116.13904,39.85677,1028,3472
116.13904,39.85677,1029,3472
116.13905,39.85676,1030,3472
116.13904,39.85676,1031,3472
116.13904,39.85676,1032,3472
116.13904,39.85676,1033,3472
116.13905,39.85677,1034,3472
116.13904,39.85677,1035,3472
116.13903,39.85676,1036,3472
116.13925,39.85671,1037,3472
116.13871,39.85665,1038,3472
116.13881,39.85673,1039,3472
116.13879,39.85673,1040,3472
116.13879,39.85673,1041,3472
116.13879,39.85674,1042,3472
116.1388,39.85674,1043,3472
116.13928,39.85677,1044,3472
116.13925,39.85678,1045,3472
116.13927,39.85679,1046,3472
116.13927,39.85679,1047,3472
116.13899,39.85686,1048,3472
116.13899,39.85686,1049,3472
116.13904,39.85679,1050,3472
116.13905,39.85679,1051,3472
116.14863,39.86075,1052,3472
116.15631,39.86294,1053,3472
116.16443,39.86036,1054,3472
116.16443,39.86038,1055,3472
116.16444,39.86038,1056,3472
116.16445,39.86039,1057,3472
116.16446,39.86038,1058,3472
116.16445,39.86038,1059,3472
116.16437,39.8602,1060,3472
116.16444,39.86036,1061,3472
116.16445,39.86034,1062,3472
116.16445,39.86034,1063,3472
116.16447,39.86035,1064,3472
116.16447,39.86036,1065,3472
116.23807,39.85253,1066,3472
116.27221,39.8454,1067,3472
116.28785,39.85266,1068,3472
116.3086,39.86509,1069,3472
116.30563,39.88352,1070,3472
116.32036,39.88733,1071,3472
116.34562,39.86716,1072,3472
116.37727,39.85621,1073,3472
116.33125,39.84782,1074,3472
116.30778,39.86406,1075,3472
116.30559,39.87668,1076,3472
116.31164,39.88283,1077,3472
116.31517,39.88293,1078,3472
116.30561,39.87608,1079,3472
116.30847,39.88503,1080,3472
116.30847,39.88499,1081,3472
116.3083,39.88535,1082,3472
116.31846,39.8885,1083,3472
116.34263,39.86911,1084,3472
116.40958,39.87052,1085,3472
116.43132,39.86705,1086,3472
116.43876,39.8888,1087,3472
116.43277,39.89234,1088,3472
116.40521,39.8916,1089,3472
116.37908,39.88837,1090,3472
116.34965,39.88805,1091,3472
116.32889,39.88336,1092,3472
116.32889,39.88336,1093,3472
116.32051,39.88091,1094,3472
116.31629,39.86673,1095,3472
116.31515,39.84789,1096,3472
116.3099,39.8487,1097,3472
116.28976,39.84294,1098,3472
116.27737,39.85443,1099,3472
116.2749,39.86935,1100,3472
116.25873,39.89055,1101,3472
116.25893,39.90484,1102,3472
116.26714,39.89858,1103,3472
116.23942,39.85983,1104,3472
116.20963,39.84352,1105,3472
116.1846,39.85368,1106,3472
116.16465,39.86048,1107,3472
116.1589,39.88254,1108,3472
116.20213,39.88955,1109,3472
116.20178,39.89083,1110,3472
116.16201,39.88769,1111,3472
116.15663,39.86507,1112,3472
116.16448,39.86038,1113,3472
116.16443,39.86043,1114,3472
116.16444,39.8604,1115,3472
116.16444,39.86038,1116,3472
116.16437,39.86048,1117,3472
116.16442,39.86043,1118,3472
116.16443,39.86036,1119,3472
116.15972,39.86168,1120,3472
116.15736,39.88571,1121,3472
116.22436,39.89562,1122,3472
116.2439,39.89575,1123,3472
116.18045,39.89036,1124,3472
116.16103,39.87614,1125,3472
116.14078,39.85861,1126,3472
116.1408,39.85859,1127,3472
116.14083,39.85858,1128,3472
116.14085,39.85859,1129,3472
116.14086,39.85859,1130,3472
116.14087,39.8586,1131,3472
116.14087,39.8586,1132,3472
116.13779,39.85752,1133,3472
116.13878,39.85669,1134,3472
116.13905,39.85677,1135,3472
116.13905,39.85675,1136,3472
116.13901,39.85672,1137,3472
116.13897,39.8567,1138,3472
116.13897,39.8567,1139,3472
116.13897,39.8567,1140,3472
116.13899,39.85667,1141,3472
116.13899,39.85667,1142,3472
116.13901,39.85666,1143,3472
116.13901,39.85667,1144,3472
116.139,39.85668,1145,3472
116.13902,39.85666,1146,3472
116.13897,39.85662,1147,3472
116.13914,39.85659,1148,3472
116.13914,39.85659,1149,3472
116.13969,39.85648,1150,3472
116.13969,39.85648,1151,3472
116.13969,39.85653,1152,3472
116.13892,39.85668,1153,3472
116.13893,39.85666,1154,3472
116.13894,39.85664,1155,3472
116.13895,39.85662,1156,3472
116.13897,39.85661,1157,3472
116.13787,39.85744,1158,3472
116.13922,39.85675,1159,3472
116.13915,39.85677,1160,3472
116.13896,39.85669,1161,3472
116.13904,39.85676,1162,3472
116.13904,39.85678,1163,3472
116.13904,39.85679,1164,3472
116.13905,39.8568,1165,3472
116.13904,39.85679,1166,3472
116.13904,39.85679,1167,3472
116.13904,39.85679,1168,3472
116.13904,39.85679,1169,3472
116.13903,39.85678,1170,3472
116.13875,39.85659,1171,3472
116.1388,39.85662,1172,3472
116.13877,39.85662,1173,3472
116.13887,39.85663,1174,3472
116.13895,39.85667,1175,3472
116.1387,39.85651,1176,3472
116.1387,39.85651,1177,3472
116.13892,39.8566,1178,3472
116.13892,39.8566,1179,3472
116.1388,39.85655,1180,3472
116.13875,39.85655,1181,3472
116.13877,39.8566,1182,3472
116.13879,39.85661,1183,3472
116.13879,39.85662,1184,3472
116.13881,39.85663,1185,3472
116.13882,39.85663,1186,3472
116.13906,39.85661,1187,3472
116.13915,39.85653,1188,3472
116.13927,39.85658,1189,3472
116.13924,39.85661,1190,3472
116.13918,39.85664,1191,3472
116.13915,39.85666,1192,3472
116.13913,39.85686,1193,3472
116.13941,39.8571,1194,3472
116.1395,39.85711,1195,3472
116.13878,39.85656,1196,3472
116.13868,39.85648,1197,3472
116.13888,39.85664,1198,3472
116.13884,39.85658,1199,3472
116.13854,39.85627,1200,3472
116.13854,39.85627,1201,3472
116.13881,39.85646,1202,3472
116.13925,39.85676,1203,3472
116.1393,39.85677,1204,3472
116.13923,39.85675,1205,3472
116.13923,39.85675,1206,3472
116.13919,39.85675,1207,3472
116.13916,39.85674,1208,3472
116.13913,39.85672,1209,3472
116.13912,39.85672,1210,3472
116.13912,39.85671,1211,3472
116.13911,39.85671,1212,3472
116.13911,39.85671,1213,3472
116.13875,39.85655,1214,3472
116.13898,39.85668,1215,3472
116.13897,39.85669,1216,3472
116.13898,39.8567,1217,3472
116.13898,39.85671,1218,3472
116.13897,39.8567,1219,3472
116.13896,39.8567,1220,3472
116.13895,39.85669,1221,3472
116.13896,39.85668,1222,3472
116.13896,39.85668,1223,3472
116.13896,39.85667,1224,3472
116.13896,39.85666,1225,3472
116.13895,39.85666,1226,3472
116.13894,39.85665,1227,3472
116.13895,39.85666,1228,3472
116.13896,39.85667,1229,3472
116.13896,39.85667,1230,3472
116.13901,39.8567,1231,3472
116.13906,39.85676,1232,3472
116.13904,39.85674,1233,3472
116.13904,39.85673,1234,3472
116.13903,39.85673,1235,3472
116.13904,39.85674,1236,3472
116.13963,39.85669,1237,3472
116.13952,39.85666,1238,3472
116.13945,39.85668,1239,3472
116.13876,39.85679,1240,3472
116.13914,39.85674,1241,3472
116.13914,39.85669,1242,3472
116.13914,39.85668,1243,3472
116.13911,39.85669,1244,3472
116.13908,39.85668,1245,3472
116.13908,39.85668,1246,3472
116.13908,39.85667,1247,3472
116.13908,39.85668,1248,3472
116.13908,39.85668,1249,3472
116.13909,39.85668,1250,3472
116.13909,39.85669,1251,3472
116.1391,39.85669,1252,3472
116.1391,39.8567,1253,3472
116.13955,39.85701,1254,3472
116.13941,39.85692,1255,3472
116.13932,39.85688,1256,3472
116.13932,39.85688,1257,3472
116.13923,39.85687,1258,3472
116.13923,39.85687,1259,3472
116.13919,39.85685,1260,3472
116.13917,39.85683,1261,3472
116.13913,39.85681,1262,3472
116.1391,39.85679,1263,3472
116.13908,39.85678,1264,3472
116.13907,39.85678,1265,3472
116.1388,39.8567,1266,3472
116.13889,39.85668,1267,3472
116.1389,39.8567,1268,3472
116.13891,39.85673,1269,3472
116.13891,39.85674,1270,3472
116.13891,39.85675,1271,3472
116.1389,39.85675,1272,3472
116.1389,39.85675,1273,3472
116.13891,39.85675,1274,3472
116.13845,39.85663,1275,3472
116.13858,39.85665,1276,3472
116.13867,39.85667,1277,3472
116.13929,39.85676,1278,3472
116.13923,39.85676,1279,3472
116.13926,39.85676,1280,3472
116.13928,39.85677,1281,3472
116.13926,39.85677,1282,3472
116.13924,39.85675,1283,3472
116.139,39.85667,1284,3472
116.13905,39.85668,1285,3472
116.13905,39.85669,1286,3472
116.13904,39.85669,1287,3472
116.13903,39.85669,1288,3472
116.13903,39.85669,1289,3472
116.13902,39.8567,1290,3472
116.13903,39.85671,1291,3472
116.13903,39.8567,1292,3472
116.13902,39.85669,1293,3472
116.13901,39.85668,1294,3472
116.139,39.85668,1295,3472
116.13901,39.85668,1296,3472
116.13901,39.85668,1297,3472
116.13901,39.85668,1298,3472
116.13901,39.85668,1299,3472
116.13901,39.85669,1300,3472
116.13901,39.85669,1301,3472
116.13901,39.85669,1302,3472
116.14754,39.86045,1303,3472
116.16459,39.86033,1304,3472
116.16453,39.86036,1305,3472
116.16451,39.86037,1306,3472
116.16452,39.86037,1307,3472
116.16452,39.86038,1308,3472
116.16452,39.86038,1309,3472
116.16452,39.86038,1310,3472
116.16448,39.86034,1311,3472
116.1644,39.8603,1312,3472
116.16441,39.86031,1313,3472
116.16444,39.8603,1314,3472
116.16444,39.86031,1315,3472
116.16444,39.86031,1316,3472
116.16454,39.86026,1317,3472
116.16457,39.86028,1318,3472
116.16191,39.8611,1319,3472
116.13889,39.85659,1320,3472
116.13896,39.85668,1321,3472
116.13882,39.85659,1322,3472
116.1388,39.85657,1323,3472
116.13882,39.85656,1324,3472
116.13879,39.85653,1325,3472
116.1388,39.85653,1326,3472
116.13883,39.85653,1327,3472
116.13884,39.85654,1328,3472
116.14388,39.85925,1329,3472
116.14393,39.85923,1330,3472
116.14382,39.85928,1331,3472
116.13902,39.85669,1332,3472
116.13902,39.85667,1333,3472
116.13901,39.85666,1334,3472
116.139,39.85667,1335,3472
116.13899,39.85667,1336,3472
116.13897,39.85666,1337,3472
116.13896,39.85667,1338,3472
116.13826,39.85653,1339,3472
116.13855,39.85656,1340,3472
116.13857,39.85659,1341,3472
116.13859,39.8566,1342,3472
116.13867,39.85667,1343,3472
116.13868,39.85668,1344,3472
116.13872,39.8567,1345,3472
116.13872,39.8567,1346,3472
116.13833,39.8577,1347,3472
116.16342,39.87382,1348,3472
116.1783,39.89024,1349,3472
116.2466,39.89557,1350,3472
116.31117,39.89561,1351,3472
116.34958,39.9111,1352,3472
116.34958,39.9111,1353,3472
116.34958,39.9111,1354,3472
116.34958,39.9111,1355,3472
116.34958,39.9111,1356,3472
116.34958,39.9111,1357,3472
116.34958,39.9111,1358,3472
116.34958,39.9111,1359,3472
116.34958,39.9111,1360,3472
116.34958,39.9111,1361,3472
116.34958,39.9111,1362,3472
116.34958,39.9111,1363,3472
116.34958,39.9111,1364,3472
116.34958,39.9111,1365,3472
116.34958,39.9111,1366,3472
116.34958,39.9111,1367,3472
116.34958,39.9111,1368,3472
116.34958,39.9111,1369,3472
116.34958,39.9111,1370,3472
116.34958,39.9111,1371,3472
116.34958,39.9111,1372,3472
116.34958,39.9111,1373,3472
116.34958,39.9111,1374,3472
116.34958,39.9111,1375,3472
116.34958,39.9111,1376,3472
116.34958,39.9111,1377,3472
116.34958,39.9111,1378,3472
116.34958,39.9111,1379,3472
116.34958,39.9111,1380,3472
116.34958,39.9111,1381,3472
116.34958,39.9111,1382,3472
116.28441,39.89574,1383,3472
116.21549,39.8958,1384,3472
116.21549,39.8958,1385,3472
116.16423,39.88965,1386,3472
116.16016,39.87199,1387,3472
116.15837,39.86987,1388,3472
116.14295,39.85886,1389,3472
116.13877,39.857,1390,3472
116.13881,39.85688,1391,3472
116.13873,39.85702,1392,3472
116.13926,39.85623,1393,3472
116.13895,39.85676,1394,3472
116.13898,39.85685,1395,3472
116.13897,39.85687,1396,3472
116.13896,39.85686,1397,3472
116.13897,39.85685,1398,3472
116.13897,39.85685,1399,3472
116.13898,39.85685,1400,3472
116.13898,39.85684,1401,3472
116.13898,39.85682,1402,3472
116.13898,39.85681,1403,3472
116.13898,39.8568,1404,3472
116.13898,39.85679,1405,3472
116.13898,39.85679,1406,3472
116.13898,39.85678,1407,3472
116.13898,39.85678,1408,3472
116.13897,39.85678,1409,3472
116.13897,39.85677,1410,3472
116.13897,39.85677,1411,3472
116.13898,39.85677,1412,3472
116.13898,39.85678,1413,3472
116.13898,39.85678,1414,3472
116.13898,39.85678,1415,3472
116.13899,39.85678,1416,3472
116.13899,39.85678,1417,3472
116.139,39.85678,1418,3472
116.139,39.85678,1419,3472
116.139,39.85679,1420,3472
116.13899,39.85679,1421,3472
116.13899,39.85678,1422,3472
116.13899,39.85678,1423,3472
116.13899,39.85678,1424,3472
116.13899,39.85678,1425,3472
116.13899,39.85678,1426,3472
116.13899,39.85678,1427,3472
116.13899,39.85678,1428,3472
116.13898,39.85678,1429,3472
116.13898,39.85678,1430,3472
116.13898,39.85678,1431,3472
116.13898,39.85678,1432,3472
116.13898,39.85678,1433,3472
116.13897,39.85678,1434,3472
116.13897,39.85678,1435,3472
116.13897,39.85678,1436,3472
116.13897,39.85678,1437,3472
116.13897,39.85678,1438,3472
116.13897,39.85677,1439,3472
116.13897,39.85677,1440,3472
116.13898,39.85677,1441,3472
116.13898,39.85677,1442,3472
116.13898,39.85677,1443,3472
116.13898,39.85678,1444,3472
116.13898,39.85678,1445,3472
116.13898,39.85678,1446,3472
116.13898,39.85678,1447,3472
116.13898,39.85678,1448,3472
116.13899,39.85678,1449,3472
116.13899,39.85678,1450,3472
116.13899,39.85678,1451,3472
116.13899,39.85678,1452,3472
116.13939,39.85668,1453,3472
116.13874,39.85681,1454,3472
116.13899,39.85678,1455,3472
116.13902,39.85678,1456,3472
116.13902,39.85677,1457,3472
116.139,39.85677,1458,3472
116.139,39.85678,1459,3472
116.139,39.85678,1460,3472
116.13901,39.85677,1461,3472
116.13901,39.85677,1462,3472
116.139,39.85677,1463,3472
116.14094,39.8576,1464,3472
116.14409,39.85937,1465,3472
116.14409,39.85937,1466,3472
116.14408,39.85933,1467,3472
116.14408,39.85932,1468,3472
116.14407,39.85932,1469,3472
116.14406,39.85931,1470,3472
116.13902,39.85668,1471,3472
116.13894,39.85664,1472,3472
116.13902,39.85659,1473,3472
116.13913,39.85668,1474,3472
116.13912,39.85668,1475,3472
116.13911,39.85668,1476,3472
116.13911,39.85668,1477,3472
116.1391,39.85669,1478,3472
116.13968,39.85729,1479,3472
116.13959,39.85724,1480,3472
116.13959,39.85724,1481,3472
116.13838,39.85641,1482,3472
116.1388,39.85672,1483,3472
116.13876,39.85666,1484,3472
116.13874,39.85662,1485,3472
116.13875,39.8566,1486,3472
116.13871,39.8565,1487,3472
116.13876,39.85655,1488,3472
116.13881,39.85659,1489,3472
116.13885,39.85672,1490,3472
116.13891,39.85674,1491,3472
116.14656,39.8601,1492,3472
116.15892,39.88038,1493,3472
116.19664,39.8879,1494,3472
116.26186,39.89575,1495,3472
116.26186,39.89575,1496,3472
116.33049,39.89593,1497,3472
116.35064,39.91188,1498,3472
116.34952,39.91144,1499,3472
116.34952,39.91144,1500,3472
116.34952,39.91144,1501,3472
116.34952,39.91144,1502,3472
116.34952,39.91144,1503,3472
116.34952,39.91144,1504,3472
116.34952,39.91144,1505,3472
116.34952,39.91144,1506,3472
116.15881,39.87766,1507,3472
116.14761,39.86049,1508,3472
116.13892,39.85667,1509,3472
116.13891,39.8567,1510,3472
116.1389,39.8567,1511,3472
116.1389,39.85669,1512,3472
116.13892,39.85667,1513,3472
116.13882,39.85666,1514,3472
116.13882,39.85666,1515,3472
116.13909,39.85712,1516,3472
116.13907,39.85685,1517,3472
116.13907,39.85685,1518,3472
116.13907,39.85685,1519,3472
116.13908,39.85691,1520,3472
116.139,39.85689,1521,3472
116.13888,39.85681,1522,3472
116.13921,39.85673,1523,3472
116.13926,39.8567,1524,3472
116.13929,39.85678,1525,3472
116.13914,39.85686,1526,3472
116.13932,39.85662,1527,3472
116.13916,39.85666,1528,3472
116.13912,39.85669,1529,3472
116.13911,39.8567,1530,3472
116.13925,39.85676,1531,3472
116.13925,39.85675,1532,3472
116.13909,39.85667,1533,3472
116.13971,39.85734,1534,3472
116.13913,39.85682,1535,3472
116.13916,39.85681,1536,3472
116.13916,39.85677,1537,3472
116.13918,39.85678,1538,3472
116.13918,39.85678,1539,3472
116.13918,39.85678,1540,3472
116.13917,39.85678,1541,3472
116.13916,39.85678,1542,3472
116.13915,39.85677,1543,3472
116.13912,39.85676,1544,3472
116.13912,39.85676,1545,3472
116.1391,39.85676,1546,3472
116.1391,39.85676,1547,3472
116.1391,39.85676,1548,3472
116.13909,39.85676,1549,3472
116.13915,39.8568,1550,3472
116.13919,39.8568,1551,3472
116.13916,39.8568,1552,3472
116.13913,39.8568,1553,3472
116.13912,39.85679,1554,3472
116.13911,39.85679,1555,3472
116.13912,39.8568,1556,3472
116.13885,39.85688,1557,3472
116.13894,39.85674,1558,3472
116.13894,39.85672,1559,3472
116.13984,39.85667,1560,3472
116.13973,39.8567,1561,3472
116.13895,39.85674,1562,3472
116.13897,39.85674,1563,3472
116.139,39.85674,1564,3472
116.13902,39.85675,1565,3472
116.13902,39.85674,1566,3472
116.13903,39.85674,1567,3472
116.13903,39.85674,1568,3472
116.13903,39.85673,1569,3472
116.13885,39.85662,1570,3472
116.13893,39.85665,1571,3472
116.13892,39.85665,1572,3472
116.13877,39.85668,1573,3472
116.13887,39.85673,1574,3472
116.13887,39.85673,1575,3472
116.13931,39.85684,1576,3472
116.1392,39.8568,1577,3472
116.13915,39.85676,1578,3472
116.13914,39.85674,1579,3472
116.13911,39.85674,1580,3472
116.13911,39.85674,1581,3472
116.13911,39.85675,1582,3472
116.1391,39.85674,1583,3472
116.13909,39.85673,1584,3472
116.13908,39.85673,1585,3472
116.13908,39.85672,1586,3472
116.13908,39.85672,1587,3472
116.13908,39.85672,1588,3472
116.1378,39.85618,1589,3472
116.13784,39.85614,1590,3472
116.13828,39.85632,1591,3472
116.13838,39.85641,1592,3472
116.13848,39.85646,1593,3472
116.13857,39.8565,1594,3472
116.13863,39.85652,1595,3472
116.13935,39.85675,1596,3472
116.13924,39.85671,1597,3472
116.13882,39.8564,1598,3472
116.13896,39.85652,1599,3472
116.13932,39.85684,1600,3472
116.13914,39.8567,1601,3472
116.1391,39.85666,1602,3472
116.1391,39.85664,1603,3472
116.13911,39.85665,1604,3472
116.13911,39.85665,1605,3472
116.13912,39.85666,1606,3472
116.13909,39.85665,1607,3472
116.13906,39.85667,1608,3472
116.1389,39.85667,1609,3472
116.13886,39.85664,1610,3472
116.13885,39.85662,1611,3472
116.13869,39.85643,1612,3472
116.13887,39.8566,1613,3472
116.13895,39.8566,1614,3472
116.13907,39.85676,1615,3472
116.13904,39.85675,1616,3472
116.13921,39.85693,1617,3472
116.13926,39.85682,1618,3472
116.13915,39.85676,1619,3472
116.13914,39.85675,1620,3472
116.13914,39.85675,1621,3472
116.1393,39.85678,1622,3472
116.13928,39.85678,1623,3472
116.13902,39.85676,1624,3472
116.13905,39.85674,1625,3472
116.13856,39.85659,1626,3472
116.13874,39.85666,1627,3472
116.13917,39.85687,1628,3472
116.13871,39.85647,1629,3472
116.13871,39.85665,1630,3472
116.13867,39.85666,1631,3472
116.13872,39.85681,1632,3472
116.13872,39.85678,1633,3472
116.13873,39.85678,1634,3472
116.13875,39.85674,1635,3472
116.13875,39.85674,1636,3472
116.13879,39.85673,1637,3472
116.12371,39.85387,1638,3472
116.12022,39.82978,1639,3472
116.1063,39.80532,1640,3472
116.08909,39.8061,1641,3472
116.08907,39.8061,1642,3472
116.08517,39.80668,1643,3472
116.08516,39.80665,1644,3472
116.08515,39.80663,1645,3472
116.08515,39.80662,1646,3472
116.08516,39.80661,1647,3472
116.08518,39.8066,1648,3472
116.08519,39.80659,1649,3472
116.08519,39.80659,1650,3472
116.08519,39.80659,1651,3472
116.08519,39.80658,1652,3472
116.08519,39.80658,1653,3472
116.0852,39.80659,1654,3472
116.0852,39.8066,1655,3472
116.08521,39.8066,1656,3472
116.08521,39.8066,1657,3472
116.08522,39.8066,1658,3472
116.08522,39.80661,1659,3472
116.08522,39.80661,1660,3472
116.08522,39.80661,1661,3472
116.08522,39.80661,1662,3472
116.08522,39.80661,1663,3472
116.08521,39.80661,1664,3472
116.08521,39.80661,1665,3472
116.08521,39.80661,1666,3472
116.08521,39.8066,1667,3472
116.08521,39.8066,1668,3472
116.0852,39.8066,1669,3472
116.08521,39.8066,1670,3472
116.08521,39.8066,1671,3472
116.08521,39.8066,1672,3472
116.08521,39.8066,1673,3472
116.08521,39.8066,1674,3472
116.08521,39.80659,1675,3472
116.08522,39.80651,1676,3472
116.08522,39.80658,1677,3472
116.08521,39.8066,1678,3472
116.08522,39.80662,1679,3472
116.0852,39.80666,1680,3472
116.0852,39.80665,1681,3472
116.08521,39.80666,1682,3472
116.08521,39.80666,1683,3472
116.0852,39.80667,1684,3472
116.08521,39.80667,1685,3472
116.08521,39.80666,1686,3472
116.08521,39.80666,1687,3472
116.08521,39.80665,1688,3472
116.08518,39.80652,1689,3472
116.08517,39.80655,1690,3472
116.08517,39.80656,1691,3472
116.08526,39.80645,1692,3472
116.08525,39.8066,1693,3472
116.0892,39.8062,1694,3472
116.0892,39.80619,1695,3472
116.0892,39.80619,1696,3472
116.08917,39.80617,1697,3472
116.08916,39.80617,1698,3472
116.08914,39.80617,1699,3472
116.08914,39.80616,1700,3472
116.08913,39.80616,1701,3472
116.08895,39.80602,1702,3472
