x,y,k,tid
116.38615,39.88219,0,3487
116.3927,39.87968,1,3487
116.39337,39.85875,2,3487
116.40161,39.85553,3,3487
116.40586,39.89921,4,3487
116.40929,39.89924,5,3487
116.40934,39.89924,6,3487
116.40942,39.89927,7,3487
116.40942,39.89927,8,3487
116.40942,39.89927,9,3487
116.40942,39.89927,10,3487
116.40942,39.89937,11,3487
116.42116,39.89206,12,3487
116.42722,39.89613,13,3487
116.43424,39.88356,14,3487
116.43291,39.86738,15,3487
116.42422,39.86691,16,3487
116.43434,39.88103,17,3487
116.43022,39.88762,18,3487
116.43138,39.87641,19,3487
116.42765,39.8646,20,3487
116.41498,39.87465,21,3487
116.41226,39.89537,22,3487
116.38982,39.90635,23,3487
116.35696,39.90628,24,3487
116.34737,39.89706,25,3487
116.31501,39.88654,26,3487
116.31502,39.88348,27,3487
116.31574,39.88295,28,3487
116.31469,39.89197,29,3487
116.30446,39.88378,30,3487
116.32791,39.86662,31,3487
116.32791,39.86662,32,3487
116.34833,39.86432,33,3487
116.3856,39.86995,34,3487
116.40527,39.87055,35,3487
116.41474,39.88055,36,3487
116.41624,39.89181,37,3487
116.42105,39.8988,38,3487
116.41936,39.90358,39,3487
116.42125,39.89782,40,3487
116.41387,39.89172,41,3487
116.41345,39.8852,42,3487
116.41461,39.8771,43,3487
116.41532,39.86488,44,3487
116.42646,39.86461,45,3487
116.4281,39.8606,46,3487
116.42806,39.8607,47,3487
116.42694,39.86007,48,3487
116.42553,39.8574,49,3487
116.4102,39.85586,50,3487
116.39966,39.85586,51,3487
116.31124,39.85635,52,3487
116.31354,39.89552,53,3487
116.33272,39.89599,54,3487
116.33272,39.89599,55,3487
116.33679,39.89615,56,3487
116.34281,39.87665,57,3487
116.34683,39.86664,58,3487
116.34763,39.87435,59,3487
116.34308,39.87633,60,3487
116.34058,39.8864,61,3487
116.34282,39.87674,62,3487
116.35101,39.8667,63,3487
116.35858,39.85891,64,3487
116.37524,39.85565,65,3487
116.39545,39.85564,66,3487
116.41536,39.85604,67,3487
116.38524,39.85588,68,3487
116.38087,39.85085,69,3487
116.3725,39.83959,70,3487
116.37304,39.83069,71,3487
116.42806,39.83076,72,3487
116.45292,39.83265,73,3487
116.4527,39.83462,74,3487
116.48385,39.88207,75,3487
116.48385,39.88207,76,3487
116.48517,39.90781,77,3487
116.4835,39.8925,78,3487
116.48358,39.87709,79,3487
116.4799,39.83365,80,3487
116.5055,39.8108,81,3487
116.50875,39.81556,82,3487
116.52737,39.82982,83,3487
116.50781,39.8223,84,3487
116.50393,39.80505,85,3487
116.50391,39.80056,86,3487
116.49833,39.80365,87,3487
116.47315,39.82604,88,3487
116.43015,39.83093,89,3487
116.35716,39.82983,90,3487
116.33554,39.89634,91,3487
116.31505,39.90234,92,3487
116.30399,39.89184,93,3487
116.33944,39.83126,94,3487
116.39356,39.83056,95,3487
116.40944,39.81964,96,3487
116.42049,39.80398,97,3487
116.42049,39.80398,98,3487
116.41906,39.80381,99,3487
116.41919,39.80388,100,3487
116.41919,39.80388,101,3487
116.41919,39.80388,102,3487
116.41919,39.80388,103,3487
116.41919,39.80388,104,3487
116.41919,39.80388,105,3487
116.41919,39.80388,106,3487
116.41919,39.80388,107,3487
116.41919,39.80388,108,3487
116.41919,39.80388,109,3487
116.41919,39.80388,110,3487
116.41919,39.80388,111,3487
116.41919,39.80388,112,3487
116.41919,39.80388,113,3487
116.41919,39.80388,114,3487
116.41919,39.80388,115,3487
116.41919,39.80388,116,3487
116.41919,39.80388,117,3487
116.41919,39.80388,118,3487
116.41919,39.80388,119,3487
116.41919,39.80388,120,3487
116.41919,39.80388,121,3487
116.41919,39.80388,122,3487
116.41911,39.80382,123,3487
116.42246,39.80248,124,3487
116.44028,39.81495,125,3487
116.44736,39.82089,126,3487
116.44045,39.84419,127,3487
116.43252,39.85633,128,3487
116.41564,39.86167,129,3487
116.4283,39.86935,130,3487
116.4313,39.88285,131,3487
116.44638,39.90265,132,3487
116.42943,39.90993,133,3487
116.4275,39.94625,134,3487
116.41874,39.9579,135,3487
116.41817,39.97883,136,3487
116.48344,39.92019,137,3487
116.4824,39.86746,138,3487
116.48382,39.9158,139,3487
116.49156,39.95276,140,3487
116.50016,39.95993,141,3487
116.50183,39.9542,142,3487
116.48353,39.94487,143,3487
116.48347,39.91781,144,3487
116.48372,39.90292,145,3487
116.48483,39.8714,146,3487
116.47931,39.95919,147,3487
116.47352,39.97521,148,3487
116.47048,39.96507,149,3487
116.48347,39.94831,150,3487
116.47214,39.93041,151,3487
116.4803,39.92164,152,3487
116.51138,39.92246,153,3487
116.49847,39.91468,154,3487
116.47439,39.9072,155,3487
116.47439,39.9072,156,3487
116.45509,39.90768,157,3487
116.45074,39.88319,158,3487
116.42807,39.87983,159,3487
116.42465,39.86713,160,3487
116.43863,39.8738,161,3487
116.44945,39.89229,162,3487
116.44807,39.89592,163,3487
116.44817,39.89593,164,3487
116.44817,39.89593,165,3487
116.45609,39.90523,166,3487
116.46233,39.90714,167,3487
116.45506,39.90382,168,3487
116.45506,39.88372,169,3487
116.44667,39.86081,170,3487
116.44649,39.86072,171,3487
116.44648,39.86061,172,3487
116.44648,39.86061,173,3487
116.44648,39.86061,174,3487
116.44648,39.86061,175,3487
116.44648,39.86061,176,3487
116.44595,39.85975,177,3487
116.42761,39.86026,178,3487
116.40963,39.85586,179,3487
116.40806,39.85399,180,3487
116.40795,39.85336,181,3487
116.40659,39.85587,182,3487
116.37185,39.85605,183,3487
116.37188,39.8559,184,3487
116.37188,39.8559,185,3487
116.37188,39.8559,186,3487
116.35862,39.85378,187,3487
116.36086,39.854,188,3487
116.37061,39.85479,189,3487
116.388,39.8557,190,3487
116.4169,39.8643,191,3487
116.43001,39.86468,192,3487
116.43156,39.86466,193,3487
116.43579,39.86905,194,3487
116.47758,39.88302,195,3487
116.49637,39.87522,196,3487
116.50178,39.87375,197,3487
116.48396,39.8748,198,3487
116.47819,39.90698,199,3487
116.45591,39.91168,200,3487
116.45546,39.93217,201,3487
116.44439,39.93689,202,3487
116.43872,39.94989,203,3487
116.43515,39.94765,204,3487
116.43288,39.9483,205,3487
116.44217,39.94761,206,3487
116.44426,39.93342,207,3487
116.45099,39.93091,208,3487
116.45455,39.93226,209,3487
116.45584,39.94518,210,3487
116.46791,39.94426,211,3487
116.47546,39.93235,212,3487
116.48351,39.91156,213,3487
116.48371,39.89526,214,3487
116.48323,39.8752,215,3487
116.479,39.84891,216,3487
116.39449,39.81539,217,3487
116.39571,39.82193,218,3487
116.41473,39.83066,219,3487
116.44038,39.8306,220,3487
116.47013,39.83047,221,3487
116.49014,39.80842,222,3487
116.48808,39.79747,223,3487
116.48832,39.78901,224,3487
116.50112,39.79476,225,3487
116.49951,39.80221,226,3487
116.48492,39.80061,227,3487
116.46545,39.79715,228,3487
116.4778,39.79247,229,3487
116.49838,39.79791,230,3487
116.50386,39.80053,231,3487
116.50386,39.80053,232,3487
116.50386,39.80053,233,3487
116.50386,39.80053,234,3487
116.50386,39.80053,235,3487
116.50386,39.80053,236,3487
116.50386,39.80053,237,3487
116.50384,39.80053,238,3487
116.5038,39.80054,239,3487
116.5038,39.80054,240,3487
116.48785,39.79733,241,3487
116.46156,39.79723,242,3487
116.44527,39.80516,243,3487
116.41833,39.80225,244,3487
116.41205,39.7995,245,3487
116.41546,39.80022,246,3487
116.42394,39.80237,247,3487
116.41899,39.80377,248,3487
116.41908,39.80386,249,3487
116.41908,39.80386,250,3487
116.41908,39.80386,251,3487
116.41908,39.80386,252,3487
116.41908,39.80386,253,3487
116.41908,39.80386,254,3487
116.41908,39.80386,255,3487
116.41908,39.80386,256,3487
116.41908,39.80386,257,3487
116.41908,39.80386,258,3487
116.41908,39.80386,259,3487
116.41908,39.80386,260,3487
116.41908,39.80386,261,3487
116.41908,39.80386,262,3487
116.41908,39.80386,263,3487
116.41908,39.80386,264,3487
116.41908,39.80386,265,3487
116.41908,39.80386,266,3487
116.41908,39.80386,267,3487
116.41908,39.80386,268,3487
116.41908,39.80386,269,3487
116.41908,39.80386,270,3487
116.41908,39.80386,271,3487
116.41899,39.80379,272,3487
116.42245,39.80337,273,3487
116.43786,39.80422,274,3487
116.44642,39.81189,275,3487
116.42233,39.85588,276,3487
116.45518,39.88549,277,3487
116.45558,39.92745,278,3487
116.44478,39.93996,279,3487
116.45524,39.9471,280,3487
116.45536,39.9325,281,3487
116.45862,39.92731,282,3487
116.45967,39.92775,283,3487
116.4458,39.95802,284,3487
116.42083,39.9683,285,3487
116.39127,39.96733,286,3487
116.3891,39.95123,287,3487
116.3891,39.95123,288,3487
116.37598,39.94756,289,3487
116.36153,39.94605,290,3487
116.34935,39.93693,291,3487
116.35042,39.91088,292,3487
116.35219,39.90581,293,3487
116.36365,39.89831,294,3487
116.36809,39.88857,295,3487
116.37094,39.87561,296,3487
116.38126,39.8792,297,3487
116.39184,39.87955,298,3487
116.39254,39.88179,299,3487
116.4201,39.86442,300,3487
116.42814,39.86092,301,3487
116.43094,39.86103,302,3487
116.42571,39.8597,303,3487
116.41284,39.86364,304,3487
116.41221,39.85556,305,3487
116.41493,39.87714,306,3487
116.4126,39.89798,307,3487
116.41212,39.9043,308,3487
116.42087,39.90381,309,3487
116.43265,39.89674,310,3487
116.42255,39.89223,311,3487
116.42489,39.8856,312,3487
116.43341,39.8714,313,3487
116.42816,39.86062,314,3487
116.43155,39.86103,315,3487
116.42788,39.85753,316,3487
116.45152,39.86356,317,3487
116.44465,39.86985,318,3487
116.43809,39.89184,319,3487
116.42757,39.89235,320,3487
116.41836,39.8922,321,3487
116.39035,39.88951,322,3487
116.38415,39.88844,323,3487
116.3753,39.88809,324,3487
116.36548,39.88184,325,3487
116.36793,39.8819,326,3487
116.36839,39.88737,327,3487
116.36916,39.89634,328,3487
116.3784,39.88966,329,3487
116.38125,39.87923,330,3487
116.38063,39.85827,331,3487
116.34284,39.84954,332,3487
116.34204,39.85921,333,3487
116.34195,39.86001,334,3487
116.36563,39.86849,335,3487
116.39323,39.86426,336,3487
116.37032,39.84696,337,3487
116.37017,39.84818,338,3487
116.38052,39.8556,339,3487
116.38209,39.87927,340,3487
116.38738,39.88483,341,3487
116.41101,39.88667,342,3487
116.46329,39.8921,343,3487
116.47154,39.89647,344,3487
116.47163,39.89766,345,3487
116.47165,39.89835,346,3487
116.47172,39.90045,347,3487
116.47177,39.90132,348,3487
116.48121,39.90493,349,3487
116.48121,39.90493,350,3487
116.48348,39.95232,351,3487
116.47929,39.97412,352,3487
116.47885,39.95922,353,3487
116.48345,39.93304,354,3487
116.48345,39.91466,355,3487
116.49578,39.90655,356,3487
116.51987,39.91554,357,3487
116.54347,39.91481,358,3487
116.55269,39.91736,359,3487
116.54762,39.9149,360,3487
116.53982,39.91491,361,3487
116.5244,39.91583,362,3487
116.51493,39.92169,363,3487
116.48927,39.92176,364,3487
116.46998,39.92189,365,3487
116.47152,39.92183,366,3487
116.46239,39.91554,367,3487
116.46535,39.91469,368,3487
116.47183,39.91008,369,3487
116.46548,39.90376,370,3487
116.43299,39.86808,371,3487
116.42796,39.86457,372,3487
116.42767,39.86456,373,3487
116.42837,39.86035,374,3487
116.42837,39.86035,375,3487
116.43091,39.86102,376,3487
116.43249,39.85829,377,3487
116.43756,39.85705,378,3487
116.46598,39.86568,379,3487
116.45523,39.88037,380,3487
116.44199,39.88328,381,3487
116.37395,39.86937,382,3487
116.3427,39.88744,383,3487
116.32278,39.89589,384,3487
116.31611,39.89621,385,3487
116.32561,39.89553,386,3487
116.33556,39.89607,387,3487
116.34221,39.8862,388,3487
116.34908,39.86663,389,3487
116.3585,39.85915,390,3487
116.35815,39.86631,391,3487
116.37149,39.87736,392,3487
116.3707,39.87732,393,3487
116.38149,39.86991,394,3487
116.3934,39.85799,395,3487
116.39459,39.83563,396,3487
116.43049,39.83079,397,3487
116.45287,39.83302,398,3487
116.50003,39.81771,399,3487
116.50386,39.80054,400,3487
116.50386,39.80054,401,3487
116.50386,39.80054,402,3487
116.50386,39.80054,403,3487
116.50386,39.80054,404,3487
116.50386,39.80054,405,3487
116.50194,39.79924,406,3487
116.4937,39.79305,407,3487
116.4568,39.80311,408,3487
116.4309,39.80329,409,3487
116.41928,39.80374,410,3487
116.43415,39.80339,411,3487
116.44235,39.81141,412,3487
116.44234,39.82773,413,3487
116.43856,39.84433,414,3487
116.43252,39.85682,415,3487
116.43844,39.87331,416,3487
116.41656,39.89918,417,3487
116.42192,39.90365,418,3487
116.41351,39.89969,419,3487
116.42347,39.89222,420,3487
116.41901,39.88262,421,3487
116.44236,39.88324,422,3487
116.45537,39.89237,423,3487
116.46059,39.90683,424,3487
116.47139,39.89256,425,3487
116.49815,39.89183,426,3487
116.5159,39.88342,427,3487
116.52455,39.87144,428,3487
116.50106,39.87273,429,3487
116.46841,39.85749,430,3487
116.45352,39.86586,431,3487
116.43014,39.902,432,3487
116.4281,39.93134,433,3487
116.40607,39.93203,434,3487
116.38509,39.93204,435,3487
116.38509,39.93204,436,3487
116.3744,39.92646,437,3487
116.37104,39.92281,438,3487
116.37647,39.90662,439,3487
116.37825,39.89415,440,3487
116.38017,39.88191,441,3487
116.38697,39.8805,442,3487
116.38697,39.8805,443,3487
116.39255,39.88358,444,3487
116.41324,39.88612,445,3487
116.42116,39.89839,446,3487
116.42844,39.92192,447,3487
116.43376,39.93471,448,3487
116.41431,39.93239,449,3487
116.41159,39.91657,450,3487
116.41047,39.90479,451,3487
116.41178,39.89953,452,3487
116.40656,39.89167,453,3487
116.37902,39.88812,454,3487
116.3812,39.87991,455,3487
116.38062,39.86117,456,3487
116.39368,39.85308,457,3487
116.40648,39.87075,458,3487
116.43993,39.88167,459,3487
116.4438,39.89206,460,3487
116.4438,39.89206,461,3487
116.45492,39.88612,462,3487
116.45478,39.87609,463,3487
116.44664,39.86078,464,3487
116.43987,39.85807,465,3487
116.43888,39.85624,466,3487
116.43252,39.85644,467,3487
116.43043,39.8578,468,3487
116.42802,39.85759,469,3487
116.42724,39.85756,470,3487
116.42159,39.85878,471,3487
116.41908,39.86984,472,3487
116.43862,39.88758,473,3487
116.41575,39.9014,474,3487
116.43259,39.89656,475,3487
116.42443,39.888,476,3487
116.41465,39.8795,477,3487
116.38427,39.87003,478,3487
116.34828,39.8666,479,3487
116.36305,39.86681,480,3487
116.38145,39.86974,481,3487
116.38272,39.8638,482,3487
116.38082,39.85566,483,3487
116.40685,39.85549,484,3487
116.41856,39.86102,485,3487
116.41856,39.86102,486,3487
116.41856,39.86102,487,3487
116.41856,39.86102,488,3487
116.41856,39.86102,489,3487
116.41856,39.86102,490,3487
116.41856,39.86102,491,3487
116.4243,39.86498,492,3487
116.43513,39.86912,493,3487
116.45406,39.87013,494,3487
116.48648,39.86983,495,3487
116.50787,39.86282,496,3487
116.50788,39.85991,497,3487
116.49954,39.86616,498,3487
116.49107,39.87429,499,3487
116.47797,39.85877,500,3487
116.45361,39.86395,501,3487
116.42019,39.85681,502,3487
116.42122,39.86428,503,3487
116.42476,39.86159,504,3487
116.42582,39.85807,505,3487
116.42227,39.8481,506,3487
116.42694,39.8523,507,3487
116.41733,39.85661,508,3487
116.41466,39.8802,509,3487
116.37011,39.90628,510,3487
116.37005,39.90725,511,3487
116.37148,39.91191,512,3487
116.37461,39.91311,513,3487
116.37343,39.92887,514,3487
116.37307,39.94191,515,3487
116.41152,39.94788,516,3487
116.41905,39.94955,517,3487
116.42549,39.95809,518,3487
116.44064,39.96118,519,3487
116.4553,39.94458,520,3487
116.4553,39.94458,521,3487
116.45533,39.93258,522,3487
116.47226,39.9316,523,3487
116.47198,39.92134,524,3487
116.47197,39.91489,525,3487
116.48299,39.91422,526,3487
116.49845,39.91455,527,3487
116.48512,39.91431,528,3487
116.47822,39.8994,529,3487
116.47182,39.89918,530,3487
116.46649,39.89203,531,3487
116.45423,39.89224,532,3487
116.41626,39.89915,533,3487
116.42968,39.89958,534,3487
116.43406,39.88718,535,3487
116.42974,39.87793,536,3487
116.433,39.86741,537,3487
116.43235,39.86048,538,3487
116.45262,39.85792,539,3487
116.50174,39.81659,540,3487
116.50373,39.8005,541,3487
116.50373,39.8005,542,3487
116.50373,39.8005,543,3487
116.50371,39.80052,544,3487
116.50371,39.80052,545,3487
116.50371,39.80052,546,3487
116.50371,39.80052,547,3487
116.50371,39.80052,548,3487
116.50371,39.80052,549,3487
116.50371,39.80052,550,3487
116.50371,39.80052,551,3487
116.50384,39.80059,552,3487
116.50734,39.80643,553,3487
116.4966,39.80046,554,3487
116.48682,39.78345,555,3487
116.43917,39.75966,556,3487
116.44173,39.76474,557,3487
116.33505,39.90989,558,3487
116.44215,39.79627,559,3487
116.42243,39.80311,560,3487
116.4194,39.80383,561,3487
116.41943,39.80377,562,3487
116.41943,39.80377,563,3487
116.43944,39.81115,564,3487
116.41238,39.82601,565,3487
116.41238,39.82601,566,3487
116.39461,39.84353,567,3487
116.39868,39.85547,568,3487
116.51465,39.79759,569,3487
116.51465,39.79759,570,3487
116.51407,39.79793,571,3487
116.4977,39.8021,572,3487
116.4818,39.79443,573,3487
116.47987,39.79343,574,3487
116.48921,39.79791,575,3487
116.48129,39.79764,576,3487
116.47405,39.81,577,3487
116.46667,39.83681,578,3487
116.47099,39.85457,579,3487
116.46397,39.87017,580,3487
116.45083,39.89238,581,3487
116.41502,39.89921,582,3487
116.42997,39.90193,583,3487
116.43395,39.88942,584,3487
116.41531,39.88257,585,3487
116.41387,39.85604,586,3487
116.40849,39.8455,587,3487
116.41738,39.8497,588,3487
116.40929,39.85597,589,3487
116.38801,39.85678,590,3487
116.38138,39.87434,591,3487
116.4498,39.88313,592,3487
116.4617,39.87952,593,3487
116.46161,39.87604,594,3487
116.47155,39.86989,595,3487
116.47652,39.85856,596,3487
116.45208,39.86464,597,3487
116.39566,39.85575,598,3487
116.32937,39.84767,599,3487
116.30438,39.88958,600,3487
116.31738,39.89561,601,3487
116.34216,39.89253,602,3487
116.34228,39.87378,603,3487
116.34204,39.85932,604,3487
116.34249,39.86427,605,3487
116.34249,39.86427,606,3487
116.38988,39.86967,607,3487
116.4041,39.85546,608,3487
116.42581,39.85701,609,3487
116.42813,39.86057,610,3487
116.42984,39.85771,611,3487
116.42798,39.86944,612,3487
116.42405,39.89934,613,3487
116.42268,39.90363,614,3487
116.42938,39.89558,615,3487
116.42305,39.88956,616,3487
116.4238,39.87969,617,3487
116.43347,39.87292,618,3487
116.42968,39.86719,619,3487
116.43788,39.89535,620,3487
116.42755,39.93913,621,3487
116.40166,39.95822,622,3487
116.39568,39.98865,623,3487
116.40126,39.98317,624,3487
116.40167,40.00137,625,3487
116.40114,39.98096,626,3487
116.40174,39.95815,627,3487
116.40241,39.9365,628,3487
116.40467,39.92091,629,3487
116.40467,39.92091,630,3487
116.40871,39.92289,631,3487
116.42736,39.923,632,3487
116.43256,39.93959,633,3487
116.45567,39.94452,634,3487
116.46718,39.96786,635,3487
116.46272,39.97924,636,3487
116.45257,39.97732,637,3487
116.43732,39.96693,638,3487
116.45534,39.95002,639,3487
116.45534,39.93258,640,3487
116.43251,39.96687,641,3487
116.36327,39.98633,642,3487
116.35868,39.99381,643,3487
116.3631,39.98766,644,3487
116.36362,39.97521,645,3487
116.39401,39.96741,646,3487
116.45451,39.95204,647,3487
116.46378,39.94139,648,3487
116.47326,39.93237,649,3487
116.47326,39.93237,650,3487
116.47569,39.92164,651,3487
116.48348,39.9209,652,3487
116.48358,39.89281,653,3487
116.48327,39.87694,654,3487
116.46153,39.87007,655,3487
116.42702,39.85733,656,3487
116.38099,39.85589,657,3487
116.37623,39.84876,658,3487
116.37349,39.84906,659,3487
116.37294,39.83049,660,3487
116.43434,39.83079,661,3487
116.4625,39.81136,662,3487
116.48289,39.80031,663,3487
116.47794,39.7926,664,3487
116.48657,39.7946,665,3487
116.49342,39.79997,666,3487
116.49344,39.79999,667,3487
116.49344,39.79999,668,3487
116.49344,39.79999,669,3487
116.49344,39.79999,670,3487
116.49344,39.79999,671,3487
116.48914,39.81474,672,3487
116.46247,39.85025,673,3487
116.38091,39.86989,674,3487
116.38091,39.86989,675,3487
116.36437,39.88198,676,3487
116.36119,39.88386,677,3487
116.36752,39.87592,678,3487
116.41593,39.85656,679,3487
116.42217,39.84502,680,3487
116.40904,39.84091,681,3487
116.40819,39.85199,682,3487
116.38824,39.85583,683,3487
116.38053,39.84649,684,3487
116.39503,39.82783,685,3487
116.41599,39.81895,686,3487
116.43697,39.80261,687,3487
116.43698,39.80263,688,3487
116.41917,39.80369,689,3487
116.41912,39.8035,690,3487
116.41916,39.80345,691,3487
116.42242,39.80278,692,3487
116.42242,39.80278,693,3487
116.43743,39.81098,694,3487
116.44839,39.81713,695,3487
116.45257,39.83164,696,3487
116.46937,39.82379,697,3487
116.47766,39.84496,698,3487
116.46875,39.85679,699,3487
116.45499,39.87846,700,3487
116.44588,39.89231,701,3487
116.41376,39.8995,702,3487
116.42996,39.90104,703,3487
116.42082,39.9067,704,3487
116.41479,39.89885,705,3487
116.42165,39.89259,706,3487
116.4269,39.88286,707,3487
116.41464,39.87848,708,3487
116.37053,39.86924,709,3487
116.365,39.84945,710,3487
116.37659,39.8555,711,3487
116.38169,39.86453,712,3487
116.3774,39.88195,713,3487
116.39163,39.87547,714,3487
116.38727,39.8822,715,3487
116.37753,39.8881,716,3487
116.35464,39.88809,717,3487
116.35464,39.88809,718,3487
116.34179,39.88687,719,3487
116.34748,39.86661,720,3487
116.38598,39.87003,721,3487
116.4159,39.85644,722,3487
116.42215,39.84062,723,3487
116.43053,39.83355,724,3487
116.44884,39.82419,725,3487
116.43787,39.80441,726,3487
116.43373,39.80365,727,3487
116.41926,39.80357,728,3487
117.09475,40.15255,729,3487
117.09475,40.15255,730,3487
116.41942,39.80341,731,3487
116.42249,39.80234,732,3487
116.42249,39.80234,733,3487
116.4397,39.81113,734,3487
116.44413,39.81598,735,3487
116.45225,39.8316,736,3487
116.43295,39.84528,737,3487
116.43257,39.8572,738,3487
116.43889,39.88525,739,3487
116.42794,39.93039,740,3487
116.43735,39.93521,741,3487
116.43034,39.85741,742,3487
116.43334,39.87061,743,3487
116.4311,39.88007,744,3487
116.43241,39.89838,745,3487
116.42755,39.94589,746,3487
116.42755,39.94589,747,3487
116.3646,39.94717,748,3487
116.3563,39.94971,749,3487
116.35781,39.96622,750,3487
116.36548,39.97538,751,3487
116.3395,39.96637,752,3487
116.31123,39.97496,753,3487
116.30197,39.96082,754,3487
116.30394,39.93631,755,3487
116.28231,39.92296,756,3487
116.25466,39.92325,757,3487
116.23342,39.92464,758,3487
116.21196,39.92353,759,3487
116.1967,39.92349,760,3487
116.19462,39.92354,761,3487
116.19257,39.92351,762,3487
116.19217,39.91947,763,3487
116.19277,39.91114,764,3487
116.20808,39.90617,765,3487
116.23027,39.9062,766,3487
116.25816,39.90624,767,3487
116.28073,39.90628,768,3487
116.31737,39.90615,769,3487
116.33504,39.9126,770,3487
116.35003,39.91242,771,3487
116.36005,39.92065,772,3487
116.3716,39.91134,773,3487
116.37595,39.90885,774,3487
116.378,39.89912,775,3487
116.38849,39.89344,776,3487
116.38142,39.888,777,3487
116.37539,39.88165,778,3487
116.36799,39.88191,779,3487
116.35282,39.88095,780,3487
116.35834,39.86165,781,3487
116.38072,39.85377,782,3487
116.38139,39.84153,783,3487
116.39608,39.83019,784,3487
116.4435,39.8262,785,3487
116.46757,39.80584,786,3487
116.48468,39.80024,787,3487
116.49119,39.7989,788,3487
116.51258,39.79969,789,3487
116.51432,39.79673,790,3487
116.49127,39.79897,791,3487
116.48462,39.81516,792,3487
116.46662,39.83671,793,3487
116.44092,39.8364,794,3487
116.44654,39.85981,795,3487
116.44664,39.86067,796,3487
116.44365,39.85859,797,3487
116.41533,39.8654,798,3487
116.41233,39.89581,799,3487
116.42489,39.88578,800,3487
116.43944,39.88312,801,3487
116.42852,39.91717,802,3487
116.43242,39.93964,803,3487
116.44424,39.93251,804,3487
116.45511,39.9201,805,3487
116.45521,39.9075,806,3487
116.48389,39.91684,807,3487
116.49563,39.92188,808,3487
116.4844,39.92203,809,3487
116.44619,39.90254,810,3487
116.42204,39.8922,811,3487
116.434,39.88749,812,3487
116.41676,39.88259,813,3487
116.41548,39.85659,814,3487
116.40179,39.8559,815,3487
116.394,39.86357,816,3487
