x,y,k,tid
116.48786,39.87494,0,3513
116.48408,39.89159,1,3513
116.48207,39.89199,2,3513
116.45677,39.89247,3,3513
116.45547,39.89558,4,3513
116.45576,39.92844,5,3513
116.45573,39.93194,6,3513
116.45573,39.93194,7,3513
116.45204,39.9326,8,3513
116.44965,39.93246,9,3513
116.45172,39.92717,10,3513
116.45516,39.92739,11,3513
116.45536,39.91004,12,3513
116.45543,39.90771,13,3513
116.47398,39.90675,14,3513
116.48241,39.9055,15,3513
116.49678,39.89957,16,3513
116.50121,39.8996,17,3513
116.49653,39.89932,18,3513
116.49655,39.89504,19,3513
116.4931,39.89238,20,3513
116.49025,39.89204,21,3513
116.48246,39.88923,22,3513
116.483,39.89021,23,3513
116.47371,39.8702,24,3513
116.46959,39.8702,25,3513
116.47587,39.86978,26,3513
116.49913,39.86254,27,3513
116.50142,39.86281,28,3513
116.50431,39.8667,29,3513
116.50422,39.86915,30,3513
116.48386,39.87533,31,3513
116.484,39.88161,32,3513
116.46523,39.8921,33,3513
116.45432,39.89231,34,3513
116.44994,39.89229,35,3513
116.44936,39.89197,36,3513
116.45042,39.89204,37,3513
116.45621,39.90551,38,3513
116.45612,39.90619,39,3513
116.43976,39.90645,40,3513
116.43085,39.9059,41,3513
116.43054,39.89169,42,3513
116.42247,39.89191,43,3513
116.41262,39.89188,44,3513
116.40616,39.89157,45,3513
116.35713,39.88805,46,3513
116.35283,39.88813,47,3513
116.34308,39.87405,48,3513
116.34222,39.86629,49,3513
116.32696,39.84764,50,3513
116.32681,39.84571,51,3513
116.32681,39.84571,52,3513
116.31188,39.84691,53,3513
116.30741,39.84657,54,3513
116.29315,39.84171,55,3513
116.29162,39.84127,56,3513
116.27986,39.83907,57,3513
116.28077,39.83477,58,3513
116.31387,39.82918,59,3513
116.31387,39.82918,60,3513
116.32521,39.82917,61,3513
116.38198,39.83027,62,3513
116.39553,39.81638,63,3513
116.39603,39.80158,64,3513
116.38953,39.80152,65,3513
116.37172,39.79573,66,3513
116.36718,39.79434,67,3513
116.35362,39.7919,68,3513
116.36018,39.80679,69,3513
116.35915,39.81369,70,3513
116.37451,39.82993,71,3513
116.38478,39.83036,72,3513
116.42618,39.83073,73,3513
116.46879,39.8382,74,3513
116.4758,39.84318,75,3513
116.48424,39.87208,76,3513
116.48641,39.87468,77,3513
116.49285,39.87235,78,3513
116.4928,39.87239,79,3513
116.4928,39.87239,80,3513
116.4928,39.87239,81,3513
116.4928,39.87239,82,3513
116.4928,39.87239,83,3513
116.4928,39.87239,84,3513
116.4928,39.87239,85,3513
116.49276,39.87232,86,3513
116.49276,39.87232,87,3513
116.49276,39.87232,88,3513
116.49276,39.87232,89,3513
116.49276,39.87232,90,3513
116.49276,39.87232,91,3513
116.49276,39.87232,92,3513
116.49276,39.87232,93,3513
116.49276,39.87232,94,3513
116.49276,39.87232,95,3513
116.49276,39.87232,96,3513
116.49276,39.87232,97,3513
116.49276,39.87232,98,3513
116.49276,39.87232,99,3513
116.49276,39.87232,100,3513
116.49276,39.87232,101,3513
116.49276,39.87232,102,3513
116.49276,39.87232,103,3513
116.49276,39.87232,104,3513
116.49276,39.87232,105,3513
116.49276,39.87232,106,3513
116.49299,39.87235,107,3513
116.49004,39.8743,108,3513
116.4857,39.87499,109,3513
116.48929,39.87463,110,3513
116.48398,39.87705,111,3513
116.48398,39.87705,112,3513
116.48425,39.90045,113,3513
116.48332,39.9025,114,3513
116.4825,39.9036,115,3513
116.47475,39.90257,116,3513
116.47382,39.9027,117,3513
116.47172,39.90467,118,3513
116.4718,39.90649,119,3513
116.45607,39.90908,120,3513
116.4556,39.91663,121,3513
116.43035,39.968,122,3513
116.43035,39.968,123,3513
116.41853,39.96815,124,3513
116.38136,39.96716,125,3513
116.37196,39.967,126,3513
116.36918,39.96649,127,3513
116.3775,39.96666,128,3513
116.3818,39.966,129,3513
116.3818,39.966,130,3513
116.38081,39.96189,131,3513
116.37468,39.96163,132,3513
116.36553,39.96689,133,3513
116.35982,39.96671,134,3513
116.33036,39.96638,135,3513
116.32082,39.96623,136,3513
116.32745,39.96599,137,3513
116.33101,39.96607,138,3513
116.33989,39.96143,139,3513
116.34037,39.95992,140,3513
116.34736,39.96653,141,3513
116.34241,39.97217,142,3513
116.34808,39.97582,143,3513
116.3507,39.98022,144,3513
116.3592,39.9849,145,3513
116.35918,39.98489,146,3513
116.36249,39.98576,147,3513
116.35534,39.98591,148,3513
116.32678,39.99047,149,3513
116.32676,39.99123,150,3513
116.32675,40.00021,151,3513
116.32257,39.99338,152,3513
116.32699,39.98526,153,3513
116.33367,39.98477,154,3513
116.36284,39.98572,155,3513
116.36473,39.9858,156,3513
116.36473,39.9858,157,3513
116.39764,39.98669,158,3513
116.40326,39.98686,159,3513
116.41099,39.98072,160,3513
116.41138,39.97323,161,3513
116.41162,39.96822,162,3513
116.4295,39.96789,163,3513
116.43723,39.96336,164,3513
116.43337,39.95716,165,3513
116.43332,39.95354,166,3513
116.43396,39.95344,167,3513
116.43396,39.95344,168,3513
116.43821,39.95404,169,3513
116.44684,39.95713,170,3513
116.45412,39.95239,171,3513
116.4554,39.92164,172,3513
116.45536,39.91897,173,3513
116.46564,39.90691,174,3513
116.48078,39.9067,175,3513
116.48351,39.87903,176,3513
116.48687,39.88037,177,3513
116.49289,39.87259,178,3513
116.49289,39.87251,179,3513
116.49289,39.87251,180,3513
116.49289,39.87251,181,3513
116.49289,39.87251,182,3513
116.49289,39.87251,183,3513
116.49289,39.87251,184,3513
116.49289,39.87251,185,3513
116.49289,39.87251,186,3513
116.49289,39.87251,187,3513
116.49289,39.87251,188,3513
116.49289,39.87251,189,3513
116.49289,39.87251,190,3513
116.49289,39.87251,191,3513
116.49289,39.87251,192,3513
116.49289,39.87251,193,3513
116.49289,39.87251,194,3513
116.49289,39.87251,195,3513
116.49289,39.87251,196,3513
116.49289,39.87251,197,3513
116.49289,39.87251,198,3513
116.49289,39.87251,199,3513
116.49295,39.87262,200,3513
116.484,39.87465,201,3513
116.47979,39.87506,202,3513
116.47135,39.87824,203,3513
116.47124,39.88273,204,3513
116.45851,39.88315,205,3513
116.45398,39.88317,206,3513
116.41977,39.87002,207,3513
116.41406,39.86986,208,3513
116.37782,39.86962,209,3513
116.36652,39.86882,210,3513
116.33184,39.86694,211,3513
116.33054,39.86985,212,3513
116.31899,39.87481,213,3513
116.31696,39.87461,214,3513
116.31145,39.88167,215,3513
116.31284,39.88287,216,3513
116.31711,39.8831,217,3513
116.31732,39.88318,218,3513
116.31834,39.88313,219,3513
116.31834,39.88313,220,3513
116.3198,39.88314,221,3513
116.31994,39.88311,222,3513
116.31991,39.8831,223,3513
116.31991,39.8831,224,3513
116.31991,39.8831,225,3513
116.32184,39.88303,226,3513
116.32184,39.88303,227,3513
116.32184,39.88303,228,3513
116.32184,39.88303,229,3513
116.32184,39.88303,230,3513
116.32186,39.88303,231,3513
116.32192,39.88317,232,3513
116.32188,39.88323,233,3513
116.32188,39.88323,234,3513
116.32196,39.88319,235,3513
116.32199,39.88321,236,3513
116.32205,39.88314,237,3513
116.32205,39.88314,238,3513
116.32205,39.88314,239,3513
116.32205,39.88314,240,3513
116.32205,39.88314,241,3513
116.32206,39.88313,242,3513
116.32205,39.88309,243,3513
116.32204,39.88309,244,3513
116.32206,39.8831,245,3513
116.32221,39.88305,246,3513
116.3222,39.88305,247,3513
116.32217,39.8831,248,3513
116.32218,39.88309,249,3513
116.32223,39.88307,250,3513
116.32221,39.8831,251,3513
116.32231,39.88306,252,3513
116.32232,39.88309,253,3513
116.32231,39.88308,254,3513
116.32228,39.88306,255,3513
116.32232,39.88303,256,3513
116.32232,39.88303,257,3513
116.32232,39.88303,258,3513
116.32232,39.88303,259,3513
116.32232,39.88303,260,3513
116.32232,39.88303,261,3513
116.32232,39.88303,262,3513
116.32232,39.88303,263,3513
116.32232,39.88303,264,3513
116.32232,39.88303,265,3513
116.32817,39.88328,266,3513
116.33031,39.88532,267,3513
116.34188,39.88684,268,3513
116.34262,39.87891,269,3513
116.37555,39.86939,270,3513
116.3889,39.87014,271,3513
116.42234,39.8698,272,3513
116.43284,39.86882,273,3513
116.4532,39.87008,274,3513
116.45432,39.86999,275,3513
116.47009,39.86991,276,3513
116.47268,39.86986,277,3513
116.47268,39.86986,278,3513
116.48732,39.87474,279,3513
116.49062,39.87435,280,3513
116.49287,39.87236,281,3513
116.49284,39.87237,282,3513
116.49284,39.87237,283,3513
116.49284,39.87237,284,3513
116.49284,39.87237,285,3513
116.49284,39.87237,286,3513
116.49284,39.87237,287,3513
116.49284,39.87237,288,3513
116.49284,39.87237,289,3513
116.49284,39.87237,290,3513
116.49284,39.87237,291,3513
116.49284,39.87237,292,3513
116.49284,39.87237,293,3513
116.49284,39.87237,294,3513
116.49284,39.87237,295,3513
116.49284,39.87237,296,3513
116.49284,39.87237,297,3513
116.49284,39.87237,298,3513
116.49284,39.87237,299,3513
116.49284,39.87237,300,3513
116.49002,39.87425,301,3513
116.48736,39.8749,302,3513
116.48333,39.89026,303,3513
116.48246,39.88881,304,3513
116.48407,39.88035,305,3513
116.4839,39.89169,306,3513
116.48403,39.9024,307,3513
116.48987,39.90647,308,3513
116.48327,39.89216,309,3513
116.48413,39.88005,310,3513
116.4945,39.87737,311,3513
116.49607,39.87938,312,3513
116.48769,39.87938,313,3513
116.49004,39.87357,314,3513
116.49394,39.86697,315,3513
116.4975,39.86249,316,3513
116.49937,39.86685,317,3513
116.51996,39.86857,318,3513
116.52389,39.87516,319,3513
116.52148,39.89179,320,3513
116.5387,39.89214,321,3513
116.55192,39.89726,322,3513
116.55531,39.9007,323,3513
116.56621,39.90635,324,3513
116.57108,39.90861,325,3513
116.57769,39.91292,326,3513
116.58469,39.91139,327,3513
116.58122,39.91628,328,3513
116.58122,39.91628,329,3513
116.58466,39.91157,330,3513
116.57726,39.913,331,3513
116.57073,39.90945,332,3513
116.57073,39.90945,333,3513
116.56142,39.90865,334,3513
116.52148,39.90847,335,3513
116.50301,39.90694,336,3513
116.49087,39.90709,337,3513
116.48629,39.9216,338,3513
116.49459,39.92155,339,3513
116.51214,39.91774,340,3513
116.51658,39.90848,341,3513
116.5053,39.90723,342,3513
116.50113,39.90939,343,3513
116.4953,39.91402,344,3513
116.50276,39.91465,345,3513
116.51225,39.91776,346,3513
116.5146,39.9222,347,3513
116.5344,39.92234,348,3513
116.55354,39.92275,349,3513
116.57691,39.92345,350,3513
116.58657,39.92674,351,3513
116.58877,39.92568,352,3513
116.58933,39.92561,353,3513
116.57053,39.92319,354,3513
116.55132,39.92302,355,3513
116.52243,39.92223,356,3513
116.51998,39.91484,357,3513
116.48745,39.90757,358,3513
116.49008,39.87535,359,3513
116.49294,39.87213,360,3513
116.49294,39.87213,361,3513
116.49294,39.87213,362,3513
116.49304,39.87204,363,3513
116.49304,39.87204,364,3513
116.49304,39.87204,365,3513
116.49304,39.87204,366,3513
116.49304,39.87204,367,3513
116.49304,39.87204,368,3513
116.49304,39.87204,369,3513
116.49304,39.87204,370,3513
116.49304,39.87204,371,3513
116.49304,39.87204,372,3513
116.49304,39.87204,373,3513
116.49304,39.87204,374,3513
116.49304,39.87204,375,3513
116.49304,39.87204,376,3513
116.49304,39.87204,377,3513
116.49304,39.87204,378,3513
116.49304,39.87204,379,3513
116.49304,39.87204,380,3513
116.49304,39.87204,381,3513
116.49304,39.87204,382,3513
116.49304,39.87204,383,3513
116.49304,39.87204,384,3513
116.49304,39.87204,385,3513
116.49301,39.87218,386,3513
116.49284,39.87218,387,3513
116.48333,39.87229,388,3513
116.47886,39.87016,389,3513
116.46253,39.87032,390,3513
116.45613,39.8703,391,3513
116.44152,39.87058,392,3513
116.44152,39.87058,393,3513
116.44151,39.87057,394,3513
116.44151,39.87057,395,3513
116.44151,39.87057,396,3513
116.4542,39.87002,397,3513
116.49289,39.87246,398,3513
116.49292,39.87243,399,3513
116.49292,39.87243,400,3513
116.49292,39.87243,401,3513
116.49292,39.87243,402,3513
116.48848,39.87009,403,3513
116.4767,39.87012,404,3513
116.4627,39.8701,405,3513
116.4561,39.87011,406,3513
116.44543,39.87013,407,3513
116.4419,39.87042,408,3513
116.44175,39.87044,409,3513
116.44175,39.87044,410,3513
116.44175,39.87044,411,3513
116.44175,39.87044,412,3513
116.44169,39.87047,413,3513
116.43956,39.87575,414,3513
116.4392,39.88177,415,3513
116.437,39.86981,416,3513
116.40429,39.87079,417,3513
116.38907,39.8702,418,3513
116.36525,39.86872,419,3513
116.3485,39.86712,420,3513
116.34049,39.85106,421,3513
116.33967,39.83418,422,3513
116.33995,39.80133,423,3513
116.34197,39.79126,424,3513
116.3354,39.7711,425,3513
116.33796,39.75212,426,3513
116.33986,39.72399,427,3513
116.32113,39.68325,428,3513
116.32019,39.68112,429,3513
116.31762,39.65529,430,3513
116.3206,39.60879,431,3513
116.32027,39.5812,432,3513
116.32027,39.5812,433,3513
116.31871,39.53499,434,3513
116.31874,39.53358,435,3513
116.31968,39.52463,436,3513
116.31813,39.51014,437,3513
116.31468,39.48033,438,3513
116.30421,39.47032,439,3513
116.30348,39.44064,440,3513
116.30348,39.44064,441,3513
116.30332,39.43807,442,3513
116.30235,39.42314,443,3513
116.30254,39.4179,444,3513
116.30781,39.3746,445,3513
116.32677,39.32914,446,3513
116.32705,39.32247,447,3513
116.33468,39.27628,448,3513
116.33501,39.27035,449,3513
116.35848,39.1995,450,3513
116.36248,39.19324,451,3513
116.38124,39.15455,452,3513
116.38353,39.12369,453,3513
116.38368,39.12262,454,3513
116.38425,39.11136,455,3513
116.38425,39.11129,456,3513
116.38518,39.09641,457,3513
116.38517,39.09641,458,3513
116.37007,39.0574,459,3513
116.3708,39.05202,460,3513
116.35144,38.99272,461,3513
116.34858,38.97822,462,3513
116.33961,38.93702,463,3513
116.31736,38.92984,464,3513
116.27818,38.96363,465,3513
116.27659,38.96358,466,3513
116.25907,38.96438,467,3513
116.25323,38.96484,468,3513
116.23667,38.96594,469,3513
116.22817,38.96593,470,3513
116.21062,38.97191,471,3513
116.20883,38.97277,472,3513
116.1805,38.97333,473,3513
116.17869,38.97324,474,3513
116.1779,38.99277,475,3513
116.18032,38.99616,476,3513
116.19305,39.01462,477,3513
116.19449,39.02039,478,3513
116.20068,39.04148,479,3513
116.20095,39.04364,480,3513
116.20001,39.04551,481,3513
116.20072,39.0453,482,3513
116.21364,39.05088,483,3513
116.23058,39.09121,484,3513
116.24452,39.11615,485,3513
116.24442,39.11595,486,3513
116.26726,39.13335,487,3513
116.27059,39.13362,488,3513
116.31979,39.12218,489,3513
116.31979,39.12218,490,3513
116.33545,39.11605,491,3513
116.36009,39.13143,492,3513
116.37908,39.13203,493,3513
116.38207,39.15206,494,3513
116.37747,39.16529,495,3513
116.36022,39.19658,496,3513
116.35646,39.2121,497,3513
116.34168,39.24743,498,3513
116.33514,39.27229,499,3513
116.33397,39.27946,500,3513
116.33047,39.29516,501,3513
116.32728,39.30167,502,3513
116.32709,39.3287,503,3513
116.32079,39.34417,504,3513
116.31509,39.35803,505,3513
116.30328,39.43379,506,3513
116.30371,39.45254,507,3513
116.30403,39.46065,508,3513
116.31693,39.4984,509,3513
116.31985,39.52337,510,3513
116.32008,39.57044,511,3513
116.31969,39.61903,512,3513
116.31783,39.65123,513,3513
116.32198,39.68372,514,3513
116.32352,39.69046,515,3513
116.33751,39.71449,516,3513
116.37623,39.74916,517,3513
116.37623,39.75023,518,3513
116.37479,39.76281,519,3513
116.37207,39.7896,520,3513
116.3759,39.80037,521,3513
116.39647,39.80331,522,3513
116.39647,39.80741,523,3513
116.39647,39.80741,524,3513
116.39587,39.82129,525,3513
116.47996,39.85182,526,3513
116.51357,39.86902,527,3513
116.54637,39.86738,528,3513
116.5698,39.85848,529,3513
116.56995,39.85033,530,3513
116.49287,39.87241,531,3513
116.49287,39.87241,532,3513
116.49287,39.87241,533,3513
116.49304,39.87235,534,3513
116.49304,39.87235,535,3513
116.49304,39.87235,536,3513
116.49304,39.87235,537,3513
116.49304,39.87235,538,3513
116.49304,39.87235,539,3513
116.49304,39.87235,540,3513
116.49304,39.87235,541,3513
116.49304,39.87235,542,3513
116.49304,39.87235,543,3513
116.49304,39.87235,544,3513
116.49304,39.87235,545,3513
116.49304,39.87235,546,3513
116.49304,39.87235,547,3513
116.49304,39.87235,548,3513
116.49304,39.87235,549,3513
116.49304,39.87235,550,3513
116.49304,39.87235,551,3513
116.49304,39.87235,552,3513
116.49304,39.87235,553,3513
116.49304,39.87235,554,3513
116.49298,39.87238,555,3513
116.49081,39.87428,556,3513
116.49395,39.86657,557,3513
116.51313,39.86894,558,3513
116.52477,39.86903,559,3513
116.51755,39.88491,560,3513
116.51691,39.88667,561,3513
116.51691,39.88667,562,3513
116.51691,39.88667,563,3513
116.51691,39.88667,564,3513
116.51691,39.88667,565,3513
116.51691,39.88667,566,3513
116.52373,39.87545,567,3513
116.50497,39.86949,568,3513
116.4934,39.8739,569,3513
116.49001,39.87447,570,3513
116.48404,39.88373,571,3513
116.48554,39.89219,572,3513
116.48425,39.90344,573,3513
116.48424,39.91882,574,3513
116.48392,39.9295,575,3513
116.4836,39.95213,576,3513
116.45659,39.97448,577,3513
116.41094,39.99307,578,3513
116.41116,39.99698,579,3513
116.40141,39.99628,580,3513
116.40125,39.9922,581,3513
116.40792,39.98707,582,3513
116.41637,39.98724,583,3513
116.42198,39.98705,584,3513
116.42198,39.98705,585,3513
116.42198,39.98705,586,3513
116.42198,39.98705,587,3513
116.42198,39.98705,588,3513
116.42198,39.98705,589,3513
116.42193,39.98611,590,3513
116.41814,39.98056,591,3513
116.41224,39.96792,592,3513
116.41197,39.95881,593,3513
116.40735,39.95779,594,3513
116.40158,39.95,595,3513
116.40186,39.94838,596,3513
116.40664,39.94756,597,3513
116.4235,39.94804,598,3513
116.42715,39.94405,599,3513
116.42715,39.94406,600,3513
116.42715,39.94406,601,3513
116.4284,39.91527,602,3513
116.43046,39.90197,603,3513
116.44433,39.90235,604,3513
116.45495,39.88458,605,3513
116.45156,39.8832,606,3513
116.45156,39.8832,607,3513
116.44431,39.88317,608,3513
116.44414,39.88327,609,3513
116.45426,39.88304,610,3513
116.45593,39.88301,611,3513
116.47075,39.8829,612,3513
116.47291,39.88295,613,3513
116.49646,39.87502,614,3513
116.49646,39.87502,615,3513
116.49284,39.87354,616,3513
116.49285,39.87254,617,3513
116.49285,39.87254,618,3513
116.49279,39.87261,619,3513
116.49279,39.87261,620,3513
116.49279,39.87261,621,3513
116.49279,39.87261,622,3513
116.49279,39.87261,623,3513
116.49279,39.87261,624,3513
116.49279,39.87261,625,3513
116.49279,39.87261,626,3513
116.49279,39.87261,627,3513
116.49279,39.87261,628,3513
116.49279,39.87261,629,3513
116.49279,39.87261,630,3513
116.49279,39.87261,631,3513
116.49279,39.87261,632,3513
116.49279,39.87261,633,3513
116.49279,39.87261,634,3513
116.49279,39.87261,635,3513
116.49279,39.87261,636,3513
116.49279,39.87261,637,3513
116.49279,39.87261,638,3513
116.49279,39.87261,639,3513
116.49279,39.87261,640,3513
116.49279,39.87261,641,3513
116.48523,39.87108,642,3513
116.48171,39.87173,643,3513
116.5074,39.8689,644,3513
116.50754,39.86889,645,3513
116.50821,39.86809,646,3513
116.50821,39.86809,647,3513
116.50821,39.86809,648,3513
116.50821,39.86809,649,3513
116.50821,39.86809,650,3513
116.50821,39.86809,651,3513
116.50783,39.86751,652,3513
116.50652,39.8662,653,3513
116.48196,39.86947,654,3513
116.48132,39.86211,655,3513
116.45181,39.85882,656,3513
116.44886,39.86239,657,3513
116.4168,39.85652,658,3513
116.41408,39.85605,659,3513
116.41113,39.86103,660,3513
116.41113,39.86128,661,3513
116.41113,39.86128,662,3513
116.41113,39.86128,663,3513
116.41113,39.86128,664,3513
116.41113,39.86128,665,3513
116.41113,39.86128,666,3513
116.41113,39.86128,667,3513
116.41113,39.86128,668,3513
116.41113,39.86128,669,3513
116.41113,39.86128,670,3513
116.41113,39.86128,671,3513
116.41113,39.86128,672,3513
116.41113,39.86128,673,3513
116.41113,39.86128,674,3513
116.41113,39.86128,675,3513
116.41113,39.86128,676,3513
116.41113,39.86128,677,3513
116.41113,39.86128,678,3513
116.41113,39.86128,679,3513
116.41113,39.86128,680,3513
116.41113,39.86128,681,3513
116.41113,39.86128,682,3513
116.41113,39.86128,683,3513
116.41072,39.86084,684,3513
116.41756,39.85328,685,3513
116.41902,39.85254,686,3513
116.42125,39.85282,687,3513
116.40959,39.86069,688,3513
116.41162,39.86147,689,3513
116.43971,39.8574,690,3513
116.44179,39.8577,691,3513
116.48158,39.86639,692,3513
116.48165,39.8664,693,3513
116.49285,39.87255,694,3513
116.49285,39.87244,695,3513
116.4834,39.89057,696,3513
116.48332,39.88946,697,3513
116.49164,39.87759,698,3513
116.49628,39.87494,699,3513
116.49628,39.87494,700,3513
116.49628,39.87494,701,3513
116.49628,39.87494,702,3513
116.48703,39.87481,703,3513
116.48559,39.8746,704,3513
116.48559,39.8746,705,3513
116.49291,39.87219,706,3513
116.4929,39.87224,707,3513
116.4929,39.87224,708,3513
116.4929,39.87224,709,3513
116.4929,39.87224,710,3513
116.4929,39.87224,711,3513
116.4929,39.87224,712,3513
116.4929,39.87224,713,3513
116.4929,39.87224,714,3513
116.4929,39.87224,715,3513
116.4929,39.87224,716,3513
116.4929,39.87224,717,3513
116.4929,39.87224,718,3513
116.4929,39.87224,719,3513
116.4929,39.87224,720,3513
116.4929,39.87224,721,3513
116.4929,39.87224,722,3513
116.4929,39.87224,723,3513
116.4929,39.87224,724,3513
116.4929,39.87224,725,3513
116.4929,39.87224,726,3513
116.4929,39.87224,727,3513
116.4929,39.87224,728,3513
116.49293,39.87235,729,3513
116.48767,39.87489,730,3513
116.48319,39.8788,731,3513
116.47171,39.87824,732,3513
116.47136,39.88267,733,3513
116.47137,39.89155,734,3513
116.47083,39.88984,735,3513
116.47078,39.88984,736,3513
116.466,39.88339,737,3513
116.45692,39.88351,738,3513
116.45006,39.88345,739,3513
116.44973,39.87835,740,3513
116.44181,39.87057,741,3513
116.4391,39.87079,742,3513
116.45325,39.87135,743,3513
116.46089,39.87003,744,3513
116.47078,39.87,745,3513
116.49315,39.86962,746,3513
116.50182,39.86971,747,3513
116.47986,39.87502,748,3513
116.46653,39.8749,749,3513
116.45775,39.87496,750,3513
116.44488,39.87497,751,3513
116.43919,39.8828,752,3513
116.43016,39.9007,753,3513
116.42836,39.93383,754,3513
116.43085,39.93381,755,3513
116.42918,39.9325,756,3513
116.42812,39.92363,757,3513
116.42163,39.89929,758,3513
116.41828,39.89207,759,3513
116.41351,39.89178,760,3513
116.41351,39.89178,761,3513
116.41272,39.89174,762,3513
116.41424,39.88356,763,3513
116.41534,39.86542,764,3513
116.41131,39.86117,765,3513
116.41117,39.8609,766,3513
116.41117,39.8609,767,3513
116.41117,39.8609,768,3513
116.41117,39.8609,769,3513
116.41117,39.8609,770,3513
116.41117,39.8609,771,3513
116.41117,39.8609,772,3513
116.41117,39.8609,773,3513
116.41117,39.8609,774,3513
116.41117,39.8609,775,3513
116.41117,39.8609,776,3513
116.41117,39.8609,777,3513
116.41117,39.8609,778,3513
116.41589,39.85658,779,3513
116.42143,39.85673,780,3513
116.45227,39.86403,781,3513
116.4597,39.86652,782,3513
116.47965,39.86622,783,3513
116.48478,39.86926,784,3513
116.49276,39.87251,785,3513
116.49279,39.87243,786,3513
116.49279,39.87243,787,3513
116.49279,39.87243,788,3513
116.49279,39.87243,789,3513
116.49279,39.87243,790,3513
116.49279,39.87243,791,3513
116.49279,39.87243,792,3513
116.49279,39.87243,793,3513
116.49279,39.87243,794,3513
116.49279,39.87243,795,3513
116.49279,39.87243,796,3513
116.49279,39.87243,797,3513
116.49279,39.87243,798,3513
116.49279,39.87243,799,3513
116.49279,39.87243,800,3513
116.49279,39.87243,801,3513
116.49279,39.87243,802,3513
116.49279,39.87243,803,3513
116.49279,39.87243,804,3513
116.49279,39.87243,805,3513
116.49279,39.87243,806,3513
116.49279,39.87243,807,3513
116.49246,39.87221,808,3513
116.48382,39.87533,809,3513
116.48405,39.88797,810,3513
116.48246,39.89199,811,3513
116.47168,39.89203,812,3513
116.46187,39.89213,813,3513
116.45012,39.8923,814,3513
116.42916,39.89249,815,3513
116.42126,39.89421,816,3513
116.41643,39.89564,817,3513
116.41643,39.89564,818,3513
116.41643,39.89564,819,3513
116.41643,39.89564,820,3513
116.41711,39.89542,821,3513
116.41502,39.89183,822,3513
116.41502,39.89183,823,3513
116.41271,39.88692,824,3513
116.41506,39.86993,825,3513
116.41113,39.86108,826,3513
116.4109,39.86155,827,3513
116.4109,39.86155,828,3513
116.4109,39.86155,829,3513
116.4109,39.86155,830,3513
116.4109,39.86155,831,3513
116.4109,39.86155,832,3513
116.4109,39.86155,833,3513
116.4109,39.86155,834,3513
116.4109,39.86155,835,3513
116.4109,39.86155,836,3513
116.4109,39.86155,837,3513
116.4109,39.86155,838,3513
116.4109,39.86155,839,3513
116.4109,39.86155,840,3513
116.4109,39.86155,841,3513
116.4109,39.86155,842,3513
116.4109,39.86155,843,3513
116.4109,39.86155,844,3513
116.4109,39.86155,845,3513
116.4109,39.86155,846,3513
116.4109,39.86155,847,3513
116.4109,39.86155,848,3513
116.4109,39.86155,849,3513
116.41549,39.86503,850,3513
116.41518,39.87155,851,3513
116.41432,39.89163,852,3513
116.41964,39.89178,853,3513
116.4461,39.8921,854,3513
116.45412,39.89196,855,3513
116.47177,39.89177,856,3513
116.51406,39.89167,857,3513
116.51926,39.89174,858,3513
116.52302,39.86884,859,3513
116.51447,39.86911,860,3513
116.4715,39.87015,861,3513
116.46599,39.87021,862,3513
116.44472,39.85885,863,3513
116.43275,39.85769,864,3513
116.43275,39.85769,865,3513
116.381,39.85596,866,3513
116.381,39.85595,867,3513
116.38046,39.84367,868,3513
116.38453,39.84372,869,3513
116.38074,39.85246,870,3513
116.38397,39.85548,871,3513
116.40045,39.84367,872,3513
116.39826,39.84816,873,3513
116.39555,39.8353,874,3513
116.39555,39.8353,875,3513
116.39548,39.83531,876,3513
116.4511,39.83145,877,3513
116.45249,39.83158,878,3513
116.46625,39.83662,879,3513
116.4718,39.83973,880,3513
116.47611,39.86651,881,3513
116.48157,39.8699,882,3513
116.50776,39.86575,883,3513
116.5079,39.86874,884,3513
116.48691,39.88141,885,3513
116.48383,39.93118,886,3513
116.48385,39.94043,887,3513
116.46527,39.99228,888,3513
116.46901,39.99563,889,3513
116.46178,39.99377,890,3513
116.46547,39.99034,891,3513
116.48372,39.9274,892,3513
116.48368,39.91797,893,3513
116.47532,39.88315,894,3513
116.47159,39.88316,895,3513
116.46481,39.88147,896,3513
116.46468,39.88149,897,3513
116.46468,39.88149,898,3513
116.4635,39.8817,899,3513
116.47307,39.88106,900,3513
116.47556,39.88126,901,3513
116.47141,39.88106,902,3513
116.47206,39.88299,903,3513
116.48883,39.86965,904,3513
116.49381,39.86717,905,3513
116.49381,39.86717,906,3513
116.49529,39.85972,907,3513
116.49667,39.85945,908,3513
116.497,39.85565,909,3513
116.497,39.85565,910,3513
116.49416,39.86761,911,3513
116.49479,39.87312,912,3513
116.46659,39.87014,913,3513
116.46322,39.87014,914,3513
116.45406,39.86894,915,3513
116.45406,39.86894,916,3513
116.45437,39.86749,917,3513
116.4557,39.90553,918,3513
116.4557,39.90553,919,3513
116.45597,39.93218,920,3513
116.45345,39.9324,921,3513
116.45345,39.9324,922,3513
116.45345,39.9324,923,3513
116.45272,39.93233,924,3513
116.45477,39.93229,925,3513
116.48096,39.93232,926,3513
116.48769,39.93255,927,3513
116.49591,39.93237,928,3513
116.49587,39.93027,929,3513
116.48339,39.91858,930,3513
116.48341,39.91308,931,3513
116.48326,39.89213,932,3513
116.48326,39.89212,933,3513
116.46153,39.8802,934,3513
116.46155,39.87363,935,3513
116.46079,39.87,936,3513
116.45839,39.86661,937,3513
116.46831,39.86654,938,3513
116.48614,39.87472,939,3513
116.48977,39.87442,940,3513
116.47673,39.87816,941,3513
116.44993,39.87217,942,3513
116.45451,39.87035,943,3513
116.41532,39.8561,944,3513
116.41119,39.86106,945,3513
116.41109,39.86121,946,3513
116.41109,39.86121,947,3513
116.41109,39.86121,948,3513
116.41109,39.86121,949,3513
116.41109,39.86121,950,3513
116.41109,39.86121,951,3513
116.41109,39.86121,952,3513
116.41109,39.86121,953,3513
116.41109,39.86121,954,3513
116.41109,39.86121,955,3513
116.41109,39.86121,956,3513
116.41109,39.86121,957,3513
116.41109,39.86121,958,3513
116.4161,39.85596,959,3513
116.43701,39.85747,960,3513
116.45853,39.86666,961,3513
116.47301,39.86987,962,3513
116.49925,39.86932,963,3513
116.50778,39.86148,964,3513
116.52144,39.8473,965,3513
116.52097,39.83985,966,3513
116.52082,39.84187,967,3513
116.51973,39.85402,968,3513
116.50796,39.8599,969,3513
116.50426,39.86721,970,3513
116.49027,39.87457,971,3513
116.48385,39.88432,972,3513
116.47349,39.90707,973,3513
116.45577,39.91008,974,3513
116.45566,39.94556,975,3513
116.45264,39.95249,976,3513
116.4563,39.96365,977,3513
116.46216,39.9689,978,3513
116.48598,39.99037,979,3513
116.5313,40.02154,980,3513
116.57977,40.04731,981,3513
116.58741,40.05865,982,3513
116.58685,40.06132,983,3513
116.58437,40.05143,984,3513
116.5484,40.02512,985,3513
116.55906,40.00475,986,3513
116.56214,39.99362,987,3513
116.56044,39.97074,988,3513
116.54153,39.9698,989,3513
116.54116,39.9537,990,3513
116.54077,39.94058,991,3513
116.53517,39.94102,992,3513
116.53662,39.93176,993,3513
116.53736,39.91901,994,3513
116.51951,39.90803,995,3513
116.50665,39.9068,996,3513
116.48492,39.90812,997,3513
116.45045,39.90288,998,3513
116.45045,39.90288,999,3513
116.4368,39.89375,1000,3513
116.43242,39.86932,1001,3513
116.40925,39.8707,1002,3513
116.36546,39.86872,1003,3513
116.34111,39.86679,1004,3513
116.29958,39.86571,1005,3513
116.27878,39.8645,1006,3513
116.27677,39.86021,1007,3513
116.27668,39.85469,1008,3513
116.2788,39.84155,1009,3513
116.29423,39.84072,1010,3513
116.30306,39.83735,1011,3513
116.30703,39.82968,1012,3513
116.35342,39.82952,1013,3513
116.35776,39.85314,1014,3513
116.37557,39.85549,1015,3513
116.38228,39.8694,1016,3513
116.41264,39.94778,1017,3513
116.42675,39.94723,1018,3513
116.42722,39.939,1019,3513
116.42935,39.9088,1020,3513
116.42935,39.9088,1021,3513
116.43074,39.90195,1022,3513
116.45489,39.89402,1023,3513
116.45486,39.89247,1024,3513
116.44923,39.8802,1025,3513
116.44487,39.88038,1026,3513
116.43424,39.88035,1027,3513
116.43435,39.88056,1028,3513
116.45464,39.88302,1029,3513
116.45469,39.88302,1030,3513
116.48999,39.8749,1031,3513
116.49276,39.87241,1032,3513
116.49282,39.87247,1033,3513
116.49282,39.87247,1034,3513
116.49282,39.87247,1035,3513
116.49282,39.87247,1036,3513
116.49282,39.87247,1037,3513
116.49282,39.87247,1038,3513
116.49282,39.87247,1039,3513
116.49282,39.87247,1040,3513
116.49282,39.87247,1041,3513
116.49282,39.87247,1042,3513
116.49282,39.87247,1043,3513
116.49282,39.87247,1044,3513
116.49282,39.87247,1045,3513
116.49282,39.87247,1046,3513
116.49282,39.87247,1047,3513
116.49282,39.87247,1048,3513
116.49282,39.87247,1049,3513
116.49282,39.87247,1050,3513
116.49282,39.87247,1051,3513
116.49282,39.87247,1052,3513
116.49282,39.87247,1053,3513
116.49282,39.87247,1054,3513
116.49282,39.87247,1055,3513
116.49004,39.87377,1056,3513
116.49008,39.87436,1057,3513
116.48391,39.90128,1058,3513
116.48391,39.90272,1059,3513
116.48663,39.91902,1060,3513
116.48678,39.91898,1061,3513
116.48323,39.92132,1062,3513
116.48321,39.92054,1063,3513
116.49115,39.87657,1064,3513
116.49032,39.87563,1065,3513
116.50465,39.86973,1066,3513
116.48993,39.87455,1067,3513
116.48934,39.87466,1068,3513
116.48395,39.90112,1069,3513
116.48397,39.9027,1070,3513
116.45567,39.92517,1071,3513
116.45563,39.92683,1072,3513
116.43166,39.96735,1073,3513
116.43014,39.96807,1074,3513
116.36203,39.96662,1075,3513
116.35973,39.96653,1076,3513
116.34224,39.97496,1077,3513
116.34723,39.96656,1078,3513
116.34818,39.96625,1079,3513
116.38894,39.95045,1080,3513
116.41061,39.93827,1081,3513
116.41113,39.92403,1082,3513
116.41113,39.92403,1083,3513
116.41113,39.92403,1084,3513
116.41147,39.91436,1085,3513
116.41158,39.91066,1086,3513
116.41237,39.89188,1087,3513
116.41482,39.8743,1088,3513
116.4153,39.8719,1089,3513
116.43214,39.86148,1090,3513
116.43202,39.86106,1091,3513
116.43879,39.86329,1092,3513
116.43872,39.85849,1093,3513
116.43248,39.85551,1094,3513
116.43284,39.85354,1095,3513
116.43272,39.86404,1096,3513
116.43286,39.8662,1097,3513
116.41278,39.89227,1098,3513
116.3857,39.89917,1099,3513
116.4067,39.89947,1100,3513
116.41232,39.8918,1101,3513
116.40614,39.89146,1102,3513
116.38387,39.88492,1103,3513
116.38172,39.88405,1104,3513
116.3868,39.88499,1105,3513
116.39121,39.885,1106,3513
116.42128,39.89197,1107,3513
116.42297,39.88959,1108,3513
116.41454,39.88237,1109,3513
116.41471,39.87695,1110,3513
116.41016,39.84669,1111,3513
116.41012,39.84453,1112,3513
116.41454,39.8557,1113,3513
116.41465,39.88225,1114,3513
116.41332,39.89956,1115,3513
116.42184,39.89929,1116,3513
116.41437,39.88332,1117,3513
116.41098,39.86096,1118,3513
116.41098,39.86096,1119,3513
116.41098,39.86096,1120,3513
116.41098,39.86096,1121,3513
116.41098,39.86096,1122,3513
116.41098,39.86096,1123,3513
116.41098,39.86096,1124,3513
116.41098,39.86096,1125,3513
116.41098,39.86096,1126,3513
116.41098,39.86096,1127,3513
116.41098,39.86096,1128,3513
116.41098,39.86096,1129,3513
116.41098,39.86096,1130,3513
116.41098,39.86096,1131,3513
116.46113,39.89187,1132,3513
116.47093,39.88965,1133,3513
116.49279,39.87247,1134,3513
116.49272,39.87232,1135,3513
116.49276,39.87227,1136,3513
116.49277,39.87221,1137,3513
116.49288,39.87194,1138,3513
116.49062,39.87239,1139,3513
116.48649,39.87348,1140,3513
116.48649,39.87348,1141,3513
116.48649,39.87348,1142,3513
116.48649,39.87348,1143,3513
116.48649,39.87348,1144,3513
116.48649,39.87348,1145,3513
116.48649,39.87348,1146,3513
116.48402,39.87464,1147,3513
116.47988,39.875,1148,3513
116.47121,39.88281,1149,3513
116.47119,39.883,1150,3513
116.45845,39.88316,1151,3513
116.4452,39.88328,1152,3513
116.43447,39.88311,1153,3513
116.42782,39.88138,1154,3513
116.42786,39.8814,1155,3513
116.43339,39.87433,1156,3513
116.43131,39.8695,1157,3513
116.43131,39.8695,1158,3513
116.39119,39.87029,1159,3513
116.37745,39.86959,1160,3513
116.22498,39.8477,1161,3513
116.22385,39.84706,1162,3513
116.21499,39.8434,1163,3513
116.20954,39.84244,1164,3513
116.20273,39.84074,1165,3513
116.20364,39.8317,1166,3513
116.199,39.8224,1167,3513
116.1983,39.82228,1168,3513
116.19682,39.82157,1169,3513
116.19682,39.82157,1170,3513
116.1998,39.83255,1171,3513
116.20129,39.83383,1172,3513
116.19526,39.82677,1173,3513
116.19474,39.82756,1174,3513
116.19674,39.82795,1175,3513
116.19932,39.83124,1176,3513
116.2017,39.84209,1177,3513
116.2068,39.84319,1178,3513
116.2068,39.84319,1179,3513
116.21339,39.84408,1180,3513
116.21629,39.84447,1181,3513
116.22472,39.84727,1182,3513
116.22902,39.84945,1183,3513
116.26421,39.87016,1184,3513
116.27692,39.87596,1185,3513
116.30935,39.88558,1186,3513
116.31565,39.88785,1187,3513
116.31972,39.88857,1188,3513
116.34254,39.8818,1189,3513
116.34254,39.8818,1190,3513
116.34282,39.87681,1191,3513
116.34639,39.87629,1192,3513
116.34765,39.874,1193,3513
116.34793,39.8686,1194,3513
116.34794,39.86854,1195,3513
116.34799,39.86784,1196,3513
116.348,39.86777,1197,3513
116.35508,39.86722,1198,3513
116.37897,39.86955,1199,3513
116.396,39.87041,1200,3513
116.43293,39.86842,1201,3513
116.43903,39.87055,1202,3513
116.45698,39.86987,1203,3513
116.46162,39.86978,1204,3513
116.47689,39.8664,1205,3513
116.48132,39.86354,1206,3513
116.48284,39.84283,1207,3513
116.4828,39.84117,1208,3513
116.48116,39.85842,1209,3513
116.48263,39.86635,1210,3513
116.49284,39.87226,1211,3513
116.49284,39.87226,1212,3513
116.49291,39.87247,1213,3513
116.49291,39.87247,1214,3513
116.49291,39.87247,1215,3513
116.49291,39.87247,1216,3513
116.49291,39.87247,1217,3513
116.49291,39.87247,1218,3513
116.49291,39.87247,1219,3513
116.49291,39.87247,1220,3513
116.49291,39.87247,1221,3513
116.49291,39.87247,1222,3513
116.49291,39.87247,1223,3513
116.49291,39.87247,1224,3513
116.49291,39.87247,1225,3513
116.49291,39.87247,1226,3513
116.49291,39.87247,1227,3513
116.49291,39.87247,1228,3513
116.49291,39.87247,1229,3513
116.49291,39.87247,1230,3513
116.49291,39.87247,1231,3513
116.49291,39.87247,1232,3513
116.49291,39.87247,1233,3513
116.49291,39.87247,1234,3513
116.49291,39.87247,1235,3513
