x,y,k,tid
116.36833,39.8805,0,3667
116.36839,39.88753,1,3667
116.36839,39.88753,2,3667
116.36839,39.89654,3,3667
116.36836,39.89788,4,3667
116.36836,39.89788,5,3667
116.36808,39.90537,6,3667
116.36808,39.90537,7,3667
116.37003,39.90671,8,3667
116.37001,39.90602,9,3667
116.35577,39.90603,10,3667
116.35098,39.90646,11,3667
116.35026,39.91822,12,3667
116.35012,39.92139,13,3667
116.34939,39.93418,14,3667
116.34939,39.93418,15,3667
116.34932,39.94007,16,3667
116.34965,39.96657,17,3667
116.32277,39.96616,18,3667
116.31885,39.96613,19,3667
116.31008,39.96411,20,3667
116.3035,39.96162,21,3667
116.30403,39.92716,22,3667
116.30403,39.92123,23,3667
116.3041,39.90489,24,3667
116.30412,39.90099,25,3667
116.2947,39.87967,26,3667
116.29409,39.87957,27,3667
116.29401,39.87781,28,3667
116.29401,39.87781,29,3667
116.30453,39.88336,30,3667
116.30443,39.88481,31,3667
116.30954,39.90615,32,3667
116.32355,39.90916,33,3667
116.32355,39.90921,34,3667
116.32353,39.90875,35,3667
116.32484,39.90942,36,3667
116.32365,39.90908,37,3667
116.32294,39.90873,38,3667
116.34723,39.88499,39,3667
116.35756,39.8787,40,3667
116.3564,39.87882,41,3667
116.35305,39.87724,42,3667
116.3579,39.87184,43,3667
116.35803,39.86954,44,3667
116.36203,39.86821,45,3667
116.38085,39.86972,46,3667
116.40576,39.8707,47,3667
116.41543,39.86374,48,3667
116.41677,39.85605,49,3667
116.43054,39.85732,50,3667
116.42616,39.85742,51,3667
116.42649,39.85448,52,3667
116.41873,39.85316,53,3667
116.41959,39.85287,54,3667
116.42221,39.85464,55,3667
116.42132,39.85702,56,3667
116.40698,39.85581,57,3667
116.39479,39.85636,58,3667
116.39412,39.8641,59,3667
116.39539,39.8712,60,3667
116.37891,39.87006,61,3667
116.38364,39.86938,62,3667
116.3444,39.86694,63,3667
116.3309,39.86753,64,3667
116.33053,39.87111,65,3667
116.33109,39.87398,66,3667
116.33108,39.8751,67,3667
116.33027,39.88068,68,3667
116.3239,39.88307,69,3667
116.32042,39.88518,70,3667
116.32038,39.88628,71,3667
116.32037,39.88673,72,3667
116.35106,39.88801,73,3667
116.35745,39.88634,74,3667
116.35759,39.88098,75,3667
116.35922,39.87406,76,3667
116.36129,39.87205,77,3667
116.36155,39.87539,78,3667
116.36154,39.87596,79,3667
116.35755,39.88165,80,3667
116.35896,39.88185,81,3667
116.3694,39.88188,82,3667
116.37013,39.88185,83,3667
116.37865,39.88071,84,3667
116.37865,39.88071,85,3667
116.38127,39.8794,86,3667
116.3812,39.87977,87,3667
116.37856,39.8869,88,3667
116.37855,39.88744,89,3667
116.3746,39.88802,90,3667
116.36834,39.89353,91,3667
116.36834,39.89353,92,3667
116.36832,39.89655,93,3667
116.36832,39.89655,94,3667
116.36313,39.89833,95,3667
116.35311,39.89859,96,3667
116.3512,39.90019,97,3667
116.3512,39.90019,98,3667
116.35038,39.90755,99,3667
116.35037,39.90761,100,3667
116.35049,39.91394,101,3667
116.35049,39.91394,102,3667
116.35047,39.91449,103,3667
116.35005,39.92406,104,3667
116.34999,39.92492,105,3667
116.34921,39.9512,106,3667
116.3467,39.97318,107,3667
116.34643,39.97195,108,3667
116.34229,39.97264,109,3667
116.3423,39.97315,110,3667
116.34672,39.97515,111,3667
116.34672,39.97515,112,3667
116.34741,39.98584,113,3667
116.34728,39.98803,114,3667
116.34628,40.00847,115,3667
116.34621,40.0103,116,3667
116.34574,40.0183,117,3667
116.34574,40.0183,118,3667
116.34652,40.02123,119,3667
116.34805,40.02138,120,3667
116.34541,40.02867,121,3667
116.34709,40.02879,122,3667
116.36154,40.03871,123,3667
116.36156,40.0387,124,3667
116.35927,40.03022,125,3667
116.35875,40.03014,126,3667
116.34598,40.02866,127,3667
116.34425,40.02843,128,3667
116.34339,40.0267,129,3667
116.34471,40.0249,130,3667
116.34625,40.00195,131,3667
116.34633,40.00047,132,3667
116.34687,39.9902,133,3667
116.3468,39.98949,134,3667
116.34716,39.96413,135,3667
116.34956,39.93103,136,3667
116.34962,39.92991,137,3667
116.35007,39.91979,138,3667
116.35042,39.91036,139,3667
116.35034,39.90372,140,3667
116.35035,39.90331,141,3667
116.32504,39.89593,142,3667
116.32209,39.89593,143,3667
116.30789,39.89551,144,3667
116.30882,39.89551,145,3667
116.30882,39.89551,146,3667
116.31185,39.89554,147,3667
116.31185,39.89554,148,3667
116.31972,39.89558,149,3667
116.31972,39.89558,150,3667
116.3215,39.89551,151,3667
116.34208,39.89365,152,3667
116.34213,39.89215,153,3667
116.32336,39.88867,154,3667
116.32609,39.88859,155,3667
116.34278,39.87863,156,3667
116.34299,39.87619,157,3667
116.33965,39.84328,158,3667
116.33963,39.84073,159,3667
116.33954,39.80229,160,3667
116.33981,39.80102,161,3667
116.34325,39.78707,162,3667
116.34294,39.78625,163,3667
116.35119,39.78553,164,3667
116.35286,39.78544,165,3667
116.36204,39.79394,166,3667
116.36169,39.7959,167,3667
116.35889,39.81674,168,3667
116.35963,39.81894,169,3667
116.37705,39.83007,170,3667
116.37705,39.83007,171,3667
116.37967,39.83018,172,3667
116.37339,39.83294,173,3667
116.37326,39.83297,174,3667
116.37326,39.83297,175,3667
116.37326,39.83297,176,3667
116.37264,39.83772,177,3667
116.37264,39.83872,178,3667
116.36508,39.84436,179,3667
116.36517,39.84568,180,3667
116.36792,39.86421,181,3667
116.36822,39.86584,182,3667
116.36764,39.87612,183,3667
116.36757,39.87617,184,3667
116.3679,39.87175,185,3667
116.35826,39.86929,186,3667
116.36153,39.87399,187,3667
116.36693,39.87706,188,3667
116.36207,39.87445,189,3667
116.36155,39.87244,190,3667
116.36155,39.87244,191,3667
116.36155,39.87244,192,3667
116.36155,39.87244,193,3667
116.36155,39.87244,194,3667
116.36191,39.87242,195,3667
116.36161,39.87135,196,3667
116.36158,39.87182,197,3667
116.36759,39.88188,198,3667
116.36759,39.88188,199,3667
116.37797,39.88797,200,3667
116.37812,39.88798,201,3667
116.39213,39.88989,202,3667
116.41312,39.89157,203,3667
116.41446,39.89169,204,3667
116.43804,39.89266,205,3667
116.45505,39.90289,206,3667
116.45814,39.90637,207,3667
116.45847,39.90637,208,3667
116.47154,39.90121,209,3667
116.47155,39.90035,210,3667
116.4587,39.89218,211,3667
116.4587,39.89218,212,3667
116.45718,39.89228,213,3667
116.41354,39.89185,214,3667
116.39487,39.89408,215,3667
116.39487,39.89408,216,3667
116.37697,39.8988,217,3667
116.36667,39.89847,218,3667
116.34652,39.90025,219,3667
116.34652,39.90025,220,3667
116.34174,39.88762,221,3667
116.34279,39.87689,222,3667
116.34188,39.86851,223,3667
116.34116,39.86035,224,3667
116.34116,39.86035,225,3667
116.34116,39.86035,226,3667
116.34116,39.86035,227,3667
116.34116,39.86035,228,3667
116.34116,39.86035,229,3667
116.3413,39.86014,230,3667
116.34829,39.86084,231,3667
116.3482,39.86607,232,3667
116.35294,39.87953,233,3667
116.35722,39.88193,234,3667
116.35725,39.88981,235,3667
116.35729,39.88849,236,3667
116.35738,39.88217,237,3667
116.36832,39.89371,238,3667
116.36841,39.89772,239,3667
116.36797,39.9049,240,3667
116.36759,39.91082,241,3667
116.36727,39.92078,242,3667
116.36709,39.92591,243,3667
116.37398,39.93191,244,3667
116.37378,39.93185,245,3667
116.37346,39.92907,246,3667
116.3683,39.89446,247,3667
116.3683,39.89628,248,3667
116.3683,39.89641,249,3667
116.36826,39.89781,250,3667
116.36818,39.89822,251,3667
116.35954,39.89821,252,3667
116.32704,39.89595,253,3667
116.32004,39.89582,254,3667
116.29026,39.89605,255,3667
116.28906,39.8985,256,3667
116.28107,39.90653,257,3667
116.27732,39.90593,258,3667
116.2774,39.90256,259,3667
116.26852,39.90629,260,3667
116.26852,39.90629,261,3667
116.25983,39.90628,262,3667
116.25886,39.90625,263,3667
116.28135,39.88827,264,3667
116.29309,39.88765,265,3667
116.2934,39.88336,266,3667
116.2934,39.88336,267,3667
116.29547,39.88357,268,3667
116.29461,39.88498,269,3667
116.30043,39.88867,270,3667
116.30411,39.88627,271,3667
116.24527,39.85723,272,3667
116.24879,39.85851,273,3667
116.25855,39.86457,274,3667
116.25849,39.86714,275,3667
116.25863,39.89,276,3667
116.25863,39.89158,277,3667
116.26613,39.89535,278,3667
116.26745,39.89377,279,3667
116.27005,39.88033,280,3667
116.26872,39.8847,281,3667
116.27377,39.88782,282,3667
116.27415,39.88822,283,3667
116.2927,39.8882,284,3667
116.29309,39.88572,285,3667
116.29142,39.87794,286,3667
116.29442,39.87884,287,3667
116.3057,39.86527,288,3667
116.31001,39.86621,289,3667
116.33292,39.86665,290,3667
116.34063,39.86661,291,3667
116.34306,39.85529,292,3667
116.34358,39.8567,293,3667
116.34833,39.86373,294,3667
116.34825,39.86641,295,3667
116.35721,39.86521,296,3667
116.35826,39.8618,297,3667
116.35836,39.85983,298,3667
116.36116,39.85417,299,3667
116.3684,39.85565,300,3667
116.39257,39.85163,301,3667
116.39257,39.85163,302,3667
116.39357,39.85162,303,3667
116.39367,39.85101,304,3667
116.39439,39.84111,305,3667
116.39444,39.84107,306,3667
116.39359,39.86428,307,3667
116.35734,39.8914,308,3667
116.35724,39.88913,309,3667
116.35724,39.88913,310,3667
116.35752,39.88041,311,3667
116.35758,39.87836,312,3667
116.35234,39.87656,313,3667
116.35303,39.87655,314,3667
116.3579,39.86982,315,3667
116.35791,39.86932,316,3667
116.34295,39.86991,317,3667
116.34348,39.87405,318,3667
116.34447,39.86593,319,3667
116.34817,39.8666,320,3667
116.35828,39.8616,321,3667
116.3583,39.86108,322,3667
116.36439,39.85933,323,3667
116.36515,39.85934,324,3667
116.36498,39.84612,325,3667
116.36498,39.84612,326,3667
116.3623,39.84458,327,3667
116.35956,39.84458,328,3667
116.37787,39.85552,329,3667
116.37874,39.86227,330,3667
116.38016,39.86329,331,3667
116.39308,39.86738,332,3667
116.39325,39.86375,333,3667
116.39397,39.84813,334,3667
116.39408,39.8457,335,3667
116.39607,39.83014,336,3667
116.44879,39.83134,337,3667
116.45471,39.83201,338,3667
116.48203,39.8645,339,3667
116.48203,39.8645,340,3667
116.48338,39.86799,341,3667
116.53588,39.86803,342,3667
116.54269,39.86777,343,3667
116.57091,39.85618,344,3667
116.57179,39.85598,345,3667
116.61385,39.85434,346,3667
116.62434,39.86201,347,3667
116.62436,39.86203,348,3667
116.62436,39.86203,349,3667
116.65475,39.86564,350,3667
116.6551,39.86631,351,3667
116.65236,39.86531,352,3667
116.65236,39.86531,353,3667
116.65585,39.86525,354,3667
116.65585,39.86525,355,3667
116.65552,39.8636,356,3667
116.62664,39.86251,357,3667
116.62463,39.86236,358,3667
116.60324,39.85828,359,3667
116.5987,39.85802,360,3667
116.56896,39.86045,361,3667
116.56821,39.86366,362,3667
116.54018,39.86807,363,3667
116.53382,39.86831,364,3667
116.49437,39.86978,365,3667
116.48904,39.86992,366,3667
116.46777,39.87007,367,3667
116.46659,39.87008,368,3667
116.45538,39.87012,369,3667
116.45487,39.87012,370,3667
116.43958,39.87553,371,3667
116.4402,39.87847,372,3667
116.42418,39.88283,373,3667
116.41486,39.87217,374,3667
116.41265,39.87193,375,3667
116.40728,39.86743,376,3667
116.4073,39.86853,377,3667
116.38631,39.871,378,3667
116.38408,39.87014,379,3667
116.45556,39.89345,380,3667
116.45147,39.90717,381,3667
116.43392,39.9072,382,3667
116.42115,39.90714,383,3667
116.41162,39.90717,384,3667
116.40984,39.90564,385,3667
116.41595,39.90632,386,3667
116.41821,39.90672,387,3667
116.41438,39.90043,388,3667
116.40175,39.89947,389,3667
116.40344,39.89158,390,3667
116.3898,39.88936,391,3667
116.37996,39.88818,392,3667
116.3885,39.88899,393,3667
116.41196,39.89163,394,3667
116.41251,39.89165,395,3667
116.41837,39.89589,396,3667
116.42129,39.89576,397,3667
116.41305,39.89192,398,3667
116.40688,39.89171,399,3667
116.39499,39.8907,400,3667
116.39499,39.8907,401,3667
116.38712,39.88879,402,3667
116.36849,39.88797,403,3667
116.36805,39.88205,404,3667
116.36804,39.87129,405,3667
116.36802,39.86921,406,3667
116.36576,39.85863,407,3667
116.364,39.84935,408,3667
116.36079,39.8446,409,3667
116.35713,39.84459,410,3667
116.3504,39.84532,411,3667
116.35245,39.84536,412,3667
116.35865,39.84949,413,3667
116.35857,39.85861,414,3667
116.35821,39.86695,415,3667
116.35495,39.86746,416,3667
116.34272,39.88817,417,3667
116.34235,39.89656,418,3667
116.30501,39.89587,419,3667
116.28431,39.89586,420,3667
116.26925,39.91627,421,3667
116.26562,39.91894,422,3667
116.26568,39.91881,423,3667
116.26802,39.91891,424,3667
116.2685,39.9164,425,3667
116.26767,39.90672,426,3667
116.26767,39.9044,427,3667
116.25859,39.9025,428,3667
116.26195,39.89897,429,3667
116.26764,39.89108,430,3667
116.2697,39.87966,431,3667
116.2697,39.87966,432,3667
116.26856,39.8946,433,3667
116.28149,39.89567,434,3667
116.29748,39.89555,435,3667
116.30404,39.89142,436,3667
116.30353,39.88431,437,3667
116.30497,39.87639,438,3667
116.30618,39.86584,439,3667
116.31294,39.8663,440,3667
116.32563,39.8664,441,3667
116.32559,39.86495,442,3667
116.32662,39.86658,443,3667
116.33491,39.86766,444,3667
116.33757,39.87228,445,3667
116.34231,39.87615,446,3667
116.34681,39.87634,447,3667
116.35457,39.87662,448,3667
116.36828,39.88175,449,3667
116.36838,39.88721,450,3667
116.36983,39.8938,451,3667
116.36983,39.8938,452,3667
116.36866,39.89393,453,3667
116.36165,39.88712,454,3667
116.36025,39.88196,455,3667
116.35284,39.88811,456,3667
116.34274,39.89217,457,3667
116.3203,39.89593,458,3667
116.31098,39.89597,459,3667
116.3107,39.90925,460,3667
116.31334,39.90977,461,3667
116.3191,39.90604,462,3667
116.3228,39.90005,463,3667
116.3227,39.89291,464,3667
116.32269,39.89242,465,3667
116.32266,39.89245,466,3667
116.32266,39.89245,467,3667
116.32016,39.88907,468,3667
116.32016,39.88907,469,3667
116.3199,39.87855,470,3667
116.32045,39.87855,471,3667
116.34069,39.88811,472,3667
116.34174,39.8878,473,3667
116.34884,39.87239,474,3667
116.34964,39.87217,475,3667
116.36776,39.87714,476,3667
116.36776,39.87714,477,3667
116.36152,39.87243,478,3667
116.36165,39.87249,479,3667
116.36737,39.877,480,3667
116.36804,39.87031,481,3667
116.39312,39.86677,482,3667
116.39322,39.86426,483,3667
116.39438,39.84012,484,3667
116.3949,39.83097,485,3667
116.3956,39.81609,486,3667
116.39575,39.8124,487,3667
116.40474,39.80369,488,3667
116.40937,39.80383,489,3667
116.41282,39.79558,490,3667
116.41565,39.7849,491,3667
116.43888,39.76892,492,3667
116.4417,39.76456,493,3667
116.44803,39.7628,494,3667
116.44866,39.76433,495,3667
116.444,39.78164,496,3667
116.44584,39.79073,497,3667
116.43818,39.80384,498,3667
116.42869,39.80307,499,3667
116.422,39.80285,500,3667
116.42195,39.80282,501,3667
116.42195,39.80282,502,3667
116.43362,39.80338,503,3667
116.43506,39.80335,504,3667
116.44917,39.81198,505,3667
116.44937,39.81133,506,3667
116.42964,39.80313,507,3667
116.42792,39.80295,508,3667
116.42792,39.80295,509,3667
116.41003,39.80403,510,3667
116.41003,39.80403,511,3667
116.40812,39.80396,512,3667
116.38937,39.79571,513,3667
116.38952,39.79511,514,3667
116.39222,39.79439,515,3667
116.39137,39.79512,516,3667
116.39658,39.80418,517,3667
116.39654,39.80533,518,3667
116.39543,39.82705,519,3667
116.39533,39.82875,520,3667
116.39418,39.85095,521,3667
116.3941,39.85251,522,3667
116.385,39.87008,523,3667
116.38298,39.86999,524,3667
116.33743,39.86689,525,3667
116.33512,39.86689,526,3667
116.33022,39.88213,527,3667
116.33022,39.88292,528,3667
116.34125,39.88808,529,3667
116.34172,39.88782,530,3667
116.34172,39.88782,531,3667
116.3469,39.872,532,3667
116.34762,39.87202,533,3667
116.36121,39.87103,534,3667
116.36159,39.8712,535,3667
116.36154,39.87401,536,3667
116.36159,39.87409,537,3667
116.36159,39.87409,538,3667
116.36764,39.8771,539,3667
116.36833,39.88323,540,3667
116.37844,39.88799,541,3667
116.38814,39.88881,542,3667
116.41126,39.89151,543,3667
116.41441,39.89166,544,3667
116.43242,39.89235,545,3667
116.4353,39.89229,546,3667
116.45305,39.89216,547,3667
116.45422,39.89209,548,3667
116.455,39.89222,549,3667
116.455,39.89222,550,3667
116.45557,39.90103,551,3667
116.45894,39.90692,552,3667
116.48389,39.91089,553,3667
116.48393,39.92134,554,3667
116.48419,39.93216,555,3667
116.4857,39.93621,556,3667
116.48921,39.93841,557,3667
116.48911,39.93856,558,3667
116.49548,39.93841,559,3667
116.4958,39.93505,560,3667
116.4958,39.93505,561,3667
116.49592,39.924,562,3667
116.49478,39.92184,563,3667
116.48516,39.92186,564,3667
116.4832,39.92067,565,3667
116.49929,39.91458,566,3667
116.50497,39.91474,567,3667
116.52168,39.91586,568,3667
116.52361,39.91571,569,3667
116.30875,39.89595,570,3667
116.53783,39.91492,571,3667
116.54351,39.91472,572,3667
116.54864,39.91181,573,3667
116.54864,39.91181,574,3667
116.55207,39.91167,575,3667
116.5521,39.9121,576,3667
116.54863,39.91186,577,3667
116.54849,39.91182,578,3667
116.53026,39.90854,579,3667
116.52111,39.90846,580,3667
116.49499,39.90694,581,3667
116.49499,39.90694,582,3667
116.48342,39.90426,583,3667
116.48327,39.88542,584,3667
116.48297,39.87491,585,3667
116.47155,39.8782,586,3667
116.47137,39.88658,587,3667
116.47145,39.89151,588,3667
116.47149,39.89626,589,3667
116.47155,39.8977,590,3667
116.4716,39.89816,591,3667
116.47156,39.89884,592,3667
116.47156,39.89884,593,3667
116.47176,39.90376,594,3667
116.47182,39.90998,595,3667
116.46601,39.91221,596,3667
116.45828,39.91224,597,3667
116.45551,39.92093,598,3667
116.45574,39.93714,599,3667
116.44687,39.94,600,3667
116.44527,39.94,601,3667
116.43355,39.93986,602,3667
116.42761,39.94181,603,3667
116.4118,39.94804,604,3667
116.38701,39.94767,605,3667
116.37322,39.95635,606,3667
116.3698,39.95868,607,3667
116.37095,39.95803,608,3667
116.36727,39.95664,609,3667
116.36531,39.95003,610,3667
116.36594,39.94662,611,3667
116.36594,39.94662,612,3667
116.36362,39.93929,613,3667
116.36181,39.93206,614,3667
116.36115,39.9279,615,3667
116.35836,39.92123,616,3667
116.36273,39.91548,617,3667
116.36202,39.91503,618,3667
116.36754,39.91106,619,3667
116.35958,39.91212,620,3667
116.35848,39.91595,621,3667
116.35858,39.92191,622,3667
116.35876,39.92223,623,3667
116.34987,39.92869,624,3667
116.34795,39.93916,625,3667
116.32381,39.93737,626,3667
116.32489,39.93689,627,3667
116.32748,39.93155,628,3667
116.33244,39.93104,629,3667
116.33756,39.92797,630,3667
116.33782,39.92552,631,3667
116.33847,39.91968,632,3667
116.34035,39.91711,633,3667
116.35019,39.91271,634,3667
116.34972,39.90776,635,3667
116.35119,39.8975,636,3667
116.35716,39.89532,637,3667
116.34695,39.89032,638,3667
116.34711,39.8868,639,3667
116.34711,39.8868,640,3667
116.34753,39.87859,641,3667
116.34876,39.87651,642,3667
116.36448,39.87711,643,3667
116.36752,39.87709,644,3667
116.37553,39.88168,645,3667
116.37451,39.88176,646,3667
116.36974,39.88188,647,3667
116.36902,39.88189,648,3667
116.36226,39.88796,649,3667
116.35384,39.88815,650,3667
116.35051,39.8908,651,3667
116.35275,39.88458,652,3667
116.35295,39.87989,653,3667
116.35775,39.87528,654,3667
116.36154,39.87346,655,3667
116.36151,39.87691,656,3667
116.36151,39.87691,657,3667
116.35762,39.87682,658,3667
116.34416,39.87749,659,3667
116.34282,39.88856,660,3667
116.34262,39.89178,661,3667
116.35053,39.90253,662,3667
116.35061,39.91127,663,3667
116.35036,39.91676,664,3667
116.35001,39.92442,665,3667
116.34974,39.93113,666,3667
116.3497,39.94996,667,3667
116.34947,39.95101,668,3667
116.34868,39.95602,669,3667
116.34864,39.95486,670,3667
116.34908,39.95098,671,3667
116.34761,39.98507,672,3667
116.32853,39.98491,673,3667
116.30283,39.98421,674,3667
116.29974,39.9805,675,3667
116.29974,39.9805,676,3667
116.30046,39.97517,677,3667
116.3007,39.9692,678,3667
116.30088,39.96575,679,3667
116.30207,39.95763,680,3667
116.30311,39.95089,681,3667
116.30385,39.93859,682,3667
116.30399,39.92874,683,3667
116.304,39.91978,684,3667
116.30403,39.91061,685,3667
116.30403,39.90299,686,3667
116.30408,39.89813,687,3667
116.29604,39.89719,688,3667
116.29004,39.89613,689,3667
116.3041,39.89208,690,3667
116.29941,39.88874,691,3667
116.30421,39.88468,692,3667
116.30439,39.89281,693,3667
116.34336,39.89614,694,3667
116.34502,39.89673,695,3667
116.34966,39.89739,696,3667
116.35069,39.90001,697,3667
116.35046,39.90491,698,3667
116.35059,39.91607,699,3667
116.35061,39.91673,700,3667
116.35168,39.91261,701,3667
116.35168,39.91261,702,3667
116.34771,39.91259,703,3667
116.34089,39.91264,704,3667
116.33613,39.90614,705,3667
116.31874,39.90622,706,3667
116.31438,39.90627,707,3667
116.30656,39.90707,708,3667
116.30389,39.90283,709,3667
116.30397,39.89021,710,3667
116.29901,39.8812,711,3667
116.32236,39.86656,712,3667
116.35182,39.8669,713,3667
116.35182,39.8669,714,3667
116.35788,39.8675,715,3667
116.36158,39.87211,716,3667
116.36174,39.87219,717,3667
116.36174,39.87219,718,3667
116.3618,39.87286,719,3667
116.35881,39.86908,720,3667
116.34857,39.86828,721,3667
116.35368,39.86618,722,3667
116.35371,39.86573,723,3667
116.35819,39.86652,724,3667
116.35817,39.86772,725,3667
116.35817,39.87101,726,3667
116.36198,39.87448,727,3667
116.36501,39.87446,728,3667
116.36054,39.86914,729,3667
116.35793,39.87365,730,3667
116.35778,39.87558,731,3667
116.36841,39.88741,732,3667
116.36844,39.8912,733,3667
116.36812,39.89113,734,3667
116.3633,39.888,735,3667
116.35739,39.88935,736,3667
116.35547,39.89236,737,3667
116.35723,39.88909,738,3667
116.35723,39.88909,739,3667
116.35824,39.86277,740,3667
116.36132,39.85603,741,3667
116.36132,39.85603,742,3667
116.35835,39.8639,743,3667
116.35819,39.86721,744,3667
116.36031,39.87097,745,3667
116.35979,39.87694,746,3667
116.34721,39.88391,747,3667
116.34394,39.88288,748,3667
116.3442,39.88751,749,3667
116.33749,39.88851,750,3667
116.33536,39.88239,751,3667
116.33027,39.88154,752,3667
116.32004,39.88871,753,3667
116.30458,39.8836,754,3667
116.27804,39.87638,755,3667
116.2534,39.86592,756,3667
116.24695,39.8709,757,3667
116.24409,39.87106,758,3667
116.25358,39.87092,759,3667
116.25944,39.8796,760,3667
116.26988,39.87896,761,3667
116.27094,39.87834,762,3667
116.26933,39.88821,763,3667
116.28854,39.8883,764,3667
116.29748,39.88861,765,3667
116.30429,39.88367,766,3667
116.30435,39.89114,767,3667
116.32387,39.8957,768,3667
116.33288,39.8964,769,3667
116.32297,39.89821,770,3667
116.31941,39.89838,771,3667
116.31366,39.89844,772,3667
116.31366,39.89844,773,3667
116.31339,39.89851,774,3667
116.31323,39.89891,775,3667
116.31788,39.90606,776,3667
116.31893,39.90603,777,3667
116.33622,39.89737,778,3667
116.33622,39.89737,779,3667
116.34257,39.88212,780,3667
116.34267,39.87987,781,3667
116.34161,39.84878,782,3667
116.34458,39.8496,783,3667
116.35286,39.83686,784,3667
116.35286,39.83484,785,3667
116.33875,39.81371,786,3667
116.33885,39.81118,787,3667
116.33302,39.77796,788,3667
116.33072,39.77789,789,3667
116.31593,39.77176,790,3667
116.31594,39.77176,791,3667
116.3246,39.77451,792,3667
116.32442,39.77613,793,3667
116.32283,39.79718,794,3667
116.32426,39.79807,795,3667
116.33938,39.82165,796,3667
116.3408,39.85226,797,3667
116.34107,39.85473,798,3667
116.34107,39.85473,799,3667
116.34042,39.85181,800,3667
116.34042,39.85181,801,3667
116.34081,39.85096,802,3667
116.3533,39.86685,803,3667
116.35373,39.86605,804,3667
116.35857,39.87095,805,3667
116.35824,39.86545,806,3667
116.3581,39.86414,807,3667
116.35152,39.85526,808,3667
116.34799,39.85661,809,3667
116.3421,39.85776,810,3667
116.33805,39.84863,811,3667
116.32272,39.84792,812,3667
116.30577,39.87279,813,3667
116.30438,39.88943,814,3667
116.31412,39.89504,815,3667
116.31397,39.89541,816,3667
116.3151,39.88906,817,3667
116.33065,39.88847,818,3667
116.34234,39.8856,819,3667
116.34059,39.87478,820,3667
116.34065,39.88023,821,3667
116.33534,39.88879,822,3667
116.33413,39.88201,823,3667
116.33089,39.88127,824,3667
116.3303,39.88157,825,3667
116.32956,39.86703,826,3667
116.3064,39.8636,827,3667
116.30927,39.85678,828,3667
116.29603,39.86042,829,3667
116.29416,39.86032,830,3667
116.30811,39.86595,831,3667
116.30613,39.86976,832,3667
116.31498,39.8879,833,3667
116.3632,39.8744,834,3667
116.3616,39.87214,835,3667
116.36153,39.87588,836,3667
116.36895,39.86866,837,3667
116.39334,39.86118,838,3667
116.3937,39.85347,839,3667
116.3942,39.84395,840,3667
116.39444,39.83903,841,3667
116.39602,39.85547,842,3667
116.40779,39.85564,843,3667
116.42936,39.85725,844,3667
116.43778,39.85732,845,3667
116.43778,39.85732,846,3667
116.44067,39.83879,847,3667
116.44106,39.83136,848,3667
116.43757,39.81419,849,3667
116.42349,39.80245,850,3667
116.42141,39.80363,851,3667
116.422,39.80278,852,3667
116.4218,39.80288,853,3667
116.41992,39.80229,854,3667
116.4059,39.80393,855,3667
116.40059,39.80375,856,3667
116.39572,39.82154,857,3667
116.39571,39.82188,858,3667
116.39571,39.82188,859,3667
116.40244,39.8408,860,3667
116.4067,39.84091,861,3667
116.4067,39.84091,862,3667
116.40822,39.84844,863,3667
116.4082,39.85107,864,3667
116.41142,39.85549,865,3667
116.41507,39.85615,866,3667
116.3943,39.85584,867,3667
116.39333,39.85657,868,3667
116.39459,39.83592,869,3667
116.39459,39.83592,870,3667
116.39475,39.83369,871,3667
116.40369,39.8191,872,3667
116.4028,39.81716,873,3667
116.39578,39.8225,874,3667
116.39558,39.8268,875,3667
116.37706,39.83199,876,3667
116.37816,39.8327,877,3667
116.37822,39.83273,878,3667
116.37822,39.83273,879,3667
116.37775,39.83282,880,3667
116.37644,39.83206,881,3667
116.37272,39.83668,882,3667
116.37247,39.84094,883,3667
116.37345,39.84669,884,3667
116.37345,39.84669,885,3667
116.37345,39.84669,886,3667
116.37347,39.84668,887,3667
116.37347,39.84668,888,3667
116.37347,39.84668,889,3667
116.37362,39.84517,890,3667
116.36505,39.84406,891,3667
116.36522,39.84861,892,3667
116.36637,39.8594,893,3667
116.36822,39.86677,894,3667
116.36832,39.87684,895,3667
116.36841,39.87916,896,3667
116.36841,39.87916,897,3667
116.36476,39.87714,898,3667
116.36153,39.87209,899,3667
116.36142,39.87208,900,3667
116.36061,39.87203,901,3667
116.35791,39.87316,902,3667
116.35781,39.87562,903,3667
116.35781,39.87562,904,3667
116.34448,39.87624,905,3667
116.34554,39.87617,906,3667
116.34621,39.87619,907,3667
116.3477,39.87479,908,3667
116.34786,39.8738,909,3667
116.35634,39.86511,910,3667
116.35737,39.86514,911,3667
116.35752,39.86523,912,3667
116.3566,39.86738,913,3667
116.35731,39.86747,914,3667
116.35897,39.87096,915,3667
116.35912,39.87098,916,3667
116.36788,39.87049,917,3667
116.36776,39.86958,918,3667
116.34124,39.86731,919,3667
116.33396,39.82968,920,3667
116.33145,39.82956,921,3667
116.28122,39.83315,922,3667
116.28189,39.83191,923,3667
116.27762,39.83069,924,3667
116.27762,39.83069,925,3667
116.28476,39.83049,926,3667
116.2841,39.83107,927,3667
116.27861,39.84602,928,3667
116.27931,39.84627,929,3667
116.2997,39.85669,930,3667
116.31119,39.86622,931,3667
116.31174,39.86624,932,3667
116.33487,39.86656,933,3667
116.33597,39.86656,934,3667
116.35806,39.86517,935,3667
116.35389,39.8525,936,3667
116.35273,39.85218,937,3667
116.34628,39.86003,938,3667
116.3474,39.86018,939,3667
116.35724,39.86119,940,3667
116.36928,39.85569,941,3667
116.37195,39.85569,942,3667
116.39942,39.84587,943,3667
116.39942,39.84587,944,3667
116.39942,39.84587,945,3667
116.39413,39.85616,946,3667
116.39413,39.85616,947,3667
116.39451,39.85656,948,3667
116.38256,39.85553,949,3667
116.38375,39.85553,950,3667
116.39855,39.84747,951,3667
116.39919,39.84607,952,3667
116.39524,39.83537,953,3667
116.39512,39.83615,954,3667
116.39441,39.8594,955,3667
116.40304,39.87052,956,3667
116.40465,39.87056,957,3667
116.401,39.86263,958,3667
116.40123,39.86277,959,3667
116.40013,39.86379,960,3667
116.39876,39.86386,961,3667
116.38066,39.87067,962,3667
116.35844,39.86898,963,3667
116.35835,39.86897,964,3667
116.3924,39.87027,965,3667
116.39488,39.87035,966,3667
116.43913,39.87498,967,3667
116.43994,39.87657,968,3667
116.45476,39.87866,969,3667
116.43994,39.88169,970,3667
116.43999,39.88273,971,3667
116.41761,39.88265,972,3667
116.40456,39.87084,973,3667
116.40215,39.87077,974,3667
116.3449,39.8671,975,3667
116.34288,39.86684,976,3667
116.32715,39.85024,977,3667
116.32711,39.85041,978,3667
116.32715,39.85021,979,3667
116.34095,39.84719,980,3667
116.34204,39.84826,981,3667
116.34114,39.85541,982,3667
116.3423,39.85533,983,3667
116.34791,39.86657,984,3667
116.3653,39.8573,985,3667
116.36628,39.85933,986,3667
116.36685,39.86047,987,3667
116.36749,39.87621,988,3667
116.36749,39.87621,989,3667
116.36792,39.87455,990,3667
116.36575,39.87446,991,3667
116.37604,39.86923,992,3667
116.38081,39.86927,993,3667
116.38798,39.8563,994,3667
116.38733,39.85586,995,3667
116.38177,39.86569,996,3667
116.3817,39.87,997,3667
116.36223,39.87108,998,3667
116.3616,39.87223,999,3667
116.3616,39.87223,1000,3667
116.36171,39.87222,1001,3667
116.36171,39.87222,1002,3667
116.35778,39.87408,1003,3667
116.35193,39.86842,1004,3667
116.34807,39.86941,1005,3667
116.34785,39.86982,1006,3667
116.34785,39.86982,1007,3667
116.35477,39.87166,1008,3667
116.36157,39.87223,1009,3667
116.36789,39.87244,1010,3667
116.35855,39.86899,1011,3667
116.35831,39.86166,1012,3667
116.35863,39.85288,1013,3667
116.38062,39.85233,1014,3667
116.38497,39.84383,1015,3667
116.39421,39.84073,1016,3667
116.39491,39.83694,1017,3667
116.39414,39.85242,1018,3667
116.39364,39.86291,1019,3667
116.39529,39.87053,1020,3667
116.38981,39.86397,1021,3667
116.3845,39.86391,1022,3667
116.38418,39.86382,1023,3667
116.38385,39.86376,1024,3667
116.38168,39.86777,1025,3667
116.38166,39.86922,1026,3667
116.33874,39.86687,1027,3667
116.33632,39.86688,1028,3667
116.32943,39.88344,1029,3667
116.32865,39.88341,1030,3667
116.32998,39.87016,1031,3667
116.33005,39.86905,1032,3667
116.29714,39.86578,1033,3667
116.29714,39.86578,1034,3667
116.30334,39.86552,1035,3667
116.30338,39.86547,1036,3667
116.32495,39.86658,1037,3667
116.32495,39.86658,1038,3667
116.34795,39.86901,1039,3667
116.3479,39.86994,1040,3667
116.35778,39.87442,1041,3667
116.35781,39.87343,1042,3667
116.36564,39.86866,1043,3667
116.42451,39.89545,1044,3667
116.42169,39.8923,1045,3667
116.41435,39.8831,1046,3667
116.41484,39.87226,1047,3667
116.39755,39.87154,1048,3667
116.38347,39.87084,1049,3667
116.3686,39.86966,1050,3667
116.35831,39.86902,1051,3667
116.34803,39.86681,1052,3667
116.34836,39.86155,1053,3667
116.34453,39.85763,1054,3667
116.3417,39.86032,1055,3667
116.34108,39.86042,1056,3667
116.34108,39.86042,1057,3667
116.34389,39.86577,1058,3667
116.34638,39.86652,1059,3667
116.34797,39.87636,1060,3667
116.35282,39.87661,1061,3667
116.35276,39.88034,1062,3667
116.35299,39.87872,1063,3667
116.35799,39.87113,1064,3667
116.35895,39.87095,1065,3667
116.3605,39.87192,1066,3667
116.3605,39.87192,1067,3667
116.3605,39.87192,1068,3667
116.35775,39.87695,1069,3667
116.35747,39.88552,1070,3667
116.35756,39.8868,1071,3667
116.3534,39.88812,1072,3667
116.35304,39.88813,1073,3667
116.34247,39.87077,1074,3667
116.341,39.86759,1075,3667
116.34106,39.8576,1076,3667
116.34171,39.85779,1077,3667
116.35367,39.86532,1078,3667
116.35367,39.86531,1079,3667
116.35796,39.87096,1080,3667
116.35794,39.87127,1081,3667
116.35773,39.87445,1082,3667
116.35773,39.87445,1083,3667
116.35745,39.88497,1084,3667
116.35747,39.8852,1085,3667
116.36808,39.8824,1086,3667
116.36808,39.88232,1087,3667
116.36809,39.86929,1088,3667
116.3681,39.869,1089,3667
116.41328,39.86965,1090,3667
116.41394,39.86968,1091,3667
116.42466,39.8569,1092,3667
116.42466,39.8569,1093,3667
116.42478,39.85698,1094,3667
116.42478,39.85698,1095,3667
116.41444,39.86989,1096,3667
116.41366,39.86985,1097,3667
116.37088,39.86978,1098,3667
116.3704,39.86976,1099,3667
116.35768,39.86503,1100,3667
116.35768,39.86503,1101,3667
116.35768,39.86503,1102,3667
116.35798,39.86529,1103,3667
116.35815,39.87099,1104,3667
116.36167,39.8719,1105,3667
116.36167,39.8719,1106,3667
116.36216,39.87445,1107,3667
116.36779,39.87443,1108,3667
116.3586,39.87098,1109,3667
116.35889,39.871,1110,3667
116.35794,39.87024,1111,3667
116.35791,39.86993,1112,3667
116.35796,39.86753,1113,3667
116.38317,39.83838,1114,3667
116.38317,39.83838,1115,3667
116.40857,39.87075,1116,3667
116.4359,39.8627,1117,3667
116.43787,39.86368,1118,3667
116.43488,39.86266,1119,3667
116.43238,39.86275,1120,3667
116.4326,39.85266,1121,3667
116.43276,39.85085,1122,3667
116.43276,39.85085,1123,3667
116.43249,39.85688,1124,3667
116.42723,39.8575,1125,3667
116.3962,39.85573,1126,3667
116.37929,39.85581,1127,3667
116.38051,39.85673,1128,3667
116.38067,39.85385,1129,3667
116.3808,39.85378,1130,3667
116.3805,39.84794,1131,3667
116.37061,39.8517,1132,3667
116.37061,39.8517,1133,3667
116.37065,39.85212,1134,3667
116.36726,39.86163,1135,3667
116.36279,39.86417,1136,3667
116.35819,39.86673,1137,3667
116.36086,39.86895,1138,3667
116.34293,39.87532,1139,3667
116.34293,39.87532,1140,3667
116.34202,39.86849,1141,3667
116.34762,39.86018,1142,3667
116.35766,39.86517,1143,3667
116.35762,39.86748,1144,3667
116.35514,39.86863,1145,3667
116.3483,39.86126,1146,3667
116.34336,39.85956,1147,3667
116.34783,39.86657,1148,3667
116.35371,39.86586,1149,3667
116.35767,39.86511,1150,3667
116.35718,39.86525,1151,3667
116.35403,39.867,1152,3667
116.33174,39.86686,1153,3667
116.3164,39.86691,1154,3667
116.30923,39.873,1155,3667
116.30937,39.87302,1156,3667
116.3105,39.87363,1157,3667
116.33,39.86992,1158,3667
116.32963,39.86728,1159,3667
116.35674,39.86519,1160,3667
116.35776,39.86523,1161,3667
116.35775,39.86529,1162,3667
116.35781,39.86522,1163,3667
116.36802,39.86878,1164,3667
116.37876,39.86229,1165,3667
116.37725,39.85633,1166,3667
116.35555,39.85292,1167,3667
116.35845,39.85839,1168,3667
116.36056,39.84934,1169,3667
116.36079,39.84595,1170,3667
116.3653,39.85193,1171,3667
116.36789,39.86426,1172,3667
116.36831,39.87695,1173,3667
116.36857,39.88763,1174,3667
116.38531,39.88848,1175,3667
116.38051,39.88819,1176,3667
116.37934,39.8819,1177,3667
116.38145,39.87307,1178,3667
116.38054,39.8562,1179,3667
116.38071,39.84931,1180,3667
116.38053,39.83846,1181,3667
116.37889,39.8348,1182,3667
116.38022,39.84259,1183,3667
116.38071,39.85345,1184,3667
116.38066,39.86037,1185,3667
116.38158,39.86936,1186,3667
116.38069,39.8587,1187,3667
116.38167,39.86979,1188,3667
116.38167,39.86979,1189,3667
116.38029,39.88202,1190,3667
116.37852,39.89055,1191,3667
116.37666,39.90602,1192,3667
116.37572,39.9186,1193,3667
116.37393,39.92537,1194,3667
116.37404,39.92138,1195,3667
116.37805,39.9211,1196,3667
116.38993,39.92184,1197,3667
116.40454,39.92508,1198,3667
116.40267,39.93168,1199,3667
116.40226,39.942,1200,3667
116.40225,39.94714,1201,3667
116.41704,39.9479,1202,3667
116.41818,39.94833,1203,3667
116.39409,39.94771,1204,3667
116.37466,39.94996,1205,3667
116.38178,39.95005,1206,3667
116.4104,39.94408,1207,3667
116.41065,39.93836,1208,3667
116.41116,39.92486,1209,3667
116.41149,39.91639,1210,3667
116.41213,39.90105,1211,3667
116.41252,39.89564,1212,3667
116.41252,39.89564,1213,3667
116.41442,39.88316,1214,3667
116.41474,39.87765,1215,3667
116.41587,39.85649,1216,3667
116.42622,39.85593,1217,3667
116.42737,39.84631,1218,3667
116.4274,39.84818,1219,3667
116.4282,39.85717,1220,3667
116.42565,39.85987,1221,3667
116.41585,39.85853,1222,3667
116.42095,39.86985,1223,3667
116.4079,39.92293,1224,3667
116.4079,39.92293,1225,3667
116.41917,39.92294,1226,3667
116.43417,39.92279,1227,3667
116.4437,39.92153,1228,3667
116.44454,39.92155,1229,3667
116.44412,39.91378,1230,3667
116.45465,39.90409,1231,3667
116.43963,39.90236,1232,3667
116.43693,39.89108,1233,3667
116.43969,39.87638,1234,3667
116.43104,39.86462,1235,3667
116.42172,39.86441,1236,3667
116.42174,39.85926,1237,3667
116.41618,39.85642,1238,3667
116.40448,39.85591,1239,3667
116.39377,39.86298,1240,3667
116.36138,39.87695,1241,3667
116.36151,39.87253,1242,3667
116.36164,39.87267,1243,3667
116.36164,39.87267,1244,3667
116.36171,39.87235,1245,3667
116.36161,39.87208,1246,3667
116.36737,39.876,1247,3667
116.36707,39.87449,1248,3667
116.36601,39.87459,1249,3667
116.36323,39.87456,1250,3667
116.36323,39.87456,1251,3667
116.36323,39.87456,1252,3667
116.36323,39.87456,1253,3667
116.36323,39.87456,1254,3667
116.36323,39.87456,1255,3667
116.36323,39.87456,1256,3667
116.36323,39.87456,1257,3667
116.36323,39.87456,1258,3667
116.36323,39.87456,1259,3667
116.36319,39.87535,1260,3667
116.36319,39.87535,1261,3667
116.36319,39.87535,1262,3667
116.36319,39.87535,1263,3667
116.36319,39.87535,1264,3667
116.36319,39.87535,1265,3667
116.36319,39.87535,1266,3667
116.36319,39.87535,1267,3667
116.36319,39.87535,1268,3667
116.36319,39.87535,1269,3667
116.36319,39.87535,1270,3667
116.36704,39.87576,1271,3667
116.36844,39.8875,1272,3667
116.36844,39.8875,1273,3667
116.37071,39.89825,1274,3667
116.37168,39.89842,1275,3667
116.39036,39.89862,1276,3667
116.39226,39.89869,1277,3667
116.41175,39.89961,1278,3667
116.41175,39.89961,1279,3667
116.42083,39.89921,1280,3667
116.42083,39.89921,1281,3667
116.42851,39.91998,1282,3667
116.42842,39.92208,1283,3667
116.4415,39.95016,1284,3667
116.44352,39.95199,1285,3667
116.49133,39.99517,1286,3667
116.49413,39.99771,1287,3667
116.56079,40.03226,1288,3667
116.56471,40.03416,1289,3667
116.58271,40.07602,1290,3667
116.58394,40.07765,1291,3667
116.58122,40.09702,1292,3667
116.58096,40.09868,1293,3667
116.60572,40.11652,1294,3667
116.60572,40.11652,1295,3667
116.65208,40.11574,1296,3667
116.65206,40.11594,1297,3667
116.65206,40.11594,1298,3667
116.65104,40.13112,1299,3667
116.6511,40.13189,1300,3667
116.64799,40.13236,1301,3667
116.65141,40.12174,1302,3667
116.65141,40.12166,1303,3667
116.61131,40.11659,1304,3667
116.60861,40.11663,1305,3667
116.58242,40.11698,1306,3667
116.58242,40.11698,1307,3667
116.57933,40.08818,1308,3667
116.57685,40.08798,1309,3667
116.58276,40.07549,1310,3667
116.58239,40.07385,1311,3667
116.58804,40.05396,1312,3667
116.58804,40.05396,1313,3667
116.57405,40.03935,1314,3667
116.57211,40.0371,1315,3667
116.53882,40.02285,1316,3667
116.53669,40.02208,1317,3667
116.50132,40.00341,1318,3667
116.49948,40.00173,1319,3667
116.47561,39.98222,1320,3667
116.45728,39.97527,1321,3667
116.45719,39.9747,1322,3667
116.43667,39.97057,1323,3667
116.43578,39.96953,1324,3667
116.41329,39.96777,1325,3667
116.41492,39.96769,1326,3667
116.40356,39.95774,1327,3667
116.40356,39.95774,1328,3667
116.40188,39.94929,1329,3667
116.40189,39.94845,1330,3667
116.40203,39.94461,1331,3667
116.40203,39.94461,1332,3667
116.40208,39.94323,1333,3667
116.39951,39.93206,1334,3667
116.3978,39.93208,1335,3667
116.38479,39.92119,1336,3667
116.38479,39.92119,1337,3667
116.38542,39.90057,1338,3667
116.38548,39.89943,1339,3667
116.3631,39.89827,1340,3667
116.36131,39.89824,1341,3667
116.31852,39.89595,1342,3667
116.31638,39.89599,1343,3667
116.32239,39.89906,1344,3667
116.32277,39.89886,1345,3667
116.34253,39.88528,1346,3667
116.34256,39.88331,1347,3667
116.35766,39.86508,1348,3667
116.35766,39.86507,1349,3667
116.35766,39.86507,1350,3667
116.35824,39.86734,1351,3667
116.35824,39.86734,1352,3667
116.36419,39.86834,1353,3667
116.36825,39.87695,1354,3667
116.36825,39.87695,1355,3667
116.36837,39.89019,1356,3667
116.36834,39.89311,1357,3667
116.36826,39.89785,1358,3667
116.36813,39.9007,1359,3667
116.36766,39.91259,1360,3667
116.3675,39.91647,1361,3667
116.37089,39.92746,1362,3667
116.3709,39.92699,1363,3667
116.36742,39.9171,1364,3667
116.36751,39.91509,1365,3667
116.36714,39.90373,1366,3667
116.3661,39.90559,1367,3667
116.38961,39.90606,1368,3667
116.3927,39.90616,1369,3667
116.40987,39.90591,1370,3667
116.40734,39.90427,1371,3667
116.40597,39.89298,1372,3667
116.40186,39.89145,1373,3667
116.39234,39.88548,1374,3667
116.39236,39.88487,1375,3667
116.39048,39.87117,1376,3667
116.38976,39.87111,1377,3667
116.34806,39.86715,1378,3667
116.33968,39.8668,1379,3667
116.31043,39.86644,1380,3667
116.3017,39.86589,1381,3667
116.2879,39.86333,1382,3667
116.2878,39.85868,1383,3667
116.30256,39.86566,1384,3667
116.30669,39.86277,1385,3667
116.31631,39.84478,1386,3667
116.31631,39.84478,1387,3667
116.3265,39.84743,1388,3667
116.3272,39.84742,1389,3667
116.34118,39.8546,1390,3667
116.34182,39.85923,1391,3667
116.35842,39.85772,1392,3667
116.35865,39.8532,1393,3667
116.36512,39.84563,1394,3667
116.3657,39.8493,1395,3667
116.3657,39.8493,1396,3667
116.37264,39.84265,1397,3667
116.37245,39.83906,1398,3667
116.37285,39.83084,1399,3667
116.36752,39.83013,1400,3667
116.33998,39.84474,1401,3667
116.34187,39.84929,1402,3667
116.31197,39.8558,1403,3667
116.31197,39.8558,1404,3667
116.31294,39.85679,1405,3667
116.32315,39.86655,1406,3667
116.3252,39.86657,1407,3667
116.34541,39.86628,1408,3667
116.34721,39.86654,1409,3667
116.35472,39.86706,1410,3667
116.35472,39.86706,1411,3667
116.35957,39.87097,1412,3667
116.36044,39.871,1413,3667
116.36755,39.87714,1414,3667
116.3683,39.87911,1415,3667
116.3684,39.89635,1416,3667
116.3684,39.89756,1417,3667
116.38554,39.89919,1418,3667
116.38602,39.90048,1419,3667
116.3777,39.8988,1420,3667
116.37539,39.89873,1421,3667
116.34238,39.89307,1422,3667
116.3425,39.88902,1423,3667
116.33959,39.84178,1424,3667
116.33954,39.83724,1425,3667
116.33632,39.81276,1426,3667
116.33631,39.81152,1427,3667
116.33342,39.82182,1428,3667
116.33247,39.82182,1429,3667
116.33942,39.82179,1430,3667
116.33942,39.82179,1431,3667
116.33942,39.82179,1432,3667
116.33942,39.82179,1433,3667
116.33942,39.82179,1434,3667
116.33942,39.82179,1435,3667
116.33942,39.82179,1436,3667
116.33942,39.82179,1437,3667
116.33942,39.82179,1438,3667
116.33942,39.82179,1439,3667
116.16816,39.65136,1440,3667
116.33942,39.82179,1441,3667
116.33942,39.82179,1442,3667
116.33942,39.82179,1443,3667
116.33942,39.82179,1444,3667
116.34005,39.83672,1445,3667
116.34005,39.83672,1446,3667
116.34004,39.83914,1447,3667
116.3394,39.84047,1448,3667
116.3394,39.83806,1449,3667
116.33861,39.82106,1450,3667
116.33846,39.81852,1451,3667
116.34195,39.78847,1452,3667
116.34136,39.78621,1453,3667
116.3351,39.77479,1454,3667
116.3351,39.77479,1455,3667
116.34259,39.78869,1456,3667
116.34261,39.78898,1457,3667
116.33911,39.81952,1458,3667
116.33926,39.82089,1459,3667
116.34005,39.83272,1460,3667
116.34004,39.83489,1461,3667
116.34017,39.86684,1462,3667
116.33573,39.8669,1463,3667
116.3358,39.87181,1464,3667
116.3358,39.87181,1465,3667
116.32997,39.8709,1466,3667
116.33009,39.86902,1467,3667
116.33987,39.84612,1468,3667
116.33959,39.84239,1469,3667
116.33941,39.82182,1470,3667
116.33974,39.82415,1471,3667
116.34095,39.83774,1472,3667
116.34067,39.83727,1473,3667
116.34169,39.85872,1474,3667
116.3432,39.85958,1475,3667
116.35679,39.86528,1476,3667
116.35737,39.86525,1477,3667
116.35742,39.86523,1478,3667
116.3579,39.86529,1479,3667
116.35807,39.86966,1480,3667
116.3616,39.87239,1481,3667
116.36422,39.87708,1482,3667
116.36844,39.88648,1483,3667
116.37837,39.88812,1484,3667
116.38105,39.89108,1485,3667
116.38445,39.89225,1486,3667
116.38413,39.88852,1487,3667
116.37857,39.88813,1488,3667
116.37857,39.88813,1489,3667
116.37872,39.88262,1490,3667
116.37956,39.86915,1491,3667
116.36575,39.8745,1492,3667
116.3658,39.86944,1493,3667
116.36033,39.87103,1494,3667
116.35796,39.86913,1495,3667
116.35843,39.859,1496,3667
116.35913,39.85353,1497,3667
116.36337,39.85346,1498,3667
116.36499,39.84986,1499,3667
116.35856,39.85847,1500,3667
116.35828,39.86493,1501,3667
116.35799,39.87446,1502,3667
116.36619,39.8745,1503,3667
116.36831,39.88389,1504,3667
116.36835,39.89049,1505,3667
116.3738,39.89837,1506,3667
116.3738,39.89837,1507,3667
116.37814,39.89546,1508,3667
116.37838,39.88801,1509,3667
116.38115,39.88075,1510,3667
116.3852,39.86985,1511,3667
116.39326,39.86374,1512,3667
116.39411,39.85662,1513,3667
116.39441,39.86092,1514,3667
116.39411,39.86404,1515,3667
116.3942,39.86451,1516,3667
116.41371,39.86972,1517,3667
116.41521,39.8706,1518,3667
116.41249,39.89491,1519,3667
116.41244,39.89682,1520,3667
116.41921,39.90353,1521,3667
116.42278,39.9036,1522,3667
116.43037,39.8987,1523,3667
116.43037,39.8987,1524,3667
116.43086,39.89634,1525,3667
116.42469,39.89618,1526,3667
116.42469,39.89618,1527,3667
116.41252,39.89074,1528,3667
116.4127,39.88701,1529,3667
116.41477,39.87322,1530,3667
116.40821,39.87181,1531,3667
116.40054,39.86765,1532,3667
116.3976,39.8682,1533,3667
116.39372,39.85336,1534,3667
116.39398,39.84795,1535,3667
116.3952,39.8229,1536,3667
116.39549,39.81703,1537,3667
116.39642,39.80321,1538,3667
116.39642,39.80321,1539,3667
116.39643,39.80768,1540,3667
116.39575,39.82164,1541,3667
116.39535,39.82873,1542,3667
116.4084,39.84095,1543,3667
116.40859,39.8442,1544,3667
116.40801,39.84448,1545,3667
116.40825,39.84451,1546,3667
116.42066,39.88605,1547,3667
116.41377,39.88561,1548,3667
116.36155,39.87148,1549,3667
116.36155,39.87148,1550,3667
116.36146,39.87159,1551,3667
116.36146,39.87159,1552,3667
116.35815,39.87103,1553,3667
116.35835,39.85927,1554,3667
116.35534,39.85577,1555,3667
116.35534,39.85577,1556,3667
116.35534,39.85577,1557,3667
116.35534,39.85577,1558,3667
116.35534,39.85577,1559,3667
116.35534,39.85577,1560,3667
116.35534,39.85577,1561,3667
116.35534,39.85577,1562,3667
116.35534,39.85577,1563,3667
116.35534,39.85577,1564,3667
116.35534,39.85577,1565,3667
116.34977,39.85154,1566,3667
116.34791,39.85085,1567,3667
116.3592,39.85358,1568,3667
116.36095,39.85411,1569,3667
116.39369,39.85312,1570,3667
116.39369,39.85312,1571,3667
116.39353,39.86569,1572,3667
116.39346,39.86715,1573,3667
116.36315,39.8686,1574,3667
116.36121,39.86844,1575,3667
116.35766,39.8646,1576,3667
116.35764,39.86463,1577,3667
116.35829,39.86423,1578,3667
116.3581,39.86733,1579,3667
116.36045,39.87183,1580,3667
116.36105,39.87206,1581,3667
116.35794,39.87023,1582,3667
116.35794,39.87023,1583,3667
116.35793,39.86971,1584,3667
116.35818,39.86759,1585,3667
116.35368,39.86545,1586,3667
116.3547,39.86707,1587,3667
116.3547,39.86707,1588,3667
116.35707,39.86521,1589,3667
116.35666,39.86523,1590,3667
116.35695,39.8676,1591,3667
116.34596,39.86724,1592,3667
116.32582,39.86688,1593,3667
116.31826,39.86689,1594,3667
116.30545,39.87701,1595,3667
116.30539,39.87959,1596,3667
116.30674,39.87995,1597,3667
116.30674,39.87995,1598,3667
116.30669,39.87988,1599,3667
116.30669,39.87988,1600,3667
116.30669,39.87988,1601,3667
116.30669,39.87988,1602,3667
116.30669,39.87988,1603,3667
116.30669,39.87988,1604,3667
116.30669,39.87988,1605,3667
116.30669,39.87988,1606,3667
116.30669,39.87988,1607,3667
116.30669,39.87988,1608,3667
116.30475,39.87843,1609,3667
116.30488,39.87723,1610,3667
116.30488,39.87723,1611,3667
116.32452,39.86672,1612,3667
116.32452,39.86672,1613,3667
116.32639,39.86671,1614,3667
116.34374,39.8669,1615,3667
116.34356,39.86817,1616,3667
116.35551,39.87981,1617,3667
116.35667,39.87974,1618,3667
116.35632,39.87882,1619,3667
116.35781,39.87253,1620,3667
116.35796,39.86763,1621,3667
116.3574,39.86512,1622,3667
116.3574,39.86512,1623,3667
116.35742,39.86546,1624,3667
116.35289,39.86768,1625,3667
116.34209,39.86683,1626,3667
116.32233,39.8669,1627,3667
116.31279,39.86664,1628,3667
116.30675,39.87986,1629,3667
116.30675,39.87986,1630,3667
116.30675,39.87986,1631,3667
116.30675,39.87986,1632,3667
116.30675,39.87986,1633,3667
116.30675,39.87986,1634,3667
116.30675,39.87986,1635,3667
116.30675,39.87986,1636,3667
116.30675,39.87986,1637,3667
116.30675,39.87986,1638,3667
116.30675,39.87986,1639,3667
116.30675,39.87986,1640,3667
116.30675,39.87986,1641,3667
116.30675,39.87986,1642,3667
116.30675,39.87986,1643,3667
116.30675,39.87986,1644,3667
116.30675,39.87986,1645,3667
116.30675,39.87986,1646,3667
116.30575,39.87024,1647,3667
116.32607,39.86663,1648,3667
116.33042,39.86665,1649,3667
116.35706,39.86737,1650,3667
116.35848,39.87096,1651,3667
116.36164,39.87126,1652,3667
116.36153,39.87437,1653,3667
116.36053,39.87207,1654,3667
116.36054,39.87671,1655,3667
116.35717,39.87881,1656,3667
116.35717,39.87881,1657,3667
116.35693,39.87847,1658,3667
116.35693,39.87847,1659,3667
116.35693,39.87847,1660,3667
116.35693,39.87847,1661,3667
116.35693,39.87847,1662,3667
116.35693,39.87847,1663,3667
116.35693,39.87847,1664,3667
