x,y,k,tid
116.4102,39.91107,0,3729
116.4102,39.91107,1,3729
116.4102,39.91107,2,3729
116.40989,39.91098,3,3729
116.40989,39.91098,4,3729
116.40989,39.91098,5,3729
116.40989,39.91098,6,3729
116.40989,39.91098,7,3729
116.40991,39.91139,8,3729
116.40871,39.91148,9,3729
116.4077,39.91161,10,3729
116.41702,39.91391,11,3729
116.43096,39.94336,12,3729
116.43115,39.95489,13,3729
116.43123,39.95547,14,3729
116.43123,39.95547,15,3729
116.43123,39.95547,16,3729
116.43123,39.95547,17,3729
116.43123,39.95547,18,3729
116.43123,39.95547,19,3729
116.43123,39.95547,20,3729
116.43123,39.95547,21,3729
116.43123,39.95547,22,3729
116.43123,39.95547,23,3729
116.43123,39.95547,24,3729
116.43123,39.95547,25,3729
116.43123,39.95547,26,3729
116.43123,39.95547,27,3729
116.43142,39.95531,28,3729
116.43142,39.95531,29,3729
116.43142,39.95531,30,3729
116.43142,39.95531,31,3729
116.43142,39.95531,32,3729
116.43142,39.95531,33,3729
116.43142,39.95531,34,3729
116.43142,39.95531,35,3729
116.43132,39.95523,36,3729
116.4283,39.95534,37,3729
116.42903,39.95839,38,3729
116.43614,39.96412,39,3729
116.4555,39.94995,40,3729
116.45546,39.94216,41,3729
116.45543,39.90782,42,3729
116.45527,39.89869,43,3729
116.45461,39.8778,44,3729
116.45523,39.87551,45,3729
116.4554,39.89035,46,3729
116.45575,39.93449,47,3729
116.45574,39.94329,48,3729
116.45635,39.96352,49,3729
116.45103,39.97841,50,3729
116.45273,39.98348,51,3729
116.46301,39.98449,52,3729
116.47437,39.97727,53,3729
116.47718,39.97528,54,3729
116.48232,39.97193,55,3729
116.48483,39.97535,56,3729
116.48367,39.97118,57,3729
116.50057,39.97091,58,3729
116.50057,39.97091,59,3729
116.49885,39.97093,60,3729
116.50049,39.9707,61,3729
116.49762,39.97058,62,3729
116.47584,39.97328,63,3729
116.46915,39.96718,64,3729
116.46419,39.96324,65,3729
116.45081,39.95545,66,3729
116.43919,39.96257,67,3729
116.43611,39.96471,68,3729
116.43611,39.96471,69,3729
116.43027,39.96761,70,3729
116.43752,39.96317,71,3729
116.43739,39.95857,72,3729
116.43192,39.96097,73,3729
116.4292,39.95913,74,3729
116.431,39.95328,75,3729
116.43112,39.95495,76,3729
116.43096,39.95503,77,3729
116.43096,39.95503,78,3729
116.43096,39.95503,79,3729
116.4321,39.95552,80,3729
116.43277,39.9581,81,3729
116.43277,39.95821,82,3729
116.43277,39.95821,83,3729
116.43111,39.95495,84,3729
116.43097,39.95507,85,3729
116.43105,39.95516,86,3729
116.43105,39.95516,87,3729
116.43508,39.94723,88,3729
116.4548,39.9477,89,3729
116.45521,39.94746,90,3729
116.46293,39.94166,91,3729
116.46293,39.94166,92,3729
116.4685,39.94462,93,3729
116.46156,39.94297,94,3729
116.45639,39.94799,95,3729
116.45644,39.94789,96,3729
116.46795,39.94376,97,3729
116.47213,39.92999,98,3729
116.47432,39.92999,99,3729
116.48156,39.93218,100,3729
116.48744,39.92159,101,3729
116.49294,39.92167,102,3729
116.51118,39.92188,103,3729
116.54651,39.92258,104,3729
116.55026,39.92273,105,3729
116.5613,39.92165,106,3729
116.57368,39.9235,107,3729
116.56761,39.92321,108,3729
116.54032,39.92269,109,3729
116.51415,39.92244,110,3729
116.50895,39.92219,111,3729
116.49604,39.9236,112,3729
116.49614,39.93241,113,3729
116.48258,39.9326,114,3729
116.45848,39.93261,115,3729
116.45621,39.93331,116,3729
116.44432,39.94531,117,3729
116.43283,39.946,118,3729
116.43236,39.94555,119,3729
116.43909,39.94512,120,3729
116.43747,39.93267,121,3729
116.43742,39.93239,122,3729
116.43678,39.92558,123,3729
116.42761,39.9433,124,3729
116.42604,39.94808,125,3729
116.37872,39.94758,126,3729
116.34895,39.95882,127,3729
116.3486,39.9658,128,3729
116.34204,39.9753,129,3729
116.35486,39.96613,130,3729
116.35888,39.96614,131,3729
116.36162,39.96615,132,3729
116.36162,39.96615,133,3729
116.38437,39.96673,134,3729
116.38981,39.96692,135,3729
116.40568,39.96727,136,3729
116.4134,39.96752,137,3729
116.4134,39.96752,138,3729
116.43694,39.96339,139,3729
116.43699,39.96321,140,3729
116.43705,39.96321,141,3729
116.45544,39.93817,142,3729
116.46902,39.93222,143,3729
116.4695,39.93088,144,3729
116.4696,39.93207,145,3729
116.48427,39.9421,146,3729
116.48431,39.94683,147,3729
116.48745,39.96122,148,3729
116.48775,39.96135,149,3729
116.48775,39.96135,150,3729
116.48775,39.96135,151,3729
116.48775,39.96135,152,3729
116.48775,39.96135,153,3729
116.48775,39.96135,154,3729
116.48775,39.96135,155,3729
116.48775,39.96135,156,3729
116.48775,39.96135,157,3729
116.48775,39.96135,158,3729
116.48775,39.96135,159,3729
116.48775,39.96135,160,3729
116.48775,39.96135,161,3729
116.48775,39.96135,162,3729
116.48775,39.96135,163,3729
116.48775,39.96135,164,3729
116.48775,39.96135,165,3729
116.48775,39.96135,166,3729
116.48775,39.96135,167,3729
116.48775,39.96135,168,3729
116.48768,39.96135,169,3729
116.48768,39.96135,170,3729
116.48706,39.96003,171,3729
116.48123,39.95747,172,3729
116.46927,39.96658,173,3729
116.43988,39.95544,174,3729
116.43442,39.9537,175,3729
116.43118,39.95504,176,3729
116.43123,39.95499,177,3729
116.43123,39.95499,178,3729
116.43123,39.95499,179,3729
116.43123,39.95499,180,3729
116.43123,39.95499,181,3729
116.43123,39.95499,182,3729
116.42861,39.95673,183,3729
116.42871,39.95698,184,3729
116.43013,39.95864,185,3729
116.42934,39.95902,186,3729
116.42925,39.95903,187,3729
116.42925,39.95903,188,3729
116.42925,39.95903,189,3729
116.42925,39.95903,190,3729
116.42925,39.95903,191,3729
116.42925,39.95903,192,3729
116.42925,39.95903,193,3729
116.42925,39.95903,194,3729
116.42925,39.95903,195,3729
116.42925,39.95903,196,3729
116.42925,39.95903,197,3729
116.42933,39.95912,198,3729
116.44362,39.9637,199,3729
116.44368,39.96385,200,3729
116.44242,39.9634,201,3729
116.44496,39.95827,202,3729
116.44476,39.95789,203,3729
116.44564,39.95738,204,3729
116.46295,39.96955,205,3729
116.49284,39.99656,206,3729
116.57893,40.04653,207,3729
116.58336,40.06208,208,3729
116.58585,40.07685,209,3729
116.58104,40.07919,210,3729
116.58254,40.06935,211,3729
116.58563,40.06801,212,3729
116.58569,40.06727,213,3729
116.58569,40.06727,214,3729
116.58569,40.06727,215,3729
116.58569,40.06727,216,3729
116.58569,40.06727,217,3729
116.58569,40.06727,218,3729
116.58569,40.06727,219,3729
116.58569,40.06727,220,3729
116.58569,40.06727,221,3729
116.58569,40.06727,222,3729
116.58569,40.06727,223,3729
116.58569,40.06727,224,3729
116.58569,40.06727,225,3729
116.58569,40.06727,226,3729
116.58569,40.06727,227,3729
116.58569,40.06727,228,3729
116.58677,40.06116,229,3729
116.58044,40.04693,230,3729
116.56724,40.03306,231,3729
116.55331,40.02805,232,3729
116.51669,40.01501,233,3729
116.49951,40.00177,234,3729
116.48838,39.99177,235,3729
116.48346,39.9754,236,3729
116.48461,39.96457,237,3729
116.48575,39.95876,238,3729
116.48358,39.93624,239,3729
116.47922,39.92167,240,3729
116.47238,39.9216,241,3729
116.45736,39.9219,242,3729
116.44981,39.93998,243,3729
116.43884,39.94999,244,3729
116.43641,39.94873,245,3729
116.43504,39.94774,246,3729
116.43285,39.94573,247,3729
116.43454,39.94702,248,3729
116.43823,39.9498,249,3729
116.45517,39.95109,250,3729
116.45546,39.93895,251,3729
116.45499,39.92998,252,3729
116.45557,39.9139,253,3729
116.45509,39.89022,254,3729
116.4545,39.87624,255,3729
116.44955,39.87029,256,3729
116.45437,39.86992,257,3729
116.45508,39.8678,258,3729
116.45508,39.8678,259,3729
116.45925,39.88319,260,3729
116.47926,39.88289,261,3729
116.48175,39.86565,262,3729
116.48187,39.85939,263,3729
116.47739,39.86659,264,3729
116.47431,39.86662,265,3729
116.4713,39.87858,266,3729
116.47151,39.89152,267,3729
116.47151,39.89172,268,3729
116.47172,39.9031,269,3729
116.47167,39.9037,270,3729
116.46658,39.9039,271,3729
116.43184,39.90227,272,3729
116.42832,39.92702,273,3729
116.42813,39.9295,274,3729
116.42419,39.94846,275,3729
116.3956,39.94771,276,3729
116.39159,39.94786,277,3729
116.38001,39.94766,278,3729
116.37128,39.94765,279,3729
116.37108,39.94765,280,3729
116.36597,39.94434,281,3729
116.36613,39.94633,282,3729
116.36555,39.95047,283,3729
116.36437,39.96444,284,3729
116.36438,39.96463,285,3729
116.36426,39.96586,286,3729
116.39012,39.97038,287,3729
116.39298,39.9714,288,3729
116.39676,39.97395,289,3729
116.40112,39.97372,290,3729
116.40507,39.974,291,3729
116.41081,39.97419,292,3729
116.41081,39.97419,293,3729
116.41827,39.9843,294,3729
116.41822,39.98444,295,3729
116.42573,39.98746,296,3729
116.46745,39.97454,297,3729
116.47147,39.97821,298,3729
116.47691,39.97287,299,3729
116.47515,39.98402,300,3729
116.47778,39.99234,301,3729
116.47764,39.99256,302,3729
116.47337,39.98497,303,3729
116.47378,39.98464,304,3729
116.4678,39.97525,305,3729
116.44303,39.95369,306,3729
116.43916,39.95074,307,3729
116.43387,39.95133,308,3729
116.43115,39.95496,309,3729
116.43121,39.95502,310,3729
116.43141,39.95535,311,3729
116.43141,39.95535,312,3729
116.43141,39.95535,313,3729
116.43141,39.95535,314,3729
116.43141,39.95535,315,3729
116.43141,39.95535,316,3729
116.43141,39.95535,317,3729
116.43141,39.95535,318,3729
116.43141,39.95535,319,3729
116.43141,39.95535,320,3729
116.43141,39.95535,321,3729
116.43141,39.95535,322,3729
116.43141,39.95535,323,3729
116.43141,39.95535,324,3729
116.43141,39.95535,325,3729
116.43141,39.95535,326,3729
116.43141,39.95535,327,3729
116.43141,39.95535,328,3729
116.43141,39.95535,329,3729
116.43141,39.95535,330,3729
116.43141,39.95535,331,3729
116.43128,39.95517,332,3729
116.43621,39.94655,333,3729
116.44449,39.94619,334,3729
116.45391,39.9455,335,3729
116.46296,39.94171,336,3729
116.46101,39.94277,337,3729
116.4561,39.94409,338,3729
116.4399,39.93996,339,3729
116.42912,39.93988,340,3729
116.42083,39.93989,341,3729
116.42797,39.94343,342,3729
116.43809,39.94986,343,3729
116.44493,39.95506,344,3729
116.44255,39.96485,345,3729
116.43616,39.95862,346,3729
116.43331,39.9537,347,3729
116.43331,39.9537,348,3729
116.45035,39.95463,349,3729
116.45107,39.95418,350,3729
116.45522,39.95427,351,3729
116.467,39.96555,352,3729
116.48287,39.97921,353,3729
116.47218,39.97922,354,3729
116.45929,39.96753,355,3729
116.44003,39.961,356,3729
116.43198,39.96095,357,3729
116.43034,39.96213,358,3729
116.42616,39.94883,359,3729
116.41013,39.94931,360,3729
116.4099,39.94821,361,3729
116.41902,39.94793,362,3729
116.4285,39.91373,363,3729
116.42875,39.91101,364,3729
116.44835,39.90694,365,3729
116.48191,39.906,366,3729
116.4829,39.90483,367,3729
116.48898,39.90798,368,3729
116.48456,39.91113,369,3729
116.48481,39.91181,370,3729
116.47222,39.91447,371,3729
116.50424,39.90656,372,3729
116.52836,39.90639,373,3729
116.51183,39.90682,374,3729
116.51002,39.90684,375,3729
116.48404,39.90994,376,3729
116.47274,39.93262,377,3729
116.47266,39.93261,378,3729
116.45086,39.93257,379,3729
116.4443,39.93246,380,3729
116.4443,39.93246,381,3729
116.44406,39.90908,382,3729
116.44406,39.90908,383,3729
116.45513,39.90074,384,3729
116.45513,39.90074,385,3729
116.45511,39.89926,386,3729
116.44875,39.8618,387,3729
116.42771,39.85385,388,3729
116.42806,39.85392,389,3729
116.42816,39.85395,390,3729
116.4282,39.85433,391,3729
116.4282,39.85433,392,3729
116.4282,39.85433,393,3729
116.4282,39.85433,394,3729
116.4282,39.85433,395,3729
116.4282,39.85433,396,3729
116.4282,39.85433,397,3729
116.4282,39.85433,398,3729
116.4282,39.85433,399,3729
116.4282,39.85433,400,3729
116.4282,39.85433,401,3729
116.4282,39.85433,402,3729
116.4282,39.85433,403,3729
116.4282,39.85433,404,3729
116.4282,39.85433,405,3729
116.4282,39.85433,406,3729
116.4282,39.85433,407,3729
116.4282,39.85433,408,3729
116.4282,39.85433,409,3729
116.4282,39.85433,410,3729
116.4282,39.85433,411,3729
116.4282,39.85433,412,3729
116.4281,39.85394,413,3729
116.42625,39.85591,414,3729
116.42619,39.8562,415,3729
116.42425,39.86861,416,3729
116.43818,39.89147,417,3729
116.43013,39.90266,418,3729
116.43763,39.90651,419,3729
116.43758,39.90368,420,3729
116.43759,39.90538,421,3729
116.44297,39.90674,422,3729
116.44769,39.90677,423,3729
116.45622,39.91078,424,3729
116.46227,39.91256,425,3729
116.46232,39.91259,426,3729
116.45592,39.91724,427,3729
116.45578,39.92266,428,3729
116.45634,39.92739,429,3729
116.45965,39.92767,430,3729
116.4514,39.92734,431,3729
116.4514,39.92734,432,3729
116.4545,39.93236,433,3729
116.45451,39.93234,434,3729
116.45601,39.94366,435,3729
116.45507,39.93242,436,3729
116.44705,39.93256,437,3729
116.44453,39.93496,438,3729
116.45006,39.94702,439,3729
116.45152,39.94691,440,3729
116.45515,39.92675,441,3729
116.45364,39.91327,442,3729
116.45386,39.91277,443,3729
116.45141,39.91197,444,3729
116.46553,39.91198,445,3729
116.46675,39.91199,446,3729
116.46771,39.90817,447,3729
116.46038,39.91217,448,3729
116.46038,39.91217,449,3729
116.47075,39.91202,450,3729
116.47693,39.92138,451,3729
116.47858,39.92194,452,3729
116.47204,39.92798,453,3729
116.48409,39.93298,454,3729
116.48409,39.93298,455,3729
116.48522,39.94394,456,3729
116.48799,39.94566,457,3729
116.48414,39.94905,458,3729
116.482,39.95631,459,3729
116.48052,39.95819,460,3729
116.47446,39.97029,461,3729
116.47446,39.97029,462,3729
116.46394,39.96292,463,3729
116.4539,39.95344,464,3729
116.4539,39.95344,465,3729
116.45525,39.94861,466,3729
116.45196,39.93264,467,3729
116.44935,39.94354,468,3729
116.44931,39.94636,469,3729
116.43815,39.95362,470,3729
116.43113,39.95484,471,3729
116.43121,39.95499,472,3729
116.43121,39.95499,473,3729
116.43121,39.95499,474,3729
116.43121,39.95499,475,3729
116.43121,39.95499,476,3729
116.43121,39.95499,477,3729
116.43121,39.95499,478,3729
116.43121,39.95499,479,3729
116.43121,39.95499,480,3729
116.43121,39.95499,481,3729
116.43121,39.95499,482,3729
116.43121,39.95499,483,3729
116.43121,39.95499,484,3729
116.43121,39.95499,485,3729
116.43121,39.95499,486,3729
116.43121,39.95499,487,3729
116.43121,39.95499,488,3729
116.43121,39.95499,489,3729
116.43121,39.95499,490,3729
116.43121,39.95499,491,3729
116.43121,39.95499,492,3729
116.42833,39.95487,493,3729
116.42938,39.95888,494,3729
116.42936,39.95887,495,3729
116.42936,39.95887,496,3729
116.42936,39.95887,497,3729
116.42936,39.95887,498,3729
116.42936,39.95887,499,3729
116.42919,39.9588,500,3729
116.42959,39.95828,501,3729
116.45545,39.93796,502,3729
116.45538,39.93462,503,3729
116.45249,39.92729,504,3729
116.44898,39.92269,505,3729
116.44992,39.92191,506,3729
116.47096,39.92146,507,3729
116.47247,39.92768,508,3729
116.47241,39.92798,509,3729
116.45767,39.93267,510,3729
116.46045,39.93234,511,3729
116.46056,39.93231,512,3729
116.48338,39.93068,513,3729
116.48355,39.88945,514,3729
116.48355,39.88945,515,3729
116.48349,39.88458,516,3729
116.49905,39.86612,517,3729
116.49935,39.86598,518,3729
116.49926,39.86614,519,3729
116.49178,39.87723,520,3729
116.47266,39.88313,521,3729
116.47209,39.88315,522,3729
116.46635,39.87485,523,3729
116.46168,39.87309,524,3729
116.46171,39.87532,525,3729
116.45966,39.8832,526,3729
116.45569,39.88937,527,3729
116.45633,39.8893,528,3729
116.45587,39.89255,529,3729
116.45577,39.89807,530,3729
116.45604,39.8986,531,3729
116.4564,39.90404,532,3729
116.45506,39.89875,533,3729
116.4549,39.88441,534,3729
116.46094,39.8513,535,3729
116.46325,39.84927,536,3729
116.449,39.81427,537,3729
116.44914,39.8127,538,3729
116.44124,39.83182,539,3729
116.44124,39.83182,540,3729
116.43953,39.85078,541,3729
116.45171,39.86372,542,3729
116.45201,39.86389,543,3729
116.45526,39.8809,544,3729
116.44677,39.92049,545,3729
116.43928,39.92566,546,3729
116.4311,39.95503,547,3729
116.4309,39.95505,548,3729
116.4309,39.95505,549,3729
116.4309,39.95505,550,3729
116.4309,39.95505,551,3729
116.4309,39.95505,552,3729
116.4309,39.95505,553,3729
116.4309,39.95505,554,3729
116.4309,39.95505,555,3729
116.4309,39.95505,556,3729
116.4309,39.95505,557,3729
116.4309,39.95505,558,3729
116.4309,39.95505,559,3729
116.4309,39.95505,560,3729
116.4309,39.95505,561,3729
116.4309,39.95505,562,3729
116.4309,39.95505,563,3729
116.4309,39.95505,564,3729
116.4309,39.95505,565,3729
116.4309,39.95505,566,3729
116.4309,39.95505,567,3729
116.4309,39.95505,568,3729
116.4309,39.95505,569,3729
116.4309,39.95505,570,3729
116.43086,39.95502,571,3729
116.43524,39.94714,572,3729
116.43512,39.94748,573,3729
116.43512,39.94748,574,3729
116.43107,39.95505,575,3729
116.431,39.95507,576,3729
116.45019,39.94704,577,3729
116.45509,39.94771,578,3729
116.46241,39.9429,579,3729
116.46839,39.9418,580,3729
116.4682,39.94447,581,3729
116.46261,39.94576,582,3729
116.4746,39.95398,583,3729
116.4808,39.95626,584,3729
116.48611,39.96367,585,3729
116.48397,39.98662,586,3729
116.49123,39.9873,587,3729
116.50036,40.0024,588,3729
116.51586,40.01137,589,3729
116.51086,40.01148,590,3729
116.50899,40.01039,591,3729
116.48595,39.98951,592,3729
116.48352,39.97841,593,3729
116.48358,39.97529,594,3729
116.48359,39.92098,595,3729
116.43716,39.90157,596,3729
116.41487,39.89212,597,3729
116.40657,39.89182,598,3729
116.37862,39.88822,599,3729
116.38126,39.87676,600,3729
116.37539,39.85785,601,3729
116.37731,39.85756,602,3729
116.37833,39.86193,603,3729
116.38144,39.87833,604,3729
116.43926,39.92188,605,3729
116.46493,39.9508,606,3729
116.48185,39.95677,607,3729
116.48799,39.96055,608,3729
116.48756,39.96142,609,3729
116.4875,39.96154,610,3729
116.4875,39.96154,611,3729
116.4875,39.96154,612,3729
116.4875,39.96154,613,3729
116.4875,39.96154,614,3729
116.4875,39.96154,615,3729
116.4875,39.96154,616,3729
116.4875,39.96154,617,3729
116.4875,39.96154,618,3729
116.4875,39.96154,619,3729
116.4875,39.96154,620,3729
116.4875,39.96154,621,3729
116.4875,39.96154,622,3729
116.4875,39.96154,623,3729
116.4875,39.96154,624,3729
116.4875,39.96154,625,3729
116.4875,39.96154,626,3729
116.4875,39.96154,627,3729
116.48745,39.96137,628,3729
116.48768,39.9604,629,3729
116.48714,39.95997,630,3729
116.47538,39.96551,631,3729
116.48401,39.97268,632,3729
116.48398,39.97298,633,3729
116.48404,39.97345,634,3729
116.47836,39.97483,635,3729
116.47406,39.97551,636,3729
116.47388,39.9754,637,3729
116.47375,39.97542,638,3729
116.47375,39.97542,639,3729
116.47368,39.97538,640,3729
116.47368,39.97541,641,3729
116.47363,39.97526,642,3729
116.47348,39.97554,643,3729
116.47335,39.97513,644,3729
116.47295,39.97562,645,3729
116.47295,39.97562,646,3729
116.46043,39.95928,647,3729
116.45059,39.95543,648,3729
116.43411,39.96591,649,3729
116.39582,39.97012,650,3729
116.39592,39.97141,651,3729
116.40389,39.96717,652,3729
116.40404,39.96691,653,3729
116.32657,39.96628,654,3729
116.32393,39.96621,655,3729
116.29803,39.9593,656,3729
116.28268,39.95644,657,3729
116.28204,39.9564,658,3729
116.27504,39.95556,659,3729
116.28383,39.95617,660,3729
116.28804,39.95938,661,3729
116.27427,39.981,662,3729
116.27709,39.99639,663,3729
116.27802,39.99679,664,3729
116.27208,39.97062,665,3729
116.26922,39.95625,666,3729
116.26803,39.94612,667,3729
116.29186,39.94505,668,3729
116.29186,39.94505,669,3729
116.29921,39.94262,670,3729
116.31618,39.93751,671,3729
116.32726,39.93249,672,3729
116.33336,39.93091,673,3729
116.34571,39.93098,674,3729
116.34741,39.92457,675,3729
116.34725,39.9292,676,3729
116.34959,39.93082,677,3729
116.36775,39.93121,678,3729
116.37458,39.93153,679,3729
116.38999,39.93196,680,3729
116.39985,39.92326,681,3729
116.40005,39.91878,682,3729
116.40469,39.91395,683,3729
116.41827,39.91404,684,3729
116.4232,39.91394,685,3729
116.43035,39.90684,686,3729
116.44457,39.91188,687,3729
116.45149,39.91288,688,3729
116.45179,39.91394,689,3729
116.44434,39.92596,690,3729
116.44433,39.932,691,3729
116.43364,39.93243,692,3729
116.41388,39.93239,693,3729
116.41107,39.93246,694,3729
116.41107,39.93246,695,3729
116.41087,39.93535,696,3729
116.08053,38.40472,697,3729
116.41069,39.93857,698,3729
116.41062,39.94262,699,3729
116.41148,39.94973,700,3729
116.43212,39.95806,701,3729
116.43261,39.95793,702,3729
116.43123,39.95497,703,3729
116.43125,39.95469,704,3729
116.43125,39.95469,705,3729
116.43125,39.95469,706,3729
116.43125,39.95469,707,3729
116.43125,39.95469,708,3729
116.43125,39.95469,709,3729
116.43125,39.95469,710,3729
116.43125,39.95469,711,3729
116.43125,39.95469,712,3729
116.43125,39.95469,713,3729
116.43125,39.95469,714,3729
116.43125,39.95469,715,3729
116.43125,39.95469,716,3729
116.43125,39.95469,717,3729
116.43125,39.95469,718,3729
116.43125,39.95469,719,3729
116.43159,39.95482,720,3729
116.4373,39.95359,721,3729
116.43751,39.95363,722,3729
116.44234,39.95752,723,3729
116.45546,39.93383,724,3729
116.45529,39.92537,725,3729
116.45495,39.8859,726,3729
116.42435,39.85727,727,3729
116.41978,39.85696,728,3729
116.41676,39.85652,729,3729
116.39452,39.8588,730,3729
116.39485,39.86408,731,3729
116.40735,39.87038,732,3729
116.42745,39.86928,733,3729
116.42761,39.86931,734,3729
116.42757,39.86916,735,3729
116.43377,39.86458,736,3729
116.43314,39.86787,737,3729
116.43935,39.87475,738,3729
116.43069,39.90706,739,3729
116.43654,39.90694,740,3729
116.43783,39.90637,741,3729
116.43935,39.91624,742,3729
116.43935,39.91624,743,3729
116.45157,39.91877,744,3729
116.46269,39.91531,745,3729
116.46594,39.91453,746,3729
116.47819,39.91409,747,3729
116.49593,39.91451,748,3729
116.4991,39.9146,749,3729
116.49686,39.91485,750,3729
116.48252,39.90911,751,3729
116.48253,39.90519,752,3729
116.48329,39.88991,753,3729
116.49162,39.87754,754,3729
116.49541,39.87553,755,3729
116.50191,39.87662,756,3729
116.49052,39.87828,757,3729
116.49052,39.87828,758,3729
116.48664,39.88038,759,3729
116.46711,39.88325,760,3729
116.45572,39.8887,761,3729
116.45589,39.88864,762,3729
116.45589,39.88864,763,3729
116.45589,39.88864,764,3729
116.45589,39.88864,765,3729
116.4556,39.89524,766,3729
116.45597,39.89591,767,3729
116.45598,39.90276,768,3729
116.45605,39.91156,769,3729
116.45567,39.91602,770,3729
116.44703,39.95737,771,3729
116.43157,39.97797,772,3729
116.43954,39.98465,773,3729
116.44556,39.97606,774,3729
116.4395,39.96749,775,3729
116.44054,39.96759,776,3729
116.43678,39.95832,777,3729
116.43331,39.95372,778,3729
116.43114,39.95477,779,3729
116.43108,39.95501,780,3729
116.43482,39.94756,781,3729
116.45525,39.94505,782,3729
116.463,39.94159,783,3729
116.463,39.94159,784,3729
116.45732,39.94404,785,3729
116.45726,39.94412,786,3729
116.45541,39.93046,787,3729
116.46863,39.91227,788,3729
116.46889,39.91224,789,3729
116.47103,39.87328,790,3729
116.46363,39.86916,791,3729
116.46169,39.87376,792,3729
116.46174,39.87467,793,3729
116.45072,39.89235,794,3729
116.41491,39.89191,795,3729
116.41367,39.89189,796,3729
116.39506,39.89084,797,3729
116.36906,39.88819,798,3729
116.36906,39.88819,799,3729
116.33847,39.88849,800,3729
116.33112,39.88351,801,3729
116.33111,39.88351,802,3729
116.34539,39.88784,803,3729
116.36401,39.8878,804,3729
116.36504,39.88781,805,3729
116.3683,39.89865,806,3729
116.36766,39.91296,807,3729
116.36693,39.9295,808,3729
116.38322,39.93187,809,3729
116.38383,39.9319,810,3729
116.39933,39.93199,811,3729
116.42638,39.93211,812,3729
116.42638,39.93211,813,3729
116.44913,39.97978,814,3729
116.4496,39.98031,815,3729
116.4567,39.99599,816,3729
116.46179,39.99352,817,3729
116.46226,39.99253,818,3729
116.47631,39.98307,819,3729
116.48358,39.96894,820,3729
116.4836,39.96776,821,3729
116.48741,39.96135,822,3729
116.48741,39.96135,823,3729
116.48741,39.96135,824,3729
116.48741,39.96135,825,3729
116.48741,39.96135,826,3729
116.48741,39.96135,827,3729
116.48741,39.96135,828,3729
116.48741,39.96135,829,3729
116.48741,39.96135,830,3729
116.48741,39.96135,831,3729
116.48741,39.96135,832,3729
116.48741,39.96135,833,3729
116.48741,39.96135,834,3729
116.48741,39.96135,835,3729
116.48741,39.96135,836,3729
116.48741,39.96135,837,3729
116.48741,39.96135,838,3729
116.48741,39.96135,839,3729
116.48741,39.96135,840,3729
116.48741,39.96135,841,3729
116.48741,39.96135,842,3729
116.48741,39.96135,843,3729
116.49732,39.91448,844,3729
116.49732,39.91448,845,3729
116.48751,39.9613,846,3729
116.48857,39.96204,847,3729
116.48747,39.96282,848,3729
116.48391,39.97806,849,3729
116.47788,39.9824,850,3729
116.47661,39.98306,851,3729
116.44441,39.98253,852,3729
116.39169,39.98709,853,3729
116.38788,39.98726,854,3729
116.37803,39.98114,855,3729
116.38787,39.97558,856,3729
116.38797,39.97336,857,3729
116.39596,39.96286,858,3729
116.40172,39.95177,859,3729
116.38982,39.94703,860,3729
116.38982,39.94703,861,3729
116.36045,39.94574,862,3729
116.31331,39.93817,863,3729
116.30535,39.94064,864,3729
116.28117,39.9481,865,3729
116.27875,39.95558,866,3729
116.27847,39.95799,867,3729
116.27847,39.95799,868,3729
116.27802,39.96217,869,3729
116.27078,39.96682,870,3729
116.28191,39.97606,871,3729
116.29325,39.98956,872,3729
116.28478,40.02237,873,3729
116.28478,40.02237,874,3729
116.29066,40.02471,875,3729
116.30071,40.03406,876,3729
116.30428,40.05077,877,3729
116.31255,40.04845,878,3729
116.32243,40.05319,879,3729
116.32517,40.05569,880,3729
116.32501,40.04998,881,3729
116.34548,40.02069,882,3729
116.34553,40.01709,883,3729
116.34592,40.00848,884,3729
116.34592,40.00848,885,3729
116.37496,40.01812,886,3729
116.44525,40.01611,887,3729
116.50067,40.00351,888,3729
116.52336,40.01863,889,3729
116.57343,40.0414,890,3729
116.58669,40.07694,891,3729
116.58052,40.07652,892,3729
116.55522,40.06998,893,3729
116.55513,40.06266,894,3729
116.55513,40.06266,895,3729
116.53984,40.05644,896,3729
116.52221,40.03149,897,3729
116.50125,40.00587,898,3729
116.49659,40.00198,899,3729
116.47543,39.98213,900,3729
116.44891,39.95866,901,3729
116.44402,39.95494,902,3729
116.43537,39.95353,903,3729
116.42613,39.95343,904,3729
116.4261,39.94868,905,3729
116.42773,39.92988,906,3729
116.42128,39.90489,907,3729
116.42018,39.90677,908,3729
116.4289,39.918,909,3729
116.43261,39.92267,910,3729
116.44396,39.9201,911,3729
116.44402,39.91924,912,3729
116.43165,39.91841,913,3729
116.42873,39.92082,914,3729
116.41111,39.92503,915,3729
116.42886,39.92267,916,3729
116.42941,39.92288,917,3729
116.43178,39.91702,918,3729
116.4435,39.9215,919,3729
116.4551,39.93991,920,3729
116.47058,39.95264,921,3729
116.47176,39.95305,922,3729
116.48895,39.96138,923,3729
116.49752,39.9596,924,3729
116.49752,39.9596,925,3729
116.49755,39.96332,926,3729
116.48409,39.97103,927,3729
116.48409,39.97103,928,3729
116.48409,39.97103,929,3729
116.47232,39.97873,930,3729
116.46267,39.98461,931,3729
116.46267,39.98461,932,3729
116.46236,39.98494,933,3729
116.47177,39.98614,934,3729
116.47236,39.98571,935,3729
116.48327,39.95232,936,3729
116.47873,39.92412,937,3729
116.47585,39.92701,938,3729
116.47228,39.92734,939,3729
116.47228,39.92734,940,3729
116.45576,39.93617,941,3729
116.44502,39.95872,942,3729
116.4232,39.96829,943,3729
116.38802,39.97641,944,3729
116.37828,39.98116,945,3729
116.38139,39.9805,946,3729
116.38719,39.96697,947,3729
116.42432,39.96801,948,3729
116.44888,39.9559,949,3729
116.455,39.92227,950,3729
116.46098,39.92298,951,3729
116.46091,39.92724,952,3729
116.45019,39.94004,953,3729
116.44438,39.94531,954,3729
116.44056,39.94877,955,3729
116.43113,39.95478,956,3729
116.43124,39.95512,957,3729
116.43147,39.95502,958,3729
116.43147,39.95502,959,3729
116.43147,39.95502,960,3729
116.43147,39.95502,961,3729
116.43147,39.95502,962,3729
116.42811,39.95295,963,3729
116.4313,39.95508,964,3729
116.43172,39.95521,965,3729
116.43172,39.95521,966,3729
116.43172,39.95521,967,3729
116.43172,39.95521,968,3729
116.43172,39.95521,969,3729
116.43172,39.95521,970,3729
116.43172,39.95521,971,3729
116.43172,39.95521,972,3729
116.43172,39.95521,973,3729
116.43172,39.95521,974,3729
116.43172,39.95521,975,3729
116.43172,39.95521,976,3729
116.43172,39.95521,977,3729
116.43172,39.95521,978,3729
116.43172,39.95521,979,3729
116.43142,39.95532,980,3729
116.43142,39.95532,981,3729
116.43147,39.95533,982,3729
116.43147,39.95533,983,3729
116.43147,39.95533,984,3729
116.43111,39.95496,985,3729
116.43786,39.94685,986,3729
116.43855,39.94747,987,3729
116.45589,39.94078,988,3729
116.46785,39.95179,989,3729
116.48897,39.96181,990,3729
116.48383,39.97498,991,3729
116.48027,39.98109,992,3729
116.48014,39.98216,993,3729
116.48633,39.96342,994,3729
116.48354,39.9609,995,3729
116.48754,39.96144,996,3729
116.48766,39.96147,997,3729
116.48766,39.96147,998,3729
116.48766,39.96147,999,3729
116.48766,39.96147,1000,3729
116.48766,39.96147,1001,3729
116.48766,39.96147,1002,3729
116.48766,39.96147,1003,3729
116.48766,39.96147,1004,3729
116.48766,39.96147,1005,3729
116.48766,39.96147,1006,3729
116.48766,39.96147,1007,3729
116.48766,39.96147,1008,3729
116.48766,39.96147,1009,3729
116.48766,39.96147,1010,3729
116.48766,39.96147,1011,3729
116.48766,39.96147,1012,3729
116.48766,39.96147,1013,3729
116.48766,39.96147,1014,3729
116.48766,39.96147,1015,3729
116.48766,39.96147,1016,3729
116.48766,39.96147,1017,3729
116.48766,39.96147,1018,3729
116.48766,39.96147,1019,3729
116.48769,39.96138,1020,3729
116.48769,39.96138,1021,3729
116.48769,39.96138,1022,3729
116.48073,39.95819,1023,3729
116.43387,39.98726,1024,3729
116.38017,39.98703,1025,3729
116.37356,39.98909,1026,3729
116.37412,39.98912,1027,3729
116.38071,39.99455,1028,3729
116.38665,39.97538,1029,3729
116.38748,39.97526,1030,3729
116.4014,39.96287,1031,3729
116.40173,39.95253,1032,3729
116.38962,39.95031,1033,3729
116.38877,39.96507,1034,3729
116.38867,39.96663,1035,3729
116.39571,39.98657,1036,3729
116.40184,40.00194,1037,3729
116.40186,40.00282,1038,3729
116.39404,40.00837,1039,3729
116.36927,40.00375,1040,3729
116.36943,40.00207,1041,3729
116.36943,40.00207,1042,3729
116.37528,39.9962,1043,3729
116.38173,39.97588,1044,3729
116.38211,39.97548,1045,3729
116.40098,39.97051,1046,3729
116.40541,39.96721,1047,3729
116.41733,39.96752,1048,3729
116.43173,39.96237,1049,3729
116.43397,39.95561,1050,3729
116.43118,39.95336,1051,3729
116.43132,39.95513,1052,3729
116.43134,39.95516,1053,3729
116.43134,39.95496,1054,3729
116.43134,39.95496,1055,3729
116.43134,39.95496,1056,3729
116.43134,39.95496,1057,3729
116.43134,39.95496,1058,3729
116.43134,39.95496,1059,3729
116.43134,39.95496,1060,3729
116.43134,39.95496,1061,3729
116.43134,39.95496,1062,3729
116.43134,39.95496,1063,3729
116.43134,39.95496,1064,3729
116.43134,39.95496,1065,3729
116.43134,39.95496,1066,3729
116.43134,39.95496,1067,3729
116.43134,39.95496,1068,3729
116.43134,39.95496,1069,3729
116.43134,39.95496,1070,3729
116.43134,39.95496,1071,3729
116.43134,39.95496,1072,3729
116.43134,39.95496,1073,3729
116.43134,39.95496,1074,3729
116.43134,39.95496,1075,3729
116.43134,39.95496,1076,3729
116.43077,39.95404,1077,3729
116.4346,39.94759,1078,3729
116.45042,39.94502,1079,3729
116.45516,39.94319,1080,3729
116.46244,39.93978,1081,3729
116.46253,39.9396,1082,3729
116.45875,39.94262,1083,3729
116.44955,39.94708,1084,3729
116.44894,39.94694,1085,3729
116.43349,39.95344,1086,3729
116.43132,39.95505,1087,3729
116.43128,39.95507,1088,3729
116.43128,39.95507,1089,3729
116.43128,39.95507,1090,3729
116.43128,39.95507,1091,3729
116.43102,39.95448,1092,3729
116.43446,39.96427,1093,3729
116.45532,39.94816,1094,3729
116.45525,39.89912,1095,3729
116.45488,39.88603,1096,3729
116.46086,39.88293,1097,3729
116.45786,39.87495,1098,3729
116.44712,39.87497,1099,3729
116.43809,39.89222,1100,3729
116.42901,39.92323,1101,3729
116.41994,39.92316,1102,3729
116.39736,39.92412,1103,3729
116.3938,39.92204,1104,3729
116.3997,39.92289,1105,3729
116.40799,39.92272,1106,3729
116.43358,39.9228,1107,3729
116.44183,39.92165,1108,3729
116.45143,39.91887,1109,3729
116.46511,39.91491,1110,3729
116.47033,39.91437,1111,3729
116.48769,39.91433,1112,3729
116.51453,39.91606,1113,3729
116.52049,39.91614,1114,3729
116.53829,39.91505,1115,3729
116.56515,39.91429,1116,3729
116.56707,39.91395,1117,3729
116.55899,39.90871,1118,3729
116.55899,39.90871,1119,3729
116.52766,39.90863,1120,3729
116.51427,39.90704,1121,3729
116.46345,39.90738,1122,3729
116.41497,39.90725,1123,3729
116.40971,39.90708,1124,3729
116.38267,39.90606,1125,3729
116.35699,39.90608,1126,3729
116.35061,39.90946,1127,3729
116.34704,39.92269,1128,3729
116.34908,39.93092,1129,3729
116.35729,39.93097,1130,3729
116.37056,39.93136,1131,3729
116.38983,39.93197,1132,3729
116.39894,39.93203,1133,3729
116.419,39.9322,1134,3729
116.42998,39.9008,1135,3729
116.43786,39.89166,1136,3729
116.45489,39.88665,1137,3729
116.46456,39.84806,1138,3729
116.4665,39.83762,1139,3729
116.46084,39.84079,1140,3729
116.46119,39.84524,1141,3729
116.45881,39.84936,1142,3729
116.45941,39.85103,1143,3729
116.45389,39.86294,1144,3729
116.44561,39.85943,1145,3729
116.42986,39.85763,1146,3729
116.33958,39.83992,1147,3729
116.33928,39.82374,1148,3729
116.34143,39.79251,1149,3729
116.34234,39.77433,1150,3729
116.35461,39.77363,1151,3729
116.35839,39.77237,1152,3729
116.3568,39.77241,1153,3729
116.3568,39.77241,1154,3729
116.33916,39.78147,1155,3729
116.33942,39.80619,1156,3729
116.33997,39.83997,1157,3729
116.33997,39.83997,1158,3729
116.34006,39.84305,1159,3729
116.3536,39.84902,1160,3729
116.35861,39.8585,1161,3729
116.35856,39.86,1162,3729
116.36789,39.86861,1163,3729
116.37558,39.88062,1164,3729
116.37609,39.88188,1165,3729
116.36799,39.87548,1166,3729
116.36484,39.84947,1167,3729
116.36484,39.84947,1168,3729
116.35915,39.84466,1169,3729
116.34047,39.84491,1170,3729
116.34193,39.84814,1171,3729
116.33086,39.86756,1172,3729
116.32636,39.87983,1173,3729
116.32637,39.88026,1174,3729
116.33002,39.88842,1175,3729
116.34667,39.88794,1176,3729
116.34788,39.88786,1177,3729
116.36177,39.8878,1178,3729
116.36839,39.89337,1179,3729
116.36837,39.89337,1180,3729
116.36753,39.91641,1181,3729
116.36675,39.93327,1182,3729
116.36675,39.93371,1183,3729
116.36797,39.9497,1184,3729
116.37021,39.94713,1185,3729
116.40997,39.94783,1186,3729
116.4528,39.9531,1187,3729
116.45299,39.95294,1188,3729
116.45501,39.92215,1189,3729
116.47148,39.92147,1190,3729
116.47164,39.92144,1191,3729
116.47222,39.92646,1192,3729
116.46799,39.93501,1193,3729
116.46833,39.93532,1194,3729
116.4687,39.95209,1195,3729
116.46542,39.96876,1196,3729
116.4644,39.96939,1197,3729
116.40492,39.9874,1198,3729
116.363,39.99198,1199,3729
116.36288,39.99253,1200,3729
116.35869,39.99449,1201,3729
116.36328,39.98072,1202,3729
116.3633,39.98024,1203,3729
116.39599,39.96713,1204,3729
116.39678,39.96713,1205,3729
116.39678,39.96713,1206,3729
116.4121,39.95717,1207,3729
116.42772,39.93332,1208,3729
116.42776,39.93228,1209,3729
116.43879,39.88494,1210,3729
116.42489,39.86114,1211,3729
116.42523,39.86061,1212,3729
116.42653,39.84449,1213,3729
116.41576,39.84728,1214,3729
116.41581,39.84715,1215,3729
116.41774,39.85612,1216,3729
116.41473,39.88227,1217,3729
116.41466,39.88304,1218,3729
116.41217,39.90422,1219,3729
116.40169,39.99654,1220,3729
116.40175,39.99717,1221,3729
116.40814,40.04006,1222,3729
116.41036,40.01426,1223,3729
116.41009,40.01309,1224,3729
116.41343,39.99281,1225,3729
116.43618,39.98618,1226,3729
116.43716,39.9858,1227,3729
116.4811,39.95671,1228,3729
116.48758,39.96135,1229,3729
116.4876,39.96155,1230,3729
116.4876,39.96155,1231,3729
116.4876,39.96155,1232,3729
116.4876,39.96155,1233,3729
116.4876,39.96155,1234,3729
116.4876,39.96155,1235,3729
116.4876,39.96155,1236,3729
116.4876,39.96155,1237,3729
116.4876,39.96155,1238,3729
116.4876,39.96155,1239,3729
116.4876,39.96155,1240,3729
116.4876,39.96155,1241,3729
116.4876,39.96155,1242,3729
116.4876,39.96155,1243,3729
116.4876,39.96155,1244,3729
116.4876,39.96155,1245,3729
116.4876,39.96155,1246,3729
116.4876,39.96155,1247,3729
116.4876,39.96155,1248,3729
116.4876,39.96155,1249,3729
116.4876,39.96155,1250,3729
116.4876,39.96155,1251,3729
116.4876,39.96155,1252,3729
116.4876,39.96155,1253,3729
116.4876,39.96155,1254,3729
116.4876,39.96155,1255,3729
116.4876,39.96155,1256,3729
116.4876,39.96155,1257,3729
116.4876,39.96155,1258,3729
116.4876,39.96155,1259,3729
116.4876,39.96155,1260,3729
116.4876,39.96155,1261,3729
116.4876,39.96155,1262,3729
116.4876,39.96155,1263,3729
116.4876,39.96155,1264,3729
116.4876,39.96155,1265,3729
116.4876,39.96155,1266,3729
116.4876,39.96155,1267,3729
116.4876,39.96155,1268,3729
116.4876,39.96155,1269,3729
116.4876,39.96155,1270,3729
116.48764,39.96137,1271,3729
116.48839,39.96107,1272,3729
116.48597,39.95888,1273,3729
116.47462,39.96571,1274,3729
116.47515,39.96586,1275,3729
116.47518,39.96594,1276,3729
116.46905,39.96662,1277,3729
116.46164,39.95591,1278,3729
116.45464,39.95415,1279,3729
116.43293,39.96683,1280,3729
116.43048,39.96826,1281,3729
116.42296,39.96838,1282,3729
116.41809,39.98692,1283,3729
116.41871,39.99805,1284,3729
116.41885,40.00193,1285,3729
116.41782,39.99402,1286,3729
116.39623,39.98718,1287,3729
116.38282,39.9867,1288,3729
116.34693,39.96873,1289,3729
116.34429,39.96661,1290,3729
116.33538,39.96647,1291,3729
116.36037,39.96618,1292,3729
116.36045,39.96618,1293,3729
116.36195,39.96622,1294,3729
116.40125,39.96089,1295,3729
116.40154,39.95456,1296,3729
116.40138,39.95276,1297,3729
116.40159,39.95168,1298,3729
116.40159,39.95168,1299,3729
116.37922,39.94763,1300,3729
116.36378,39.94695,1301,3729
116.34996,39.91763,1302,3729
116.35147,39.90756,1303,3729
116.35207,39.90733,1304,3729
116.36722,39.91324,1305,3729
116.36743,39.92078,1306,3729
116.36734,39.92319,1307,3729
116.38027,39.93176,1308,3729
116.39609,39.93197,1309,3729
116.39891,39.93193,1310,3729
116.42515,39.93217,1311,3729
116.43242,39.94508,1312,3729
116.43402,39.95005,1313,3729
116.43121,39.95493,1314,3729
116.43125,39.95518,1315,3729
116.43125,39.95518,1316,3729
116.43125,39.95518,1317,3729
116.43125,39.95518,1318,3729
116.43125,39.95518,1319,3729
116.43125,39.95518,1320,3729
116.43125,39.95518,1321,3729
116.43125,39.95518,1322,3729
116.43125,39.95518,1323,3729
116.43125,39.95518,1324,3729
116.43125,39.95518,1325,3729
116.43125,39.95518,1326,3729
116.43125,39.95518,1327,3729
116.43125,39.95518,1328,3729
116.43125,39.95518,1329,3729
116.43125,39.95518,1330,3729
116.43125,39.95518,1331,3729
116.43125,39.95518,1332,3729
116.43125,39.95518,1333,3729
116.43125,39.95518,1334,3729
116.43125,39.95518,1335,3729
116.43125,39.95518,1336,3729
116.43125,39.95518,1337,3729
