x,y,k,tid
116.34003,39.85837,0,373
116.33987,39.85838,1,373
116.33985,39.85836,2,373
116.34118,39.85807,3,373
116.34118,39.85807,4,373
116.34118,39.85807,5,373
116.34118,39.85807,6,373
116.34118,39.85807,7,373
116.34118,39.85807,8,373
116.34118,39.85807,9,373
116.34118,39.85807,10,373
116.34118,39.85807,11,373
116.34118,39.85807,12,373
116.34118,39.85807,13,373
116.30791,39.86436,14,373
116.30791,39.86436,15,373
116.31782,39.86679,16,373
116.3295,39.86631,17,373
116.34867,39.86477,18,373
116.34869,39.86484,19,373
116.34829,39.86459,20,373
116.34825,39.86447,21,373
116.34825,39.86447,22,373
116.34825,39.86447,23,373
116.34814,39.86434,24,373
116.34814,39.86433,25,373
116.34808,39.86802,26,373
116.34276,39.87634,27,373
116.33543,39.87106,28,373
116.33546,39.87107,29,373
116.33548,39.87106,30,373
116.33537,39.87122,31,373
116.33543,39.87118,32,373
116.34247,39.87052,33,373
116.32883,39.84913,34,373
116.32883,39.84913,35,373
116.32883,39.84913,36,373
116.32883,39.84913,37,373
116.32883,39.84913,38,373
116.32883,39.84913,39,373
116.32883,39.84913,40,373
116.32883,39.84913,41,373
116.32883,39.84913,42,373
116.32883,39.84913,43,373
116.32883,39.84913,44,373
116.32883,39.84913,45,373
116.32883,39.84913,46,373
116.32883,39.84913,47,373
116.32883,39.84913,48,373
116.32883,39.84913,49,373
116.32883,39.84913,50,373
116.32883,39.84913,51,373
116.33039,39.84873,52,373
116.33037,39.84865,53,373
116.33048,39.84864,54,373
116.33048,39.84864,55,373
116.33048,39.84864,56,373
116.32961,39.84859,57,373
116.33029,39.84845,58,373
116.33029,39.84845,59,373
116.33029,39.84845,60,373
116.33039,39.84852,61,373
116.3304,39.84855,62,373
116.33039,39.84848,63,373
116.33034,39.84849,64,373
116.3301,39.84872,65,373
116.3301,39.84872,66,373
116.3301,39.84872,67,373
116.3301,39.84872,68,373
116.3301,39.84872,69,373
116.3301,39.84872,70,373
116.3301,39.84872,71,373
116.3301,39.84872,72,373
116.31335,39.85407,73,373
116.30925,39.86678,74,373
116.30518,39.88054,75,373
116.31504,39.88648,76,373
116.33177,39.88852,77,373
116.33676,39.8881,78,373
116.3372,39.88567,79,373
116.3513,39.88818,80,373
116.36591,39.88781,81,373
116.36765,39.88786,82,373
116.36842,39.89524,83,373
116.36904,39.89665,84,373
116.37837,39.89615,85,373
116.37626,39.90746,86,373
116.37952,39.92108,87,373
116.38342,39.92084,88,373
116.39015,39.92706,89,373
116.40554,39.93184,90,373
116.4053,39.93179,91,373
116.40281,39.93214,92,373
116.37562,39.93174,93,373
116.37066,39.93152,94,373
116.35657,39.93138,95,373
116.34984,39.92213,96,373
116.34987,39.91149,97,373
116.34987,39.89765,98,373
116.31789,39.89582,99,373
116.30332,39.89575,100,373
116.30332,39.89575,101,373
116.30616,39.89559,102,373
116.31207,39.89548,103,373
116.34289,39.88352,104,373
116.34426,39.86521,105,373
116.34426,39.86521,106,373
116.34426,39.86521,107,373
116.34412,39.86528,108,373
116.34413,39.86527,109,373
116.34413,39.86526,110,373
116.34412,39.86527,111,373
116.34412,39.86527,112,373
116.34412,39.86527,113,373
116.34412,39.86527,114,373
116.34412,39.86527,115,373
116.34426,39.86572,116,373
116.34416,39.86562,117,373
116.34419,39.86555,118,373
116.34431,39.86549,119,373
116.3445,39.86549,120,373
116.3445,39.86549,121,373
116.3445,39.86549,122,373
116.34853,39.864,123,373
116.34792,39.86867,124,373
116.34762,39.87162,125,373
116.35735,39.87764,126,373
116.35735,39.87764,127,373
116.33043,39.84855,128,373
116.33043,39.84855,129,373
116.33043,39.84855,130,373
116.33046,39.84854,131,373
116.33049,39.84856,132,373
116.33049,39.84854,133,373
116.33049,39.84854,134,373
116.33032,39.84832,135,373
116.33001,39.84785,136,373
116.33001,39.84785,137,373
116.33055,39.84858,138,373
116.33054,39.8485,139,373
116.33056,39.84849,140,373
116.3306,39.84849,141,373
116.33027,39.84825,142,373
116.33025,39.84831,143,373
116.33024,39.8483,144,373
116.33024,39.8483,145,373
116.33021,39.8484,146,373
116.33021,39.8484,147,373
116.33021,39.8484,148,373
116.33045,39.84874,149,373
116.33043,39.84869,150,373
116.33047,39.84873,151,373
116.33047,39.84873,152,373
116.33012,39.84824,153,373
116.33057,39.84851,154,373
116.33069,39.8485,155,373
116.33071,39.84858,156,373
116.33073,39.84859,157,373
116.33054,39.8486,158,373
116.3306,39.8489,159,373
116.3304,39.84853,160,373
116.3304,39.84853,161,373
116.33034,39.8483,162,373
116.33034,39.8483,163,373
116.33034,39.84832,164,373
116.33054,39.84874,165,373
116.33052,39.8487,166,373
116.33053,39.8487,167,373
116.33046,39.84883,168,373
116.33053,39.84876,169,373
116.32992,39.8486,170,373
116.32998,39.84858,171,373
116.33,39.84857,172,373
116.33,39.84857,173,373
116.33,39.84857,174,373
116.33,39.84857,175,373
116.33,39.84857,176,373
116.33,39.84857,177,373
116.33,39.84857,178,373
116.33,39.84857,179,373
116.33,39.84857,180,373
116.33,39.84857,181,373
116.33,39.84857,182,373
116.33,39.84857,183,373
116.33,39.84857,184,373
116.33,39.84857,185,373
116.33,39.84857,186,373
116.33,39.84857,187,373
116.33,39.84857,188,373
116.33,39.84857,189,373
116.33,39.84857,190,373
116.33,39.84857,191,373
116.33,39.84857,192,373
116.33,39.84857,193,373
116.33,39.84857,194,373
116.33,39.84857,195,373
116.33,39.84857,196,373
116.33,39.84857,197,373
116.33,39.84857,198,373
116.33,39.84857,199,373
116.33,39.84857,200,373
116.33,39.84857,201,373
116.33,39.84857,202,373
116.33,39.84857,203,373
116.33,39.84857,204,373
116.33,39.84857,205,373
116.33,39.84857,206,373
116.33,39.84857,207,373
116.33,39.84857,208,373
116.33,39.84857,209,373
116.33,39.84857,210,373
116.33,39.84857,211,373
116.33,39.84857,212,373
116.33,39.84857,213,373
116.33,39.84857,214,373
116.3301,39.84911,215,373
116.32996,39.84865,216,373
116.32996,39.84865,217,373
116.32996,39.84865,218,373
116.32996,39.84865,219,373
116.32996,39.84865,220,373
116.32996,39.84865,221,373
116.33016,39.84832,222,373
116.33017,39.84838,223,373
116.33018,39.84849,224,373
116.32969,39.84813,225,373
116.32976,39.84821,226,373
116.32976,39.84821,227,373
116.32976,39.84821,228,373
116.32976,39.84821,229,373
116.32976,39.84821,230,373
116.32976,39.84821,231,373
116.32976,39.84821,232,373
116.32976,39.84821,233,373
116.32976,39.84821,234,373
116.32976,39.84821,235,373
116.32976,39.84821,236,373
116.32976,39.84821,237,373
116.32976,39.84821,238,373
116.32976,39.84821,239,373
116.32976,39.84821,240,373
116.32976,39.84821,241,373
116.32976,39.84821,242,373
116.32976,39.84821,243,373
116.32976,39.84821,244,373
116.32976,39.84821,245,373
116.32976,39.84821,246,373
116.32976,39.84821,247,373
116.32976,39.84821,248,373
116.32976,39.84821,249,373
116.32976,39.84821,250,373
116.32976,39.84821,251,373
116.32976,39.84821,252,373
116.32976,39.84821,253,373
116.32976,39.84821,254,373
116.32976,39.84821,255,373
116.32976,39.84821,256,373
116.32976,39.84821,257,373
116.32976,39.84821,258,373
116.32976,39.84821,259,373
116.32976,39.84821,260,373
116.32976,39.84821,261,373
116.32976,39.84821,262,373
116.32976,39.84821,263,373
116.32976,39.84821,264,373
116.32976,39.84821,265,373
116.32976,39.84821,266,373
116.32976,39.84821,267,373
116.32976,39.84821,268,373
116.32976,39.84821,269,373
116.32976,39.84821,270,373
116.32976,39.84821,271,373
116.32976,39.84821,272,373
116.31645,39.86639,273,373
116.35066,39.86684,274,373
116.35777,39.86726,275,373
116.35852,39.85894,276,373
116.32266,39.84797,277,373
116.29349,39.86547,278,373
116.28895,39.87615,279,373
116.29078,39.87775,280,373
116.30553,39.86984,281,373
116.32465,39.86652,282,373
116.34697,39.8665,283,373
116.34591,39.87195,284,373
116.34443,39.88797,285,373
116.34382,39.89488,286,373
116.34382,39.89488,287,373
116.34674,39.89564,288,373
116.34604,39.89679,289,373
116.34604,39.89679,290,373
116.34604,39.89679,291,373
116.34604,39.89679,292,373
116.32293,39.89674,293,373
116.33097,39.89571,294,373
116.33097,39.89571,295,373
116.33097,39.89571,296,373
116.33097,39.89571,297,373
116.33097,39.89571,298,373
116.35713,39.90704,299,373
116.36675,39.91016,300,373
116.36752,39.9005,301,373
116.36802,39.89422,302,373
116.36588,39.88805,303,373
116.35232,39.88853,304,373
116.35094,39.89708,305,373
116.34569,39.88827,306,373
116.32646,39.88872,307,373
116.31647,39.88849,308,373
116.31107,39.88695,309,373
116.26893,39.88379,310,373
116.28908,39.88802,311,373
116.28908,39.88802,312,373
116.30543,39.86456,313,373
116.31339,39.85351,314,373
116.33042,39.84887,315,373
116.33039,39.84881,316,373
116.33039,39.84881,317,373
116.33039,39.84881,318,373
116.33037,39.84825,319,373
116.33037,39.84825,320,373
116.33037,39.84825,321,373
116.33019,39.8486,322,373
116.33031,39.84876,323,373
116.33029,39.84873,324,373
116.33023,39.84851,325,373
116.33023,39.84851,326,373
116.33023,39.84851,327,373
116.33024,39.84868,328,373
116.33019,39.84852,329,373
116.33019,39.84852,330,373
116.33019,39.84852,331,373
116.33019,39.84852,332,373
116.33019,39.84852,333,373
116.33019,39.84852,334,373
116.33019,39.84852,335,373
116.33019,39.84852,336,373
116.33019,39.84852,337,373
116.33019,39.84852,338,373
116.33016,39.84839,339,373
116.33015,39.84836,340,373
116.33015,39.84836,341,373
116.33015,39.84836,342,373
116.33015,39.84836,343,373
116.33015,39.84836,344,373
116.33015,39.84836,345,373
116.33026,39.84836,346,373
116.33,39.84816,347,373
116.33029,39.84875,348,373
116.33028,39.84872,349,373
116.33028,39.84872,350,373
116.33027,39.8487,351,373
116.33028,39.84869,352,373
116.33039,39.84857,353,373
116.3303,39.84859,354,373
116.3303,39.84859,355,373
116.33028,39.84859,356,373
116.33027,39.84859,357,373
116.33027,39.84859,358,373
116.33027,39.84852,359,373
116.33049,39.84861,360,373
116.3304,39.84862,361,373
116.33038,39.84865,362,373
116.33026,39.84869,363,373
116.33026,39.84869,364,373
116.33025,39.84863,365,373
116.33021,39.84862,366,373
116.33021,39.84862,367,373
116.33021,39.84862,368,373
116.33021,39.84862,369,373
116.32104,39.84858,370,373
116.30865,39.86489,371,373
116.30565,39.8753,372,373
116.30534,39.8781,373,373
116.29744,39.88072,374,373
116.27687,39.86178,375,373
116.27612,39.84812,376,373
116.27592,39.84813,377,373
116.27565,39.84502,378,373
116.28838,39.8562,379,373
116.30838,39.85438,380,373
116.28816,39.86243,381,373
116.27412,39.86428,382,373
116.27409,39.86725,383,373
116.26919,39.86415,384,373
116.22786,39.85044,385,373
116.22502,39.85081,386,373
116.232,39.85301,387,373
116.22413,39.8918,388,373
116.22199,39.90616,389,373
116.23661,39.89575,390,373
116.289,39.89516,391,373
116.29674,39.88487,392,373
116.31857,39.88847,393,373
116.34261,39.87828,394,373
116.34409,39.86537,395,373
116.34393,39.86537,396,373
116.34452,39.86543,397,373
116.34452,39.86543,398,373
116.34452,39.86543,399,373
116.34452,39.86543,400,373
116.34452,39.86543,401,373
116.34452,39.86543,402,373
116.34452,39.86543,403,373
116.34452,39.86543,404,373
116.34429,39.86543,405,373
116.3442,39.86544,406,373
116.3442,39.86544,407,373
116.3442,39.86544,408,373
116.3442,39.86544,409,373
116.34817,39.86623,410,373
116.34715,39.87648,411,373
116.34694,39.88849,412,373
116.35258,39.89499,413,373
116.34979,39.89704,414,373
116.34972,39.92807,415,373
116.34837,39.96637,416,373
116.34706,39.96385,417,373
116.33496,39.95649,418,373
116.31093,39.95542,419,373
116.3305,39.84865,420,373
116.30369,39.93445,421,373
116.30369,39.93445,422,373
116.30402,39.91375,423,373
116.30401,39.91016,424,373
116.27778,39.90634,425,373
116.27283,39.89922,426,373
116.26636,39.89649,427,373
116.26365,39.89286,428,373
116.26769,39.89095,429,373
116.27938,39.84091,430,373
116.30716,39.82989,431,373
116.30591,39.83536,432,373
116.31949,39.84644,433,373
116.33038,39.84842,434,373
116.33038,39.84841,435,373
116.33036,39.84841,436,373
116.33045,39.84856,437,373
116.33045,39.84856,438,373
116.33041,39.84839,439,373
116.33045,39.84837,440,373
116.33064,39.84778,441,373
116.33057,39.84864,442,373
116.33051,39.84874,443,373
116.33041,39.84924,444,373
116.33063,39.84856,445,373
116.33062,39.84851,446,373
116.33068,39.84873,447,373
116.33056,39.84851,448,373
116.33062,39.84873,449,373
116.33062,39.84873,450,373
116.33061,39.84865,451,373
116.33061,39.84865,452,373
116.33061,39.84865,453,373
116.33061,39.84865,454,373
116.33026,39.84809,455,373
116.33029,39.84811,456,373
116.33044,39.84902,457,373
116.33038,39.84853,458,373
116.33039,39.84853,459,373
116.3304,39.84852,460,373
116.3304,39.84852,461,373
116.33072,39.84832,462,373
116.33051,39.84873,463,373
116.33033,39.84863,464,373
116.33028,39.8486,465,373
116.33035,39.84845,466,373
116.33031,39.84826,467,373
116.3303,39.84825,468,373
116.33023,39.84827,469,373
116.33024,39.84828,470,373
116.33018,39.84843,471,373
116.33014,39.84825,472,373
116.33014,39.84825,473,373
116.33014,39.84825,474,373
116.33014,39.84825,475,373
116.33014,39.84825,476,373
116.33042,39.84913,477,373
116.3304,39.84905,478,373
116.33039,39.84902,479,373
116.33039,39.84902,480,373
116.33039,39.84902,481,373
116.33039,39.84902,482,373
116.33039,39.84902,483,373
116.33057,39.8484,484,373
116.33046,39.84844,485,373
116.33022,39.84849,486,373
116.33025,39.84852,487,373
116.33025,39.84852,488,373
116.33025,39.84852,489,373
116.33025,39.84852,490,373
116.33028,39.84855,491,373
116.33036,39.8482,492,373
116.33048,39.84826,493,373
116.33048,39.84831,494,373
116.33048,39.84831,495,373
116.33048,39.84831,496,373
116.33048,39.84831,497,373
116.32927,39.84985,498,373
116.32926,39.8499,499,373
116.32926,39.8499,500,373
116.33026,39.8471,501,373
116.33049,39.84793,502,373
116.33055,39.84807,503,373
116.33044,39.84906,504,373
116.33044,39.84906,505,373
116.33036,39.84848,506,373
116.33037,39.84838,507,373
116.33053,39.8483,508,373
116.33044,39.84877,509,373
116.33032,39.84863,510,373
116.3304,39.84849,511,373
116.33045,39.84843,512,373
116.33045,39.84841,513,373
116.33049,39.84838,514,373
116.33048,39.84839,515,373
116.33047,39.8484,516,373
116.33046,39.84842,517,373
116.33046,39.84842,518,373
116.33046,39.84842,519,373
116.33046,39.84842,520,373
116.33046,39.84842,521,373
116.33046,39.84842,522,373
116.33054,39.84855,523,373
116.33045,39.84851,524,373
116.33024,39.84833,525,373
116.33022,39.84859,526,373
116.33022,39.84857,527,373
116.3304,39.84832,528,373
116.3304,39.84835,529,373
116.3304,39.84838,530,373
116.3304,39.84838,531,373
116.33039,39.8484,532,373
116.33039,39.8484,533,373
116.33039,39.8484,534,373
116.33048,39.8483,535,373
116.33046,39.84838,536,373
116.33045,39.84839,537,373
116.33045,39.84839,538,373
116.33045,39.84839,539,373
116.33045,39.84839,540,373
116.33045,39.84839,541,373
116.33045,39.84839,542,373
116.33045,39.84839,543,373
116.33045,39.84839,544,373
116.33045,39.84839,545,373
116.33039,39.84871,546,373
116.33039,39.84836,547,373
116.33029,39.84842,548,373
116.33032,39.84868,549,373
116.33035,39.84862,550,373
116.33025,39.84825,551,373
116.33025,39.84828,552,373
116.33025,39.84828,553,373
116.33025,39.84828,554,373
116.33017,39.84812,555,373
116.33019,39.84814,556,373
116.33018,39.84812,557,373
116.33019,39.84816,558,373
116.33025,39.84818,559,373
116.32959,39.84913,560,373
116.32959,39.84913,561,373
116.31835,39.84936,562,373
116.30824,39.86482,563,373
116.30845,39.87371,564,373
116.31468,39.88295,565,373
116.31667,39.88833,566,373
116.33327,39.88834,567,373
116.34285,39.88955,568,373
116.35878,39.90552,569,373
116.35869,39.90794,570,373
116.36157,39.92956,571,373
116.35879,39.93527,572,373
116.35259,39.93725,573,373
116.34563,39.93941,574,373
116.31934,39.93786,575,373
116.31019,39.93898,576,373
116.31148,39.92215,577,373
116.31148,39.92215,578,373
116.31019,39.93898,579,373
116.31019,39.93898,580,373
116.31019,39.93898,581,373
116.30965,39.88553,582,373
116.31822,39.88861,583,373
116.31822,39.88861,584,373
116.32518,39.88496,585,373
116.32756,39.88678,586,373
116.3662,39.88799,587,373
116.37024,39.89137,588,373
116.36542,39.88863,589,373
116.36152,39.88592,590,373
116.35759,39.88338,591,373
116.34787,39.88197,592,373
116.34758,39.8765,593,373
116.34758,39.8765,594,373
116.34758,39.8765,595,373
116.32811,39.84853,596,373
116.33028,39.84863,597,373
116.33027,39.84844,598,373
116.33027,39.84844,599,373
116.33027,39.84844,600,373
116.33027,39.84793,601,373
116.33022,39.84801,602,373
116.33022,39.84801,603,373
116.33022,39.84801,604,373
116.33022,39.84801,605,373
116.33022,39.84801,606,373
116.33022,39.84801,607,373
116.33022,39.84801,608,373
116.33022,39.84801,609,373
116.33022,39.84801,610,373
116.33022,39.84801,611,373
116.33022,39.84801,612,373
116.33022,39.84801,613,373
116.33022,39.84801,614,373
116.33022,39.84801,615,373
116.33022,39.84801,616,373
116.33022,39.84801,617,373
116.33022,39.84801,618,373
116.33022,39.84801,619,373
116.33022,39.84801,620,373
116.33022,39.84801,621,373
116.33022,39.84801,622,373
116.33022,39.84801,623,373
116.33022,39.84801,624,373
116.33022,39.84801,625,373
116.33022,39.84801,626,373
116.33022,39.84801,627,373
116.33028,39.84873,628,373
116.33002,39.84835,629,373
116.32997,39.84821,630,373
116.33019,39.84856,631,373
116.33021,39.84858,632,373
116.33022,39.84867,633,373
116.33023,39.8486,634,373
116.33025,39.84861,635,373
116.33025,39.84861,636,373
116.33026,39.8486,637,373
116.33026,39.8486,638,373
116.33036,39.84847,639,373
116.33037,39.84837,640,373
116.33034,39.84843,641,373
116.32965,39.84819,642,373
116.32965,39.84819,643,373
116.32965,39.84819,644,373
116.32965,39.84819,645,373
116.32965,39.84819,646,373
116.32965,39.84819,647,373
116.32965,39.84819,648,373
116.32965,39.84819,649,373
116.32965,39.84819,650,373
116.32965,39.84819,651,373
116.32992,39.84878,652,373
116.32996,39.84877,653,373
116.33015,39.8488,654,373
116.33017,39.84875,655,373
116.33017,39.84875,656,373
116.33037,39.84885,657,373
116.33032,39.84881,658,373
116.33042,39.84831,659,373
116.33046,39.84806,660,373
116.33046,39.84806,661,373
116.33018,39.84863,662,373
116.32824,39.84844,663,373
116.31159,39.85653,664,373
116.32678,39.8665,665,373
116.34833,39.86423,666,373
116.34843,39.86393,667,373
116.34815,39.86613,668,373
116.34752,39.87756,669,373
116.34689,39.8934,670,373
116.35044,39.89514,671,373
116.35705,39.89726,672,373
116.35705,39.89726,673,373
116.35705,39.89726,674,373
116.35705,39.89726,675,373
116.3492,39.86072,676,373
116.34863,39.86395,677,373
116.34833,39.86454,678,373
116.34833,39.86454,679,373
116.34833,39.86454,680,373
116.34833,39.86454,681,373
116.34833,39.86454,682,373
116.34833,39.86454,683,373
116.34833,39.86454,684,373
116.30947,39.90975,685,373
116.34644,39.90601,686,373
116.3586,39.92007,687,373
116.34549,39.88847,688,373
116.34368,39.88824,689,373
116.343,39.87445,690,373
116.34431,39.86551,691,373
116.34431,39.86551,692,373
116.34431,39.86551,693,373
116.34431,39.86551,694,373
116.34431,39.86551,695,373
116.34431,39.86551,696,373
116.34311,39.86457,697,373
116.34404,39.86527,698,373
116.34407,39.86529,699,373
116.34407,39.86529,700,373
116.3441,39.86532,701,373
116.34412,39.86535,702,373
116.34412,39.86535,703,373
116.30395,39.95321,704,373
116.30395,39.95321,705,373
116.30395,39.95321,706,373
116.30395,39.95321,707,373
116.30395,39.95321,708,373
116.30395,39.95321,709,373
116.30395,39.95321,710,373
116.30395,39.95321,711,373
116.30395,39.95321,712,373
116.30395,39.95321,713,373
116.3299,39.86592,714,373
116.33337,39.88182,715,373
116.33829,39.84702,716,373
116.33829,39.84702,717,373
116.33024,39.84857,718,373
116.32987,39.84867,719,373
116.32993,39.84864,720,373
116.33013,39.84853,721,373
116.33013,39.84853,722,373
116.33028,39.84804,723,373
116.33041,39.84862,724,373
116.33035,39.84855,725,373
116.33009,39.84881,726,373
116.33009,39.84881,727,373
116.33009,39.84881,728,373
116.33009,39.84881,729,373
116.33009,39.84881,730,373
116.33009,39.84881,731,373
116.33009,39.84881,732,373
116.33009,39.84881,733,373
116.33009,39.84881,734,373
116.33009,39.84881,735,373
116.33009,39.84881,736,373
116.33009,39.84881,737,373
116.33009,39.84881,738,373
116.3306,39.84856,739,373
116.33062,39.84858,740,373
116.33062,39.84858,741,373
116.33062,39.84858,742,373
116.3304,39.84851,743,373
116.33041,39.84853,744,373
116.33038,39.8485,745,373
116.33035,39.84858,746,373
116.33034,39.84855,747,373
116.32941,39.84814,748,373
116.32941,39.84814,749,373
116.32941,39.84814,750,373
116.33028,39.8484,751,373
116.33023,39.84836,752,373
116.33023,39.84836,753,373
116.33023,39.84836,754,373
116.33023,39.84836,755,373
116.33023,39.84836,756,373
116.33023,39.84836,757,373
116.33023,39.84836,758,373
116.33023,39.84836,759,373
116.33026,39.84902,760,373
116.33042,39.8486,761,373
116.3304,39.84861,762,373
116.33039,39.8486,763,373
116.33038,39.84863,764,373
116.33007,39.84848,765,373
116.33,39.84851,766,373
116.33032,39.84862,767,373
116.33054,39.84866,768,373
116.3304,39.8487,769,373
116.33039,39.84863,770,373
116.33039,39.84863,771,373
116.33039,39.84861,772,373
116.33038,39.84859,773,373
116.33027,39.84855,774,373
116.33029,39.84855,775,373
116.33028,39.84855,776,373
116.33009,39.84858,777,373
116.33015,39.84854,778,373
116.33033,39.84842,779,373
116.33025,39.84866,780,373
116.33022,39.84874,781,373
116.33022,39.84874,782,373
116.32993,39.84902,783,373
116.32998,39.84892,784,373
116.33014,39.84881,785,373
116.33026,39.84853,786,373
116.33044,39.84895,787,373
116.33044,39.8489,788,373
116.33029,39.84889,789,373
116.33029,39.84889,790,373
116.33029,39.84889,791,373
116.33018,39.84878,792,373
116.3302,39.84877,793,373
116.33019,39.84875,794,373
116.33019,39.84875,795,373
116.33019,39.84875,796,373
116.33002,39.84857,797,373
116.33027,39.84864,798,373
116.33031,39.84872,799,373
116.33024,39.84882,800,373
116.33024,39.84882,801,373
116.33044,39.84859,802,373
116.33036,39.84875,803,373
116.33028,39.84863,804,373
116.33028,39.84864,805,373
116.33029,39.84861,806,373
116.3303,39.84848,807,373
116.33029,39.84849,808,373
116.3302,39.84856,809,373
116.3303,39.8486,810,373
116.33028,39.84859,811,373
116.33007,39.84854,812,373
116.33007,39.84854,813,373
116.33007,39.84854,814,373
116.33067,39.84907,815,373
116.33054,39.8489,816,373
116.33057,39.84894,817,373
116.33038,39.84884,818,373
116.33017,39.84854,819,373
116.33017,39.84854,820,373
116.33017,39.84854,821,373
116.33017,39.84854,822,373
116.33017,39.84854,823,373
116.33017,39.84854,824,373
116.33017,39.84854,825,373
116.33017,39.84854,826,373
116.33017,39.84854,827,373
116.33017,39.84854,828,373
116.33017,39.84854,829,373
116.33017,39.84854,830,373
116.33017,39.84854,831,373
116.33017,39.84854,832,373
116.33017,39.84854,833,373
116.33017,39.84854,834,373
116.33024,39.84858,835,373
116.33024,39.84857,836,373
116.33027,39.84862,837,373
116.3303,39.84867,838,373
116.3303,39.84867,839,373
116.3303,39.84867,840,373
116.3303,39.84867,841,373
116.3303,39.84867,842,373
116.3303,39.84867,843,373
116.3303,39.84867,844,373
116.3303,39.84867,845,373
116.33036,39.84851,846,373
116.33036,39.84851,847,373
116.33036,39.84851,848,373
116.33036,39.84851,849,373
116.33036,39.84851,850,373
116.33036,39.84851,851,373
116.33036,39.84851,852,373
116.33036,39.84851,853,373
116.33036,39.84851,854,373
116.33036,39.84851,855,373
116.33036,39.84851,856,373
116.33036,39.84851,857,373
116.33036,39.84851,858,373
116.33036,39.84851,859,373
116.33036,39.84851,860,373
116.33036,39.84851,861,373
116.33036,39.84851,862,373
116.33036,39.84851,863,373
116.33036,39.84851,864,373
116.33036,39.84851,865,373
116.33036,39.84851,866,373
116.33036,39.84851,867,373
116.33036,39.84851,868,373
116.33036,39.84851,869,373
116.33016,39.84863,870,373
116.33012,39.84854,871,373
116.33014,39.84854,872,373
116.32997,39.84855,873,373
116.39317,39.88476,874,373
116.41318,39.88505,875,373
116.41545,39.86448,876,373
116.41558,39.86225,877,373
116.41558,39.86225,878,373
116.41558,39.86225,879,373
116.41558,39.86225,880,373
116.41558,39.86225,881,373
116.41374,39.84082,882,373
116.39656,39.83378,883,373
116.39396,39.83117,884,373
116.37803,39.83251,885,373
116.37787,39.83274,886,373
116.37779,39.83253,887,373
116.37784,39.83288,888,373
116.37784,39.83288,889,373
116.37784,39.83288,890,373
116.37724,39.832,891,373
116.37258,39.84112,892,373
116.38015,39.8421,893,373
116.37117,39.84878,894,373
116.37117,39.84878,895,373
116.37117,39.84878,896,373
116.35366,39.84387,897,373
116.35366,39.84387,898,373
116.35366,39.84387,899,373
116.35366,39.84387,900,373
116.35366,39.84387,901,373
116.35366,39.84387,902,373
116.35366,39.84387,903,373
116.35366,39.84387,904,373
116.35366,39.84387,905,373
116.35366,39.84387,906,373
116.35366,39.84387,907,373
116.35366,39.84387,908,373
116.35366,39.84387,909,373
116.35366,39.84387,910,373
116.35366,39.84387,911,373
116.35366,39.84387,912,373
116.32996,39.84839,913,373
116.32996,39.84838,914,373
116.33051,39.84902,915,373
116.32995,39.84824,916,373
116.32981,39.84795,917,373
116.32981,39.84795,918,373
116.32981,39.84795,919,373
116.32981,39.84795,920,373
116.33032,39.84828,921,373
116.33045,39.84849,922,373
116.33058,39.84794,923,373
116.3305,39.84814,924,373
116.3305,39.84814,925,373
116.3305,39.84814,926,373
116.3305,39.84814,927,373
116.3305,39.84814,928,373
116.3305,39.84814,929,373
116.3305,39.84814,930,373
116.3305,39.84814,931,373
116.3305,39.84814,932,373
116.3305,39.84814,933,373
116.3305,39.84814,934,373
116.3305,39.84814,935,373
116.3305,39.84814,936,373
116.3305,39.84814,937,373
116.3305,39.84814,938,373
116.3305,39.84814,939,373
116.33075,39.84876,940,373
116.33075,39.84876,941,373
116.33024,39.84866,942,373
116.33024,39.84866,943,373
116.33021,39.84872,944,373
116.3302,39.84873,945,373
116.3302,39.84873,946,373
116.3302,39.84873,947,373
116.3302,39.84873,948,373
116.3302,39.84873,949,373
116.3302,39.84873,950,373
116.3302,39.84873,951,373
116.3302,39.84873,952,373
116.3302,39.84873,953,373
116.3302,39.84873,954,373
116.3302,39.84873,955,373
116.3302,39.84873,956,373
116.3302,39.84873,957,373
116.3302,39.84873,958,373
116.3302,39.84873,959,373
116.3302,39.84873,960,373
116.3302,39.84873,961,373
116.3302,39.84873,962,373
116.3302,39.84873,963,373
116.3302,39.84873,964,373
116.3302,39.84873,965,373
116.3302,39.84873,966,373
116.3302,39.84873,967,373
116.3302,39.84873,968,373
116.3302,39.84873,969,373
116.3302,39.84873,970,373
116.3302,39.84873,971,373
116.3302,39.84873,972,373
116.3302,39.84873,973,373
116.3302,39.84873,974,373
116.3302,39.84873,975,373
116.3302,39.84873,976,373
116.3302,39.84873,977,373
116.3288,39.84928,978,373
116.33004,39.84807,979,373
116.33051,39.84849,980,373
116.33053,39.84849,981,373
116.33047,39.8485,982,373
116.3305,39.8484,983,373
116.33054,39.84849,984,373
116.33049,39.84864,985,373
116.33051,39.84859,986,373
116.33051,39.84858,987,373
116.33052,39.84856,988,373
116.33087,39.84912,989,373
116.3305,39.84844,990,373
116.33055,39.84851,991,373
116.33529,39.85734,992,373
116.33529,39.85734,993,373
116.33529,39.85734,994,373
116.33065,39.84892,995,373
116.3305,39.84864,996,373
116.33046,39.84845,997,373
116.3305,39.8485,998,373
116.33051,39.84851,999,373
116.33052,39.84851,1000,373
116.33052,39.84851,1001,373
116.33052,39.8485,1002,373
116.33053,39.8485,1003,373
116.33053,39.8485,1004,373
116.33053,39.8485,1005,373
116.33053,39.8485,1006,373
116.33053,39.84849,1007,373
116.33053,39.84849,1008,373
116.33059,39.84835,1009,373
116.33054,39.84849,1010,373
116.33055,39.84852,1011,373
116.33052,39.84848,1012,373
116.33053,39.84859,1013,373
116.33053,39.84865,1014,373
116.33015,39.84936,1015,373
116.33018,39.84926,1016,373
116.33052,39.84841,1017,373
116.33015,39.84843,1018,373
116.33057,39.84867,1019,373
116.33059,39.84868,1020,373
116.33057,39.84867,1021,373
116.33026,39.84868,1022,373
116.33044,39.84859,1023,373
116.33044,39.84859,1024,373
116.33044,39.84859,1025,373
116.33044,39.84859,1026,373
116.33044,39.84859,1027,373
116.33044,39.84859,1028,373
116.33032,39.84824,1029,373
116.33035,39.8483,1030,373
116.33034,39.84849,1031,373
116.33038,39.84855,1032,373
116.33038,39.8485,1033,373
116.33038,39.8485,1034,373
116.33038,39.8485,1035,373
116.33038,39.8485,1036,373
116.33044,39.84849,1037,373
116.33047,39.84848,1038,373
116.33062,39.8485,1039,373
116.33062,39.8485,1040,373
116.33062,39.8485,1041,373
116.34591,40.20477,1042,373
116.34591,40.20477,1043,373
116.33046,39.84831,1044,373
116.33046,39.84831,1045,373
116.33052,39.84829,1046,373
116.33052,39.84829,1047,373
116.3305,39.84834,1048,373
116.33051,39.84837,1049,373
116.33051,39.84837,1050,373
116.33051,39.84837,1051,373
116.33051,39.84837,1052,373
116.33047,39.84844,1053,373
116.33048,39.84842,1054,373
116.33048,39.84842,1055,373
116.33048,39.84842,1056,373
116.33048,39.84842,1057,373
116.33048,39.84842,1058,373
116.33048,39.84842,1059,373
116.33048,39.84842,1060,373
116.33048,39.84842,1061,373
116.33001,39.8488,1062,373
116.3301,39.84874,1063,373
116.3301,39.84874,1064,373
116.3301,39.84874,1065,373
116.33042,39.84854,1066,373
116.33042,39.84854,1067,373
116.33056,39.84869,1068,373
116.3307,39.84875,1069,373
116.33058,39.84846,1070,373
116.33039,39.84871,1071,373
116.3304,39.84864,1072,373
116.3304,39.84864,1073,373
116.33034,39.84858,1074,373
116.33043,39.84869,1075,373
116.33045,39.84857,1076,373
116.33045,39.84852,1077,373
116.33045,39.8485,1078,373
116.33046,39.84845,1079,373
116.33064,39.84812,1080,373
116.33057,39.84813,1081,373
116.33056,39.84865,1082,373
116.33055,39.84863,1083,373
116.33037,39.84834,1084,373
116.33019,39.84831,1085,373
116.33019,39.84831,1086,373
116.33019,39.84831,1087,373
116.33084,39.84853,1088,373
116.33049,39.84858,1089,373
116.3305,39.84854,1090,373
116.33046,39.84851,1091,373
116.33036,39.84841,1092,373
116.33036,39.84841,1093,373
116.32973,39.8492,1094,373
116.32973,39.8492,1095,373
116.32969,39.84918,1096,373
116.32969,39.84918,1097,373
116.32969,39.84918,1098,373
116.32969,39.84918,1099,373
116.32969,39.84918,1100,373
116.32969,39.84918,1101,373
116.32969,39.84918,1102,373
116.32969,39.84918,1103,373
116.32969,39.84918,1104,373
116.32969,39.84918,1105,373
116.32969,39.84918,1106,373
116.32969,39.84918,1107,373
116.32969,39.84918,1108,373
116.32969,39.84918,1109,373
116.32969,39.84918,1110,373
116.32969,39.84918,1111,373
116.32969,39.84918,1112,373
116.32969,39.84918,1113,373
116.33052,39.84855,1114,373
116.33056,39.84861,1115,373
116.33056,39.84861,1116,373
116.3306,39.84894,1117,373
116.3306,39.84894,1118,373
116.3306,39.84894,1119,373
116.3306,39.84894,1120,373
116.3306,39.84894,1121,373
116.3306,39.84894,1122,373
116.3306,39.84894,1123,373
116.3306,39.84894,1124,373
116.3306,39.84894,1125,373
116.3306,39.84894,1126,373
116.3306,39.84894,1127,373
116.3306,39.84894,1128,373
116.3306,39.84894,1129,373
116.3306,39.84894,1130,373
116.3306,39.84894,1131,373
116.33037,39.84847,1132,373
116.33036,39.84837,1133,373
116.33038,39.84837,1134,373
116.33051,39.84843,1135,373
116.33051,39.84843,1136,373
116.33036,39.84848,1137,373
116.33032,39.84842,1138,373
116.33035,39.8485,1139,373
116.33031,39.84865,1140,373
116.33029,39.84876,1141,373
116.33029,39.84876,1142,373
116.33029,39.84876,1143,373
116.33029,39.84876,1144,373
116.33029,39.84876,1145,373
116.33056,39.84855,1146,373
116.33054,39.84862,1147,373
116.33054,39.84862,1148,373
116.33054,39.84863,1149,373
116.33025,39.84855,1150,373
116.33023,39.84852,1151,373
116.33053,39.84763,1152,373
116.33024,39.84753,1153,373
116.33021,39.84766,1154,373
116.33021,39.84766,1155,373
116.33021,39.84766,1156,373
116.33021,39.84766,1157,373
116.33021,39.84766,1158,373
116.33055,39.84853,1159,373
116.33052,39.84856,1160,373
116.33054,39.84858,1161,373
116.33043,39.84855,1162,373
116.33036,39.84857,1163,373
116.33042,39.84859,1164,373
116.33044,39.84801,1165,373
116.3304,39.84838,1166,373
116.33035,39.84797,1167,373
116.33037,39.84869,1168,373
116.33037,39.84869,1169,373
116.33058,39.8481,1170,373
116.33058,39.8481,1171,373
116.33058,39.8481,1172,373
116.33058,39.8481,1173,373
116.33058,39.8481,1174,373
116.33058,39.8481,1175,373
116.33047,39.84816,1176,373
116.33047,39.84816,1177,373
116.3306,39.84839,1178,373
116.33057,39.84837,1179,373
116.33056,39.84831,1180,373
116.33073,39.84815,1181,373
116.33062,39.84819,1182,373
116.33055,39.84836,1183,373
116.33038,39.84891,1184,373
116.33038,39.84891,1185,373
116.33047,39.84859,1186,373
116.33052,39.84868,1187,373
116.33065,39.84865,1188,373
116.33074,39.84888,1189,373
116.33074,39.84888,1190,373
116.33074,39.84888,1191,373
116.33074,39.84888,1192,373
116.33074,39.84888,1193,373
116.33074,39.84888,1194,373
116.33074,39.84888,1195,373
116.33074,39.84888,1196,373
116.33074,39.84888,1197,373
116.33074,39.84888,1198,373
116.33032,39.84815,1199,373
116.33038,39.84817,1200,373
116.33077,39.84847,1201,373
116.33077,39.84847,1202,373
116.33053,39.84846,1203,373
116.3305,39.84846,1204,373
116.3305,39.84846,1205,373
116.3305,39.84846,1206,373
116.3305,39.84846,1207,373
116.3305,39.84846,1208,373
116.3305,39.84846,1209,373
116.33039,39.84852,1210,373
116.3304,39.84853,1211,373
116.33033,39.84853,1212,373
116.33035,39.84853,1213,373
116.33037,39.84852,1214,373
116.3304,39.84849,1215,373
116.3304,39.84849,1216,373
116.33056,39.84805,1217,373
116.33056,39.8486,1218,373
116.33089,39.84815,1219,373
116.33089,39.84815,1220,373
116.33089,39.84815,1221,373
116.30853,39.8645,1222,373
116.31144,39.88126,1223,373
116.31147,39.88225,1224,373
116.31145,39.8829,1225,373
116.34644,39.88074,1226,373
116.34437,39.88783,1227,373
116.34437,39.88783,1228,373
116.35785,39.88735,1229,373
116.35785,39.88735,1230,373
116.34418,39.8889,1231,373
116.34242,39.88555,1232,373
116.38721,39.87,1233,373
116.43278,39.86931,1234,373
116.455,39.86167,1235,373
116.45793,39.85691,1236,373
116.45604,39.85855,1237,373
116.45604,39.85855,1238,373
116.4367,39.85772,1239,373
116.41672,39.8566,1240,373
116.41756,39.85985,1241,373
116.38835,39.85588,1242,373
116.35266,39.85223,1243,373
116.34428,39.86552,1244,373
116.34627,39.86118,1245,373
116.32857,39.84857,1246,373
116.32998,39.84849,1247,373
116.32998,39.84849,1248,373
116.33002,39.84861,1249,373
116.33008,39.84864,1250,373
116.33017,39.84856,1251,373
116.33036,39.84867,1252,373
116.3303,39.84864,1253,373
116.33016,39.84855,1254,373
116.33005,39.84852,1255,373
116.33003,39.84849,1256,373
116.33003,39.84849,1257,373
116.33003,39.84849,1258,373
116.33003,39.84849,1259,373
116.33003,39.84849,1260,373
116.33003,39.84849,1261,373
116.33003,39.84849,1262,373
116.33003,39.84849,1263,373
116.33003,39.84849,1264,373
116.33003,39.84849,1265,373
116.33003,39.84849,1266,373
116.33003,39.84849,1267,373
116.33003,39.84849,1268,373
116.33003,39.84849,1269,373
116.33003,39.84849,1270,373
116.33003,39.84849,1271,373
116.33003,39.84849,1272,373
116.33003,39.84849,1273,373
116.33003,39.84849,1274,373
116.33003,39.84849,1275,373
116.33003,39.84849,1276,373
116.33082,39.84893,1277,373
116.33089,39.849,1278,373
116.33089,39.849,1279,373
116.33089,39.849,1280,373
116.33089,39.849,1281,373
116.3305,39.8488,1282,373
116.33061,39.84875,1283,373
116.33061,39.84875,1284,373
116.33061,39.84875,1285,373
116.33061,39.84875,1286,373
116.33061,39.84875,1287,373
116.33061,39.84875,1288,373
116.33061,39.84875,1289,373
116.33061,39.84875,1290,373
116.33061,39.84875,1291,373
116.33061,39.84875,1292,373
116.33061,39.84875,1293,373
116.33061,39.84875,1294,373
116.33061,39.84875,1295,373
116.33061,39.84875,1296,373
116.33061,39.84875,1297,373
116.33061,39.84875,1298,373
116.33061,39.84875,1299,373
116.33061,39.84875,1300,373
116.33061,39.84875,1301,373
116.33061,39.84875,1302,373
116.33061,39.84875,1303,373
116.33061,39.84875,1304,373
116.33061,39.84875,1305,373
116.33061,39.84875,1306,373
116.33061,39.84875,1307,373
116.33061,39.84875,1308,373
116.33061,39.84875,1309,373
116.33061,39.84875,1310,373
116.33061,39.84875,1311,373
116.33023,39.84836,1312,373
116.33023,39.84836,1313,373
116.33023,39.84836,1314,373
116.33041,39.84869,1315,373
116.33045,39.84874,1316,373
116.33042,39.84872,1317,373
116.33042,39.84868,1318,373
116.33045,39.84864,1319,373
116.33044,39.8486,1320,373
116.33044,39.84859,1321,373
116.33044,39.84859,1322,373
116.33032,39.84859,1323,373
116.33031,39.84858,1324,373
116.3299,39.84836,1325,373
116.3299,39.84836,1326,373
116.3299,39.84836,1327,373
116.3299,39.84836,1328,373
116.33034,39.84846,1329,373
116.3304,39.84852,1330,373
116.33039,39.84851,1331,373
116.33039,39.84851,1332,373
116.33039,39.84851,1333,373
116.33039,39.84851,1334,373
116.33039,39.84851,1335,373
116.33039,39.84851,1336,373
116.33039,39.84851,1337,373
116.33039,39.84851,1338,373
116.33039,39.84851,1339,373
116.33039,39.84851,1340,373
116.33039,39.84851,1341,373
116.33065,39.84879,1342,373
116.33065,39.84879,1343,373
116.33065,39.84879,1344,373
116.3302,39.84852,1345,373
116.3302,39.84852,1346,373
116.3302,39.84852,1347,373
116.33039,39.84871,1348,373
116.33023,39.84853,1349,373
116.33027,39.84855,1350,373
116.3303,39.84859,1351,373
116.3303,39.84859,1352,373
116.3302,39.84872,1353,373
116.3302,39.84872,1354,373
116.3302,39.84872,1355,373
116.3302,39.84872,1356,373
116.33029,39.84885,1357,373
116.33029,39.84885,1358,373
116.33029,39.84885,1359,373
116.33029,39.84885,1360,373
116.33015,39.84874,1361,373
116.33015,39.8488,1362,373
116.3303,39.84862,1363,373
116.3303,39.84862,1364,373
116.3303,39.84862,1365,373
116.3303,39.84862,1366,373
116.3303,39.84862,1367,373
116.3303,39.84862,1368,373
116.3303,39.84862,1369,373
116.3303,39.84862,1370,373
116.3303,39.84862,1371,373
116.3303,39.84862,1372,373
116.3303,39.84862,1373,373
116.3303,39.84862,1374,373
116.3303,39.84862,1375,373
116.3303,39.84862,1376,373
116.3303,39.84862,1377,373
116.3303,39.84862,1378,373
116.3303,39.84862,1379,373
116.3303,39.84862,1380,373
116.3303,39.84862,1381,373
116.3303,39.84862,1382,373
116.3303,39.84862,1383,373
116.3303,39.84862,1384,373
116.3303,39.84862,1385,373
116.3303,39.84862,1386,373
116.331,39.84899,1387,373
116.33065,39.84871,1388,373
116.3306,39.84869,1389,373
116.33057,39.84868,1390,373
116.33015,39.8487,1391,373
116.33027,39.84862,1392,373
116.33035,39.84862,1393,373
116.33041,39.84864,1394,373
116.3304,39.84863,1395,373
116.33041,39.8486,1396,373
116.33041,39.84859,1397,373
116.3302,39.84848,1398,373
116.33023,39.84846,1399,373
116.33024,39.84847,1400,373
116.33024,39.84847,1401,373
116.33024,39.84847,1402,373
116.33024,39.84847,1403,373
116.33024,39.84847,1404,373
116.33024,39.84847,1405,373
116.33024,39.84847,1406,373
116.33024,39.84847,1407,373
116.33024,39.84847,1408,373
116.33024,39.84847,1409,373
116.33024,39.84847,1410,373
116.33024,39.84847,1411,373
116.3303,39.84861,1412,373
116.3303,39.84861,1413,373
116.33032,39.84877,1414,373
116.33033,39.84865,1415,373
116.33029,39.84861,1416,373
116.33029,39.84861,1417,373
116.33029,39.84861,1418,373
116.33039,39.8487,1419,373
116.33012,39.84829,1420,373
116.33012,39.84829,1421,373
116.33012,39.84829,1422,373
116.33012,39.84829,1423,373
116.33012,39.84829,1424,373
116.33012,39.84829,1425,373
116.33012,39.84829,1426,373
116.33012,39.84829,1427,373
116.33012,39.84829,1428,373
116.33012,39.84829,1429,373
116.33012,39.84829,1430,373
116.33012,39.84829,1431,373
116.33012,39.84829,1432,373
116.33012,39.84829,1433,373
116.33012,39.84829,1434,373
116.33048,39.84838,1435,373
116.33048,39.84838,1436,373
116.33048,39.84838,1437,373
116.33048,39.84838,1438,373
116.33048,39.84838,1439,373
116.33048,39.84838,1440,373
116.33048,39.84838,1441,373
116.33048,39.84838,1442,373
116.33048,39.84838,1443,373
116.33048,39.84838,1444,373
116.33048,39.84838,1445,373
116.33048,39.84838,1446,373
116.33048,39.84838,1447,373
116.33048,39.84838,1448,373
116.3302,39.84854,1449,373
116.33013,39.84853,1450,373
116.31147,39.85647,1451,373
116.30758,39.8677,1452,373
116.30636,39.88421,1453,373
116.30636,39.88421,1454,373
116.3207,39.88008,1455,373
116.33014,39.88854,1456,373
116.33223,39.88834,1457,373
116.33248,39.88181,1458,373
116.34253,39.88387,1459,373
116.34197,39.86569,1460,373
116.32887,39.84738,1461,373
116.35874,39.84514,1462,373
116.36381,39.84503,1463,373
116.36381,39.84503,1464,373
116.36381,39.84503,1465,373
116.36357,39.84504,1466,373
116.36353,39.84497,1467,373
116.36353,39.84496,1468,373
116.36353,39.84495,1469,373
116.36353,39.84492,1470,373
116.36353,39.84489,1471,373
116.36268,39.84561,1472,373
116.36267,39.84567,1473,373
116.36267,39.84567,1474,373
116.341,39.85716,1475,373
116.34433,39.86538,1476,373
116.34433,39.86538,1477,373
116.34433,39.86538,1478,373
116.34433,39.86538,1479,373
116.34433,39.86538,1480,373
116.34433,39.86538,1481,373
116.34433,39.86538,1482,373
116.34433,39.86538,1483,373
116.34433,39.86538,1484,373
116.34433,39.86538,1485,373
116.34433,39.86538,1486,373
116.34433,39.86538,1487,373
116.34433,39.86538,1488,373
116.34433,39.86538,1489,373
116.34433,39.86538,1490,373
116.34433,39.86538,1491,373
116.34433,39.86538,1492,373
116.34433,39.86538,1493,373
116.34433,39.86538,1494,373
116.34433,39.86538,1495,373
116.34433,39.86538,1496,373
116.34433,39.86538,1497,373
116.33024,39.8486,1498,373
