x,y,k,tid
116.83824,39.8521,0,3786
116.83826,39.85211,1,3786
116.83826,39.85211,2,3786
116.83826,39.85211,3,3786
116.83826,39.85211,4,3786
116.83826,39.85211,5,3786
116.83825,39.8521,6,3786
116.83825,39.8521,7,3786
116.83825,39.8521,8,3786
116.83825,39.8521,9,3786
116.83825,39.8521,10,3786
116.83825,39.85211,11,3786
116.83825,39.85211,12,3786
116.79706,39.85384,13,3786
116.73839,39.85591,14,3786
116.6584,39.88657,15,3786
116.64917,39.88773,16,3786
116.65036,39.88917,17,3786
116.65127,39.88899,18,3786
116.65127,39.88899,19,3786
116.65127,39.88899,20,3786
116.65127,39.88899,21,3786
116.65127,39.88899,22,3786
116.65127,39.88899,23,3786
116.65127,39.88899,24,3786
116.65127,39.88899,25,3786
116.65127,39.88899,26,3786
116.65127,39.88899,27,3786
116.65127,39.88899,28,3786
116.65127,39.88899,29,3786
116.65127,39.88899,30,3786
116.65127,39.88899,31,3786
116.65127,39.88899,32,3786
116.65127,39.88899,33,3786
116.65127,39.88899,34,3786
116.65127,39.88899,35,3786
116.65011,39.88953,36,3786
116.6508,39.89752,37,3786
116.65312,39.90512,38,3786
116.65308,39.90517,39,3786
116.65312,39.90517,40,3786
116.65314,39.90517,41,3786
116.65316,39.90516,42,3786
116.65317,39.90515,43,3786
116.65332,39.90507,44,3786
116.65328,39.90511,45,3786
116.65329,39.90515,46,3786
116.65329,39.90516,47,3786
116.65327,39.90515,48,3786
116.65321,39.90516,49,3786
116.65313,39.90511,50,3786
116.65611,39.90658,51,3786
116.66311,39.90743,52,3786
116.66569,39.90731,53,3786
116.66569,39.90731,54,3786
116.66569,39.90731,55,3786
116.66569,39.90731,56,3786
116.66569,39.90731,57,3786
116.66569,39.90731,58,3786
116.66569,39.90731,59,3786
116.66569,39.90731,60,3786
116.66569,39.90731,61,3786
116.66569,39.90731,62,3786
116.66569,39.90731,63,3786
116.66569,39.90731,64,3786
116.66569,39.90731,65,3786
116.66569,39.90731,66,3786
116.66569,39.90731,67,3786
116.66569,39.90731,68,3786
116.66569,39.90731,69,3786
116.66569,39.90731,70,3786
116.66569,39.90731,71,3786
116.66569,39.90731,72,3786
116.66569,39.90731,73,3786
116.66569,39.90731,74,3786
116.69637,39.9023,75,3786
116.68383,39.90129,76,3786
116.6771,39.90138,77,3786
116.65755,39.89901,78,3786
116.65755,39.89901,79,3786
116.64768,39.89993,80,3786
116.64768,39.89994,81,3786
116.64735,39.90003,82,3786
116.66302,39.89905,83,3786
116.69601,39.9028,84,3786
116.69738,39.90205,85,3786
116.73083,39.89248,86,3786
116.79274,39.86903,87,3786
116.83584,39.85258,88,3786
116.8383,39.85226,89,3786
116.8383,39.85225,90,3786
116.83831,39.85226,91,3786
116.83832,39.85225,92,3786
116.83833,39.85225,93,3786
116.83833,39.85225,94,3786
116.83833,39.85224,95,3786
116.83834,39.85224,96,3786
116.83835,39.85223,97,3786
116.83835,39.85222,98,3786
116.83835,39.85222,99,3786
116.83835,39.85222,100,3786
116.83834,39.85222,101,3786
116.83834,39.85222,102,3786
116.83819,39.85224,103,3786
116.83849,39.85232,104,3786
116.83842,39.85235,105,3786
116.83838,39.85235,106,3786
116.83838,39.85237,107,3786
116.83838,39.85237,108,3786
116.83837,39.85238,109,3786
116.83836,39.85237,110,3786
116.83833,39.85236,111,3786
116.83831,39.85235,112,3786
116.8383,39.85234,113,3786
116.8383,39.85234,114,3786
116.8383,39.85235,115,3786
116.8383,39.85235,116,3786
116.8383,39.85235,117,3786
116.8383,39.85235,118,3786
116.83829,39.85234,119,3786
116.83829,39.85234,120,3786
116.83829,39.85233,121,3786
116.83829,39.85233,122,3786
116.83829,39.85233,123,3786
116.83829,39.85233,124,3786
116.83829,39.85232,125,3786
116.83829,39.85232,126,3786
116.83829,39.85231,127,3786
116.83829,39.85231,128,3786
116.83828,39.85231,129,3786
116.83828,39.8523,130,3786
116.83828,39.8523,131,3786
116.83828,39.8523,132,3786
116.83828,39.8523,133,3786
116.83829,39.85229,134,3786
116.83829,39.85228,135,3786
116.83829,39.85228,136,3786
116.83829,39.85228,137,3786
116.83829,39.85228,138,3786
116.83828,39.85228,139,3786
116.83828,39.85228,140,3786
116.83862,39.85208,141,3786
116.83839,39.85227,142,3786
116.83818,39.85257,143,3786
116.83817,39.85252,144,3786
116.8382,39.85249,145,3786
116.8382,39.85249,146,3786
116.83821,39.85248,147,3786
116.83821,39.85247,148,3786
116.83821,39.85246,149,3786
116.83822,39.85245,150,3786
116.83822,39.85244,151,3786
116.83822,39.85244,152,3786
116.83822,39.85243,153,3786
116.83823,39.85243,154,3786
116.83823,39.85242,155,3786
116.83823,39.85241,156,3786
116.83823,39.85241,157,3786
116.83823,39.8524,158,3786
116.83823,39.8524,159,3786
116.83823,39.85239,160,3786
116.83823,39.85238,161,3786
116.83823,39.85238,162,3786
116.83831,39.85206,163,3786
116.8383,39.85209,164,3786
116.8383,39.85209,165,3786
116.8383,39.8521,166,3786
116.83829,39.85211,167,3786
116.83829,39.85212,168,3786
116.83829,39.85214,169,3786
116.83828,39.85214,170,3786
116.83828,39.85214,171,3786
116.83827,39.85215,172,3786
116.83827,39.85215,173,3786
116.83827,39.85215,174,3786
116.83827,39.85215,175,3786
116.83827,39.85215,176,3786
116.83827,39.85215,177,3786
116.83827,39.85215,178,3786
116.83827,39.85216,179,3786
116.83828,39.85216,180,3786
116.83828,39.85216,181,3786
116.83829,39.85217,182,3786
116.83786,39.8522,183,3786
116.83788,39.85221,184,3786
116.83829,39.85225,185,3786
116.83826,39.85225,186,3786
116.83839,39.85233,187,3786
116.83833,39.85231,188,3786
116.83803,39.85227,189,3786
116.83803,39.85228,190,3786
116.83803,39.85229,191,3786
116.83807,39.85233,192,3786
116.83814,39.85229,193,3786
116.83817,39.85228,194,3786
116.83842,39.85209,195,3786
116.83828,39.85213,196,3786
116.83073,39.85403,197,3786
116.78989,39.85358,198,3786
116.71386,39.8623,199,3786
116.65872,39.88641,200,3786
116.57157,39.91372,201,3786
116.51589,39.90723,202,3786
116.44395,39.90723,203,3786
116.42315,39.90419,204,3786
116.42315,39.90419,205,3786
116.43317,39.89325,206,3786
116.43409,39.88802,207,3786
116.43409,39.888,208,3786
116.455,39.88847,209,3786
116.45526,39.88072,210,3786
116.45536,39.88229,211,3786
116.45582,39.90478,212,3786
116.48385,39.9297,213,3786
116.46914,39.99573,214,3786
116.46657,39.98289,215,3786
116.46576,39.9736,216,3786
116.46305,39.97222,217,3786
116.44183,39.98435,218,3786
116.41807,39.9817,219,3786
116.32368,39.966,220,3786
116.30406,39.93496,221,3786
116.30916,39.90611,222,3786
116.31596,39.89626,223,3786
116.32988,39.89577,224,3786
116.3357,39.89595,225,3786
116.3357,39.89595,226,3786
116.35393,39.89788,227,3786
116.3668,39.89825,228,3786
116.37016,39.90497,229,3786
116.37186,39.9054,230,3786
116.3465,39.90973,231,3786
116.34608,39.90715,232,3786
116.34624,39.90612,233,3786
116.3391,39.91227,234,3786
116.3095,39.88584,235,3786
116.29612,39.87944,236,3786
116.29618,39.87929,237,3786
116.29618,39.87929,238,3786
116.29618,39.87929,239,3786
116.29618,39.87929,240,3786
116.29618,39.87929,241,3786
116.29618,39.87929,242,3786
116.29618,39.87929,243,3786
116.29579,39.88208,244,3786
116.29579,39.88208,245,3786
116.29579,39.88208,246,3786
116.29579,39.88208,247,3786
116.29579,39.88208,248,3786
116.29579,39.88208,249,3786
116.29579,39.88208,250,3786
116.29579,39.88208,251,3786
116.29579,39.88208,252,3786
116.29579,39.88208,253,3786
116.29579,39.88208,254,3786
116.29579,39.88208,255,3786
116.29579,39.88208,256,3786
116.29579,39.88208,257,3786
116.29579,39.88208,258,3786
116.29579,39.88208,259,3786
116.29579,39.88208,260,3786
116.29579,39.88208,261,3786
116.29579,39.88208,262,3786
116.29579,39.88208,263,3786
116.29579,39.88208,264,3786
116.29579,39.88208,265,3786
116.29587,39.87943,266,3786
116.296,39.87951,267,3786
116.29641,39.87933,268,3786
116.29641,39.87933,269,3786
116.29605,39.87946,270,3786
116.29605,39.87946,271,3786
116.29613,39.87964,272,3786
116.29611,39.87978,273,3786
116.29606,39.87944,274,3786
116.29608,39.87963,275,3786
116.29609,39.87966,276,3786
116.29609,39.87966,277,3786
116.29609,39.87966,278,3786
116.29616,39.87931,279,3786
116.29593,39.87957,280,3786
116.29598,39.87948,281,3786
116.29606,39.87911,282,3786
116.29624,39.87943,283,3786
116.29603,39.87911,284,3786
116.29608,39.87947,285,3786
116.29608,39.87947,286,3786
116.29607,39.87946,287,3786
116.29599,39.87982,288,3786
116.29601,39.87969,289,3786
116.29602,39.87962,290,3786
116.29602,39.87957,291,3786
116.29603,39.87954,292,3786
116.2961,39.87945,293,3786
116.29597,39.87963,294,3786
116.2959,39.87967,295,3786
116.2959,39.87967,296,3786
116.2959,39.87967,297,3786
116.29605,39.87954,298,3786
116.29597,39.87938,299,3786
116.2962,39.87939,300,3786
116.2962,39.87938,301,3786
116.2962,39.87938,302,3786
116.30436,39.89028,303,3786
116.30728,39.92294,304,3786
116.33032,39.92165,305,3786
116.34323,39.92229,306,3786
116.34773,39.92076,307,3786
116.34803,39.91941,308,3786
116.348,39.92003,309,3786
116.3477,39.91918,310,3786
116.34692,39.92136,311,3786
116.32938,39.9217,312,3786
116.32938,39.9217,313,3786
116.30219,39.92281,314,3786
116.26607,39.92312,315,3786
116.25382,39.92299,316,3786
116.25271,39.9204,317,3786
116.26397,39.92297,318,3786
116.30041,39.92255,319,3786
116.31631,39.93103,320,3786
116.33751,39.93115,321,3786
116.34921,39.93908,322,3786
116.38373,39.94749,323,3786
116.42611,39.94791,324,3786
116.44358,39.93983,325,3786
116.44898,39.93989,326,3786
116.45537,39.92543,327,3786
116.45692,39.90737,328,3786
116.47183,39.9088,329,3786
116.47606,39.90682,330,3786
116.52546,39.90774,331,3786
116.52551,39.90747,332,3786
116.52529,39.90741,333,3786
116.52541,39.9073,334,3786
116.52545,39.90761,335,3786
116.53374,39.90781,336,3786
116.54753,39.9078,337,3786
116.5706,39.90881,338,3786
116.59379,39.90779,339,3786
116.62777,39.90511,340,3786
116.64394,39.89159,341,3786
116.6549,39.88911,342,3786
116.65563,39.8887,343,3786
116.67474,39.87298,344,3786
116.7148,39.86159,345,3786
116.77354,39.85322,346,3786
116.83559,39.85287,347,3786
116.83817,39.85227,348,3786
116.83818,39.85226,349,3786
116.83818,39.85225,350,3786
116.83819,39.85225,351,3786
116.83819,39.85226,352,3786
116.83818,39.85227,353,3786
116.83817,39.85228,354,3786
116.83817,39.85228,355,3786
116.83817,39.85228,356,3786
116.83818,39.85228,357,3786
116.83818,39.85228,358,3786
116.83818,39.85228,359,3786
116.83819,39.85228,360,3786
116.83819,39.85228,361,3786
116.83819,39.85228,362,3786
116.83819,39.85228,363,3786
116.83819,39.85229,364,3786
116.83819,39.85229,365,3786
116.83819,39.85229,366,3786
116.83819,39.85229,367,3786
116.83819,39.85229,368,3786
116.83819,39.85228,369,3786
116.83819,39.85228,370,3786
116.83819,39.85228,371,3786
116.83819,39.85228,372,3786
116.83819,39.85228,373,3786
116.8382,39.85228,374,3786
116.8382,39.85228,375,3786
116.8382,39.85228,376,3786
116.8382,39.85228,377,3786
116.8382,39.85228,378,3786
116.8382,39.85228,379,3786
116.8382,39.85228,380,3786
116.8382,39.85228,381,3786
116.8382,39.85228,382,3786
116.8382,39.85228,383,3786
116.8382,39.85228,384,3786
116.8382,39.85228,385,3786
116.8382,39.85228,386,3786
116.8382,39.85228,387,3786
116.8382,39.85228,388,3786
116.8382,39.85228,389,3786
116.8382,39.85228,390,3786
116.8382,39.85228,391,3786
116.8382,39.85228,392,3786
116.8382,39.85228,393,3786
116.8382,39.85228,394,3786
116.8382,39.85228,395,3786
116.8382,39.85228,396,3786
116.8382,39.85228,397,3786
116.8382,39.85228,398,3786
116.8382,39.85228,399,3786
116.8382,39.85228,400,3786
116.8382,39.85228,401,3786
116.8382,39.85228,402,3786
116.83821,39.85228,403,3786
116.83821,39.85228,404,3786
116.83821,39.85228,405,3786
116.83821,39.85227,406,3786
116.83821,39.85227,407,3786
116.83821,39.85227,408,3786
116.83822,39.85227,409,3786
116.83822,39.85227,410,3786
116.83822,39.85227,411,3786
116.83822,39.85227,412,3786
116.83822,39.85227,413,3786
116.83822,39.85227,414,3786
116.8379,39.85237,415,3786
116.83807,39.85229,416,3786
116.83814,39.85233,417,3786
116.83816,39.8523,418,3786
116.83816,39.8523,419,3786
116.83816,39.85229,420,3786
116.83817,39.85229,421,3786
116.83817,39.85228,422,3786
116.83817,39.85228,423,3786
116.83818,39.85228,424,3786
116.83818,39.85228,425,3786
116.83818,39.85228,426,3786
116.83819,39.85228,427,3786
116.8382,39.85229,428,3786
116.8382,39.85229,429,3786
116.8382,39.85229,430,3786
116.8382,39.85229,431,3786
116.8382,39.85229,432,3786
116.8382,39.85228,433,3786
116.8382,39.85228,434,3786
116.83821,39.85228,435,3786
116.83821,39.85228,436,3786
116.83821,39.85228,437,3786
116.83821,39.85228,438,3786
116.83821,39.85227,439,3786
116.83821,39.85227,440,3786
116.83821,39.85227,441,3786
116.83821,39.85227,442,3786
116.83821,39.85227,443,3786
116.83821,39.85227,444,3786
116.83821,39.85227,445,3786
116.83821,39.85227,446,3786
116.83821,39.85227,447,3786
116.83821,39.85227,448,3786
116.83821,39.85227,449,3786
116.83821,39.85227,450,3786
116.83821,39.85227,451,3786
116.83821,39.85227,452,3786
116.83821,39.85227,453,3786
116.83821,39.85227,454,3786
116.83821,39.85227,455,3786
116.83823,39.85224,456,3786
116.83823,39.85225,457,3786
116.83822,39.85225,458,3786
116.83823,39.85224,459,3786
116.83823,39.85224,460,3786
116.83823,39.85225,461,3786
116.83824,39.85225,462,3786
116.83823,39.85225,463,3786
116.83824,39.85229,464,3786
116.8382,39.8523,465,3786
116.83821,39.85229,466,3786
116.83821,39.85228,467,3786
116.83821,39.85229,468,3786
116.83822,39.85228,469,3786
116.83822,39.85227,470,3786
116.83823,39.85226,471,3786
116.83823,39.85226,472,3786
116.83122,39.8525,473,3786
116.80101,39.85395,474,3786
116.72485,39.85934,475,3786
116.66626,39.8803,476,3786
116.61635,39.90562,477,3786
116.59688,39.90834,478,3786
116.59688,39.90834,479,3786
116.59686,39.90832,480,3786
116.5897,39.91094,481,3786
116.55304,39.91499,482,3786
116.51545,39.91585,483,3786
116.51141,39.91356,484,3786
116.5112,39.91373,485,3786
116.50637,39.9069,486,3786
116.40859,39.85597,487,3786
116.40534,39.85253,488,3786
116.40626,39.85549,489,3786
116.35881,39.85136,490,3786
116.37346,39.84665,491,3786
116.37353,39.84543,492,3786
116.38112,39.86302,493,3786
116.38962,39.87122,494,3786
116.42759,39.86923,495,3786
116.42759,39.86923,496,3786
116.43943,39.87524,497,3786
116.42864,39.91746,498,3786
116.41619,39.92319,499,3786
116.43173,39.92098,500,3786
116.44415,39.91217,501,3786
116.45005,39.91205,502,3786
116.47186,39.91143,503,3786
116.47186,39.91143,504,3786
116.46489,39.90728,505,3786
116.45524,39.90624,506,3786
116.45512,39.90445,507,3786
116.44895,39.86183,508,3786
116.44195,39.85636,509,3786
116.4462,39.85937,510,3786
116.46162,39.86864,511,3786
116.45545,39.8805,512,3786
116.45522,39.88262,513,3786
116.47087,39.88308,514,3786
116.47154,39.89874,515,3786
116.47216,39.92077,516,3786
116.47456,39.92687,517,3786
116.47456,39.92687,518,3786
116.47206,39.92162,519,3786
116.46697,39.92401,520,3786
116.45208,39.93265,521,3786
116.44439,39.93264,522,3786
116.44439,39.93264,523,3786
116.44594,39.93983,524,3786
116.45211,39.9539,525,3786
116.44507,39.95939,526,3786
116.45241,39.95328,527,3786
116.45528,39.93298,528,3786
116.45482,39.92294,529,3786
116.46094,39.92452,530,3786
116.4657,39.91466,531,3786
116.47182,39.90839,532,3786
116.47182,39.90839,533,3786
116.45491,39.95265,534,3786
116.45835,39.95951,535,3786
116.45835,39.95951,536,3786
116.46199,39.94871,537,3786
116.46199,39.94871,538,3786
116.46298,39.94533,539,3786
116.46792,39.94411,540,3786
116.4758,39.93245,541,3786
116.48647,39.91402,542,3786
116.48647,39.91402,543,3786
116.48401,39.94661,544,3786
116.47321,39.97062,545,3786
116.47467,39.972,546,3786
116.46687,39.98231,547,3786
116.45911,39.98722,548,3786
116.46647,39.99421,549,3786
116.46597,39.9957,550,3786
116.46764,39.98888,551,3786
116.46957,39.98765,552,3786
116.46224,39.97058,553,3786
116.48357,39.9247,554,3786
116.46296,39.90365,555,3786
116.46911,39.89921,556,3786
116.45517,39.89553,557,3786
116.44986,39.88406,558,3786
116.44982,39.88412,559,3786
116.44982,39.88413,560,3786
116.44983,39.88414,561,3786
116.45377,39.88299,562,3786
116.45534,39.88128,563,3786
116.45532,39.89476,564,3786
116.4688,39.90923,565,3786
116.48393,39.90964,566,3786
116.4971,39.91229,567,3786
116.49597,39.91509,568,3786
116.49227,39.92707,569,3786
116.49097,39.92703,570,3786
116.4963,39.93063,571,3786
116.48642,39.92183,572,3786
116.48325,39.9046,573,3786
116.32289,39.89685,574,3786
116.33413,39.896,575,3786
116.34597,39.89676,576,3786
116.34597,39.89676,577,3786
116.35068,39.91055,578,3786
116.35068,39.91055,579,3786
116.35007,39.92404,580,3786
116.35931,39.94486,581,3786
116.40373,39.94761,582,3786
116.44202,39.9508,583,3786
116.49317,39.99684,584,3786
116.55779,40.03082,585,3786
116.58188,40.0728,586,3786
116.58104,40.07775,587,3786
116.58219,40.07164,588,3786
116.59612,40.04631,589,3786
116.61935,40.03274,590,3786
116.64628,40.00886,591,3786
116.64628,40.00886,592,3786
116.65201,39.97227,593,3786
116.65091,39.94078,594,3786
116.64998,39.92201,595,3786
116.6889,39.90923,596,3786
116.69694,39.9022,597,3786
116.69693,39.90221,598,3786
116.69692,39.9022,599,3786
116.69692,39.90219,600,3786
116.69691,39.9022,601,3786
116.69691,39.9022,602,3786
116.69691,39.9022,603,3786
116.69691,39.90221,604,3786
116.6969,39.90221,605,3786
116.6969,39.90221,606,3786
116.69691,39.90222,607,3786
116.6969,39.90222,608,3786
116.6969,39.90222,609,3786
116.69688,39.90219,610,3786
116.69795,39.90199,611,3786
116.69683,39.90218,612,3786
116.70279,39.9021,613,3786
116.70762,39.90168,614,3786
116.73618,39.89913,615,3786
116.7312,39.90579,616,3786
116.72564,39.94129,617,3786
116.73109,39.96077,618,3786
116.73181,39.96211,619,3786
116.73182,39.96211,620,3786
116.73183,39.9621,621,3786
116.73158,39.9623,622,3786
116.73158,39.9623,623,3786
116.72557,39.94158,624,3786
116.73077,39.91054,625,3786
116.69633,39.9022,626,3786
116.6993,39.90102,627,3786
116.73116,39.8919,628,3786
116.7953,39.86593,629,3786
116.83547,39.85352,630,3786
116.83824,39.85224,631,3786
116.83825,39.85224,632,3786
116.83829,39.85216,633,3786
116.83826,39.85221,634,3786
116.83824,39.85225,635,3786
116.83822,39.85228,636,3786
116.83822,39.85228,637,3786
116.83822,39.85229,638,3786
116.83822,39.85229,639,3786
116.83822,39.85229,640,3786
116.83821,39.85229,641,3786
116.83821,39.85228,642,3786
116.83821,39.85228,643,3786
116.83821,39.85228,644,3786
116.83821,39.85227,645,3786
116.83821,39.85227,646,3786
116.83821,39.85227,647,3786
116.83821,39.85227,648,3786
116.83821,39.85227,649,3786
116.83821,39.85227,650,3786
116.83821,39.85227,651,3786
116.83821,39.85227,652,3786
116.83821,39.85227,653,3786
116.83821,39.85227,654,3786
116.83821,39.85227,655,3786
116.83821,39.85228,656,3786
116.83821,39.85228,657,3786
116.83821,39.85227,658,3786
116.83821,39.85227,659,3786
116.83821,39.85227,660,3786
116.83821,39.85227,661,3786
116.83821,39.85227,662,3786
116.83821,39.85227,663,3786
116.83821,39.85227,664,3786
116.83821,39.85227,665,3786
116.83821,39.85227,666,3786
116.83821,39.85227,667,3786
116.83821,39.85227,668,3786
116.83821,39.85227,669,3786
116.83821,39.85227,670,3786
116.83821,39.85226,671,3786
116.83821,39.85226,672,3786
116.83821,39.85226,673,3786
116.40035,39.95012,674,3786
116.83821,39.85226,675,3786
116.83821,39.85226,676,3786
116.83821,39.85226,677,3786
116.83821,39.85226,678,3786
116.83821,39.85226,679,3786
116.83821,39.85226,680,3786
116.83821,39.85226,681,3786
116.83822,39.85226,682,3786
116.83812,39.85194,683,3786
116.83833,39.85228,684,3786
116.8383,39.85217,685,3786
116.83801,39.85201,686,3786
116.83829,39.85221,687,3786
116.83828,39.85222,688,3786
116.83827,39.85223,689,3786
116.83827,39.85224,690,3786
116.83827,39.85225,691,3786
116.83827,39.85226,692,3786
116.83827,39.85226,693,3786
116.83827,39.85226,694,3786
116.83827,39.85226,695,3786
116.83827,39.85226,696,3786
116.83827,39.85226,697,3786
116.83827,39.85226,698,3786
116.83826,39.85226,699,3786
116.83826,39.85226,700,3786
116.83826,39.85226,701,3786
116.83826,39.85226,702,3786
116.83826,39.85226,703,3786
116.83826,39.85227,704,3786
116.83826,39.85227,705,3786
116.83826,39.85227,706,3786
116.83825,39.85227,707,3786
116.83825,39.85227,708,3786
116.83825,39.85227,709,3786
116.83824,39.85227,710,3786
116.83824,39.85227,711,3786
116.83824,39.85227,712,3786
116.83823,39.85227,713,3786
116.83823,39.85227,714,3786
116.83823,39.85227,715,3786
116.83823,39.85227,716,3786
116.83823,39.85227,717,3786
116.83823,39.85227,718,3786
116.83823,39.85227,719,3786
116.83823,39.85227,720,3786
116.83823,39.85227,721,3786
116.83823,39.85227,722,3786
116.83824,39.85227,723,3786
116.83824,39.85227,724,3786
116.83792,39.85248,725,3786
116.83792,39.85248,726,3786
116.83798,39.85245,727,3786
116.83798,39.85245,728,3786
116.83804,39.85241,729,3786
116.83807,39.85241,730,3786
116.83807,39.8524,731,3786
116.83808,39.85238,732,3786
116.83832,39.85219,733,3786
116.83827,39.85222,734,3786
116.83824,39.85225,735,3786
116.83822,39.85227,736,3786
116.8382,39.8523,737,3786
116.8382,39.8523,738,3786
116.83828,39.85205,739,3786
116.82285,39.85438,740,3786
116.71912,39.90169,741,3786
116.69521,39.90402,742,3786
116.67034,39.9079,743,3786
116.65221,39.90711,744,3786
116.62435,39.90555,745,3786
116.57458,39.91331,746,3786
116.53535,39.91529,747,3786
116.50594,39.91504,748,3786
116.48764,39.9145,749,3786
116.47504,39.96239,750,3786
116.58197,40.07153,751,3786
116.58655,40.07807,752,3786
116.58415,40.07833,753,3786
116.588,40.054,754,3786
116.56974,40.03441,755,3786
116.5574,40.01114,756,3786
116.55736,39.97078,757,3786
116.54127,39.95259,758,3786
116.51165,39.93929,759,3786
116.51121,39.92405,760,3786
116.49681,39.91473,761,3786
116.46628,39.91478,762,3786
116.44041,39.92193,763,3786
116.44218,39.9216,764,3786
116.45549,39.92219,765,3786
116.46085,39.92429,766,3786
116.4554,39.91677,767,3786
116.4545,39.90786,768,3786
116.45453,39.9032,769,3786
116.45479,39.87097,770,3786
116.40891,39.85593,771,3786
116.40596,39.85251,772,3786
116.415,39.84446,773,3786
116.41485,39.85573,774,3786
116.42553,39.86007,775,3786
116.43979,39.87947,776,3786
116.46859,39.90358,777,3786
116.46811,39.90605,778,3786
116.4572,39.90744,779,3786
116.45511,39.90357,780,3786
116.45573,39.90613,781,3786
116.45559,39.91851,782,3786
116.44307,39.95988,783,3786
116.38846,39.96863,784,3786
116.38854,39.97055,785,3786
116.40277,39.98709,786,3786
116.44953,39.98035,787,3786
116.45103,39.98354,788,3786
116.4654,39.98153,789,3786
116.47498,39.96989,790,3786
116.48503,39.95837,791,3786
116.48387,39.95791,792,3786
116.48406,39.95824,793,3786
116.48407,39.958,794,3786
116.48352,39.9577,795,3786
116.4571,39.94844,796,3786
116.43856,39.94118,797,3786
116.4384,39.93927,798,3786
116.43757,39.93278,799,3786
116.43991,39.92224,800,3786
116.43956,39.91909,801,3786
116.42269,39.8993,802,3786
116.41347,39.89565,803,3786
116.42148,39.89275,804,3786
116.42609,39.89211,805,3786
116.44062,39.90494,806,3786
116.44237,39.90515,807,3786
116.44164,39.90585,808,3786
116.44584,39.9068,809,3786
116.48363,39.88895,810,3786
116.48335,39.87686,811,3786
116.46177,39.86983,812,3786
116.46036,39.8701,813,3786
116.4604,39.86995,814,3786
116.46018,39.87051,815,3786
116.46034,39.87019,816,3786
116.46034,39.87034,817,3786
116.45744,39.87011,818,3786
116.4552,39.8823,819,3786
116.47145,39.88757,820,3786
116.47144,39.88757,821,3786
116.47176,39.90274,822,3786
116.47167,39.9046,823,3786
116.46966,39.90732,824,3786
116.46391,39.90806,825,3786
116.47192,39.91365,826,3786
116.48015,39.91394,827,3786
116.50533,39.91472,828,3786
116.52384,39.91572,829,3786
116.50602,39.915,830,3786
116.49151,39.90985,831,3786
116.49152,39.90981,832,3786
116.49152,39.90981,833,3786
116.49171,39.90986,834,3786
116.4907,39.90984,835,3786
116.48391,39.93035,836,3786
116.4713,39.97705,837,3786
116.5309,40.02133,838,3786
116.58431,40.05418,839,3786
116.58666,40.07751,840,3786
116.58068,40.07653,841,3786
116.58068,40.07653,842,3786
116.58201,40.06595,843,3786
116.58263,40.06945,844,3786
116.58456,40.05122,845,3786
116.56569,40.03255,846,3786
116.55772,40.00959,847,3786
116.55518,39.97078,848,3786
116.54705,39.96469,849,3786
116.53553,39.94039,850,3786
116.467,39.93263,851,3786
116.44404,39.93246,852,3786
116.4385,39.93236,853,3786
116.44027,39.92197,854,3786
116.43955,39.91206,855,3786
116.43955,39.91206,856,3786
116.43806,39.91201,857,3786
116.43095,39.90748,858,3786
116.44004,39.907,859,3786
116.58537,39.91461,860,3786
116.58471,39.91151,861,3786
116.6012,39.90734,862,3786
116.62784,39.90478,863,3786
116.6393,39.89293,864,3786
116.66104,39.88393,865,3786
116.66539,39.88075,866,3786
116.69262,39.86762,867,3786
116.70621,39.86366,868,3786
116.70622,39.86367,869,3786
116.70619,39.86366,870,3786
116.70628,39.86379,871,3786
116.70602,39.86353,872,3786
116.70615,39.86378,873,3786
116.70938,39.86286,874,3786
116.72392,39.85902,875,3786
116.78331,39.85343,876,3786
116.83792,39.85118,877,3786
116.83823,39.85221,878,3786
116.83823,39.8522,879,3786
116.83825,39.8522,880,3786
116.83826,39.8522,881,3786
116.83825,39.8522,882,3786
116.83844,39.84935,883,3786
116.83846,39.84935,884,3786
116.83846,39.84935,885,3786
116.83846,39.84936,886,3786
116.83846,39.84936,887,3786
116.83847,39.84936,888,3786
116.83847,39.84936,889,3786
116.83847,39.84936,890,3786
116.8385,39.84935,891,3786
116.8385,39.84935,892,3786
116.8385,39.84935,893,3786
116.83876,39.85096,894,3786
116.83823,39.85224,895,3786
116.83824,39.85224,896,3786
116.83826,39.85223,897,3786
116.83825,39.85223,898,3786
116.83825,39.85224,899,3786
116.83823,39.85225,900,3786
116.83823,39.85225,901,3786
116.83823,39.85225,902,3786
116.83823,39.85226,903,3786
116.83823,39.85226,904,3786
116.83823,39.85226,905,3786
116.83823,39.85227,906,3786
116.83893,39.85255,907,3786
116.83812,39.85229,908,3786
116.83812,39.8523,909,3786
116.83814,39.8523,910,3786
116.83815,39.85229,911,3786
116.83816,39.85229,912,3786
116.83816,39.85229,913,3786
116.83817,39.85229,914,3786
116.83817,39.85229,915,3786
116.83818,39.85229,916,3786
116.8382,39.85229,917,3786
116.8382,39.85229,918,3786
116.8382,39.85229,919,3786
116.8382,39.85228,920,3786
116.8382,39.85228,921,3786
116.83821,39.85228,922,3786
116.83821,39.85228,923,3786
116.83821,39.85228,924,3786
116.83821,39.85228,925,3786
116.83821,39.85227,926,3786
116.83821,39.85227,927,3786
116.8382,39.85227,928,3786
116.8382,39.85227,929,3786
116.8382,39.85227,930,3786
116.8382,39.85226,931,3786
116.83819,39.85226,932,3786
116.83819,39.85225,933,3786
116.83819,39.85225,934,3786
116.83819,39.85225,935,3786
116.83819,39.85225,936,3786
116.83818,39.85225,937,3786
116.83818,39.85225,938,3786
116.83818,39.85226,939,3786
116.83818,39.85226,940,3786
116.83818,39.85226,941,3786
116.83818,39.85226,942,3786
116.83818,39.85225,943,3786
116.83818,39.85225,944,3786
116.83818,39.85225,945,3786
116.83818,39.85225,946,3786
116.83818,39.85225,947,3786
116.83818,39.85225,948,3786
116.83818,39.85225,949,3786
116.83818,39.85225,950,3786
116.83818,39.85225,951,3786
116.83818,39.85225,952,3786
116.83818,39.85225,953,3786
116.83818,39.85225,954,3786
116.83819,39.85225,955,3786
116.83819,39.85225,956,3786
116.83819,39.85225,957,3786
116.83819,39.85225,958,3786
116.83819,39.85226,959,3786
116.83819,39.85226,960,3786
116.83819,39.85226,961,3786
116.83819,39.85226,962,3786
116.83819,39.85225,963,3786
116.83819,39.85225,964,3786
116.8382,39.85225,965,3786
116.8382,39.85225,966,3786
116.8382,39.85225,967,3786
116.8382,39.85225,968,3786
116.8382,39.85226,969,3786
116.8382,39.85226,970,3786
116.8382,39.85226,971,3786
116.8382,39.85226,972,3786
116.8382,39.85226,973,3786
116.8382,39.85226,974,3786
116.8382,39.85226,975,3786
116.8382,39.85226,976,3786
116.8382,39.85226,977,3786
116.8382,39.85226,978,3786
116.8382,39.85225,979,3786
116.8382,39.85225,980,3786
116.8382,39.85225,981,3786
116.8382,39.85225,982,3786
116.8382,39.85225,983,3786
116.8382,39.85225,984,3786
116.83821,39.85225,985,3786
116.83844,39.85228,986,3786
116.83842,39.8523,987,3786
116.83797,39.85236,988,3786
116.83838,39.85233,989,3786
116.83798,39.85237,990,3786
116.8383,39.85238,991,3786
116.8383,39.85235,992,3786
116.83811,39.85227,993,3786
116.83821,39.85226,994,3786
116.83822,39.85225,995,3786
116.83822,39.85228,996,3786
116.83822,39.85228,997,3786
116.83822,39.85228,998,3786
116.83822,39.85228,999,3786
116.83823,39.85229,1000,3786
116.83822,39.85229,1001,3786
116.83822,39.85229,1002,3786
116.83822,39.85229,1003,3786
116.83822,39.85229,1004,3786
116.83822,39.85229,1005,3786
116.83821,39.8523,1006,3786
116.83821,39.8523,1007,3786
116.8382,39.8523,1008,3786
116.8382,39.8523,1009,3786
116.8382,39.8523,1010,3786
116.8382,39.8523,1011,3786
116.8382,39.8523,1012,3786
116.8382,39.8523,1013,3786
116.83819,39.8523,1014,3786
116.83819,39.8523,1015,3786
116.8382,39.85243,1016,3786
116.8382,39.85235,1017,3786
116.83821,39.85233,1018,3786
116.83821,39.85234,1019,3786
116.83822,39.85234,1020,3786
116.83822,39.85233,1021,3786
116.83822,39.85234,1022,3786
116.83823,39.85233,1023,3786
116.83823,39.85232,1024,3786
116.83825,39.85232,1025,3786
116.83825,39.85232,1026,3786
116.83825,39.85232,1027,3786
116.83825,39.85232,1028,3786
116.83824,39.85225,1029,3786
116.83823,39.85221,1030,3786
116.8382,39.85221,1031,3786
116.8382,39.85221,1032,3786
116.83821,39.85221,1033,3786
116.83823,39.85226,1034,3786
116.83822,39.85228,1035,3786
116.83822,39.85229,1036,3786
116.83823,39.8523,1037,3786
116.83823,39.8523,1038,3786
116.83823,39.85229,1039,3786
116.83822,39.85229,1040,3786
116.8383,39.85233,1041,3786
116.83828,39.85222,1042,3786
116.83826,39.85229,1043,3786
116.83825,39.85232,1044,3786
116.83824,39.8523,1045,3786
116.83818,39.85207,1046,3786
116.83827,39.85219,1047,3786
116.83822,39.8523,1048,3786
116.83821,39.85231,1049,3786
116.8382,39.85231,1050,3786
116.83821,39.85232,1051,3786
116.8382,39.85234,1052,3786
116.83816,39.85233,1053,3786
116.83781,39.85231,1054,3786
116.83781,39.85231,1055,3786
116.83821,39.85233,1056,3786
116.83821,39.85236,1057,3786
116.8382,39.85237,1058,3786
116.83818,39.85236,1059,3786
116.83818,39.85235,1060,3786
116.83818,39.8523,1061,3786
116.83818,39.85229,1062,3786
116.83821,39.85231,1063,3786
116.83821,39.85231,1064,3786
116.83811,39.85245,1065,3786
116.83819,39.85237,1066,3786
116.83822,39.85234,1067,3786
116.83824,39.85233,1068,3786
116.83825,39.85232,1069,3786
116.83824,39.85233,1070,3786
116.83824,39.85233,1071,3786
116.83824,39.85233,1072,3786
116.83824,39.85234,1073,3786
116.83825,39.85234,1074,3786
116.83825,39.85235,1075,3786
116.83825,39.85234,1076,3786
116.83825,39.85233,1077,3786
116.83825,39.85233,1078,3786
116.83824,39.85232,1079,3786
116.83824,39.85232,1080,3786
116.83824,39.85231,1081,3786
116.83825,39.85231,1082,3786
116.83825,39.85231,1083,3786
116.83825,39.85231,1084,3786
116.83825,39.85231,1085,3786
116.83825,39.8523,1086,3786
116.83825,39.8523,1087,3786
116.83825,39.8523,1088,3786
116.83826,39.8523,1089,3786
116.83826,39.8523,1090,3786
116.83826,39.8523,1091,3786
116.83826,39.85229,1092,3786
116.83826,39.85229,1093,3786
116.83826,39.85229,1094,3786
116.83826,39.85229,1095,3786
116.83827,39.85229,1096,3786
116.83827,39.85229,1097,3786
116.83827,39.85229,1098,3786
116.83827,39.85229,1099,3786
116.83827,39.85229,1100,3786
116.83827,39.85229,1101,3786
116.83826,39.85229,1102,3786
116.83826,39.85229,1103,3786
116.83826,39.85229,1104,3786
116.83826,39.85229,1105,3786
116.83826,39.85229,1106,3786
116.83826,39.85228,1107,3786
116.83826,39.85228,1108,3786
116.83826,39.85228,1109,3786
116.83826,39.85228,1110,3786
116.83823,39.85211,1111,3786
116.83822,39.85213,1112,3786
116.83822,39.85213,1113,3786
116.83821,39.85214,1114,3786
116.83823,39.85217,1115,3786
116.83823,39.85219,1116,3786
116.83824,39.8522,1117,3786
116.83825,39.85222,1118,3786
116.8384,39.85239,1119,3786
116.83826,39.85224,1120,3786
116.83831,39.85227,1121,3786
116.83831,39.85227,1122,3786
116.83831,39.85226,1123,3786
116.83831,39.85226,1124,3786
116.83817,39.85221,1125,3786
116.8384,39.85222,1126,3786
116.83832,39.85221,1127,3786
116.83831,39.85221,1128,3786
116.83828,39.85222,1129,3786
116.83828,39.85223,1130,3786
116.83827,39.85223,1131,3786
116.83826,39.85222,1132,3786
116.83826,39.85221,1133,3786
116.83825,39.85222,1134,3786
116.83825,39.85222,1135,3786
116.83826,39.8521,1136,3786
116.83821,39.85211,1137,3786
116.8382,39.85213,1138,3786
116.83819,39.85213,1139,3786
116.83819,39.85214,1140,3786
116.8382,39.85215,1141,3786
116.83838,39.8521,1142,3786
116.83829,39.85213,1143,3786
116.83828,39.85217,1144,3786
116.83828,39.85217,1145,3786
116.83827,39.85217,1146,3786
116.83827,39.85216,1147,3786
116.83829,39.85217,1148,3786
116.83829,39.85219,1149,3786
116.83828,39.8522,1150,3786
116.83829,39.85221,1151,3786
116.83828,39.85223,1152,3786
116.83827,39.85224,1153,3786
116.83826,39.85224,1154,3786
116.83826,39.85224,1155,3786
116.83826,39.85225,1156,3786
116.83827,39.85225,1157,3786
116.83827,39.85225,1158,3786
116.83827,39.85226,1159,3786
116.83827,39.85226,1160,3786
116.83827,39.85226,1161,3786
116.83827,39.85227,1162,3786
116.83827,39.85227,1163,3786
116.83827,39.85227,1164,3786
116.83827,39.85227,1165,3786
116.83827,39.85227,1166,3786
116.83827,39.85227,1167,3786
116.83835,39.85234,1168,3786
116.83832,39.85234,1169,3786
116.8383,39.85236,1170,3786
116.8383,39.85235,1171,3786
116.8383,39.85235,1172,3786
116.8383,39.85233,1173,3786
116.83831,39.85231,1174,3786
116.83831,39.8523,1175,3786
116.8383,39.85228,1176,3786
116.83829,39.85227,1177,3786
116.83824,39.85208,1178,3786
116.83824,39.85211,1179,3786
116.83826,39.85215,1180,3786
116.83828,39.85219,1181,3786
116.8383,39.85222,1182,3786
116.83831,39.85224,1183,3786
116.8383,39.85225,1184,3786
116.8383,39.85226,1185,3786
116.8383,39.85226,1186,3786
116.83829,39.85227,1187,3786
116.83829,39.85227,1188,3786
116.83829,39.85227,1189,3786
116.83829,39.85227,1190,3786
116.83829,39.85227,1191,3786
116.83828,39.85226,1192,3786
116.83828,39.85226,1193,3786
116.83828,39.85226,1194,3786
116.83829,39.85226,1195,3786
116.83829,39.85226,1196,3786
116.83828,39.85226,1197,3786
116.83828,39.85226,1198,3786
116.83828,39.85226,1199,3786
116.83828,39.85226,1200,3786
116.83828,39.85226,1201,3786
116.83828,39.85226,1202,3786
116.83828,39.85226,1203,3786
116.83828,39.85226,1204,3786
116.83828,39.85227,1205,3786
116.83828,39.85227,1206,3786
116.83828,39.85227,1207,3786
116.83828,39.85227,1208,3786
116.83828,39.85226,1209,3786
116.83842,39.85238,1210,3786
116.8384,39.85232,1211,3786
116.83839,39.85228,1212,3786
116.83836,39.85227,1213,3786
116.83809,39.85157,1214,3786
116.83818,39.85201,1215,3786
116.83819,39.85206,1216,3786
116.83822,39.85209,1217,3786
116.83822,39.8521,1218,3786
116.83826,39.85217,1219,3786
116.83827,39.85219,1220,3786
116.83828,39.8522,1221,3786
116.83828,39.85221,1222,3786
116.83828,39.85222,1223,3786
116.83828,39.85222,1224,3786
116.83827,39.85222,1225,3786
116.83826,39.85223,1226,3786
116.83826,39.85223,1227,3786
116.83826,39.85223,1228,3786
116.83826,39.85223,1229,3786
116.83826,39.85224,1230,3786
116.83827,39.85224,1231,3786
116.83827,39.85224,1232,3786
116.83826,39.85224,1233,3786
116.83826,39.85225,1234,3786
116.83826,39.85225,1235,3786
116.83826,39.85225,1236,3786
116.83826,39.85225,1237,3786
116.83826,39.85225,1238,3786
116.83826,39.85225,1239,3786
116.83826,39.85225,1240,3786
116.83825,39.85225,1241,3786
116.83826,39.85225,1242,3786
116.83826,39.85225,1243,3786
116.83826,39.85225,1244,3786
116.83826,39.85225,1245,3786
116.83826,39.85225,1246,3786
116.83826,39.85225,1247,3786
116.83826,39.85225,1248,3786
116.83826,39.85225,1249,3786
116.83826,39.85225,1250,3786
116.83826,39.85226,1251,3786
116.83826,39.85226,1252,3786
116.83827,39.85226,1253,3786
116.8382,39.85226,1254,3786
116.83818,39.85227,1255,3786
116.83822,39.85227,1256,3786
116.83822,39.85227,1257,3786
116.83824,39.85228,1258,3786
116.83824,39.85229,1259,3786
116.83823,39.85229,1260,3786
116.83822,39.85229,1261,3786
116.83819,39.85229,1262,3786
116.83819,39.8523,1263,3786
116.838,39.85222,1264,3786
116.83818,39.8523,1265,3786
116.83818,39.85226,1266,3786
116.83822,39.85224,1267,3786
116.83822,39.85224,1268,3786
116.83823,39.85224,1269,3786
116.83824,39.85223,1270,3786
116.83823,39.85225,1271,3786
116.83822,39.85226,1272,3786
116.83822,39.85226,1273,3786
116.83822,39.85226,1274,3786
116.83822,39.85226,1275,3786
116.83821,39.85226,1276,3786
116.83821,39.85226,1277,3786
116.83821,39.85225,1278,3786
116.83821,39.85225,1279,3786
116.83821,39.85225,1280,3786
116.8382,39.85225,1281,3786
116.8382,39.85224,1282,3786
116.8382,39.85224,1283,3786
116.83821,39.85224,1284,3786
116.83821,39.85224,1285,3786
116.83821,39.85224,1286,3786
116.834,39.85539,1287,3786
116.81061,39.85411,1288,3786
116.74093,39.85483,1289,3786
116.67452,39.87345,1290,3786
116.63411,39.89954,1291,3786
116.60134,39.90803,1292,3786
116.59553,39.8855,1293,3786
116.5959,39.88238,1294,3786
116.59512,39.90691,1295,3786
116.59529,39.90457,1296,3786
116.60567,39.89205,1297,3786
116.60567,39.89205,1298,3786
116.5885,39.91082,1299,3786
116.55553,39.91506,1300,3786
116.51286,39.91542,1301,3786
116.49588,39.91922,1302,3786
116.49912,39.92272,1303,3786
116.49203,39.92185,1304,3786
116.45575,39.92215,1305,3786
116.42718,39.93995,1306,3786
116.40228,39.93657,1307,3786
116.38963,39.90484,1308,3786
116.37877,39.88804,1309,3786
116.37844,39.88638,1310,3786
116.37843,39.88454,1311,3786
116.39293,39.88992,1312,3786
116.41185,39.8914,1313,3786
116.41996,39.89192,1314,3786
116.43343,39.89164,1315,3786
116.42886,39.88299,1316,3786
116.4368,39.86452,1317,3786
116.4368,39.86452,1318,3786
116.43886,39.87504,1319,3786
116.42897,39.90587,1320,3786
116.43254,39.89655,1321,3786
116.43374,39.89014,1322,3786
116.42951,39.883,1323,3786
116.40642,39.89155,1324,3786
116.39304,39.90568,1325,3786
116.37113,39.9215,1326,3786
116.36586,39.92258,1327,3786
116.34956,39.92239,1328,3786
116.34181,39.88669,1329,3786
116.34225,39.88418,1330,3786
116.33664,39.88758,1331,3786
116.33664,39.88758,1332,3786
116.32809,39.88387,1333,3786
116.32025,39.88818,1334,3786
116.30429,39.89462,1335,3786
116.2839,39.92303,1336,3786
116.24689,39.92563,1337,3786
116.22403,39.93163,1338,3786
116.22468,39.93323,1339,3786
116.24057,39.92825,1340,3786
116.26821,39.92726,1341,3786
116.28247,39.92484,1342,3786
116.28247,39.92484,1343,3786
116.32634,39.9219,1344,3786
116.3289,39.9171,1345,3786
116.3117,39.92265,1346,3786
116.26151,39.92325,1347,3786
116.21711,39.9319,1348,3786
116.19419,39.93989,1349,3786
116.19438,39.94163,1350,3786
116.1943,39.94229,1351,3786
116.19035,39.94661,1352,3786
116.19033,39.94663,1353,3786
116.19984,39.94288,1354,3786
116.21305,39.95362,1355,3786
116.25213,39.94547,1356,3786
116.25937,39.94559,1357,3786
116.269,39.92718,1358,3786
116.2789,39.92192,1359,3786
116.28985,39.92261,1360,3786
116.28985,39.92261,1361,3786
116.29514,39.9227,1362,3786
116.31417,39.89432,1363,3786
116.32931,39.89617,1364,3786
116.33184,39.89441,1365,3786
116.33184,39.89441,1366,3786
116.33184,39.89441,1367,3786
116.33184,39.89441,1368,3786
116.33184,39.89441,1369,3786
116.33184,39.89441,1370,3786
116.33184,39.89441,1371,3786
116.34086,39.85341,1372,3786
116.34014,39.86955,1373,3786
116.34064,39.86611,1374,3786
116.34064,39.86611,1375,3786
116.34175,39.86365,1376,3786
116.34054,39.85288,1377,3786
116.37899,39.85525,1378,3786
116.37899,39.85525,1379,3786
116.38091,39.85315,1380,3786
116.37981,39.84369,1381,3786
116.37738,39.85753,1382,3786
116.4378,39.87031,1383,3786
116.44486,39.87034,1384,3786
116.42998,39.903,1385,3786
116.44412,39.91489,1386,3786
116.45532,39.92202,1387,3786
116.45587,39.92813,1388,3786
116.47602,39.93218,1389,3786
116.47861,39.92268,1390,3786
116.46493,39.9292,1391,3786
116.46257,39.92862,1392,3786
116.46303,39.91564,1393,3786
116.4735,39.9079,1394,3786
116.45891,39.9045,1395,3786
116.47288,39.89927,1396,3786
116.47977,39.89788,1397,3786
116.47039,39.90726,1398,3786
116.45939,39.90754,1399,3786
116.46062,39.90317,1400,3786
116.45421,39.87645,1401,3786
116.40566,39.85581,1402,3786
116.37757,39.85508,1403,3786
116.35999,39.84998,1404,3786
116.36875,39.84939,1405,3786
116.3818,39.86082,1406,3786
116.41598,39.87033,1407,3786
116.43125,39.86939,1408,3786
116.44481,39.8713,1409,3786
116.44522,39.87031,1410,3786
116.4554,39.89011,1411,3786
116.45555,39.94373,1412,3786
116.45673,39.95057,1413,3786
116.45546,39.93334,1414,3786
116.45546,39.93334,1415,3786
116.45925,39.93259,1416,3786
116.4436,39.96148,1417,3786
116.44493,39.95701,1418,3786
116.43696,39.9582,1419,3786
116.43995,39.96166,1420,3786
116.46952,39.96814,1421,3786
116.4814,39.97017,1422,3786
116.48253,39.97143,1423,3786
116.46017,39.98593,1424,3786
116.45683,39.98918,1425,3786
116.47261,39.97846,1426,3786
116.48669,39.95922,1427,3786
116.48346,39.93999,1428,3786
116.48369,39.92958,1429,3786
116.48922,39.90792,1430,3786
116.49926,39.91456,1431,3786
116.53399,39.91506,1432,3786
116.55818,39.91495,1433,3786
116.58212,39.91143,1434,3786
116.61356,39.90398,1435,3786
116.63743,39.89398,1436,3786
116.65563,39.88851,1437,3786
116.68837,39.86886,1438,3786
116.74,39.85506,1439,3786
116.80919,39.85402,1440,3786
116.83825,39.85222,1441,3786
116.83825,39.85222,1442,3786
116.83824,39.85221,1443,3786
116.83824,39.85225,1444,3786
116.83823,39.85228,1445,3786
116.83824,39.8523,1446,3786
116.83824,39.8523,1447,3786
116.83825,39.85227,1448,3786
116.83825,39.85226,1449,3786
116.83847,39.85191,1450,3786
116.83846,39.85196,1451,3786
116.83846,39.85196,1452,3786
116.83841,39.85211,1453,3786
116.83839,39.85211,1454,3786
116.83836,39.85217,1455,3786
116.83836,39.85218,1456,3786
116.83835,39.85219,1457,3786
116.83835,39.85218,1458,3786
116.83835,39.85218,1459,3786
116.83835,39.85234,1460,3786
116.83835,39.85227,1461,3786
116.83834,39.85223,1462,3786
116.83835,39.85222,1463,3786
116.83835,39.85223,1464,3786
116.83835,39.85224,1465,3786
116.83834,39.85225,1466,3786
116.83834,39.85226,1467,3786
116.83833,39.85227,1468,3786
116.83832,39.85227,1469,3786
116.83831,39.85228,1470,3786
116.83844,39.85205,1471,3786
116.8384,39.8521,1472,3786
116.83837,39.85213,1473,3786
116.83837,39.85213,1474,3786
116.83835,39.85215,1475,3786
116.83834,39.85217,1476,3786
116.83832,39.85219,1477,3786
116.83831,39.8522,1478,3786
116.83831,39.85221,1479,3786
116.8383,39.85222,1480,3786
116.83829,39.85223,1481,3786
116.83829,39.85223,1482,3786
116.83829,39.85223,1483,3786
116.83829,39.85223,1484,3786
116.83829,39.85223,1485,3786
116.83829,39.85223,1486,3786
116.83828,39.85223,1487,3786
116.83828,39.85222,1488,3786
116.83828,39.85222,1489,3786
116.83828,39.85222,1490,3786
116.83828,39.85222,1491,3786
116.83828,39.85222,1492,3786
116.83829,39.85222,1493,3786
116.83829,39.85222,1494,3786
116.83828,39.85222,1495,3786
116.83828,39.85222,1496,3786
116.83828,39.85221,1497,3786
116.83811,39.85202,1498,3786
116.83814,39.85206,1499,3786
116.83815,39.85209,1500,3786
116.83816,39.85211,1501,3786
116.83818,39.85213,1502,3786
116.83821,39.85215,1503,3786
116.83821,39.85217,1504,3786
116.83821,39.85217,1505,3786
116.83822,39.85219,1506,3786
116.83821,39.85219,1507,3786
116.8382,39.8522,1508,3786
116.83819,39.8522,1509,3786
116.83819,39.8522,1510,3786
116.83819,39.85221,1511,3786
116.83819,39.85221,1512,3786
116.83819,39.85221,1513,3786
116.8382,39.85222,1514,3786
116.8382,39.85222,1515,3786
116.83821,39.85222,1516,3786
116.83821,39.85222,1517,3786
116.83821,39.85222,1518,3786
116.83821,39.85223,1519,3786
116.83821,39.85223,1520,3786
116.83821,39.85223,1521,3786
116.83821,39.85223,1522,3786
116.83822,39.85223,1523,3786
116.83822,39.85223,1524,3786
116.83822,39.85223,1525,3786
116.83822,39.85223,1526,3786
116.83822,39.85223,1527,3786
116.83822,39.85223,1528,3786
116.83822,39.85223,1529,3786
116.83822,39.85223,1530,3786
116.83822,39.85223,1531,3786
116.83822,39.85223,1532,3786
116.83822,39.85223,1533,3786
116.83847,39.85218,1534,3786
116.83847,39.85218,1535,3786
116.83811,39.85228,1536,3786
116.83811,39.85229,1537,3786
116.83819,39.85232,1538,3786
116.83813,39.85231,1539,3786
116.83816,39.85231,1540,3786
116.83817,39.85232,1541,3786
116.83818,39.85232,1542,3786
116.83818,39.85232,1543,3786
116.83818,39.85232,1544,3786
116.83818,39.85232,1545,3786
116.83818,39.85232,1546,3786
116.83819,39.85232,1547,3786
116.83819,39.85232,1548,3786
116.83819,39.85232,1549,3786
116.83819,39.85232,1550,3786
116.83819,39.85232,1551,3786
116.83819,39.85232,1552,3786
116.8382,39.85232,1553,3786
116.8382,39.85232,1554,3786
116.8382,39.85232,1555,3786
116.8382,39.85231,1556,3786
116.8382,39.85231,1557,3786
116.83821,39.8523,1558,3786
116.83821,39.8523,1559,3786
116.83821,39.85229,1560,3786
116.83821,39.85228,1561,3786
116.83822,39.85228,1562,3786
116.83822,39.85229,1563,3786
116.83822,39.85229,1564,3786
116.83823,39.85229,1565,3786
116.83823,39.85229,1566,3786
116.83823,39.85229,1567,3786
116.83823,39.85228,1568,3786
116.83824,39.85229,1569,3786
116.83824,39.85228,1570,3786
116.83824,39.85228,1571,3786
116.83824,39.85228,1572,3786
116.83824,39.85228,1573,3786
116.83824,39.85228,1574,3786
116.83801,39.85234,1575,3786
116.838,39.85231,1576,3786
116.83802,39.85229,1577,3786
116.83803,39.85228,1578,3786
116.83806,39.85227,1579,3786
116.8381,39.85228,1580,3786
116.83853,39.85225,1581,3786
116.83845,39.85224,1582,3786
116.83839,39.85225,1583,3786
116.83839,39.85225,1584,3786
116.83834,39.85225,1585,3786
116.83833,39.85224,1586,3786
116.83833,39.85223,1587,3786
116.83832,39.85222,1588,3786
116.83831,39.85222,1589,3786
116.8383,39.85221,1590,3786
116.8383,39.85221,1591,3786
116.83829,39.85221,1592,3786
116.83829,39.8522,1593,3786
116.83828,39.8522,1594,3786
116.83828,39.85221,1595,3786
116.837,39.85194,1596,3786
116.81836,39.85429,1597,3786
116.75141,39.85313,1598,3786
116.68565,39.86977,1599,3786
116.64591,39.89141,1600,3786
116.59596,39.90828,1601,3786
116.56091,39.9147,1602,3786
116.53848,39.91574,1603,3786
116.52282,39.94045,1604,3786
116.50911,39.94868,1605,3786
116.49596,39.9309,1606,3786
116.49596,39.9309,1607,3786
116.49615,39.93023,1608,3786
116.49615,39.93265,1609,3786
116.49615,39.93265,1610,3786
116.47869,39.92221,1611,3786
116.47872,39.92196,1612,3786
116.48404,39.94811,1613,3786
116.49172,39.99554,1614,3786
116.56848,40.03633,1615,3786
116.58232,40.07479,1616,3786
116.58677,40.07767,1617,3786
116.58069,40.07376,1618,3786
116.58438,40.05602,1619,3786
116.55878,40.00599,1620,3786
116.55194,39.96893,1621,3786
116.53633,39.96473,1622,3786
116.49885,39.95954,1623,3786
116.47573,39.97644,1624,3786
116.47223,39.97304,1625,3786
116.48324,39.96056,1626,3786
116.48173,39.95686,1627,3786
116.42226,39.98766,1628,3786
116.34802,39.9856,1629,3786
116.28938,39.99461,1630,3786
116.28657,39.99268,1631,3786
116.2956,39.97159,1632,3786
116.30232,39.95712,1633,3786
116.3652,39.9665,1634,3786
116.43789,39.96302,1635,3786
116.49149,39.99533,1636,3786
116.57243,40.0405,1637,3786
116.58668,40.07855,1638,3786
116.58152,40.06841,1639,3786
116.57872,40.06292,1640,3786
116.55853,40.05037,1641,3786
116.56157,40.03093,1642,3786
116.56005,40.00115,1643,3786
116.54848,39.96494,1644,3786
116.53648,39.96469,1645,3786
116.52758,39.94993,1646,3786
116.50948,39.90667,1647,3786
116.44457,39.90732,1648,3786
116.42066,39.90663,1649,3786
116.4207,39.90429,1650,3786
116.43249,39.89687,1651,3786
116.43249,39.89687,1652,3786
116.43792,39.89241,1653,3786
116.45249,39.89599,1654,3786
116.44443,39.89202,1655,3786
116.45012,39.88476,1656,3786
116.45277,39.88642,1657,3786
116.4731,39.90697,1658,3786
116.48391,39.94905,1659,3786
116.4824,39.9595,1660,3786
116.4824,39.9595,1661,3786
116.48535,39.95846,1662,3786
116.46339,39.95051,1663,3786
116.42404,39.96833,1664,3786
116.41239,39.96805,1665,3786
116.41253,39.96524,1666,3786
116.41553,39.96774,1667,3786
116.42257,39.96394,1668,3786
116.4202,39.96084,1669,3786
116.41899,39.95465,1670,3786
116.41895,39.94996,1671,3786
116.42768,39.93836,1672,3786
116.42876,39.91375,1673,3786
116.40537,39.90746,1674,3786
116.4121,39.90047,1675,3786
116.41378,39.89936,1676,3786
116.4302,39.90694,1677,3786
116.4302,39.90694,1678,3786
116.44335,39.90665,1679,3786
116.45475,39.871,1680,3786
116.4608,39.86882,1681,3786
116.46058,39.86913,1682,3786
116.4605,39.8693,1683,3786
116.45657,39.87014,1684,3786
116.4552,39.87188,1685,3786
116.45569,39.92357,1686,3786
116.46117,39.92435,1687,3786
116.46497,39.92923,1688,3786
116.46621,39.92952,1689,3786
116.48319,39.93248,1690,3786
116.58234,40.07442,1691,3786
116.58674,40.07867,1692,3786
116.58251,40.06249,1693,3786
116.56753,40.03312,1694,3786
116.55742,40.0106,1695,3786
116.55742,40.0106,1696,3786
116.55515,39.97077,1697,3786
116.55515,39.97077,1698,3786
116.52454,39.96083,1699,3786
116.52581,39.96327,1700,3786
116.54085,39.96462,1701,3786
116.54881,39.97165,1702,3786
116.55968,39.97079,1703,3786
116.56747,39.96655,1704,3786
116.56747,39.96655,1705,3786
116.53929,39.96476,1706,3786
116.51109,39.94831,1707,3786
116.51116,39.94056,1708,3786
116.47809,39.93235,1709,3786
116.45636,39.93266,1710,3786
116.42929,39.93246,1711,3786
116.42055,39.93508,1712,3786
116.43052,39.93042,1713,3786
116.42241,39.91418,1714,3786
116.42036,39.90485,1715,3786
116.42112,39.90292,1716,3786
116.41829,39.90349,1717,3786
116.3938,39.89893,1718,3786
116.36809,39.89857,1719,3786
116.33833,39.88835,1720,3786
116.31127,39.88715,1721,3786
116.32452,39.88841,1722,3786
116.32475,39.88799,1723,3786
116.32763,39.8885,1724,3786
116.34839,39.86404,1725,3786
116.3484,39.86176,1726,3786
116.3576,39.86524,1727,3786
116.35772,39.87672,1728,3786
116.3407,39.88227,1729,3786
116.33946,39.88835,1730,3786
116.34075,39.87848,1731,3786
116.34665,39.88783,1732,3786
116.35732,39.88664,1733,3786
116.35313,39.88193,1734,3786
116.34783,39.87229,1735,3786
116.34825,39.86434,1736,3786
116.34825,39.86434,1737,3786
116.34685,39.85549,1738,3786
116.34834,39.86272,1739,3786
116.34319,39.87205,1740,3786
116.32029,39.89599,1741,3786
116.31614,39.89613,1742,3786
116.3153,39.90453,1743,3786
116.3501,39.90022,1744,3786
