x,y,k,tid
116.29395,39.92297,0,3812
116.2935,39.92285,1,3812
116.28623,39.92298,2,3812
116.28602,39.92307,3,3812
116.2824,39.92315,4,3812
116.28228,39.92323,5,3812
116.28228,39.92335,6,3812
116.28237,39.9261,7,3812
116.2791,39.92655,8,3812
116.27887,39.9265,9,3812
116.27875,39.92635,10,3812
116.27882,39.92472,11,3812
116.27878,39.92443,12,3812
116.27877,39.92437,13,3812
116.27883,39.92432,14,3812
116.2789,39.9244,15,3812
116.27893,39.9264,16,3812
116.27905,39.92648,17,3812
116.27925,39.92648,18,3812
116.27958,39.92642,19,3812
116.27965,39.92632,20,3812
116.27958,39.92643,21,3812
116.2794,39.92648,22,3812
116.27905,39.92655,23,3812
116.27898,39.9265,24,3812
116.27887,39.92645,25,3812
116.27878,39.92632,26,3812
116.27875,39.9237,27,3812
116.2788,39.9236,28,3812
116.2788,39.92337,29,3812
116.2788,39.92337,30,3812
116.27887,39.92307,31,3812
116.27905,39.92292,32,3812
116.27933,39.92288,33,3812
116.29322,39.92253,34,3812
116.29348,39.9225,35,3812
116.29392,39.92248,36,3812
116.29392,39.92248,37,3812
116.29417,39.92252,38,3812
116.2944,39.92252,39,3812
116.29515,39.92248,40,3812
116.29528,39.92248,41,3812
116.30045,39.92252,42,3812
116.30065,39.92252,43,3812
116.30083,39.9224,44,3812
116.30103,39.92247,45,3812
116.30103,39.92247,46,3812
116.30262,39.92248,47,3812
116.3028,39.9224,48,3812
116.30382,39.92158,49,3812
116.30387,39.92142,50,3812
116.3039,39.91497,51,3812
116.30392,39.91397,52,3812
116.3039,39.91365,53,3812
116.30393,39.91175,54,3812
116.30395,39.91152,55,3812
116.30393,39.91117,56,3812
116.30393,39.91065,57,3812
116.30388,39.91032,58,3812
116.3039,39.91003,59,3812
116.3039,39.90962,60,3812
116.30392,39.90908,61,3812
116.30395,39.90868,62,3812
116.30388,39.90828,63,3812
116.30388,39.90828,64,3812
116.30385,39.90807,65,3812
116.3023,39.90655,66,3812
116.30225,39.9057,67,3812
116.30242,39.90543,68,3812
116.30388,39.9045,69,3812
116.30392,39.90433,70,3812
116.30397,39.89527,71,3812
116.30382,39.89517,72,3812
116.30357,39.89513,73,3812
116.3019,39.89515,74,3812
116.30175,39.8953,75,3812
116.30178,39.8955,76,3812
116.31125,39.89573,77,3812
116.32865,39.8959,78,3812
116.3496,39.89705,79,3812
116.35258,39.89785,80,3812
116.35632,39.89793,81,3812
116.36668,39.89823,82,3812
116.3749,39.89852,83,3812
116.37615,39.8985,84,3812
116.37782,39.8984,85,3812
116.3779,39.8983,86,3812
116.37787,39.89793,87,3812
116.37803,39.89583,88,3812
116.37818,39.89408,89,3812
116.37817,39.89397,90,3812
116.37847,39.89127,91,3812
116.37852,39.89117,92,3812
116.37858,39.89115,93,3812
116.37855,39.89123,94,3812
116.37232,39.89873,95,3812
116.37215,39.89867,96,3812
116.37193,39.89862,97,3812
116.36935,39.89853,98,3812
116.35748,39.8982,99,3812
116.35733,39.89795,100,3812
116.35728,39.8981,101,3812
116.3572,39.89875,102,3812
116.3572,39.89893,103,3812
116.3572,39.89925,104,3812
116.35717,39.90242,105,3812
116.3572,39.90265,106,3812
116.35703,39.90422,107,3812
116.35698,39.90487,108,3812
116.35703,39.90512,109,3812
116.35707,39.9076,110,3812
116.35708,39.90782,111,3812
116.35707,39.90787,112,3812
116.357,39.91167,113,3812
116.35712,39.91177,114,3812
116.3571,39.91183,115,3812
116.3571,39.91183,116,3812
116.35708,39.91185,117,3812
116.35695,39.91178,118,3812
116.35693,39.91183,119,3812
116.35698,39.91222,120,3812
116.35687,39.91237,121,3812
116.3565,39.9125,122,3812
116.3561,39.91245,123,3812
116.35395,39.9124,124,3812
116.35397,39.91242,125,3812
116.35373,39.91258,126,3812
116.3535,39.91278,127,3812
116.35323,39.91292,128,3812
116.35113,39.91252,129,3812
116.35098,39.91242,130,3812
116.35083,39.91248,131,3812
116.3506,39.91253,132,3812
116.3441,39.91263,133,3812
116.34408,39.91265,134,3812
116.34353,39.91257,135,3812
116.33905,39.91273,136,3812
116.33895,39.9128,137,3812
116.33888,39.9165,138,3812
116.33858,39.92125,139,3812
116.33823,39.92325,140,3812
116.33827,39.92313,141,3812
116.33825,39.92327,142,3812
116.33782,39.9266,143,3812
116.33785,39.92662,144,3812
116.3378,39.92673,145,3812
116.33773,39.92678,146,3812
116.3376,39.9268,147,3812
116.3284,39.927,148,3812
116.32827,39.92678,149,3812
116.32803,39.9269,150,3812
116.328,39.927,151,3812
116.32757,39.93078,152,3812
116.32755,39.93102,153,3812
116.32718,39.93425,154,3812
116.32648,39.93577,155,3812
116.32647,39.9361,156,3812
116.32637,39.93615,157,3812
116.32627,39.93603,158,3812
116.32623,39.93597,159,3812
116.32618,39.93583,160,3812
116.32605,39.93577,161,3812
116.32598,39.93575,162,3812
116.32605,39.93567,163,3812
116.32688,39.93568,164,3812
116.32698,39.93562,165,3812
116.32702,39.93545,166,3812
116.32702,39.9353,167,3812
116.32707,39.93513,168,3812
116.32708,39.93498,169,3812
116.32728,39.93295,170,3812
116.32727,39.93278,171,3812
116.32728,39.93227,172,3812
116.32728,39.93205,173,3812
116.32735,39.93133,174,3812
116.3273,39.93123,175,3812
116.32713,39.9312,176,3812
116.3211,39.93128,177,3812
116.3208,39.93127,178,3812
116.31953,39.93122,179,3812
116.31672,39.93125,180,3812
116.31657,39.93123,181,3812
116.31632,39.93123,182,3812
116.31465,39.9312,183,3812
116.30427,39.93102,184,3812
116.30427,39.93102,185,3812
116.30397,39.9309,186,3812
116.30387,39.9308,187,3812
116.30373,39.9238,188,3812
116.30323,39.92348,189,3812
116.30268,39.9231,190,3812
116.30135,39.92297,191,3812
116.29582,39.92272,192,3812
116.2957,39.92263,193,3812
116.28268,39.92295,194,3812
116.28268,39.92295,195,3812
116.27933,39.92302,196,3812
116.26768,39.92332,197,3812
116.26753,39.92357,198,3812
116.26762,39.92383,199,3812
116.26788,39.92402,200,3812
116.26822,39.92405,201,3812
116.26853,39.92392,202,3812
116.26873,39.92365,203,3812
116.26898,39.91822,204,3812
116.27247,39.87275,205,3812
116.27728,39.86315,206,3812
116.27792,39.8431,207,3812
116.2841,39.82937,208,3812
116.28407,39.82928,209,3812
116.28352,39.82848,210,3812
116.2804,39.82727,211,3812
116.27478,39.82608,212,3812
116.27465,39.82618,213,3812
116.27382,39.82887,214,3812
116.274,39.83188,215,3812
116.27413,39.83362,216,3812
116.2794,39.8348,217,3812
116.27958,39.83482,218,3812
116.27992,39.83483,219,3812
116.28025,39.83488,220,3812
116.28333,39.83518,221,3812
116.28368,39.83518,222,3812
116.2837,39.83525,223,3812
116.28357,39.83523,224,3812
116.28145,39.8351,225,3812
116.28133,39.83515,226,3812
116.28122,39.83537,227,3812
116.28077,39.8377,228,3812
116.28077,39.8377,229,3812
116.28075,39.83778,230,3812
116.28062,39.83822,231,3812
116.28057,39.8384,232,3812
116.28005,39.84048,233,3812
116.277,39.85805,234,3812
116.2771,39.86568,235,3812
116.27345,39.87177,236,3812
116.27353,39.87188,237,3812
116.27413,39.87225,238,3812
116.27753,39.87373,239,3812
116.2776,39.87378,240,3812
116.28177,39.87528,241,3812
116.28858,39.87722,242,3812
116.2886,39.87723,243,3812
116.28898,39.87743,244,3812
116.289,39.888,245,3812
116.28917,39.88985,246,3812
116.29407,39.8899,247,3812
116.29428,39.8893,248,3812
116.2942,39.88932,249,3812
116.29405,39.88945,250,3812
116.29123,39.8898,251,3812
116.28905,39.89005,252,3812
116.28897,39.89018,253,3812
116.28912,39.89705,254,3812
116.2891,39.89757,255,3812
116.28907,39.89877,256,3812
116.28908,39.89883,257,3812
116.28912,39.89897,258,3812
116.28915,39.90583,259,3812
116.28902,39.90607,260,3812
116.28872,39.9063,261,3812
116.28202,39.90632,262,3812
116.28198,39.90638,263,3812
116.28187,39.90642,264,3812
116.28085,39.90632,265,3812
116.28062,39.90627,266,3812
116.27997,39.90637,267,3812
116.2775,39.90652,268,3812
116.2774,39.91103,269,3812
116.27737,39.91847,270,3812
116.27762,39.92047,271,3812
116.27835,39.9215,272,3812
116.27828,39.92153,273,3812
116.27813,39.92152,274,3812
116.2779,39.92148,275,3812
116.27748,39.9215,276,3812
116.27732,39.92153,277,3812
116.27672,39.92153,278,3812
116.27635,39.92167,279,3812
116.27598,39.92158,280,3812
116.27588,39.92153,281,3812
116.27557,39.92152,282,3812
116.27542,39.92155,283,3812
116.27505,39.9215,284,3812
116.27492,39.92142,285,3812
116.2744,39.92148,286,3812
116.27437,39.92155,287,3812
116.27438,39.92175,288,3812
116.2744,39.92182,289,3812
116.27442,39.92182,290,3812
116.27438,39.92172,291,3812
116.27438,39.92153,292,3812
116.2745,39.92152,293,3812
116.27595,39.92153,294,3812
116.27603,39.92157,295,3812
116.2764,39.92155,296,3812
116.27665,39.9215,297,3812
116.27673,39.9215,298,3812
116.2769,39.9215,299,3812
116.27703,39.92152,300,3812
116.27718,39.9215,301,3812
116.27762,39.92152,302,3812
116.27772,39.92145,303,3812
116.27785,39.92148,304,3812
116.27795,39.92148,305,3812
116.27817,39.92147,306,3812
116.2783,39.92145,307,3812
116.27845,39.9215,308,3812
116.27845,39.9215,309,3812
116.27873,39.92205,310,3812
116.2788,39.92198,311,3812
116.27883,39.92255,312,3812
116.27875,39.92287,313,3812
116.27858,39.92302,314,3812
116.27797,39.92308,315,3812
116.27085,39.92342,316,3812
116.26988,39.92428,317,3812
116.26948,39.92643,318,3812
116.26945,39.92702,319,3812
116.26928,39.92708,320,3812
116.26883,39.92718,321,3812
116.26565,39.9276,322,3812
116.26565,39.9276,323,3812
116.26565,39.9276,324,3812
116.26547,39.92762,325,3812
116.26145,39.92768,326,3812
116.26142,39.92772,327,3812
116.26138,39.92767,328,3812
116.26155,39.92763,329,3812
116.26437,39.92758,330,3812
116.26877,39.92703,331,3812
116.26887,39.92693,332,3812
116.26867,39.92467,333,3812
116.26728,39.92383,334,3812
116.26727,39.92363,335,3812
116.26743,39.92183,336,3812
116.26873,39.91963,337,3812
116.26895,39.91962,338,3812
116.26945,39.91962,339,3812
116.26958,39.91975,340,3812
116.26993,39.92172,341,3812
116.27057,39.9224,342,3812
116.27132,39.92277,343,3812
116.27297,39.9229,344,3812
116.27853,39.92268,345,3812
116.2787,39.92262,346,3812
116.27875,39.92252,347,3812
116.27877,39.92217,348,3812
116.27877,39.92217,349,3812
116.27872,39.92185,350,3812
116.27872,39.92185,351,3812
116.27878,39.92187,352,3812
116.2789,39.92187,353,3812
116.27915,39.92185,354,3812
116.27922,39.92187,355,3812
116.2788,39.92173,356,3812
116.27862,39.92302,357,3812
116.2784,39.92308,358,3812
116.27052,39.92335,359,3812
116.27003,39.92372,360,3812
116.26975,39.9242,361,3812
116.26832,39.9415,362,3812
116.2699,39.95208,363,3812
116.26993,39.95217,364,3812
116.26988,39.95218,365,3812
116.27033,39.95288,366,3812
116.27057,39.95285,367,3812
116.27178,39.95203,368,3812
116.2719,39.95215,369,3812
116.27473,39.94983,370,3812
116.27462,39.9495,371,3812
116.27463,39.9494,372,3812
116.27462,39.94925,373,3812
116.27452,39.94863,374,3812
116.27428,39.94863,375,3812
116.27412,39.94865,376,3812
116.27242,39.94855,377,3812
116.342,39.89582,378,3812
116.342,39.89582,379,3812
116.27242,39.94855,380,3812
116.27212,39.94855,381,3812
116.26958,39.94843,382,3812
116.2695,39.94842,383,3812
116.26948,39.94863,384,3812
116.2693,39.9609,385,3812
116.26928,39.96105,386,3812
116.26927,39.96125,387,3812
116.26925,39.96147,388,3812
116.26922,39.96177,389,3812
116.2692,39.96198,390,3812
116.26902,39.9634,391,3812
116.2686,39.9631,392,3812
116.26933,39.95088,393,3812
116.2687,39.92208,394,3812
116.26833,39.92192,395,3812
116.2679,39.92198,396,3812
116.27642,39.92293,397,3812
116.27868,39.92282,398,3812
116.27868,39.92282,399,3812
116.27877,39.92267,400,3812
116.27878,39.92248,401,3812
116.27863,39.92175,402,3812
116.27858,39.92162,403,3812
116.27858,39.92153,404,3812
116.27852,39.92142,405,3812
116.27843,39.92138,406,3812
116.27705,39.92153,407,3812
116.27693,39.92157,408,3812
116.27673,39.92157,409,3812
116.27543,39.92162,410,3812
116.27543,39.92162,411,3812
116.2753,39.92163,412,3812
116.27492,39.92165,413,3812
116.27462,39.92193,414,3812
116.27453,39.92205,415,3812
116.27455,39.92218,416,3812
116.27465,39.92205,417,3812
116.27438,39.92162,418,3812
116.27437,39.92153,419,3812
116.27447,39.92152,420,3812
116.27485,39.9215,421,3812
116.27498,39.92155,422,3812
116.27508,39.92153,423,3812
116.27587,39.92153,424,3812
116.27618,39.92152,425,3812
116.27633,39.92153,426,3812
116.27643,39.92155,427,3812
116.27692,39.92148,428,3812
116.27702,39.92148,429,3812
116.27708,39.92147,430,3812
116.27747,39.92147,431,3812
116.27753,39.92145,432,3812
116.27775,39.92137,433,3812
116.2779,39.92138,434,3812
116.27807,39.92142,435,3812
116.27833,39.9214,436,3812
116.27848,39.9215,437,3812
116.27872,39.92178,438,3812
116.27885,39.92212,439,3812
116.29447,39.9226,440,3812
116.30317,39.92258,441,3812
116.30327,39.92257,442,3812
116.30358,39.92243,443,3812
116.30402,39.92225,444,3812
116.30437,39.9223,445,3812
116.30462,39.92243,446,3812
116.30488,39.9228,447,3812
116.30488,39.92317,448,3812
116.3048,39.92342,449,3812
116.30443,39.92375,450,3812
116.30437,39.92827,451,3812
116.30435,39.9283,452,3812
116.30437,39.92837,453,3812
116.30435,39.92845,454,3812
116.30435,39.92852,455,3812
116.30475,39.9287,456,3812
116.30485,39.92865,457,3812
116.30507,39.92858,458,3812
116.3052,39.9286,459,3812
116.30533,39.9286,460,3812
116.30507,39.92878,461,3812
116.30495,39.92878,462,3812
116.30473,39.92853,463,3812
116.30475,39.92847,464,3812
116.30437,39.92848,465,3812
116.30438,39.9296,466,3812
116.30423,39.93002,467,3812
116.30375,39.92997,468,3812
116.30402,39.92645,469,3812
116.3039,39.92468,470,3812
116.30385,39.92448,471,3812
116.30378,39.9242,472,3812
116.30375,39.92393,473,3812
116.30362,39.92382,474,3812
116.30258,39.92307,475,3812
116.30217,39.92302,476,3812
116.28257,39.92303,477,3812
116.28055,39.92307,478,3812
116.28055,39.92307,479,3812
116.27897,39.92303,480,3812
116.2789,39.923,481,3812
116.2788,39.92292,482,3812
116.27873,39.92273,483,3812
116.27847,39.92153,484,3812
116.27842,39.92147,485,3812
116.27807,39.9215,486,3812
116.27798,39.92152,487,3812
116.27777,39.92152,488,3812
116.27688,39.92148,489,3812
116.27678,39.9215,490,3812
116.27632,39.92158,491,3812
116.27625,39.92158,492,3812
116.27617,39.9216,493,3812
116.27597,39.92157,494,3812
116.27565,39.92152,495,3812
116.27553,39.9215,496,3812
116.27525,39.92153,497,3812
116.27518,39.92152,498,3812
116.27503,39.92152,499,3812
116.27485,39.92148,500,3812
116.2745,39.92152,501,3812
116.27447,39.92182,502,3812
116.27445,39.92198,503,3812
116.27445,39.92198,504,3812
116.27433,39.92182,505,3812
116.27433,39.92157,506,3812
116.27437,39.9215,507,3812
116.27452,39.92148,508,3812
116.27507,39.9215,509,3812
116.27513,39.9215,510,3812
116.27575,39.9214,511,3812
116.27585,39.92135,512,3812
116.27607,39.92137,513,3812
116.27615,39.92142,514,3812
116.27645,39.9214,515,3812
116.27653,39.92138,516,3812
116.27658,39.92142,517,3812
116.27695,39.92148,518,3812
116.27715,39.92152,519,3812
116.27717,39.9215,520,3812
116.27738,39.9215,521,3812
116.27757,39.92152,522,3812
116.27768,39.92153,523,3812
116.27818,39.9215,524,3812
116.27837,39.92147,525,3812
116.27847,39.92153,526,3812
116.27857,39.92165,527,3812
116.2788,39.92233,528,3812
116.27872,39.92278,529,3812
116.27858,39.923,530,3812
116.27055,39.92338,531,3812
116.27005,39.92372,532,3812
116.26977,39.9242,533,3812
116.26833,39.9409,534,3812
116.2691,39.94495,535,3812
116.26897,39.94505,536,3812
116.26813,39.94508,537,3812
116.26795,39.94502,538,3812
116.26787,39.9449,539,3812
116.26775,39.94385,540,3812
116.26783,39.94255,541,3812
116.26775,39.94185,542,3812
116.26765,39.9418,543,3812
116.26753,39.94178,544,3812
116.26702,39.94185,545,3812
116.26697,39.94192,546,3812
116.26695,39.94203,547,3812
116.26695,39.94263,548,3812
116.26687,39.94273,549,3812
116.26642,39.94277,550,3812
116.266,39.9428,551,3812
116.26607,39.94375,552,3812
116.26592,39.94383,553,3812
116.26558,39.94388,554,3812
116.2654,39.94388,555,3812
116.26522,39.94395,556,3812
116.26523,39.94483,557,3812
116.26515,39.94492,558,3812
116.26498,39.94493,559,3812
116.26452,39.94495,560,3812
116.26445,39.94502,561,3812
116.26448,39.94545,562,3812
116.26457,39.94555,563,3812
116.26478,39.94557,564,3812
116.26923,39.94552,565,3812
116.26937,39.94565,566,3812
116.26948,39.94617,567,3812
116.26943,39.96813,568,3812
116.27973,39.9741,569,3812
116.2799,39.97408,570,3812
116.28005,39.97397,571,3812
116.28063,39.97332,572,3812
116.28063,39.9731,573,3812
116.28047,39.97292,574,3812
116.2802,39.97283,575,3812
116.27992,39.97287,576,3812
116.27968,39.97302,577,3812
116.27597,39.97728,578,3812
116.27408,39.98142,579,3812
116.2756,39.99327,580,3812
116.27597,39.99432,581,3812
116.27653,39.99488,582,3812
116.27883,39.99535,583,3812
116.27882,39.99543,584,3812
116.27668,39.99512,585,3812
116.27568,39.99433,586,3812
116.27557,39.99437,587,3812
116.27552,39.99448,588,3812
116.27582,39.99553,589,3812
116.27617,39.9958,590,3812
116.27617,39.9958,591,3812
116.27648,39.99617,592,3812
116.27668,39.99623,593,3812
116.27745,39.99667,594,3812
116.27657,40.00007,595,3812
116.2765,40.00032,596,3812
116.27613,40.0005,597,3812
116.27308,40.00093,598,3812
116.271,40.00142,599,3812
116.27068,40.00137,600,3812
116.27042,40.00132,601,3812
116.26928,40.00148,602,3812
116.26893,40.00167,603,3812
116.26805,40.0027,604,3812
116.26707,40.00403,605,3812
116.26567,40.00693,606,3812
116.26472,40.00737,607,3812
116.2626,40.009,608,3812
116.26192,40.01043,609,3812
116.26198,40.011,610,3812
116.26197,40.01312,611,3812
116.26012,40.02947,612,3812
116.25953,40.03652,613,3812
116.25895,40.03727,614,3812
116.25253,40.042,615,3812
116.24148,40.04528,616,3812
116.23698,40.04483,617,3812
116.23693,40.04453,618,3812
116.2367,40.04448,619,3812
116.20842,40.03852,620,3812
116.2013,40.03995,621,3812
116.19863,40.04037,622,3812
116.19853,40.04028,623,3812
116.19813,40.03925,624,3812
116.19798,40.03905,625,3812
116.19785,40.03902,626,3812
116.19273,40.03933,627,3812
116.19107,40.0388,628,3812
116.18268,40.0394,629,3812
116.18267,40.03932,630,3812
116.1826,40.03827,631,3812
116.18252,40.03818,632,3812
116.18147,40.03717,633,3812
116.18157,40.03727,634,3812
116.18265,40.0383,635,3812
116.18268,40.03938,636,3812
116.1828,40.03942,637,3812
116.19165,40.0388,638,3812
116.19395,40.03947,639,3812
116.19798,40.03898,640,3812
116.19815,40.03908,641,3812
116.1983,40.0393,642,3812
116.20037,40.03997,643,3812
116.2009,40.03995,644,3812
116.21027,40.03838,645,3812
116.22523,40.04262,646,3812
116.22957,40.04387,647,3812
116.24013,40.04465,648,3812
116.24293,40.04448,649,3812
116.25072,40.04163,650,3812
116.25138,40.0413,651,3812
116.25813,40.03702,652,3812
116.25813,40.03702,653,3812
116.2587,40.03608,654,3812
116.26065,40.01947,655,3812
116.26088,40.01722,656,3812
116.26088,40.01702,657,3812
116.26085,40.00922,658,3812
116.26145,40.00845,659,3812
116.26415,40.00592,660,3812
116.26423,40.00513,661,3812
116.26338,40.00428,662,3812
116.26082,40.00398,663,3812
116.25712,40.00477,664,3812
116.25113,40.00468,665,3812
116.25107,40.00468,666,3812
116.25097,40.00423,667,3812
116.25103,40.00202,668,3812
116.25103,40.00202,669,3812
116.2512,39.9964,670,3812
116.25102,39.9963,671,3812
116.24815,39.99522,672,3812
116.24582,39.99395,673,3812
116.24542,39.99297,674,3812
116.24495,39.98818,675,3812
116.24483,39.98808,676,3812
116.24478,39.988,677,3812
116.2448,39.98787,678,3812
116.2454,39.9865,679,3812
116.24635,39.98428,680,3812
116.25603,39.97263,681,3812
116.25948,39.96873,682,3812
116.26023,39.9685,683,3812
116.2683,39.96842,684,3812
116.26858,39.96818,685,3812
116.26888,39.92233,686,3812
116.26868,39.92203,687,3812
116.2684,39.9219,688,3812
116.26807,39.9219,689,3812
116.2678,39.92205,690,3812
116.26765,39.92228,691,3812
116.2677,39.92253,692,3812
116.26793,39.92273,693,3812
116.26832,39.92283,694,3812
116.26832,39.92283,695,3812
116.27452,39.92193,696,3812
116.27457,39.92198,697,3812
116.27433,39.9215,698,3812
116.27418,39.92118,699,3812
116.27412,39.92103,700,3812
116.27408,39.92098,701,3812
116.27358,39.91993,702,3812
116.27433,39.9219,703,3812
116.27412,39.92162,704,3812
116.27462,39.92168,705,3812
116.27468,39.92163,706,3812
116.2746,39.92168,707,3812
116.27497,39.9214,708,3812
116.27502,39.92137,709,3812
116.27518,39.92123,710,3812
116.27465,39.92155,711,3812
116.27472,39.92133,712,3812
116.27457,39.92237,713,3812
116.27457,39.92237,714,3812
116.27467,39.922,715,3812
116.27523,39.92208,716,3812
116.2702,39.92995,717,3812
116.26725,39.92788,718,3812
116.27813,39.91732,719,3812
116.27675,39.9214,720,3812
116.27638,39.92337,721,3812
116.27088,39.92983,722,3812
116.27003,39.93017,723,3812
116.2706,39.92883,724,3812
116.27128,39.92763,725,3812
116.27453,39.92168,726,3812
116.27443,39.92145,727,3812
116.27448,39.92125,728,3812
116.27428,39.92085,729,3812
116.2742,39.92068,730,3812
116.27447,39.92158,731,3812
116.27455,39.92113,732,3812
116.27462,39.9207,733,3812
116.2742,39.9205,734,3812
116.27378,39.92028,735,3812
116.27238,39.92722,736,3812
116.27258,39.92698,737,3812
116.2725,39.92725,738,3812
116.27275,39.92697,739,3812
116.2726,39.92722,740,3812
116.273,39.92572,741,3812
116.27315,39.92512,742,3812
116.27485,39.92097,743,3812
116.27525,39.9225,744,3812
116.27523,39.92262,745,3812
116.27648,39.92255,746,3812
116.27618,39.92238,747,3812
116.27455,39.921,748,3812
116.27452,39.92167,749,3812
116.27503,39.9185,750,3812
116.27495,39.9203,751,3812
116.2752,39.92022,752,3812
116.27528,39.92033,753,3812
116.27625,39.91993,754,3812
116.2746,39.92172,755,3812
116.27482,39.9212,756,3812
116.2749,39.92102,757,3812
116.27517,39.92625,758,3812
116.2753,39.92595,759,3812
116.27473,39.92158,760,3812
116.27535,39.92115,761,3812
116.27603,39.92067,762,3812
116.27473,39.92163,763,3812
116.27475,39.92165,764,3812
116.27493,39.92157,765,3812
116.27513,39.9215,766,3812
116.27515,39.92148,767,3812
116.27532,39.92132,768,3812
116.27533,39.92132,769,3812
116.27503,39.92138,770,3812
116.27532,39.92113,771,3812
116.2754,39.92103,772,3812
116.27572,39.92075,773,3812
116.27493,39.92137,774,3812
116.27435,39.92157,775,3812
116.27445,39.92157,776,3812
116.27517,39.92155,777,3812
116.27527,39.9215,778,3812
116.27547,39.92145,779,3812
116.2756,39.92145,780,3812
116.27677,39.92148,781,3812
116.27687,39.92147,782,3812
116.27727,39.92148,783,3812
116.27818,39.92152,784,3812
116.27878,39.92203,785,3812
116.27877,39.92213,786,3812
116.27877,39.92227,787,3812
116.2789,39.92275,788,3812
116.28225,39.92273,789,3812
116.28458,39.92268,790,3812
116.2876,39.92265,791,3812
116.288,39.92272,792,3812
116.30258,39.92255,793,3812
116.30278,39.92245,794,3812
116.30387,39.92143,795,3812
116.30393,39.91373,796,3812
116.30393,39.91373,797,3812
116.30393,39.91373,798,3812
116.35775,39.89845,799,3812
116.35778,39.89838,800,3812
116.35668,39.89843,801,3812
116.354,39.89848,802,3812
116.35262,39.8991,803,3812
116.35177,39.8997,804,3812
116.35175,39.8997,805,3812
116.35092,39.9002,806,3812
116.34707,39.90028,807,3812
116.34678,39.90022,808,3812
116.34667,39.90032,809,3812
116.34663,39.90048,810,3812
116.34657,39.90108,811,3812
116.34653,39.90168,812,3812
116.34668,39.90173,813,3812
116.34675,39.90173,814,3812
116.35007,39.9018,815,3812
116.35013,39.90177,816,3812
116.35012,39.90187,817,3812
116.3503,39.90048,818,3812
116.35082,39.90035,819,3812
116.35115,39.90032,820,3812
116.35115,39.90032,821,3812
116.3512,39.90065,822,3812
116.35105,39.90115,823,3812
116.3509,39.90183,824,3812
116.35088,39.90188,825,3812
116.35075,39.90247,826,3812
116.35075,39.90347,827,3812
116.351,39.90443,828,3812
116.35083,39.90455,829,3812
116.3506,39.90467,830,3812
116.35057,39.90473,831,3812
116.35048,39.90725,832,3812
116.3506,39.90737,833,3812
116.35082,39.9075,834,3812
116.35088,39.90763,835,3812
116.35088,39.91255,836,3812
116.351,39.9126,837,3812
116.3512,39.91252,838,3812
116.35148,39.9125,839,3812
116.35235,39.91258,840,3812
116.3524,39.91297,841,3812
116.3524,39.91297,842,3812
116.3559,39.91282,843,3812
116.35627,39.91313,844,3812
116.35863,39.91322,845,3812
116.36678,39.9134,846,3812
116.371,39.91327,847,3812
116.37138,39.91325,848,3812
116.3715,39.91333,849,3812
116.3714,39.91528,850,3812
116.37113,39.9211,851,3812
116.37118,39.92115,852,3812
116.37128,39.92117,853,3812
116.37272,39.92123,854,3812
116.37283,39.92123,855,3812
116.37347,39.92122,856,3812
116.37373,39.92128,857,3812
116.3739,39.9213,858,3812
116.37418,39.92132,859,3812
116.37427,39.9213,860,3812
116.37648,39.92135,861,3812
116.37627,39.92142,862,3812
116.37587,39.9214,863,3812
116.37573,39.92143,864,3812
116.37563,39.9214,865,3812
116.3732,39.92137,866,3812
116.37293,39.92137,867,3812
116.37117,39.92125,868,3812
116.37112,39.92132,869,3812
116.371,39.92278,870,3812
116.37082,39.92287,871,3812
116.35913,39.92255,872,3812
116.35443,39.92248,873,3812
116.34897,39.92243,874,3812
116.34897,39.92243,875,3812
116.34885,39.92238,876,3812
116.34805,39.92228,877,3812
116.3471,39.92227,878,3812
116.34697,39.92222,879,3812
116.34688,39.92212,880,3812
116.34682,39.92198,881,3812
116.34685,39.92153,882,3812
116.34728,39.91813,883,3812
116.34728,39.91813,884,3812
116.34715,39.91793,885,3812
116.34717,39.91405,886,3812
116.34698,39.91323,887,3812
116.34702,39.91315,888,3812
116.34703,39.91308,889,3812
116.34637,39.90943,890,3812
116.34635,39.90833,891,3812
116.34635,39.90833,892,3812
116.34628,39.90828,893,3812
116.34628,39.90828,894,3812
116.34628,39.90828,895,3812
116.34647,39.90818,896,3812
116.3464,39.90832,897,3812
116.34645,39.91133,898,3812
116.3468,39.9123,899,3812
116.34682,39.91248,900,3812
116.34677,39.91258,901,3812
116.34663,39.91265,902,3812
116.32067,39.90977,903,3812
116.31463,39.90985,904,3812
116.31368,39.90987,905,3812
116.31288,39.90987,906,3812
116.31232,39.90988,907,3812
116.31185,39.90988,908,3812
116.31143,39.90988,909,3812
116.31133,39.90987,910,3812
116.30152,39.91173,911,3812
116.29703,39.9118,912,3812
116.28502,39.91163,913,3812
116.28432,39.91167,914,3812
116.28402,39.91168,915,3812
116.27727,39.91147,916,3812
116.27723,39.90928,917,3812
116.27722,39.90643,918,3812
116.27695,39.90632,919,3812
116.26982,39.90633,920,3812
116.26035,39.90628,921,3812
116.25998,39.90628,922,3812
116.25388,39.90628,923,3812
116.24792,39.90628,924,3812
116.23945,39.90627,925,3812
116.23018,39.90623,926,3812
116.22988,39.9062,927,3812
116.22963,39.90602,928,3812
116.2296,39.90582,929,3812
116.22957,39.90275,930,3812
116.2295,39.90258,931,3812
116.22962,39.89978,932,3812
116.2296,39.89953,933,3812
116.2295,39.89947,934,3812
116.22942,39.89947,935,3812
116.22853,39.89943,936,3812
116.22837,39.89943,937,3812
116.22813,39.89945,938,3812
116.22805,39.89952,939,3812
116.22808,39.9,940,3812
116.22818,39.9001,941,3812
116.22832,39.90012,942,3812
116.22857,39.9001,943,3812
116.22857,39.9001,944,3812
116.22868,39.90023,945,3812
116.2288,39.90025,946,3812
116.22913,39.90027,947,3812
116.22918,39.90035,948,3812
116.22873,39.90047,949,3812
116.22857,39.90043,950,3812
116.22837,39.90015,951,3812
116.22822,39.90005,952,3812
116.22812,39.8999,953,3812
116.22812,39.89953,954,3812
116.22813,39.89948,955,3812
116.22825,39.89945,956,3812
116.22933,39.89945,957,3812
116.23038,39.89935,958,3812
116.23038,39.89947,959,3812
116.23025,39.89947,960,3812
116.22988,39.8995,961,3812
116.2298,39.90122,962,3812
116.22983,39.9012,963,3812
116.22985,39.90205,964,3812
116.22988,39.90223,965,3812
116.22995,39.90245,966,3812
116.23277,39.90262,967,3812
116.2694,39.9508,968,3812
116.26937,39.96833,969,3812
116.27102,39.9699,970,3812
116.29103,39.98318,971,3812
116.30215,39.98392,972,3812
116.30215,39.98392,973,3812
116.33507,39.98575,974,3812
116.41792,39.99032,975,3812
116.41782,39.99045,976,3812
116.41788,39.99207,977,3812
116.42075,39.99227,978,3812
116.42072,39.99232,979,3812
116.41845,39.99237,980,3812
116.41795,39.99228,981,3812
116.41777,39.99218,982,3812
116.41772,39.992,983,3812
116.41777,39.98823,984,3812
116.41713,39.98855,985,3812
116.41748,39.98745,986,3812
116.41758,39.9869,987,3812
116.41773,39.98655,988,3812
116.41778,39.98642,989,3812
116.41792,39.98462,990,3812
116.418,39.98388,991,3812
116.41803,39.98373,992,3812
116.41793,39.98292,993,3812
116.41793,39.98292,994,3812
116.41793,39.98292,995,3812
116.41795,39.98213,996,3812
116.418,39.97947,997,3812
116.41803,39.97923,998,3812
116.4182,39.97662,999,3812
116.41845,39.97347,1000,3812
116.4185,39.97338,1001,3812
116.41853,39.97323,1002,3812
116.41845,39.97207,1003,3812
116.41847,39.972,1004,3812
116.41847,39.9719,1005,3812
116.4183,39.96822,1006,3812
116.41515,39.96822,1007,3812
116.41495,39.96817,1008,3812
116.41347,39.9681,1009,3812
116.41325,39.96812,1010,3812
116.41253,39.96807,1011,3812
116.41242,39.9681,1012,3812
116.41233,39.9679,1013,3812
116.41217,39.9679,1014,3812
116.41045,39.968,1015,3812
116.40947,39.96793,1016,3812
116.40558,39.96782,1017,3812
116.40508,39.96783,1018,3812
116.40497,39.96785,1019,3812
116.39608,39.96763,1020,3812
116.39597,39.96787,1021,3812
116.39598,39.96857,1022,3812
116.3958,39.97198,1023,3812
116.39577,39.97293,1024,3812
116.3957,39.97372,1025,3812
116.39577,39.9738,1026,3812
116.39608,39.97388,1027,3812
116.40093,39.97405,1028,3812
116.40105,39.97378,1029,3812
116.40113,39.97213,1030,3812
116.40112,39.97177,1031,3812
116.40115,39.97122,1032,3812
116.40112,39.97123,1033,3812
116.40123,39.97097,1034,3812
116.40128,39.97042,1035,3812
116.4011,39.96897,1036,3812
116.40098,39.9681,1037,3812
116.40082,39.96795,1038,3812
116.40077,39.96778,1039,3812
116.40085,39.96737,1040,3812
116.401,39.96712,1041,3812
116.40127,39.96703,1042,3812
116.40237,39.96732,1043,3812
116.4047,39.96738,1044,3812
116.40545,39.96742,1045,3812
116.40575,39.96738,1046,3812
116.43002,39.96777,1047,3812
116.4318,39.96698,1048,3812
116.43998,39.96178,1049,3812
116.44012,39.96207,1050,3812
116.4401,39.9621,1051,3812
116.43998,39.96218,1052,3812
116.43987,39.96225,1053,3812
116.43863,39.96307,1054,3812
116.43852,39.9631,1055,3812
116.43827,39.96325,1056,3812
116.43763,39.9637,1057,3812
116.43762,39.96377,1058,3812
116.43772,39.96388,1059,3812
116.43778,39.96397,1060,3812
116.43782,39.96403,1061,3812
116.43825,39.96448,1062,3812
116.4383,39.96455,1063,3812
116.43823,39.96463,1064,3812
116.43798,39.96487,1065,3812
116.43787,39.96533,1066,3812
116.438,39.9657,1067,3812
116.43812,39.96602,1068,3812
116.43763,39.9666,1069,3812
116.43775,39.96658,1070,3812
116.4379,39.96645,1071,3812
116.43797,39.96627,1072,3812
116.43817,39.9658,1073,3812
116.43797,39.96557,1074,3812
116.43792,39.96538,1075,3812
116.43793,39.96507,1076,3812
116.43798,39.96492,1077,3812
116.43807,39.9648,1078,3812
116.43823,39.96472,1079,3812
116.4384,39.96463,1080,3812
116.43837,39.9646,1081,3812
116.43763,39.96387,1082,3812
116.4375,39.96388,1083,3812
116.43247,39.96708,1084,3812
116.43125,39.9679,1085,3812
116.43062,39.96807,1086,3812
116.43043,39.96812,1087,3812
116.43017,39.96823,1088,3812
116.42252,39.96842,1089,3812
116.41902,39.96827,1090,3812
116.41898,39.96822,1091,3812
116.41315,39.96805,1092,3812
116.41312,39.96803,1093,3812
116.41157,39.9679,1094,3812
116.41157,39.9679,1095,3812
116.41132,39.96758,1096,3812
116.39445,39.96758,1097,3812
116.39417,39.9675,1098,3812
116.37675,39.96722,1099,3812
116.375,39.96778,1100,3812
116.3748,39.96827,1101,3812
116.37518,39.97165,1102,3812
116.37562,39.97527,1103,3812
116.37415,39.98058,1104,3812
116.37415,39.98058,1105,3812
116.37438,39.98075,1106,3812
116.3757,39.9808,1107,3812
116.37605,39.98082,1108,3812
116.38035,39.981,1109,3812
116.38063,39.98103,1110,3812
116.38677,39.98118,1111,3812
116.38788,39.98117,1112,3812
116.3883,39.98133,1113,3812
116.38838,39.98148,1114,3812
116.38838,39.98595,1115,3812
116.3886,39.98618,1116,3812
116.38892,39.98627,1117,3812
116.40693,39.98697,1118,3812
116.40703,39.98688,1119,3812
116.40702,39.98675,1120,3812
116.40685,39.98653,1121,3812
116.40667,39.98623,1122,3812
116.40537,39.98402,1123,3812
116.40522,39.98382,1124,3812
116.40415,39.98208,1125,3812
116.40393,39.98165,1126,3812
116.40403,39.98158,1127,3812
116.40437,39.98153,1128,3812
116.40778,39.98172,1129,3812
116.40777,39.98183,1130,3812
116.40767,39.98198,1131,3812
116.40762,39.98203,1132,3812
116.40765,39.98212,1133,3812
116.4082,39.98233,1134,3812
116.4082,39.98253,1135,3812
116.40808,39.98262,1136,3812
116.40782,39.9826,1137,3812
116.40782,39.9826,1138,3812
116.40793,39.98263,1139,3812
116.40815,39.98258,1140,3812
116.40818,39.9825,1141,3812
116.40825,39.98237,1142,3812
116.40815,39.98227,1143,3812
116.40797,39.98225,1144,3812
116.40772,39.9822,1145,3812
116.40767,39.98205,1146,3812
116.40762,39.98202,1147,3812
116.4075,39.98207,1148,3812
116.40463,39.98193,1149,3812
116.40417,39.9817,1150,3812
116.40392,39.98177,1151,3812
116.40173,39.9817,1152,3812
116.40132,39.98167,1153,3812
116.40108,39.98138,1154,3812
116.40103,39.98047,1155,3812
116.40105,39.98045,1156,3812
116.40105,39.9792,1157,3812
116.40103,39.97883,1158,3812
116.40102,39.97595,1159,3812
116.4011,39.9744,1160,3812
116.40122,39.9743,1161,3812
116.40127,39.97398,1162,3812
116.4012,39.97368,1163,3812
116.40123,39.97307,1164,3812
116.40125,39.97255,1165,3812
116.40098,39.96807,1166,3812
116.40073,39.96775,1167,3812
116.40072,39.96718,1168,3812
116.40128,39.9647,1169,3812
116.40135,39.96378,1170,3812
116.40128,39.96355,1171,3812
116.40158,39.95852,1172,3812
116.40177,39.94817,1173,3812
116.4015,39.9473,1174,3812
116.4016,39.94712,1175,3812
116.40188,39.94682,1176,3812
116.40198,39.9461,1177,3812
116.40203,39.94572,1178,3812
116.40202,39.94555,1179,3812
116.40205,39.94267,1180,3812
116.4021,39.94193,1181,3812
116.4021,39.93982,1182,3812
116.40213,39.93945,1183,3812
116.40215,39.9393,1184,3812
116.40218,39.93777,1185,3812
116.40228,39.93773,1186,3812
116.40255,39.93777,1187,3812
116.40255,39.93777,1188,3812
116.40273,39.93778,1189,3812
116.40342,39.9378,1190,3812
116.40358,39.93782,1191,3812
116.4049,39.93778,1192,3812
116.40503,39.93778,1193,3812
116.40517,39.93778,1194,3812
116.40543,39.9378,1195,3812
116.40605,39.9378,1196,3812
116.40607,39.93788,1197,3812
116.40598,39.93792,1198,3812
116.40585,39.93793,1199,3812
116.40562,39.93793,1200,3812
116.40562,39.93793,1201,3812
116.4054,39.93788,1202,3812
116.4053,39.93783,1203,3812
116.4052,39.93783,1204,3812
116.40517,39.9379,1205,3812
116.40518,39.93832,1206,3812
116.40518,39.93838,1207,3812
116.40518,39.93915,1208,3812
116.4054,39.9392,1209,3812
116.40567,39.93928,1210,3812
116.40717,39.93933,1211,3812
116.40715,39.93945,1212,3812
116.407,39.93942,1213,3812
116.40672,39.9394,1214,3812
116.4031,39.9393,1215,3812
116.40275,39.93917,1216,3812
116.40235,39.93927,1217,3812
116.40225,39.93915,1218,3812
116.40218,39.9389,1219,3812
116.40233,39.93638,1220,3812
116.40243,39.93433,1221,3812
116.40237,39.93423,1222,3812
116.40215,39.93405,1223,3812
116.40213,39.93388,1224,3812
116.40233,39.93362,1225,3812
116.40237,39.9334,1226,3812
116.40238,39.93322,1227,3812
116.40238,39.93303,1228,3812
116.40242,39.9328,1229,3812
116.40245,39.93263,1230,3812
116.40243,39.9326,1231,3812
116.40243,39.9322,1232,3812
116.3903,39.9321,1233,3812
116.3903,39.9321,1234,3812
116.36235,39.9311,1235,3812
116.35092,39.93107,1236,3812
116.3509,39.93112,1237,3812
116.34873,39.9311,1238,3812
116.34457,39.93115,1239,3812
116.34442,39.93118,1240,3812
116.34442,39.93118,1241,3812
116.34315,39.93125,1242,3812
116.34308,39.93127,1243,3812
116.34208,39.93123,1244,3812
116.3403,39.93128,1245,3812
116.33917,39.93133,1246,3812
116.33895,39.93125,1247,3812
116.33842,39.93128,1248,3812
116.3383,39.93132,1249,3812
116.33815,39.93133,1250,3812
116.33795,39.9357,1251,3812
116.33798,39.93578,1252,3812
116.33787,39.9361,1253,3812
116.33768,39.93617,1254,3812
116.33652,39.93623,1255,3812
116.33648,39.9373,1256,3812
116.33638,39.93733,1257,3812
116.32585,39.9372,1258,3812
116.32585,39.9372,1259,3812
116.32558,39.93723,1260,3812
116.32535,39.93723,1261,3812
116.32295,39.93747,1262,3812
116.3228,39.9375,1263,3812
116.32265,39.93747,1264,3812
116.3202,39.93758,1265,3812
116.31968,39.93758,1266,3812
116.3196,39.93752,1267,3812
116.31945,39.93702,1268,3812
116.31937,39.93368,1269,3812
116.31933,39.9314,1270,3812
116.31933,39.93122,1271,3812
116.31927,39.93108,1272,3812
116.31927,39.93108,1273,3812
116.31888,39.93103,1274,3812
116.31888,39.93103,1275,3812
116.31585,39.93107,1276,3812
116.3159,39.93095,1277,3812
116.31565,39.93082,1278,3812
116.30377,39.93083,1279,3812
116.30377,39.9307,1280,3812
116.30375,39.9291,1281,3812
116.30375,39.92912,1282,3812
116.30375,39.92908,1283,3812
116.30378,39.92898,1284,3812
116.30397,39.92735,1285,3812
116.30398,39.92725,1286,3812
116.30398,39.90517,1287,3812
116.30378,39.90505,1288,3812
116.3024,39.9051,1289,3812
116.30205,39.90522,1290,3812
116.3018,39.90542,1291,3812
116.3017,39.90568,1292,3812
116.30182,39.90593,1293,3812
116.3021,39.90608,1294,3812
116.30933,39.90618,1295,3812
116.3149,39.906,1296,3812
116.315,39.90585,1297,3812
116.31498,39.90433,1298,3812
116.31497,39.90405,1299,3812
116.3152,39.89923,1300,3812
116.31528,39.90545,1301,3812
116.31515,39.90578,1302,3812
116.3152,39.90598,1303,3812
116.31558,39.90683,1304,3812
116.3155,39.90972,1305,3812
116.31537,39.90983,1306,3812
116.3149,39.90985,1307,3812
116.31463,39.90982,1308,3812
116.31433,39.9098,1309,3812
116.31413,39.9098,1310,3812
116.30638,39.91038,1311,3812
116.30527,39.91078,1312,3812
116.30498,39.9108,1313,3812
116.30498,39.9108,1314,3812
116.30498,39.9108,1315,3812
116.30268,39.91145,1316,3812
116.30235,39.91148,1317,3812
116.3004,39.91178,1318,3812
116.29775,39.9118,1319,3812
116.29768,39.91188,1320,3812
116.29768,39.91202,1321,3812
116.29762,39.91208,1322,3812
116.29777,39.91207,1323,3812
116.29753,39.9119,1324,3812
116.29653,39.91192,1325,3812
116.29653,39.91192,1326,3812
116.29637,39.9119,1327,3812
116.2963,39.91205,1328,3812
116.29625,39.91242,1329,3812
