x,y,k,tid
116.30407,39.93658,0,3890
116.30409,39.91694,1,3890
116.30415,39.91087,2,3890
116.30417,39.89304,3,3890
116.30337,39.88373,4,3890
116.30338,39.88329,5,3890
116.30018,39.88122,6,3890
116.3002,39.88124,7,3890
116.30432,39.90464,8,3890
116.30455,39.93098,9,3890
116.29642,39.93257,10,3890
116.3013,39.93098,11,3890
116.30104,39.9065,12,3890
116.29606,39.90651,13,3890
116.29607,39.90651,14,3890
116.29605,39.91208,15,3890
116.30179,39.92261,16,3890
116.29857,39.92274,17,3890
116.29523,39.92754,18,3890
116.29523,39.92754,19,3890
116.29486,39.92745,20,3890
116.29497,39.92767,21,3890
116.29506,39.92779,22,3890
116.29531,39.92776,23,3890
116.29523,39.9276,24,3890
116.29515,39.92782,25,3890
116.30439,39.94333,26,3890
116.31547,39.95563,27,3890
116.31546,39.95564,28,3890
116.30315,39.95275,29,3890
116.32252,39.937,30,3890
116.35023,39.94193,31,3890
116.39073,39.94752,32,3890
116.41266,39.94797,33,3890
116.42776,39.93201,34,3890
116.42826,39.92067,35,3890
116.42966,39.90479,36,3890
116.42966,39.90479,37,3890
116.43201,39.88295,38,3890
116.41653,39.88254,39,3890
116.41445,39.88407,40,3890
116.43284,39.88299,41,3890
116.43813,39.87076,42,3890
116.44555,39.87393,43,3890
116.45015,39.87255,44,3890
116.45236,39.87228,45,3890
116.45008,39.87268,46,3890
116.44831,39.86601,47,3890
116.43895,39.86509,48,3890
116.42651,39.86958,49,3890
116.39577,39.87049,50,3890
116.36259,39.86852,51,3890
116.33107,39.86683,52,3890
116.29555,39.86548,53,3890
116.29154,39.87798,54,3890
116.30067,39.8805,55,3890
116.29811,39.87705,56,3890
116.29812,39.87705,57,3890
116.29813,39.87706,58,3890
116.29813,39.87706,59,3890
116.29813,39.87707,60,3890
116.29813,39.87707,61,3890
116.29813,39.87706,62,3890
116.29813,39.87705,63,3890
116.29813,39.87704,64,3890
116.29813,39.87704,65,3890
116.29812,39.87703,66,3890
116.29812,39.87702,67,3890
116.29812,39.87702,68,3890
116.29812,39.87701,69,3890
116.29812,39.87701,70,3890
116.29812,39.877,71,3890
116.29812,39.877,72,3890
116.29812,39.877,73,3890
116.29811,39.877,74,3890
116.29811,39.877,75,3890
116.29811,39.877,76,3890
116.29811,39.877,77,3890
116.2981,39.877,78,3890
116.2981,39.877,79,3890
116.2981,39.877,80,3890
116.2981,39.877,81,3890
116.2981,39.87701,82,3890
116.2981,39.87701,83,3890
116.29809,39.87701,84,3890
116.29809,39.87701,85,3890
116.29809,39.87701,86,3890
116.29811,39.87704,87,3890
116.29815,39.87704,88,3890
116.29815,39.87704,89,3890
116.29814,39.87704,90,3890
116.29814,39.87703,91,3890
116.29814,39.87703,92,3890
116.29813,39.87702,93,3890
116.29813,39.87702,94,3890
116.29813,39.87702,95,3890
116.29813,39.87702,96,3890
116.29814,39.87702,97,3890
116.29814,39.87702,98,3890
116.29813,39.87702,99,3890
116.29813,39.87702,100,3890
116.29813,39.87702,101,3890
116.29813,39.87702,102,3890
116.29813,39.87702,103,3890
116.29813,39.87702,104,3890
116.29813,39.87703,105,3890
116.29813,39.87703,106,3890
116.29812,39.87703,107,3890
116.29812,39.87704,108,3890
116.29812,39.87703,109,3890
116.29812,39.87703,110,3890
116.29811,39.87703,111,3890
116.29811,39.87703,112,3890
116.2981,39.87703,113,3890
116.2981,39.87704,114,3890
116.2981,39.87704,115,3890
116.2981,39.87704,116,3890
116.2981,39.87703,117,3890
116.29809,39.87703,118,3890
116.29809,39.87703,119,3890
116.29809,39.87703,120,3890
116.29809,39.87703,121,3890
116.29809,39.87703,122,3890
116.29809,39.87703,123,3890
116.29809,39.87703,124,3890
116.29809,39.87704,125,3890
116.29808,39.87704,126,3890
116.29808,39.87704,127,3890
116.30063,39.87603,128,3890
116.28931,39.87661,129,3890
116.28931,39.87662,130,3890
116.2893,39.87662,131,3890
116.2893,39.87661,132,3890
116.2893,39.87661,133,3890
116.2893,39.87661,134,3890
116.2893,39.87661,135,3890
116.2893,39.87661,136,3890
116.2893,39.8766,137,3890
116.2893,39.8766,138,3890
116.2893,39.8766,139,3890
116.2893,39.8766,140,3890
116.2893,39.87659,141,3890
116.2893,39.87659,142,3890
116.28922,39.87666,143,3890
116.28925,39.87664,144,3890
116.28926,39.87663,145,3890
116.28927,39.87662,146,3890
116.28927,39.87662,147,3890
116.28928,39.87661,148,3890
116.28927,39.87662,149,3890
116.31831,39.89564,150,3890
116.35797,39.93369,151,3890
116.35749,39.9341,152,3890
116.35765,39.93414,153,3890
116.35762,39.93413,154,3890
116.3576,39.93413,155,3890
116.3576,39.93412,156,3890
116.35759,39.93412,157,3890
116.35757,39.93412,158,3890
116.35755,39.93413,159,3890
116.35741,39.93425,160,3890
116.35754,39.93418,161,3890
116.35725,39.93416,162,3890
116.3573,39.93416,163,3890
116.3573,39.93417,164,3890
116.35729,39.93417,165,3890
116.3573,39.93418,166,3890
116.3573,39.93418,167,3890
116.35731,39.93417,168,3890
116.35731,39.93418,169,3890
116.35731,39.93418,170,3890
116.35731,39.93418,171,3890
116.35731,39.93417,172,3890
116.35731,39.93417,173,3890
116.35732,39.93417,174,3890
116.35732,39.93417,175,3890
116.35757,39.93422,176,3890
116.35739,39.9341,177,3890
116.35739,39.9341,178,3890
116.35739,39.93415,179,3890
116.3574,39.93418,180,3890
116.35753,39.93449,181,3890
116.3574,39.93418,182,3890
116.35742,39.93418,183,3890
116.35743,39.93435,184,3890
116.35745,39.9343,185,3890
116.35744,39.93428,186,3890
116.35743,39.93427,187,3890
116.35729,39.93424,188,3890
116.35728,39.93426,189,3890
116.35729,39.93427,190,3890
116.35727,39.93427,191,3890
116.35726,39.93428,192,3890
116.35727,39.93428,193,3890
116.35728,39.93428,194,3890
116.35728,39.93428,195,3890
116.35728,39.93427,196,3890
116.35731,39.93421,197,3890
116.35735,39.93424,198,3890
116.35737,39.93423,199,3890
116.3574,39.93422,200,3890
116.35739,39.93422,201,3890
116.35738,39.93422,202,3890
116.3574,39.93422,203,3890
116.3574,39.93422,204,3890
116.35738,39.93423,205,3890
116.35737,39.93423,206,3890
116.35736,39.93424,207,3890
116.35735,39.93424,208,3890
116.35735,39.93425,209,3890
116.35735,39.93425,210,3890
116.35734,39.93425,211,3890
116.35733,39.93425,212,3890
116.35733,39.93425,213,3890
116.35717,39.93417,214,3890
116.35719,39.93422,215,3890
116.35719,39.93422,216,3890
116.3572,39.93423,217,3890
116.35719,39.93423,218,3890
116.3572,39.93422,219,3890
116.35721,39.93422,220,3890
116.35723,39.93421,221,3890
116.35724,39.93421,222,3890
116.35724,39.9342,223,3890
116.35724,39.93421,224,3890
116.35724,39.93421,225,3890
116.35724,39.93421,226,3890
116.35723,39.93421,227,3890
116.35723,39.93422,228,3890
116.35723,39.93422,229,3890
116.35724,39.93423,230,3890
116.35724,39.93423,231,3890
116.35762,39.9344,232,3890
116.35728,39.93428,233,3890
116.3572,39.93415,234,3890
116.35732,39.93428,235,3890
116.35736,39.9343,236,3890
116.35734,39.93428,237,3890
116.35746,39.9414,238,3890
116.35771,39.9411,239,3890
116.35773,39.94114,240,3890
116.3577,39.94117,241,3890
116.35771,39.9412,242,3890
116.35771,39.9412,243,3890
116.3475,39.93909,244,3890
116.32652,39.93292,245,3890
116.32592,39.93286,246,3890
116.32594,39.93284,247,3890
116.32631,39.93286,248,3890
116.33496,39.93678,249,3890
116.38134,39.94751,250,3890
116.42491,39.94333,251,3890
116.41973,39.94342,252,3890
116.4195,39.93288,253,3890
116.42017,39.91684,254,3890
116.40615,39.91283,255,3890
116.40464,39.92225,256,3890
116.39265,39.93208,257,3890
116.39265,39.93208,258,3890
116.37455,39.93169,259,3890
116.36212,39.93313,260,3890
116.35733,39.93426,261,3890
116.3528,39.93514,262,3890
116.35299,39.9334,263,3890
116.36117,39.9309,264,3890
116.37311,39.93148,265,3890
116.38958,39.93194,266,3890
116.40125,39.92859,267,3890
116.40231,39.93984,268,3890
116.39967,39.94785,269,3890
116.40011,39.94801,270,3890
116.37249,39.94807,271,3890
116.36983,39.94123,272,3890
116.36975,39.94125,273,3890
116.36921,39.94112,274,3890
116.3654,39.95158,275,3890
116.36407,39.96599,276,3890
116.35869,39.97855,277,3890
116.35832,39.97941,278,3890
116.35629,39.98036,279,3890
116.35944,39.97625,280,3890
116.35944,39.97625,281,3890
116.3582,39.9666,282,3890
116.3582,39.9666,283,3890
116.34497,39.96658,284,3890
116.33474,39.96649,285,3890
116.34004,39.9566,286,3890
116.33538,39.94661,287,3890
116.33456,39.94633,288,3890
116.33456,39.94633,289,3890
116.31493,39.95327,290,3890
116.31969,39.93782,291,3890
116.34952,39.94006,292,3890
116.39935,39.94767,293,3890
116.42782,39.93434,294,3890
116.42861,39.91572,295,3890
116.43674,39.89495,296,3890
116.4215,39.89189,297,3890
116.41307,39.89176,298,3890
116.41422,39.88552,299,3890
116.41422,39.88552,300,3890
116.41457,39.88487,301,3890
116.41407,39.88449,302,3890
116.41294,39.87192,303,3890
116.36103,39.8682,304,3890
116.32629,39.86677,305,3890
116.30831,39.85928,306,3890
116.30074,39.86184,307,3890
116.30074,39.86184,308,3890
116.29995,39.86174,309,3890
116.30029,39.86189,310,3890
116.28818,39.85615,311,3890
116.27721,39.8455,312,3890
116.2838,39.82549,313,3890
116.29904,39.8108,314,3890
116.30508,39.80903,315,3890
116.30228,39.80954,316,3890
116.30532,39.80895,317,3890
116.30716,39.81562,318,3890
116.30718,39.81677,319,3890
116.2854,39.80617,320,3890
116.2762,39.78975,321,3890
116.27723,39.78569,322,3890
116.27837,39.78604,323,3890
116.279,39.78523,324,3890
116.28067,39.78233,325,3890
116.2806,39.78876,326,3890
116.2806,39.78876,327,3890
116.27998,39.80361,328,3890
116.28525,39.81177,329,3890
116.28526,39.81178,330,3890
116.28526,39.81178,331,3890
116.28527,39.81177,332,3890
116.28528,39.81177,333,3890
116.28389,39.82454,334,3890
116.30286,39.82922,335,3890
116.35294,39.83357,336,3890
116.35344,39.84443,337,3890
116.35876,39.84308,338,3890
116.3583,39.86377,339,3890
116.36074,39.86395,340,3890
116.36816,39.87275,341,3890
116.36819,39.88683,342,3890
116.36816,39.89334,343,3890
116.36976,39.89811,344,3890
116.37816,39.89709,345,3890
116.37848,39.89081,346,3890
116.37368,39.8882,347,3890
116.36882,39.88792,348,3890
116.36804,39.87035,349,3890
116.37777,39.86704,350,3890
116.37853,39.86915,351,3890
116.37856,39.86919,352,3890
116.37857,39.8692,353,3890
116.37858,39.8692,354,3890
116.37935,39.86952,355,3890
116.39995,39.87056,356,3890
116.42554,39.86966,357,3890
116.43918,39.89258,358,3890
116.43787,39.89644,359,3890
116.43787,39.89644,360,3890
116.42813,39.92801,361,3890
116.4278,39.94284,362,3890
116.44899,39.95857,363,3890
116.47191,39.97877,364,3890
116.48301,39.98871,365,3890
116.50748,40.01091,366,3890
116.53744,40.02226,367,3890
116.57046,40.03513,368,3890
116.57508,40.05138,369,3890
116.57078,40.05141,370,3890
116.5751,40.05242,371,3890
116.57591,40.05366,372,3890
116.57447,40.06031,373,3890
116.56454,40.07016,374,3890
116.56466,40.07163,375,3890
116.56466,40.07163,376,3890
116.56466,40.07162,377,3890
116.56466,40.07162,378,3890
116.56465,40.07162,379,3890
116.56465,40.07162,380,3890
116.56465,40.07162,381,3890
116.56465,40.07161,382,3890
116.56444,40.0712,383,3890
116.56467,40.07165,384,3890
116.56466,40.07163,385,3890
116.56465,40.07163,386,3890
116.56473,40.0717,387,3890
116.56473,40.0717,388,3890
116.5647,40.07167,389,3890
116.5643,40.07158,390,3890
116.56427,40.07161,391,3890
116.56429,40.07161,392,3890
116.56431,40.07162,393,3890
116.56431,40.07163,394,3890
116.56432,40.07163,395,3890
116.56433,40.07163,396,3890
116.56433,40.07163,397,3890
116.56432,40.07163,398,3890
116.56432,40.07163,399,3890
116.56432,40.07163,400,3890
116.56432,40.07163,401,3890
116.56432,40.07163,402,3890
116.56432,40.07163,403,3890
116.56432,40.07163,404,3890
116.56416,40.07091,405,3890
116.58233,40.06222,406,3890
116.58171,40.0684,407,3890
116.58171,40.0684,408,3890
116.58171,40.06843,409,3890
116.5817,40.06847,410,3890
116.58142,40.07009,411,3890
116.58181,40.07631,412,3890
116.58732,40.07709,413,3890
116.58782,40.07759,414,3890
116.58782,40.07759,415,3890
116.58782,40.07759,416,3890
116.57373,40.04223,417,3890
116.49988,40.00328,418,3890
116.4464,39.95479,419,3890
116.42808,39.92551,420,3890
116.41048,39.91451,421,3890
116.40784,39.91389,422,3890
116.40483,39.9193,423,3890
116.38578,39.93213,424,3890
116.35733,39.93412,425,3890
116.35734,39.93414,426,3890
116.35734,39.93415,427,3890
116.35734,39.93415,428,3890
116.35734,39.93416,429,3890
116.35735,39.93417,430,3890
116.35735,39.93418,431,3890
116.35736,39.93418,432,3890
116.35759,39.93426,433,3890
116.35753,39.93425,434,3890
116.35749,39.93425,435,3890
116.35745,39.93425,436,3890
116.35743,39.93426,437,3890
116.35744,39.93431,438,3890
116.35737,39.93428,439,3890
116.35736,39.93426,440,3890
116.35743,39.93421,441,3890
116.35742,39.93421,442,3890
116.35737,39.93422,443,3890
116.35733,39.93423,444,3890
116.35733,39.93423,445,3890
116.35732,39.93423,446,3890
116.35731,39.93423,447,3890
116.3573,39.93423,448,3890
116.3573,39.93422,449,3890
116.35729,39.93422,450,3890
116.35729,39.93422,451,3890
116.35729,39.93421,452,3890
116.35729,39.93421,453,3890
116.35729,39.93421,454,3890
116.35729,39.93421,455,3890
116.3573,39.9342,456,3890
116.3573,39.9342,457,3890
116.3573,39.93421,458,3890
116.35738,39.9343,459,3890
116.35737,39.93429,460,3890
116.3572,39.93427,461,3890
116.35761,39.93449,462,3890
116.35735,39.93428,463,3890
116.35741,39.93433,464,3890
116.35742,39.93433,465,3890
116.35739,39.93431,466,3890
116.35738,39.9343,467,3890
116.35739,39.9343,468,3890
116.3574,39.9343,469,3890
116.3574,39.93429,470,3890
116.35739,39.93429,471,3890
116.35739,39.93429,472,3890
116.35738,39.93429,473,3890
116.35738,39.93429,474,3890
116.35737,39.93429,475,3890
116.35737,39.93429,476,3890
116.35736,39.93429,477,3890
116.35735,39.93429,478,3890
116.35735,39.93429,479,3890
116.35734,39.93429,480,3890
116.35733,39.93428,481,3890
116.3573,39.93423,482,3890
116.35716,39.93418,483,3890
116.3572,39.93419,484,3890
116.35724,39.9342,485,3890
116.35724,39.9342,486,3890
116.35724,39.93422,487,3890
116.35725,39.93423,488,3890
116.35726,39.93423,489,3890
116.35729,39.93425,490,3890
116.35729,39.93424,491,3890
116.35729,39.93424,492,3890
116.35729,39.93424,493,3890
116.35729,39.93423,494,3890
116.35729,39.93423,495,3890
116.35729,39.93423,496,3890
116.35729,39.93423,497,3890
116.35729,39.93422,498,3890
116.35729,39.93423,499,3890
116.35729,39.93423,500,3890
116.35729,39.93423,501,3890
116.35728,39.93423,502,3890
116.35728,39.93423,503,3890
116.35729,39.93423,504,3890
116.35718,39.93433,505,3890
116.35713,39.93407,506,3890
116.35723,39.93412,507,3890
116.35723,39.93416,508,3890
116.35727,39.93416,509,3890
116.3573,39.93416,510,3890
116.35749,39.93429,511,3890
116.35749,39.93429,512,3890
116.35749,39.93429,513,3890
116.35747,39.93427,514,3890
116.35742,39.93426,515,3890
116.35739,39.93425,516,3890
116.35738,39.93425,517,3890
116.35738,39.93425,518,3890
116.35738,39.93424,519,3890
116.35738,39.93424,520,3890
116.35737,39.93424,521,3890
116.35737,39.93424,522,3890
116.35736,39.93424,523,3890
116.35737,39.93425,524,3890
116.35737,39.93425,525,3890
116.35738,39.93425,526,3890
116.35737,39.93425,527,3890
116.35737,39.93425,528,3890
116.35751,39.93433,529,3890
116.3575,39.93429,530,3890
116.35751,39.93428,531,3890
116.35751,39.93429,532,3890
116.35748,39.93432,533,3890
116.35746,39.93431,534,3890
116.3573,39.93411,535,3890
116.35738,39.93411,536,3890
116.35733,39.93419,537,3890
116.35731,39.93421,538,3890
116.35731,39.93421,539,3890
116.35732,39.9342,540,3890
116.35733,39.9342,541,3890
116.35733,39.9342,542,3890
116.35733,39.9342,543,3890
116.35732,39.9342,544,3890
116.35732,39.9342,545,3890
116.35732,39.9342,546,3890
116.35733,39.93419,547,3890
116.35733,39.93418,548,3890
116.35733,39.93418,549,3890
116.35734,39.93418,550,3890
116.35734,39.93418,551,3890
116.35734,39.93418,552,3890
116.35734,39.93418,553,3890
116.35729,39.93418,554,3890
116.35729,39.93467,555,3890
116.35773,39.93521,556,3890
116.35767,39.93522,557,3890
116.35251,39.93511,558,3890
116.3495,39.93733,559,3890
116.36206,39.93558,560,3890
116.3599,39.93121,561,3890
116.3511,39.93128,562,3890
116.35148,39.91856,563,3890
116.34394,39.90595,564,3890
116.32927,39.90869,565,3890
116.33702,39.90584,566,3890
116.33994,39.90389,567,3890
116.34002,39.90429,568,3890
116.34326,39.9037,569,3890
116.3465,39.90252,570,3890
116.34658,39.8987,571,3890
116.34676,39.89118,572,3890
116.34524,39.88662,573,3890
116.34524,39.88662,574,3890
116.34521,39.88651,575,3890
116.34538,39.88699,576,3890
116.34545,39.88718,577,3890
116.34605,39.88735,578,3890
116.34513,39.88832,579,3890
116.31542,39.88844,580,3890
116.31826,39.88553,581,3890
116.31826,39.88547,582,3890
116.31813,39.88545,583,3890
116.31834,39.88494,584,3890
116.31808,39.8858,585,3890
116.31825,39.88544,586,3890
116.31826,39.88544,587,3890
116.31828,39.88552,588,3890
116.31824,39.88551,589,3890
116.3184,39.88531,590,3890
116.31827,39.88548,591,3890
116.31822,39.88553,592,3890
116.31822,39.88553,593,3890
116.31825,39.88546,594,3890
116.31831,39.88537,595,3890
116.31829,39.88539,596,3890
116.31773,39.88603,597,3890
116.31824,39.88527,598,3890
116.31818,39.88557,599,3890
116.31817,39.88553,600,3890
116.31818,39.88553,601,3890
116.31818,39.88553,602,3890
116.31817,39.8855,603,3890
116.31817,39.88548,604,3890
116.31818,39.88548,605,3890
116.31821,39.88525,606,3890
116.31821,39.88531,607,3890
116.31821,39.88532,608,3890
116.31821,39.88534,609,3890
116.31823,39.88536,610,3890
116.31828,39.88569,611,3890
116.31498,39.88741,612,3890
116.30748,39.88634,613,3890
116.30459,39.88387,614,3890
116.30074,39.88048,615,3890
116.30422,39.88323,616,3890
116.30428,39.89323,617,3890
116.30443,39.9026,618,3890
116.30423,39.90452,619,3890
116.30319,39.89699,620,3890
116.24872,39.89596,621,3890
116.25559,39.88823,622,3890
116.27309,39.87239,623,3890
116.27587,39.87541,624,3890
116.28984,39.87753,625,3890
116.30007,39.88123,626,3890
116.30007,39.88124,627,3890
116.3006,39.88044,628,3890
116.31213,39.85515,629,3890
116.35612,39.85287,630,3890
116.4041,39.85519,631,3890
116.40409,39.85519,632,3890
116.40624,39.85535,633,3890
116.37358,39.85572,634,3890
116.27462,39.864,635,3890
116.25862,39.86302,636,3890
116.25392,39.85918,637,3890
116.27249,39.87142,638,3890
116.27607,39.87308,639,3890
116.29996,39.88121,640,3890
116.30422,39.9024,641,3890
116.31105,39.92233,642,3890
116.33831,39.92046,643,3890
116.33855,39.91818,644,3890
116.35076,39.92184,645,3890
116.35771,39.93103,646,3890
116.35732,39.93426,647,3890
116.35724,39.93426,648,3890
116.35721,39.93423,649,3890
116.35714,39.93426,650,3890
116.35726,39.93435,651,3890
116.35723,39.9343,652,3890
116.35721,39.93429,653,3890
116.35721,39.93429,654,3890
116.3572,39.93428,655,3890
116.35718,39.93428,656,3890
116.35718,39.93428,657,3890
116.35718,39.93428,658,3890
116.35718,39.93428,659,3890
116.35718,39.93428,660,3890
116.35717,39.93427,661,3890
116.3571,39.93418,662,3890
116.3571,39.93418,663,3890
116.3572,39.93415,664,3890
116.35716,39.93417,665,3890
116.35719,39.93421,666,3890
116.3572,39.93421,667,3890
116.35737,39.93423,668,3890
116.35727,39.93412,669,3890
116.35727,39.93413,670,3890
116.35728,39.93413,671,3890
116.35728,39.93413,672,3890
116.35728,39.93413,673,3890
116.35729,39.93414,674,3890
116.35738,39.93422,675,3890
116.3573,39.93416,676,3890
116.3573,39.93418,677,3890
116.35731,39.93417,678,3890
116.35731,39.93417,679,3890
116.35731,39.93417,680,3890
116.35731,39.93417,681,3890
116.35731,39.93417,682,3890
116.35731,39.93417,683,3890
116.35731,39.93417,684,3890
116.35731,39.93417,685,3890
116.35731,39.93416,686,3890
116.35731,39.93416,687,3890
116.35732,39.93424,688,3890
116.35732,39.93421,689,3890
116.3573,39.93419,690,3890
116.35729,39.93419,691,3890
116.3573,39.93418,692,3890
116.35729,39.93418,693,3890
116.3572,39.93425,694,3890
116.3573,39.93419,695,3890
116.35734,39.93418,696,3890
116.35733,39.93417,697,3890
116.35733,39.93417,698,3890
116.35732,39.93417,699,3890
116.35731,39.93417,700,3890
116.35731,39.93417,701,3890
116.35729,39.9342,702,3890
116.35729,39.9342,703,3890
116.35726,39.93433,704,3890
116.35721,39.93436,705,3890
116.35732,39.93426,706,3890
116.35734,39.93425,707,3890
116.35735,39.93426,708,3890
116.35735,39.93427,709,3890
116.35735,39.93427,710,3890
116.35727,39.93438,711,3890
116.35731,39.93433,712,3890
116.357,39.93436,713,3890
116.35724,39.93419,714,3890
116.35734,39.93434,715,3890
116.35732,39.93432,716,3890
116.35732,39.93431,717,3890
116.35731,39.93431,718,3890
116.3573,39.93429,719,3890
116.3571,39.93411,720,3890
116.35723,39.93429,721,3890
116.35723,39.93426,722,3890
116.35723,39.93425,723,3890
116.35724,39.93426,724,3890
116.35724,39.93425,725,3890
116.35724,39.93425,726,3890
116.35724,39.93424,727,3890
116.35724,39.93424,728,3890
116.35724,39.93424,729,3890
116.35724,39.93423,730,3890
116.35724,39.93423,731,3890
116.35725,39.93423,732,3890
116.35725,39.93422,733,3890
116.35725,39.93422,734,3890
116.35726,39.93422,735,3890
116.35726,39.93422,736,3890
116.35726,39.93422,737,3890
116.35726,39.93422,738,3890
116.35726,39.93422,739,3890
116.35726,39.93422,740,3890
116.35726,39.93422,741,3890
116.35726,39.93423,742,3890
116.35727,39.93423,743,3890
116.35727,39.93423,744,3890
116.35727,39.93423,745,3890
116.35727,39.93423,746,3890
116.35728,39.93424,747,3890
116.35728,39.93424,748,3890
116.35727,39.93424,749,3890
116.35727,39.93424,750,3890
116.35727,39.93424,751,3890
116.35727,39.93424,752,3890
116.35727,39.93425,753,3890
116.35726,39.93425,754,3890
116.35724,39.93432,755,3890
116.35728,39.93431,756,3890
116.35729,39.93431,757,3890
116.3573,39.93431,758,3890
116.35731,39.93431,759,3890
116.35733,39.93431,760,3890
116.35733,39.93432,761,3890
116.35734,39.93432,762,3890
116.35735,39.93432,763,3890
116.35735,39.93432,764,3890
116.35735,39.93432,765,3890
116.35735,39.93432,766,3890
116.35735,39.93431,767,3890
116.35734,39.93431,768,3890
116.35734,39.9343,769,3890
116.35733,39.9343,770,3890
116.35733,39.9343,771,3890
116.35732,39.9343,772,3890
116.35732,39.93429,773,3890
116.35731,39.93429,774,3890
116.35731,39.93429,775,3890
116.3573,39.93429,776,3890
116.3573,39.93429,777,3890
116.35715,39.93427,778,3890
116.35713,39.93425,779,3890
116.35714,39.93425,780,3890
116.35715,39.93425,781,3890
116.35716,39.93425,782,3890
116.35717,39.93425,783,3890
116.35718,39.93425,784,3890
116.35718,39.93425,785,3890
116.35718,39.93424,786,3890
116.35718,39.93424,787,3890
116.35719,39.93423,788,3890
116.3572,39.93423,789,3890
116.3572,39.93422,790,3890
116.3572,39.93422,791,3890
116.35765,39.93435,792,3890
116.35747,39.93427,793,3890
116.35746,39.93427,794,3890
116.35744,39.93427,795,3890
116.35744,39.93427,796,3890
116.35744,39.93427,797,3890
116.35744,39.93427,798,3890
116.35742,39.93426,799,3890
116.35741,39.93425,800,3890
116.3573,39.9342,801,3890
116.35735,39.93423,802,3890
116.35735,39.93426,803,3890
116.3574,39.93433,804,3890
116.3574,39.93433,805,3890
116.35741,39.93435,806,3890
116.35741,39.93435,807,3890
116.35699,39.93422,808,3890
116.35707,39.93425,809,3890
116.35711,39.93426,810,3890
116.35716,39.93426,811,3890
116.35717,39.93425,812,3890
116.35718,39.93425,813,3890
116.35719,39.93424,814,3890
116.3572,39.93423,815,3890
116.3572,39.93423,816,3890
116.34993,39.93697,817,3890
116.35029,39.93955,818,3890
116.34091,39.93814,819,3890
116.33543,39.93604,820,3890
116.33776,39.9288,821,3890
116.34701,39.92103,822,3890
116.34059,39.9268,823,3890
116.33742,39.92923,824,3890
116.33757,39.92882,825,3890
116.33761,39.92872,826,3890
116.33951,39.91725,827,3890
116.33312,39.91452,828,3890
116.33739,39.91179,829,3890
116.33739,39.91179,830,3890
116.33316,39.9152,831,3890
116.33315,39.91519,832,3890
116.33288,39.91332,833,3890
116.33319,39.91276,834,3890
116.34656,39.91255,835,3890
116.34675,39.91187,836,3890
116.34689,39.92164,837,3890
116.34746,39.92166,838,3890
116.34697,39.9228,839,3890
116.34683,39.92253,840,3890
116.32705,39.92182,841,3890
116.29542,39.92283,842,3890
116.28708,39.96085,843,3890
116.29329,39.95876,844,3890
116.35066,39.94077,845,3890
116.35285,39.93534,846,3890
116.3572,39.93417,847,3890
116.3572,39.9342,848,3890
116.3572,39.9342,849,3890
116.35719,39.93421,850,3890
116.3572,39.93422,851,3890
116.35721,39.93422,852,3890
116.35722,39.93423,853,3890
116.35722,39.93422,854,3890
116.35731,39.93432,855,3890
116.35729,39.93427,856,3890
116.35728,39.93424,857,3890
116.35729,39.93422,858,3890
116.3573,39.93422,859,3890
116.3573,39.93422,860,3890
116.35143,39.93333,861,3890
116.3512,39.93329,862,3890
116.3507,39.93318,863,3890
116.35024,39.93317,864,3890
116.37225,39.94883,865,3890
116.37225,39.94883,866,3890
116.37848,39.98622,867,3890
116.40149,39.9962,868,3890
116.40062,40.00253,869,3890
116.40145,39.99632,870,3890
116.40122,39.99161,871,3890
116.40137,39.99153,872,3890
116.40117,39.99114,873,3890
116.38803,39.97261,874,3890
116.38288,39.94775,875,3890
116.37421,39.94825,876,3890
116.37285,39.94747,877,3890
116.41788,39.94812,878,3890
116.42852,39.9166,879,3890
116.428,39.90367,880,3890
116.42093,39.90457,881,3890
116.40078,39.90181,882,3890
116.40056,39.90757,883,3890
116.39981,39.92726,884,3890
116.39543,39.92808,885,3890
116.39158,39.929,886,3890
116.39088,39.92184,887,3890
116.39231,39.92189,888,3890
116.40059,39.91178,889,3890
116.40049,39.89979,890,3890
116.40956,39.89934,891,3890
116.41237,39.89716,892,3890
116.41194,39.89574,893,3890
116.41873,39.89856,894,3890
116.41905,39.89875,895,3890
116.41428,39.89581,896,3890
116.41271,39.88801,897,3890
116.41464,39.87936,898,3890
116.41537,39.86641,899,3890
116.41537,39.86542,900,3890
116.41552,39.86444,901,3890
116.417,39.8647,902,3890
116.4182,39.86433,903,3890
116.42777,39.86917,904,3890
116.42866,39.86876,905,3890
116.42878,39.86922,906,3890
116.43821,39.89081,907,3890
116.47175,39.90622,908,3890
116.47246,39.9154,909,3890
116.47188,39.9195,910,3890
116.47176,39.91259,911,3890
116.47146,39.90025,912,3890
116.47146,39.90025,913,3890
116.47185,39.90116,914,3890
116.47199,39.90161,915,3890
116.47202,39.90157,916,3890
116.47201,39.90226,917,3890
116.47203,39.90161,918,3890
116.47203,39.9019,919,3890
116.4433,39.90248,920,3890
116.42812,39.92904,921,3890
116.3982,39.94763,922,3890
116.35016,39.94282,923,3890
116.34142,39.95269,924,3890
116.34137,39.95277,925,3890
116.34387,39.94329,926,3890
116.34292,39.93868,927,3890
116.34293,39.93871,928,3890
116.3429,39.93871,929,3890
116.35219,39.93914,930,3890
116.35728,39.93426,931,3890
116.35728,39.93424,932,3890
116.35728,39.93423,933,3890
116.3573,39.93428,934,3890
116.35735,39.9342,935,3890
116.35714,39.93414,936,3890
116.35748,39.93426,937,3890
116.35748,39.93426,938,3890
116.35713,39.93411,939,3890
116.35728,39.93413,940,3890
116.35723,39.93412,941,3890
116.35745,39.9342,942,3890
116.35735,39.93411,943,3890
116.35733,39.93411,944,3890
116.35732,39.93411,945,3890
116.35734,39.93413,946,3890
116.3578,39.93437,947,3890
116.35771,39.93433,948,3890
116.35745,39.93429,949,3890
116.35752,39.93435,950,3890
116.3575,39.93433,951,3890
116.35748,39.93433,952,3890
116.35747,39.93433,953,3890
116.35746,39.93433,954,3890
116.35745,39.93432,955,3890
116.35744,39.93432,956,3890
116.35743,39.93432,957,3890
116.35743,39.93432,958,3890
116.35743,39.93431,959,3890
116.35742,39.93431,960,3890
116.35637,39.93343,961,3890
116.35725,39.93416,962,3890
116.35709,39.93405,963,3890
116.35713,39.93409,964,3890
116.35717,39.93412,965,3890
116.35717,39.93412,966,3890
116.35711,39.93413,967,3890
116.35735,39.93441,968,3890
116.35733,39.93436,969,3890
116.35732,39.93433,970,3890
116.35732,39.93431,971,3890
116.35732,39.93429,972,3890
116.35731,39.93428,973,3890
116.35731,39.93427,974,3890
116.35731,39.93426,975,3890
116.3573,39.93426,976,3890
116.3573,39.93425,977,3890
116.35728,39.93424,978,3890
116.35728,39.93424,979,3890
116.35728,39.93424,980,3890
116.35728,39.93424,981,3890
116.35724,39.93434,982,3890
116.35724,39.9343,983,3890
116.35726,39.93427,984,3890
116.35727,39.93426,985,3890
116.35727,39.93425,986,3890
116.35728,39.93424,987,3890
116.35729,39.93423,988,3890
116.3573,39.93422,989,3890
116.3573,39.93421,990,3890
116.3573,39.93421,991,3890
116.35731,39.93421,992,3890
116.35732,39.93419,993,3890
116.35732,39.93419,994,3890
116.35733,39.93419,995,3890
116.35733,39.93419,996,3890
116.35733,39.93419,997,3890
116.35733,39.93418,998,3890
116.35733,39.93418,999,3890
116.35733,39.93418,1000,3890
116.35734,39.93417,1001,3890
116.35734,39.93417,1002,3890
116.35735,39.93417,1003,3890
116.35735,39.93416,1004,3890
116.35736,39.93416,1005,3890
116.35736,39.93416,1006,3890
116.35735,39.93415,1007,3890
116.35735,39.93416,1008,3890
116.35734,39.93416,1009,3890
116.35734,39.93416,1010,3890
116.35734,39.93416,1011,3890
116.35734,39.93416,1012,3890
116.35734,39.93416,1013,3890
116.35733,39.93417,1014,3890
116.35733,39.93417,1015,3890
116.35733,39.93417,1016,3890
116.35733,39.93417,1017,3890
116.35733,39.93417,1018,3890
116.35732,39.93417,1019,3890
116.35726,39.93424,1020,3890
116.35725,39.93423,1021,3890
116.35714,39.9339,1022,3890
116.35721,39.93403,1023,3890
116.35724,39.93409,1024,3890
116.35725,39.93412,1025,3890
116.35726,39.93414,1026,3890
116.35726,39.93415,1027,3890
116.35725,39.93416,1028,3890
116.35726,39.93417,1029,3890
116.35727,39.93418,1030,3890
116.35727,39.93419,1031,3890
116.35728,39.9342,1032,3890
116.35728,39.9342,1033,3890
116.35728,39.93421,1034,3890
116.35728,39.93422,1035,3890
116.35728,39.93422,1036,3890
116.35728,39.93422,1037,3890
116.35728,39.93422,1038,3890
116.35728,39.93422,1039,3890
116.35727,39.93422,1040,3890
116.35727,39.93423,1041,3890
116.35726,39.93423,1042,3890
116.35726,39.93423,1043,3890
116.35768,39.93441,1044,3890
116.35768,39.93441,1045,3890
116.35714,39.93437,1046,3890
116.35729,39.93439,1047,3890
116.35727,39.93439,1048,3890
116.35723,39.93437,1049,3890
116.35723,39.93435,1050,3890
116.35726,39.93436,1051,3890
116.35729,39.93436,1052,3890
116.35729,39.93436,1053,3890
116.35728,39.93436,1054,3890
116.35728,39.93436,1055,3890
116.35727,39.93436,1056,3890
116.35727,39.93436,1057,3890
116.35726,39.93435,1058,3890
116.35725,39.93435,1059,3890
116.35725,39.93434,1060,3890
116.35725,39.93434,1061,3890
116.35726,39.93433,1062,3890
116.35726,39.93433,1063,3890
116.35725,39.93432,1064,3890
116.35725,39.93431,1065,3890
116.35725,39.93431,1066,3890
116.35725,39.9343,1067,3890
116.35725,39.9343,1068,3890
116.35725,39.93429,1069,3890
116.35725,39.93429,1070,3890
116.35724,39.93429,1071,3890
116.35725,39.93428,1072,3890
116.35725,39.93428,1073,3890
116.35725,39.93428,1074,3890
116.35725,39.93428,1075,3890
116.35729,39.93426,1076,3890
116.35729,39.93424,1077,3890
116.35729,39.93424,1078,3890
116.35728,39.93423,1079,3890
116.35737,39.93433,1080,3890
116.35734,39.93431,1081,3890
116.35732,39.93432,1082,3890
116.35732,39.93432,1083,3890
116.35731,39.93431,1084,3890
116.35728,39.9343,1085,3890
116.35728,39.9343,1086,3890
116.35727,39.9343,1087,3890
116.35724,39.93418,1088,3890
116.35724,39.93421,1089,3890
116.35747,39.93448,1090,3890
116.35744,39.93447,1091,3890
116.35743,39.93446,1092,3890
116.35742,39.93443,1093,3890
116.3574,39.9344,1094,3890
116.35719,39.93384,1095,3890
116.35725,39.93393,1096,3890
116.35728,39.93395,1097,3890
116.35735,39.93412,1098,3890
116.35737,39.93411,1099,3890
116.35737,39.93411,1100,3890
116.35746,39.93396,1101,3890
116.35731,39.93431,1102,3890
116.3573,39.93431,1103,3890
116.3573,39.93429,1104,3890
116.35733,39.93426,1105,3890
116.35734,39.93424,1106,3890
116.35734,39.93423,1107,3890
116.35729,39.93478,1108,3890
116.35451,39.93526,1109,3890
116.35322,39.93514,1110,3890
116.35278,39.93533,1111,3890
116.35306,39.93489,1112,3890
116.35307,39.93512,1113,3890
116.35306,39.93484,1114,3890
116.3528,39.93113,1115,3890
116.315,39.88714,1116,3890
116.31527,39.88284,1117,3890
116.31527,39.88278,1118,3890
116.31523,39.88282,1119,3890
116.31758,39.88532,1120,3890
116.31757,39.88524,1121,3890
116.3176,39.88523,1122,3890
116.31762,39.88527,1123,3890
116.31763,39.88527,1124,3890
116.31763,39.88528,1125,3890
116.3177,39.88532,1126,3890
116.31764,39.88543,1127,3890
116.31732,39.88549,1128,3890
116.31758,39.88547,1129,3890
116.31758,39.88547,1130,3890
116.31758,39.88547,1131,3890
116.31758,39.88547,1132,3890
116.31753,39.8855,1133,3890
116.31753,39.8855,1134,3890
116.31753,39.8855,1135,3890
116.31753,39.8855,1136,3890
116.31753,39.8855,1137,3890
116.31753,39.8855,1138,3890
116.31768,39.88535,1139,3890
116.31768,39.88535,1140,3890
116.31773,39.88582,1141,3890
116.3175,39.88503,1142,3890
116.31761,39.88508,1143,3890
116.31756,39.8852,1144,3890
116.31737,39.88551,1145,3890
116.31751,39.88538,1146,3890
116.31751,39.88538,1147,3890
116.31751,39.88537,1148,3890
116.31778,39.88503,1149,3890
116.31771,39.88502,1150,3890
116.3177,39.88508,1151,3890
116.31768,39.88514,1152,3890
116.31763,39.88517,1153,3890
116.31759,39.88519,1154,3890
116.31757,39.8852,1155,3890
116.31757,39.8852,1156,3890
116.31756,39.8852,1157,3890
116.31735,39.88526,1158,3890
116.31735,39.88526,1159,3890
116.31732,39.88534,1160,3890
116.31742,39.88539,1161,3890
116.31733,39.88524,1162,3890
116.31734,39.8852,1163,3890
116.31734,39.88516,1164,3890
116.31737,39.88514,1165,3890
116.31739,39.88515,1166,3890
116.31756,39.88514,1167,3890
116.31753,39.88521,1168,3890
116.31677,39.88493,1169,3890
116.31752,39.88523,1170,3890
116.31753,39.88523,1171,3890
116.31754,39.88522,1172,3890
116.31754,39.88523,1173,3890
116.31753,39.88522,1174,3890
116.31754,39.88522,1175,3890
116.31753,39.88522,1176,3890
116.31753,39.88521,1177,3890
116.31753,39.88522,1178,3890
116.31753,39.88522,1179,3890
116.31753,39.88522,1180,3890
116.31757,39.88525,1181,3890
116.31757,39.88523,1182,3890
116.31757,39.88522,1183,3890
116.31757,39.88523,1184,3890
116.31757,39.88523,1185,3890
116.31756,39.88524,1186,3890
116.31756,39.88524,1187,3890
116.31757,39.88524,1188,3890
116.31757,39.88524,1189,3890
116.31757,39.88534,1190,3890
116.31757,39.88528,1191,3890
116.31757,39.88526,1192,3890
116.31758,39.88526,1193,3890
116.31757,39.88516,1194,3890
116.31758,39.88516,1195,3890
116.31762,39.88525,1196,3890
116.31762,39.88529,1197,3890
116.31762,39.88528,1198,3890
116.31734,39.8854,1199,3890
116.3177,39.88513,1200,3890
116.31762,39.88524,1201,3890
116.31759,39.8853,1202,3890
116.31765,39.88516,1203,3890
116.31769,39.88529,1204,3890
116.31777,39.88522,1205,3890
116.31777,39.88518,1206,3890
116.31768,39.88513,1207,3890
116.31767,39.88512,1208,3890
116.31746,39.88547,1209,3890
116.31747,39.88541,1210,3890
116.31756,39.8852,1211,3890
116.31759,39.88518,1212,3890
116.31703,39.88564,1213,3890
116.31751,39.88514,1214,3890
116.31744,39.88525,1215,3890
116.3175,39.88523,1216,3890
116.31748,39.88529,1217,3890
116.31751,39.8853,1218,3890
116.31758,39.8854,1219,3890
116.31758,39.8853,1220,3890
116.31761,39.88539,1221,3890
116.31746,39.88517,1222,3890
116.31749,39.88519,1223,3890
116.31752,39.88519,1224,3890
116.31753,39.88519,1225,3890
116.31755,39.88521,1226,3890
116.31752,39.8852,1227,3890
116.31751,39.88516,1228,3890
116.31755,39.88496,1229,3890
116.31771,39.88515,1230,3890
116.31749,39.88557,1231,3890
116.31751,39.88555,1232,3890
116.31751,39.88555,1233,3890
116.31755,39.8853,1234,3890
116.31764,39.88504,1235,3890
116.31764,39.88506,1236,3890
116.31762,39.88552,1237,3890
116.31762,39.88511,1238,3890
116.31763,39.88512,1239,3890
116.31762,39.88512,1240,3890
116.31767,39.88518,1241,3890
116.31767,39.88518,1242,3890
116.31772,39.88524,1243,3890
116.31769,39.88517,1244,3890
116.31767,39.8852,1245,3890
116.31767,39.88523,1246,3890
116.31767,39.88523,1247,3890
116.31767,39.88524,1248,3890
116.31766,39.88524,1249,3890
116.31766,39.88525,1250,3890
116.31765,39.88525,1251,3890
116.31765,39.88525,1252,3890
116.31765,39.88525,1253,3890
116.31765,39.88525,1254,3890
116.31764,39.88525,1255,3890
116.31764,39.88525,1256,3890
116.31763,39.88524,1257,3890
116.31763,39.88524,1258,3890
116.31763,39.88524,1259,3890
116.31763,39.88524,1260,3890
116.31762,39.88524,1261,3890
116.31762,39.88524,1262,3890
116.31756,39.88502,1263,3890
116.3176,39.88504,1264,3890
116.31777,39.88537,1265,3890
116.31753,39.88512,1266,3890
116.31754,39.88516,1267,3890
116.31753,39.88523,1268,3890
116.31767,39.88553,1269,3890
116.31768,39.8856,1270,3890
116.31768,39.88557,1271,3890
116.31765,39.88531,1272,3890
116.31779,39.88566,1273,3890
116.31802,39.886,1274,3890
116.3175,39.8854,1275,3890
116.31746,39.88541,1276,3890
116.31746,39.88541,1277,3890
116.31746,39.8854,1278,3890
116.31746,39.8854,1279,3890
116.31747,39.88537,1280,3890
116.31737,39.8855,1281,3890
116.31763,39.88536,1282,3890
116.31757,39.88539,1283,3890
116.31756,39.88537,1284,3890
116.31755,39.88536,1285,3890
116.31755,39.88535,1286,3890
116.31755,39.88535,1287,3890
116.31756,39.88533,1288,3890
116.31756,39.88531,1289,3890
116.31756,39.88529,1290,3890
116.31755,39.88527,1291,3890
116.31755,39.88526,1292,3890
116.31756,39.88526,1293,3890
116.31756,39.88526,1294,3890
116.31756,39.88527,1295,3890
116.31756,39.88527,1296,3890
116.31756,39.88528,1297,3890
116.31756,39.88528,1298,3890
116.31756,39.88528,1299,3890
116.31756,39.88528,1300,3890
116.31756,39.88529,1301,3890
116.31749,39.88544,1302,3890
116.31743,39.88538,1303,3890
116.31741,39.88534,1304,3890
116.3174,39.88532,1305,3890
116.31742,39.88531,1306,3890
116.31736,39.8853,1307,3890
116.31737,39.8853,1308,3890
116.31738,39.88529,1309,3890
116.31739,39.88529,1310,3890
116.31739,39.88528,1311,3890
116.31741,39.88528,1312,3890
116.31743,39.88528,1313,3890
116.31744,39.88528,1314,3890
116.31744,39.88528,1315,3890
116.31745,39.88528,1316,3890
116.31746,39.88529,1317,3890
116.31761,39.88523,1318,3890
116.3176,39.88524,1319,3890
116.31761,39.88523,1320,3890
116.31761,39.88523,1321,3890
116.3176,39.88523,1322,3890
116.3176,39.88524,1323,3890
116.3176,39.88523,1324,3890
116.31762,39.88524,1325,3890
116.31757,39.88517,1326,3890
116.31757,39.88517,1327,3890
116.31757,39.88518,1328,3890
116.31778,39.88532,1329,3890
116.31775,39.88534,1330,3890
116.31771,39.88533,1331,3890
116.31769,39.88533,1332,3890
116.31768,39.88531,1333,3890
116.31766,39.88529,1334,3890
116.31765,39.88526,1335,3890
116.31761,39.88511,1336,3890
116.31761,39.88512,1337,3890
116.31761,39.88516,1338,3890
116.3176,39.88518,1339,3890
116.3176,39.88518,1340,3890
116.31761,39.88519,1341,3890
116.31762,39.88519,1342,3890
116.31763,39.8852,1343,3890
116.31763,39.8852,1344,3890
116.31764,39.88518,1345,3890
116.31771,39.8853,1346,3890
116.31767,39.88523,1347,3890
116.31763,39.88524,1348,3890
116.31759,39.88524,1349,3890
116.31758,39.88524,1350,3890
116.31756,39.88524,1351,3890
116.31757,39.88524,1352,3890
116.3176,39.88518,1353,3890
116.31761,39.88519,1354,3890
116.3176,39.88519,1355,3890
116.3176,39.88519,1356,3890
116.3176,39.88519,1357,3890
116.3176,39.88519,1358,3890
116.3176,39.88519,1359,3890
116.3176,39.88519,1360,3890
116.31759,39.88519,1361,3890
116.31759,39.88519,1362,3890
116.31781,39.88518,1363,3890
116.31762,39.8852,1364,3890
116.31747,39.88516,1365,3890
116.31745,39.88517,1366,3890
116.31746,39.88516,1367,3890
116.31715,39.88492,1368,3890
116.31752,39.88519,1369,3890
116.31746,39.88515,1370,3890
116.31742,39.88509,1371,3890
116.31766,39.88515,1372,3890
116.31759,39.88514,1373,3890
116.3176,39.88516,1374,3890
116.3176,39.88515,1375,3890
116.31754,39.88528,1376,3890
116.31757,39.88531,1377,3890
116.31757,39.8853,1378,3890
116.31761,39.88531,1379,3890
116.31761,39.88531,1380,3890
116.31761,39.88531,1381,3890
116.31756,39.88535,1382,3890
116.31757,39.88534,1383,3890
116.31761,39.88532,1384,3890
116.31689,39.88513,1385,3890
116.31761,39.88525,1386,3890
116.3176,39.88525,1387,3890
116.31758,39.88525,1388,3890
116.31769,39.88542,1389,3890
116.31762,39.88524,1390,3890
116.31732,39.8853,1391,3890
116.31723,39.88537,1392,3890
116.31737,39.88533,1393,3890
116.31749,39.88529,1394,3890
116.31746,39.88532,1395,3890
116.31731,39.88543,1396,3890
116.31742,39.88542,1397,3890
116.31777,39.88501,1398,3890
116.31785,39.88524,1399,3890
116.3177,39.88537,1400,3890
116.31755,39.88549,1401,3890
116.31729,39.88554,1402,3890
116.31886,39.88853,1403,3890
116.35723,39.9342,1404,3890
116.35724,39.93418,1405,3890
116.35724,39.93418,1406,3890
116.35793,39.93713,1407,3890
116.34783,39.93972,1408,3890
116.34285,39.93863,1409,3890
116.31658,39.93797,1410,3890
116.31659,39.93804,1411,3890
116.30258,39.94175,1412,3890
116.31351,39.9369,1413,3890
116.32423,39.93701,1414,3890
116.31577,39.93119,1415,3890
116.30387,39.90837,1416,3890
116.30414,39.88568,1417,3890
116.3093,39.88549,1418,3890
116.4351,39.86922,1419,3890
116.43891,39.87455,1420,3890
116.43891,39.87455,1421,3890
116.46519,39.88305,1422,3890
116.48335,39.87776,1423,3890
116.48255,39.87479,1424,3890
116.48114,39.87484,1425,3890
116.48114,39.87484,1426,3890
116.4714,39.8826,1427,3890
116.4714,39.8826,1428,3890
116.47145,39.88882,1429,3890
116.47165,39.90385,1430,3890
116.42973,39.90792,1431,3890
116.40813,39.90779,1432,3890
116.4127,39.90734,1433,3890
116.41251,39.90781,1434,3890
116.41161,39.90713,1435,3890
116.38158,39.90589,1436,3890
116.65474,40.00648,1437,3890
116.65472,40.0065,1438,3890
116.65441,40.00668,1439,3890
116.65442,40.0065,1440,3890
116.65452,40.00655,1441,3890
116.65455,40.00655,1442,3890
116.65455,40.00656,1443,3890
116.65457,40.00656,1444,3890
116.65457,40.00656,1445,3890
116.65457,40.00656,1446,3890
116.65457,40.00655,1447,3890
116.65457,40.00655,1448,3890
116.65457,40.00655,1449,3890
116.65458,40.00655,1450,3890
116.65458,40.00654,1451,3890
116.65458,40.00654,1452,3890
116.65459,40.00654,1453,3890
116.65459,40.00654,1454,3890
116.65459,40.00653,1455,3890
116.65459,40.00653,1456,3890
116.65459,40.00652,1457,3890
116.65458,40.00652,1458,3890
116.65458,40.00652,1459,3890
116.65458,40.00652,1460,3890
116.65458,40.00652,1461,3890
116.65458,40.00652,1462,3890
116.65458,40.00652,1463,3890
116.65458,40.00652,1464,3890
116.65458,40.00652,1465,3890
116.65457,40.00652,1466,3890
116.65457,40.00652,1467,3890
116.65457,40.00652,1468,3890
116.65457,40.00652,1469,3890
116.65457,40.00652,1470,3890
116.65456,40.00652,1471,3890
116.65456,40.00652,1472,3890
116.65456,40.00652,1473,3890
116.65456,40.00652,1474,3890
116.65455,40.00652,1475,3890
116.65455,40.00652,1476,3890
116.65454,40.00652,1477,3890
116.65454,40.00652,1478,3890
116.65454,40.00652,1479,3890
116.65454,40.00652,1480,3890
116.65454,40.00652,1481,3890
116.65454,40.00652,1482,3890
116.65454,40.00652,1483,3890
116.65454,40.00652,1484,3890
116.65455,40.00652,1485,3890
116.65455,40.00652,1486,3890
116.65455,40.00652,1487,3890
116.65455,40.00652,1488,3890
116.65456,40.00652,1489,3890
116.65456,40.00652,1490,3890
116.65457,40.00652,1491,3890
116.65457,40.00652,1492,3890
116.65457,40.00652,1493,3890
116.65457,40.00652,1494,3890
116.65458,40.00652,1495,3890
116.65459,40.00651,1496,3890
116.65484,40.0064,1497,3890
116.65479,40.00643,1498,3890
116.65478,40.00645,1499,3890
116.65516,40.00686,1500,3890
116.65498,40.00681,1501,3890
116.65443,40.00657,1502,3890
116.65448,40.0066,1503,3890
116.65448,40.0066,1504,3890
116.65449,40.0066,1505,3890
116.6545,40.00659,1506,3890
116.65449,40.00659,1507,3890
116.65448,40.00659,1508,3890
116.65449,40.00659,1509,3890
116.6545,40.00659,1510,3890
116.65449,40.00659,1511,3890
116.65449,40.00658,1512,3890
116.65449,40.00658,1513,3890
116.65449,40.00658,1514,3890
116.65449,40.00658,1515,3890
116.65448,40.00658,1516,3890
116.65448,40.00657,1517,3890
116.65449,40.00656,1518,3890
116.65448,40.00657,1519,3890
116.65448,40.00657,1520,3890
116.65449,40.00657,1521,3890
116.6545,40.00657,1522,3890
116.65451,40.00657,1523,3890
116.65534,40.00664,1524,3890
116.65525,40.00666,1525,3890
116.65462,40.00649,1526,3890
116.65459,40.00649,1527,3890
116.65459,40.0065,1528,3890
116.65458,40.00652,1529,3890
116.65457,40.00653,1530,3890
116.65458,40.00653,1531,3890
116.65459,40.00665,1532,3890
116.65456,40.00661,1533,3890
116.65456,40.0066,1534,3890
116.65457,40.00658,1535,3890
116.65456,40.00657,1536,3890
116.65455,40.00656,1537,3890
116.65454,40.00655,1538,3890
116.65454,40.00655,1539,3890
116.65453,40.00656,1540,3890
116.65452,40.00656,1541,3890
116.65453,40.00655,1542,3890
116.65453,40.00655,1543,3890
116.65453,40.00655,1544,3890
116.65453,40.00654,1545,3890
116.65453,40.00653,1546,3890
116.65453,40.00653,1547,3890
116.65453,40.00653,1548,3890
116.65453,40.00653,1549,3890
116.65452,40.00643,1550,3890
116.65458,40.00647,1551,3890
116.65459,40.00648,1552,3890
116.65459,40.00647,1553,3890
116.65457,40.00647,1554,3890
116.65458,40.00647,1555,3890
116.65458,40.00641,1556,3890
116.65463,40.00644,1557,3890
116.65465,40.00643,1558,3890
116.65443,40.0065,1559,3890
116.65455,40.00647,1560,3890
116.65463,40.00645,1561,3890
116.65464,40.00644,1562,3890
116.65465,40.00644,1563,3890
116.65466,40.00643,1564,3890
116.65464,40.00643,1565,3890
116.65465,40.00644,1566,3890
116.65468,40.00628,1567,3890
116.67034,39.99725,1568,3890
116.67435,39.99782,1569,3890
116.65863,40.00525,1570,3890
116.6542,40.00618,1571,3890
116.65417,40.00618,1572,3890
116.65415,40.00616,1573,3890
116.65415,40.00616,1574,3890
116.65414,40.00617,1575,3890
116.65414,40.00617,1576,3890
116.65413,40.00617,1577,3890
116.65413,40.00617,1578,3890
116.65413,40.00617,1579,3890
116.65413,40.00618,1580,3890
116.65413,40.00618,1581,3890
116.65413,40.00618,1582,3890
116.65414,40.00618,1583,3890
116.64853,39.99616,1584,3890
116.65225,39.97046,1585,3890
116.65119,39.94019,1586,3890
116.64529,39.92111,1587,3890
116.64384,39.91312,1588,3890
116.64213,39.9111,1589,3890
116.64213,39.9111,1590,3890
116.64141,39.91268,1591,3890
116.65617,39.90687,1592,3890
116.65679,39.90042,1593,3890
116.65667,39.90341,1594,3890
116.66356,39.89866,1595,3890
116.66535,39.89211,1596,3890
116.66045,39.87882,1597,3890
116.65272,39.86978,1598,3890
116.65421,39.86975,1599,3890
116.67448,39.86796,1600,3890
116.69329,39.85848,1601,3890
116.69226,39.85236,1602,3890
116.69413,39.85241,1603,3890
116.69414,39.85245,1604,3890
116.6955,39.85249,1605,3890
116.68132,39.87091,1606,3890
116.67983,39.87131,1607,3890
116.63912,39.89313,1608,3890
116.63019,39.90504,1609,3890
116.63012,39.90506,1610,3890
116.63007,39.90488,1611,3890
116.6286,39.9052,1612,3890
116.62959,39.89141,1613,3890
116.63527,39.89751,1614,3890
116.63004,39.90523,1615,3890
116.6299,39.90526,1616,3890
116.62998,39.90527,1617,3890
116.63004,39.90522,1618,3890
116.63015,39.90514,1619,3890
116.63013,39.90515,1620,3890
116.63012,39.90516,1621,3890
116.63011,39.90515,1622,3890
116.63008,39.90515,1623,3890
116.63008,39.90515,1624,3890
116.63018,39.90521,1625,3890
116.63016,39.90518,1626,3890
116.63015,39.90518,1627,3890
116.63003,39.90513,1628,3890
116.63003,39.90513,1629,3890
116.61943,39.90577,1630,3890
116.60504,39.91052,1631,3890
116.60706,39.90676,1632,3890
116.57829,39.91291,1633,3890
116.56346,39.91462,1634,3890
116.53614,39.91514,1635,3890
116.51391,39.92224,1636,3890
116.47874,39.92205,1637,3890
116.47781,39.92348,1638,3890
116.47888,39.92436,1639,3890
116.47882,39.92428,1640,3890
116.47877,39.92423,1641,3890
116.4789,39.92457,1642,3890
116.47889,39.92434,1643,3890
116.47884,39.92433,1644,3890
116.47882,39.92435,1645,3890
116.47881,39.92436,1646,3890
116.47684,39.92688,1647,3890
116.47231,39.92752,1648,3890
116.47237,39.92921,1649,3890
116.45083,39.93243,1650,3890
116.44727,39.93242,1651,3890
116.4469,39.93235,1652,3890
116.4604,39.93233,1653,3890
116.47434,39.93235,1654,3890
116.47597,39.93248,1655,3890
116.47478,39.93254,1656,3890
116.45661,39.93253,1657,3890
116.42894,39.97446,1658,3890
116.44972,40.01309,1659,3890
116.43107,40.03144,1660,3890
116.41745,40.0392,1661,3890
116.41745,40.03921,1662,3890
116.41967,40.03578,1663,3890
116.41963,40.03574,1664,3890
116.41969,40.03581,1665,3890
116.41948,40.03589,1666,3890
116.41945,40.03586,1667,3890
116.41945,40.03586,1668,3890
116.41954,40.03593,1669,3890
116.41953,40.03593,1670,3890
116.41953,40.03597,1671,3890
116.41949,40.03591,1672,3890
116.41951,40.03594,1673,3890
