x,y,k,tid
116.46624,39.97371,0,3979
116.46508,39.97267,1,3979
116.44353,39.95408,2,3979
116.44412,39.94106,3,3979
116.44412,39.94014,4,3979
116.4376,39.93421,5,3979
116.4376,39.93421,6,3979
116.43752,39.92562,7,3979
116.43011,39.92292,8,3979
116.4204,39.91345,9,3979
116.42052,39.90387,10,3979
116.42047,39.9037,11,3979
116.41188,39.90653,12,3979
116.41188,39.90679,13,3979
116.42021,39.91777,14,3979
116.42014,39.92042,15,3979
116.42846,39.91336,16,3979
116.4346,39.90981,17,3979
116.44427,39.91426,18,3979
116.44424,39.91427,19,3979
116.44442,39.91445,20,3979
116.44442,39.91445,21,3979
116.44432,39.91473,22,3979
116.44432,39.91473,23,3979
116.44416,39.92049,24,3979
116.4362,39.92257,25,3979
116.43458,39.923,26,3979
116.43458,39.923,27,3979
116.45053,39.92571,28,3979
116.45529,39.92586,29,3979
116.45122,39.9073,30,3979
116.44969,39.90728,31,3979
116.44686,39.91572,32,3979
116.44723,39.91436,33,3979
116.44723,39.91436,34,3979
116.46331,39.91141,35,3979
116.46328,39.91098,36,3979
116.45613,39.91163,37,3979
116.45568,39.92999,38,3979
116.45595,39.94559,39,3979
116.4507,39.95489,40,3979
116.43805,39.96321,41,3979
116.43864,39.98923,42,3979
116.45791,40.01013,43,3979
116.45791,40.01013,44,3979
116.45921,39.99578,45,3979
116.47599,39.98335,46,3979
116.47891,39.97585,47,3979
116.47527,39.96574,48,3979
116.47527,39.96574,49,3979
116.46003,39.95894,50,3979
116.45879,39.95777,51,3979
116.43856,39.93993,52,3979
116.43837,39.93836,53,3979
116.43837,39.93836,54,3979
116.43767,39.93262,55,3979
116.43467,39.92499,56,3979
116.43981,39.92145,57,3979
116.44406,39.91203,58,3979
116.46074,39.90696,59,3979
116.48351,39.87525,60,3979
116.48093,39.84477,61,3979
116.49616,39.83779,62,3979
116.49612,39.83806,63,3979
116.48319,39.8426,64,3979
116.48865,39.8557,65,3979
116.49239,39.8545,66,3979
116.48434,39.85249,67,3979
116.47544,39.85021,68,3979
116.461,39.8593,69,3979
116.46753,39.86652,70,3979
116.47121,39.86707,71,3979
116.45608,39.87004,72,3979
116.43743,39.85732,73,3979
116.44014,39.84242,74,3979
116.44075,39.84001,75,3979
116.4393,39.85708,76,3979
116.44414,39.85824,77,3979
116.45439,39.86605,78,3979
116.45505,39.86903,79,3979
116.45911,39.88307,80,3979
116.48548,39.89203,81,3979
116.49041,39.90759,82,3979
116.48926,39.90738,83,3979
116.47643,39.90764,84,3979
116.47192,39.91057,85,3979
116.4786,39.91407,86,3979
116.48304,39.91415,87,3979
116.49657,39.91452,88,3979
116.49767,39.91455,89,3979
116.49984,39.91464,90,3979
116.50394,39.91474,91,3979
116.49322,39.93024,92,3979
116.48998,39.92918,93,3979
116.49062,39.92691,94,3979
116.4857,39.92185,95,3979
116.4787,39.92445,96,3979
116.47664,39.92692,97,3979
116.47203,39.92513,98,3979
116.47195,39.92202,99,3979
116.47003,39.91455,100,3979
116.46085,39.92695,101,3979
116.45793,39.93111,102,3979
116.45698,39.93114,103,3979
116.45579,39.93145,104,3979
116.45541,39.95089,105,3979
116.44498,39.95877,106,3979
116.42024,39.96799,107,3979
116.39181,39.96735,108,3979
116.35322,39.96648,109,3979
116.35194,39.97357,110,3979
116.34938,39.97356,111,3979
116.34914,39.95115,112,3979
116.35583,39.93094,113,3979
116.37094,39.92521,114,3979
116.37562,39.91862,115,3979
116.3762,39.90777,116,3979
116.3765,39.9066,117,3979
116.38445,39.90604,118,3979
116.41134,39.90687,119,3979
116.44152,39.90699,120,3979
116.45047,39.90653,121,3979
116.4427,39.90253,122,3979
116.43769,39.906,123,3979
116.43758,39.90602,124,3979
116.43764,39.90983,125,3979
116.45152,39.91648,126,3979
116.45152,39.91648,127,3979
116.44463,39.92154,128,3979
116.42815,39.92691,129,3979
116.4136,39.93953,130,3979
116.40605,39.9411,131,3979
116.40948,39.94128,132,3979
116.41081,39.93434,133,3979
116.40275,39.93193,134,3979
116.38191,39.93184,135,3979
116.35025,39.93114,136,3979
116.33069,39.93118,137,3979
116.30857,39.93364,138,3979
116.30857,39.93364,139,3979
116.30837,39.93459,140,3979
116.31936,39.93726,141,3979
116.35044,39.93874,142,3979
116.34965,39.9395,143,3979
116.36621,39.94132,144,3979
116.3664,39.9397,145,3979
116.37075,39.93023,146,3979
116.3702,39.90883,147,3979
116.37005,39.90803,148,3979
116.35293,39.90597,149,3979
116.35043,39.8986,150,3979
116.35122,39.86695,151,3979
116.35998,39.8574,152,3979
116.32348,39.84776,153,3979
116.30442,39.89339,154,3979
116.25114,39.89586,155,3979
116.22809,39.90121,156,3979
116.22973,39.90264,157,3979
116.25454,39.90617,158,3979
116.2821,39.90622,159,3979
116.28897,39.90599,160,3979
116.29365,39.89557,161,3979
116.30078,39.89563,162,3979
116.30078,39.89563,163,3979
116.31126,39.89558,164,3979
116.31302,39.89557,165,3979
116.31333,39.89562,166,3979
116.31336,39.8956,167,3979
116.3438,39.89645,168,3979
116.35371,39.94343,169,3979
116.4014,39.98909,170,3979
116.40013,40.00549,171,3979
116.40132,39.99352,172,3979
116.41767,39.98769,173,3979
116.42215,39.97621,174,3979
116.4473,39.95082,175,3979
116.44731,39.95079,176,3979
116.44731,39.95079,177,3979
116.44731,39.95079,178,3979
116.4553,39.94355,179,3979
116.45711,39.9121,180,3979
116.47177,39.91059,181,3979
116.48982,39.90654,182,3979
116.50906,39.90642,183,3979
116.54182,39.90754,184,3979
116.56264,39.90805,185,3979
116.56862,39.89654,186,3979
116.57132,39.89668,187,3979
116.5683,39.89655,188,3979
116.57038,39.89628,189,3979
116.57035,39.8962,190,3979
116.57035,39.8962,191,3979
116.57035,39.8962,192,3979
116.57035,39.8962,193,3979
116.57042,39.89617,194,3979
116.5716,39.90016,195,3979
116.57083,39.89697,196,3979
116.57057,39.91382,197,3979
116.55903,39.91494,198,3979
116.537,39.91507,199,3979
116.52641,39.91566,200,3979
116.48855,39.91451,201,3979
116.46347,39.92086,202,3979
116.46347,39.92086,203,3979
116.45477,39.93229,204,3979
116.45505,39.93218,205,3979
116.4497,39.92696,206,3979
116.44402,39.92937,207,3979
116.4396,39.9256,208,3979
116.4396,39.9256,209,3979
116.43821,39.92547,210,3979
116.43821,39.92547,211,3979
116.43821,39.92547,212,3979
116.4376,39.92617,213,3979
116.43758,39.92644,214,3979
116.43757,39.92642,215,3979
116.4375,39.92666,216,3979
116.43762,39.92684,217,3979
116.42751,39.94341,218,3979
116.35539,39.95313,219,3979
116.35983,39.95655,220,3979
116.37466,39.96139,221,3979
116.38478,39.96171,222,3979
116.40182,39.94818,223,3979
116.41084,39.93277,224,3979
116.41114,39.92584,225,3979
116.43417,39.92274,226,3979
116.43491,39.9225,227,3979
116.43552,39.92241,228,3979
116.43552,39.9224,229,3979
116.43528,39.92212,230,3979
116.43529,39.9224,231,3979
116.43505,39.92253,232,3979
116.43521,39.92249,233,3979
116.43473,39.9226,234,3979
116.43477,39.92261,235,3979
116.43473,39.92248,236,3979
116.43502,39.92243,237,3979
116.4352,39.92244,238,3979
116.43523,39.92246,239,3979
116.43524,39.92247,240,3979
116.43524,39.92247,241,3979
116.43524,39.92248,242,3979
116.43533,39.92244,243,3979
116.43543,39.92242,244,3979
116.43543,39.92242,245,3979
116.43547,39.92243,246,3979
116.43547,39.92243,247,3979
116.43544,39.92248,248,3979
116.43548,39.92249,249,3979
116.43547,39.9225,250,3979
116.43547,39.9225,251,3979
116.43552,39.92247,252,3979
116.43552,39.92247,253,3979
116.43552,39.92247,254,3979
116.43547,39.92247,255,3979
116.43547,39.92247,256,3979
116.43547,39.92247,257,3979
116.43547,39.92247,258,3979
116.43534,39.92248,259,3979
116.43534,39.92248,260,3979
116.43534,39.92248,261,3979
116.43537,39.92251,262,3979
116.43537,39.92251,263,3979
116.43537,39.92251,264,3979
116.43537,39.92252,265,3979
116.43562,39.92251,266,3979
116.44415,39.92145,267,3979
116.45916,39.91229,268,3979
116.47148,39.91233,269,3979
116.46951,39.89934,270,3979
116.4718,39.90229,271,3979
116.48836,39.90641,272,3979
116.48949,39.90993,273,3979
116.48957,39.90993,274,3979
116.42402,39.90715,275,3979
116.37894,39.90587,276,3979
116.33553,39.90624,277,3979
116.30452,39.90886,278,3979
116.30441,39.91287,279,3979
116.30395,39.9007,280,3979
116.31075,39.8956,281,3979
116.31251,39.89548,282,3979
116.31292,39.89546,283,3979
116.31292,39.89546,284,3979
116.31292,39.89546,285,3979
116.31293,39.89546,286,3979
116.31298,39.89546,287,3979
116.31296,39.89546,288,3979
116.31293,39.89543,289,3979
116.35897,39.86791,290,3979
116.42021,39.86983,291,3979
116.4429,39.87758,292,3979
116.44295,39.87756,293,3979
116.44662,39.88028,294,3979
116.44694,39.88028,295,3979
116.43135,39.88299,296,3979
116.4127,39.89129,297,3979
116.38218,39.88819,298,3979
116.3621,39.88796,299,3979
116.3293,39.88862,300,3979
116.32185,39.89294,301,3979
116.32174,39.89203,302,3979
116.31886,39.89594,303,3979
116.3151,39.89592,304,3979
116.306,39.895,305,3979
116.30664,39.89521,306,3979
116.30738,39.89545,307,3979
116.30738,39.89545,308,3979
116.30738,39.89545,309,3979
116.30738,39.89545,310,3979
116.30761,39.89548,311,3979
116.31483,39.89592,312,3979
116.30418,39.92668,313,3979
116.29828,39.9433,314,3979
116.30009,39.9456,315,3979
116.30381,39.93345,316,3979
116.30891,39.9311,317,3979
116.31958,39.93001,318,3979
116.31486,39.90855,319,3979
116.31497,39.8961,320,3979
116.31464,39.8952,321,3979
116.31464,39.8952,322,3979
116.34316,39.89499,323,3979
116.34289,39.8951,324,3979
116.35042,39.90526,325,3979
116.35041,39.90546,326,3979
116.35707,39.93099,327,3979
116.37403,39.9315,328,3979
116.37438,39.93151,329,3979
116.39066,39.93937,330,3979
116.4116,39.93952,331,3979
116.44433,39.94088,332,3979
116.44432,39.9411,333,3979
116.46871,39.95213,334,3979
116.46911,39.95226,335,3979
116.47135,39.96547,336,3979
116.47155,39.96547,337,3979
116.47155,39.96547,338,3979
116.47165,39.965,339,3979
116.47165,39.965,340,3979
116.47172,39.96553,341,3979
116.47172,39.96553,342,3979
116.47103,39.96552,343,3979
116.47103,39.96552,344,3979
116.47103,39.96552,345,3979
116.47103,39.96552,346,3979
116.47103,39.96552,347,3979
116.47103,39.96552,348,3979
116.46433,39.9764,349,3979
116.46397,39.97664,350,3979
116.46739,39.97638,351,3979
116.46739,39.97638,352,3979
116.46739,39.97638,353,3979
116.46739,39.97638,354,3979
116.46739,39.97638,355,3979
116.46739,39.97638,356,3979
116.46739,39.97638,357,3979
116.46739,39.97638,358,3979
116.46739,39.97638,359,3979
116.46739,39.97638,360,3979
116.46739,39.97638,361,3979
116.46739,39.97638,362,3979
116.46739,39.97638,363,3979
116.46739,39.97638,364,3979
116.46739,39.97638,365,3979
116.45955,39.96768,366,3979
116.43547,39.94797,367,3979
116.40713,39.94782,368,3979
116.36648,39.94748,369,3979
116.36348,39.93923,370,3979
116.35995,39.93701,371,3979
116.38961,39.94758,372,3979
116.4452,39.95362,373,3979
116.46891,39.97609,374,3979
116.46946,39.96734,375,3979
116.48076,39.9564,376,3979
116.46794,39.94416,377,3979
116.45655,39.9325,378,3979
116.45655,39.9325,379,3979
116.44432,39.92574,380,3979
116.44432,39.92574,381,3979
116.43763,39.9326,382,3979
116.43767,39.93348,383,3979
116.42249,39.94108,384,3979
116.41998,39.94347,385,3979
116.41998,39.94347,386,3979
116.41998,39.94347,387,3979
116.41998,39.94347,388,3979
116.42784,39.93155,389,3979
116.42912,39.91151,390,3979
116.42904,39.91141,391,3979
116.42904,39.91141,392,3979
116.42904,39.91141,393,3979
116.46369,39.90346,394,3979
116.46567,39.90352,395,3979
116.46951,39.8994,396,3979
116.46951,39.8994,397,3979
116.46936,39.8992,398,3979
116.46936,39.8992,399,3979
116.46941,39.89912,400,3979
116.46946,39.89904,401,3979
116.46956,39.89886,402,3979
116.47124,39.89905,403,3979
116.48395,39.91089,404,3979
116.48396,39.91225,405,3979
116.48189,39.95621,406,3979
116.4812,39.95719,407,3979
116.48324,39.98787,408,3979
116.48505,39.98957,409,3979
116.51339,40.01862,410,3979
116.51268,40.01753,411,3979
116.50513,40.0104,412,3979
116.50513,40.0104,413,3979
116.50626,40.01104,414,3979
116.50626,40.01104,415,3979
116.48733,39.99278,416,3979
116.48639,39.99193,417,3979
116.47242,39.97931,418,3979
116.47231,39.97921,419,3979
116.48171,39.95623,420,3979
116.48239,39.95498,421,3979
116.48361,39.91329,422,3979
116.48357,39.9119,423,3979
116.48534,39.88162,424,3979
116.48557,39.88162,425,3979
116.48669,39.88158,426,3979
116.48669,39.88158,427,3979
116.48669,39.88158,428,3979
116.48669,39.88158,429,3979
116.48669,39.88158,430,3979
116.48669,39.88158,431,3979
116.48669,39.88158,432,3979
116.48669,39.88158,433,3979
116.48668,39.88157,434,3979
116.48668,39.88157,435,3979
116.48667,39.88156,436,3979
116.48667,39.88156,437,3979
116.48667,39.88156,438,3979
116.48667,39.88156,439,3979
116.48667,39.88156,440,3979
116.48667,39.88156,441,3979
116.48667,39.88156,442,3979
116.48667,39.88156,443,3979
116.48667,39.88156,444,3979
116.48667,39.88156,445,3979
116.48662,39.88153,446,3979
116.48662,39.88153,447,3979
116.48662,39.88153,448,3979
116.48662,39.88153,449,3979
116.48662,39.88153,450,3979
116.48662,39.88153,451,3979
116.48662,39.88153,452,3979
116.48662,39.88153,453,3979
116.48662,39.88153,454,3979
116.48662,39.88153,455,3979
116.48662,39.88153,456,3979
116.48662,39.88153,457,3979
116.48662,39.88153,458,3979
116.48668,39.88145,459,3979
116.48668,39.88145,460,3979
116.48668,39.88145,461,3979
116.48668,39.88145,462,3979
116.48668,39.88145,463,3979
116.48668,39.88145,464,3979
116.48684,39.88141,465,3979
116.48681,39.88142,466,3979
116.48681,39.88142,467,3979
116.48681,39.88142,468,3979
116.48677,39.8816,469,3979
116.48677,39.8816,470,3979
116.48677,39.8816,471,3979
116.48677,39.8816,472,3979
116.48671,39.88152,473,3979
116.48671,39.88152,474,3979
116.48676,39.88155,475,3979
116.48674,39.88157,476,3979
116.48673,39.88159,477,3979
116.48673,39.88159,478,3979
116.48673,39.88159,479,3979
116.48673,39.88159,480,3979
116.48673,39.88159,481,3979
116.48673,39.88159,482,3979
116.48673,39.88159,483,3979
116.48673,39.88159,484,3979
116.48673,39.88159,485,3979
116.48673,39.88159,486,3979
116.48673,39.88159,487,3979
116.48673,39.88159,488,3979
116.48673,39.88159,489,3979
116.48673,39.88159,490,3979
116.48673,39.88159,491,3979
116.48673,39.88159,492,3979
116.48673,39.88159,493,3979
116.48673,39.88159,494,3979
116.48673,39.88159,495,3979
116.48673,39.88159,496,3979
116.48673,39.88159,497,3979
116.48673,39.88159,498,3979
116.48673,39.88159,499,3979
116.48673,39.88159,500,3979
116.48673,39.88159,501,3979
116.48673,39.88159,502,3979
116.48673,39.88159,503,3979
116.48673,39.88159,504,3979
116.48673,39.88159,505,3979
116.48673,39.88159,506,3979
116.48673,39.88159,507,3979
116.48673,39.88159,508,3979
116.48673,39.88159,509,3979
116.48357,39.8819,510,3979
116.47163,39.89897,511,3979
116.47172,39.90345,512,3979
116.45667,39.90857,513,3979
116.47415,39.93236,514,3979
116.49654,39.93494,515,3979
116.50893,39.92194,516,3979
116.47235,39.92158,517,3979
116.44909,39.92207,518,3979
116.4202,39.92306,519,3979
116.39287,39.92196,520,3979
116.36786,39.91337,521,3979
116.34954,39.90731,522,3979
116.3496,39.90624,523,3979
116.33158,39.90623,524,3979
116.29222,39.91477,525,3979
116.29222,39.91479,526,3979
116.30386,39.91116,527,3979
116.30386,39.91116,528,3979
116.315,39.89628,529,3979
116.31158,39.89595,530,3979
116.3044,39.91409,531,3979
116.33698,39.93105,532,3979
116.35531,39.93097,533,3979
116.36645,39.93122,534,3979
116.38441,39.93196,535,3979
116.38989,39.93197,536,3979
116.42131,39.93228,537,3979
116.42893,39.93214,538,3979
116.43457,39.92299,539,3979
116.43548,39.92236,540,3979
116.43528,39.92246,541,3979
116.43528,39.92246,542,3979
116.43528,39.92243,543,3979
116.43544,39.92234,544,3979
116.43549,39.92231,545,3979
116.43559,39.92235,546,3979
116.43566,39.92232,547,3979
116.4357,39.92231,548,3979
116.4357,39.92231,549,3979
116.4357,39.92231,550,3979
116.43569,39.92231,551,3979
116.43594,39.92239,552,3979
116.43594,39.92239,553,3979
116.43596,39.92236,554,3979
116.44095,39.92169,555,3979
116.45177,39.91177,556,3979
116.4635,39.91219,557,3979
116.47296,39.90663,558,3979
116.48608,39.90552,559,3979
116.52332,39.90799,560,3979
116.52617,39.90803,561,3979
116.58371,39.91148,562,3979
116.62124,39.91276,563,3979
116.6511,39.91054,564,3979
116.65286,39.89061,565,3979
116.67605,39.87233,566,3979
116.69222,39.87078,567,3979
116.68968,39.86862,568,3979
116.66972,39.87735,569,3979
116.65867,39.88629,570,3979
116.65867,39.88629,571,3979
116.64885,39.89031,572,3979
116.63709,39.89479,573,3979
116.61467,39.90566,574,3979
116.59683,39.90826,575,3979
116.58127,39.90876,576,3979
116.57123,39.90942,577,3979
116.56972,39.89443,578,3979
116.56972,39.89445,579,3979
116.56972,39.89445,580,3979
116.56972,39.89445,581,3979
116.56972,39.89445,582,3979
116.56972,39.89445,583,3979
116.56972,39.89445,584,3979
116.56972,39.89445,585,3979
116.56972,39.89445,586,3979
116.56972,39.89445,587,3979
116.56972,39.89445,588,3979
116.56972,39.89445,589,3979
116.56972,39.89445,590,3979
116.56972,39.89445,591,3979
116.56972,39.89445,592,3979
116.56972,39.89445,593,3979
116.56972,39.89445,594,3979
116.56972,39.89445,595,3979
116.56972,39.89445,596,3979
116.56972,39.89445,597,3979
116.56972,39.89445,598,3979
116.56972,39.89445,599,3979
116.56972,39.89445,600,3979
116.56972,39.89445,601,3979
116.57104,39.90851,602,3979
116.55036,39.9083,603,3979
116.53768,39.91731,604,3979
116.53687,39.93047,605,3979
116.53104,39.94664,606,3979
116.51199,39.97724,607,3979
116.50666,39.98396,608,3979
116.50666,39.98396,609,3979
116.50863,40.01086,610,3979
116.57679,40.04478,611,3979
116.5843,40.05405,612,3979
116.5843,40.05405,613,3979
116.58283,40.076,614,3979
116.5867,40.07841,615,3979
116.5865,40.0792,616,3979
116.58412,40.0784,617,3979
116.58259,40.06934,618,3979
116.58226,40.05852,619,3979
116.56903,40.06076,620,3979
116.55037,40.06398,621,3979
116.54044,40.05671,622,3979
116.5289,40.04365,623,3979
116.52556,40.03676,624,3979
116.51404,40.01957,625,3979
116.50632,40.01035,626,3979
116.48773,39.99327,627,3979
116.48236,39.98843,628,3979
116.46581,39.993,629,3979
116.46345,39.99153,630,3979
116.45745,39.99576,631,3979
116.45745,39.99576,632,3979
116.47592,39.99159,633,3979
116.47604,39.98328,634,3979
116.46147,39.9709,635,3979
116.47704,39.9607,636,3979
116.4714,39.9531,637,3979
116.46534,39.95109,638,3979
116.46723,39.93441,639,3979
116.46184,39.93241,640,3979
116.4563,39.9324,641,3979
116.45525,39.92899,642,3979
116.45531,39.9104,643,3979
116.45506,39.90769,644,3979
116.45727,39.89932,645,3979
116.46641,39.89931,646,3979
116.46971,39.89921,647,3979
116.46968,39.89924,648,3979
116.47088,39.89924,649,3979
116.47166,39.9018,650,3979
116.47169,39.90642,651,3979
116.47193,39.9117,652,3979
116.47159,39.9052,653,3979
116.47018,39.89927,654,3979
116.46969,39.89924,655,3979
116.46969,39.89924,656,3979
116.46969,39.89924,657,3979
116.46969,39.89924,658,3979
116.46969,39.89924,659,3979
116.46969,39.89924,660,3979
116.46969,39.89924,661,3979
116.46969,39.89924,662,3979
116.46969,39.89924,663,3979
116.46969,39.89924,664,3979
116.46969,39.89924,665,3979
116.46978,39.89925,666,3979
116.48341,39.89939,667,3979
116.4916,39.90653,668,3979
116.49607,39.90653,669,3979
116.48385,39.91357,670,3979
116.47858,39.92574,671,3979
116.47856,39.92396,672,3979
116.47598,39.92168,673,3979
116.46776,39.92185,674,3979
116.45346,39.92201,675,3979
116.43452,39.92277,676,3979
116.43445,39.92258,677,3979
116.44413,39.91409,678,3979
116.44415,39.91243,679,3979
116.47917,39.89935,680,3979
116.49202,39.9065,681,3979
116.49328,39.90652,682,3979
116.51672,39.90866,683,3979
116.5075,39.90683,684,3979
116.48214,39.9069,685,3979
116.46694,39.90704,686,3979
116.45265,39.90722,687,3979
116.42478,39.90711,688,3979
116.40952,39.9079,689,3979
116.40988,39.90791,690,3979
116.41181,39.91056,691,3979
116.41181,39.91056,692,3979
116.41179,39.91187,693,3979
116.41186,39.91589,694,3979
116.42447,39.92295,695,3979
116.428,39.93754,696,3979
116.43214,39.93951,697,3979
116.45211,39.93986,698,3979
116.45587,39.94195,699,3979
116.4768,39.9547,700,3979
116.4763,39.956,701,3979
116.47895,39.95549,702,3979
116.46927,39.96645,703,3979
116.46292,39.97259,704,3979
116.46666,39.98231,705,3979
116.46836,39.97625,706,3979
116.46812,39.9766,707,3979
116.46814,39.97661,708,3979
116.45586,39.96444,709,3979
116.45586,39.96444,710,3979
116.44927,39.95885,711,3979
116.43878,39.94978,712,3979
116.44037,39.94353,713,3979
116.43765,39.93352,714,3979
116.43764,39.93271,715,3979
116.43442,39.92329,716,3979
116.43425,39.923,717,3979
116.43628,39.91895,718,3979
116.43479,39.91405,719,3979
116.43475,39.91362,720,3979
116.43475,39.91362,721,3979
116.43475,39.91362,722,3979
116.43475,39.9091,723,3979
116.42053,39.91306,724,3979
116.42037,39.91403,725,3979
116.41158,39.91058,726,3979
116.41165,39.90986,727,3979
116.40649,39.90859,728,3979
116.4075,39.90898,729,3979
116.4117,39.91305,730,3979
116.4135,39.91398,731,3979
116.42878,39.90849,732,3979
116.42878,39.90787,733,3979
116.43482,39.90637,734,3979
116.43485,39.90979,735,3979
116.44742,39.91559,736,3979
116.45038,39.91408,737,3979
116.45038,39.91408,738,3979
116.46938,39.90886,739,3979
116.47201,39.90747,740,3979
116.511,39.90655,741,3979
116.56072,39.90799,742,3979
116.57119,39.90584,743,3979
116.54335,39.90857,744,3979
116.51996,39.91495,745,3979
116.53633,39.91509,746,3979
116.55042,39.92079,747,3979
116.52332,39.92263,748,3979
116.52164,39.92266,749,3979
116.51357,39.93336,750,3979
116.51357,39.93343,751,3979
116.50631,39.92201,752,3979
116.47926,39.92158,753,3979
116.48335,39.87989,754,3979
116.47109,39.87539,755,3979
116.46606,39.8731,756,3979
116.46606,39.8731,757,3979
116.47714,39.86986,758,3979
116.50783,39.86933,759,3979
116.48723,39.87981,760,3979
116.4871,39.87982,761,3979
116.47681,39.88735,762,3979
116.47666,39.8885,763,3979
116.47659,39.89015,764,3979
116.48379,39.89585,765,3979
116.48384,39.89904,766,3979
116.48456,39.91126,767,3979
116.48464,39.91163,768,3979
116.48051,39.90725,769,3979
116.45989,39.9067,770,3979
116.45316,39.88329,771,3979
116.44476,39.88152,772,3979
116.4503,39.88315,773,3979
116.4503,39.88315,774,3979
116.46155,39.88325,775,3979
116.45979,39.8874,776,3979
116.45546,39.89148,777,3979
116.45521,39.89518,778,3979
116.48168,39.90474,779,3979
116.48673,39.91404,780,3979
116.49581,39.91431,781,3979
116.50183,39.91463,782,3979
116.49729,39.91479,783,3979
116.48082,39.91437,784,3979
116.47236,39.91436,785,3979
116.46419,39.91051,786,3979
116.46328,39.91069,787,3979
116.46571,39.90743,788,3979
116.45118,39.90723,789,3979
116.4418,39.90708,790,3979
116.40933,39.90679,791,3979
116.40202,39.90659,792,3979
116.39638,39.90642,793,3979
116.38924,39.90623,794,3979
116.37877,39.9059,795,3979
116.37012,39.90822,796,3979
116.36886,39.9096,797,3979
116.36886,39.9096,798,3979
116.36758,39.91119,799,3979
116.36751,39.91313,800,3979
116.36751,39.91313,801,3979
116.35857,39.91692,802,3979
116.35836,39.92158,803,3979
116.36162,39.92933,804,3979
116.36172,39.92988,805,3979
116.36204,39.93329,806,3979
116.36237,39.93823,807,3979
116.36085,39.93923,808,3979
116.35854,39.93923,809,3979
116.36524,39.94686,810,3979
116.37076,39.94719,811,3979
116.37933,39.94418,812,3979
116.38857,39.93919,813,3979
116.38857,39.93919,814,3979
116.38978,39.93637,815,3979
116.38996,39.93351,816,3979
116.394,39.932,817,3979
116.40713,39.92383,818,3979
116.40456,39.91714,819,3979
116.41178,39.91017,820,3979
116.41187,39.90405,821,3979
116.41187,39.90405,822,3979
116.41204,39.90254,823,3979
116.41206,39.9022,824,3979
116.41059,39.90481,825,3979
116.43086,39.90716,826,3979
116.44697,39.90707,827,3979
116.50471,39.92189,828,3979
116.5347,39.92234,829,3979
116.55868,39.9206,830,3979
116.55871,39.92062,831,3979
116.54825,39.91482,832,3979
116.54505,39.91116,833,3979
116.5401,39.90966,834,3979
116.52369,39.90934,835,3979
116.51697,39.91124,836,3979
116.50666,39.90694,837,3979
116.49202,39.90699,838,3979
116.48037,39.90725,839,3979
116.47701,39.90719,840,3979
116.47203,39.92115,841,3979
116.46091,39.92747,842,3979
116.46092,39.92974,843,3979
116.4551,39.92816,844,3979
116.44763,39.9256,845,3979
116.44286,39.92561,846,3979
116.43086,39.92838,847,3979
116.43072,39.92878,848,3979
116.43072,39.92878,849,3979
116.4493,39.94463,850,3979
116.44929,39.94537,851,3979
116.44693,39.951,852,3979
116.44715,39.95113,853,3979
116.44715,39.95113,854,3979
116.44804,39.94687,855,3979
116.44124,39.94413,856,3979
116.43868,39.94002,857,3979
116.43768,39.9329,858,3979
116.43598,39.92556,859,3979
116.44457,39.92129,860,3979
116.45055,39.9131,861,3979
116.47205,39.9141,862,3979
116.49249,39.9339,863,3979
116.48324,39.92196,864,3979
116.47352,39.92169,865,3979
116.47352,39.92169,866,3979
116.47248,39.9217,867,3979
116.47222,39.92165,868,3979
116.46342,39.91744,869,3979
116.45857,39.92207,870,3979
116.43539,39.92281,871,3979
116.42341,39.94837,872,3979
116.41888,39.95254,873,3979
116.38933,39.94985,874,3979
116.39654,39.94985,875,3979
116.40201,39.94521,876,3979
116.40249,39.93304,877,3979
116.40451,39.92385,878,3979
116.4059,39.9173,879,3979
116.41219,39.91555,880,3979
116.41937,39.94422,881,3979
116.41829,39.97716,882,3979
116.43224,39.98552,883,3979
116.43224,39.98552,884,3979
116.42977,39.98221,885,3979
116.42849,39.98222,886,3979
116.41805,39.97902,887,3979
116.41882,39.96095,888,3979
116.41255,39.95159,889,3979
116.40994,39.94839,890,3979
116.40267,39.93947,891,3979
116.38738,39.94461,892,3979
116.38411,39.94477,893,3979
116.38773,39.94169,894,3979
116.38865,39.9392,895,3979
116.39007,39.93086,896,3979
116.39662,39.91591,897,3979
116.40421,39.91404,898,3979
116.40585,39.9092,899,3979
116.40546,39.90184,900,3979
116.40643,39.89976,901,3979
116.41062,39.90677,902,3979
116.41062,39.90677,903,3979
116.42153,39.90692,904,3979
116.43956,39.90703,905,3979
116.46563,39.90693,906,3979
116.49189,39.90674,907,3979
116.52131,39.90786,908,3979
116.55563,39.90796,909,3979
116.57168,39.90039,910,3979
116.57052,39.8944,911,3979
116.57052,39.8944,912,3979
116.57052,39.8944,913,3979
116.57052,39.8944,914,3979
116.57052,39.8944,915,3979
116.57052,39.8944,916,3979
116.57052,39.8944,917,3979
116.57052,39.8944,918,3979
116.57052,39.8944,919,3979
116.57052,39.8944,920,3979
116.56998,39.89428,921,3979
116.56967,39.89516,922,3979
116.56966,39.89472,923,3979
116.56955,39.89467,924,3979
116.56955,39.89467,925,3979
116.56955,39.89467,926,3979
116.56955,39.89467,927,3979
116.56955,39.89467,928,3979
116.56955,39.89467,929,3979
116.56955,39.89467,930,3979
116.56955,39.89467,931,3979
116.56955,39.89467,932,3979
116.56955,39.89467,933,3979
116.56955,39.89467,934,3979
116.56955,39.89467,935,3979
116.56955,39.89467,936,3979
116.56955,39.89467,937,3979
116.56955,39.89467,938,3979
116.56955,39.89467,939,3979
116.56955,39.89467,940,3979
116.56955,39.89467,941,3979
116.56955,39.89467,942,3979
116.56955,39.89467,943,3979
116.56955,39.89467,944,3979
116.56955,39.89467,945,3979
116.56955,39.89467,946,3979
116.5711,39.90756,947,3979
116.52445,39.9086,948,3979
116.43171,39.90713,949,3979
116.39337,39.92373,950,3979
116.39338,39.9238,951,3979
116.39011,39.92699,952,3979
116.39462,39.93199,953,3979
116.40695,39.93201,954,3979
116.41908,39.93225,955,3979
116.42777,39.9457,956,3979
116.44008,39.94895,957,3979
116.44008,39.94895,958,3979
116.46873,39.97482,959,3979
116.47631,39.98166,960,3979
116.4861,39.99047,961,3979
116.49098,39.99491,962,3979
116.49962,40.00275,963,3979
116.51572,40.01581,964,3979
116.53699,40.02353,965,3979
116.55021,40.02791,966,3979
116.55799,40.03085,967,3979
116.56877,40.03631,968,3979
116.58379,40.05897,969,3979
116.58246,40.07512,970,3979
116.58305,40.0795,971,3979
116.58105,40.07653,972,3979
116.58154,40.06836,973,3979
116.58236,40.06325,974,3979
116.57035,40.06311,975,3979
116.57037,40.06316,976,3979
116.56427,40.06124,977,3979
116.5538,40.06298,978,3979
116.4729,40.02062,979,3979
116.46706,40.02285,980,3979
116.46646,40.0228,981,3979
116.46469,40.02055,982,3979
116.46367,40.0194,983,3979
116.46093,40.01364,984,3979
116.46109,40.01031,985,3979
116.46161,39.9962,986,3979
116.46216,39.99257,987,3979
116.4623,39.99386,988,3979
116.46237,39.99393,989,3979
116.45868,39.98381,990,3979
116.45868,39.98381,991,3979
116.45716,39.98382,992,3979
116.46112,39.9785,993,3979
116.48189,39.97846,994,3979
116.49135,39.98614,995,3979
116.49135,39.98614,996,3979
116.48806,39.98502,997,3979
116.48806,39.98502,998,3979
116.49376,39.98676,999,3979
116.48481,39.98668,1000,3979
116.47287,39.99375,1001,3979
116.4672,40.00294,1002,3979
116.46191,40.0037,1003,3979
116.46248,39.99264,1004,3979
116.46196,39.99385,1005,3979
116.46195,39.994,1006,3979
116.46184,39.99396,1007,3979
116.44442,39.99464,1008,3979
116.41785,39.99101,1009,3979
116.41397,39.99273,1010,3979
116.4111,39.9792,1011,3979
116.41167,39.96824,1012,3979
116.41185,39.96372,1013,3979
116.37951,39.96697,1014,3979
116.3205,39.96613,1015,3979
116.31182,39.97417,1016,3979
116.31908,39.97496,1017,3979
116.32677,39.97514,1018,3979
116.33876,39.9752,1019,3979
116.34814,39.9751,1020,3979
116.35779,39.97521,1021,3979
116.36173,39.96036,1022,3979
116.36494,39.95517,1023,3979
116.37282,39.94992,1024,3979
116.38339,39.95004,1025,3979
116.38339,39.95004,1026,3979
116.3892,39.94813,1027,3979
116.40446,39.94754,1028,3979
116.41818,39.94795,1029,3979
116.42718,39.9459,1030,3979
116.43255,39.93229,1031,3979
116.43255,39.93229,1032,3979
116.43702,39.93226,1033,3979
116.44209,39.9255,1034,3979
116.4421,39.92546,1035,3979
116.4442,39.92209,1036,3979
116.44588,39.9206,1037,3979
116.45523,39.90888,1038,3979
116.45526,39.9078,1039,3979
116.45503,39.89376,1040,3979
116.45503,39.89376,1041,3979
116.45485,39.87727,1042,3979
116.45482,39.87363,1043,3979
116.43301,39.85757,1044,3979
116.42871,39.85736,1045,3979
116.40122,39.85565,1046,3979
116.35862,39.85391,1047,3979
116.35895,39.85343,1048,3979
116.38079,39.84873,1049,3979
116.38076,39.84842,1050,3979
116.38068,39.83327,1051,3979
116.3781,39.8326,1052,3979
116.3781,39.8326,1053,3979
116.37817,39.83256,1054,3979
116.37812,39.83258,1055,3979
116.37812,39.83258,1056,3979
116.37812,39.83258,1057,3979
116.37812,39.83258,1058,3979
116.37812,39.83258,1059,3979
116.37812,39.83258,1060,3979
116.37812,39.83258,1061,3979
116.37812,39.83258,1062,3979
116.37812,39.83258,1063,3979
116.37812,39.83258,1064,3979
116.37808,39.83263,1065,3979
116.37808,39.83263,1066,3979
116.37808,39.83263,1067,3979
116.37808,39.83263,1068,3979
116.37793,39.8327,1069,3979
116.37793,39.8327,1070,3979
116.37776,39.8327,1071,3979
116.37776,39.8327,1072,3979
116.37776,39.8327,1073,3979
116.37776,39.8327,1074,3979
116.37776,39.8327,1075,3979
116.37776,39.8327,1076,3979
116.37776,39.8327,1077,3979
116.37776,39.8327,1078,3979
116.37281,39.83412,1079,3979
116.37939,39.8438,1080,3979
116.37993,39.84374,1081,3979
116.38068,39.85376,1082,3979
116.3808,39.85541,1083,3979
116.41567,39.85603,1084,3979
116.42457,39.8571,1085,3979
116.4502,39.87013,1086,3979
116.43872,39.88679,1087,3979
116.4155,39.89191,1088,3979
116.40697,39.89156,1089,3979
116.38426,39.88841,1090,3979
116.37284,39.888,1091,3979
116.36494,39.88793,1092,3979
116.35359,39.88799,1093,3979
116.33957,39.88627,1094,3979
116.3394,39.88517,1095,3979
116.34154,39.88407,1096,3979
116.34237,39.88389,1097,3979
116.34592,39.88793,1098,3979
116.35692,39.88793,1099,3979
116.37593,39.88799,1100,3979
116.37614,39.88799,1101,3979
116.3983,39.89115,1102,3979
116.40219,39.89134,1103,3979
116.4234,39.8922,1104,3979
116.42574,39.89221,1105,3979
116.45402,39.89221,1106,3979
116.45402,39.8922,1107,3979
116.46912,39.89921,1108,3979
116.4697,39.89923,1109,3979
116.4697,39.89923,1110,3979
116.4697,39.89923,1111,3979
116.4697,39.89923,1112,3979
116.4697,39.89923,1113,3979
116.4697,39.89923,1114,3979
116.4697,39.89923,1115,3979
116.4697,39.89923,1116,3979
116.47176,39.90361,1117,3979
116.47176,39.90361,1118,3979
116.47186,39.91189,1119,3979
116.47168,39.91187,1120,3979
116.45644,39.91231,1121,3979
116.45644,39.91231,1122,3979
116.4527,39.91847,1123,3979
116.45499,39.9179,1124,3979
116.45568,39.92929,1125,3979
116.45572,39.93115,1126,3979
116.45469,39.91832,1127,3979
116.45236,39.91887,1128,3979
116.45518,39.91189,1129,3979
116.45518,39.91189,1130,3979
116.47179,39.91073,1131,3979
116.51279,39.90655,1132,3979
116.54478,39.90788,1133,3979
116.56796,39.9086,1134,3979
116.58741,39.908,1135,3979
116.61385,39.90742,1136,3979
116.63398,39.9194,1137,3979
116.65214,39.92573,1138,3979
116.6653,39.92619,1139,3979
116.66536,39.92624,1140,3979
116.66276,39.92633,1141,3979
116.65095,39.9112,1142,3979
116.65159,39.90721,1143,3979
116.62753,39.90533,1144,3979
116.61757,39.90548,1145,3979
116.58336,39.90861,1146,3979
116.57645,39.90933,1147,3979
116.559,39.90857,1148,3979
116.55521,39.90852,1149,3979
116.54817,39.9146,1150,3979
116.54131,39.91494,1151,3979
116.52184,39.91596,1152,3979
116.51613,39.91587,1153,3979
116.513,39.92199,1154,3979
116.50045,39.92194,1155,3979
116.47862,39.92456,1156,3979
116.47854,39.92454,1157,3979
116.47855,39.92451,1158,3979
116.47855,39.92451,1159,3979
116.47855,39.92451,1160,3979
116.47855,39.92451,1161,3979
116.47855,39.92453,1162,3979
116.47859,39.92456,1163,3979
116.47854,39.92197,1164,3979
116.47253,39.92163,1165,3979
116.46342,39.91891,1166,3979
116.4573,39.9174,1167,3979
116.45206,39.91881,1168,3979
116.45141,39.9134,1169,3979
116.45905,39.91237,1170,3979
116.45932,39.91236,1171,3979
116.47165,39.90741,1172,3979
116.46281,39.90724,1173,3979
116.45501,39.90937,1174,3979
116.45501,39.90937,1175,3979
116.45461,39.90933,1176,3979
116.45596,39.91141,1177,3979
116.45565,39.94181,1178,3979
116.47261,39.97011,1179,3979
116.47647,39.96792,1180,3979
116.45548,39.93714,1181,3979
116.45217,39.93252,1182,3979
116.44924,39.92883,1183,3979
116.44725,39.92565,1184,3979
116.44725,39.92565,1185,3979
116.43477,39.92261,1186,3979
116.43603,39.92243,1187,3979
116.43603,39.92243,1188,3979
116.43591,39.92246,1189,3979
116.43591,39.92246,1190,3979
116.43591,39.92246,1191,3979
116.43609,39.92242,1192,3979
116.44559,39.9323,1193,3979
116.47137,39.93239,1194,3979
116.48409,39.93725,1195,3979
116.49253,39.95813,1196,3979
116.49218,39.95818,1197,3979
116.48389,39.96571,1198,3979
116.47349,39.97098,1199,3979
116.48362,39.98431,1200,3979
116.48362,39.98431,1201,3979
116.49101,39.99667,1202,3979
116.50891,40.01251,1203,3979
116.52155,40.03049,1204,3979
116.52896,40.04342,1205,3979
116.56257,40.06878,1206,3979
116.56399,40.07019,1207,3979
116.57628,40.0628,1208,3979
116.58287,40.06012,1209,3979
116.58287,40.06012,1210,3979
116.58287,40.06012,1211,3979
116.58288,40.06109,1212,3979
116.58288,40.06109,1213,3979
116.58288,40.06109,1214,3979
116.58251,40.06317,1215,3979
116.58248,40.06327,1216,3979
116.58248,40.06327,1217,3979
116.58248,40.06327,1218,3979
116.58248,40.06327,1219,3979
116.58231,40.06445,1220,3979
116.58231,40.06445,1221,3979
116.58231,40.06445,1222,3979
116.58231,40.06445,1223,3979
116.58217,40.06546,1224,3979
116.58193,40.06704,1225,3979
116.58193,40.06704,1226,3979
116.58162,40.06869,1227,3979
116.58148,40.0697,1228,3979
116.58142,40.07008,1229,3979
116.58142,40.07008,1230,3979
116.58142,40.07008,1231,3979
116.58142,40.07008,1232,3979
116.58094,40.07278,1233,3979
116.58069,40.07422,1234,3979
116.58048,40.07552,1235,3979
116.58048,40.07552,1236,3979
116.58182,40.07603,1237,3979
116.58182,40.07603,1238,3979
116.58231,40.07459,1239,3979
116.58231,40.07459,1240,3979
116.58271,40.07465,1241,3979
116.58271,40.07465,1242,3979
116.58271,40.07465,1243,3979
116.58271,40.07465,1244,3979
116.58404,40.07647,1245,3979
116.58404,40.07647,1246,3979
116.58404,40.07647,1247,3979
116.58404,40.07647,1248,3979
116.58404,40.07647,1249,3979
116.58404,40.07647,1250,3979
116.58404,40.07647,1251,3979
116.58404,40.07647,1252,3979
116.58405,40.07653,1253,3979
116.58405,40.07653,1254,3979
116.58235,40.06736,1255,3979
116.58287,40.06403,1256,3979
116.57056,40.03844,1257,3979
116.56074,40.03239,1258,3979
116.49133,39.99538,1259,3979
116.4732,39.90379,1260,3979
116.47639,39.90402,1261,3979
116.4839,39.94727,1262,3979
116.48376,39.95069,1263,3979
116.55358,40.09059,1264,3979
116.55358,40.09059,1265,3979
116.63112,40.16423,1266,3979
116.63628,40.20665,1267,3979
116.63154,40.26189,1268,3979
116.64242,40.30372,1269,3979
116.68134,40.32634,1270,3979
116.68529,40.32664,1271,3979
116.74833,40.33389,1272,3979
116.75124,40.33526,1273,3979
116.80007,40.35853,1274,3979
116.82843,40.37268,1275,3979
116.84521,40.375,1276,3979
116.84797,40.37107,1277,3979
116.84797,40.37107,1278,3979
116.84797,40.37107,1279,3979
116.84797,40.37107,1280,3979
116.84797,40.37107,1281,3979
116.84797,40.37107,1282,3979
116.84797,40.37107,1283,3979
116.84797,40.37107,1284,3979
116.84797,40.37107,1285,3979
116.84797,40.37107,1286,3979
116.84797,40.37107,1287,3979
116.84797,40.37107,1288,3979
116.84797,40.37107,1289,3979
116.84797,40.37107,1290,3979
116.84797,40.37107,1291,3979
116.84797,40.37107,1292,3979
116.84797,40.37107,1293,3979
116.84797,40.37107,1294,3979
116.84797,40.37107,1295,3979
116.84797,40.37107,1296,3979
116.84797,40.37107,1297,3979
116.84797,40.37107,1298,3979
116.84797,40.37107,1299,3979
116.84884,40.37303,1300,3979
116.85602,40.37485,1301,3979
116.85602,40.37485,1302,3979
116.86106,40.37418,1303,3979
116.87915,40.38214,1304,3979
116.87769,40.38416,1305,3979
116.87769,40.38381,1306,3979
116.87759,40.38757,1307,3979
116.87759,40.38757,1308,3979
116.87759,40.38757,1309,3979
116.87759,40.38757,1310,3979
116.87759,40.38757,1311,3979
116.87759,40.38757,1312,3979
116.87759,40.38757,1313,3979
116.87759,40.38757,1314,3979
116.87759,40.38757,1315,3979
116.87759,40.38757,1316,3979
116.87759,40.38757,1317,3979
116.87759,40.38757,1318,3979
116.87759,40.38757,1319,3979
116.87759,40.38757,1320,3979
116.87759,40.38757,1321,3979
116.87759,40.38757,1322,3979
116.87767,40.38413,1323,3979
116.87767,40.38413,1324,3979
116.87767,40.38413,1325,3979
116.87767,40.38413,1326,3979
116.87767,40.38413,1327,3979
116.87767,40.38413,1328,3979
116.87767,40.38413,1329,3979
116.87767,40.38413,1330,3979
116.87767,40.38413,1331,3979
116.87767,40.38413,1332,3979
116.87767,40.38413,1333,3979
116.87767,40.38413,1334,3979
116.87767,40.38413,1335,3979
116.87767,40.38413,1336,3979
116.87767,40.38413,1337,3979
116.87767,40.38413,1338,3979
116.87767,40.38413,1339,3979
116.87767,40.38413,1340,3979
116.87767,40.38413,1341,3979
116.87767,40.38413,1342,3979
116.87767,40.38413,1343,3979
116.87767,40.38413,1344,3979
116.87767,40.38413,1345,3979
116.87767,40.38413,1346,3979
116.86683,40.38376,1347,3979
116.86001,40.37562,1348,3979
116.84547,40.37289,1349,3979
116.84505,40.37475,1350,3979
116.84811,40.38598,1351,3979
116.84811,40.38598,1352,3979
116.84811,40.38598,1353,3979
116.84811,40.38598,1354,3979
116.84811,40.38598,1355,3979
116.87651,40.38484,1356,3979
116.87761,40.38752,1357,3979
116.87759,40.38751,1358,3979
116.87759,40.38751,1359,3979
116.87759,40.38751,1360,3979
116.87759,40.38751,1361,3979
116.87759,40.38751,1362,3979
116.87759,40.38751,1363,3979
116.87759,40.38751,1364,3979
116.87757,40.38766,1365,3979
116.87757,40.38766,1366,3979
116.87757,40.38766,1367,3979
116.87757,40.38766,1368,3979
116.87757,40.38766,1369,3979
116.87757,40.38766,1370,3979
116.87757,40.38766,1371,3979
116.87757,40.38766,1372,3979
116.87757,40.38766,1373,3979
116.87757,40.38766,1374,3979
116.87757,40.38766,1375,3979
116.87757,40.38766,1376,3979
116.87757,40.38766,1377,3979
116.87757,40.38766,1378,3979
116.87757,40.38766,1379,3979
116.87757,40.38766,1380,3979
116.87757,40.38766,1381,3979
116.87757,40.38766,1382,3979
116.87757,40.38766,1383,3979
116.87757,40.38766,1384,3979
116.87757,40.38766,1385,3979
116.87757,40.38766,1386,3979
116.87757,40.38766,1387,3979
116.88133,40.38626,1388,3979
116.88496,40.38477,1389,3979
116.89112,40.38989,1390,3979
116.89093,40.38981,1391,3979
116.89105,40.38975,1392,3979
116.89105,40.38975,1393,3979
116.89105,40.38975,1394,3979
116.89105,40.38975,1395,3979
116.89105,40.38975,1396,3979
116.89155,40.39183,1397,3979
116.89157,40.39185,1398,3979
116.89157,40.39185,1399,3979
116.89172,40.39073,1400,3979
116.89178,40.39079,1401,3979
116.89178,40.39079,1402,3979
116.89178,40.39079,1403,3979
116.89178,40.39079,1404,3979
116.89178,40.39079,1405,3979
116.89178,40.39079,1406,3979
116.89178,40.39079,1407,3979
116.89178,40.39079,1408,3979
116.89178,40.39079,1409,3979
116.89178,40.39079,1410,3979
116.89178,40.39079,1411,3979
116.89178,40.39079,1412,3979
116.89178,40.39079,1413,3979
116.89178,40.39079,1414,3979
116.89178,40.39079,1415,3979
116.89178,40.39079,1416,3979
116.89178,40.39079,1417,3979
116.89178,40.39079,1418,3979
116.89178,40.39079,1419,3979
116.89253,40.39174,1420,3979
116.87767,40.38735,1421,3979
116.87763,40.38741,1422,3979
116.88232,40.38649,1423,3979
116.89179,40.3908,1424,3979
116.88491,40.38489,1425,3979
116.87764,40.38749,1426,3979
116.87759,40.38757,1427,3979
116.87759,40.38757,1428,3979
116.87759,40.38757,1429,3979
116.87759,40.38757,1430,3979
116.87759,40.38757,1431,3979
116.87759,40.38757,1432,3979
116.87759,40.38757,1433,3979
116.87759,40.38757,1434,3979
116.87759,40.38757,1435,3979
116.87759,40.38757,1436,3979
116.87759,40.38757,1437,3979
116.87759,40.38757,1438,3979
116.87759,40.38757,1439,3979
116.87759,40.38757,1440,3979
116.87759,40.38757,1441,3979
116.87759,40.38757,1442,3979
116.87759,40.38757,1443,3979
116.87759,40.38757,1444,3979
116.86452,40.37549,1445,3979
116.86458,40.37544,1446,3979
116.86463,40.37545,1447,3979
116.86463,40.37545,1448,3979
116.848,40.37099,1449,3979
116.84825,40.37108,1450,3979
116.84825,40.37108,1451,3979
116.84825,40.37108,1452,3979
116.84825,40.37108,1453,3979
116.84825,40.37108,1454,3979
116.84825,40.37108,1455,3979
116.84825,40.37108,1456,3979
116.84825,40.37108,1457,3979
116.84825,40.37108,1458,3979
116.84825,40.37108,1459,3979
116.84825,40.37108,1460,3979
116.84825,40.37108,1461,3979
116.84825,40.37108,1462,3979
116.84825,40.37108,1463,3979
116.84825,40.37108,1464,3979
116.84825,40.37108,1465,3979
116.84825,40.37108,1466,3979
116.84825,40.37108,1467,3979
116.84825,40.37108,1468,3979
116.84825,40.37108,1469,3979
116.84825,40.37108,1470,3979
116.84825,40.37108,1471,3979
116.84825,40.37108,1472,3979
118.72025,34.92352,1473,3979
116.84799,40.37074,1474,3979
116.84801,40.37058,1475,3979
116.84801,40.37058,1476,3979
116.84801,40.37058,1477,3979
116.84801,40.37058,1478,3979
116.84801,40.37058,1479,3979
116.84801,40.37058,1480,3979
116.84801,40.37058,1481,3979
116.84801,40.37058,1482,3979
116.84801,40.37058,1483,3979
116.84801,40.37058,1484,3979
116.84801,40.37058,1485,3979
116.84801,40.37058,1486,3979
116.84801,40.37058,1487,3979
116.84801,40.37058,1488,3979
116.84801,40.37058,1489,3979
116.84801,40.37058,1490,3979
116.84801,40.37058,1491,3979
116.84801,40.37058,1492,3979
116.84801,40.37058,1493,3979
116.84801,40.37058,1494,3979
116.84801,40.37058,1495,3979
116.84801,40.37058,1496,3979
116.84801,40.37058,1497,3979
