x,y,k,tid
116.34496,39.93831,0,4076
116.34496,39.93831,1,4076
116.34496,39.93831,2,4076
116.34496,39.93831,3,4076
116.34294,39.93856,4,4076
116.33825,39.93735,5,4076
116.33825,39.93735,6,4076
116.32714,39.95633,7,4076
116.34949,39.93265,8,4076
116.34949,39.93265,9,4076
116.34949,39.93265,10,4076
116.34949,39.93265,11,4076
116.34949,39.93265,12,4076
116.34949,39.93265,13,4076
116.36492,39.91011,14,4076
116.36492,39.91011,15,4076
116.36492,39.91011,16,4076
116.36492,39.91011,17,4076
116.36492,39.91011,18,4076
116.36492,39.91011,19,4076
116.36492,39.91011,20,4076
116.36492,39.91011,21,4076
116.36492,39.91011,22,4076
116.36492,39.91011,23,4076
116.36492,39.91011,24,4076
116.36492,39.91011,25,4076
116.36492,39.91011,26,4076
116.36492,39.91011,27,4076
116.36492,39.91011,28,4076
116.36492,39.91011,29,4076
116.36492,39.91011,30,4076
116.36492,39.91011,31,4076
116.36492,39.91011,32,4076
116.36492,39.91011,33,4076
116.36492,39.91011,34,4076
116.36492,39.91011,35,4076
116.36492,39.91011,36,4076
116.36492,39.91011,37,4076
116.36492,39.91011,38,4076
116.36492,39.91011,39,4076
116.36492,39.91011,40,4076
116.36492,39.91011,41,4076
116.36492,39.91011,42,4076
116.36492,39.91011,43,4076
116.36492,39.91011,44,4076
116.36492,39.91011,45,4076
116.36492,39.91011,46,4076
116.36492,39.91011,47,4076
116.36492,39.91011,48,4076
116.36492,39.91011,49,4076
116.36492,39.91011,50,4076
116.36492,39.91011,51,4076
116.36492,39.91011,52,4076
116.36492,39.91011,53,4076
116.36492,39.91011,54,4076
116.36492,39.91011,55,4076
116.1739,39.77836,56,4076
116.17376,39.77894,57,4076
116.17376,39.77894,58,4076
116.17376,39.77894,59,4076
116.17376,39.77894,60,4076
116.16455,39.76966,61,4076
116.16455,39.76966,62,4076
116.16455,39.76966,63,4076
116.16455,39.76966,64,4076
116.16455,39.76966,65,4076
116.16455,39.76966,66,4076
116.23754,39.85302,67,4076
116.23754,39.85302,68,4076
116.23754,39.85302,69,4076
116.23754,39.85302,70,4076
116.23754,39.85302,71,4076
116.23754,39.85302,72,4076
116.23754,39.85302,73,4076
116.23754,39.85302,74,4076
116.23754,39.85302,75,4076
116.23754,39.85302,76,4076
116.23754,39.85302,77,4076
116.23754,39.85302,78,4076
116.23754,39.85302,79,4076
116.23754,39.85302,80,4076
116.23754,39.85302,81,4076
116.23754,39.85302,82,4076
116.23754,39.85302,83,4076
116.23754,39.85302,84,4076
116.23754,39.85302,85,4076
116.23754,39.85302,86,4076
116.23754,39.85302,87,4076
116.23754,39.85302,88,4076
116.23754,39.85302,89,4076
116.23754,39.85302,90,4076
116.37608,39.88833,91,4076
116.37608,39.88833,92,4076
116.37608,39.88833,93,4076
116.37608,39.88833,94,4076
116.37608,39.88833,95,4076
116.37608,39.88833,96,4076
116.37608,39.88833,97,4076
116.37608,39.88833,98,4076
116.37608,39.88833,99,4076
116.37608,39.88833,100,4076
116.37608,39.88833,101,4076
116.37608,39.88833,102,4076
116.37608,39.88833,103,4076
116.37608,39.88833,104,4076
116.37608,39.88833,105,4076
116.37608,39.88833,106,4076
116.37608,39.88833,107,4076
116.37608,39.88833,108,4076
116.37608,39.88833,109,4076
116.37608,39.88833,110,4076
116.37608,39.88833,111,4076
116.37608,39.88833,112,4076
116.37608,39.88833,113,4076
116.37608,39.88833,114,4076
116.37608,39.88833,115,4076
116.33771,39.92664,116,4076
116.33771,39.92664,117,4076
116.33771,39.92664,118,4076
116.33771,39.92664,119,4076
116.33771,39.92664,120,4076
116.33771,39.92664,121,4076
116.27114,39.89884,122,4076
116.28865,39.87265,123,4076
116.30108,39.86567,124,4076
116.30826,39.86425,125,4076
116.30791,39.86415,126,4076
116.30907,39.86691,127,4076
116.29638,39.86563,128,4076
116.29638,39.86563,129,4076
116.27674,39.85431,130,4076
116.2771,39.85083,131,4076
116.2838,39.82545,132,4076
116.28043,39.80415,133,4076
116.28181,39.792,134,4076
116.28381,39.77499,135,4076
116.24632,39.76849,136,4076
116.24632,39.76849,137,4076
116.24632,39.76849,138,4076
116.24632,39.76849,139,4076
116.24632,39.76849,140,4076
116.24632,39.76849,141,4076
116.24632,39.76849,142,4076
116.16153,39.75862,143,4076
116.16151,39.75863,144,4076
116.16154,39.75863,145,4076
116.16156,39.75864,146,4076
116.16159,39.75863,147,4076
116.1616,39.75863,148,4076
116.16162,39.75862,149,4076
116.16162,39.75861,150,4076
116.16162,39.75862,151,4076
116.16162,39.75862,152,4076
116.16163,39.75862,153,4076
116.16164,39.75862,154,4076
116.16161,39.75864,155,4076
116.16161,39.75864,156,4076
116.16164,39.75835,157,4076
116.16152,39.75873,158,4076
116.16155,39.7587,159,4076
116.16155,39.75868,160,4076
116.16154,39.75869,161,4076
116.16153,39.75868,162,4076
116.16142,39.75875,163,4076
116.1615,39.75869,164,4076
116.16149,39.7587,165,4076
116.16146,39.75851,166,4076
116.16149,39.75864,167,4076
116.16149,39.75863,168,4076
116.16151,39.75861,169,4076
116.16151,39.75861,170,4076
116.16152,39.75861,171,4076
116.16152,39.75861,172,4076
116.16152,39.75862,173,4076
116.37783,39.88837,174,4076
116.16155,39.75869,175,4076
116.16155,39.7587,176,4076
116.16156,39.75867,177,4076
116.16156,39.75865,178,4076
116.16156,39.75866,179,4076
116.16156,39.75866,180,4076
116.16156,39.75866,181,4076
116.16157,39.75864,182,4076
116.16157,39.75864,183,4076
116.16159,39.75864,184,4076
116.16159,39.75864,185,4076
116.1616,39.75864,186,4076
116.16159,39.75866,187,4076
116.16161,39.75866,188,4076
116.16161,39.75866,189,4076
116.16162,39.75866,190,4076
116.16162,39.75866,191,4076
116.16161,39.75867,192,4076
116.1616,39.75868,193,4076
116.16163,39.75862,194,4076
116.16167,39.75863,195,4076
116.16163,39.75863,196,4076
116.15912,39.75801,197,4076
116.15912,39.75801,198,4076
116.15912,39.75801,199,4076
116.15912,39.75801,200,4076
116.15912,39.75801,201,4076
116.15912,39.75801,202,4076
116.15912,39.75801,203,4076
116.15912,39.75801,204,4076
116.15912,39.75801,205,4076
116.45181,39.8642,206,4076
116.45486,39.87024,207,4076
116.45486,39.87024,208,4076
116.45486,39.87024,209,4076
116.45486,39.87024,210,4076
116.45486,39.87024,211,4076
116.45486,39.87024,212,4076
116.45486,39.87024,213,4076
116.45486,39.87024,214,4076
116.45486,39.87024,215,4076
116.45486,39.87024,216,4076
116.45486,39.87024,217,4076
116.45486,39.87024,218,4076
116.45486,39.87024,219,4076
116.45486,39.87024,220,4076
116.45486,39.87024,221,4076
116.45486,39.87024,222,4076
116.45486,39.87024,223,4076
116.45486,39.87024,224,4076
116.45486,39.87024,225,4076
116.45486,39.87024,226,4076
116.45486,39.87024,227,4076
116.45486,39.87024,228,4076
116.45486,39.87024,229,4076
116.45486,39.87024,230,4076
116.45486,39.87024,231,4076
116.45486,39.87024,232,4076
116.45486,39.87024,233,4076
116.45486,39.87024,234,4076
116.45486,39.87024,235,4076
116.45486,39.87024,236,4076
116.45486,39.87024,237,4076
116.45486,39.87024,238,4076
116.45486,39.87024,239,4076
116.45486,39.87024,240,4076
116.45486,39.87024,241,4076
116.45486,39.87024,242,4076
116.45486,39.87024,243,4076
116.45486,39.87024,244,4076
116.45486,39.87024,245,4076
116.45486,39.87024,246,4076
116.45486,39.87024,247,4076
116.45486,39.87024,248,4076
116.45486,39.87024,249,4076
116.45486,39.87024,250,4076
116.45486,39.87024,251,4076
116.45486,39.87024,252,4076
116.45486,39.87024,253,4076
116.45486,39.87024,254,4076
116.45486,39.87024,255,4076
116.45486,39.87024,256,4076
116.45486,39.87024,257,4076
116.45486,39.87024,258,4076
116.45486,39.87024,259,4076
116.45486,39.87024,260,4076
116.45486,39.87024,261,4076
116.45486,39.87024,262,4076
116.45486,39.87024,263,4076
116.45486,39.87024,264,4076
116.45486,39.87024,265,4076
116.45486,39.87024,266,4076
116.45486,39.87024,267,4076
116.45486,39.87024,268,4076
116.45486,39.87024,269,4076
116.45486,39.87024,270,4076
116.45486,39.87024,271,4076
116.45486,39.87024,272,4076
116.45486,39.87024,273,4076
116.45486,39.87024,274,4076
116.45486,39.87024,275,4076
116.45486,39.87024,276,4076
116.45486,39.87024,277,4076
116.45486,39.87024,278,4076
116.45486,39.87024,279,4076
116.45486,39.87024,280,4076
116.45486,39.87024,281,4076
116.45486,39.87024,282,4076
116.45486,39.87024,283,4076
116.45486,39.87024,284,4076
116.45486,39.87024,285,4076
116.45486,39.87024,286,4076
116.45486,39.87024,287,4076
116.45486,39.87024,288,4076
116.45486,39.87024,289,4076
116.45486,39.87024,290,4076
116.45486,39.87024,291,4076
116.45486,39.87024,292,4076
116.45486,39.87024,293,4076
116.45486,39.87024,294,4076
116.45486,39.87024,295,4076
116.45486,39.87024,296,4076
116.45486,39.87024,297,4076
116.45486,39.87024,298,4076
116.45486,39.87024,299,4076
116.45486,39.87024,300,4076
116.45486,39.87024,301,4076
116.45486,39.87024,302,4076
116.45486,39.87024,303,4076
116.45486,39.87024,304,4076
116.45486,39.87024,305,4076
116.45486,39.87024,306,4076
116.45486,39.87024,307,4076
116.45486,39.87024,308,4076
116.45486,39.87024,309,4076
116.45486,39.87024,310,4076
116.45486,39.87024,311,4076
116.45486,39.87024,312,4076
116.45486,39.87024,313,4076
116.45486,39.87024,314,4076
116.45486,39.87024,315,4076
116.45486,39.87024,316,4076
116.45486,39.87024,317,4076
116.45486,39.87024,318,4076
116.45486,39.87024,319,4076
116.45486,39.87024,320,4076
116.45486,39.87024,321,4076
116.45486,39.87024,322,4076
116.45486,39.87024,323,4076
116.45486,39.87024,324,4076
116.45486,39.87024,325,4076
116.45486,39.87024,326,4076
116.45486,39.87024,327,4076
116.45486,39.87024,328,4076
116.45486,39.87024,329,4076
116.45486,39.87024,330,4076
116.45486,39.87024,331,4076
116.45486,39.87024,332,4076
116.45486,39.87024,333,4076
116.45486,39.87024,334,4076
116.45486,39.87024,335,4076
116.45486,39.87024,336,4076
116.35104,39.87665,337,4076
116.34734,39.88093,338,4076
116.34734,39.88093,339,4076
116.34734,39.88093,340,4076
116.34734,39.88093,341,4076
116.34985,39.93359,342,4076
116.34985,39.93359,343,4076
116.34985,39.93359,344,4076
116.34985,39.93359,345,4076
116.34985,39.93359,346,4076
116.34985,39.93359,347,4076
116.34985,39.93359,348,4076
116.36754,39.92267,349,4076
116.3485,39.9223,350,4076
116.34731,39.92239,351,4076
116.32254,39.9221,352,4076
116.32254,39.9221,353,4076
116.28837,39.91612,354,4076
116.28908,39.91316,355,4076
116.28908,39.91316,356,4076
116.28908,39.91316,357,4076
116.29743,39.90635,358,4076
116.29608,39.91277,359,4076
116.28987,39.95357,360,4076
116.30882,39.96329,361,4076
116.30882,39.96329,362,4076
116.30882,39.96329,363,4076
116.30882,39.96329,364,4076
116.31788,39.97159,365,4076
116.317,39.95499,366,4076
116.317,39.95499,367,4076
116.317,39.95499,368,4076
116.317,39.95499,369,4076
116.317,39.95499,370,4076
116.317,39.95499,371,4076
116.317,39.95499,372,4076
116.317,39.95499,373,4076
116.317,39.95499,374,4076
116.317,39.95499,375,4076
116.317,39.95499,376,4076
116.317,39.95499,377,4076
116.317,39.95499,378,4076
116.317,39.95499,379,4076
116.317,39.95499,380,4076
116.317,39.95499,381,4076
116.317,39.95499,382,4076
116.317,39.95499,383,4076
116.317,39.95499,384,4076
116.317,39.95499,385,4076
116.46193,39.95398,386,4076
116.45521,39.9327,387,4076
116.44986,39.93238,388,4076
116.42229,39.93227,389,4076
116.40456,39.92602,390,4076
116.40463,39.92634,391,4076
116.40181,39.93202,392,4076
116.39506,39.93209,393,4076
116.39506,39.93209,394,4076
116.39579,39.93194,395,4076
116.41159,39.91288,396,4076
116.41159,39.91288,397,4076
116.41159,39.91288,398,4076
116.41159,39.91288,399,4076
116.41159,39.91288,400,4076
116.41159,39.91288,401,4076
116.41159,39.91288,402,4076
116.41159,39.91288,403,4076
116.41159,39.91288,404,4076
116.41159,39.91288,405,4076
116.41159,39.91288,406,4076
116.34123,39.79334,407,4076
116.33571,39.76354,408,4076
116.33571,39.76354,409,4076
116.33571,39.76354,410,4076
116.33991,39.78259,411,4076
116.33991,39.78259,412,4076
116.33991,39.78259,413,4076
116.39099,39.80145,414,4076
116.39099,39.80145,415,4076
116.39099,39.80145,416,4076
116.39099,39.80145,417,4076
116.39099,39.80145,418,4076
116.3806,39.83142,419,4076
116.38018,39.84336,420,4076
116.36534,39.85393,421,4076
116.36534,39.85393,422,4076
116.36534,39.85393,423,4076
116.30828,39.86439,424,4076
116.30811,39.86437,425,4076
116.30844,39.86424,426,4076
116.3082,39.86435,427,4076
116.3082,39.86435,428,4076
116.30823,39.86437,429,4076
116.30516,39.86665,430,4076
116.29136,39.86497,431,4076
116.29172,39.86534,432,4076
116.29172,39.86534,433,4076
116.29391,39.89567,434,4076
116.29391,39.89567,435,4076
116.35702,39.89792,436,4076
116.3854,39.89898,437,4076
116.39422,39.89885,438,4076
116.39422,39.89885,439,4076
116.41203,39.89979,440,4076
116.41182,39.89977,441,4076
116.38933,39.89869,442,4076
116.33296,39.8962,443,4076
116.31474,39.8875,444,4076
116.15699,39.75921,445,4076
116.15699,39.75921,446,4076
116.15699,39.75921,447,4076
116.15699,39.75921,448,4076
116.15699,39.75921,449,4076
116.15699,39.75921,450,4076
116.15699,39.75921,451,4076
116.28892,39.89096,452,4076
116.31549,39.89566,453,4076
116.31514,39.89895,454,4076
116.31514,39.89895,455,4076
116.31514,39.89895,456,4076
116.31514,39.89895,457,4076
116.31514,39.89895,458,4076
116.31514,39.89895,459,4076
116.31514,39.89895,460,4076
116.31514,39.89895,461,4076
116.31514,39.89895,462,4076
116.31514,39.89895,463,4076
116.31514,39.89895,464,4076
116.31514,39.89895,465,4076
116.31514,39.89895,466,4076
116.31514,39.89895,467,4076
116.31514,39.89895,468,4076
116.40115,39.97573,469,4076
116.40163,39.99303,470,4076
116.40017,39.99129,471,4076
116.40017,39.99129,472,4076
116.40017,39.99129,473,4076
116.40017,39.99129,474,4076
116.39739,39.98713,475,4076
116.39739,39.98713,476,4076
116.39739,39.98713,477,4076
116.39739,39.98713,478,4076
116.39739,39.98713,479,4076
116.39739,39.98713,480,4076
116.34635,39.93764,481,4076
116.34635,39.93764,482,4076
116.34635,39.93764,483,4076
116.34635,39.93764,484,4076
116.34635,39.93764,485,4076
116.34635,39.93764,486,4076
116.34635,39.93764,487,4076
116.30966,39.96156,488,4076
116.30992,39.96002,489,4076
116.30992,39.96002,490,4076
116.30992,39.96002,491,4076
116.30992,39.96002,492,4076
116.30992,39.96002,493,4076
116.30992,39.96002,494,4076
116.30992,39.96002,495,4076
116.30992,39.96002,496,4076
116.30992,39.96002,497,4076
116.30992,39.96002,498,4076
116.30992,39.96002,499,4076
116.30992,39.96002,500,4076
116.30992,39.96002,501,4076
116.30992,39.96002,502,4076
116.30992,39.96002,503,4076
116.30992,39.96002,504,4076
116.30992,39.96002,505,4076
116.30992,39.96002,506,4076
116.30992,39.96002,507,4076
116.30992,39.96002,508,4076
116.30992,39.96002,509,4076
116.30992,39.96002,510,4076
116.30992,39.96002,511,4076
116.30992,39.96002,512,4076
116.30992,39.96002,513,4076
116.30992,39.96002,514,4076
116.30992,39.96002,515,4076
116.30992,39.96002,516,4076
116.30992,39.96002,517,4076
116.30992,39.96002,518,4076
116.30992,39.96002,519,4076
116.30992,39.96002,520,4076
116.30992,39.96002,521,4076
116.30992,39.96002,522,4076
116.30992,39.96002,523,4076
116.30992,39.96002,524,4076
116.30992,39.96002,525,4076
116.30992,39.96002,526,4076
116.30992,39.96002,527,4076
116.30992,39.96002,528,4076
116.30992,39.96002,529,4076
116.30992,39.96002,530,4076
116.30992,39.96002,531,4076
116.30992,39.96002,532,4076
116.30992,39.96002,533,4076
116.30992,39.96002,534,4076
116.30992,39.96002,535,4076
116.30992,39.96002,536,4076
116.30992,39.96002,537,4076
116.30992,39.96002,538,4076
116.30992,39.96002,539,4076
116.30992,39.96002,540,4076
116.30992,39.96002,541,4076
116.30992,39.96002,542,4076
116.30992,39.96002,543,4076
116.30992,39.96002,544,4076
116.48353,39.97157,545,4076
116.48353,39.97157,546,4076
116.45438,39.95341,547,4076
116.45438,39.95341,548,4076
116.45438,39.95341,549,4076
116.45438,39.95341,550,4076
116.45438,39.95341,551,4076
116.42746,39.92317,552,4076
116.42176,39.92316,553,4076
116.42021,39.92055,554,4076
116.42486,39.92066,555,4076
116.42024,39.9165,556,4076
116.42024,39.9165,557,4076
116.42426,39.89934,558,4076
116.42135,39.89299,559,4076
116.42127,39.89303,560,4076
116.42076,39.89247,561,4076
116.41413,39.89182,562,4076
116.39929,39.88663,563,4076
116.41451,39.881,564,4076
116.41451,39.881,565,4076
116.41451,39.881,566,4076
116.41451,39.881,567,4076
116.41451,39.881,568,4076
116.41451,39.881,569,4076
116.41451,39.881,570,4076
116.41451,39.881,571,4076
116.41451,39.881,572,4076
116.16034,39.76554,573,4076
116.16034,39.76554,574,4076
116.16034,39.76554,575,4076
116.15291,39.81511,576,4076
116.15291,39.81511,577,4076
116.15291,39.81511,578,4076
116.17009,39.80359,579,4076
116.17009,39.80359,580,4076
116.21562,39.84449,581,4076
116.21562,39.84449,582,4076
116.24699,39.86599,583,4076
116.24703,39.87617,584,4076
116.24703,39.87617,585,4076
116.24703,39.87617,586,4076
116.24703,39.87617,587,4076
116.24677,39.902,588,4076
116.24678,39.90082,589,4076
116.25694,39.89566,590,4076
116.25694,39.89566,591,4076
116.25694,39.89566,592,4076
116.25694,39.89566,593,4076
116.25694,39.89566,594,4076
116.25694,39.89566,595,4076
116.25694,39.89566,596,4076
116.25694,39.89566,597,4076
116.25694,39.89566,598,4076
116.25694,39.89566,599,4076
116.25694,39.89566,600,4076
116.25694,39.89566,601,4076
116.25694,39.89566,602,4076
116.25694,39.89566,603,4076
116.25694,39.89566,604,4076
116.25694,39.89566,605,4076
116.25694,39.89566,606,4076
116.25694,39.89566,607,4076
116.25694,39.89566,608,4076
116.25694,39.89566,609,4076
116.25694,39.89566,610,4076
116.25694,39.89566,611,4076
116.25694,39.89566,612,4076
116.25694,39.89566,613,4076
116.25694,39.89566,614,4076
116.25694,39.89566,615,4076
116.25694,39.89566,616,4076
116.25694,39.89566,617,4076
116.25694,39.89566,618,4076
116.25694,39.89566,619,4076
116.25694,39.89566,620,4076
116.25694,39.89566,621,4076
116.25694,39.89566,622,4076
116.25694,39.89566,623,4076
116.25694,39.89566,624,4076
116.25694,39.89566,625,4076
116.25694,39.89566,626,4076
116.25694,39.89566,627,4076
116.25694,39.89566,628,4076
116.25694,39.89566,629,4076
116.25694,39.89566,630,4076
116.25694,39.89566,631,4076
116.25694,39.89566,632,4076
116.25694,39.89566,633,4076
116.25694,39.89566,634,4076
116.25694,39.89566,635,4076
116.25694,39.89566,636,4076
116.25694,39.89566,637,4076
116.25694,39.89566,638,4076
116.25694,39.89566,639,4076
116.25694,39.89566,640,4076
116.25694,39.89566,641,4076
116.36313,39.98758,642,4076
116.36535,39.95121,643,4076
116.36659,39.93585,644,4076
116.36723,39.91811,645,4076
116.3681,39.90308,646,4076
116.36707,39.90301,647,4076
116.36857,39.90592,648,4076
116.36781,39.89997,649,4076
116.32845,39.89622,650,4076
116.32845,39.89622,651,4076
116.32845,39.89622,652,4076
116.32845,39.89622,653,4076
116.32845,39.89622,654,4076
116.32845,39.89622,655,4076
116.32845,39.89622,656,4076
116.32845,39.89622,657,4076
116.2654,39.89899,658,4076
116.2654,39.89899,659,4076
116.2654,39.89899,660,4076
116.2654,39.89899,661,4076
116.2654,39.89899,662,4076
116.2654,39.89899,663,4076
116.35688,39.89785,664,4076
116.34345,39.89975,665,4076
116.34619,39.89987,666,4076
116.34619,39.89987,667,4076
116.34619,39.89987,668,4076
116.32367,39.92222,669,4076
116.32367,39.92222,670,4076
116.32367,39.92222,671,4076
116.32367,39.92222,672,4076
116.32367,39.92222,673,4076
116.32367,39.92222,674,4076
116.32367,39.92222,675,4076
116.32367,39.92222,676,4076
116.32367,39.92222,677,4076
116.29882,39.86538,678,4076
116.28953,39.86511,679,4076
116.28953,39.86511,680,4076
116.27402,39.86962,681,4076
116.28835,39.88816,682,4076
116.28835,39.88816,683,4076
116.28835,39.88816,684,4076
116.28835,39.88816,685,4076
116.32294,39.90163,686,4076
116.32294,39.90163,687,4076
116.32294,39.90163,688,4076
116.32294,39.90163,689,4076
116.3224,39.90369,690,4076
116.3224,39.90369,691,4076
116.29523,39.896,692,4076
116.2924,39.89564,693,4076
116.29603,39.90429,694,4076
116.29603,39.90429,695,4076
116.29603,39.90429,696,4076
116.29603,39.90429,697,4076
116.29603,39.90429,698,4076
116.29603,39.90429,699,4076
116.29603,39.90429,700,4076
116.29603,39.90429,701,4076
116.29603,39.90429,702,4076
116.29603,39.90429,703,4076
116.29603,39.90429,704,4076
116.29603,39.90429,705,4076
116.29603,39.90429,706,4076
116.29603,39.90429,707,4076
116.29603,39.90429,708,4076
116.29603,39.90429,709,4076
116.29603,39.90429,710,4076
116.29603,39.90429,711,4076
116.29603,39.90429,712,4076
116.29603,39.90429,713,4076
116.29603,39.90429,714,4076
116.29603,39.90429,715,4076
116.29603,39.90429,716,4076
116.29603,39.90429,717,4076
116.29603,39.90429,718,4076
116.29603,39.90429,719,4076
116.29603,39.90429,720,4076
116.29603,39.90429,721,4076
116.29603,39.90429,722,4076
116.29603,39.90429,723,4076
116.29603,39.90429,724,4076
116.29603,39.90429,725,4076
116.29603,39.90429,726,4076
116.29603,39.90429,727,4076
116.29603,39.90429,728,4076
116.29603,39.90429,729,4076
116.29603,39.90429,730,4076
116.29603,39.90429,731,4076
116.29603,39.90429,732,4076
116.29603,39.90429,733,4076
116.29603,39.90429,734,4076
116.29603,39.90429,735,4076
116.29603,39.90429,736,4076
116.29603,39.90429,737,4076
116.29603,39.90429,738,4076
116.29603,39.90429,739,4076
116.29603,39.90429,740,4076
116.29603,39.90429,741,4076
116.29603,39.90429,742,4076
116.29603,39.90429,743,4076
116.29603,39.90429,744,4076
116.29603,39.90429,745,4076
116.29603,39.90429,746,4076
116.29603,39.90429,747,4076
116.29603,39.90429,748,4076
116.29603,39.90429,749,4076
116.29603,39.90429,750,4076
116.29603,39.90429,751,4076
116.29603,39.90429,752,4076
116.29603,39.90429,753,4076
116.29603,39.90429,754,4076
116.29603,39.90429,755,4076
116.29658,39.89984,756,4076
116.29658,39.89984,757,4076
116.29658,39.89984,758,4076
116.29658,39.89984,759,4076
116.29658,39.89984,760,4076
116.29658,39.89984,761,4076
116.29658,39.89984,762,4076
116.29658,39.89984,763,4076
116.29658,39.89984,764,4076
116.29658,39.89984,765,4076
116.29658,39.89984,766,4076
116.29658,39.89984,767,4076
116.29658,39.89984,768,4076
116.29658,39.89984,769,4076
116.29658,39.89984,770,4076
116.29658,39.89984,771,4076
116.29658,39.89984,772,4076
116.29658,39.89984,773,4076
116.32541,39.8939,774,4076
116.32629,39.8939,775,4076
116.32629,39.8939,776,4076
116.32629,39.8939,777,4076
116.32629,39.8939,778,4076
116.32629,39.8939,779,4076
116.32629,39.8939,780,4076
116.32629,39.8939,781,4076
116.32629,39.8939,782,4076
116.32629,39.8939,783,4076
116.3883,39.8888,784,4076
116.41194,39.89161,785,4076
116.41247,39.89173,786,4076
116.41248,39.89576,787,4076
116.43278,39.89885,788,4076
116.43278,39.89885,789,4076
116.43278,39.89885,790,4076
116.43278,39.89885,791,4076
116.43278,39.89885,792,4076
116.43663,39.89259,793,4076
116.43742,39.89249,794,4076
116.43742,39.89249,795,4076
116.43742,39.89249,796,4076
116.43742,39.89249,797,4076
116.43742,39.89249,798,4076
116.43742,39.89249,799,4076
116.35335,39.88805,800,4076
116.34627,39.88977,801,4076
116.34435,39.88858,802,4076
116.33836,39.89076,803,4076
116.33639,39.89367,804,4076
116.35528,39.89764,805,4076
116.35554,39.8978,806,4076
116.35617,39.89504,807,4076
116.34698,39.89063,808,4076
116.34639,39.90293,809,4076
116.34734,39.91745,810,4076
116.34734,39.91745,811,4076
116.34734,39.91745,812,4076
116.34734,39.91745,813,4076
116.28226,39.94567,814,4076
116.28226,39.94567,815,4076
116.28226,39.94567,816,4076
116.28226,39.94567,817,4076
116.28226,39.94567,818,4076
116.28226,39.94567,819,4076
116.28226,39.94567,820,4076
116.28226,39.94567,821,4076
116.28226,39.94567,822,4076
116.28226,39.94567,823,4076
116.28226,39.94567,824,4076
116.28226,39.94567,825,4076
116.28226,39.94567,826,4076
116.28226,39.94567,827,4076
116.28226,39.94567,828,4076
116.28226,39.94567,829,4076
116.28226,39.94567,830,4076
116.28226,39.94567,831,4076
116.28226,39.94567,832,4076
116.4199,39.89929,833,4076
116.4199,39.89929,834,4076
116.4199,39.89929,835,4076
116.4199,39.89929,836,4076
116.4199,39.89929,837,4076
116.4199,39.89929,838,4076
116.37316,39.88805,839,4076
116.36851,39.89654,840,4076
116.36851,39.89654,841,4076
116.36851,39.89654,842,4076
116.36851,39.89654,843,4076
116.36851,39.89654,844,4076
116.3423,39.88588,845,4076
116.3424,39.88146,846,4076
116.34097,39.8761,847,4076
116.34283,39.87313,848,4076
116.34283,39.87313,849,4076
116.35175,39.8446,850,4076
116.34027,39.84511,851,4076
116.34027,39.84511,852,4076
116.34027,39.84511,853,4076
116.28303,39.77492,854,4076
116.28303,39.77492,855,4076
116.28303,39.77492,856,4076
116.28303,39.77492,857,4076
116.28303,39.77492,858,4076
116.28303,39.77492,859,4076
116.28303,39.77492,860,4076
116.16143,39.75872,861,4076
116.16144,39.7587,862,4076
116.16145,39.75868,863,4076
116.16146,39.75869,864,4076
116.16146,39.75869,865,4076
116.16146,39.75869,866,4076
116.16168,39.75843,867,4076
116.16163,39.75857,868,4076
116.16169,39.75861,869,4076
116.16166,39.75859,870,4076
116.16165,39.75862,871,4076
116.16165,39.75863,872,4076
116.16165,39.75863,873,4076
116.16165,39.75863,874,4076
116.16166,39.75863,875,4076
116.16166,39.75863,876,4076
116.16167,39.75862,877,4076
116.16167,39.75862,878,4076
116.16166,39.75862,879,4076
116.16166,39.75861,880,4076
116.16165,39.75861,881,4076
116.16164,39.75861,882,4076
116.16164,39.75861,883,4076
116.16163,39.75861,884,4076
116.16163,39.75861,885,4076
116.16163,39.7586,886,4076
116.16162,39.75861,887,4076
116.16161,39.75861,888,4076
116.16161,39.75861,889,4076
116.1616,39.75862,890,4076
116.1616,39.75862,891,4076
116.16159,39.75862,892,4076
116.16159,39.75862,893,4076
116.16159,39.75862,894,4076
116.16158,39.75862,895,4076
116.16158,39.75862,896,4076
116.16158,39.75862,897,4076
116.16158,39.75862,898,4076
116.16158,39.75862,899,4076
116.16158,39.75862,900,4076
116.16158,39.75862,901,4076
116.16157,39.75863,902,4076
116.16156,39.75864,903,4076
116.16156,39.75864,904,4076
116.16156,39.75864,905,4076
116.16156,39.75864,906,4076
116.16146,39.75863,907,4076
116.16141,39.75867,908,4076
116.16109,39.75874,909,4076
116.16114,39.75872,910,4076
116.1612,39.75871,911,4076
116.16124,39.7587,912,4076
116.16127,39.75869,913,4076
116.1613,39.75869,914,4076
116.16132,39.75868,915,4076
116.16133,39.75868,916,4076
116.16135,39.75868,917,4076
116.16136,39.75868,918,4076
116.16137,39.75868,919,4076
116.16137,39.75868,920,4076
116.16138,39.75868,921,4076
116.16139,39.75869,922,4076
116.16139,39.75869,923,4076
116.1614,39.75869,924,4076
116.20875,39.84361,925,4076
116.16143,39.75864,926,4076
116.16148,39.75875,927,4076
116.16149,39.75875,928,4076
116.16149,39.75874,929,4076
116.16149,39.75873,930,4076
116.16149,39.75873,931,4076
116.1615,39.75871,932,4076
116.1615,39.7587,933,4076
116.1615,39.7587,934,4076
116.1615,39.75869,935,4076
116.1615,39.75869,936,4076
116.1615,39.75868,937,4076
116.1615,39.75868,938,4076
116.16151,39.75867,939,4076
116.16152,39.75867,940,4076
116.16152,39.75867,941,4076
116.16153,39.75867,942,4076
116.16153,39.75866,943,4076
116.16153,39.75866,944,4076
116.16153,39.75866,945,4076
116.16153,39.75866,946,4076
116.16154,39.75865,947,4076
116.16152,39.75865,948,4076
116.16153,39.75865,949,4076
116.16154,39.75865,950,4076
116.16158,39.75867,951,4076
116.16158,39.75866,952,4076
116.16158,39.75866,953,4076
116.16158,39.75866,954,4076
116.16158,39.75865,955,4076
116.16156,39.75865,956,4076
116.16155,39.75866,957,4076
116.16123,39.75801,958,4076
116.16116,39.75793,959,4076
116.16116,39.75793,960,4076
116.21441,39.8443,961,4076
116.23365,39.85443,962,4076
116.23365,39.85443,963,4076
116.25541,39.8481,964,4076
116.25541,39.8481,965,4076
116.25541,39.8481,966,4076
116.25541,39.8481,967,4076
116.39017,39.86964,968,4076
116.39017,39.86964,969,4076
116.39017,39.86964,970,4076
116.39017,39.86964,971,4076
116.39017,39.86964,972,4076
116.39017,39.86964,973,4076
116.39017,39.86964,974,4076
116.39017,39.86964,975,4076
116.39017,39.86964,976,4076
116.39017,39.86964,977,4076
116.39017,39.86964,978,4076
116.39017,39.86964,979,4076
116.39017,39.86964,980,4076
116.39017,39.86964,981,4076
116.39017,39.86964,982,4076
116.39017,39.86964,983,4076
116.39017,39.86964,984,4076
116.39017,39.86964,985,4076
116.39017,39.86964,986,4076
116.39017,39.86964,987,4076
116.39017,39.86964,988,4076
116.39017,39.86964,989,4076
116.39017,39.86964,990,4076
116.39017,39.86964,991,4076
116.39017,39.86964,992,4076
116.39017,39.86964,993,4076
116.39017,39.86964,994,4076
116.39017,39.86964,995,4076
116.39017,39.86964,996,4076
116.39017,39.86964,997,4076
116.39017,39.86964,998,4076
116.39017,39.86964,999,4076
116.39017,39.86964,1000,4076
116.39017,39.86964,1001,4076
116.39017,39.86964,1002,4076
116.39017,39.86964,1003,4076
116.39017,39.86964,1004,4076
116.39017,39.86964,1005,4076
116.39017,39.86964,1006,4076
116.39017,39.86964,1007,4076
116.39017,39.86964,1008,4076
116.39017,39.86964,1009,4076
116.39017,39.86964,1010,4076
116.39017,39.86964,1011,4076
116.39017,39.86964,1012,4076
116.39017,39.86964,1013,4076
116.39017,39.86964,1014,4076
116.39017,39.86964,1015,4076
116.39017,39.86964,1016,4076
116.39017,39.86964,1017,4076
116.39017,39.86964,1018,4076
116.39017,39.86964,1019,4076
116.4514,39.98316,1020,4076
116.45085,39.98279,1021,4076
116.45085,39.98279,1022,4076
116.44353,39.97359,1023,4076
116.43806,39.95915,1024,4076
116.43356,39.95817,1025,4076
116.44052,39.93533,1026,4076
116.43884,39.9381,1027,4076
116.43055,39.93968,1028,4076
116.42955,39.90761,1029,4076
116.42955,39.90761,1030,4076
116.42955,39.90761,1031,4076
116.32342,39.86668,1032,4076
116.27874,39.86424,1033,4076
116.27874,39.86424,1034,4076
116.28813,39.86205,1035,4076
116.30639,39.86883,1036,4076
116.30639,39.86883,1037,4076
116.30442,39.90777,1038,4076
116.29718,39.90632,1039,4076
116.2961,39.90737,1040,4076
116.28236,39.91172,1041,4076
116.27714,39.91338,1042,4076
116.27714,39.91338,1043,4076
116.29262,39.91585,1044,4076
116.2902,39.91721,1045,4076
116.29608,39.90791,1046,4076
116.32948,39.90831,1047,4076
116.3509,39.91248,1048,4076
116.35154,39.90835,1049,4076
116.35154,39.90835,1050,4076
116.35154,39.90835,1051,4076
116.35154,39.90835,1052,4076
116.35154,39.90835,1053,4076
116.35154,39.90835,1054,4076
116.35154,39.90835,1055,4076
116.28904,39.89122,1056,4076
116.28894,39.89878,1057,4076
116.28894,39.89878,1058,4076
116.28894,39.89878,1059,4076
116.28894,39.89878,1060,4076
116.28894,39.89878,1061,4076
116.28029,39.87166,1062,4076
116.28029,39.87166,1063,4076
116.28029,39.87166,1064,4076
116.28029,39.87166,1065,4076
116.29724,39.86624,1066,4076
116.29724,39.86624,1067,4076
116.27996,39.86444,1068,4076
116.27585,39.85354,1069,4076
116.2721,39.85291,1070,4076
116.2721,39.85291,1071,4076
116.2721,39.85291,1072,4076
116.2721,39.85291,1073,4076
116.27971,39.84045,1074,4076
116.27523,39.83241,1075,4076
116.27637,39.83491,1076,4076
116.27637,39.83491,1077,4076
116.27637,39.83491,1078,4076
116.28082,39.83556,1079,4076
116.28082,39.83556,1080,4076
116.28082,39.83556,1081,4076
116.28493,39.77562,1082,4076
116.28493,39.77562,1083,4076
116.28493,39.77562,1084,4076
116.28493,39.77562,1085,4076
116.28493,39.77562,1086,4076
116.28493,39.77562,1087,4076
116.28493,39.77562,1088,4076
116.28493,39.77562,1089,4076
116.28493,39.77562,1090,4076
116.28493,39.77562,1091,4076
116.28493,39.77562,1092,4076
116.28493,39.77562,1093,4076
116.28493,39.77562,1094,4076
116.28493,39.77562,1095,4076
116.28493,39.77562,1096,4076
116.28493,39.77562,1097,4076
116.28493,39.77562,1098,4076
116.28493,39.77562,1099,4076
116.28493,39.77562,1100,4076
116.28493,39.77562,1101,4076
116.1609,39.75886,1102,4076
116.1609,39.75886,1103,4076
116.16148,39.75861,1104,4076
116.16148,39.75861,1105,4076
116.16148,39.75861,1106,4076
116.16148,39.75861,1107,4076
116.16148,39.75861,1108,4076
116.16148,39.75861,1109,4076
116.16148,39.75861,1110,4076
116.16148,39.75861,1111,4076
116.16148,39.75861,1112,4076
116.16148,39.75861,1113,4076
116.16148,39.75861,1114,4076
116.16148,39.75861,1115,4076
116.16148,39.75861,1116,4076
116.16148,39.75861,1117,4076
116.16148,39.75861,1118,4076
116.16148,39.75861,1119,4076
116.16148,39.75861,1120,4076
116.16148,39.75861,1121,4076
116.16148,39.75861,1122,4076
116.16148,39.75861,1123,4076
116.16148,39.75861,1124,4076
116.16148,39.75861,1125,4076
116.16148,39.75861,1126,4076
116.16148,39.75861,1127,4076
116.16148,39.75861,1128,4076
116.16148,39.75861,1129,4076
116.16148,39.75861,1130,4076
116.16148,39.75861,1131,4076
116.16148,39.75861,1132,4076
116.16148,39.75861,1133,4076
116.16148,39.75861,1134,4076
116.16148,39.75861,1135,4076
116.16148,39.75861,1136,4076
116.16148,39.75861,1137,4076
116.16148,39.75861,1138,4076
116.16148,39.75861,1139,4076
116.16148,39.75861,1140,4076
116.16148,39.75861,1141,4076
116.16148,39.75861,1142,4076
116.16148,39.75861,1143,4076
116.16148,39.75861,1144,4076
116.16148,39.75861,1145,4076
116.16148,39.75861,1146,4076
116.16148,39.75861,1147,4076
116.16148,39.75861,1148,4076
116.16148,39.75861,1149,4076
116.16148,39.75861,1150,4076
116.16148,39.75861,1151,4076
116.16148,39.75861,1152,4076
116.16148,39.75861,1153,4076
116.16148,39.75861,1154,4076
116.16148,39.75861,1155,4076
116.16148,39.75861,1156,4076
116.16148,39.75861,1157,4076
116.16148,39.75861,1158,4076
116.16148,39.75861,1159,4076
116.16148,39.75861,1160,4076
116.16148,39.75861,1161,4076
116.16148,39.75861,1162,4076
116.16148,39.75861,1163,4076
116.16148,39.75861,1164,4076
116.16148,39.75861,1165,4076
116.16148,39.75861,1166,4076
116.16148,39.75861,1167,4076
116.16148,39.75861,1168,4076
116.16148,39.75861,1169,4076
116.16148,39.75861,1170,4076
116.16148,39.75861,1171,4076
116.16148,39.75861,1172,4076
116.16148,39.75861,1173,4076
116.16148,39.75861,1174,4076
116.16148,39.75861,1175,4076
116.16148,39.75861,1176,4076
116.16148,39.75861,1177,4076
116.16148,39.75861,1178,4076
116.16148,39.75861,1179,4076
116.16148,39.75861,1180,4076
116.16148,39.75861,1181,4076
116.16148,39.75861,1182,4076
116.16148,39.75861,1183,4076
116.16148,39.75861,1184,4076
116.16148,39.75861,1185,4076
116.16148,39.75861,1186,4076
116.16148,39.75861,1187,4076
116.16148,39.75861,1188,4076
116.16148,39.75861,1189,4076
116.16148,39.75861,1190,4076
116.16148,39.75861,1191,4076
116.16148,39.75861,1192,4076
116.16148,39.75861,1193,4076
116.16148,39.75861,1194,4076
116.16148,39.75861,1195,4076
116.16148,39.75861,1196,4076
116.16148,39.75861,1197,4076
116.16148,39.75861,1198,4076
116.16148,39.75861,1199,4076
116.16148,39.75861,1200,4076
116.16148,39.75861,1201,4076
116.16148,39.75861,1202,4076
116.16148,39.75861,1203,4076
116.16148,39.75861,1204,4076
116.16148,39.75861,1205,4076
116.16148,39.75861,1206,4076
116.16148,39.75861,1207,4076
116.16148,39.75861,1208,4076
116.16148,39.75861,1209,4076
116.16148,39.75861,1210,4076
116.16148,39.75861,1211,4076
116.16148,39.75861,1212,4076
116.16148,39.75861,1213,4076
116.16148,39.75861,1214,4076
116.16148,39.75861,1215,4076
116.16148,39.75861,1216,4076
116.16148,39.75861,1217,4076
116.16148,39.75861,1218,4076
116.16148,39.75861,1219,4076
116.16148,39.75861,1220,4076
116.16148,39.75861,1221,4076
116.16148,39.75861,1222,4076
116.16148,39.75861,1223,4076
116.16148,39.75861,1224,4076
116.16148,39.75861,1225,4076
116.16148,39.75861,1226,4076
116.16148,39.75861,1227,4076
116.16148,39.75861,1228,4076
116.16148,39.75861,1229,4076
116.16148,39.75861,1230,4076
116.16148,39.75861,1231,4076
116.16148,39.75861,1232,4076
116.16148,39.75861,1233,4076
116.16148,39.75861,1234,4076
116.16148,39.75861,1235,4076
116.16148,39.75861,1236,4076
116.16148,39.75861,1237,4076
116.16148,39.75861,1238,4076
116.16148,39.75861,1239,4076
116.16148,39.75861,1240,4076
116.16148,39.75861,1241,4076
116.16148,39.75861,1242,4076
116.16148,39.75861,1243,4076
116.16148,39.75861,1244,4076
116.16148,39.75861,1245,4076
116.16148,39.75861,1246,4076
116.16148,39.75861,1247,4076
116.15806,39.76269,1248,4076
116.15806,39.76269,1249,4076
116.15806,39.76269,1250,4076
116.15806,39.76269,1251,4076
116.15806,39.76269,1252,4076
116.15806,39.76269,1253,4076
116.15806,39.76269,1254,4076
116.20292,39.84167,1255,4076
116.21097,39.84376,1256,4076
116.25532,39.86115,1257,4076
116.25867,39.87909,1258,4076
116.31444,39.89487,1259,4076
116.31573,39.89552,1260,4076
116.31573,39.89552,1261,4076
116.31573,39.89552,1262,4076
116.31573,39.89552,1263,4076
116.31573,39.89552,1264,4076
116.31573,39.89552,1265,4076
116.31573,39.89552,1266,4076
116.31573,39.89552,1267,4076
116.31573,39.89552,1268,4076
116.31573,39.89552,1269,4076
116.31573,39.89552,1270,4076
116.31573,39.89552,1271,4076
116.31573,39.89552,1272,4076
116.31573,39.89552,1273,4076
116.31573,39.89552,1274,4076
116.27898,39.92304,1275,4076
116.28143,39.92621,1276,4076
116.28143,39.92621,1277,4076
116.28143,39.92621,1278,4076
116.28143,39.92621,1279,4076
116.28143,39.92621,1280,4076
116.28143,39.92621,1281,4076
116.28143,39.92621,1282,4076
116.28143,39.92621,1283,4076
116.28907,39.94542,1284,4076
116.28907,39.94542,1285,4076
116.29275,39.94477,1286,4076
116.29275,39.94477,1287,4076
116.29275,39.94477,1288,4076
116.29275,39.94477,1289,4076
116.29275,39.94477,1290,4076
116.29275,39.94477,1291,4076
116.29275,39.94477,1292,4076
116.29275,39.94477,1293,4076
116.29275,39.94477,1294,4076
116.29275,39.94477,1295,4076
116.29275,39.94477,1296,4076
116.29275,39.94477,1297,4076
116.29275,39.94477,1298,4076
116.29275,39.94477,1299,4076
116.29275,39.94477,1300,4076
116.29275,39.94477,1301,4076
116.29275,39.94477,1302,4076
116.29275,39.94477,1303,4076
116.29275,39.94477,1304,4076
116.29275,39.94477,1305,4076
116.29275,39.94477,1306,4076
116.29275,39.94477,1307,4076
116.29275,39.94477,1308,4076
116.29275,39.94477,1309,4076
116.29275,39.94477,1310,4076
116.29275,39.94477,1311,4076
116.29275,39.94477,1312,4076
116.29275,39.94477,1313,4076
116.29275,39.94477,1314,4076
116.29275,39.94477,1315,4076
116.29275,39.94477,1316,4076
116.29275,39.94477,1317,4076
116.29275,39.94477,1318,4076
116.29275,39.94477,1319,4076
116.29275,39.94477,1320,4076
116.29275,39.94477,1321,4076
116.29275,39.94477,1322,4076
116.29275,39.94477,1323,4076
116.29275,39.94477,1324,4076
116.29275,39.94477,1325,4076
116.29275,39.94477,1326,4076
116.39524,39.82523,1327,4076
116.3957,39.81641,1328,4076
116.40307,39.81257,1329,4076
116.3991,39.81235,1330,4076
116.3991,39.81235,1331,4076
116.3991,39.81235,1332,4076
116.3991,39.81235,1333,4076
116.3991,39.81235,1334,4076
116.3991,39.81235,1335,4076
116.3991,39.81235,1336,4076
116.37275,39.92121,1337,4076
116.37275,39.92121,1338,4076
116.37275,39.92121,1339,4076
116.37275,39.92121,1340,4076
116.37275,39.92121,1341,4076
116.37275,39.92121,1342,4076
116.37275,39.92121,1343,4076
116.37275,39.92121,1344,4076
116.37275,39.92121,1345,4076
116.37275,39.92121,1346,4076
116.37275,39.92121,1347,4076
116.37275,39.92121,1348,4076
116.37275,39.92121,1349,4076
116.37275,39.92121,1350,4076
116.30409,39.89171,1351,4076
116.30409,39.89171,1352,4076
116.24989,39.86394,1353,4076
116.20278,39.8397,1354,4076
116.18717,39.79728,1355,4076
116.16335,39.76768,1356,4076
116.16335,39.76768,1357,4076
116.26112,39.85302,1358,4076
116.26112,39.85302,1359,4076
116.26112,39.85302,1360,4076
116.26112,39.85302,1361,4076
116.26112,39.85302,1362,4076
116.30829,39.86431,1363,4076
116.30819,39.86441,1364,4076
116.30929,39.86573,1365,4076
116.30686,39.87575,1366,4076
116.30548,39.87697,1367,4076
116.30253,39.89578,1368,4076
116.29604,39.89621,1369,4076
116.32023,39.90624,1370,4076
116.33607,39.90587,1371,4076
116.33607,39.90587,1372,4076
116.33607,39.90587,1373,4076
116.33607,39.90587,1374,4076
116.33607,39.90587,1375,4076
116.33607,39.90587,1376,4076
116.39644,39.92134,1377,4076
116.39644,39.92134,1378,4076
116.39644,39.92134,1379,4076
116.37269,39.93156,1380,4076
116.37132,39.93145,1381,4076
116.36038,39.93915,1382,4076
116.36026,39.93914,1383,4076
116.35899,39.92287,1384,4076
116.35844,39.91757,1385,4076
116.35844,39.91757,1386,4076
116.35844,39.91757,1387,4076
116.35788,39.89824,1388,4076
116.35788,39.89824,1389,4076
116.35788,39.89824,1390,4076
116.35788,39.89824,1391,4076
116.35788,39.89824,1392,4076
116.35788,39.89824,1393,4076
116.35788,39.89824,1394,4076
116.35788,39.89824,1395,4076
116.4242,39.86842,1396,4076
116.42608,39.86464,1397,4076
116.42814,39.86067,1398,4076
116.42814,39.86067,1399,4076
116.42814,39.86067,1400,4076
116.42814,39.86067,1401,4076
116.42814,39.86067,1402,4076
116.42814,39.86067,1403,4076
116.42814,39.86067,1404,4076
116.42814,39.86067,1405,4076
116.42814,39.86067,1406,4076
116.42814,39.86067,1407,4076
116.45539,39.87005,1408,4076
116.45446,39.87009,1409,4076
116.42696,39.88286,1410,4076
116.42717,39.88972,1411,4076
116.42717,39.88972,1412,4076
116.42717,39.88972,1413,4076
116.42717,39.88972,1414,4076
116.42717,39.88972,1415,4076
116.3767,39.88807,1416,4076
116.37532,39.88803,1417,4076
116.37532,39.88803,1418,4076
116.37532,39.88803,1419,4076
116.37532,39.88803,1420,4076
116.37532,39.88803,1421,4076
116.37532,39.88803,1422,4076
116.37532,39.88803,1423,4076
116.37532,39.88803,1424,4076
116.37532,39.88803,1425,4076
116.37532,39.88803,1426,4076
116.37532,39.88803,1427,4076
116.37532,39.88803,1428,4076
116.37532,39.88803,1429,4076
116.37532,39.88803,1430,4076
116.37532,39.88803,1431,4076
116.37532,39.88803,1432,4076
116.37532,39.88803,1433,4076
116.37532,39.88803,1434,4076
116.37532,39.88803,1435,4076
116.37532,39.88803,1436,4076
116.37532,39.88803,1437,4076
116.37532,39.88803,1438,4076
116.37532,39.88803,1439,4076
116.37532,39.88803,1440,4076
116.37532,39.88803,1441,4076
116.37532,39.88803,1442,4076
116.37532,39.88803,1443,4076
116.37532,39.88803,1444,4076
116.37532,39.88803,1445,4076
116.37532,39.88803,1446,4076
116.37532,39.88803,1447,4076
116.37532,39.88803,1448,4076
116.37532,39.88803,1449,4076
