x,y,k,tid
116.2695,39.91941,0,4315
116.28252,39.92627,1,4315
116.28252,39.92627,2,4315
116.28252,39.92627,3,4315
116.2933,39.93105,4,4315
116.30404,39.92207,5,4315
116.30408,39.91761,6,4315
116.31109,39.90618,7,4315
116.33396,39.90123,8,4315
116.34243,39.89663,9,4315
116.34221,39.86898,10,4315
116.34313,39.86576,11,4315
116.35662,39.87197,12,4315
116.35682,39.87214,13,4315
116.43362,39.87216,14,4315
116.357,39.87216,15,4315
116.35671,39.87187,16,4315
116.3575,39.87979,17,4315
116.35488,39.88194,18,4315
116.35259,39.88447,19,4315
116.35258,39.8845,20,4315
116.35442,39.88796,21,4315
116.35677,39.88799,22,4315
116.36793,39.88799,23,4315
116.36793,39.88799,24,4315
116.36831,39.89356,25,4315
116.37848,39.89272,26,4315
116.38101,39.8848,27,4315
116.37902,39.88472,28,4315
116.39198,39.93942,29,4315
116.39465,39.93947,30,4315
116.3976,39.93953,31,4315
116.39844,39.93953,32,4315
116.40178,39.93955,33,4315
116.42536,39.93972,34,4315
116.42969,39.93976,35,4315
116.4453,39.94646,36,4315
116.45567,39.95119,37,4315
116.45841,39.95191,38,4315
116.45552,39.94516,39,4315
116.45549,39.94129,40,4315
116.45541,39.92628,41,4315
116.45539,39.92509,42,4315
116.45482,39.91319,43,4315
116.46991,39.91216,44,4315
116.47038,39.91211,45,4315
116.47211,39.90809,46,4315
116.47189,39.908,47,4315
116.45693,39.90319,48,4315
116.44936,39.90267,49,4315
116.43309,39.89222,50,4315
116.43289,39.89216,51,4315
116.4138,39.89179,52,4315
116.4138,39.89179,53,4315
116.39559,39.89073,54,4315
116.39442,39.89044,55,4315
116.38251,39.88825,56,4315
116.37969,39.88822,57,4315
116.37481,39.88801,58,4315
116.37481,39.88801,59,4315
116.37481,39.88801,60,4315
116.37481,39.88801,61,4315
116.37405,39.888,62,4315
116.37066,39.88793,63,4315
116.37066,39.88793,64,4315
116.35729,39.88796,65,4315
116.35335,39.88799,66,4315
116.34269,39.8917,67,4315
116.34269,39.89335,68,4315
116.31791,39.89597,69,4315
116.31673,39.89598,70,4315
116.31492,39.90305,71,4315
116.32435,39.9061,72,4315
116.32773,39.90585,73,4315
116.34517,39.90589,74,4315
116.36747,39.90577,75,4315
116.36747,39.90577,76,4315
116.38317,39.90597,77,4315
116.3849,39.90603,78,4315
116.39529,39.90637,79,4315
116.39529,39.90637,80,4315
116.41023,39.90677,81,4315
116.42257,39.90699,82,4315
116.42296,39.90443,83,4315
116.42048,39.91304,84,4315
116.4204,39.91348,85,4315
116.42007,39.92421,86,4315
116.41965,39.92825,87,4315
116.42577,39.93445,88,4315
116.42633,39.93447,89,4315
116.4256,39.93454,90,4315
116.4256,39.93454,91,4315
116.41949,39.93914,92,4315
116.41949,39.93915,93,4315
116.41916,39.9474,94,4315
116.41915,39.94772,95,4315
116.41015,39.9495,96,4315
116.41016,39.9495,97,4315
116.40169,39.95558,98,4315
116.40161,39.95673,99,4315
116.39642,39.96178,100,4315
116.39609,39.96465,101,4315
116.39114,39.96188,102,4315
116.39114,39.96188,103,4315
116.38993,39.96181,104,4315
116.38993,39.96181,105,4315
116.38712,39.96725,106,4315
116.36496,39.96671,107,4315
116.36496,39.96671,108,4315
116.36472,39.96671,109,4315
116.36499,39.95499,110,4315
116.36509,39.95439,111,4315
116.3655,39.94823,112,4315
116.36557,39.94763,113,4315
116.35803,39.94482,114,4315
116.35782,39.94471,115,4315
116.35292,39.94341,116,4315
116.35239,39.94328,117,4315
116.34926,39.9418,118,4315
116.34902,39.93998,119,4315
116.31215,39.93821,120,4315
116.30681,39.94007,121,4315
116.30376,39.94141,122,4315
116.3038,39.94008,123,4315
116.30387,39.93304,124,4315
116.30374,39.93165,125,4315
116.2953,39.92797,126,4315
116.2953,39.92797,127,4315
116.29531,39.92798,128,4315
116.29531,39.92798,129,4315
116.30404,39.92689,130,4315
116.30405,39.92658,131,4315
116.30404,39.92192,132,4315
116.30397,39.92068,133,4315
116.30406,39.91252,134,4315
116.30407,39.91123,135,4315
116.30409,39.90302,136,4315
116.30418,39.90068,137,4315
116.33154,39.89601,138,4315
116.33757,39.8963,139,4315
116.34276,39.87095,140,4315
116.34571,39.86711,141,4315
116.40466,39.87072,142,4315
116.43605,39.86919,143,4315
116.4377,39.87017,144,4315
116.45507,39.87595,145,4315
116.45617,39.87729,146,4315
116.45769,39.87698,147,4315
116.45646,39.8771,148,4315
116.43828,39.88327,149,4315
116.43898,39.8839,150,4315
116.43898,39.8839,151,4315
116.42459,39.86976,152,4315
116.41797,39.87003,153,4315
116.38103,39.86985,154,4315
116.37351,39.86934,155,4315
116.33117,39.867,156,4315
116.33067,39.86758,157,4315
116.33061,39.86811,158,4315
116.33061,39.86811,159,4315
116.33061,39.86811,160,4315
116.31921,39.87512,161,4315
116.31687,39.87456,162,4315
116.31321,39.874,163,4315
116.31321,39.874,164,4315
116.31324,39.87401,165,4315
116.31324,39.87401,166,4315
116.31324,39.87401,167,4315
116.31324,39.87401,168,4315
116.31324,39.87401,169,4315
116.31324,39.87401,170,4315
116.31324,39.87401,171,4315
116.31324,39.87401,172,4315
116.31128,39.88043,173,4315
116.3113,39.88213,174,4315
116.31808,39.88321,175,4315
116.31894,39.8832,176,4315
116.31969,39.88317,177,4315
116.32034,39.88395,178,4315
116.33829,39.88839,179,4315
116.34298,39.88815,180,4315
116.34263,39.89092,181,4315
116.34305,39.89596,182,4315
116.34995,39.92106,183,4315
116.34996,39.92307,184,4315
116.34967,39.93959,185,4315
116.3483,39.93927,186,4315
116.3418,39.95017,187,4315
116.34128,39.95226,188,4315
116.32687,39.95632,189,4315
116.32429,39.95608,190,4315
116.32738,39.95629,191,4315
116.32903,39.95632,192,4315
116.34573,39.94024,193,4315
116.34577,39.93902,194,4315
116.33739,39.93726,195,4315
116.3306,39.93689,196,4315
116.30379,39.93553,197,4315
116.29995,39.93507,198,4315
116.30404,39.91794,199,4315
116.30399,39.91257,200,4315
116.30399,39.91257,201,4315
116.30501,39.90759,202,4315
116.30965,39.92252,203,4315
116.31512,39.92245,204,4315
116.32343,39.92692,205,4315
116.29386,39.9228,206,4315
116.29386,39.9228,207,4315
116.28994,39.92338,208,4315
116.29974,39.92265,209,4315
116.28991,39.92367,210,4315
116.29042,39.92099,211,4315
116.28161,39.92304,212,4315
116.27929,39.9231,213,4315
116.26888,39.9465,214,4315
116.26969,39.9515,215,4315
116.27868,39.94958,216,4315
116.27866,39.94893,217,4315
116.2922,39.94517,218,4315
116.30404,39.92289,219,4315
116.3041,39.91938,220,4315
116.30417,39.90562,221,4315
116.30418,39.90361,222,4315
116.30563,39.87267,223,4315
116.33963,39.84189,224,4315
116.33958,39.83511,225,4315
116.34012,39.79746,226,4315
116.33676,39.79769,227,4315
116.33186,39.79249,228,4315
116.33186,39.79249,229,4315
116.33208,39.79478,230,4315
116.33366,39.797,231,4315
116.33972,39.8091,232,4315
116.33891,39.81387,233,4315
116.37962,39.83023,234,4315
116.3874,39.83039,235,4315
116.39453,39.84532,236,4315
116.39437,39.8484,237,4315
116.42029,39.85677,238,4315
116.4291,39.8574,239,4315
116.45531,39.88757,240,4315
116.45581,39.89203,241,4315
116.46315,39.8921,242,4315
116.45175,39.89589,243,4315
116.44975,39.89489,244,4315
116.4135,39.89183,245,4315
116.41254,39.89181,246,4315
116.41254,39.89181,247,4315
116.39614,39.89921,248,4315
116.39407,39.89893,249,4315
116.36698,39.89843,250,4315
116.32893,39.89602,251,4315
116.32062,39.89582,252,4315
116.30434,39.92129,253,4315
116.30434,39.92129,254,4315
116.30392,39.92338,255,4315
116.28256,39.92723,256,4315
116.28256,39.92723,257,4315
116.30141,39.93109,258,4315
116.30431,39.93286,259,4315
116.31466,39.93782,260,4315
116.31466,39.93782,261,4315
116.3797,39.94752,262,4315
116.40057,39.94762,263,4315
116.45237,39.95344,264,4315
116.45689,39.94821,265,4315
116.45978,39.95856,266,4315
116.451,39.95549,267,4315
116.45021,39.95566,268,4315
116.44544,39.96088,269,4315
116.43923,39.96266,270,4315
116.43675,39.97043,271,4315
116.42853,39.97556,272,4315
116.42997,39.98213,273,4315
116.41474,39.98214,274,4315
116.41136,39.97439,275,4315
116.40605,39.96768,276,4315
116.38418,39.96729,277,4315
116.37706,39.96715,278,4315
116.37706,39.96715,279,4315
116.36254,39.96659,280,4315
116.34845,39.96862,281,4315
116.34845,39.96862,282,4315
116.3484,39.97045,283,4315
116.34844,39.95697,284,4315
116.35,39.94819,285,4315
116.34929,39.94121,286,4315
116.34953,39.93471,287,4315
116.34988,39.92198,288,4315
116.35069,39.92248,289,4315
116.26737,39.94561,290,4315
116.26689,39.94561,291,4315
116.25295,39.94667,292,4315
116.25295,39.94667,293,4315
116.25385,39.94545,294,4315
116.26867,39.92908,295,4315
116.26876,39.92884,296,4315
116.26988,39.95692,297,4315
116.26976,39.95771,298,4315
116.26976,39.95771,299,4315
116.28168,39.96031,300,4315
116.28168,39.96031,301,4315
116.28884,39.94801,302,4315
116.28891,39.94705,303,4315
116.27886,39.9252,304,4315
116.27885,39.92545,305,4315
116.27681,39.91846,306,4315
116.2658,39.89617,307,4315
116.28289,39.89579,308,4315
116.33897,39.89646,309,4315
116.34261,39.88328,310,4315
116.34844,39.86232,311,4315
116.34826,39.86244,312,4315
116.34826,39.86244,313,4315
116.34817,39.86248,314,4315
116.34817,39.86248,315,4315
116.34819,39.86251,316,4315
116.34814,39.8642,317,4315
116.34452,39.87185,318,4315
116.34422,39.87567,319,4315
116.34408,39.88767,320,4315
116.34445,39.88801,321,4315
116.34318,39.89963,322,4315
116.34188,39.89798,323,4315
116.34167,39.89793,324,4315
116.34173,39.89731,325,4315
116.30516,39.89622,326,4315
116.30438,39.9222,327,4315
116.30394,39.92317,328,4315
116.28252,39.92625,329,4315
116.28248,39.92795,330,4315
116.29942,39.92688,331,4315
116.30389,39.92563,332,4315
116.30394,39.91459,333,4315
116.30396,39.91428,334,4315
116.30397,39.91057,335,4315
116.30398,39.90968,336,4315
116.3035,39.90772,337,4315
116.29077,39.9062,338,4315
116.28477,39.9062,339,4315
116.26233,39.90615,340,4315
116.2592,39.90619,341,4315
116.25857,39.91601,342,4315
116.25856,39.9161,343,4315
116.24696,39.92021,344,4315
116.24697,39.92021,345,4315
116.24697,39.92021,346,4315
116.247,39.90934,347,4315
116.24703,39.90667,348,4315
116.26732,39.9062,349,4315
116.27102,39.90619,350,4315
116.28812,39.9063,351,4315
116.29237,39.90626,352,4315
116.31879,39.90606,353,4315
116.32607,39.90607,354,4315
116.34577,39.90592,355,4315
116.35091,39.90585,356,4315
116.37643,39.90579,357,4315
116.38265,39.90598,358,4315
116.4018,39.9065,359,4315
116.40523,39.90658,360,4315
116.42072,39.90459,361,4315
116.42072,39.90459,362,4315
116.42081,39.90596,363,4315
116.43074,39.89852,364,4315
116.42173,39.89579,365,4315
116.41912,39.89571,366,4315
116.41825,39.8957,367,4315
116.42093,39.89587,368,4315
116.42476,39.88669,369,4315
116.42502,39.88403,370,4315
116.41483,39.8766,371,4315
116.4148,39.87207,372,4315
116.4032,39.87162,373,4315
116.40814,39.87175,374,4315
116.42363,39.87976,375,4315
116.42869,39.87897,376,4315
116.43309,39.86845,377,4315
116.43293,39.86733,378,4315
116.42857,39.86448,379,4315
116.42851,39.86449,380,4315
116.4213,39.86428,381,4315
116.42065,39.86426,382,4315
116.41052,39.86396,383,4315
116.40702,39.86382,384,4315
116.39374,39.86394,385,4315
116.39579,39.85264,386,4315
116.39478,39.85454,387,4315
116.41328,39.85576,388,4315
116.41663,39.85598,389,4315
116.42234,39.85133,390,4315
116.42229,39.84911,391,4315
116.40824,39.85311,392,4315
116.40824,39.85311,393,4315
116.40813,39.85324,394,4315
116.40813,39.85324,395,4315
116.40793,39.85495,396,4315
116.40715,39.85588,397,4315
116.38606,39.85935,398,4315
116.37199,39.87729,399,4315
116.36582,39.87709,400,4315
116.3581,39.87678,401,4315
116.34767,39.87474,402,4315
116.34529,39.87184,403,4315
116.3452,39.87176,404,4315
116.3452,39.87176,405,4315
116.34425,39.87601,406,4315
116.34379,39.88171,407,4315
116.3426,39.89126,408,4315
116.33841,39.89646,409,4315
116.32326,39.89592,410,4315
116.32277,39.89232,411,4315
116.32299,39.89727,412,4315
116.3232,39.90606,413,4315
116.33035,39.90154,414,4315
116.33035,39.90154,415,4315
116.34004,39.89988,416,4315
116.34211,39.89299,417,4315
116.33673,39.88833,418,4315
116.33652,39.88696,419,4315
116.33577,39.87771,420,4315
116.33325,39.876,421,4315
116.33005,39.88612,422,4315
116.33299,39.88854,423,4315
116.35081,39.88817,424,4315
116.35341,39.88807,425,4315
116.36084,39.88797,426,4315
116.36833,39.88836,427,4315
116.36856,39.89534,428,4315
116.36804,39.89747,429,4315
116.37763,39.89854,430,4315
116.37844,39.89266,431,4315
116.37849,39.88863,432,4315
116.37849,39.88863,433,4315
116.38874,39.88903,434,4315
116.38874,39.88903,435,4315
116.3924,39.88575,436,4315
116.39151,39.87632,437,4315
116.40814,39.8708,438,4315
116.41521,39.86784,439,4315
116.41539,39.86582,440,4315
116.41565,39.85839,441,4315
116.4103,39.85591,442,4315
116.40911,39.85588,443,4315
116.40645,39.85588,444,4315
116.3964,39.8558,445,4315
116.40425,39.8638,446,4315
116.40101,39.86371,447,4315
116.40057,39.86374,448,4315
116.40503,39.86382,449,4315
116.41347,39.86408,450,4315
116.41472,39.86417,451,4315
116.42528,39.86453,452,4315
116.42715,39.86465,453,4315
116.43176,39.86453,454,4315
116.43307,39.8682,455,4315
116.44025,39.87834,456,4315
116.44408,39.88328,457,4315
116.4493,39.88319,458,4315
116.45451,39.88315,459,4315
116.45547,39.8877,460,4315
116.39723,39.93208,461,4315
116.39723,39.93208,462,4315
116.45535,39.89928,463,4315
116.46526,39.90697,464,4315
116.4967,39.90665,465,4315
116.50993,39.90656,466,4315
116.50993,39.90656,467,4315
116.53708,39.90641,468,4315
116.54804,39.90778,469,4315
116.56454,39.90811,470,4315
116.56865,39.90863,471,4315
116.55545,39.9085,472,4315
116.54468,39.9084,473,4315
116.52466,39.90856,474,4315
116.51529,39.90728,475,4315
116.48583,39.90745,476,4315
116.4626,39.9035,477,4315
116.43718,39.90517,478,4315
116.43685,39.90507,479,4315
116.44358,39.90692,480,4315
116.44539,39.90694,481,4315
116.45482,39.90308,482,4315
116.45926,39.8994,483,4315
116.47122,39.89923,484,4315
116.48276,39.89943,485,4315
116.49668,39.89715,486,4315
116.49668,39.89715,487,4315
116.49824,39.89571,488,4315
116.4925,39.89958,489,4315
116.48492,39.8994,490,4315
116.48039,39.89925,491,4315
116.47153,39.90217,492,4315
116.47154,39.90553,493,4315
116.47158,39.90375,494,4315
116.46698,39.89203,495,4315
116.45607,39.8922,496,4315
116.45518,39.89205,497,4315
116.44572,39.89237,498,4315
116.43056,39.89918,499,4315
116.42824,39.91274,500,4315
116.43399,39.92282,501,4315
116.43896,39.92194,502,4315
116.44418,39.92533,503,4315
116.44698,39.92557,504,4315
116.43834,39.92565,505,4315
116.42951,39.92326,506,4315
116.42051,39.92309,507,4315
116.40753,39.923,508,4315
116.40935,39.92299,509,4315
116.41938,39.92299,510,4315
116.42704,39.92343,511,4315
116.42579,39.92579,512,4315
116.42642,39.93224,513,4315
116.42746,39.94171,514,4315
116.43898,39.9483,515,4315
116.44271,39.9604,516,4315
116.43929,39.96029,517,4315
116.43929,39.96029,518,4315
116.43557,39.95863,519,4315
116.43557,39.95863,520,4315
116.43717,39.96341,521,4315
116.44821,39.95532,522,4315
116.46405,39.96971,523,4315
116.47252,39.97947,524,4315
116.48587,39.99142,525,4315
116.50861,40.01041,526,4315
116.50664,40.00827,527,4315
116.49097,39.99405,528,4315
116.48358,39.98701,529,4315
116.47961,39.98106,530,4315
116.47639,39.98328,531,4315
116.4652,39.98152,532,4315
116.46486,39.98357,533,4315
116.45781,39.98815,534,4315
116.45657,39.99428,535,4315
116.44078,39.99196,536,4315
116.43046,39.98809,537,4315
116.40107,39.98238,538,4315
116.39981,39.9677,539,4315
116.38105,39.96697,540,4315
116.34643,39.96669,541,4315
116.34464,39.96248,542,4315
116.34485,39.96258,543,4315
116.34821,39.95708,544,4315
116.34981,39.94295,545,4315
116.34943,39.93345,546,4315
116.34981,39.92304,547,4315
116.35009,39.91654,548,4315
116.34652,39.90898,549,4315
116.34659,39.90196,550,4315
116.34688,39.89322,551,4315
116.34725,39.88457,552,4315
116.35579,39.87673,553,4315
116.35431,39.87166,554,4315
116.34631,39.87231,555,4315
116.34475,39.87009,556,4315
116.34899,39.86662,557,4315
116.36261,39.86835,558,4315
116.36834,39.88146,559,4315
116.36826,39.88601,560,4315
116.36826,39.88601,561,4315
116.36826,39.88601,562,4315
116.36838,39.88979,563,4315
116.36841,39.89632,564,4315
116.36813,39.8995,565,4315
116.36796,39.90522,566,4315
116.36813,39.90938,567,4315
116.36824,39.90937,568,4315
116.37206,39.91094,569,4315
116.37017,39.91322,570,4315
116.35836,39.91602,571,4315
116.3585,39.92187,572,4315
116.36182,39.93072,573,4315
116.36199,39.93321,574,4315
116.35917,39.9391,575,4315
116.35465,39.93902,576,4315
116.32666,39.93689,577,4315
116.30904,39.93918,578,4315
116.31002,39.94432,579,4315
116.31002,39.94432,580,4315
116.31902,39.9419,581,4315
116.34526,39.93847,582,4315
116.34748,39.93618,583,4315
116.34932,39.93469,584,4315
116.34974,39.92608,585,4315
116.34991,39.92052,586,4315
116.35018,39.9067,587,4315
116.35524,39.90576,588,4315
116.37666,39.90572,589,4315
116.38512,39.90597,590,4315
116.3887,39.90607,591,4315
116.39587,39.90635,592,4315
116.40425,39.90654,593,4315
116.40933,39.90672,594,4315
116.42072,39.90463,595,4315
116.4204,39.90366,596,4315
116.4117,39.90864,597,4315
116.41162,39.91258,598,4315
116.40119,39.91403,599,4315
116.39664,39.91546,600,4315
116.38706,39.92177,601,4315
116.37412,39.92125,602,4315
116.36658,39.92262,603,4315
116.35951,39.92249,604,4315
116.34977,39.92313,605,4315
116.35025,39.91565,606,4315
116.34748,39.90598,607,4315
116.34345,39.90603,608,4315
116.32726,39.90651,609,4315
116.32045,39.90977,610,4315
116.3002,39.91197,611,4315
116.2959,39.9141,612,4315
116.2959,39.9141,613,4315
116.2866,39.92295,614,4315
116.2825,39.92635,615,4315
116.2825,39.92635,616,4315
116.2825,39.92635,617,4315
116.2825,39.92635,618,4315
116.28252,39.92635,619,4315
116.28251,39.92633,620,4315
116.28249,39.92631,621,4315
116.28252,39.92632,622,4315
116.28254,39.92633,623,4315
116.28248,39.92899,624,4315
116.29517,39.93102,625,4315
116.30401,39.92432,626,4315
116.30407,39.91631,627,4315
116.30409,39.90544,628,4315
116.30672,39.90615,629,4315
116.30914,39.90627,630,4315
116.30914,39.90627,631,4315
116.31136,39.90624,632,4315
116.32234,39.90612,633,4315
116.33018,39.90165,634,4315
116.34194,39.89802,635,4315
116.34175,39.89797,636,4315
116.34199,39.89514,637,4315
116.34248,39.89027,638,4315
116.34086,39.86749,639,4315
116.34831,39.86477,640,4315
116.34809,39.86656,641,4315
116.34758,39.87493,642,4315
116.35297,39.87836,643,4315
116.35275,39.88181,644,4315
116.35068,39.88812,645,4315
116.33678,39.88279,646,4315
116.33579,39.87855,647,4315
116.3206,39.8766,648,4315
116.32044,39.88101,649,4315
116.32019,39.8857,650,4315
116.32949,39.88857,651,4315
116.36096,39.88819,652,4315
116.37852,39.88645,653,4315
116.37657,39.88177,654,4315
116.46394,39.92471,655,4315
116.372,39.87726,656,4315
116.37035,39.87719,657,4315
116.36829,39.88736,658,4315
116.3631,39.88788,659,4315
116.35329,39.88803,660,4315
116.34314,39.88823,661,4315
116.34314,39.88823,662,4315
116.33034,39.88341,663,4315
116.32492,39.8833,664,4315
116.32047,39.88799,665,4315
116.3201,39.88912,666,4315
116.31986,39.8899,667,4315
116.31986,39.8899,668,4315
116.31984,39.8899,669,4315
116.31984,39.8899,670,4315
116.31984,39.8899,671,4315
116.31989,39.88984,672,4315
116.31991,39.88986,673,4315
116.31991,39.88986,674,4315
116.3199,39.88987,675,4315
116.31988,39.88987,676,4315
116.31988,39.88987,677,4315
116.31988,39.88987,678,4315
116.31988,39.88987,679,4315
116.31988,39.88987,680,4315
116.31988,39.88987,681,4315
116.31988,39.88987,682,4315
116.31976,39.8899,683,4315
116.31977,39.8899,684,4315
116.3198,39.88989,685,4315
116.31983,39.88989,686,4315
116.3198,39.88987,687,4315
116.3198,39.88987,688,4315
116.3198,39.88987,689,4315
116.3198,39.88987,690,4315
116.3198,39.88987,691,4315
116.31975,39.88985,692,4315
116.31971,39.88984,693,4315
116.31962,39.88983,694,4315
116.31957,39.88978,695,4315
116.31962,39.88973,696,4315
116.31962,39.88971,697,4315
116.31962,39.88971,698,4315
116.31962,39.88971,699,4315
116.31962,39.88974,700,4315
116.31962,39.88974,701,4315
116.31961,39.88975,702,4315
116.31961,39.88975,703,4315
116.31964,39.88976,704,4315
116.31975,39.89145,705,4315
116.3309,39.89587,706,4315
116.33431,39.89609,707,4315
116.33283,39.89631,708,4315
116.32287,39.89786,709,4315
116.32275,39.89891,710,4315
116.32134,39.89889,711,4315
116.31823,39.89832,712,4315
116.31376,39.90618,713,4315
116.30949,39.90616,714,4315
116.30312,39.90612,715,4315
116.30431,39.90851,716,4315
116.3017,39.92298,717,4315
116.29203,39.92309,718,4315
116.28827,39.94835,719,4315
116.28928,39.94063,720,4315
116.28417,39.93581,721,4315
116.28422,39.93581,722,4315
116.29477,39.93103,723,4315
116.30187,39.92295,724,4315
116.29507,39.92335,725,4315
116.29611,39.9324,726,4315
116.29767,39.94307,727,4315
116.29867,39.94262,728,4315
116.29867,39.94262,729,4315
116.29875,39.94275,730,4315
116.2988,39.94274,731,4315
116.29883,39.94275,732,4315
116.31303,39.93794,733,4315
116.32708,39.93688,734,4315
116.35561,39.93917,735,4315
116.35295,39.93385,736,4315
116.35277,39.931,737,4315
116.35073,39.93101,738,4315
116.35073,39.93101,739,4315
116.3509,39.93074,740,4315
116.34747,39.9268,741,4315
116.34738,39.92474,742,4315
116.34328,39.92597,743,4315
116.34328,39.92661,744,4315
116.33779,39.9292,745,4315
116.33627,39.94055,746,4315
116.33022,39.9502,747,4315
116.32822,39.96478,748,4315
116.32609,39.96635,749,4315
116.32423,39.96725,750,4315
116.32139,39.96608,751,4315
116.31465,39.96859,752,4315
116.31406,39.96876,753,4315
116.30617,39.97463,754,4315
116.30317,39.97454,755,4315
116.2996,39.98316,756,4315
116.30479,39.98296,757,4315
116.30521,39.97474,758,4315
116.30105,39.97442,759,4315
116.30086,39.96636,760,4315
116.30157,39.9613,761,4315
116.30308,39.95149,762,4315
116.30385,39.94537,763,4315
116.30386,39.93204,764,4315
116.30392,39.9289,765,4315
116.31348,39.92232,766,4315
116.31601,39.92217,767,4315
116.31618,39.9222,768,4315
116.30443,39.92444,769,4315
116.30443,39.92444,770,4315
116.3044,39.92446,771,4315
116.30438,39.92452,772,4315
116.30436,39.92453,773,4315
116.30436,39.92453,774,4315
116.30436,39.92453,775,4315
116.30436,39.92453,776,4315
116.30436,39.92454,777,4315
116.30436,39.92454,778,4315
116.30357,39.95035,779,4315
116.30037,39.9556,780,4315
116.30191,39.96116,781,4315
116.31056,39.96437,782,4315
116.31056,39.96437,783,4315
116.31045,39.96434,784,4315
116.31048,39.96436,785,4315
116.31052,39.96435,786,4315
116.31052,39.96435,787,4315
116.31052,39.96435,788,4315
116.31052,39.96435,789,4315
116.29638,39.96346,790,4315
116.29791,39.95263,791,4315
116.30317,39.95171,792,4315
116.29883,39.93497,793,4315
116.29911,39.93856,794,4315
116.29986,39.94029,795,4315
116.29918,39.93855,796,4315
116.30401,39.92806,797,4315
116.30407,39.9181,798,4315
116.30418,39.901,799,4315
116.30403,39.89714,800,4315
116.30407,39.89679,801,4315
116.30407,39.89548,802,4315
116.30325,39.89569,803,4315
116.30477,39.89569,804,4315
116.30843,39.89564,805,4315
116.31359,39.89569,806,4315
116.31522,39.89667,807,4315
116.31509,39.90291,808,4315
116.31509,39.90291,809,4315
116.29843,39.90628,810,4315
116.29607,39.90656,811,4315
116.29135,39.92169,812,4315
116.29097,39.93418,813,4315
116.29324,39.95894,814,4315
116.29253,39.96132,815,4315
116.29774,39.96724,816,4315
116.30098,39.96593,817,4315
116.29703,39.95908,818,4315
116.29778,39.9546,819,4315
116.30401,39.93703,820,4315
116.30401,39.93703,821,4315
116.30412,39.92664,822,4315
116.31061,39.90618,823,4315
116.31508,39.90031,824,4315
116.29606,39.89726,825,4315
116.29816,39.90617,826,4315
116.29816,39.90617,827,4315
116.30475,39.91352,828,4315
116.30472,39.92569,829,4315
116.32686,39.93729,830,4315
116.33969,39.93737,831,4315
116.35898,39.93707,832,4315
116.36154,39.93746,833,4315
116.35117,39.93108,834,4315
116.34968,39.93084,835,4315
116.35051,39.90217,836,4315
116.35597,39.89794,837,4315
116.35742,39.88839,838,4315
116.36133,39.88799,839,4315
116.36383,39.88774,840,4315
116.36383,39.88774,841,4315
116.36803,39.88262,842,4315
116.36801,39.88203,843,4315
116.35739,39.88773,844,4315
116.34969,39.88812,845,4315
116.32947,39.88796,846,4315
116.32821,39.88515,847,4315
116.3203,39.88765,848,4315
116.32029,39.88835,849,4315
116.32287,39.89887,850,4315
116.31755,39.89835,851,4315
116.30901,39.90992,852,4315
116.28903,39.90192,853,4315
116.28747,39.89596,854,4315
116.24683,39.89526,855,4315
116.25071,39.89904,856,4315
116.25552,39.89903,857,4315
116.25552,39.89903,858,4315
116.26775,39.90622,859,4315
116.26824,39.90793,860,4315
116.27886,39.92308,861,4315
116.28254,39.92622,862,4315
116.28256,39.92728,863,4315
116.28254,39.92724,864,4315
116.28256,39.92908,865,4315
116.29002,39.93099,866,4315
116.30157,39.93107,867,4315
116.30295,39.95286,868,4315
116.30335,39.94905,869,4315
116.30335,39.94905,870,4315
116.30364,39.94435,871,4315
116.29286,39.94516,872,4315
116.28864,39.94427,873,4315
116.29563,39.94405,874,4315
116.29561,39.94403,875,4315
116.29561,39.94403,876,4315
116.29564,39.94398,877,4315
116.29564,39.94398,878,4315
116.29579,39.94394,879,4315
116.29583,39.94397,880,4315
116.29583,39.94397,881,4315
116.29583,39.94397,882,4315
116.29622,39.94383,883,4315
116.31724,39.93755,884,4315
116.31724,39.93755,885,4315
116.31906,39.94195,886,4315
116.31744,39.95481,887,4315
116.32784,39.95631,888,4315
116.31862,39.95557,889,4315
116.3169,39.95931,890,4315
116.30468,39.95565,891,4315
116.30357,39.9556,892,4315
116.30362,39.94682,893,4315
116.30404,39.9337,894,4315
116.29266,39.93109,895,4315
116.29063,39.92151,896,4315
116.29617,39.90828,897,4315
116.29263,39.90626,898,4315
116.29046,39.90621,899,4315
116.2891,39.90495,900,4315
116.2891,39.90495,901,4315
116.2891,39.90495,902,4315
116.28913,39.89695,903,4315
116.28899,39.88863,904,4315
116.29271,39.88825,905,4315
116.2927,39.8793,906,4315
116.27464,39.87541,907,4315
116.2769,39.85551,908,4315
116.28157,39.83263,909,4315
116.28386,39.82407,910,4315
116.28425,39.81578,911,4315
116.28694,39.8071,912,4315
116.28269,39.79854,913,4315
116.28281,39.79691,914,4315
116.2826,39.79224,915,4315
116.27808,39.78574,916,4315
116.27801,39.78567,917,4315
116.27649,39.78913,918,4315
116.28032,39.79145,919,4315
116.28272,39.79697,920,4315
116.28098,39.80165,921,4315
116.2855,39.81073,922,4315
116.2838,39.82665,923,4315
116.27984,39.84055,924,4315
116.27711,39.8596,925,4315
116.30429,39.86598,926,4315
116.32213,39.86671,927,4315
116.34097,39.86621,928,4315
116.34828,39.86407,929,4315
116.34908,39.86258,930,4315
116.34214,39.89566,931,4315
116.33076,39.89605,932,4315
116.32329,39.89579,933,4315
116.30425,39.91149,934,4315
116.30437,39.91647,935,4315
116.28877,39.92288,936,4315
116.28877,39.92288,937,4315
116.28409,39.92308,938,4315
116.2852,39.92606,939,4315
116.2856,39.92608,940,4315
116.27097,39.92344,941,4315
116.26953,39.92651,942,4315
116.27261,39.93992,943,4315
116.27636,39.93999,944,4315
116.29274,39.94503,945,4315
116.29953,39.94256,946,4315
116.31795,39.94923,947,4315
116.33406,39.95661,948,4315
116.33622,39.95691,949,4315
116.34456,39.94273,950,4315
116.3465,39.93702,951,4315
116.34634,39.93619,952,4315
116.35271,39.93754,953,4315
116.34353,39.93274,954,4315
116.35085,39.91774,955,4315
116.36813,39.9027,956,4315
116.36799,39.89873,957,4315
116.36819,39.89708,958,4315
116.36807,39.88632,959,4315
116.36153,39.87454,960,4315
116.34385,39.88204,961,4315
116.34738,39.89639,962,4315
116.35305,39.89756,963,4315
116.35123,39.89483,964,4315
116.35226,39.88792,965,4315
116.39925,39.89115,966,4315
116.42111,39.89197,967,4315
116.42518,39.89201,968,4315
116.42384,39.89188,969,4315
116.4249,39.88597,970,4315
116.41551,39.85658,971,4315
116.38122,39.85571,972,4315
116.34837,39.85087,973,4315
116.34837,39.86252,974,4315
116.34987,39.86322,975,4315
116.34812,39.86732,976,4315
116.34268,39.89065,977,4315
116.33647,39.90142,978,4315
116.33667,39.90227,979,4315
116.33829,39.92127,980,4315
116.33827,39.92144,981,4315
116.34719,39.91802,982,4315
116.34723,39.91746,983,4315
116.34642,39.90787,984,4315
116.33907,39.88833,985,4315
116.33404,39.88686,986,4315
116.32028,39.88729,987,4315
116.32163,39.88861,988,4315
116.32163,39.88861,989,4315
116.34774,39.87271,990,4315
116.34784,39.87078,991,4315
116.35502,39.86519,992,4315
116.34503,39.86844,993,4315
116.34503,39.86844,994,4315
116.35323,39.86796,995,4315
116.32777,39.86655,996,4315
116.33097,39.8746,997,4315
116.33043,39.87749,998,4315
116.34093,39.88827,999,4315
116.34748,39.88813,1000,4315
116.36099,39.8852,1001,4315
116.36174,39.88768,1002,4315
116.36706,39.88782,1003,4315
116.36746,39.88785,1004,4315
116.36838,39.89359,1005,4315
116.36835,39.89356,1006,4315
116.34341,39.93557,1007,4315
116.34326,39.9314,1008,4315
116.34724,39.92758,1009,4315
116.35037,39.91531,1010,4315
116.35031,39.9062,1011,4315
116.35678,39.89784,1012,4315
116.35738,39.88883,1013,4315
116.35741,39.88831,1014,4315
116.36162,39.88624,1015,4315
116.36109,39.8832,1016,4315
116.35306,39.8819,1017,4315
116.34742,39.88182,1018,4315
116.34759,39.8767,1019,4315
116.34787,39.8711,1020,4315
116.35999,39.86809,1021,4315
116.38407,39.86992,1022,4315
116.41922,39.86997,1023,4315
116.43821,39.87235,1024,4315
116.43662,39.89922,1025,4315
116.45366,39.90282,1026,4315
116.45586,39.90333,1027,4315
116.45577,39.90389,1028,4315
116.45574,39.90385,1029,4315
116.45522,39.90369,1030,4315
116.45522,39.90369,1031,4315
116.4378,39.89331,1032,4315
116.43997,39.87709,1033,4315
116.41369,39.86979,1034,4315
116.39401,39.87039,1035,4315
116.35712,39.87176,1036,4315
116.3565,39.87175,1037,4315
116.35097,39.87217,1038,4315
116.34823,39.86552,1039,4315
116.34904,39.86244,1040,4315
116.34882,39.86237,1041,4315
116.34819,39.86635,1042,4315
116.34441,39.87432,1043,4315
116.34441,39.87432,1044,4315
116.34863,39.86669,1045,4315
116.37296,39.8692,1046,4315
116.44801,39.87014,1047,4315
116.45215,39.87233,1048,4315
116.4524,39.8725,1049,4315
116.45205,39.87263,1050,4315
116.44587,39.87491,1051,4315
116.44014,39.87692,1052,4315
116.43414,39.88352,1053,4315
116.42957,39.89243,1054,4315
116.42203,39.89216,1055,4315
116.42703,39.88285,1056,4315
116.4332,39.87475,1057,4315
116.43273,39.86505,1058,4315
116.4324,39.85882,1059,4315
116.43891,39.85468,1060,4315
116.44547,39.85902,1061,4315
116.43265,39.85778,1062,4315
116.42601,39.85749,1063,4315
116.42584,39.85926,1064,4315
116.42034,39.8628,1065,4315
116.41671,39.85646,1066,4315
116.40517,39.85572,1067,4315
116.37531,39.85576,1068,4315
116.35225,39.85185,1069,4315
116.32182,39.84807,1070,4315
116.3103,39.85686,1071,4315
116.29757,39.85664,1072,4315
116.28789,39.8579,1073,4315
116.28248,39.92628,1074,4315
116.28248,39.92628,1075,4315
116.28246,39.92629,1076,4315
116.28246,39.92629,1077,4315
116.28246,39.92629,1078,4315
116.28246,39.92629,1079,4315
116.28247,39.92627,1080,4315
116.28247,39.92627,1081,4315
116.28247,39.92627,1082,4315
116.28248,39.92502,1083,4315
116.29041,39.91965,1084,4315
116.29607,39.91347,1085,4315
116.29614,39.90674,1086,4315
116.29609,39.90719,1087,4315
116.30794,39.91002,1088,4315
116.31495,39.90662,1089,4315
116.32829,39.90455,1090,4315
116.33605,39.90125,1091,4315
116.34165,39.89792,1092,4315
116.34254,39.88587,1093,4315
116.34836,39.86247,1094,4315
116.34805,39.86615,1095,4315
116.35203,39.87234,1096,4315
116.35505,39.87174,1097,4315
116.35751,39.87941,1098,4315
116.3573,39.88735,1099,4315
116.35267,39.88816,1100,4315
116.33652,39.88597,1101,4315
116.33578,39.87875,1102,4315
116.32053,39.87789,1103,4315
116.32045,39.88212,1104,4315
116.32024,39.88828,1105,4315
116.31962,39.89198,1106,4315
116.311,39.88639,1107,4315
116.30452,39.88769,1108,4315
116.296,39.89607,1109,4315
116.29596,39.90382,1110,4315
116.29793,39.90612,1111,4315
116.29793,39.90612,1112,4315
116.29804,39.90616,1113,4315
116.29804,39.90616,1114,4315
116.29894,39.90624,1115,4315
116.30439,39.88289,1116,4315
116.31076,39.88486,1117,4315
116.31086,39.87617,1118,4315
116.31106,39.88382,1119,4315
116.30454,39.88825,1120,4315
116.30392,39.89588,1121,4315
116.29605,39.90478,1122,4315
116.30314,39.90487,1123,4315
116.28898,39.90958,1124,4315
116.28908,39.91591,1125,4315
116.29047,39.91853,1126,4315
116.29004,39.94704,1127,4315
116.29004,39.94704,1128,4315
116.2822,39.94262,1129,4315
116.28733,39.94089,1130,4315
116.29018,39.92264,1131,4315
116.30097,39.92256,1132,4315
116.29535,39.92967,1133,4315
116.2967,39.93302,1134,4315
116.30292,39.94133,1135,4315
116.34503,39.93856,1136,4315
116.34595,39.93961,1137,4315
116.34137,39.94857,1138,4315
116.33378,39.94724,1139,4315
116.32046,39.95035,1140,4315
116.31796,39.95015,1141,4315
116.31654,39.93788,1142,4315
116.30276,39.94199,1143,4315
116.29722,39.9341,1144,4315
116.2973,39.93408,1145,4315
116.29698,39.93406,1146,4315
116.29698,39.93406,1147,4315
116.29698,39.93406,1148,4315
116.29698,39.93406,1149,4315
116.29698,39.93406,1150,4315
116.29698,39.93406,1151,4315
116.28253,39.93047,1152,4315
116.28252,39.92975,1153,4315
116.28252,39.92975,1154,4315
116.28568,39.92597,1155,4315
116.28444,39.92602,1156,4315
116.26929,39.93135,1157,4315
116.26845,39.93621,1158,4315
116.26417,39.96859,1159,4315
116.25732,39.97111,1160,4315
116.23948,39.97185,1161,4315
116.24099,39.96713,1162,4315
116.24969,39.97195,1163,4315
116.26928,39.95767,1164,4315
116.27472,39.93134,1165,4315
116.28248,39.92755,1166,4315
116.28248,39.92755,1167,4315
116.37308,39.95621,1168,4315
116.37366,39.96309,1169,4315
116.36379,40.0003,1170,4315
116.35988,40.00585,1171,4315
116.346,40.02423,1172,4315
116.34335,40.02813,1173,4315
116.35469,40.03298,1174,4315
116.35451,40.03295,1175,4315
116.35132,40.02902,1176,4315
116.34517,40.02859,1177,4315
116.34571,40.01734,1178,4315
116.34594,40.01258,1179,4315
116.34673,39.99227,1180,4315
116.34673,39.99227,1181,4315
116.34685,39.99068,1182,4315
116.3271,39.98463,1183,4315
116.32487,39.97968,1184,4315
116.31765,39.97975,1185,4315
116.31905,39.9752,1186,4315
116.3428,39.97519,1187,4315
116.35347,39.97522,1188,4315
116.37433,39.97994,1189,4315
116.37315,39.98437,1190,4315
116.3745,39.9698,1191,4315
116.3732,39.95871,1192,4315
116.3724,39.9483,1193,4315
116.36363,39.94687,1194,4315
116.34962,39.93216,1195,4315
116.34991,39.92523,1196,4315
116.35022,39.90792,1197,4315
116.35041,39.90252,1198,4315
116.34201,39.88644,1199,4315
116.34277,39.87736,1200,4315
116.33937,39.85529,1201,4315
116.33936,39.85529,1202,4315
116.34475,39.85967,1203,4315
116.34558,39.85984,1204,4315
116.34856,39.86272,1205,4315
116.34912,39.86273,1206,4315
116.35184,39.86675,1207,4315
116.35613,39.86708,1208,4315
116.34291,39.87076,1209,4315
116.34291,39.87076,1210,4315
116.3409,39.89661,1211,4315
116.3409,39.89661,1212,4315
116.32333,39.89577,1213,4315
116.30426,39.91263,1214,4315
116.30457,39.92311,1215,4315
116.28249,39.92659,1216,4315
116.28397,39.93094,1217,4315
116.304,39.93437,1218,4315
116.30374,39.9474,1219,4315
116.32993,39.96635,1220,4315
116.34883,39.96642,1221,4315
116.39779,39.96744,1222,4315
116.41515,39.96784,1223,4315
116.44093,39.99258,1224,4315
116.44093,39.99258,1225,4315
116.4471,40.0067,1226,4315
116.47233,40.03768,1227,4315
116.47653,40.05233,1228,4315
116.47615,40.091,1229,4315
116.4764,40.09536,1230,4315
116.47076,40.11072,1231,4315
116.47089,40.1112,1232,4315
116.46962,40.11073,1233,4315
116.46963,40.11078,1234,4315
116.46963,40.11078,1235,4315
116.469,40.11091,1236,4315
116.46905,40.11005,1237,4315
116.47171,40.11208,1238,4315
116.47463,40.11141,1239,4315
116.48093,40.09329,1240,4315
116.48754,40.09358,1241,4315
116.48762,40.09361,1242,4315
116.48762,40.09361,1243,4315
116.47734,40.09338,1244,4315
116.47734,40.09338,1245,4315
116.47142,40.10889,1246,4315
116.4668,40.11696,1247,4315
116.46561,40.11711,1248,4315
116.41077,40.11555,1249,4315
116.40849,40.11534,1250,4315
116.40711,40.08881,1251,4315
116.40714,40.08838,1252,4315
116.4066,40.06763,1253,4315
116.4066,40.06759,1254,4315
116.40589,40.04531,1255,4315
116.40577,40.04388,1256,4315
116.40166,40.00788,1257,4315
116.4017,40.00703,1258,4315
116.39944,39.98722,1259,4315
116.39771,39.98714,1260,4315
116.37477,39.97213,1261,4315
116.37457,39.97038,1262,4315
116.32539,39.96616,1263,4315
116.32294,39.966,1264,4315
116.30395,39.93702,1265,4315
116.30404,39.93534,1266,4315
116.29743,39.90618,1267,4315
116.29701,39.9061,1268,4315
116.30685,39.91044,1269,4315
116.30846,39.91011,1270,4315
116.32923,39.90669,1271,4315
116.32924,39.90656,1272,4315
116.33647,39.90188,1273,4315
116.33714,39.90186,1274,4315
116.35723,39.898,1275,4315
116.35918,39.89814,1276,4315
116.37648,39.89862,1277,4315
116.37773,39.8987,1278,4315
116.38907,39.88937,1279,4315
116.38907,39.88937,1280,4315
116.38482,39.87093,1281,4315
116.38307,39.87081,1282,4315
116.35836,39.86264,1283,4315
116.35836,39.86264,1284,4315
116.35842,39.86354,1285,4315
116.3482,39.86265,1286,4315
