x,y,k,tid
116.47136,39.89333,0,4551
116.49267,39.8918,1,4551
116.5159,39.89177,2,4551
116.50475,39.89201,3,4551
116.49013,39.8995,4,4551
116.47283,39.8992,5,4551
116.45602,39.90509,6,4551
116.45604,39.91165,7,4551
116.47117,39.91211,8,4551
116.48724,39.91407,9,4551
116.50525,39.91483,10,4551
116.49151,39.90714,11,4551
116.47989,39.90711,12,4551
116.45539,39.90122,13,4551
116.44349,39.85823,14,4551
116.41575,39.85811,15,4551
116.41713,39.86432,16,4551
116.41111,39.85593,17,4551
116.39495,39.83548,18,4551
116.40734,39.84091,19,4551
116.40832,39.85061,20,4551
116.47169,39.90347,21,4551
116.5027,39.91466,22,4551
116.51133,39.93292,23,4551
116.48592,39.9217,24,4551
116.45206,39.92187,25,4551
116.44073,39.92178,26,4551
116.43049,39.92911,27,4551
116.43818,39.88959,28,4551
116.43237,39.8586,29,4551
116.47363,39.86983,30,4551
116.4786,39.84771,31,4551
116.46989,39.85572,32,4551
116.48015,39.85215,33,4551
116.48403,39.89051,34,4551
116.48403,39.89051,35,4551
116.52065,39.89181,36,4551
116.52305,39.90431,37,4551
116.51994,39.9153,38,4551
116.52411,39.9157,39,4551
116.53604,39.91503,40,4551
116.55653,39.91501,41,4551
116.57094,39.90874,42,4551
116.58177,39.90361,43,4551
116.57296,39.90831,44,4551
116.5684,39.90811,45,4551
116.57117,39.90602,46,4551
116.57151,39.90011,47,4551
116.57572,39.8988,48,4551
116.57543,39.89872,49,4551
116.57138,39.90016,50,4551
116.55812,39.90852,51,4551
116.53179,39.90856,52,4551
116.49999,39.9069,53,4551
116.4765,39.90792,54,4551
116.47156,39.91229,55,4551
116.47156,39.91229,56,4551
116.47173,39.90841,57,4551
116.48474,39.90477,58,4551
116.48924,39.90652,59,4551
116.48924,39.90652,60,4551
116.49234,39.90657,61,4551
116.51182,39.90656,62,4551
116.50229,39.98934,63,4551
116.54341,40.02584,64,4551
116.54341,40.02584,65,4551
116.58373,40.05907,66,4551
116.58162,40.07933,67,4551
116.58689,40.06149,68,4551
116.56987,40.03453,69,4551
116.54212,40.02405,70,4551
116.48345,39.98663,71,4551
116.46549,39.96458,72,4551
116.45511,39.95057,73,4551
116.44918,39.93613,74,4551
116.45522,39.92847,75,4551
116.45493,39.91863,76,4551
116.45513,39.91492,77,4551
116.45523,39.91458,78,4551
116.45599,39.91369,79,4551
116.44847,39.9564,80,4551
116.40199,39.96767,81,4551
116.36503,39.96691,82,4551
116.36346,39.98372,83,4551
116.38513,39.98646,84,4551
116.41727,39.98732,85,4551
116.44919,39.97902,86,4551
116.46157,39.95732,87,4551
116.44544,39.94652,88,4551
116.42572,39.94822,89,4551
116.37354,39.94751,90,4551
116.3544,39.94375,91,4551
116.32979,39.9369,92,4551
116.30375,39.9374,93,4551
116.29811,39.93092,94,4551
116.30424,39.94099,95,4551
116.31767,39.95299,96,4551
116.34476,39.96633,97,4551
116.40602,39.96746,98,4551
116.40602,39.96746,99,4551
116.41256,39.95201,100,4551
116.42804,39.92724,101,4551
116.423,39.8993,102,4551
116.42145,39.89919,103,4551
116.43041,39.91186,104,4551
116.43775,39.89594,105,4551
116.41325,39.86995,106,4551
116.40738,39.86794,107,4551
116.40066,39.88673,108,4551
116.42148,39.89217,109,4551
116.42934,39.91065,110,4551
116.44086,39.93184,111,4551
116.44069,39.93132,112,4551
116.4243,39.94836,113,4551
116.37317,39.95408,114,4551
116.3336,39.96628,115,4551
116.31157,39.97453,116,4551
116.30242,39.97748,117,4551
116.42748,39.93784,118,4551
116.44061,39.9309,119,4551
116.44056,39.93148,120,4551
116.44051,39.93079,121,4551
116.43413,39.93241,122,4551
116.3925,39.94767,123,4551
116.3925,39.94767,124,4551
116.3346,39.93708,125,4551
116.28444,39.94724,126,4551
116.28234,39.95472,127,4551
116.28184,39.94095,128,4551
116.26929,39.94456,129,4551
116.29656,39.94359,130,4551
116.34957,39.93973,131,4551
116.41106,39.94786,132,4551
116.44077,39.93148,133,4551
116.44052,39.93134,134,4551
116.44335,39.93226,135,4551
116.46695,39.93232,136,4551
116.48689,39.91406,137,4551
116.51689,39.91114,138,4551
116.47898,39.90692,139,4551
116.44077,39.93103,140,4551
116.44067,39.93072,141,4551
116.44051,39.93114,142,4551
116.43014,39.93249,143,4551
116.41648,39.90713,144,4551
116.34823,39.89705,145,4551
116.33388,39.88487,146,4551
116.33388,39.88487,147,4551
116.34372,39.89632,148,4551
116.38469,39.89879,149,4551
116.42823,39.93076,150,4551
116.44064,39.93108,151,4551
116.44382,39.93233,152,4551
116.49837,39.92936,153,4551
116.48028,39.93245,154,4551
116.45603,39.93248,155,4551
116.44055,39.93107,156,4551
116.44056,39.9313,157,4551
116.44056,39.93137,158,4551
116.49578,39.93182,159,4551
116.46269,39.93244,160,4551
116.44054,39.93129,161,4551
116.43773,39.92719,162,4551
116.44067,39.93117,163,4551
116.44075,39.93193,164,4551
116.39997,39.9477,165,4551
116.34898,39.95505,166,4551
116.34608,39.99206,167,4551
116.34608,39.99206,168,4551
116.33113,39.99161,169,4551
116.44827,39.97975,170,4551
116.48372,39.93581,171,4551
116.5093,39.90662,172,4551
116.5093,39.90662,173,4551
116.56746,39.90842,174,4551
116.5757,39.8988,175,4551
116.57106,39.90837,176,4551
116.56592,39.89638,177,4551
116.571,39.91364,178,4551
116.571,39.91364,179,4551
116.5478,39.91515,180,4551
116.52409,39.92254,181,4551
116.49686,39.92191,182,4551
116.47305,39.92171,183,4551
116.45569,39.92788,184,4551
116.46497,39.95081,185,4551
116.46658,39.93123,186,4551
116.47199,39.91824,187,4551
116.46568,39.91075,188,4551
116.46842,39.91243,189,4551
116.47189,39.91388,190,4551
116.46939,39.91773,191,4551
116.47176,39.91544,192,4551
116.49238,39.91426,193,4551
116.49804,39.91438,194,4551
116.52042,39.91175,195,4551
116.49668,39.90703,196,4551
116.48279,39.90854,197,4551
116.48283,39.87321,198,4551
116.49267,39.89962,199,4551
116.40199,39.98715,200,4551
116.39047,39.96757,201,4551
116.44713,39.95707,202,4551
116.45563,39.95478,203,4551
116.41869,39.9683,204,4551
116.41493,39.98488,205,4551
116.41316,39.98769,206,4551
116.37992,39.98786,207,4551
116.37266,39.96648,208,4551
116.39474,39.96713,209,4551
116.43962,39.96225,210,4551
116.44382,39.97066,211,4551
116.44152,39.96602,212,4551
116.43499,39.95886,213,4551
116.43224,39.96658,214,4551
116.43234,39.96655,215,4551
116.43249,39.96648,216,4551
116.41998,39.95594,217,4551
116.42971,39.96295,218,4551
116.42851,39.95822,219,4551
116.4242,39.94808,220,4551
116.4286,39.91545,221,4551
116.42106,39.90463,222,4551
116.41205,39.90515,223,4551
116.41162,39.9228,224,4551
116.42706,39.92298,225,4551
116.42763,39.94397,226,4551
116.3878,39.94764,227,4551
116.35861,39.96652,228,4551
116.3438,39.96641,229,4551
116.32522,39.96626,230,4551
116.30045,39.9711,231,4551
116.73893,40.33132,232,4551
116.73893,40.33132,233,4551
116.30652,39.96267,234,4551
116.30396,39.9398,235,4551
116.30393,39.91238,236,4551
116.30417,39.88579,237,4551
116.28897,39.86519,238,4551
116.28815,39.86274,239,4551
116.32501,39.86654,240,4551
116.32501,39.86654,241,4551
116.3666,39.8685,242,4551
116.38139,39.87478,243,4551
116.38844,39.88486,244,4551
116.39056,39.88492,245,4551
116.40595,39.88684,246,4551
116.41471,39.87759,247,4551
116.41562,39.87441,248,4551
116.42649,39.88278,249,4551
116.43276,39.86665,250,4551
116.43056,39.86454,251,4551
116.43235,39.85872,252,4551
116.44739,39.85336,253,4551
116.45107,39.84011,254,4551
116.4366,39.84439,255,4551
116.43658,39.8693,256,4551
116.43946,39.8753,257,4551
116.4546,39.87153,258,4551
116.45887,39.87006,259,4551
116.48787,39.86957,260,4551
116.49655,39.85634,261,4551
116.49509,39.87332,262,4551
116.4703,39.88312,263,4551
116.45734,39.88317,264,4551
116.45455,39.88317,265,4551
116.43847,39.87384,266,4551
116.44616,39.86654,267,4551
116.45785,39.86996,268,4551
116.47579,39.86776,269,4551
116.48399,39.88808,270,4551
116.49657,39.89858,271,4551
116.48231,39.89943,272,4551
116.4824,39.89942,273,4551
116.48458,39.9041,274,4551
116.4765,39.93244,275,4551
116.47214,39.93081,276,4551
116.47186,39.9154,277,4551
116.4716,39.90594,278,4551
116.4597,39.91222,279,4551
116.44433,39.91382,280,4551
116.44422,39.9289,281,4551
116.44057,39.94869,282,4551
116.43801,39.95898,283,4551
116.43801,39.95898,284,4551
116.4349,39.96478,285,4551
116.44397,39.94526,286,4551
116.45546,39.93644,287,4551
116.46904,39.90679,288,4551
116.46959,39.90675,289,4551
116.4701,39.9067,290,4551
116.48346,39.875,291,4551
116.48464,39.82933,292,4551
116.4939,39.80474,293,4551
116.49318,39.79573,294,4551
116.4931,39.80517,295,4551
116.48065,39.83317,296,4551
116.48402,39.88502,297,4551
116.49021,39.90647,298,4551
116.48307,39.9046,299,4551
116.49657,39.89557,300,4551
116.4695,39.8921,301,4551
116.4313,39.89239,302,4551
116.41276,39.88668,303,4551
116.40666,39.88686,304,4551
116.43088,39.87684,305,4551
116.4324,39.85867,306,4551
116.42629,39.85549,307,4551
116.41587,39.85723,308,4551
116.39187,39.87031,309,4551
116.36735,39.87709,310,4551
116.38048,39.87751,311,4551
116.3785,39.88767,312,4551
116.35718,39.8947,313,4551
116.35487,39.8981,314,4551
116.34974,39.93122,315,4551
116.34432,39.96657,316,4551
116.36773,39.96631,317,4551
116.39456,39.96706,318,4551
116.40998,39.96764,319,4551
116.4555,39.93827,320,4551
116.47112,39.90673,321,4551
116.51245,39.91543,322,4551
116.54463,39.9147,323,4551
116.57068,39.9135,324,4551
116.58102,39.91226,325,4551
116.56846,39.90818,326,4551
116.57195,39.89911,327,4551
116.57571,39.89879,328,4551
116.57132,39.90011,329,4551
116.57088,39.91335,330,4551
116.54835,39.91489,331,4551
116.5237,39.91589,332,4551
116.5237,39.91589,333,4551
116.50914,39.92204,334,4551
116.47583,39.92168,335,4551
116.45598,39.92207,336,4551
116.44668,39.92212,337,4551
116.44664,39.92585,338,4551
116.48351,39.92221,339,4551
116.49676,39.91441,340,4551
116.49588,39.91536,341,4551
116.50231,39.93656,342,4551
116.51201,39.92184,343,4551
116.52236,39.9158,344,4551
116.54164,39.91485,345,4551
116.56476,39.91445,346,4551
116.57054,39.89597,347,4551
116.57546,39.89874,348,4551
116.57169,39.90167,349,4551
116.57094,39.91368,350,4551
116.55065,39.91485,351,4551
116.53229,39.90867,352,4551
116.50941,39.90694,353,4551
116.50274,39.91471,354,4551
116.52069,39.91591,355,4551
116.53789,39.91488,356,4551
116.55628,39.91488,357,4551
116.57053,39.9103,358,4551
116.57179,39.89991,359,4551
116.57562,39.8988,360,4551
116.55236,39.90848,361,4551
116.51427,39.90701,362,4551
116.40331,39.90672,363,4551
116.37829,39.89878,364,4551
116.35757,39.89843,365,4551
116.31414,39.896,366,4551
116.31128,39.89563,367,4551
116.31406,39.89539,368,4551
116.31467,39.89501,369,4551
116.34952,39.89702,370,4551
116.36816,39.89421,371,4551
116.35387,39.88812,372,4551
116.33669,39.86684,373,4551
116.30742,39.86094,374,4551
116.31256,39.85051,375,4551
116.31256,39.85051,376,4551
116.31694,39.84658,377,4551
116.36786,39.8686,378,4551
116.40727,39.87168,379,4551
116.41527,39.87243,380,4551
116.43149,39.87996,381,4551
116.455,39.8783,382,4551
116.40673,39.85571,383,4551
116.38181,39.86383,384,4551
116.42837,39.92416,385,4551
116.44055,39.93105,386,4551
116.44051,39.93137,387,4551
116.40185,39.95722,388,4551
116.40758,39.96067,389,4551
116.41879,39.96115,390,4551
116.43373,39.95137,391,4551
116.42788,39.9309,392,4551
116.43903,39.88367,393,4551
116.39155,39.87031,394,4551
116.38054,39.85605,395,4551
116.42623,39.86939,396,4551
116.4399,39.93028,397,4551
116.44076,39.93107,398,4551
116.44078,39.93093,399,4551
116.449,39.93233,400,4551
116.45188,39.95427,401,4551
116.45146,39.98297,402,4551
116.46176,40.0013,403,4551
116.45723,40.01302,404,4551
116.45692,39.99581,405,4551
116.46032,39.98152,406,4551
116.44844,39.95835,407,4551
116.45043,39.9546,408,4551
116.45554,39.90789,409,4551
116.45494,39.86667,410,4551
116.45963,39.89225,411,4551
116.45556,39.91992,412,4551
116.45556,39.91992,413,4551
116.44079,39.93207,414,4551
116.4548,39.93227,415,4551
116.45515,39.90122,416,4551
116.45612,39.91182,417,4551
116.44076,39.93163,418,4551
116.45551,39.94443,419,4551
116.44516,39.96091,420,4551
116.44428,39.93979,421,4551
116.44057,39.93111,422,4551
116.44055,39.93122,423,4551
116.46086,39.93065,424,4551
116.46432,39.91494,425,4551
116.49064,39.90663,426,4551
116.55567,39.90786,427,4551
116.57108,39.90765,428,4551
116.57567,39.89879,429,4551
116.57178,39.90122,430,4551
116.57114,39.9067,431,4551
116.55728,39.91501,432,4551
116.5346,39.91519,433,4551
116.51743,39.90774,434,4551
116.50962,39.90685,435,4551
116.45088,39.90713,436,4551
116.44783,39.92195,437,4551
116.46853,39.91224,438,4551
116.45603,39.91244,439,4551
116.4719,39.91229,440,4551
116.47164,39.90466,441,4551
116.47135,39.89219,442,4551
116.46464,39.87812,443,4551
116.47607,39.8829,444,4551
116.4914,39.89955,445,4551
116.4914,39.89955,446,4551
116.48515,39.90787,447,4551
116.46916,39.90679,448,4551
116.46997,39.90656,449,4551
116.46997,39.90656,450,4551
116.48012,39.90687,451,4551
116.54268,39.90762,452,4551
116.55947,39.90264,453,4551
116.5715,39.90324,454,4551
116.56223,39.91471,455,4551
116.53853,39.91497,456,4551
116.53603,39.91507,457,4551
116.51247,39.91645,458,4551
116.49593,39.92447,459,4551
116.50039,39.93129,460,4551
116.47962,39.92168,461,4551
116.48273,39.91184,462,4551
116.49391,39.90659,463,4551
116.54614,39.90778,464,4551
116.58668,39.90796,465,4551
116.61489,39.90505,466,4551
116.63245,39.90162,467,4551
116.66053,39.8847,468,4551
116.66141,39.88344,469,4551
116.63875,39.89337,470,4551
116.61886,39.91084,471,4551
116.60011,39.91159,472,4551
116.585,39.91888,473,4551
116.54627,39.92284,474,4551
116.51193,39.922,475,4551
116.51193,39.922,476,4551
116.48413,39.93209,477,4551
116.46849,39.93558,478,4551
116.47195,39.92214,479,4551
116.47145,39.90578,480,4551
116.47115,39.88382,481,4551
116.48021,39.86999,482,4551
116.50206,39.85574,483,4551
116.49485,39.87273,484,4551
116.48406,39.91406,485,4551
116.46729,39.91477,486,4551
116.4681,39.90585,487,4551
116.42946,39.90718,488,4551
116.4071,39.908,489,4551
116.42012,39.92045,490,4551
116.43401,39.92275,491,4551
116.4406,39.93145,492,4551
116.44946,39.92574,493,4551
116.44072,39.93083,494,4551
116.43481,39.90675,495,4551
116.43757,39.93091,496,4551
116.42966,39.93251,497,4551
116.42711,39.94713,498,4551
116.38208,39.94759,499,4551
116.31155,39.94471,500,4551
116.32955,39.93674,501,4551
116.38497,39.9475,502,4551
116.43042,39.93227,503,4551
116.42753,39.94424,504,4551
116.42753,39.94424,505,4551
116.36184,39.94626,506,4551
116.33888,39.96652,507,4551
116.33268,39.97096,508,4551
116.37385,39.96588,509,4551
116.41342,39.948,510,4551
116.44064,39.93105,511,4551
116.44056,39.93142,512,4551
116.39498,39.93213,513,4551
116.34947,39.93014,514,4551
116.33169,39.9064,515,4551
116.34465,39.91705,516,4551
116.36821,39.94732,517,4551
116.42751,39.937,518,4551
116.44365,39.93228,519,4551
116.45552,39.95133,520,4551
116.48278,39.96948,521,4551
116.49044,39.97057,522,4551
116.47446,39.95411,523,4551
116.4553,39.94473,524,4551
116.44058,39.93116,525,4551
116.45503,39.89973,526,4551
116.45299,39.89592,527,4551
116.44426,39.93567,528,4551
116.4411,39.93246,529,4551
116.4358,39.93962,530,4551
116.43747,39.93568,531,4551
116.46092,39.932,532,4551
116.46087,39.92315,533,4551
116.44849,39.93239,534,4551
116.42924,39.93227,535,4551
116.42127,39.90695,536,4551
116.36441,39.89655,537,4551
116.34676,39.88827,538,4551
116.42337,39.8697,539,4551
116.44639,39.90244,540,4551
116.52108,39.90797,541,4551
116.56843,39.90821,542,4551
116.57487,39.89854,543,4551
117.24117,40.19167,544,4551
116.57568,32.1283,545,4551
116.57568,32.1283,546,4551
