x,y,k,tid
116.44469,39.87436,0,4769
116.43984,39.87972,1,4769
116.42965,39.9056,2,4769
116.43239,39.92245,3,4769
116.4424,39.92137,4,4769
116.4515,39.91723,5,4769
116.45288,39.91256,6,4769
116.45509,39.908,7,4769
116.44954,39.88642,8,4769
116.44464,39.87852,9,4769
116.44475,39.87136,10,4769
116.44124,39.87036,11,4769
116.4303,39.90102,12,4769
116.43032,39.90671,13,4769
116.43032,39.90671,14,4769
116.44116,39.92559,15,4769
116.44897,39.92239,16,4769
116.46339,39.91581,17,4769
116.47175,39.90842,18,4769
116.48334,39.88767,19,4769
116.46429,39.88317,20,4769
116.45571,39.9105,21,4769
116.45424,39.9307,22,4769
116.45079,39.93153,23,4769
116.45524,39.95128,24,4769
116.44262,39.958,25,4769
116.42984,39.9533,26,4769
116.42094,39.95809,27,4769
116.41393,39.96291,28,4769
116.41391,39.96267,29,4769
116.41754,39.96387,30,4769
116.41883,39.9587,31,4769
116.41903,39.94942,32,4769
116.41898,39.94873,33,4769
116.41958,39.9354,34,4769
116.41999,39.92325,35,4769
116.41422,39.91429,36,4769
116.40551,39.9141,37,4769
116.40073,39.90366,38,4769
116.41288,39.90683,39,4769
116.43434,39.90713,40,4769
116.45574,39.90631,41,4769
116.45552,39.917,42,4769
116.45299,39.95338,43,4769
116.44415,39.95946,44,4769
116.44526,39.95799,45,4769
116.44441,39.94624,46,4769
116.45539,39.93706,47,4769
116.45543,39.92439,48,4769
116.45513,39.89269,49,4769
116.49687,39.81977,50,4769
116.51473,39.79761,51,4769
116.54595,39.75587,52,4769
116.54913,39.75542,53,4769
116.54735,39.75634,54,4769
116.54634,39.75603,55,4769
116.52423,39.77834,56,4769
116.50834,39.79811,57,4769
116.48959,39.80963,58,4769
116.47463,39.84047,59,4769
116.48374,39.89056,60,4769
116.49121,39.92172,61,4769
116.48484,39.92186,62,4769
116.4787,39.92192,63,4769
116.48093,39.85912,64,4769
116.49478,39.82123,65,4769
116.5013,39.80685,66,4769
116.50132,39.80691,67,4769
116.50133,39.80684,68,4769
116.50134,39.80687,69,4769
116.5013,39.80691,70,4769
116.50133,39.80693,71,4769
116.50107,39.80712,72,4769
116.50097,39.80722,73,4769
116.47427,39.82478,74,4769
116.42099,39.83097,75,4769
116.35208,39.82987,76,4769
116.34211,39.86338,77,4769
116.34271,39.883,78,4769
116.34256,39.89338,79,4769
116.35069,39.89945,80,4769
116.35069,39.89945,81,4769
116.35035,39.90778,82,4769
116.35014,39.92136,83,4769
116.3493,39.95133,84,4769
116.32908,39.95512,85,4769
116.32797,39.95356,86,4769
116.33046,39.94924,87,4769
116.32922,39.95562,88,4769
116.32969,39.9518,89,4769
116.32848,39.98622,90,4769
116.3311,39.99722,91,4769
116.3249,40.0122,92,4769
116.31311,40.0153,93,4769
116.31152,40.01474,94,4769
116.31362,39.99822,95,4769
116.315,39.99828,96,4769
116.32228,39.99622,97,4769
116.32673,39.98917,98,4769
116.35101,39.98541,99,4769
116.36498,39.95462,100,4769
116.42072,39.94824,101,4769
116.42814,39.92274,102,4769
116.43448,39.92529,103,4769
116.43408,39.92559,104,4769
116.43545,39.9228,105,4769
116.42775,39.93591,106,4769
116.40197,39.95024,107,4769
116.4013,39.96672,108,4769
116.39553,39.97516,109,4769
116.38187,39.97871,110,4769
116.38696,39.97944,111,4769
116.38799,39.97289,112,4769
116.38815,39.9697,113,4769
116.38763,39.94407,114,4769
116.38974,39.93725,115,4769
116.38763,39.92705,116,4769
116.40843,39.93199,117,4769
116.42611,39.93225,118,4769
116.42719,39.94706,119,4769
116.39628,39.96218,120,4769
116.39883,39.96732,121,4769
116.40567,39.96887,122,4769
116.40119,39.97138,123,4769
116.41863,39.96776,124,4769
116.43203,39.96683,125,4769
116.44849,39.97894,126,4769
116.44849,39.97894,127,4769
116.46145,39.98885,128,4769
116.46211,39.99537,129,4769
116.47089,39.98669,130,4769
116.44221,39.98397,131,4769
116.38708,39.98187,132,4769
116.38176,39.98224,133,4769
116.38799,39.97305,134,4769
116.41239,39.96753,135,4769
116.44081,39.96108,136,4769
116.45535,39.92023,137,4769
116.45546,39.90506,138,4769
116.44708,39.86099,139,4769
116.49829,39.81885,140,4769
116.51086,39.7994,141,4769
116.52581,39.77501,142,4769
116.54684,39.75606,143,4769
116.54912,39.75541,144,4769
116.54911,39.75543,145,4769
116.54909,39.75545,146,4769
116.54905,39.75547,147,4769
116.54908,39.75544,148,4769
116.54902,39.7555,149,4769
116.54906,39.75549,150,4769
116.54907,39.75547,151,4769
116.54906,39.75547,152,4769
116.54906,39.75547,153,4769
116.54906,39.75547,154,4769
116.54906,39.75547,155,4769
116.54907,39.75544,156,4769
116.54908,39.75546,157,4769
116.54908,39.75545,158,4769
116.54907,39.75543,159,4769
116.54907,39.75543,160,4769
116.54907,39.75545,161,4769
116.54911,39.75543,162,4769
116.5491,39.75546,163,4769
116.54907,39.75547,164,4769
116.54912,39.75545,165,4769
116.54906,39.75542,166,4769
116.54912,39.75544,167,4769
116.54907,39.75544,168,4769
116.54907,39.75542,169,4769
116.54907,39.75544,170,4769
116.54905,39.75542,171,4769
116.54907,39.75543,172,4769
116.54905,39.75544,173,4769
116.54906,39.75543,174,4769
116.54907,39.75544,175,4769
116.54907,39.75545,176,4769
116.54906,39.75543,177,4769
116.54909,39.75545,178,4769
116.54909,39.75545,179,4769
116.5491,39.75547,180,4769
116.54909,39.75544,181,4769
116.5491,39.75545,182,4769
116.5491,39.75545,183,4769
116.54907,39.75544,184,4769
116.54913,39.75546,185,4769
116.5491,39.75545,186,4769
116.5491,39.75542,187,4769
116.54911,39.75544,188,4769
116.54908,39.75543,189,4769
116.54911,39.75544,190,4769
116.54909,39.75543,191,4769
116.54911,39.75542,192,4769
116.54911,39.75543,193,4769
116.54911,39.75545,194,4769
116.54909,39.75543,195,4769
116.54911,39.75545,196,4769
116.5491,39.75543,197,4769
116.54909,39.75543,198,4769
116.54912,39.75543,199,4769
116.54912,39.75542,200,4769
116.5491,39.75541,201,4769
116.5491,39.75545,202,4769
116.5491,39.75544,203,4769
116.54911,39.75544,204,4769
116.54911,39.75544,205,4769
116.54914,39.75543,206,4769
116.54913,39.75544,207,4769
116.54913,39.75543,208,4769
116.54914,39.75544,209,4769
116.54912,39.75616,210,4769
116.52457,39.76521,211,4769
116.48294,39.79569,212,4769
116.44895,39.82216,213,4769
116.42352,39.83093,214,4769
116.35256,39.82985,215,4769
116.32811,39.84767,216,4769
116.3055,39.88323,217,4769
116.31502,39.88733,218,4769
116.31517,39.89037,219,4769
116.31513,39.88819,220,4769
116.33796,39.88827,221,4769
116.35275,39.88404,222,4769
116.35253,39.88704,223,4769
116.35691,39.89492,224,4769
116.3569,39.89494,225,4769
116.34571,39.88822,226,4769
116.30665,39.88643,227,4769
116.30585,39.88632,228,4769
116.3151,39.88845,229,4769
116.32672,39.8886,230,4769
116.36835,39.89128,231,4769
116.36836,39.89585,232,4769
116.36824,39.89769,233,4769
116.3866,39.90609,234,4769
116.40466,39.9066,235,4769
116.40981,39.90626,236,4769
116.42043,39.89925,237,4769
116.45213,39.89384,238,4769
116.42113,39.89229,239,4769
116.40573,39.89919,240,4769
116.39523,39.89924,241,4769
116.37011,39.90602,242,4769
116.36729,39.90886,243,4769
116.37152,39.91402,244,4769
116.37132,39.91763,245,4769
116.37131,39.91764,246,4769
116.38481,39.91928,247,4769
116.38545,39.90361,248,4769
116.3855,39.89946,249,4769
116.3884,39.89356,250,4769
116.38902,39.88934,251,4769
116.40978,39.88691,252,4769
116.4247,39.88272,253,4769
116.44469,39.88228,254,4769
116.44469,39.88015,255,4769
116.46531,39.88306,256,4769
116.46531,39.88306,257,4769
116.46975,39.88302,258,4769
116.46975,39.88302,259,4769
116.4627,39.8782,260,4769
116.45533,39.88673,261,4769
116.4557,39.91156,262,4769
116.4557,39.91156,263,4769
116.4557,39.91156,264,4769
116.44104,39.97105,265,4769
116.44325,39.97374,266,4769
116.44242,39.9632,267,4769
116.40664,39.96052,268,4769
116.4001,39.96035,269,4769
116.40027,39.9597,270,4769
116.40025,39.95986,271,4769
116.40011,39.95973,272,4769
116.40399,39.94737,273,4769
116.41043,39.94222,274,4769
116.41086,39.93279,275,4769
116.41998,39.92346,276,4769
116.41414,39.91423,277,4769
116.41171,39.90725,278,4769
116.41203,39.90274,279,4769
116.42017,39.89589,280,4769
116.43392,39.88898,281,4769
116.44467,39.87992,282,4769
116.44458,39.87248,283,4769
116.44458,39.87248,284,4769
116.44444,39.8701,285,4769
116.4421,39.87029,286,4769
116.43028,39.89979,287,4769
116.40505,39.90677,288,4769
116.37769,39.90597,289,4769
116.35054,39.90884,290,4769
116.34027,39.93589,291,4769
116.36181,39.93137,292,4769
116.36723,39.9219,293,4769
116.36723,39.9219,294,4769
116.36728,39.92006,295,4769
116.35887,39.92216,296,4769
116.36017,39.92242,297,4769
116.36229,39.92249,298,4769
116.35981,39.92452,299,4769
116.36169,39.92931,300,4769
116.38443,39.93199,301,4769
116.40251,39.93193,302,4769
116.41071,39.93827,303,4769
116.4194,39.93913,304,4769
116.42621,39.93224,305,4769
116.42893,39.89635,306,4769
116.42458,39.8951,307,4769
116.42195,39.89603,308,4769
116.41881,39.9034,309,4769
116.41927,39.90354,310,4769
116.43228,39.89759,311,4769
116.43323,39.89328,312,4769
116.43395,39.88835,313,4769
116.4468,39.88029,314,4769
116.44914,39.88006,315,4769
116.44461,39.87386,316,4769
116.44467,39.87221,317,4769
116.43353,39.86457,318,4769
116.42779,39.86467,319,4769
116.41789,39.86431,320,4769
116.41551,39.85874,321,4769
116.41323,39.85599,322,4769
116.39376,39.85334,323,4769
116.39518,39.82488,324,4769
116.39591,39.80978,325,4769
116.38803,39.80152,326,4769
116.38661,39.80165,327,4769
116.40746,39.80379,328,4769
116.41394,39.78943,329,4769
116.43972,39.76833,330,4769
116.48949,39.76309,331,4769
116.50625,39.76059,332,4769
116.50867,39.76494,333,4769
116.50868,39.76511,334,4769
116.53198,39.75588,335,4769
116.54912,39.75537,336,4769
116.54912,39.75536,337,4769
116.5387,39.76153,338,4769
116.51413,39.79107,339,4769
116.50118,39.80706,340,4769
116.50117,39.80707,341,4769
116.50115,39.80704,342,4769
116.50119,39.80707,343,4769
116.50118,39.80705,344,4769
116.50118,39.80705,345,4769
116.50117,39.80704,346,4769
116.50117,39.80707,347,4769
116.50116,39.8071,348,4769
116.50115,39.8071,349,4769
116.50119,39.80706,350,4769
116.50118,39.80705,351,4769
116.50114,39.80707,352,4769
116.50113,39.80713,353,4769
116.50114,39.80711,354,4769
116.50179,39.80628,355,4769
116.50176,39.80633,356,4769
116.50084,39.80741,357,4769
116.47534,39.82369,358,4769
116.46469,39.83625,359,4769
116.39548,39.83097,360,4769
116.34212,39.86351,361,4769
116.3431,39.87744,362,4769
116.34311,39.89602,363,4769
116.35064,39.90018,364,4769
116.35031,39.90765,365,4769
116.34938,39.93928,366,4769
116.34938,39.93928,367,4769
116.33964,39.95698,368,4769
116.33963,39.95698,369,4769
116.33966,39.95698,370,4769
116.33419,39.95668,371,4769
116.33262,39.9661,372,4769
116.40464,39.96755,373,4769
116.45211,39.95382,374,4769
116.45472,39.86851,375,4769
116.48208,39.83165,376,4769
116.5097,39.80291,377,4769
116.51105,39.79468,378,4769
116.53372,39.76649,379,4769
116.53372,39.76649,380,4769
116.54908,39.75547,381,4769
116.54909,39.75548,382,4769
116.54912,39.75549,383,4769
116.54906,39.75544,384,4769
116.54913,39.75548,385,4769
116.54907,39.75544,386,4769
116.54905,39.75544,387,4769
116.54908,39.75542,388,4769
116.54911,39.75545,389,4769
116.54908,39.75542,390,4769
116.54908,39.75542,391,4769
116.54908,39.75546,392,4769
116.54911,39.75544,393,4769
116.54907,39.75545,394,4769
116.5491,39.75544,395,4769
116.5491,39.75547,396,4769
116.54911,39.75545,397,4769
116.54909,39.75544,398,4769
116.5491,39.75544,399,4769
116.54912,39.75546,400,4769
116.5491,39.75547,401,4769
116.54911,39.75546,402,4769
116.54911,39.75547,403,4769
116.5491,39.75546,404,4769
116.54911,39.75545,405,4769
116.54911,39.75547,406,4769
116.54911,39.75545,407,4769
116.54911,39.75545,408,4769
116.54912,39.75545,409,4769
116.54912,39.75541,410,4769
116.54908,39.75542,411,4769
116.54911,39.75542,412,4769
116.54909,39.75543,413,4769
116.54911,39.75542,414,4769
116.54912,39.75541,415,4769
116.54912,39.75542,416,4769
116.54912,39.75542,417,4769
116.54909,39.75543,418,4769
116.54911,39.75542,419,4769
116.54911,39.75541,420,4769
116.54909,39.75542,421,4769
116.54911,39.75543,422,4769
116.54908,39.75544,423,4769
116.54909,39.75543,424,4769
116.54907,39.75547,425,4769
116.5491,39.75548,426,4769
116.54906,39.75544,427,4769
116.5491,39.75544,428,4769
116.54905,39.75547,429,4769
116.5491,39.75543,430,4769
116.54909,39.75546,431,4769
116.5491,39.75544,432,4769
116.54909,39.75548,433,4769
116.54911,39.75547,434,4769
116.54911,39.75547,435,4769
116.54911,39.75545,436,4769
116.54909,39.75546,437,4769
116.54912,39.75544,438,4769
116.5491,39.75547,439,4769
116.54913,39.75545,440,4769
116.5491,39.75545,441,4769
116.54908,39.75549,442,4769
116.54908,39.75548,443,4769
116.54908,39.75552,444,4769
116.5491,39.75546,445,4769
116.54911,39.75546,446,4769
116.5491,39.75546,447,4769
116.54911,39.75549,448,4769
116.5491,39.75546,449,4769
116.5491,39.75545,450,4769
116.5491,39.75545,451,4769
116.54911,39.75546,452,4769
116.54909,39.75547,453,4769
116.5491,39.75547,454,4769
116.54909,39.75546,455,4769
116.54908,39.75545,456,4769
116.54909,39.75547,457,4769
116.5491,39.75547,458,4769
116.54908,39.75545,459,4769
116.54909,39.75545,460,4769
116.5491,39.75545,461,4769
116.54909,39.75542,462,4769
116.54909,39.75542,463,4769
116.54912,39.75545,464,4769
116.54911,39.75546,465,4769
116.5491,39.75544,466,4769
116.5491,39.75544,467,4769
116.54909,39.75545,468,4769
116.5491,39.75545,469,4769
116.54912,39.75544,470,4769
116.5491,39.75546,471,4769
116.54909,39.75545,472,4769
116.5491,39.75542,473,4769
116.5491,39.75545,474,4769
116.54912,39.75544,475,4769
116.54911,39.75543,476,4769
116.5491,39.75544,477,4769
116.54911,39.75545,478,4769
116.54911,39.75543,479,4769
116.54911,39.75543,480,4769
116.54911,39.75543,481,4769
116.5491,39.75543,482,4769
116.54909,39.75543,483,4769
116.5491,39.75543,484,4769
116.54914,39.75544,485,4769
116.54911,39.75544,486,4769
116.5491,39.75541,487,4769
116.54911,39.75542,488,4769
116.54911,39.75542,489,4769
116.54911,39.75542,490,4769
116.54911,39.75542,491,4769
116.54911,39.75544,492,4769
116.54909,39.75545,493,4769
116.54909,39.75546,494,4769
116.54908,39.75549,495,4769
116.54911,39.75541,496,4769
116.54909,39.75543,497,4769
116.54908,39.75542,498,4769
116.54914,39.75546,499,4769
116.5491,39.75546,500,4769
116.54909,39.75546,501,4769
116.54912,39.75544,502,4769
116.54907,39.7555,503,4769
116.54911,39.75547,504,4769
116.54909,39.75547,505,4769
116.5491,39.75545,506,4769
116.54912,39.75547,507,4769
116.5491,39.75545,508,4769
116.54906,39.75546,509,4769
116.54911,39.75546,510,4769
116.54914,39.75543,511,4769
116.54909,39.75545,512,4769
116.5491,39.75545,513,4769
116.54913,39.75546,514,4769
116.54913,39.75546,515,4769
116.54912,39.75544,516,4769
116.54914,39.75544,517,4769
116.54914,39.75544,518,4769
116.54915,39.75543,519,4769
116.54915,39.75543,520,4769
116.54914,39.75545,521,4769
116.54968,39.75703,522,4769
116.53544,39.75559,523,4769
116.53545,39.7555,524,4769
116.53602,39.75485,525,4769
116.54912,39.75621,526,4769
116.54914,39.75541,527,4769
116.54913,39.75541,528,4769
116.54912,39.75539,529,4769
116.54914,39.75539,530,4769
116.54916,39.75538,531,4769
116.54911,39.75539,532,4769
116.54912,39.75542,533,4769
116.54913,39.75541,534,4769
116.5491,39.75545,535,4769
116.54913,39.75545,536,4769
116.54911,39.75546,537,4769
116.54913,39.75542,538,4769
116.54911,39.75542,539,4769
116.54912,39.75543,540,4769
116.5491,39.75542,541,4769
116.54911,39.75543,542,4769
116.54912,39.75541,543,4769
116.5491,39.75544,544,4769
116.54908,39.75547,545,4769
116.5491,39.75546,546,4769
116.5491,39.75544,547,4769
116.54912,39.75542,548,4769
116.54911,39.75544,549,4769
116.54911,39.75544,550,4769
116.54911,39.75543,551,4769
116.54912,39.75543,552,4769
116.54915,39.75539,553,4769
116.54911,39.75543,554,4769
116.5491,39.75541,555,4769
116.5491,39.75543,556,4769
116.54909,39.75542,557,4769
116.54911,39.75541,558,4769
116.54909,39.75545,559,4769
116.5491,39.75543,560,4769
116.54914,39.75541,561,4769
116.54911,39.75542,562,4769
116.5491,39.75542,563,4769
116.54909,39.75543,564,4769
116.54912,39.75547,565,4769
116.54909,39.75544,566,4769
116.54905,39.75545,567,4769
116.54906,39.75543,568,4769
116.54908,39.75543,569,4769
116.54909,39.75544,570,4769
116.54908,39.75543,571,4769
116.54909,39.75545,572,4769
116.54907,39.75542,573,4769
116.5491,39.75541,574,4769
116.54911,39.75542,575,4769
116.5491,39.75547,576,4769
116.54911,39.75548,577,4769
116.54911,39.75546,578,4769
116.54907,39.75547,579,4769
116.54907,39.75547,580,4769
116.5491,39.75546,581,4769
116.54913,39.75546,582,4769
116.54909,39.75547,583,4769
116.54914,39.75547,584,4769
116.54909,39.75548,585,4769
116.5491,39.75549,586,4769
116.54912,39.75547,587,4769
116.54909,39.75551,588,4769
116.54912,39.75547,589,4769
116.54909,39.7555,590,4769
116.5491,39.75549,591,4769
116.54907,39.75553,592,4769
116.54911,39.7555,593,4769
116.5491,39.7555,594,4769
116.54915,39.75547,595,4769
116.54912,39.75547,596,4769
116.5491,39.75552,597,4769
116.54909,39.75554,598,4769
116.54911,39.75552,599,4769
116.5491,39.75548,600,4769
116.54913,39.75545,601,4769
116.5491,39.75546,602,4769
116.5491,39.75546,603,4769
116.54916,39.75546,604,4769
116.54912,39.75544,605,4769
116.5491,39.75545,606,4769
116.54911,39.75544,607,4769
116.54912,39.75544,608,4769
116.54912,39.75544,609,4769
116.5491,39.75542,610,4769
116.54911,39.75543,611,4769
116.54913,39.75543,612,4769
116.54911,39.75543,613,4769
116.54912,39.75544,614,4769
116.54911,39.75542,615,4769
116.5491,39.75543,616,4769
116.54912,39.7554,617,4769
116.54912,39.75542,618,4769
116.54911,39.75542,619,4769
116.54911,39.75543,620,4769
116.54914,39.75541,621,4769
116.54912,39.75542,622,4769
116.54913,39.75541,623,4769
116.54911,39.75541,624,4769
116.54912,39.75542,625,4769
116.54912,39.75544,626,4769
116.54909,39.75543,627,4769
116.54909,39.75541,628,4769
116.54909,39.75548,629,4769
116.5491,39.75545,630,4769
116.54911,39.75545,631,4769
116.54911,39.75547,632,4769
116.54911,39.75546,633,4769
116.54909,39.75547,634,4769
116.5491,39.75546,635,4769
116.5491,39.75546,636,4769
116.54913,39.75548,637,4769
116.54912,39.75549,638,4769
116.54909,39.7555,639,4769
116.5491,39.75549,640,4769
116.54911,39.75551,641,4769
116.5491,39.75552,642,4769
116.54911,39.75548,643,4769
116.5491,39.75546,644,4769
116.54908,39.7555,645,4769
116.54912,39.75543,646,4769
116.5491,39.75546,647,4769
116.54912,39.75549,648,4769
116.54912,39.75548,649,4769
1.2158,39.75546,650,4769
116.54913,39.75548,651,4769
116.54912,39.7555,652,4769
116.54908,39.75546,653,4769
116.54907,39.75549,654,4769
116.54908,39.75547,655,4769
116.54909,39.75547,656,4769
116.54907,39.75548,657,4769
116.54909,39.75546,658,4769
116.54907,39.75549,659,4769
116.54909,39.75549,660,4769
116.54908,39.75546,661,4769
116.54908,39.75547,662,4769
116.54908,39.75548,663,4769
116.54908,39.75548,664,4769
116.5491,39.75545,665,4769
116.5491,39.75545,666,4769
116.54907,39.75546,667,4769
116.54907,39.75544,668,4769
116.54907,39.75542,669,4769
116.54905,39.75543,670,4769
116.54905,39.75543,671,4769
116.5491,39.75546,672,4769
116.54908,39.75542,673,4769
116.54906,39.75544,674,4769
116.54907,39.75543,675,4769
116.54907,39.75544,676,4769
116.54908,39.75547,677,4769
116.54909,39.75543,678,4769
116.54912,39.75544,679,4769
116.54915,39.75551,680,4769
116.54912,39.75546,681,4769
116.54913,39.75545,682,4769
116.54912,39.75545,683,4769
116.54912,39.75542,684,4769
116.54911,39.75541,685,4769
116.54911,39.75544,686,4769
116.54909,39.75545,687,4769
116.54911,39.75544,688,4769
116.5491,39.75543,689,4769
116.54913,39.75544,690,4769
116.54912,39.75542,691,4769
116.54911,39.75543,692,4769
116.5491,39.75543,693,4769
116.54911,39.7554,694,4769
116.54914,39.7554,695,4769
116.54912,39.75541,696,4769
116.54912,39.75541,697,4769
116.5491,39.75543,698,4769
116.54912,39.75542,699,4769
116.5491,39.75541,700,4769
116.54912,39.75543,701,4769
116.54909,39.75544,702,4769
116.54908,39.75544,703,4769
116.54911,39.75541,704,4769
116.54907,39.75547,705,4769
116.5491,39.75545,706,4769
116.5491,39.75547,707,4769
116.54909,39.75547,708,4769
116.54907,39.75549,709,4769
116.54907,39.75549,710,4769
116.54911,39.75546,711,4769
116.54911,39.75543,712,4769
116.54907,39.75549,713,4769
116.54908,39.75546,714,4769
116.54908,39.7555,715,4769
116.54907,39.75553,716,4769
116.54908,39.75548,717,4769
116.54908,39.75547,718,4769
116.54911,39.75547,719,4769
116.54909,39.75547,720,4769
116.54912,39.75548,721,4769
116.5491,39.75547,722,4769
116.5491,39.75547,723,4769
116.5491,39.75548,724,4769
116.5491,39.75548,725,4769
116.4544,39.75545,726,4769
116.4544,39.75545,727,4769
116.5491,39.75547,728,4769
116.54906,39.75548,729,4769
116.54909,39.75545,730,4769
116.54908,39.75546,731,4769
116.54908,39.75546,732,4769
116.5491,39.75545,733,4769
116.54909,39.75546,734,4769
116.54909,39.75545,735,4769
116.54909,39.75546,736,4769
116.54908,39.75545,737,4769
116.54908,39.75545,738,4769
116.54908,39.75544,739,4769
116.5491,39.75546,740,4769
116.5491,39.75546,741,4769
116.5491,39.75547,742,4769
116.54911,39.75544,743,4769
116.5491,39.75545,744,4769
116.54909,39.75543,745,4769
116.54909,39.75546,746,4769
116.54911,39.75545,747,4769
116.5491,39.75544,748,4769
116.5491,39.75546,749,4769
116.5491,39.75543,750,4769
116.5491,39.75544,751,4769
116.54911,39.75543,752,4769
116.54911,39.75543,753,4769
116.5491,39.75544,754,4769
116.54911,39.75543,755,4769
116.54911,39.75544,756,4769
116.5491,39.75544,757,4769
116.5491,39.75543,758,4769
116.54908,39.75543,759,4769
116.5491,39.75543,760,4769
116.54911,39.75542,761,4769
116.54912,39.75543,762,4769
116.54909,39.75543,763,4769
116.54908,39.75547,764,4769
116.54908,39.75547,765,4769
116.54909,39.75544,766,4769
116.54909,39.75546,767,4769
116.54909,39.75543,768,4769
116.5491,39.75543,769,4769
116.5491,39.75542,770,4769
116.54911,39.75544,771,4769
116.54911,39.75542,772,4769
116.54911,39.75543,773,4769
116.54914,39.75543,774,4769
116.54912,39.75544,775,4769
116.54914,39.7554,776,4769
116.54914,39.75544,777,4769
116.5401,39.75942,778,4769
116.51311,39.77749,779,4769
116.50123,39.79046,780,4769
116.48267,39.79598,781,4769
116.48272,39.79596,782,4769
116.47466,39.79318,783,4769
116.47471,39.79317,784,4769
116.47475,39.7932,785,4769
116.47472,39.79319,786,4769
116.47728,39.79434,787,4769
116.51087,39.77303,788,4769
116.50662,39.77468,789,4769
116.50178,39.7907,790,4769
116.48277,39.79588,791,4769
116.4728,39.80178,792,4769
116.48674,39.82755,793,4769
116.45491,39.87027,794,4769
116.45571,39.91649,795,4769
116.45441,39.91864,796,4769
116.45598,39.92742,797,4769
116.46691,39.92652,798,4769
116.4634,39.91564,799,4769
116.46978,39.90391,800,4769
116.45165,39.89626,801,4769
116.44953,39.88939,802,4769
116.45491,39.8764,803,4769
116.45695,39.86546,804,4769
116.45693,39.86545,805,4769
116.45598,39.91003,806,4769
116.46852,39.91252,807,4769
116.46858,39.91251,808,4769
116.45532,39.90956,809,4769
116.45396,39.89761,810,4769
116.44958,39.88897,811,4769
116.44581,39.88036,812,4769
116.43856,39.8707,813,4769
116.43856,39.87068,814,4769
116.44465,39.87059,815,4769
116.44467,39.87054,816,4769
116.44198,39.85793,817,4769
116.43395,39.86456,818,4769
116.43336,39.86455,819,4769
116.43336,39.86455,820,4769
116.42961,39.8646,821,4769
116.42806,39.86454,822,4769
116.42528,39.86063,823,4769
116.39754,39.85571,824,4769
116.33991,39.84851,825,4769
116.33424,39.84806,826,4769
116.35316,39.85096,827,4769
116.35758,39.84451,828,4769
116.37574,39.85568,829,4769
116.41607,39.8561,830,4769
116.4185,39.86223,831,4769
116.42743,39.86447,832,4769
116.43171,39.86114,833,4769
116.46296,39.84964,834,4769
116.50486,39.8113,835,4769
116.53919,39.77653,836,4769
116.53979,39.75194,837,4769
116.54301,39.73866,838,4769
116.54215,39.73876,839,4769
116.54214,39.73874,840,4769
116.54212,39.73874,841,4769
116.55091,39.74961,842,4769
116.55036,39.75645,843,4769
116.55039,39.75639,844,4769
116.55035,39.75644,845,4769
116.57305,39.81672,846,4769
116.6036,39.84635,847,4769
116.6492,39.88786,848,4769
116.64994,39.88907,849,4769
116.64994,39.88907,850,4769
116.64994,39.88914,851,4769
116.64993,39.88915,852,4769
116.64993,39.88912,853,4769
116.64993,39.88917,854,4769
116.64991,39.88919,855,4769
116.64991,39.88919,856,4769
116.6499,39.88916,857,4769
116.64989,39.88917,858,4769
116.64991,39.88918,859,4769
116.64988,39.88918,860,4769
116.64988,39.88918,861,4769
116.64991,39.88917,862,4769
116.65156,39.88734,863,4769
116.63165,39.87075,864,4769
116.60788,39.8498,865,4769
116.57663,39.82191,866,4769
116.55844,39.79261,867,4769
116.54243,39.76574,868,4769
116.55043,39.75652,869,4769
116.55051,39.75648,870,4769
116.55089,39.7486,871,4769
116.54519,39.73834,872,4769
116.55364,39.75005,873,4769
116.54915,39.75542,874,4769
116.54919,39.75544,875,4769
116.54919,39.75544,876,4769
116.54916,39.75544,877,4769
116.54916,39.75542,878,4769
116.54917,39.75547,879,4769
116.54914,39.75539,880,4769
116.54912,39.7554,881,4769
116.54914,39.75539,882,4769
116.54912,39.75536,883,4769
116.54911,39.75537,884,4769
116.5491,39.75536,885,4769
116.5491,39.75536,886,4769
116.54912,39.75538,887,4769
116.54911,39.75539,888,4769
116.54912,39.7554,889,4769
116.54913,39.75569,890,4769
116.53943,39.76072,891,4769
116.52028,39.78677,892,4769
116.50343,39.8042,893,4769
116.47107,39.82856,894,4769
116.42301,39.83095,895,4769
116.35136,39.8298,896,4769
116.34256,39.86683,897,4769
116.32377,39.87579,898,4769
116.32047,39.88278,899,4769
116.32593,39.88318,900,4769
116.34166,39.88717,901,4769
116.34166,39.88717,902,4769
116.34293,39.87467,903,4769
116.33939,39.83034,904,4769
116.40473,39.83086,905,4769
116.47401,39.8388,906,4769
116.50271,39.80495,907,4769
116.50127,39.80692,908,4769
116.50124,39.80698,909,4769
116.50126,39.80692,910,4769
116.50128,39.80697,911,4769
116.50275,39.80494,912,4769
116.5145,39.79736,913,4769
116.50655,39.80777,914,4769
116.5003,39.81779,915,4769
116.4819,39.86439,916,4769
116.47141,39.87825,917,4769
116.47122,39.88291,918,4769
116.45535,39.8934,919,4769
116.45561,39.94025,920,4769
116.41389,39.96786,921,4769
116.36382,39.97061,922,4769
116.36821,39.98058,923,4769
116.38709,39.96655,924,4769
116.42955,39.96804,925,4769
116.45547,39.93213,926,4769
116.45507,39.88563,927,4769
116.45283,39.86534,928,4769
116.47889,39.83464,929,4769
116.50292,39.8047,930,4769
116.50921,39.80347,931,4769
116.50921,39.80347,932,4769
116.50577,39.80116,933,4769
116.50577,39.80116,934,4769
116.51477,39.79795,935,4769
116.51311,39.79215,936,4769
116.52666,39.77403,937,4769
116.52744,39.77321,938,4769
116.54506,39.76338,939,4769
116.55074,39.75796,940,4769
116.55048,39.75603,941,4769
116.5491,39.75543,942,4769
116.54909,39.75546,943,4769
116.54905,39.75545,944,4769
116.54911,39.75544,945,4769
116.54907,39.75547,946,4769
116.54911,39.75546,947,4769
116.54909,39.75548,948,4769
116.54912,39.75545,949,4769
116.5491,39.75547,950,4769
116.54909,39.75546,951,4769
116.54907,39.75543,952,4769
116.5491,39.75543,953,4769
116.54907,39.75547,954,4769
116.54922,39.75545,955,4769
116.54908,39.75545,956,4769
116.54912,39.75542,957,4769
116.54912,39.75545,958,4769
116.54915,39.75543,959,4769
116.54914,39.75545,960,4769
116.54914,39.75546,961,4769
116.54911,39.75546,962,4769
116.54911,39.75546,963,4769
116.5491,39.75544,964,4769
116.54906,39.75546,965,4769
116.54907,39.75546,966,4769
116.54907,39.75545,967,4769
116.54907,39.75543,968,4769
116.54908,39.75545,969,4769
116.54908,39.75544,970,4769
116.54905,39.75544,971,4769
116.54905,39.75544,972,4769
116.5491,39.75541,973,4769
116.54909,39.75542,974,4769
116.54908,39.75541,975,4769
116.54909,39.75543,976,4769
116.54909,39.75541,977,4769
116.54909,39.75539,978,4769
116.5491,39.75542,979,4769
116.54908,39.75543,980,4769
116.54907,39.75541,981,4769
116.54907,39.75542,982,4769
116.54905,39.75543,983,4769
116.54907,39.75541,984,4769
116.54908,39.75542,985,4769
116.54907,39.75542,986,4769
116.54909,39.75543,987,4769
116.54907,39.75545,988,4769
116.54906,39.75544,989,4769
116.54909,39.75543,990,4769
116.54909,39.75543,991,4769
116.54905,39.75543,992,4769
116.54907,39.75542,993,4769
116.54908,39.75543,994,4769
116.54907,39.75543,995,4769
116.54906,39.75545,996,4769
116.54911,39.75544,997,4769
116.5491,39.75544,998,4769
116.5491,39.75544,999,4769
116.5491,39.75544,1000,4769
116.54909,39.75543,1001,4769
116.54911,39.75544,1002,4769
116.5491,39.75544,1003,4769
116.54916,39.75545,1004,4769
116.54909,39.75544,1005,4769
116.54911,39.75546,1006,4769
116.54913,39.75542,1007,4769
116.54912,39.75543,1008,4769
116.54908,39.75545,1009,4769
116.54911,39.75544,1010,4769
116.54911,39.75543,1011,4769
116.5491,39.75546,1012,4769
116.54914,39.75544,1013,4769
116.54909,39.75544,1014,4769
116.54909,39.75543,1015,4769
116.5491,39.75544,1016,4769
116.54909,39.75544,1017,4769
116.54909,39.75544,1018,4769
116.54909,39.75544,1019,4769
116.5491,39.75542,1020,4769
116.5491,39.75541,1021,4769
116.54912,39.75543,1022,4769
116.54909,39.75543,1023,4769
116.54909,39.75543,1024,4769
116.54907,39.75541,1025,4769
116.54911,39.75542,1026,4769
116.5491,39.7554,1027,4769
116.54917,39.75539,1028,4769
116.54913,39.7554,1029,4769
116.54909,39.7554,1030,4769
116.54912,39.75541,1031,4769
116.54911,39.75542,1032,4769
116.54911,39.75542,1033,4769
116.54908,39.7554,1034,4769
116.54912,39.75538,1035,4769
116.54911,39.75538,1036,4769
116.54911,39.75538,1037,4769
116.54911,39.7554,1038,4769
116.54912,39.75541,1039,4769
116.54909,39.75543,1040,4769
116.54912,39.75541,1041,4769
116.54911,39.75538,1042,4769
116.54911,39.7554,1043,4769
116.5491,39.75539,1044,4769
116.54912,39.75539,1045,4769
116.54912,39.75538,1046,4769
116.54908,39.75542,1047,4769
116.54912,39.75539,1048,4769
116.54911,39.7554,1049,4769
116.54911,39.75539,1050,4769
116.54913,39.7554,1051,4769
116.54909,39.75544,1052,4769
116.54913,39.75542,1053,4769
116.54913,39.75542,1054,4769
116.54911,39.75547,1055,4769
116.54912,39.75544,1056,4769
116.54914,39.75541,1057,4769
116.54911,39.75544,1058,4769
116.54916,39.75542,1059,4769
116.54914,39.75541,1060,4769
116.54914,39.75541,1061,4769
116.54911,39.75542,1062,4769
116.54918,39.75538,1063,4769
116.54913,39.75539,1064,4769
116.54912,39.75541,1065,4769
116.54916,39.75541,1066,4769
116.5491,39.75543,1067,4769
116.54908,39.75542,1068,4769
116.5491,39.75544,1069,4769
116.54912,39.75544,1070,4769
116.54916,39.7554,1071,4769
116.54912,39.75541,1072,4769
116.54914,39.75543,1073,4769
116.54918,39.75538,1074,4769
116.54918,39.7554,1075,4769
116.54919,39.75539,1076,4769
116.54922,39.75536,1077,4769
116.54916,39.7554,1078,4769
116.54911,39.75546,1079,4769
116.54912,39.75544,1080,4769
116.54912,39.75542,1081,4769
116.54912,39.75542,1082,4769
116.54911,39.75543,1083,4769
116.54912,39.75543,1084,4769
116.54911,39.75541,1085,4769
116.54912,39.75543,1086,4769
116.5491,39.75542,1087,4769
116.54911,39.75547,1088,4769
116.54915,39.75546,1089,4769
116.5491,39.75546,1090,4769
116.54909,39.75553,1091,4769
116.5491,39.75544,1092,4769
116.54908,39.75544,1093,4769
116.54909,39.75546,1094,4769
116.54911,39.75545,1095,4769
116.54907,39.75546,1096,4769
116.54907,39.75546,1097,4769
116.54912,39.75546,1098,4769
116.54908,39.75549,1099,4769
116.54916,39.75537,1100,4769
116.54908,39.75545,1101,4769
116.54911,39.75543,1102,4769
116.54912,39.75543,1103,4769
116.54904,39.75553,1104,4769
116.54908,39.75547,1105,4769
116.54912,39.75545,1106,4769
116.54912,39.75543,1107,4769
116.5491,39.75544,1108,4769
116.54911,39.75545,1109,4769
116.54909,39.75544,1110,4769
116.54911,39.75545,1111,4769
116.54913,39.7554,1112,4769
116.54912,39.75544,1113,4769
116.54913,39.75541,1114,4769
116.54906,39.7555,1115,4769
116.54906,39.7555,1116,4769
116.54912,39.75541,1117,4769
116.54911,39.75542,1118,4769
116.54909,39.75544,1119,4769
116.54908,39.75547,1120,4769
116.54907,39.75548,1121,4769
116.54911,39.75544,1122,4769
116.54912,39.75544,1123,4769
116.54913,39.75545,1124,4769
116.54911,39.75542,1125,4769
116.54915,39.75545,1126,4769
116.54912,39.75543,1127,4769
116.54911,39.75543,1128,4769
116.5491,39.75544,1129,4769
116.54907,39.75542,1130,4769
116.54908,39.75542,1131,4769
116.5491,39.75544,1132,4769
116.54909,39.75546,1133,4769
116.54909,39.75546,1134,4769
116.54908,39.75547,1135,4769
116.54912,39.75546,1136,4769
116.54913,39.75547,1137,4769
116.54913,39.75544,1138,4769
116.54913,39.75544,1139,4769
116.54913,39.75545,1140,4769
116.54913,39.75544,1141,4769
116.54914,39.75542,1142,4769
116.54912,39.75543,1143,4769
116.54916,39.75544,1144,4769
116.54914,39.75543,1145,4769
116.54915,39.75542,1146,4769
116.54914,39.7554,1147,4769
116.54913,39.75542,1148,4769
116.54912,39.75547,1149,4769
116.54911,39.75547,1150,4769
116.5491,39.7555,1151,4769
116.54911,39.75548,1152,4769
116.54916,39.7555,1153,4769
116.54914,39.75548,1154,4769
116.54913,39.75548,1155,4769
116.54911,39.75548,1156,4769
116.54914,39.75544,1157,4769
116.5491,39.75545,1158,4769
116.54907,39.75544,1159,4769
116.54908,39.75545,1160,4769
116.5491,39.75543,1161,4769
116.54911,39.75545,1162,4769
116.54911,39.75545,1163,4769
116.54912,39.75542,1164,4769
116.5491,39.75541,1165,4769
116.5491,39.75541,1166,4769
116.54909,39.75543,1167,4769
116.54912,39.7554,1168,4769
116.54912,39.75539,1169,4769
116.54912,39.7554,1170,4769
116.54911,39.7554,1171,4769
116.54911,39.75541,1172,4769
116.54912,39.7554,1173,4769
116.54912,39.7554,1174,4769
116.54911,39.75539,1175,4769
116.54909,39.75538,1176,4769
116.54912,39.75537,1177,4769
116.54909,39.75539,1178,4769
116.5491,39.75539,1179,4769
116.54911,39.75539,1180,4769
116.54914,39.75539,1181,4769
116.54912,39.75539,1182,4769
116.54912,39.75542,1183,4769
116.5491,39.75541,1184,4769
116.54913,39.75538,1185,4769
116.5491,39.75543,1186,4769
116.54909,39.75541,1187,4769
116.5491,39.75543,1188,4769
116.5491,39.75543,1189,4769
116.54915,39.75545,1190,4769
116.54909,39.75542,1191,4769
116.54909,39.75544,1192,4769
116.54914,39.75541,1193,4769
116.54907,39.75541,1194,4769
116.54913,39.7554,1195,4769
116.5491,39.7554,1196,4769
116.5491,39.75543,1197,4769
116.54914,39.75543,1198,4769
116.54913,39.75542,1199,4769
116.54911,39.75541,1200,4769
116.54912,39.75539,1201,4769
116.5491,39.75542,1202,4769
116.5491,39.75545,1203,4769
116.54912,39.75546,1204,4769
116.54904,39.75543,1205,4769
116.54911,39.75542,1206,4769
116.54911,39.75541,1207,4769
116.54911,39.75542,1208,4769
116.54908,39.75543,1209,4769
116.54914,39.75541,1210,4769
116.5491,39.75542,1211,4769
116.54911,39.75544,1212,4769
116.5491,39.75543,1213,4769
116.54908,39.75544,1214,4769
116.54907,39.75545,1215,4769
116.5491,39.75545,1216,4769
116.54911,39.75548,1217,4769
116.54908,39.75542,1218,4769
116.54908,39.75542,1219,4769
116.54912,39.75545,1220,4769
116.54907,39.75544,1221,4769
116.54908,39.75542,1222,4769
116.54905,39.75542,1223,4769
116.54907,39.75541,1224,4769
116.54907,39.75542,1225,4769
116.54909,39.75541,1226,4769
116.54914,39.75543,1227,4769
116.54907,39.75543,1228,4769
116.5491,39.75541,1229,4769
116.54914,39.75541,1230,4769
116.54911,39.75542,1231,4769
116.54913,39.75544,1232,4769
116.54914,39.75544,1233,4769
116.5491,39.75544,1234,4769
116.54908,39.75541,1235,4769
116.5491,39.75545,1236,4769
116.54907,39.75545,1237,4769
116.54908,39.75545,1238,4769
116.54908,39.75542,1239,4769
116.54907,39.75543,1240,4769
116.54909,39.75542,1241,4769
116.54908,39.75544,1242,4769
116.54906,39.75543,1243,4769
116.5491,39.7554,1244,4769
116.54909,39.75541,1245,4769
116.54909,39.75539,1246,4769
116.54909,39.75539,1247,4769
116.5491,39.75541,1248,4769
116.54911,39.75541,1249,4769
116.5491,39.75539,1250,4769
116.5491,39.75541,1251,4769
116.54908,39.75544,1252,4769
116.54908,39.75541,1253,4769
116.54909,39.7554,1254,4769
116.54906,39.75541,1255,4769
116.54906,39.75542,1256,4769
116.54909,39.75541,1257,4769
116.54907,39.75541,1258,4769
116.54909,39.75542,1259,4769
116.54911,39.75543,1260,4769
116.54907,39.75543,1261,4769
116.5491,39.75543,1262,4769
116.54905,39.75543,1263,4769
116.54908,39.75543,1264,4769
116.54905,39.75542,1265,4769
116.54907,39.75542,1266,4769
116.54905,39.75543,1267,4769
116.54914,39.75545,1268,4769
116.54919,39.75547,1269,4769
116.54917,39.75547,1270,4769
116.5492,39.75546,1271,4769
116.54913,39.75544,1272,4769
116.54911,39.75544,1273,4769
116.54912,39.75545,1274,4769
116.54905,39.75546,1275,4769
116.54908,39.75544,1276,4769
116.54911,39.75544,1277,4769
116.54915,39.75544,1278,4769
116.54913,39.75543,1279,4769
116.54908,39.75544,1280,4769
116.5491,39.75543,1281,4769
116.54909,39.75545,1282,4769
116.54909,39.75547,1283,4769
116.54906,39.75548,1284,4769
116.5491,39.75545,1285,4769
116.54909,39.75546,1286,4769
116.5491,39.75544,1287,4769
116.54909,39.75546,1288,4769
116.54906,39.75546,1289,4769
116.54908,39.75546,1290,4769
116.54911,39.75544,1291,4769
116.54911,39.75546,1292,4769
116.54912,39.75542,1293,4769
116.54908,39.75542,1294,4769
116.54911,39.75542,1295,4769
116.54908,39.75546,1296,4769
116.54906,39.75544,1297,4769
116.54908,39.75542,1298,4769
116.5491,39.75542,1299,4769
116.54911,39.7554,1300,4769
116.54916,39.75538,1301,4769
116.5491,39.7554,1302,4769
116.54909,39.7554,1303,4769
116.54909,39.7554,1304,4769
116.54909,39.75541,1305,4769
116.54912,39.7554,1306,4769
116.54907,39.75543,1307,4769
116.54908,39.75544,1308,4769
116.5491,39.7554,1309,4769
116.54908,39.75541,1310,4769
116.54909,39.7554,1311,4769
116.5491,39.75542,1312,4769
116.54908,39.75544,1313,4769
116.54907,39.75544,1314,4769
116.54908,39.75542,1315,4769
116.54907,39.75546,1316,4769
116.54907,39.75542,1317,4769
116.54908,39.75542,1318,4769
116.54905,39.75546,1319,4769
116.54906,39.75541,1320,4769
116.5491,39.75543,1321,4769
116.54908,39.75542,1322,4769
116.54909,39.75538,1323,4769
116.54911,39.75539,1324,4769
116.5491,39.75537,1325,4769
116.54911,39.7554,1326,4769
116.54911,39.75539,1327,4769
116.54911,39.75543,1328,4769
116.54911,39.75541,1329,4769
116.54909,39.75544,1330,4769
116.54911,39.75543,1331,4769
116.54911,39.75537,1332,4769
116.54907,39.7554,1333,4769
116.54907,39.7554,1334,4769
116.54912,39.7554,1335,4769
116.54912,39.75539,1336,4769
116.54911,39.7554,1337,4769
116.54912,39.7554,1338,4769
116.54914,39.75537,1339,4769
116.54911,39.75538,1340,4769
116.54917,39.75539,1341,4769
116.54912,39.75541,1342,4769
116.5491,39.7554,1343,4769
116.54914,39.7554,1344,4769
116.54915,39.75543,1345,4769
116.54915,39.75542,1346,4769
116.54917,39.75538,1347,4769
116.54917,39.75538,1348,4769
116.54921,39.75536,1349,4769
116.54915,39.7554,1350,4769
116.54918,39.75537,1351,4769
116.54915,39.7554,1352,4769
116.54918,39.7554,1353,4769
116.5491,39.75545,1354,4769
116.54914,39.75542,1355,4769
116.54913,39.75542,1356,4769
116.54911,39.75544,1357,4769
116.54914,39.75542,1358,4769
116.54911,39.75542,1359,4769
116.54915,39.76057,1360,4769
116.54915,39.76057,1361,4769
116.54913,39.7554,1362,4769
116.54917,39.75545,1363,4769
116.54916,39.75542,1364,4769
116.54915,39.75541,1365,4769
116.54915,39.75536,1366,4769
116.54911,39.75544,1367,4769
116.5491,39.75541,1368,4769
116.54912,39.75542,1369,4769
116.54909,39.75542,1370,4769
116.54909,39.75543,1371,4769
116.5491,39.75545,1372,4769
116.5491,39.75546,1373,4769
116.5491,39.75546,1374,4769
116.54911,39.75547,1375,4769
116.54912,39.75543,1376,4769
116.54907,39.75547,1377,4769
116.54909,39.75549,1378,4769
116.54909,39.75549,1379,4769
116.5491,39.75546,1380,4769
116.5491,39.75546,1381,4769
116.54911,39.75544,1382,4769
116.54913,39.75542,1383,4769
116.54915,39.75543,1384,4769
116.54916,39.75545,1385,4769
116.5491,39.75544,1386,4769
116.54914,39.75541,1387,4769
116.54914,39.75538,1388,4769
116.54914,39.75539,1389,4769
116.54914,39.75539,1390,4769
116.54915,39.75539,1391,4769
116.54912,39.75542,1392,4769
116.54914,39.75541,1393,4769
116.54911,39.75539,1394,4769
116.54913,39.75541,1395,4769
116.54911,39.75542,1396,4769
116.54914,39.75546,1397,4769
116.54914,39.75542,1398,4769
116.54914,39.75543,1399,4769
116.54912,39.75542,1400,4769
116.54916,39.75543,1401,4769
116.5491,39.75541,1402,4769
116.54914,39.75543,1403,4769
116.54913,39.75543,1404,4769
116.54909,39.75543,1405,4769
116.54911,39.75543,1406,4769
116.5491,39.75542,1407,4769
116.54908,39.75544,1408,4769
116.54908,39.75544,1409,4769
116.54911,39.75544,1410,4769
116.54909,39.75545,1411,4769
116.54908,39.75545,1412,4769
116.5491,39.75544,1413,4769
116.54914,39.75544,1414,4769
116.54912,39.75546,1415,4769
116.54914,39.75545,1416,4769
116.54913,39.75545,1417,4769
116.54918,39.75543,1418,4769
116.54914,39.75543,1419,4769
116.54914,39.75543,1420,4769
116.5491,39.75545,1421,4769
116.54914,39.75545,1422,4769
116.54915,39.75541,1423,4769
116.54916,39.75541,1424,4769
116.54914,39.75542,1425,4769
116.54912,39.75543,1426,4769
116.54996,39.75708,1427,4769
116.55267,39.75348,1428,4769
116.55272,39.75345,1429,4769
116.55266,39.75352,1430,4769
116.55267,39.7535,1431,4769
116.55268,39.7535,1432,4769
116.55265,39.75347,1433,4769
116.55269,39.75348,1434,4769
116.55267,39.75351,1435,4769
116.55265,39.75347,1436,4769
116.55267,39.75346,1437,4769
116.5527,39.75351,1438,4769
116.55274,39.75351,1439,4769
116.55267,39.75346,1440,4769
116.55076,39.7548,1441,4769
116.56707,39.73849,1442,4769
116.61802,39.74093,1443,4769
116.61968,39.74042,1444,4769
116.61968,39.74041,1445,4769
116.61969,39.74042,1446,4769
116.61966,39.74042,1447,4769
116.61967,39.74041,1448,4769
116.61969,39.74043,1449,4769
116.61969,39.74043,1450,4769
116.61969,39.74042,1451,4769
116.61969,39.7404,1452,4769
116.58267,39.7393,1453,4769
116.55387,39.7502,1454,4769
116.54911,39.7554,1455,4769
116.54911,39.7554,1456,4769
116.54912,39.7554,1457,4769
116.54911,39.75539,1458,4769
116.5491,39.75539,1459,4769
116.54913,39.75539,1460,4769
116.54911,39.75538,1461,4769
116.5491,39.75542,1462,4769
116.54912,39.75539,1463,4769
116.54911,39.75541,1464,4769
116.5491,39.7554,1465,4769
116.54907,39.75545,1466,4769
116.54911,39.75543,1467,4769
116.54912,39.75541,1468,4769
116.54913,39.75542,1469,4769
116.54908,39.75544,1470,4769
116.54909,39.75544,1471,4769
116.5491,39.75545,1472,4769
116.54909,39.75546,1473,4769
116.54909,39.75546,1474,4769
116.5491,39.75543,1475,4769
116.54911,39.75547,1476,4769
116.54912,39.75547,1477,4769
116.54909,39.75538,1478,4769
116.54909,39.75538,1479,4769
116.54909,39.75545,1480,4769
116.54907,39.75545,1481,4769
116.54909,39.75546,1482,4769
116.54911,39.75545,1483,4769
116.54912,39.75545,1484,4769
116.54908,39.75547,1485,4769
116.54911,39.75543,1486,4769
116.54913,39.75543,1487,4769
116.54911,39.75544,1488,4769
116.54916,39.75542,1489,4769
116.54908,39.75544,1490,4769
116.54914,39.75546,1491,4769
116.54907,39.75543,1492,4769
116.5491,39.75542,1493,4769
116.54907,39.75548,1494,4769
116.54909,39.75545,1495,4769
116.54908,39.75548,1496,4769
116.54905,39.75545,1497,4769
116.54906,39.75546,1498,4769
116.54911,39.75546,1499,4769
116.54908,39.75544,1500,4769
116.54907,39.75546,1501,4769
116.54907,39.75543,1502,4769
116.54907,39.75543,1503,4769
116.5507,39.75388,1504,4769
116.54149,39.74861,1505,4769
116.5415,39.74863,1506,4769
116.54149,39.74861,1507,4769
116.54145,39.74864,1508,4769
116.54145,39.74864,1509,4769
116.5415,39.74861,1510,4769
116.54146,39.74858,1511,4769
116.54152,39.74857,1512,4769
116.54155,39.74856,1513,4769
116.54155,39.74855,1514,4769
116.54153,39.74854,1515,4769
116.54156,39.74859,1516,4769
116.54156,39.74857,1517,4769
116.54157,39.74858,1518,4769
116.54156,39.74856,1519,4769
116.5416,39.74858,1520,4769
116.5416,39.74859,1521,4769
116.5416,39.74858,1522,4769
116.54157,39.7486,1523,4769
116.54151,39.74859,1524,4769
116.54023,39.74734,1525,4769
116.54908,39.75546,1526,4769
116.5491,39.75544,1527,4769
116.54908,39.75545,1528,4769
116.54909,39.75545,1529,4769
116.54905,39.75546,1530,4769
116.54908,39.75546,1531,4769
116.54908,39.75545,1532,4769
116.54909,39.75544,1533,4769
116.54908,39.75546,1534,4769
116.54911,39.75544,1535,4769
116.54909,39.75546,1536,4769
116.54909,39.75543,1537,4769
116.5491,39.75546,1538,4769
116.5491,39.75546,1539,4769
116.54907,39.75545,1540,4769
116.54907,39.75543,1541,4769
116.54907,39.75544,1542,4769
116.54907,39.75546,1543,4769
116.54909,39.75544,1544,4769
116.54907,39.75546,1545,4769
116.54905,39.75549,1546,4769
116.54906,39.75547,1547,4769
116.54906,39.75547,1548,4769
116.5491,39.75547,1549,4769
116.54908,39.75546,1550,4769
116.54905,39.75546,1551,4769
116.54909,39.75545,1552,4769
116.54909,39.75546,1553,4769
116.54908,39.75547,1554,4769
116.54909,39.75545,1555,4769
116.54909,39.75547,1556,4769
116.54911,39.75546,1557,4769
116.54908,39.75548,1558,4769
116.54908,39.75546,1559,4769
116.54909,39.75547,1560,4769
116.54909,39.75547,1561,4769
116.54907,39.75548,1562,4769
116.54909,39.75553,1563,4769
116.54907,39.75548,1564,4769
116.54908,39.75549,1565,4769
116.5491,39.75546,1566,4769
116.5491,39.75547,1567,4769
116.54913,39.75546,1568,4769
116.54912,39.75545,1569,4769
116.54909,39.75546,1570,4769
116.54914,39.75549,1571,4769
116.54912,39.75546,1572,4769
116.54911,39.75545,1573,4769
116.54908,39.75545,1574,4769
116.54909,39.75547,1575,4769
116.54908,39.75548,1576,4769
116.5491,39.75546,1577,4769
116.54908,39.75545,1578,4769
116.54908,39.75545,1579,4769
116.54909,39.75544,1580,4769
116.54911,39.75545,1581,4769
116.54911,39.75545,1582,4769
116.54909,39.75545,1583,4769
116.54909,39.75541,1584,4769
116.54911,39.75546,1585,4769
116.54909,39.75544,1586,4769
116.54911,39.75546,1587,4769
116.54911,39.75545,1588,4769
116.54908,39.75543,1589,4769
116.54908,39.75545,1590,4769
116.54908,39.75545,1591,4769
116.54907,39.75544,1592,4769
116.54907,39.75544,1593,4769
116.54909,39.75545,1594,4769
116.54911,39.75542,1595,4769
116.54909,39.75545,1596,4769
116.54911,39.75544,1597,4769
116.5491,39.75543,1598,4769
116.54909,39.75541,1599,4769
116.54909,39.75542,1600,4769
116.5491,39.75543,1601,4769
116.54911,39.75542,1602,4769
116.54909,39.75544,1603,4769
116.54911,39.75544,1604,4769
116.54909,39.75541,1605,4769
116.54909,39.75544,1606,4769
116.5491,39.75544,1607,4769
116.54909,39.75542,1608,4769
116.5491,39.75542,1609,4769
116.5491,39.75541,1610,4769
116.54911,39.75542,1611,4769
116.54907,39.75542,1612,4769
116.54908,39.75544,1613,4769
116.5491,39.75544,1614,4769
116.54909,39.75544,1615,4769
116.54909,39.75542,1616,4769
116.54911,39.75542,1617,4769
116.54908,39.75542,1618,4769
116.5491,39.75542,1619,4769
116.5491,39.75542,1620,4769
116.5491,39.75542,1621,4769
116.54911,39.75543,1622,4769
116.54913,39.75542,1623,4769
116.54912,39.75542,1624,4769
116.54911,39.75542,1625,4769
116.54913,39.75544,1626,4769
116.54914,39.75538,1627,4769
116.54912,39.75543,1628,4769
116.54913,39.75543,1629,4769
116.54908,39.75543,1630,4769
116.54911,39.75543,1631,4769
116.54911,39.7554,1632,4769
116.54912,39.75539,1633,4769
116.54911,39.75542,1634,4769
116.54909,39.75542,1635,4769
116.54911,39.75542,1636,4769
116.54912,39.75545,1637,4769
116.54912,39.75543,1638,4769
116.54913,39.75544,1639,4769
116.54913,39.75546,1640,4769
116.54912,39.75545,1641,4769
116.54911,39.75545,1642,4769
116.54915,39.75545,1643,4769
116.54909,39.75544,1644,4769
116.54918,39.75547,1645,4769
116.54914,39.75546,1646,4769
116.5491,39.75545,1647,4769
116.54909,39.75543,1648,4769
116.54911,39.75544,1649,4769
116.5491,39.75549,1650,4769
116.5491,39.75549,1651,4769
116.54911,39.75548,1652,4769
116.54912,39.75548,1653,4769
116.54909,39.75546,1654,4769
116.54911,39.75548,1655,4769
116.5491,39.75546,1656,4769
116.5491,39.75548,1657,4769
116.54911,39.75549,1658,4769
116.5491,39.75548,1659,4769
116.54911,39.75548,1660,4769
116.54909,39.75545,1661,4769
116.54911,39.75546,1662,4769
116.54911,39.75546,1663,4769
116.54914,39.75546,1664,4769
116.5491,39.75548,1665,4769
116.54908,39.75549,1666,4769
116.54909,39.75551,1667,4769
116.5491,39.7555,1668,4769
116.5491,39.75551,1669,4769
116.5491,39.75551,1670,4769
116.54985,39.75781,1671,4769
116.54868,39.75966,1672,4769
116.54867,39.75972,1673,4769
116.54866,39.75967,1674,4769
116.5498,39.75778,1675,4769
116.56564,39.76722,1676,4769
116.57302,39.76922,1677,4769
116.57301,39.76918,1678,4769
116.57299,39.76921,1679,4769
116.57302,39.76918,1680,4769
116.57297,39.76919,1681,4769
116.57297,39.76919,1682,4769
116.57298,39.76918,1683,4769
116.57298,39.76916,1684,4769
116.57302,39.76916,1685,4769
116.57298,39.76919,1686,4769
116.573,39.76919,1687,4769
116.57298,39.76918,1688,4769
116.573,39.76919,1689,4769
116.57299,39.76918,1690,4769
116.573,39.76918,1691,4769
116.573,39.76914,1692,4769
116.57298,39.76916,1693,4769
116.57298,39.76918,1694,4769
116.57302,39.76922,1695,4769
116.57299,39.7692,1696,4769
116.573,39.7692,1697,4769
116.57302,39.7692,1698,4769
116.57301,39.76919,1699,4769
116.57298,39.76921,1700,4769
116.57303,39.7692,1701,4769
116.57302,39.76919,1702,4769
116.573,39.76916,1703,4769
116.573,39.76918,1704,4769
116.57303,39.7692,1705,4769
116.57301,39.76921,1706,4769
116.57301,39.7692,1707,4769
116.57302,39.76919,1708,4769
116.57301,39.7692,1709,4769
116.57301,39.7692,1710,4769
116.57303,39.76922,1711,4769
116.57301,39.76924,1712,4769
116.57302,39.7692,1713,4769
116.57298,39.76927,1714,4769
116.573,39.76922,1715,4769
116.57302,39.76919,1716,4769
116.57303,39.76918,1717,4769
116.57301,39.76921,1718,4769
116.57303,39.76914,1719,4769
116.57303,39.76915,1720,4769
116.57301,39.76921,1721,4769
116.57301,39.76923,1722,4769
116.57303,39.76919,1723,4769
116.57302,39.76917,1724,4769
116.573,39.76919,1725,4769
116.57301,39.76919,1726,4769
116.57301,39.76918,1727,4769
116.57297,39.76918,1728,4769
116.57298,39.76916,1729,4769
116.57302,39.76917,1730,4769
116.55899,39.7667,1731,4769
116.54909,39.75563,1732,4769
116.54909,39.75539,1733,4769
116.54908,39.75536,1734,4769
116.54908,39.75536,1735,4769
116.54908,39.75536,1736,4769
