x,y,k,tid
116.45503,39.87096,0,4973
116.47075,39.88299,1,4973
116.47149,39.89323,2,4973
116.48415,39.90271,3,4973
116.47232,39.90714,4,4973
116.45344,39.91214,5,4973
116.45274,39.91841,6,4973
116.45273,39.91841,7,4973
116.45273,39.91841,8,4973
116.45432,39.91802,9,4973
116.45602,39.90468,10,4973
116.44582,39.90715,11,4973
116.4257,39.90715,12,4973
116.41386,39.91061,13,4973
116.42844,39.91322,14,4973
116.42844,39.91322,15,4973
116.43474,39.90472,16,4973
116.44962,39.90687,17,4973
116.51536,39.90687,18,4973
116.54213,39.87025,19,4973
116.60298,39.86413,20,4973
116.6544,39.86045,21,4973
116.65508,39.86152,22,4973
116.67496,39.86973,23,4973
116.71793,39.86105,24,4973
116.80087,39.81227,25,4973
116.85936,39.81314,26,4973
116.87535,39.81497,27,4973
116.87542,39.81494,28,4973
116.87543,39.81495,29,4973
116.87543,39.81495,30,4973
116.87541,39.81495,31,4973
116.87539,39.815,32,4973
116.87545,39.8149,33,4973
116.8754,39.81497,34,4973
116.87545,39.81494,35,4973
116.87543,39.81494,36,4973
116.55878,39.81486,37,4973
116.87544,39.81486,38,4973
116.87542,39.81495,39,4973
116.87546,39.81489,40,4973
116.87542,39.81488,41,4973
116.87543,39.81489,42,4973
116.87545,39.81489,43,4973
116.87546,39.81487,44,4973
116.89813,39.81974,45,4973
116.89875,39.82109,46,4973
116.89875,39.82107,47,4973
116.89875,39.8211,48,4973
116.89874,39.8211,49,4973
116.89875,39.82109,50,4973
116.8987,39.82107,51,4973
116.89873,39.82105,52,4973
116.89872,39.82107,53,4973
116.89873,39.82111,54,4973
116.89872,39.82111,55,4973
116.89874,39.82108,56,4973
116.89874,39.82109,57,4973
116.89871,39.82109,58,4973
116.89873,39.8211,59,4973
116.89871,39.82108,60,4973
116.89871,39.82109,61,4973
116.89872,39.82109,62,4973
116.89871,39.82109,63,4973
116.89871,39.8211,64,4973
116.87714,39.81226,65,4973
116.87715,39.81225,66,4973
116.87713,39.81224,67,4973
116.87714,39.81226,68,4973
116.8767,39.81345,69,4973
116.87491,39.81487,70,4973
116.89872,39.82112,71,4973
116.89875,39.82113,72,4973
116.89871,39.82113,73,4973
116.89871,39.82113,74,4973
116.89869,39.82114,75,4973
116.89869,39.82115,76,4973
116.8987,39.82112,77,4973
116.89868,39.82113,78,4973
116.89868,39.82113,79,4973
116.89869,39.82112,80,4973
116.89869,39.82111,81,4973
116.89869,39.8211,82,4973
116.89866,39.82113,83,4973
116.89865,39.82113,84,4973
116.8987,39.82113,85,4973
116.89866,39.82112,86,4973
116.89868,39.82112,87,4973
116.89868,39.82112,88,4973
116.89866,39.8211,89,4973
116.89867,39.8211,90,4973
116.89871,39.82113,91,4973
116.89872,39.82113,92,4973
116.89872,39.82112,93,4973
116.89871,39.82112,94,4973
116.89871,39.82111,95,4973
116.89872,39.82114,96,4973
116.89872,39.82112,97,4973
116.89871,39.82113,98,4973
116.89869,39.82113,99,4973
116.89869,39.82113,100,4973
116.89872,39.82113,101,4973
116.89872,39.82112,102,4973
116.8987,39.82111,103,4973
116.89871,39.82113,104,4973
116.89871,39.82111,105,4973
116.89872,39.82111,106,4973
116.89871,39.8211,107,4973
116.8987,39.82108,108,4973
116.89872,39.82109,109,4973
116.89874,39.82109,110,4973
116.8987,39.82108,111,4973
116.8987,39.82108,112,4973
116.89871,39.8211,113,4973
116.89873,39.82109,114,4973
116.89873,39.82107,115,4973
116.89872,39.82108,116,4973
116.89873,39.82108,117,4973
116.89876,39.82108,118,4973
116.89876,39.82108,119,4973
116.89871,39.82109,120,4973
116.89874,39.82109,121,4973
116.89872,39.82104,122,4973
116.89872,39.82106,123,4973
116.89872,39.82107,124,4973
116.89869,39.82109,125,4973
116.89872,39.82108,126,4973
116.89871,39.82107,127,4973
116.8987,39.82108,128,4973
116.89868,39.8211,129,4973
116.89866,39.82111,130,4973
116.89868,39.8211,131,4973
116.89869,39.82109,132,4973
116.8987,39.82111,133,4973
116.89868,39.82115,134,4973
116.89872,39.82115,135,4973
116.89872,39.82113,136,4973
116.89872,39.82112,137,4973
116.89873,39.8211,138,4973
116.89872,39.8211,139,4973
116.89873,39.82115,140,4973
116.89865,39.82113,141,4973
116.89865,39.82113,142,4973
116.8987,39.82112,143,4973
116.89868,39.82111,144,4973
116.89866,39.82112,145,4973
116.89869,39.82111,146,4973
116.89873,39.82111,147,4973
116.89868,39.82112,148,4973
116.89865,39.82112,149,4973
116.89868,39.8211,150,4973
116.8987,39.82111,151,4973
116.89866,39.8211,152,4973
116.89867,39.8211,153,4973
116.89868,39.82107,154,4973
116.89869,39.82109,155,4973
116.89871,39.82108,156,4973
116.8987,39.82108,157,4973
116.89875,39.82112,158,4973
116.89869,39.82109,159,4973
116.89871,39.82111,160,4973
116.89871,39.82111,161,4973
116.89868,39.82108,162,4973
116.89869,39.82112,163,4973
116.89871,39.8211,164,4973
116.89871,39.82112,165,4973
116.89871,39.82112,166,4973
116.89868,39.82112,167,4973
116.89869,39.82109,168,4973
116.89871,39.8211,169,4973
116.89872,39.82112,170,4973
116.8987,39.82112,171,4973
116.89869,39.82111,172,4973
116.89869,39.82112,173,4973
116.8987,39.82111,174,4973
116.89872,39.82109,175,4973
116.89872,39.82109,176,4973
116.89872,39.8211,177,4973
116.89871,39.8211,178,4973
116.8987,39.8211,179,4973
116.8987,39.82109,180,4973
116.89871,39.82108,181,4973
116.89874,39.82109,182,4973
116.89872,39.8211,183,4973
116.89873,39.82111,184,4973
116.89871,39.8211,185,4973
116.89872,39.82111,186,4973
116.89873,39.82107,187,4973
116.89873,39.82111,188,4973
116.89872,39.8211,189,4973
116.89873,39.8211,190,4973
116.89873,39.82109,191,4973
116.89873,39.82107,192,4973
116.89875,39.82107,193,4973
116.89871,39.82109,194,4973
116.89875,39.82108,195,4973
116.89876,39.8211,196,4973
116.89874,39.82111,197,4973
116.89874,39.8211,198,4973
116.83415,39.81275,199,4973
116.77399,39.81504,200,4973
116.66448,39.88158,201,4973
116.64612,39.89111,202,4973
116.63079,39.90446,203,4973
116.63079,39.90446,204,4973
116.61281,39.90544,205,4973
116.53638,39.90831,206,4973
116.47156,39.90225,207,4973
116.45828,39.89235,208,4973
116.45625,39.90544,209,4973
116.43892,39.90722,210,4973
116.42041,39.91389,211,4973
116.42079,39.90782,212,4973
116.42096,39.90545,213,4973
116.42096,39.90545,214,4973
116.43745,39.90708,215,4973
116.45658,39.90701,216,4973
116.4559,39.91366,217,4973
116.4556,39.93155,218,4973
116.45593,39.94677,219,4973
116.46361,39.94332,220,4973
116.47164,39.90796,221,4973
116.45917,39.90732,222,4973
116.44369,39.9072,223,4973
116.42938,39.90794,224,4973
116.41813,39.90496,225,4973
116.42078,39.90584,226,4973
116.43244,39.89692,227,4973
116.44936,39.89202,228,4973
116.45503,39.89131,229,4973
116.44978,39.87276,230,4973
116.45524,39.87603,231,4973
116.45589,39.90301,232,4973
116.45615,39.9048,233,4973
116.46689,39.90385,234,4973
116.46689,39.90385,235,4973
116.46049,39.9037,236,4973
116.49149,39.90708,237,4973
116.49135,39.90724,238,4973
116.48334,39.88105,239,4973
116.46528,39.87011,240,4973
116.45528,39.88245,241,4973
116.45548,39.89137,242,4973
116.45552,39.92113,243,4973
116.43731,39.96365,244,4973
116.37772,39.96696,245,4973
116.3727,39.97406,246,4973
116.38413,39.98109,247,4973
116.39375,39.96714,248,4973
116.42559,39.96793,249,4973
116.44351,39.95925,250,4973
116.45531,39.94822,251,4973
116.45518,39.92212,252,4973
116.46601,39.91462,253,4973
116.45537,39.91781,254,4973
116.43575,39.912,255,4973
116.46141,39.91225,256,4973
116.48279,39.91421,257,4973
116.50089,39.9146,258,4973
116.5161,39.90743,259,4973
116.49778,39.90656,260,4973
116.49778,39.90656,261,4973
116.51992,39.91536,262,4973
116.5427,39.9148,263,4973
116.55995,39.91472,264,4973
116.58228,39.91166,265,4973
116.59462,39.90879,266,4973
116.61912,39.90517,267,4973
116.62793,39.90134,268,4973
116.63688,39.8949,269,4973
116.69636,39.86672,270,4973
116.71963,39.86012,271,4973
116.76437,39.8419,272,4973
116.78025,39.81419,273,4973
116.84271,39.81316,274,4973
116.89498,39.81847,275,4973
116.89872,39.82099,276,4973
116.89874,39.82098,277,4973
116.89872,39.82098,278,4973
116.89874,39.82099,279,4973
116.89876,39.82099,280,4973
116.89875,39.82099,281,4973
116.89875,39.821,282,4973
116.89875,39.82098,283,4973
116.89874,39.82098,284,4973
116.89874,39.82096,285,4973
116.89874,39.82097,286,4973
116.89876,39.82101,287,4973
116.89873,39.82097,288,4973
116.89873,39.82097,289,4973
116.89895,39.82095,290,4973
116.87794,39.81583,291,4973
116.8779,39.8157,292,4973
116.87792,39.8157,293,4973
116.87791,39.8157,294,4973
116.87791,39.8157,295,4973
116.87794,39.8157,296,4973
116.87791,39.81569,297,4973
116.87786,39.81572,298,4973
116.87791,39.8157,299,4973
116.87789,39.81572,300,4973
116.87792,39.81571,301,4973
116.87789,39.81569,302,4973
116.87606,39.81316,303,4973
116.87597,39.81302,304,4973
116.876,39.81307,305,4973
116.87597,39.81306,306,4973
116.87601,39.81305,307,4973
116.89081,39.81873,308,4973
116.89873,39.82112,309,4973
116.89871,39.82114,310,4973
116.89869,39.82111,311,4973
116.89873,39.82113,312,4973
116.89873,39.82113,313,4973
116.89872,39.82113,314,4973
116.89872,39.82114,315,4973
116.89872,39.82114,316,4973
116.89871,39.82112,317,4973
116.8987,39.82113,318,4973
116.89871,39.82114,319,4973
116.89871,39.82114,320,4973
116.89871,39.82115,321,4973
116.89871,39.82113,322,4973
116.89873,39.82113,323,4973
116.89871,39.82111,324,4973
116.89874,39.82112,325,4973
116.89871,39.82112,326,4973
116.89871,39.82115,327,4973
116.89871,39.82112,328,4973
116.89868,39.82113,329,4973
116.89868,39.82114,330,4973
116.89868,39.82112,331,4973
116.89871,39.82114,332,4973
116.89869,39.82115,333,4973
116.89868,39.82112,334,4973
116.89866,39.82113,335,4973
116.89869,39.82112,336,4973
116.89869,39.82112,337,4973
116.89871,39.82113,338,4973
116.89871,39.82113,339,4973
116.89868,39.82111,340,4973
116.89868,39.82113,341,4973
116.89871,39.8211,342,4973
116.89872,39.82112,343,4973
116.89872,39.82114,344,4973
116.89871,39.8211,345,4973
116.89873,39.82111,346,4973
116.89875,39.82114,347,4973
116.89872,39.82112,348,4973
116.89872,39.82112,349,4973
116.89872,39.82111,350,4973
116.89874,39.82113,351,4973
116.89871,39.82111,352,4973
116.89872,39.82111,353,4973
116.89872,39.82111,354,4973
116.89874,39.82113,355,4973
116.89874,39.82113,356,4973
116.89874,39.82111,357,4973
116.89869,39.82107,358,4973
116.89871,39.82109,359,4973
116.89872,39.8211,360,4973
116.89872,39.82109,361,4973
116.89871,39.82108,362,4973
116.89871,39.82108,363,4973
116.89869,39.82111,364,4973
116.8987,39.8211,365,4973
116.89873,39.82109,366,4973
116.89873,39.8211,367,4973
116.89871,39.8211,368,4973
116.89873,39.82108,369,4973
116.89874,39.82109,370,4973
116.89873,39.82108,371,4973
116.89872,39.82109,372,4973
116.89872,39.8211,373,4973
116.89874,39.8211,374,4973
116.89874,39.8211,375,4973
116.89872,39.82108,376,4973
116.89871,39.82111,377,4973
116.89873,39.82111,378,4973
116.89874,39.8211,379,4973
116.8987,39.8211,380,4973
116.89871,39.82112,381,4973
116.89875,39.8211,382,4973
116.89874,39.8211,383,4973
116.89871,39.82107,384,4973
116.89871,39.82107,385,4973
116.89872,39.8211,386,4973
116.89869,39.82111,387,4973
116.89872,39.8211,388,4973
116.89873,39.82111,389,4973
116.89874,39.8211,390,4973
116.89872,39.82111,391,4973
116.89875,39.82113,392,4973
116.89875,39.82112,393,4973
116.89872,39.82114,394,4973
116.89873,39.82113,395,4973
116.89874,39.82112,396,4973
116.89874,39.82113,397,4973
116.89872,39.82113,398,4973
116.89873,39.82111,399,4973
116.8987,39.82112,400,4973
116.89872,39.82113,401,4973
116.89871,39.82113,402,4973
116.8987,39.82112,403,4973
116.89871,39.82114,404,4973
116.89872,39.82113,405,4973
116.89871,39.82113,406,4973
116.89871,39.82112,407,4973
116.89871,39.82113,408,4973
116.89871,39.82113,409,4973
116.89871,39.82113,410,4973
116.8987,39.82116,411,4973
116.89872,39.82115,412,4973
116.89869,39.82111,413,4973
116.89874,39.82114,414,4973
116.89872,39.82113,415,4973
116.89874,39.82112,416,4973
116.89876,39.82113,417,4973
116.8987,39.82112,418,4973
116.89876,39.82111,419,4973
116.89872,39.82112,420,4973
116.89874,39.8211,421,4973
116.89869,39.8211,422,4973
116.8987,39.82114,423,4973
116.89875,39.8211,424,4973
116.89874,39.82113,425,4973
116.89871,39.82111,426,4973
116.89873,39.8211,427,4973
116.89872,39.82112,428,4973
116.89871,39.82111,429,4973
116.89871,39.8211,430,4973
116.89872,39.82111,431,4973
116.89872,39.82111,432,4973
116.8987,39.82111,433,4973
116.89872,39.82111,434,4973
116.89872,39.82111,435,4973
116.89871,39.8211,436,4973
116.8987,39.82111,437,4973
116.89871,39.8211,438,4973
116.89872,39.8211,439,4973
116.89871,39.82109,440,4973
116.89871,39.82109,441,4973
116.89869,39.82112,442,4973
116.89871,39.82109,443,4973
116.89872,39.82109,444,4973
116.89873,39.82107,445,4973
116.89875,39.82109,446,4973
116.89873,39.82108,447,4973
116.89874,39.82109,448,4973
116.89873,39.82111,449,4973
116.89874,39.82108,450,4973
116.89873,39.8211,451,4973
116.89873,39.82109,452,4973
116.89873,39.82108,453,4973
116.89873,39.82109,454,4973
116.89873,39.8211,455,4973
116.89876,39.82108,456,4973
116.89871,39.82111,457,4973
116.89871,39.82111,458,4973
116.89871,39.82111,459,4973
116.89869,39.82111,460,4973
116.89874,39.8211,461,4973
116.89874,39.8211,462,4973
116.89863,39.8212,463,4973
116.89865,39.82119,464,4973
116.89875,39.8211,465,4973
116.89875,39.82112,466,4973
116.89873,39.8211,467,4973
116.89872,39.82112,468,4973
116.89871,39.82114,469,4973
116.89871,39.82115,470,4973
116.89872,39.82114,471,4973
116.8987,39.82098,472,4973
116.87712,39.81524,473,4973
116.87715,39.81224,474,4973
116.86816,39.81307,475,4973
116.79946,39.81315,476,4973
116.77138,39.83321,477,4973
116.72748,39.8587,478,4973
116.68963,39.86866,479,4973
116.66204,39.88362,480,4973
116.65223,39.90072,481,4973
116.64997,39.91405,482,4973
116.63715,39.9094,483,4973
116.61449,39.90573,484,4973
116.54453,39.90822,485,4973
116.48475,39.907,486,4973
116.45722,39.90713,487,4973
116.45722,39.90713,488,4973
116.44418,39.91922,489,4973
116.44011,39.92185,490,4973
116.43372,39.92343,491,4973
116.45507,39.91225,492,4973
116.46055,39.91227,493,4973
116.45965,39.90728,494,4973
116.45596,39.90512,495,4973
116.45454,39.9074,496,4973
116.44708,39.90727,497,4973
116.42976,39.90913,498,4973
116.42817,39.94042,499,4973
116.41932,39.94179,500,4973
116.42795,39.92609,501,4973
116.42852,39.92275,502,4973
116.43687,39.92251,503,4973
116.44878,39.922,504,4973
116.46343,39.91609,505,4973
116.47525,39.914,506,4973
116.48318,39.91266,507,4973
116.46336,39.90707,508,4973
116.46336,39.90707,509,4973
116.45479,39.90437,510,4973
116.45468,39.90426,511,4973
116.45464,39.90432,512,4973
116.45469,39.90426,513,4973
116.45478,39.90416,514,4973
116.46346,39.8989,515,4973
116.45584,39.90231,516,4973
116.45893,39.90413,517,4973
116.47229,39.90669,518,4973
116.4839,39.94484,519,4973
116.48961,39.9613,520,4973
116.49045,39.94419,521,4973
116.49586,39.92736,522,4973
116.5123,39.91645,523,4973
116.50803,39.90863,524,4973
116.50811,39.90911,525,4973
116.50804,39.9091,526,4973
116.50812,39.9091,527,4973
116.50812,39.90916,528,4973
116.50813,39.90911,529,4973
116.50806,39.9091,530,4973
116.50807,39.9091,531,4973
116.50323,39.90694,532,4973
116.50323,39.90694,533,4973
116.47311,39.90969,534,4973
116.47158,39.90765,535,4973
116.47155,39.90008,536,4973
116.45584,39.90415,537,4973
116.46714,39.90677,538,4973
116.49001,39.90656,539,4973
116.49842,39.90701,540,4973
116.47191,39.90701,541,4973
116.45611,39.90809,542,4973
116.47179,39.90712,543,4973
116.43644,39.89946,544,4973
116.41351,39.89189,545,4973
116.39244,39.89007,546,4973
116.36204,39.88796,547,4973
116.33599,39.88852,548,4973
116.31879,39.88859,549,4973
116.35386,39.88799,550,4973
116.36965,39.88781,551,4973
116.39187,39.88977,552,4973
116.41334,39.89158,553,4973
116.44956,39.89202,554,4973
116.44956,39.89202,555,4973
116.46593,39.89186,556,4973
116.47169,39.90351,557,4973
116.45655,39.9058,558,4973
116.45843,39.90521,559,4973
116.45606,39.90397,560,4973
116.45591,39.91354,561,4973
116.45558,39.92864,562,4973
116.45215,39.95397,563,4973
116.41579,39.96797,564,4973
116.37834,39.96698,565,4973
116.36337,39.98271,566,4973
116.35892,39.99206,567,4973
116.34924,39.99983,568,4973
116.3336,40.00266,569,4973
116.34203,39.9918,570,4973
116.34726,39.96769,571,4973
116.38701,39.96705,572,4973
116.43969,39.96202,573,4973
116.4555,39.94357,574,4973
116.45259,39.922,575,4973
116.45259,39.922,576,4973
116.43953,39.91192,577,4973
116.46878,39.90672,578,4973
116.47157,39.89968,579,4973
116.48579,39.90532,580,4973
116.52657,39.90797,581,4973
116.56554,39.90817,582,4973
116.59307,39.90772,583,4973
116.57196,39.90952,584,4973
116.55742,39.91506,585,4973
116.5687,39.91377,586,4973
116.58565,39.91081,587,4973
116.65508,39.9219,588,4973
116.68745,39.93084,589,4973
116.66515,39.92719,590,4973
116.64012,39.92157,591,4973
116.61515,39.91238,592,4973
116.62654,39.91228,593,4973
116.62656,39.91229,594,4973
116.62654,39.91231,595,4973
116.62654,39.91229,596,4973
116.62654,39.91227,597,4973
116.62651,39.91229,598,4973
116.62651,39.91229,599,4973
116.62655,39.91227,600,4973
116.6265,39.91227,601,4973
116.62656,39.91226,602,4973
116.62657,39.91228,603,4973
116.62656,39.91227,604,4973
116.62657,39.91228,605,4973
116.62655,39.91225,606,4973
116.62649,39.91224,607,4973
116.62654,39.91226,608,4973
116.64281,39.9208,609,4973
116.67058,39.90999,610,4973
116.73604,39.86882,611,4973
116.89868,39.82112,612,4973
116.89871,39.82115,613,4973
116.89869,39.82111,614,4973
116.8987,39.82114,615,4973
116.89868,39.82111,616,4973
116.89871,39.82112,617,4973
116.89871,39.82111,618,4973
116.89869,39.82111,619,4973
116.89874,39.82113,620,4973
116.89869,39.82109,621,4973
116.89876,39.82113,622,4973
116.89871,39.8211,623,4973
116.89872,39.82111,624,4973
116.89873,39.82113,625,4973
116.89875,39.82111,626,4973
116.89876,39.82112,627,4973
116.89869,39.8211,628,4973
116.89871,39.8211,629,4973
116.89874,39.82112,630,4973
116.89871,39.82109,631,4973
116.89874,39.82111,632,4973
116.8987,39.82108,633,4973
116.89874,39.82111,634,4973
116.89872,39.82109,635,4973
116.89873,39.82108,636,4973
116.89873,39.82107,637,4973
116.89873,39.82107,638,4973
116.8987,39.8211,639,4973
116.89872,39.82109,640,4973
116.89871,39.82109,641,4973
116.89873,39.82109,642,4973
116.89873,39.8211,643,4973
116.89874,39.8211,644,4973
116.89873,39.82112,645,4973
116.89873,39.82109,646,4973
116.89873,39.82109,647,4973
116.89871,39.82109,648,4973
116.89869,39.8211,649,4973
116.8987,39.82113,650,4973
116.89868,39.82111,651,4973
116.89871,39.8211,652,4973
116.89871,39.82111,653,4973
116.89873,39.82111,654,4973
116.89873,39.82111,655,4973
116.89871,39.82112,656,4973
116.89874,39.82111,657,4973
116.89874,39.82112,658,4973
116.89872,39.82114,659,4973
116.89875,39.82112,660,4973
116.89873,39.82114,661,4973
116.89874,39.82112,662,4973
116.89875,39.82111,663,4973
116.89873,39.82114,664,4973
116.8987,39.82111,665,4973
116.89871,39.82113,666,4973
116.89869,39.82113,667,4973
116.89874,39.82114,668,4973
116.89872,39.82115,669,4973
116.8987,39.82115,670,4973
116.89871,39.82114,671,4973
116.89873,39.82116,672,4973
116.89868,39.82116,673,4973
116.8987,39.82115,674,4973
116.89871,39.82115,675,4973
116.89869,39.82114,676,4973
116.89869,39.82114,677,4973
116.89873,39.82111,678,4973
116.89874,39.82113,679,4973
116.89874,39.82113,680,4973
116.8987,39.82113,681,4973
116.89873,39.82114,682,4973
116.89871,39.82112,683,4973
116.89873,39.8211,684,4973
116.89871,39.82113,685,4973
116.89873,39.82111,686,4973
116.89871,39.82113,687,4973
116.89872,39.82111,688,4973
116.89873,39.82112,689,4973
116.89871,39.8211,690,4973
116.8987,39.82112,691,4973
116.89871,39.82111,692,4973
116.8987,39.82109,693,4973
116.89868,39.82111,694,4973
116.89871,39.82111,695,4973
116.89871,39.82111,696,4973
116.89872,39.8211,697,4973
116.8987,39.8211,698,4973
116.89872,39.8211,699,4973
116.89872,39.82109,700,4973
116.89872,39.82107,701,4973
116.89871,39.8211,702,4973
116.8987,39.82109,703,4973
116.8987,39.82109,704,4973
116.89871,39.8211,705,4973
116.89871,39.82108,706,4973
116.89869,39.8211,707,4973
116.89871,39.8211,708,4973
116.8987,39.8211,709,4973
116.8987,39.82108,710,4973
116.89872,39.82108,711,4973
116.89872,39.82111,712,4973
116.89871,39.82111,713,4973
116.89871,39.8211,714,4973
116.89871,39.8211,715,4973
116.89873,39.8211,716,4973
116.89874,39.82109,717,4973
116.89873,39.82109,718,4973
116.89874,39.8211,719,4973
116.89872,39.82108,720,4973
116.89871,39.82112,721,4973
116.89871,39.82109,722,4973
116.89873,39.82107,723,4973
116.89069,39.81873,724,4973
116.89069,39.81873,725,4973
116.84509,39.81328,726,4973
116.77194,39.8153,727,4973
116.74294,39.85337,728,4973
116.72054,39.86122,729,4973
116.70553,39.86437,730,4973
116.66987,39.87713,731,4973
116.64388,39.89176,732,4973
116.62932,39.90519,733,4973
116.57456,39.90951,734,4973
116.5465,39.90837,735,4973
116.51905,39.90809,736,4973
116.48824,39.90712,737,4973
116.47148,39.90443,738,4973
116.45592,39.90403,739,4973
116.4545,39.90379,740,4973
116.45598,39.90967,741,4973
116.45563,39.93672,742,4973
116.47033,39.95444,743,4973
116.44976,39.94711,744,4973
116.43324,39.93984,745,4973
116.42564,39.92359,746,4973
116.40533,39.92297,747,4973
116.40533,39.92297,748,4973
116.38798,39.92185,749,4973
116.36984,39.91333,750,4973
116.35816,39.91722,751,4973
116.3638,39.93107,752,4973
116.38652,39.93201,753,4973
116.40237,39.93201,754,4973
116.4103,39.93946,755,4973
116.42753,39.93321,756,4973
116.44415,39.92564,757,4973
116.4554,39.91239,758,4973
116.45541,39.9123,759,4973
116.45877,39.9053,760,4973
116.45599,39.91203,761,4973
116.44426,39.91705,762,4973
116.44676,39.92558,763,4973
116.45536,39.92018,764,4973
116.45956,39.90653,765,4973
116.45628,39.90401,766,4973
116.61382,40.15502,767,4973
116.61382,40.15502,768,4973
116.45965,39.90559,769,4973
116.47125,39.90666,770,4973
116.47157,39.89987,771,4973
116.47157,39.89987,772,4973
116.4718,39.9023,773,4973
116.46581,39.90377,774,4973
116.42687,39.89235,775,4973
116.40283,39.89143,776,4973
116.37919,39.88825,777,4973
116.32347,39.88879,778,4973
116.31389,39.8876,779,4973
116.30633,39.89506,780,4973
116.37696,39.88799,781,4973
116.39761,39.89096,782,4973
116.43081,39.89212,783,4973
116.42976,39.9049,784,4973
116.43622,39.93962,785,4973
116.44417,39.93257,786,4973
116.44417,39.93257,787,4973
116.45519,39.92257,788,4973
116.47181,39.91477,789,4973
116.47152,39.90741,790,4973
116.45727,39.90611,791,4973
116.45514,39.90352,792,4973
116.45607,39.90902,793,4973
116.45588,39.93191,794,4973
116.45594,39.93964,795,4973
116.46854,39.9367,796,4973
116.47196,39.9228,797,4973
116.47168,39.91054,798,4973
116.4649,39.9068,799,4973
116.47369,39.89183,800,4973
116.48319,39.8831,801,4973
116.47142,39.89158,802,4973
116.45651,39.89217,803,4973
116.45394,39.86569,804,4973
116.47085,39.86998,805,4973
116.49916,39.86114,806,4973
116.49927,39.85726,807,4973
116.49602,39.87513,808,4973
116.48394,39.89141,809,4973
116.47591,39.89929,810,4973
116.47591,39.89929,811,4973
116.47123,39.8894,812,4973
116.48267,39.87486,813,4973
116.47149,39.8913,814,4973
116.45721,39.90342,815,4973
116.46173,39.9069,816,4973
116.48337,39.90449,817,4973
116.5244,39.9157,818,4973
116.53844,39.91493,819,4973
116.54142,39.91383,820,4973
116.56348,39.9145,821,4973
116.58317,39.91137,822,4973
116.58317,39.91137,823,4973
116.60688,39.91197,824,4973
116.62295,39.91311,825,4973
116.63608,39.92113,826,4973
116.65114,39.91006,827,4973
116.65215,39.90331,828,4973
116.65521,39.88897,829,4973
116.67461,39.87308,830,4973
116.71337,39.86219,831,4973
116.77046,39.83448,832,4973
116.79076,39.81412,833,4973
116.79076,39.81412,834,4973
116.8679,39.81324,835,4973
116.87713,39.81218,836,4973
116.87713,39.81218,837,4973
116.87713,39.81217,838,4973
116.87714,39.81218,839,4973
116.87713,39.81214,840,4973
116.87711,39.81217,841,4973
116.87713,39.81223,842,4973
116.87712,39.8122,843,4973
116.87713,39.81217,844,4973
116.87597,39.81301,845,4973
116.87598,39.81305,846,4973
116.87676,39.81527,847,4973
116.87921,39.8159,848,4973
116.89869,39.82114,849,4973
116.89871,39.82112,850,4973
116.8987,39.82113,851,4973
116.89868,39.82112,852,4973
116.89873,39.8211,853,4973
116.8987,39.8211,854,4973
116.8987,39.82111,855,4973
116.8987,39.82112,856,4973
116.89872,39.82112,857,4973
116.8987,39.82113,858,4973
116.89869,39.82112,859,4973
116.89871,39.82112,860,4973
116.89873,39.82113,861,4973
116.8987,39.82112,862,4973
116.8987,39.82112,863,4973
116.89871,39.82112,864,4973
116.89873,39.82112,865,4973
116.89874,39.82111,866,4973
116.89872,39.82112,867,4973
116.89876,39.8211,868,4973
116.89871,39.82114,869,4973
116.89869,39.82113,870,4973
116.89869,39.82113,871,4973
116.89868,39.82112,872,4973
116.8987,39.82113,873,4973
116.89871,39.82113,874,4973
116.89868,39.82114,875,4973
116.89868,39.82113,876,4973
116.89868,39.82115,877,4973
116.89869,39.82112,878,4973
116.89867,39.82114,879,4973
116.89868,39.82114,880,4973
116.89867,39.82114,881,4973
116.89869,39.82113,882,4973
116.89869,39.82114,883,4973
116.89869,39.82114,884,4973
116.89869,39.82113,885,4973
116.89871,39.82112,886,4973
116.89871,39.82112,887,4973
116.89873,39.82113,888,4973
116.89873,39.82113,889,4973
116.89873,39.82112,890,4973
116.89872,39.82114,891,4973
116.89871,39.82114,892,4973
116.89877,39.82115,893,4973
116.89874,39.82114,894,4973
116.89874,39.82114,895,4973
116.89873,39.82113,896,4973
116.89871,39.82112,897,4973
116.89873,39.82113,898,4973
116.89876,39.82113,899,4973
116.89875,39.82112,900,4973
116.89874,39.82112,901,4973
116.89869,39.82109,902,4973
116.89873,39.8211,903,4973
116.8987,39.82108,904,4973
116.8987,39.8211,905,4973
116.89872,39.82107,906,4973
116.8987,39.8211,907,4973
116.89871,39.8211,908,4973
116.89871,39.82111,909,4973
116.89873,39.82111,910,4973
116.89873,39.82108,911,4973
116.89873,39.82108,912,4973
116.89871,39.82111,913,4973
116.89872,39.82111,914,4973
116.8987,39.8211,915,4973
116.89871,39.82111,916,4973
116.89871,39.82111,917,4973
116.89869,39.82112,918,4973
116.89871,39.82112,919,4973
116.89872,39.82109,920,4973
116.89871,39.82109,921,4973
116.89866,39.82112,922,4973
116.89867,39.82111,923,4973
116.89868,39.82111,924,4973
116.89873,39.82109,925,4973
116.8987,39.8211,926,4973
116.89871,39.82112,927,4973
116.89867,39.8211,928,4973
116.89871,39.82109,929,4973
116.89872,39.82111,930,4973
116.89874,39.82111,931,4973
116.89874,39.82113,932,4973
116.89872,39.82114,933,4973
116.89873,39.82112,934,4973
116.89874,39.8211,935,4973
116.89872,39.82112,936,4973
116.89873,39.82113,937,4973
116.89869,39.82111,938,4973
116.89871,39.82113,939,4973
116.8987,39.82112,940,4973
116.89872,39.82112,941,4973
116.8987,39.82112,942,4973
116.89869,39.82113,943,4973
116.89869,39.82113,944,4973
116.8987,39.82111,945,4973
116.89869,39.82113,946,4973
116.8987,39.82113,947,4973
116.89871,39.82112,948,4973
116.8987,39.82113,949,4973
116.89872,39.82111,950,4973
116.89872,39.82111,951,4973
116.89873,39.8211,952,4973
116.89871,39.82111,953,4973
116.8987,39.82112,954,4973
116.8987,39.8211,955,4973
116.89875,39.82112,956,4973
116.8987,39.82112,957,4973
116.89873,39.82111,958,4973
116.89868,39.82112,959,4973
116.89868,39.82112,960,4973
116.89872,39.82109,961,4973
116.8987,39.82112,962,4973
116.89872,39.82112,963,4973
116.89872,39.82109,964,4973
116.89869,39.8211,965,4973
116.89871,39.82111,966,4973
116.89873,39.82109,967,4973
116.8987,39.82109,968,4973
116.89873,39.8211,969,4973
116.8987,39.82111,970,4973
116.89871,39.82109,971,4973
116.89874,39.8211,972,4973
116.8987,39.82108,973,4973
116.89872,39.8211,974,4973
116.8987,39.82109,975,4973
116.89873,39.82109,976,4973
116.89873,39.82109,977,4973
116.89874,39.82109,978,4973
116.89873,39.82107,979,4973
116.89872,39.82108,980,4973
116.89873,39.82108,981,4973
116.89872,39.82109,982,4973
116.89872,39.82109,983,4973
116.89873,39.82106,984,4973
116.89872,39.82111,985,4973
116.89872,39.8211,986,4973
116.89873,39.82112,987,4973
116.89876,39.8211,988,4973
116.89873,39.82111,989,4973
116.89874,39.82109,990,4973
116.89874,39.8211,991,4973
116.89874,39.8211,992,4973
116.89874,39.82109,993,4973
116.89873,39.82112,994,4973
116.89874,39.8211,995,4973
116.89872,39.8211,996,4973
116.89872,39.82113,997,4973
116.89874,39.8211,998,4973
116.89873,39.82113,999,4973
116.89872,39.82113,1000,4973
116.89874,39.82111,1001,4973
116.89875,39.82112,1002,4973
116.89871,39.82112,1003,4973
116.89873,39.82111,1004,4973
116.89873,39.82111,1005,4973
116.89874,39.82109,1006,4973
116.89874,39.82109,1007,4973
116.89875,39.82111,1008,4973
116.89874,39.82111,1009,4973
116.89874,39.82113,1010,4973
116.89873,39.82111,1011,4973
116.89872,39.82113,1012,4973
116.89874,39.82112,1013,4973
116.89874,39.82114,1014,4973
116.89873,39.82111,1015,4973
116.89873,39.82113,1016,4973
116.89873,39.82112,1017,4973
116.89872,39.82113,1018,4973
116.89872,39.82113,1019,4973
116.89873,39.82113,1020,4973
116.89869,39.82113,1021,4973
116.89871,39.82115,1022,4973
116.89869,39.82117,1023,4973
116.89869,39.82116,1024,4973
116.89871,39.82118,1025,4973
116.89871,39.82112,1026,4973
116.89871,39.82115,1027,4973
116.89871,39.82114,1028,4973
116.89872,39.82114,1029,4973
116.89874,39.82113,1030,4973
116.89872,39.82113,1031,4973
116.89872,39.82114,1032,4973
116.89871,39.82112,1033,4973
116.89871,39.82114,1034,4973
116.89871,39.82114,1035,4973
116.89871,39.82113,1036,4973
116.89873,39.82114,1037,4973
116.89871,39.82102,1038,4973
116.87351,39.81555,1039,4973
116.87388,39.81473,1040,4973
116.8739,39.8147,1041,4973
116.87394,39.8147,1042,4973
116.8739,39.81473,1043,4973
116.87419,39.81556,1044,4973
116.87697,39.81569,1045,4973
116.87699,39.81572,1046,4973
116.8968,39.81839,1047,4973
116.89874,39.82115,1048,4973
116.89872,39.82115,1049,4973
116.89873,39.82115,1050,4973
116.89874,39.8211,1051,4973
116.89874,39.82113,1052,4973
116.89875,39.8211,1053,4973
116.89873,39.82109,1054,4973
116.89875,39.82112,1055,4973
116.89871,39.82113,1056,4973
116.89874,39.82116,1057,4973
116.89875,39.82117,1058,4973
116.89873,39.82114,1059,4973
116.89871,39.82111,1060,4973
116.89873,39.82113,1061,4973
116.89872,39.82114,1062,4973
116.89872,39.8211,1063,4973
116.89873,39.82111,1064,4973
116.89874,39.82112,1065,4973
116.89872,39.82111,1066,4973
116.89873,39.82114,1067,4973
116.89875,39.82112,1068,4973
116.89872,39.82115,1069,4973
116.89871,39.82116,1070,4973
116.89868,39.8212,1071,4973
116.89874,39.82111,1072,4973
116.89874,39.82118,1073,4973
116.89871,39.82119,1074,4973
116.89875,39.82117,1075,4973
116.89873,39.82117,1076,4973
116.89877,39.82118,1077,4973
116.89875,39.8212,1078,4973
116.89878,39.82114,1079,4973
116.89876,39.82115,1080,4973
116.89873,39.82112,1081,4973
116.89876,39.8211,1082,4973
116.89868,39.82112,1083,4973
116.89873,39.8211,1084,4973
116.89872,39.8211,1085,4973
116.8987,39.82112,1086,4973
116.89869,39.82111,1087,4973
116.89873,39.82109,1088,4973
116.89871,39.82108,1089,4973
116.89871,39.82109,1090,4973
116.8987,39.8211,1091,4973
116.89874,39.82109,1092,4973
116.89873,39.8211,1093,4973
116.89873,39.82111,1094,4973
116.89873,39.82111,1095,4973
116.89872,39.82108,1096,4973
116.89872,39.82109,1097,4973
116.89872,39.82109,1098,4973
116.89868,39.82109,1099,4973
116.89872,39.82107,1100,4973
116.89875,39.82107,1101,4973
116.89868,39.82108,1102,4973
116.89873,39.82109,1103,4973
116.89874,39.82107,1104,4973
116.89874,39.82103,1105,4973
116.89872,39.82111,1106,4973
116.8987,39.82107,1107,4973
116.89869,39.8211,1108,4973
116.89871,39.8211,1109,4973
116.89871,39.82112,1110,4973
116.8987,39.82112,1111,4973
116.89871,39.8211,1112,4973
116.89869,39.82111,1113,4973
116.8987,39.82112,1114,4973
116.8987,39.82112,1115,4973
116.89869,39.8211,1116,4973
116.8987,39.8211,1117,4973
116.89869,39.8211,1118,4973
116.89873,39.82112,1119,4973
116.89871,39.82112,1120,4973
116.8987,39.82113,1121,4973
116.89871,39.82111,1122,4973
116.89869,39.82113,1123,4973
116.89871,39.82112,1124,4973
116.89872,39.82112,1125,4973
116.89873,39.82112,1126,4973
116.89874,39.82112,1127,4973
116.89874,39.8211,1128,4973
116.89874,39.82112,1129,4973
116.89874,39.82112,1130,4973
116.89873,39.82111,1131,4973
116.89871,39.82111,1132,4973
116.89871,39.8211,1133,4973
116.89869,39.82111,1134,4973
116.89871,39.82111,1135,4973
116.8987,39.82112,1136,4973
116.8987,39.82112,1137,4973
116.8987,39.8211,1138,4973
116.89869,39.82111,1139,4973
116.89868,39.82111,1140,4973
116.89869,39.8211,1141,4973
116.89866,39.82111,1142,4973
116.89867,39.82113,1143,4973
116.89868,39.82113,1144,4973
116.89868,39.82113,1145,4973
116.89867,39.82113,1146,4973
116.89869,39.82112,1147,4973
116.89871,39.82111,1148,4973
116.89868,39.8211,1149,4973
116.89867,39.82111,1150,4973
116.89873,39.8211,1151,4973
116.89871,39.8211,1152,4973
116.89871,39.82111,1153,4973
116.89873,39.82112,1154,4973
116.89873,39.82112,1155,4973
116.89876,39.82114,1156,4973
116.89871,39.82111,1157,4973
116.8987,39.8211,1158,4973
116.89876,39.82113,1159,4973
116.89872,39.82109,1160,4973
116.89873,39.82111,1161,4973
116.89871,39.8211,1162,4973
116.89873,39.82112,1163,4973
116.89873,39.82111,1164,4973
116.89874,39.82111,1165,4973
116.8987,39.82108,1166,4973
116.89872,39.8211,1167,4973
116.89873,39.82111,1168,4973
116.89873,39.8211,1169,4973
116.89871,39.8211,1170,4973
116.89873,39.82108,1171,4973
116.89873,39.82108,1172,4973
116.89873,39.8211,1173,4973
116.89873,39.82112,1174,4973
116.89873,39.82109,1175,4973
116.89872,39.82108,1176,4973
116.89872,39.8211,1177,4973
116.89874,39.82107,1178,4973
116.89875,39.82109,1179,4973
116.89873,39.82108,1180,4973
116.89872,39.8211,1181,4973
116.89873,39.8211,1182,4973
116.89871,39.8211,1183,4973
116.89871,39.8211,1184,4973
116.89871,39.8211,1185,4973
116.89873,39.82109,1186,4973
116.89872,39.8211,1187,4973
116.89872,39.8211,1188,4973
116.89871,39.82111,1189,4973
116.8987,39.8211,1190,4973
116.8987,39.82109,1191,4973
116.89869,39.82109,1192,4973
116.89871,39.82108,1193,4973
116.89867,39.82112,1194,4973
116.89866,39.82112,1195,4973
116.89875,39.82115,1196,4973
116.89874,39.82112,1197,4973
116.89871,39.82112,1198,4973
116.89871,39.82113,1199,4973
116.89875,39.82111,1200,4973
116.89872,39.82112,1201,4973
116.89873,39.82112,1202,4973
116.89872,39.82114,1203,4973
116.89872,39.82113,1204,4973
116.89873,39.82111,1205,4973
116.89873,39.82111,1206,4973
116.89871,39.82112,1207,4973
116.8987,39.82115,1208,4973
116.89871,39.82115,1209,4973
116.89869,39.82112,1210,4973
116.89871,39.82116,1211,4973
116.89869,39.82115,1212,4973
116.8987,39.82115,1213,4973
116.8987,39.82114,1214,4973
116.8987,39.82114,1215,4973
116.89871,39.82114,1216,4973
116.8987,39.82113,1217,4973
116.89869,39.82113,1218,4973
116.89871,39.82113,1219,4973
116.89871,39.8211,1220,4973
116.8987,39.82113,1221,4973
116.89873,39.82111,1222,4973
116.89875,39.82113,1223,4973
116.89871,39.82113,1224,4973
116.89873,39.82113,1225,4973
116.8987,39.82112,1226,4973
116.89872,39.82111,1227,4973
116.89873,39.82109,1228,4973
116.89869,39.82114,1229,4973
116.89869,39.82114,1230,4973
116.89871,39.82112,1231,4973
116.89872,39.82111,1232,4973
116.89871,39.82111,1233,4973
116.89869,39.8211,1234,4973
116.89866,39.82112,1235,4973
116.89869,39.82113,1236,4973
116.89867,39.82113,1237,4973
116.8987,39.82113,1238,4973
116.8987,39.82111,1239,4973
116.89868,39.82112,1240,4973
116.89871,39.82111,1241,4973
116.8987,39.8211,1242,4973
116.8987,39.82111,1243,4973
116.8987,39.8211,1244,4973
116.8987,39.8211,1245,4973
116.89869,39.8211,1246,4973
116.8987,39.8211,1247,4973
116.89872,39.82109,1248,4973
116.89871,39.8211,1249,4973
116.89869,39.82111,1250,4973
116.89871,39.82108,1251,4973
116.89871,39.82108,1252,4973
116.89872,39.82107,1253,4973
116.89871,39.8211,1254,4973
116.89871,39.82108,1255,4973
116.89873,39.82109,1256,4973
116.89873,39.8211,1257,4973
116.89873,39.8211,1258,4973
116.89872,39.8211,1259,4973
116.8987,39.82111,1260,4973
116.89873,39.8211,1261,4973
116.89874,39.82109,1262,4973
116.89875,39.82107,1263,4973
116.8987,39.82108,1264,4973
116.89874,39.82107,1265,4973
116.89874,39.82108,1266,4973
116.89873,39.82107,1267,4973
116.89874,39.82107,1268,4973
116.89873,39.8211,1269,4973
116.89876,39.82107,1270,4973
116.89876,39.82108,1271,4973
116.89873,39.82108,1272,4973
116.89873,39.82109,1273,4973
116.89871,39.82114,1274,4973
116.89872,39.8211,1275,4973
116.89872,39.82112,1276,4973
116.89871,39.82111,1277,4973
116.89871,39.8211,1278,4973
116.89873,39.82111,1279,4973
116.89904,39.82096,1280,4973
116.86025,39.81325,1281,4973
116.77837,39.8145,1282,4973
116.75508,39.84668,1283,4973
116.70092,39.86564,1284,4973
116.66993,39.87713,1285,4973
116.65181,39.89942,1286,4973
116.63096,39.90499,1287,4973
116.59579,39.90835,1288,4973
116.56056,39.90864,1289,4973
116.52564,39.90859,1290,4973
116.50596,39.90691,1291,4973
116.47198,39.90972,1292,4973
116.43115,39.90727,1293,4973
116.42194,39.89234,1294,4973
116.39515,39.8907,1295,4973
116.36812,39.88207,1296,4973
116.38149,39.87914,1297,4973
116.41287,39.88882,1298,4973
116.43803,39.89559,1299,4973
116.4718,39.90659,1300,4973
116.47167,39.9076,1301,4973
116.4558,39.90416,1302,4973
116.456,39.90414,1303,4973
116.45605,39.90686,1304,4973
116.45306,39.95337,1305,4973
116.45306,39.95337,1306,4973
116.41189,39.96808,1307,4973
116.41113,39.9817,1308,4973
116.41655,40.02313,1309,4973
116.41829,40.02314,1310,4973
116.40994,40.00894,1311,4973
116.41087,39.98417,1312,4973
116.41175,39.96806,1313,4973
116.41888,39.95825,1314,4973
116.43735,39.95841,1315,4973
116.45865,39.94885,1316,4973
116.48208,39.95511,1317,4973
116.47195,39.92285,1318,4973
116.45472,39.86948,1319,4973
116.42701,39.85228,1320,4973
116.42616,39.85625,1321,4973
116.45521,39.86868,1322,4973
116.48212,39.86986,1323,4973
116.49412,39.86601,1324,4973
116.4722,39.88315,1325,4973
116.45611,39.89223,1326,4973
116.41365,39.89185,1327,4973
116.41365,39.89185,1328,4973
116.41302,39.88613,1329,4973
116.4183,39.88337,1330,4973
116.46238,39.88301,1331,4973
116.47544,39.90675,1332,4973
116.5232,39.90804,1333,4973
116.57057,39.90878,1334,4973
116.63461,39.89817,1335,4973
116.67354,39.87401,1336,4973
116.71568,39.86119,1337,4973
116.75666,39.84581,1338,4973
116.79764,39.81403,1339,4973
116.87641,39.81513,1340,4973
116.89873,39.82104,1341,4973
116.89872,39.82101,1342,4973
116.89875,39.82101,1343,4973
116.89873,39.82104,1344,4973
116.8987,39.82105,1345,4973
116.89871,39.82105,1346,4973
116.88048,39.81611,1347,4973
116.8762,39.81777,1348,4973
116.96404,39.88365,1349,4973
116.98761,39.88819,1350,4973
116.98761,39.88819,1351,4973
116.98761,39.88821,1352,4973
116.98761,39.88821,1353,4973
116.98761,39.88816,1354,4973
116.98762,39.88816,1355,4973
116.96833,39.88346,1356,4973
116.90262,39.88255,1357,4973
116.86363,39.86913,1358,4973
116.84137,39.85106,1359,4973
116.86445,39.8361,1360,4973
116.89872,39.82107,1361,4973
116.89874,39.82109,1362,4973
116.89871,39.82107,1363,4973
116.89873,39.82109,1364,4973
116.89872,39.8211,1365,4973
116.89871,39.82109,1366,4973
116.89871,39.82112,1367,4973
116.89872,39.82107,1368,4973
116.89877,39.82108,1369,4973
116.89873,39.82111,1370,4973
116.8987,39.82112,1371,4973
116.89872,39.8211,1372,4973
116.89874,39.82113,1373,4973
116.89873,39.82111,1374,4973
116.89871,39.82113,1375,4973
116.89871,39.82112,1376,4973
116.89871,39.82114,1377,4973
116.89871,39.82114,1378,4973
116.8987,39.82114,1379,4973
116.89871,39.82114,1380,4973
116.89871,39.82114,1381,4973
116.8987,39.82116,1382,4973
116.89869,39.82114,1383,4973
116.89871,39.82113,1384,4973
116.89873,39.82115,1385,4973
116.89872,39.82114,1386,4973
116.8987,39.82114,1387,4973
116.89871,39.82115,1388,4973
116.89868,39.82114,1389,4973
116.8987,39.82114,1390,4973
116.8987,39.82115,1391,4973
116.89873,39.82113,1392,4973
116.89874,39.82113,1393,4973
116.89873,39.82113,1394,4973
116.89872,39.82113,1395,4973
116.89874,39.82112,1396,4973
116.8987,39.82113,1397,4973
116.89869,39.82114,1398,4973
116.89871,39.82114,1399,4973
116.89872,39.82114,1400,4973
116.89872,39.82114,1401,4973
116.89866,39.82114,1402,4973
116.89866,39.82114,1403,4973
116.89868,39.82115,1404,4973
116.89868,39.82113,1405,4973
116.89868,39.82114,1406,4973
116.89867,39.82115,1407,4973
116.89868,39.82112,1408,4973
116.89867,39.82114,1409,4973
116.89871,39.82112,1410,4973
116.8987,39.82111,1411,4973
116.89867,39.82112,1412,4973
116.8987,39.82113,1413,4973
116.8987,39.8211,1414,4973
116.89871,39.82113,1415,4973
116.89874,39.82113,1416,4973
116.89868,39.82112,1417,4973
116.89871,39.82113,1418,4973
116.89874,39.82115,1419,4973
116.89872,39.82112,1420,4973
116.89872,39.82111,1421,4973
116.89872,39.82111,1422,4973
116.89872,39.82111,1423,4973
116.8987,39.8211,1424,4973
116.89874,39.82112,1425,4973
116.89874,39.82111,1426,4973
116.89873,39.82112,1427,4973
116.89873,39.82112,1428,4973
116.89869,39.8211,1429,4973
116.89869,39.82109,1430,4973
116.89871,39.82111,1431,4973
116.89871,39.82111,1432,4973
116.89871,39.82112,1433,4973
116.89869,39.8211,1434,4973
116.89871,39.8211,1435,4973
116.8987,39.82111,1436,4973
116.8987,39.82112,1437,4973
116.89869,39.82111,1438,4973
116.89869,39.82112,1439,4973
116.89869,39.82112,1440,4973
116.8987,39.82112,1441,4973
116.89872,39.82112,1442,4973
116.8987,39.82112,1443,4973
116.89866,39.82114,1444,4973
116.89868,39.82112,1445,4973
116.89867,39.82112,1446,4973
116.89867,39.82113,1447,4973
116.89868,39.82112,1448,4973
116.89868,39.82112,1449,4973
116.89868,39.82112,1450,4973
116.89866,39.82113,1451,4973
116.89866,39.82113,1452,4973
116.89867,39.8211,1453,4973
116.89874,39.82111,1454,4973
116.89872,39.82107,1455,4973
116.89871,39.82109,1456,4973
116.89871,39.82109,1457,4973
116.89867,39.8211,1458,4973
116.89872,39.82112,1459,4973
116.89872,39.82113,1460,4973
116.8987,39.82114,1461,4973
116.89871,39.82115,1462,4973
116.89873,39.82114,1463,4973
116.8987,39.82113,1464,4973
116.89871,39.82111,1465,4973
116.89872,39.82116,1466,4973
116.89872,39.82113,1467,4973
116.89869,39.82112,1468,4973
116.8987,39.82117,1469,4973
116.89871,39.82113,1470,4973
116.89873,39.82114,1471,4973
116.8987,39.82114,1472,4973
116.8987,39.82114,1473,4973
116.8987,39.82114,1474,4973
116.89873,39.82114,1475,4973
116.8987,39.82113,1476,4973
116.89872,39.82113,1477,4973
116.89871,39.82113,1478,4973
116.89871,39.8211,1479,4973
116.89871,39.82111,1480,4973
116.89873,39.82111,1481,4973
116.89874,39.82112,1482,4973
116.89874,39.82114,1483,4973
116.89874,39.82113,1484,4973
116.89873,39.82112,1485,4973
116.89873,39.82112,1486,4973
116.8987,39.82111,1487,4973
116.89871,39.82109,1488,4973
116.89868,39.82111,1489,4973
116.89875,39.82111,1490,4973
116.8987,39.82112,1491,4973
116.8987,39.82111,1492,4973
116.8987,39.82112,1493,4973
116.89869,39.82112,1494,4973
116.8987,39.8211,1495,4973
116.89873,39.82109,1496,4973
116.89871,39.8211,1497,4973
116.89871,39.8211,1498,4973
116.89872,39.8211,1499,4973
116.89869,39.82112,1500,4973
116.8987,39.82111,1501,4973
116.8987,39.82112,1502,4973
116.89872,39.82112,1503,4973
116.89868,39.82113,1504,4973
116.89871,39.82109,1505,4973
116.89871,39.82108,1506,4973
116.89869,39.8211,1507,4973
116.8987,39.82111,1508,4973
116.8987,39.82111,1509,4973
116.89869,39.82108,1510,4973
116.89872,39.8211,1511,4973
116.89871,39.82108,1512,4973
116.89873,39.82108,1513,4973
116.8987,39.8211,1514,4973
116.89872,39.82109,1515,4973
116.89873,39.82111,1516,4973
116.89871,39.82111,1517,4973
116.8987,39.82112,1518,4973
116.89871,39.82111,1519,4973
116.89873,39.82109,1520,4973
116.89874,39.8211,1521,4973
116.89874,39.82108,1522,4973
116.89873,39.82108,1523,4973
116.89874,39.82108,1524,4973
116.89874,39.82109,1525,4973
116.89872,39.82109,1526,4973
116.89874,39.82107,1527,4973
116.89873,39.82109,1528,4973
116.89876,39.82111,1529,4973
116.89873,39.82111,1530,4973
116.89874,39.82112,1531,4973
116.89874,39.82111,1532,4973
116.89874,39.82107,1533,4973
116.89875,39.82111,1534,4973
116.89875,39.8211,1535,4973
116.89874,39.8211,1536,4973
116.89872,39.82112,1537,4973
116.89876,39.82109,1538,4973
116.89876,39.82113,1539,4973
116.89874,39.82108,1540,4973
116.89872,39.82112,1541,4973
116.89873,39.82111,1542,4973
116.89877,39.8211,1543,4973
116.89868,39.8211,1544,4973
116.89875,39.82111,1545,4973
116.89873,39.82111,1546,4973
116.89873,39.82111,1547,4973
116.89876,39.82113,1548,4973
116.89873,39.82111,1549,4973
116.89873,39.82111,1550,4973
116.89876,39.82111,1551,4973
116.89874,39.82114,1552,4973
116.89874,39.82111,1553,4973
116.89873,39.82112,1554,4973
116.89874,39.82113,1555,4973
116.89874,39.82112,1556,4973
116.20486,39.89555,1557,4973
116.20486,39.89555,1558,4973
116.89875,39.82117,1559,4973
116.89874,39.82114,1560,4973
116.89872,39.8211,1561,4973
116.89875,39.82113,1562,4973
116.8987,39.82099,1563,4973
116.87616,39.8157,1564,4973
116.87578,39.81345,1565,4973
116.87714,39.81226,1566,4973
116.87714,39.81226,1567,4973
116.87713,39.81225,1568,4973
116.87713,39.81225,1569,4973
116.87715,39.81225,1570,4973
116.87715,39.81225,1571,4973
116.87711,39.81229,1572,4973
116.87712,39.81229,1573,4973
116.87713,39.81228,1574,4973
116.87713,39.81228,1575,4973
116.87713,39.81229,1576,4973
116.87713,39.81229,1577,4973
116.87713,39.81227,1578,4973
116.87715,39.81222,1579,4973
116.87714,39.81224,1580,4973
116.87715,39.81225,1581,4973
116.87715,39.81222,1582,4973
116.87715,39.81223,1583,4973
116.87715,39.81221,1584,4973
116.87718,39.8122,1585,4973
116.8772,39.81217,1586,4973
116.87718,39.81221,1587,4973
116.87715,39.81221,1588,4973
116.87716,39.81221,1589,4973
116.87713,39.81223,1590,4973
116.87716,39.81222,1591,4973
116.87712,39.81222,1592,4973
116.87712,39.81226,1593,4973
116.87714,39.81226,1594,4973
116.87715,39.81225,1595,4973
116.87714,39.81224,1596,4973
116.87716,39.81228,1597,4973
116.87717,39.81229,1598,4973
116.87716,39.81228,1599,4973
116.87715,39.81227,1600,4973
116.87716,39.81227,1601,4973
116.87716,39.81228,1602,4973
116.87714,39.81228,1603,4973
116.87717,39.81229,1604,4973
116.87717,39.81228,1605,4973
116.87714,39.81226,1606,4973
116.87717,39.81226,1607,4973
116.87715,39.81227,1608,4973
116.87715,39.81225,1609,4973
116.87714,39.81225,1610,4973
116.87715,39.81225,1611,4973
116.87715,39.81223,1612,4973
116.87715,39.81225,1613,4973
116.87715,39.81228,1614,4973
116.87712,39.81235,1615,4973
116.87712,39.81235,1616,4973
116.87715,39.81227,1617,4973
116.87714,39.81234,1618,4973
116.87715,39.81232,1619,4973
116.87714,39.81233,1620,4973
116.87601,39.81313,1621,4973
116.87486,39.81485,1622,4973
116.85752,39.84113,1623,4973
116.83564,39.85569,1624,4973
116.83625,39.8533,1625,4973
116.83612,39.85327,1626,4973
116.83612,39.85329,1627,4973
116.83613,39.85329,1628,4973
116.83614,39.85328,1629,4973
116.83613,39.85326,1630,4973
116.83613,39.85328,1631,4973
116.83614,39.85327,1632,4973
116.83612,39.85327,1633,4973
116.83612,39.85326,1634,4973
116.8251,39.8544,1635,4973
116.8287,39.82232,1636,4973
116.87715,39.81222,1637,4973
116.87713,39.81222,1638,4973
116.87712,39.81222,1639,4973
116.87715,39.81222,1640,4973
