x,y,k,tid
116.36604,39.94908,0,4979
116.36601,39.94908,1,4979
116.36601,39.94908,2,4979
116.36588,39.94772,3,4979
116.36586,39.94795,4,4979
116.36586,39.94795,5,4979
116.36446,39.96219,6,4979
116.36446,39.96219,7,4979
116.36431,39.96339,8,4979
116.36411,39.96833,9,4979
116.36412,39.96832,10,4979
116.37153,39.97537,11,4979
116.37306,39.97539,12,4979
116.36807,39.99479,13,4979
116.3669,39.99631,14,4979
116.35005,40.02083,15,4979
116.33626,40.0368,16,4979
116.33598,40.03759,17,4979
116.34172,40.02885,18,4979
116.342,40.02844,19,4979
116.3463,40.00073,20,4979
116.34627,40.0007,21,4979
116.35164,39.98543,22,4979
116.35336,39.98548,23,4979
116.35637,39.98354,24,4979
116.35637,39.98305,25,4979
116.36911,39.98057,26,4979
116.36909,39.9806,27,4979
116.37499,39.9667,28,4979
116.37629,39.96667,29,4979
116.39629,39.96186,30,4979
116.39717,39.96139,31,4979
116.39925,39.95023,32,4979
116.39838,39.95024,33,4979
116.39642,39.95028,34,4979
116.3964,39.95027,35,4979
116.39927,39.96732,36,4979
116.40179,39.96739,37,4979
116.41875,39.96208,38,4979
116.41889,39.96261,39,4979
116.38806,39.97585,40,4979
116.38808,39.97723,41,4979
116.36952,39.99316,42,4979
116.36864,39.99434,43,4979
116.37077,39.9873,44,4979
116.37431,39.97685,45,4979
116.36351,39.98249,46,4979
116.40922,39.98719,47,4979
116.41164,39.98727,48,4979
116.41164,39.98727,49,4979
116.43319,39.98471,50,4979
116.43319,39.98471,51,4979
116.41871,39.98212,52,4979
116.4184,39.98216,53,4979
116.41123,39.97566,54,4979
116.41131,39.97434,55,4979
116.43583,39.96449,56,4979
116.4376,39.96328,57,4979
116.45528,39.92644,58,4979
116.45535,39.92472,59,4979
116.46698,39.90681,60,4979
116.48001,39.89809,61,4979
116.4801,39.89771,62,4979
116.48466,39.90405,63,4979
116.48558,39.90525,64,4979
116.49171,39.93012,65,4979
116.49389,39.93017,66,4979
116.50215,39.92883,67,4979
116.50216,39.92882,68,4979
116.49348,39.93424,69,4979
116.47387,39.93263,70,4979
116.45358,39.93246,71,4979
116.45176,39.93246,72,4979
116.42982,39.93983,73,4979
116.42937,39.93981,74,4979
116.44685,39.95676,75,4979
116.44837,39.95812,76,4979
116.45714,39.98857,77,4979
116.45657,39.98859,78,4979
116.39774,39.89127,79,4979
116.36963,39.88817,80,4979
116.36836,39.8925,81,4979
116.32284,39.90127,82,4979
116.32928,39.91045,83,4979
116.3293,39.91067,84,4979
116.33923,39.92191,85,4979
116.34989,39.93149,86,4979
116.34971,39.93628,87,4979
116.36595,39.94692,88,4979
116.36581,39.94878,89,4979
116.36612,39.94898,90,4979
116.36604,39.94911,91,4979
116.36594,39.94908,92,4979
116.36592,39.94908,93,4979
116.36631,39.94886,94,4979
116.36609,39.94897,95,4979
116.36574,39.94905,96,4979
116.36581,39.94898,97,4979
116.36594,39.9495,98,4979
116.36546,39.95046,99,4979
116.3654,39.95241,100,4979
116.36539,39.9525,101,4979
116.36849,39.95527,102,4979
116.37242,39.95646,103,4979
116.3758,39.95367,104,4979
116.37707,39.95378,105,4979
116.38139,39.95245,106,4979
116.38727,39.95235,107,4979
116.38854,39.9654,108,4979
116.39448,39.96711,109,4979
116.41191,39.96092,110,4979
116.41909,39.94946,111,4979
116.419,39.94858,112,4979
116.419,39.94858,113,4979
116.41959,39.9353,114,4979
116.41952,39.93282,115,4979
116.42003,39.92081,116,4979
116.42044,39.91775,117,4979
116.4239,39.91888,118,4979
116.42268,39.9185,119,4979
116.42672,39.91732,120,4979
116.42696,39.91696,121,4979
116.4292,39.91027,122,4979
116.43027,39.89916,123,4979
116.44691,39.8921,124,4979
116.45336,39.89196,125,4979
116.46067,39.89194,126,4979
116.46839,39.8944,127,4979
116.46349,39.89211,128,4979
116.45666,39.89227,129,4979
116.45572,39.89845,130,4979
116.44944,39.8921,131,4979
116.43869,39.89308,132,4979
116.43562,39.89789,133,4979
116.43102,39.89902,134,4979
116.4305,39.90677,135,4979
116.42893,39.91574,136,4979
116.42838,39.92765,137,4979
116.42809,39.9289,138,4979
116.42787,39.94436,139,4979
116.41619,39.94811,140,4979
116.38996,39.94783,141,4979
116.38756,39.94824,142,4979
116.36969,39.94851,143,4979
116.36597,39.94972,144,4979
116.36293,39.94958,145,4979
116.362,39.9496,146,4979
116.34919,39.95424,147,4979
116.34546,39.95672,148,4979
116.34309,39.95682,149,4979
116.33828,39.9568,150,4979
116.32914,39.95781,151,4979
116.34353,39.95658,152,4979
116.34897,39.95095,153,4979
116.35309,39.95091,154,4979
116.36176,39.95129,155,4979
116.36176,39.95129,156,4979
116.36282,39.95016,157,4979
116.35205,39.95096,158,4979
116.35139,39.95077,159,4979
116.34988,39.95135,160,4979
116.35046,39.95165,161,4979
116.34737,39.98521,162,4979
116.3419,39.98576,163,4979
116.3372,39.98554,164,4979
116.3358,39.99169,165,4979
116.34234,39.99186,166,4979
116.36298,39.9904,167,4979
116.36298,39.9904,168,4979
116.36357,39.97765,169,4979
116.3662,39.97531,170,4979
116.36772,39.9701,171,4979
116.36745,39.96925,172,4979
116.37372,39.99301,173,4979
116.37369,39.9929,174,4979
116.3683,39.99475,175,4979
116.36586,39.99787,176,4979
116.36353,39.98638,177,4979
116.35369,39.98042,178,4979
116.35172,39.98026,179,4979
116.36362,39.97581,180,4979
116.36478,39.95656,181,4979
116.36532,39.9505,182,4979
116.36804,39.94713,183,4979
116.36519,39.94737,184,4979
116.36083,39.94594,185,4979
116.33283,39.9358,186,4979
116.33238,39.93571,187,4979
116.33765,39.93214,188,4979
116.33763,39.93164,189,4979
116.34988,39.92146,190,4979
116.34997,39.91854,191,4979
116.35021,39.90622,192,4979
116.35034,39.90339,193,4979
116.35354,39.89494,194,4979
116.35094,39.89501,195,4979
116.34673,39.89913,196,4979
116.34672,39.89922,197,4979
116.34661,39.90355,198,4979
116.34657,39.90352,199,4979
116.34659,39.91011,200,4979
116.34694,39.91241,201,4979
116.34402,39.92702,202,4979
116.34398,39.92709,203,4979
116.34994,39.93266,204,4979
116.35001,39.93507,205,4979
116.34155,39.94366,206,4979
116.33675,39.94533,207,4979
116.33184,39.9484,208,4979
116.33002,39.95126,209,4979
116.3472,39.95659,210,4979
116.34709,39.95654,211,4979
116.34709,39.95654,212,4979
116.34718,39.95662,213,4979
116.34715,39.95662,214,4979
116.35909,39.95112,215,4979
116.36352,39.95127,216,4979
116.35004,39.95071,217,4979
116.34991,39.95072,218,4979
116.33478,39.96645,219,4979
116.33478,39.96645,220,4979
116.32387,39.96622,221,4979
116.31146,39.97464,222,4979
116.30564,39.97466,223,4979
116.30096,39.98108,224,4979
116.30295,39.97547,225,4979
116.30385,39.97563,226,4979
116.30765,39.9745,227,4979
116.31594,39.97478,228,4979
116.33935,39.9661,229,4979
116.35069,39.96629,230,4979
116.4151,39.96778,231,4979
116.42717,39.96815,232,4979
116.45551,39.93218,233,4979
116.4554,39.92389,234,4979
116.46939,39.90671,235,4979
116.47159,39.90423,236,4979
116.49362,39.8995,237,4979
116.49633,39.89962,238,4979
116.5,39.89399,239,4979
116.48474,39.89947,240,4979
116.49054,39.86956,241,4979
116.49907,39.86927,242,4979
116.50722,39.86132,243,4979
116.50721,39.86127,244,4979
116.50714,39.86979,245,4979
116.50087,39.87294,246,4979
116.47167,39.88335,247,4979
116.47148,39.89039,248,4979
116.47189,39.90949,249,4979
116.47194,39.91217,250,4979
116.46651,39.91482,251,4979
116.46346,39.91752,252,4979
116.40169,39.95739,253,4979
116.40253,39.93222,254,4979
116.40254,39.93188,255,4979
116.38993,39.93735,256,4979
116.36933,39.94768,257,4979
116.36588,39.94853,258,4979
116.36607,39.94926,259,4979
116.3661,39.94926,260,4979
116.36603,39.9492,261,4979
116.44546,39.94912,262,4979
116.44546,39.94912,263,4979
116.44546,39.94912,264,4979
116.36566,39.94919,265,4979
116.36602,39.94923,266,4979
116.36609,39.94915,267,4979
116.36872,39.95658,268,4979
116.37307,39.95664,269,4979
116.37725,39.96953,270,4979
116.3792,39.97054,271,4979
116.37616,39.97112,272,4979
116.37533,39.97239,273,4979
116.37533,39.97239,274,4979
116.37682,39.97534,275,4979
116.38159,39.97563,276,4979
116.38159,39.97563,277,4979
116.38846,39.9635,278,4979
116.38842,39.95566,279,4979
116.3896,39.95004,280,4979
116.39606,39.94991,281,4979
116.38883,39.96022,282,4979
116.38348,39.96178,283,4979
116.37868,39.96471,284,4979
116.379,39.96534,285,4979
116.38489,39.96681,286,4979
116.39021,39.9678,287,4979
116.35995,39.96648,288,4979
116.35152,39.96643,289,4979
116.34094,39.96637,290,4979
116.33452,39.96636,291,4979
116.3256,39.96619,292,4979
116.31916,39.96595,293,4979
116.30352,39.94875,294,4979
116.30352,39.94875,295,4979
116.30394,39.93478,296,4979
116.28916,39.92283,297,4979
116.27877,39.92267,298,4979
116.27728,39.91028,299,4979
116.26664,39.90626,300,4979
116.2452,39.90625,301,4979
116.24368,39.90624,302,4979
116.23434,39.90622,303,4979
116.22946,39.89783,304,4979
116.23396,39.89553,305,4979
116.27312,39.89568,306,4979
116.35026,39.92708,307,4979
116.35761,39.93097,308,4979
116.36855,39.93133,309,4979
116.38167,39.93184,310,4979
116.39142,39.93194,311,4979
116.39978,39.9263,312,4979
116.4001,39.92113,313,4979
116.40097,39.91689,314,4979
116.40097,39.91689,315,4979
116.40355,39.92307,316,4979
116.39398,39.92206,317,4979
116.37631,39.92124,318,4979
116.37569,39.91664,319,4979
116.37154,39.91294,320,4979
116.37149,39.91105,321,4979
116.37024,39.91058,322,4979
116.37013,39.90962,323,4979
116.37044,39.90883,324,4979
116.37002,39.90772,325,4979
116.36321,39.90595,326,4979
116.34029,39.90598,327,4979
116.32311,39.90619,328,4979
116.31048,39.90624,329,4979
116.30276,39.90638,330,4979
116.30409,39.90239,331,4979
116.30408,39.89313,332,4979
116.30433,39.88134,333,4979
116.3044,39.88142,334,4979
116.30459,39.87973,335,4979
116.30345,39.86588,336,4979
116.30787,39.86752,337,4979
116.30545,39.87726,338,4979
116.30459,39.88858,339,4979
116.3142,39.93097,340,4979
116.32694,39.93104,341,4979
116.33699,39.93105,342,4979
116.34892,39.93098,343,4979
116.34892,39.93098,344,4979
116.34997,39.93451,345,4979
116.35434,39.9434,346,4979
116.37373,39.94673,347,4979
116.38635,39.93958,348,4979
116.38908,39.9391,349,4979
116.38919,39.93893,350,4979
116.39696,39.93931,351,4979
116.39324,39.93945,352,4979
116.39018,39.93918,353,4979
116.38095,39.94774,354,4979
116.37386,39.95004,355,4979
116.36632,39.94967,356,4979
116.36263,39.94962,357,4979
116.35761,39.94814,358,4979
116.35837,39.94977,359,4979
116.36287,39.95021,360,4979
116.36281,39.95029,361,4979
116.3566,39.94921,362,4979
116.35755,39.94951,363,4979
116.36266,39.95134,364,4979
116.36261,39.95141,365,4979
116.36295,39.95142,366,4979
116.3499,39.94693,367,4979
116.35013,39.90797,368,4979
116.35034,39.90174,369,4979
116.31653,39.89602,370,4979
116.31136,39.89605,371,4979
116.31264,39.89553,372,4979
116.34967,39.89735,373,4979
116.3506,39.90243,374,4979
116.35105,39.91717,375,4979
116.35856,39.93289,376,4979
116.35786,39.93522,377,4979
116.36557,39.94971,378,4979
116.36384,39.97488,379,4979
116.36366,39.97862,380,4979
116.36355,39.9744,381,4979
116.36366,39.96781,382,4979
116.34933,39.94206,383,4979
116.34932,39.93565,384,4979
116.34111,39.93113,385,4979
116.34111,39.93113,386,4979
116.33815,39.93116,387,4979
116.32004,39.9333,388,4979
116.31988,39.93543,389,4979
116.30985,39.94469,390,4979
116.30873,39.94474,391,4979
116.34826,39.93885,392,4979
116.35157,39.94272,393,4979
116.38745,39.93934,394,4979
116.39658,39.93199,395,4979
116.40063,39.9161,396,4979
116.40063,39.91697,397,4979
116.39995,39.92569,398,4979
116.39968,39.93001,399,4979
116.38983,39.93679,400,4979
116.38914,39.93917,401,4979
116.3704,39.94979,402,4979
116.36732,39.94976,403,4979
116.36306,39.95018,404,4979
116.36291,39.95028,405,4979
116.3583,39.94945,406,4979
116.35809,39.94973,407,4979
116.35811,39.94983,408,4979
116.35811,39.94983,409,4979
116.35825,39.94966,410,4979
116.35825,39.94966,411,4979
116.35826,39.94968,412,4979
116.35814,39.94983,413,4979
116.35819,39.94976,414,4979
116.35522,39.94533,415,4979
116.3559,39.94463,416,4979
116.35045,39.90984,417,4979
116.34249,39.86876,418,4979
116.34233,39.86676,419,4979
116.33861,39.81646,420,4979
116.3387,39.81437,421,4979
116.334,39.79933,422,4979
116.33398,39.79946,423,4979
116.33336,39.79465,424,4979
116.33325,39.79411,425,4979
116.3321,39.79398,426,4979
116.33204,39.79394,427,4979
116.33217,39.79395,428,4979
116.33214,39.79392,429,4979
116.33214,39.79392,430,4979
116.32196,39.79545,431,4979
116.32364,39.79765,432,4979
116.33903,39.82101,433,4979
116.33979,39.82715,434,4979
116.34302,39.8707,435,4979
116.34302,39.8707,436,4979
116.34325,39.87558,437,4979
116.35038,39.90664,438,4979
116.35064,39.91029,439,4979
116.35041,39.94502,440,4979
116.34925,39.94181,441,4979
116.34968,39.92549,442,4979
116.35014,39.89845,443,4979
116.36535,39.89833,444,4979
116.36811,39.89137,445,4979
116.36818,39.8885,446,4979
116.37202,39.88786,447,4979
116.37517,39.88792,448,4979
116.37581,39.88799,449,4979
116.37602,39.88792,450,4979
116.37602,39.88792,451,4979
116.38046,39.88795,452,4979
116.38311,39.88811,453,4979
116.38354,39.88812,454,4979
116.38358,39.88643,455,4979
116.39317,39.89005,456,4979
116.40123,39.89121,457,4979
116.41216,39.89154,458,4979
116.42614,39.89222,459,4979
116.43719,39.89711,460,4979
116.42963,39.90782,461,4979
116.4277,39.93814,462,4979
116.4187,39.94823,463,4979
116.38851,39.94782,464,4979
116.38851,39.94782,465,4979
116.37682,39.94828,466,4979
116.36445,39.94968,467,4979
116.36296,39.95009,468,4979
