x,y,k,tid
116.39562,39.82445,0,5550
116.39459,39.84423,1,5550
116.39442,39.84728,2,5550
116.39505,39.85587,3,5550
116.38946,39.85591,4,5550
116.38067,39.85389,5,5550
116.38016,39.84793,6,5550
116.37263,39.84927,7,5550
116.37249,39.84925,8,5550
116.36503,39.84582,9,5550
116.36396,39.84448,10,5550
116.36756,39.82977,11,5550
116.37373,39.82995,12,5550
116.39516,39.82201,13,5550
116.39527,39.81996,14,5550
116.39642,39.80954,15,5550
116.39627,39.81254,16,5550
116.3951,39.834,17,5550
116.39499,39.83752,18,5550
116.394,39.8543,19,5550
116.39366,39.86372,20,5550
116.39366,39.86372,21,5550
116.41534,39.86911,22,5550
116.41476,39.87869,23,5550
116.41281,39.89113,24,5550
116.41241,39.8988,25,5550
116.41908,39.90677,26,5550
116.4181,39.90583,27,5550
116.43014,39.90754,28,5550
116.42886,39.91415,29,5550
116.42788,39.93291,30,5550
116.42788,39.93291,31,5550
116.42769,39.93487,32,5550
116.41939,39.94188,33,5550
116.42723,39.94269,34,5550
116.42682,39.94104,35,5550
116.42682,39.94099,36,5550
116.43356,39.94635,37,5550
116.43505,39.94752,38,5550
116.45276,39.96142,39,5550
116.46096,39.96882,40,5550
116.48068,39.97318,41,5550
116.48807,39.97061,42,5550
116.48879,39.97055,43,5550
116.4887,39.97064,44,5550
116.48389,39.97292,45,5550
116.48389,39.97292,46,5550
116.48389,39.97292,47,5550
116.48389,39.97292,48,5550
116.48374,39.98411,49,5550
116.48376,39.98471,50,5550
116.48374,39.98555,51,5550
116.4837,39.98624,52,5550
116.47895,39.98421,53,5550
116.46925,39.9754,54,5550
116.42529,39.94836,55,5550
116.42081,39.94832,56,5550
116.4127,39.95371,57,5550
116.41549,39.95367,58,5550
116.41904,39.95336,59,5550
116.41899,39.95288,60,5550
116.4191,39.94876,61,5550
116.42415,39.93955,62,5550
116.42826,39.93856,63,5550
116.42826,39.93856,64,5550
116.43229,39.94486,65,5550
116.43253,39.94501,66,5550
116.43489,39.94742,67,5550
116.43688,39.94893,68,5550
116.44258,39.95797,69,5550
116.44545,39.95827,70,5550
116.45712,39.95461,71,5550
116.45684,39.9548,72,5550
116.45453,39.95406,73,5550
116.47384,39.96294,74,5550
116.48341,39.918,75,5550
116.48327,39.91323,76,5550
116.48719,39.9116,77,5550
116.49533,39.91023,78,5550
116.50833,39.91503,79,5550
116.5226,39.91581,80,5550
116.53832,39.91493,81,5550
116.54571,39.9148,82,5550
116.57051,39.91377,83,5550
116.59164,39.91096,84,5550
116.59854,39.91139,85,5550
116.63414,39.91947,86,5550
116.65154,39.9264,87,5550
116.65262,39.93407,88,5550
116.64987,39.92224,89,5550
116.64387,39.92112,90,5550
116.61821,39.91284,91,5550
116.61414,39.91256,92,5550
116.59032,39.90849,93,5550
116.5818,39.90872,94,5550
116.56607,39.90892,95,5550
116.5564,39.90857,96,5550
116.53955,39.90989,97,5550
116.53285,39.90864,98,5550
116.52314,39.9086,99,5550
116.51177,39.90663,100,5550
116.48288,39.90727,101,5550
116.47173,39.90387,102,5550
116.43745,39.90583,103,5550
116.43458,39.90475,104,5550
116.43742,39.90578,105,5550
116.44125,39.90592,106,5550
116.4415,39.90627,107,5550
116.4415,39.90627,108,5550
116.43986,39.90592,109,5550
116.43699,39.90724,110,5550
116.4308,39.90728,111,5550
116.42913,39.91129,112,5550
116.42799,39.93401,113,5550
116.42776,39.93596,114,5550
116.41624,39.94813,115,5550
116.40836,39.94792,116,5550
116.38919,39.95083,117,5550
116.38885,39.95778,118,5550
116.38869,39.96103,119,5550
116.38868,39.96129,120,5550
116.38174,39.96187,121,5550
116.38271,39.96462,122,5550
116.37911,39.96289,123,5550
116.38006,39.96155,124,5550
116.38897,39.95151,125,5550
116.38898,39.9503,126,5550
116.38749,39.94945,127,5550
116.38767,39.95008,128,5550
116.38887,39.95768,129,5550
116.38885,39.95844,130,5550
116.38864,39.96125,131,5550
116.38866,39.96165,132,5550
116.38676,39.96182,133,5550
116.38321,39.96174,134,5550
116.37388,39.96327,135,5550
116.37509,39.96734,136,5550
116.34937,39.96646,137,5550
116.34758,39.9664,138,5550
116.33504,39.96637,139,5550
116.3333,39.96634,140,5550
116.32384,39.96624,141,5550
116.32123,39.96629,142,5550
116.31871,39.97152,143,5550
116.31316,39.97475,144,5550
116.31839,39.97482,145,5550
116.31839,39.97482,146,5550
116.32742,39.97518,147,5550
116.32743,39.97918,148,5550
116.34578,39.98526,149,5550
116.33963,39.98554,150,5550
116.34163,39.98507,151,5550
116.34537,39.98525,152,5550
116.32728,39.98039,153,5550
116.32742,39.98028,154,5550
116.32691,39.99009,155,5550
116.3269,39.99117,156,5550
116.33244,39.99999,157,5550
116.33244,39.99999,158,5550
116.33514,40.00535,159,5550
116.33445,40.00404,160,5550
116.3323,39.99987,161,5550
116.32717,39.99148,162,5550
116.32649,39.98493,163,5550
116.31029,39.98139,164,5550
116.31038,39.97734,165,5550
116.31565,39.96554,166,5550
116.31859,39.9657,167,5550
116.33658,39.96627,168,5550
116.37555,39.96678,169,5550
116.3892,39.94915,170,5550
116.38928,39.94783,171,5550
116.42518,39.94825,172,5550
116.42755,39.93281,173,5550
116.43752,39.92944,174,5550
116.43954,39.92758,175,5550
116.43996,39.92376,176,5550
116.43982,39.92127,177,5550
116.43459,39.92237,178,5550
116.42968,39.93015,179,5550
116.42796,39.93336,180,5550
116.41961,39.93979,181,5550
116.41684,39.9419,182,5550
116.42126,39.94339,183,5550
116.42699,39.93939,184,5550
116.42699,39.93939,185,5550
116.42737,39.93736,186,5550
116.4304,39.93099,187,5550
116.42746,39.94418,188,5550
116.40818,39.94793,189,5550
116.38967,39.94785,190,5550
116.38748,39.9506,191,5550
116.38795,39.95007,192,5550
116.38967,39.94742,193,5550
116.40224,39.93962,194,5550
116.41549,39.9396,195,5550
116.42393,39.93975,196,5550
116.42393,39.93975,197,5550
116.42784,39.94667,198,5550
116.42997,39.94809,199,5550
116.46016,39.96706,200,5550
116.48167,39.98621,201,5550
116.48533,39.98663,202,5550
116.4955,39.98678,203,5550
116.48382,39.98672,204,5550
116.48382,39.98672,205,5550
116.47733,39.99084,206,5550
116.46246,40.00052,207,5550
116.46246,40.00052,208,5550
116.46013,40.00734,209,5550
116.44056,40.00672,210,5550
116.41906,40.00791,211,5550
116.40753,40.00511,212,5550
116.40155,40.00136,213,5550
116.40106,39.98354,214,5550
116.38812,39.9713,215,5550
116.38845,39.96117,216,5550
116.38888,39.9592,217,5550
116.39343,39.96712,218,5550
116.42813,39.96803,219,5550
116.43014,39.96209,220,5550
116.4334,39.95337,221,5550
116.43811,39.94716,222,5550
116.43817,39.94725,223,5550
116.43273,39.94572,224,5550
116.43273,39.94572,225,5550
116.42421,39.94847,226,5550
116.40996,39.94949,227,5550
116.40999,39.94823,228,5550
116.43236,39.94805,229,5550
116.45547,39.93913,230,5550
116.45528,39.93277,231,5550
116.47211,39.93037,232,5550
116.47732,39.92689,233,5550
116.47761,39.92441,234,5550
116.47866,39.92197,235,5550
116.48752,39.91411,236,5550
116.50027,39.91463,237,5550
116.5046,39.91471,238,5550
116.5147,39.91562,239,5550
116.52366,39.90925,240,5550
116.53113,39.90807,241,5550
116.5813,39.9083,242,5550
116.61205,39.90456,243,5550
116.63032,39.90641,244,5550
116.60544,39.90641,245,5550
116.59529,39.90827,246,5550
116.57163,39.9095,247,5550
116.57241,39.91352,248,5550
116.58129,39.91225,249,5550
116.57357,39.91342,250,5550
116.5524,39.90845,251,5550
116.53722,39.9098,252,5550
116.52079,39.9115,253,5550
116.49223,39.91462,254,5550
116.48416,39.87986,255,5550
116.50197,39.87258,256,5550
116.50368,39.87354,257,5550
116.49622,39.87524,258,5550
116.49182,39.87732,259,5550
116.48397,39.89156,260,5550
116.48013,39.89857,261,5550
116.49617,39.91442,262,5550
116.486,39.91443,263,5550
116.46699,39.93244,264,5550
116.44964,39.93244,265,5550
116.42852,39.93259,266,5550
116.41971,39.93595,267,5550
116.4323,39.93962,268,5550
116.44727,39.93983,269,5550
116.4102,40.01048,270,5550
116.43746,40.01847,271,5550
116.4655,40.01375,272,5550
116.47643,40.0125,273,5550
116.47643,40.0125,274,5550
116.47643,40.0125,275,5550
116.49317,39.99756,276,5550
116.5038,40.00797,277,5550
116.50592,40.01114,278,5550
116.50592,40.01114,279,5550
116.50586,40.01117,280,5550
116.50586,40.01117,281,5550
116.50586,40.01117,282,5550
116.50586,40.01117,283,5550
116.50586,40.01117,284,5550
116.50586,40.01117,285,5550
116.50586,40.01117,286,5550
116.50586,40.01117,287,5550
116.50586,40.01117,288,5550
116.50586,40.01117,289,5550
116.50586,40.01117,290,5550
116.50586,40.01117,291,5550
116.50586,40.01117,292,5550
116.50586,40.01117,293,5550
116.50586,40.01117,294,5550
116.50586,40.01117,295,5550
116.50586,40.01117,296,5550
116.50586,40.01117,297,5550
116.50586,40.01117,298,5550
116.50586,40.01117,299,5550
116.50586,40.01117,300,5550
116.50586,40.01117,301,5550
116.50586,40.01117,302,5550
116.48219,39.98827,303,5550
116.47766,39.99051,304,5550
116.46259,39.98462,305,5550
116.44986,39.95896,306,5550
116.43221,39.9452,307,5550
116.42784,39.94454,308,5550
116.4102,39.94949,309,5550
116.41174,39.95781,310,5550
116.41221,39.95985,311,5550
116.40582,39.96767,312,5550
116.39171,39.96728,313,5550
116.37512,39.96145,314,5550
116.37379,39.96163,315,5550
116.38581,39.94778,316,5550
116.38283,39.94772,317,5550
116.36544,39.95082,318,5550
116.36486,39.95638,319,5550
116.35532,39.95115,320,5550
116.35238,39.95096,321,5550
116.34913,39.96569,322,5550
116.35512,39.96629,323,5550
116.38144,39.97144,324,5550
116.39484,39.96728,325,5550
116.4324,39.97976,326,5550
116.4385,39.98903,327,5550
116.47346,40.0136,328,5550
116.48131,40.01043,329,5550
116.48131,40.01043,330,5550
116.50578,40.00966,331,5550
116.49959,40.00454,332,5550
116.49611,40.00154,333,5550
116.48198,39.98808,334,5550
116.47683,39.99108,335,5550
116.46689,39.98324,336,5550
116.46689,39.98324,337,5550
116.46535,39.98177,338,5550
116.45447,39.97557,339,5550
116.46053,39.97168,340,5550
116.4741,39.96466,341,5550
116.47412,39.96467,342,5550
116.48372,39.9707,343,5550
116.48743,39.97064,344,5550
116.49701,39.97918,345,5550
116.50035,39.98111,346,5550
116.49338,39.97091,347,5550
116.4895,39.97054,348,5550
116.49081,39.97066,349,5550
116.49261,39.97528,350,5550
116.48419,39.97532,351,5550
116.48255,39.97015,352,5550
116.47347,39.97063,353,5550
116.46298,39.96157,354,5550
116.45887,39.95762,355,5550
116.44712,39.9573,356,5550
116.44162,39.96124,357,5550
116.44229,39.96787,358,5550
116.44868,39.96616,359,5550
116.44217,39.96309,360,5550
116.43831,39.96334,361,5550
116.41986,39.96826,362,5550
116.41132,39.9681,363,5550
116.41132,39.9681,364,5550
116.41056,39.96802,365,5550
116.39611,39.96747,366,5550
116.37131,39.967,367,5550
116.36425,39.96682,368,5550
116.36425,39.96682,369,5550
116.36513,39.95188,370,5550
116.35917,39.95124,371,5550
116.35234,39.95103,372,5550
116.35025,39.95071,373,5550
116.35014,39.94705,374,5550
116.34994,39.94354,375,5550
116.34944,39.93434,376,5550
116.34393,39.91715,377,5550
116.33453,39.91709,378,5550
116.32836,39.91452,379,5550
116.32834,39.9129,380,5550
116.31486,39.90897,381,5550
116.31488,39.90758,382,5550
116.31503,39.89661,383,5550
116.30618,39.896,384,5550
116.30463,39.90771,385,5550
116.30448,39.91268,386,5550
116.30448,39.91268,387,5550
116.3044,39.91534,388,5550
116.3044,39.93006,389,5550
116.31306,39.93105,390,5550
116.31968,39.9372,391,5550
116.31937,39.93849,392,5550
116.32195,39.93712,393,5550
116.33269,39.93667,394,5550
116.33528,39.93687,395,5550
116.3376,39.93188,396,5550
116.3378,39.92914,397,5550
116.34786,39.931,398,5550
116.3519,39.93099,399,5550
116.36527,39.93117,400,5550
116.36829,39.93129,401,5550
116.37017,39.93138,402,5550
116.37643,39.93168,403,5550
116.38796,39.93203,404,5550
116.39008,39.93245,405,5550
116.38977,39.93832,406,5550
116.39421,39.93941,407,5550
116.40327,39.93934,408,5550
116.41446,39.93953,409,5550
116.43015,39.93869,410,5550
116.45283,39.93993,411,5550
116.45586,39.94772,412,5550
116.45528,39.95443,413,5550
116.46002,39.95878,414,5550
116.46002,39.95878,415,5550
116.47521,39.96991,416,5550
116.48373,39.96992,417,5550
116.4896,39.97018,418,5550
116.48964,39.9702,419,5550
116.48964,39.9702,420,5550
116.48964,39.9702,421,5550
116.48964,39.9702,422,5550
116.48964,39.9702,423,5550
116.48964,39.9702,424,5550
116.48964,39.9702,425,5550
116.48964,39.9702,426,5550
116.48964,39.9702,427,5550
116.48964,39.9702,428,5550
116.48964,39.9702,429,5550
116.48964,39.9702,430,5550
116.48594,39.97069,431,5550
116.47674,39.9697,432,5550
116.46602,39.96504,433,5550
116.45519,39.95442,434,5550
116.44668,39.95761,435,5550
116.44422,39.95968,436,5550
116.44694,39.96702,437,5550
116.44342,39.96403,438,5550
116.4407,39.96133,439,5550
116.45134,39.95421,440,5550
116.45134,39.95421,441,5550
116.45548,39.9345,442,5550
116.45256,39.92203,443,5550
116.44534,39.92165,444,5550
116.44453,39.92153,445,5550
116.43481,39.91381,446,5550
116.43054,39.91314,447,5550
116.42876,39.9213,448,5550
116.42876,39.92252,449,5550
116.42771,39.92274,450,5550
116.42851,39.91411,451,5550
116.42955,39.90667,452,5550
116.43587,39.89241,453,5550
116.42731,39.89325,454,5550
116.42253,39.89223,455,5550
116.42254,39.89209,456,5550
116.43259,39.89233,457,5550
116.43313,39.89555,458,5550
116.44859,39.89206,459,5550
116.45333,39.89197,460,5550
116.45454,39.89198,461,5550
116.45565,39.89613,462,5550
116.45662,39.90812,463,5550
116.45664,39.90813,464,5550
116.45577,39.91488,465,5550
116.45581,39.92176,466,5550
116.45578,39.93129,467,5550
116.45571,39.9442,468,5550
116.44049,39.96153,469,5550
116.42315,39.96813,470,5550
116.41663,39.96797,471,5550
116.40627,39.96761,472,5550
116.39696,39.96749,473,5550
116.39157,39.96712,474,5550
116.38505,39.96715,475,5550
116.37624,39.96687,476,5550
116.36152,39.96649,477,5550
116.35221,39.96645,478,5550
116.34467,39.96648,479,5550
116.33668,39.96642,480,5550
116.32914,39.96633,481,5550
116.32483,39.96637,482,5550
116.31937,39.96625,483,5550
116.31706,39.96285,484,5550
116.32109,39.96309,485,5550
116.31921,39.96314,486,5550
116.32022,39.96294,487,5550
116.33183,39.96606,488,5550
116.34316,39.96625,489,5550
116.38092,39.96685,490,5550
116.3886,39.95953,491,5550
116.38915,39.94886,492,5550
116.39618,39.94757,493,5550
116.40914,39.9478,494,5550
116.42661,39.94753,495,5550
116.42726,39.93283,496,5550
116.43406,39.92719,497,5550
116.43207,39.92396,498,5550
116.43301,39.92489,499,5550
116.43258,39.92497,500,5550
116.43748,39.92074,501,5550
116.42761,39.92295,502,5550
116.42852,39.91577,503,5550
116.42896,39.91111,504,5550
116.4326,39.89821,505,5550
116.43891,39.88447,506,5550
116.43383,39.86928,507,5550
116.43383,39.86928,508,5550
116.41947,39.87003,509,5550
116.39775,39.87064,510,5550
116.39315,39.86494,511,5550
116.39641,39.85145,512,5550
116.39692,39.85035,513,5550
116.39481,39.85466,514,5550
116.40166,39.85542,515,5550
116.40594,39.85587,516,5550
116.39448,39.85585,517,5550
116.39584,39.8527,518,5550
116.41284,39.85567,519,5550
116.43489,39.85746,520,5550
116.45214,39.86404,521,5550
116.46155,39.86661,522,5550
116.47554,39.86647,523,5550
116.49306,39.86944,524,5550
116.49706,39.85962,525,5550
116.50398,39.85576,526,5550
116.49943,39.85717,527,5550
116.49408,39.8628,528,5550
116.49165,39.87422,529,5550
116.49148,39.87775,530,5550
116.47622,39.88319,531,5550
116.47137,39.89039,532,5550
116.47138,39.8912,533,5550
116.47147,39.88909,534,5550
116.47147,39.88909,535,5550
116.47164,39.90084,536,5550
116.47176,39.9065,537,5550
116.47176,39.90657,538,5550
116.46611,39.90832,539,5550
116.46915,39.90842,540,5550
116.47175,39.90759,541,5550
116.47157,39.90297,542,5550
116.47158,39.89945,543,5550
116.4786,39.89925,544,5550
116.47179,39.89923,545,5550
116.47051,39.90398,546,5550
116.44572,39.90273,547,5550
116.43076,39.90232,548,5550
116.42969,39.90759,549,5550
116.42882,39.91599,550,5550
116.43168,39.923,551,5550
116.43277,39.92303,552,5550
116.43283,39.92299,553,5550
116.43374,39.92287,554,5550
116.4399,39.92542,555,5550
116.43867,39.92561,556,5550
116.43963,39.93242,557,5550
116.43963,39.93242,558,5550
116.43073,39.93252,559,5550
116.43305,39.9397,560,5550
116.4354,39.94145,561,5550
116.43826,39.94258,562,5550
116.44834,39.93985,563,5550
116.44901,39.93986,564,5550
116.45539,39.92228,565,5550
116.45538,39.92165,566,5550
116.45547,39.9056,567,5550
116.45549,39.90538,568,5550
116.45572,39.89517,569,5550
116.45583,39.90386,570,5550
116.45578,39.90379,571,5550
116.45583,39.91383,572,5550
116.45579,39.91477,573,5550
116.45446,39.95254,574,5550
116.45319,39.95343,575,5550
116.47188,39.97871,576,5550
116.47257,39.97935,577,5550
116.47388,39.99311,578,5550
116.47274,39.99385,579,5550
116.46663,39.99926,580,5550
116.46618,39.9989,581,5550
116.46302,39.99047,582,5550
116.46363,39.98014,583,5550
116.46311,39.97971,584,5550
116.46307,39.9616,585,5550
116.46203,39.96063,586,5550
116.45697,39.95492,587,5550
116.45679,39.95516,588,5550
116.4511,39.95512,589,5550
116.4511,39.95512,590,5550
116.44351,39.95965,591,5550
116.4423,39.96042,592,5550
116.39597,39.96829,593,5550
116.39598,39.96851,594,5550
116.3943,39.97052,595,5550
116.38009,39.96716,596,5550
116.37899,39.96719,597,5550
116.37727,39.97135,598,5550
116.37793,39.97142,599,5550
116.35059,39.96639,600,5550
116.35038,39.96639,601,5550
116.35038,39.96639,602,5550
116.30224,39.95893,603,5550
116.30224,39.95893,604,5550
116.30259,39.95722,605,5550
116.30406,39.91585,606,5550
116.30407,39.91538,607,5550
116.30002,39.90633,608,5550
116.29983,39.90631,609,5550
116.28078,39.90648,610,5550
116.28012,39.9065,611,5550
116.26873,39.9063,612,5550
116.26873,39.9063,613,5550
116.24693,39.90843,614,5550
116.24692,39.90898,615,5550
116.2435,39.91218,616,5550
116.2435,39.91153,617,5550
116.25826,39.90619,618,5550
116.25826,39.90619,619,5550
116.26916,39.91612,620,5550
116.26916,39.91612,621,5550
116.29639,39.92251,622,5550
116.29772,39.92251,623,5550
116.31196,39.93106,624,5550
116.31262,39.93108,625,5550
116.32101,39.93705,626,5550
116.32101,39.93705,627,5550
116.32101,39.93705,628,5550
116.32101,39.93705,629,5550
116.34646,39.93685,630,5550
116.34653,39.93646,631,5550
116.35008,39.9202,632,5550
116.35017,39.90749,633,5550
116.35019,39.90716,634,5550
116.34243,39.89348,635,5550
116.34245,39.89242,636,5550
116.3404,39.8504,637,5550
116.34021,39.84876,638,5550
116.33954,39.80225,639,5550
116.33974,39.80125,640,5550
116.33644,39.77346,641,5550
116.34193,39.79498,642,5550
116.34211,39.79586,643,5550
116.34033,39.84835,644,5550
116.34051,39.84982,645,5550
116.34375,39.89649,646,5550
116.34548,39.89684,647,5550
116.35063,39.91683,648,5550
116.35058,39.91728,649,5550
116.35058,39.91728,650,5550
116.35114,39.93924,651,5550
116.35114,39.93924,652,5550
116.34583,39.93911,653,5550
116.33944,39.93767,654,5550
116.32089,39.93658,655,5550
116.31931,39.94084,656,5550
116.31631,39.96274,657,5550
116.52139,40.03367,658,5550
116.52139,40.03367,659,5550
116.40539,39.9673,660,5550
116.40136,39.973,661,5550
116.40387,39.98157,662,5550
116.40387,39.98157,663,5550
116.4102,39.98697,664,5550
116.4102,39.98697,665,5550
116.41782,39.98547,666,5550
116.41809,39.97406,667,5550
116.41838,39.97631,668,5550
116.4181,39.98202,669,5550
116.40474,39.98755,670,5550
116.38915,39.98681,671,5550
116.31018,40.01647,672,5550
116.33103,39.99768,673,5550
116.35304,39.98562,674,5550
116.38934,39.98651,675,5550
116.40161,39.99662,676,5550
116.40161,39.99662,677,5550
116.40175,40.00573,678,5550
116.40247,40.02039,679,5550
116.40436,40.03065,680,5550
116.41059,40.0363,681,5550
116.41604,40.04166,682,5550
116.42022,40.03602,683,5550
116.42711,40.03802,684,5550
116.41334,40.03139,685,5550
116.41022,40.03132,686,5550
116.40372,40.02125,687,5550
116.40302,40.02127,688,5550
116.40173,40.01513,689,5550
116.40202,40.00956,690,5550
116.40251,40.02049,691,5550
116.42523,40.0206,692,5550
116.47797,40.01245,693,5550
116.49266,39.99722,694,5550
116.50671,40.01106,695,5550
116.50671,40.01106,696,5550
116.50671,40.01106,697,5550
116.50671,40.01106,698,5550
116.50683,40.01104,699,5550
116.52171,40.03066,700,5550
116.52886,40.04327,701,5550
116.54891,40.06414,702,5550
116.55205,40.08121,703,5550
116.56093,40.11544,704,5550
116.57536,40.1282,705,5550
116.60925,40.15283,706,5550
116.63122,40.16422,707,5550
116.63621,40.20354,708,5550
116.64009,40.22288,709,5550
116.63167,40.25958,710,5550
116.63327,40.27369,711,5550
116.63327,40.27369,712,5550
116.64616,40.30976,713,5550
116.65255,40.31885,714,5550
116.70257,40.32696,715,5550
116.72101,40.32732,716,5550
116.75181,40.33469,717,5550
116.75176,40.33464,718,5550
116.7764,40.34724,719,5550
116.78383,40.34655,720,5550
116.81159,40.36402,721,5550
116.82047,40.37684,722,5550
116.84048,40.38121,723,5550
116.82861,40.37587,724,5550
116.82389,40.37371,725,5550
116.82512,40.3786,726,5550
116.82454,40.37179,727,5550
116.82186,40.37122,728,5550
116.82217,40.37097,729,5550
116.82217,40.37097,730,5550
116.82217,40.37097,731,5550
116.82217,40.37097,732,5550
116.82217,40.37097,733,5550
116.82217,40.37097,734,5550
116.82217,40.37097,735,5550
116.82217,40.37097,736,5550
116.82217,40.37097,737,5550
116.82217,40.37097,738,5550
116.82217,40.37097,739,5550
116.82217,40.37097,740,5550
116.82217,40.37097,741,5550
116.82217,40.37097,742,5550
116.82217,40.37097,743,5550
116.82217,40.37097,744,5550
116.82217,40.37097,745,5550
116.82217,40.37097,746,5550
116.82217,40.37097,747,5550
116.82217,40.37097,748,5550
116.82217,40.37097,749,5550
116.82217,40.37097,750,5550
116.82217,40.37097,751,5550
116.82204,40.37379,752,5550
116.82204,40.37379,753,5550
116.82787,40.37649,754,5550
116.83651,40.37372,755,5550
116.83528,40.36817,756,5550
116.82797,40.36737,757,5550
116.78289,40.35044,758,5550
116.77153,40.34504,759,5550
116.72997,40.32834,760,5550
116.71366,40.32723,761,5550
116.66337,40.32333,762,5550
116.65069,40.31859,763,5550
116.63508,40.28224,764,5550
116.632,40.26852,765,5550
116.64116,40.23583,766,5550
116.64107,40.22397,767,5550
116.63564,40.18117,768,5550
116.63564,40.18117,769,5550
116.63271,40.16612,770,5550
116.58365,40.13537,771,5550
116.57203,40.1255,772,5550
116.55401,40.09418,773,5550
116.55156,40.07927,774,5550
116.53077,40.04736,775,5550
116.52935,40.0466,776,5550
116.52404,40.03423,777,5550
116.51874,40.02643,778,5550
116.50592,40.01048,779,5550
116.5026,40.00703,780,5550
116.48263,40.00122,781,5550
116.47487,40.00068,782,5550
116.46383,40.00039,783,5550
116.46383,40.00039,784,5550
116.46383,40.00039,785,5550
116.46383,40.00039,786,5550
116.46383,40.00039,787,5550
116.46383,40.00039,788,5550
116.46391,40.00034,789,5550
116.46366,40.00023,790,5550
116.46379,40.00024,791,5550
116.46399,40.00027,792,5550
116.46384,40.00022,793,5550
116.46366,40.00016,794,5550
116.46354,40.00013,795,5550
116.46357,40.00022,796,5550
116.46346,40.00025,797,5550
116.46645,39.98968,798,5550
116.46929,39.98496,799,5550
116.45717,39.96555,800,5550
116.45048,39.9591,801,5550
116.45048,39.9591,802,5550
116.45547,39.94555,803,5550
116.45586,39.94135,804,5550
116.45236,39.94758,805,5550
116.44948,39.9471,806,5550
116.44666,39.94989,807,5550
116.41643,39.94816,808,5550
116.37985,39.94752,809,5550
116.37517,39.94748,810,5550
116.36196,39.94625,811,5550
116.36196,39.94625,812,5550
116.35915,39.9451,813,5550
116.34863,39.93933,814,5550
116.33986,39.93763,815,5550
116.3038,39.93757,816,5550
116.30367,39.9312,817,5550
116.28252,39.92652,818,5550
116.28259,39.92596,819,5550
116.28261,39.92911,820,5550
116.28261,39.92911,821,5550
116.28261,39.92911,822,5550
116.28261,39.92911,823,5550
116.26671,39.92306,824,5550
116.25933,39.92331,825,5550
116.25029,39.9165,826,5550
116.24701,39.91978,827,5550
116.2539,39.92008,828,5550
116.25586,39.92269,829,5550
116.27861,39.92298,830,5550
116.27877,39.92461,831,5550
116.27875,39.92471,832,5550
116.27964,39.92641,833,5550
116.29518,39.93108,834,5550
116.29788,39.93522,835,5550
116.29633,39.93623,836,5550
116.29634,39.93621,837,5550
116.29638,39.93617,838,5550
116.29795,39.93634,839,5550
116.30417,39.92369,840,5550
116.3064,39.92711,841,5550
116.30644,39.93114,842,5550
116.31894,39.93113,843,5550
116.319,39.93113,844,5550
116.31956,39.93555,845,5550
116.31956,39.93555,846,5550
116.31962,39.93685,847,5550
116.31962,39.93685,848,5550
116.29838,39.94346,849,5550
116.28235,39.95583,850,5550
116.27524,39.95597,851,5550
116.27524,39.95597,852,5550
116.27754,39.96021,853,5550
116.27818,39.96043,854,5550
116.27864,39.97347,855,5550
116.29806,39.97423,856,5550
116.29933,39.97426,857,5550
116.30265,39.9771,858,5550
116.30285,39.97485,859,5550
116.31636,39.96162,860,5550
116.31636,39.96162,861,5550
116.31703,39.9564,862,5550
116.31927,39.93943,863,5550
116.31936,39.93763,864,5550
116.31954,39.92706,865,5550
116.31959,39.92287,866,5550
116.32838,39.9146,867,5550
116.32836,39.91312,868,5550
116.32737,39.91278,869,5550
116.32737,39.91278,870,5550
116.3285,39.91445,871,5550
116.32856,39.91938,872,5550
116.32856,39.91938,873,5550
116.32806,39.92602,874,5550
116.32779,39.92998,875,5550
116.31875,39.94463,876,5550
116.31667,39.96431,877,5550
116.31825,39.96439,878,5550
116.33176,39.96602,879,5550
116.33813,39.96607,880,5550
116.34788,39.98033,881,5550
116.3476,39.98446,882,5550
116.36315,39.98785,883,5550
116.36321,39.98649,884,5550
116.37826,39.98605,885,5550
116.37991,39.9862,886,5550
116.41516,39.98717,887,5550
116.41516,39.98717,888,5550
116.41113,39.98763,889,5550
116.40256,39.98729,890,5550
116.38084,39.99881,891,5550
116.38034,40.0073,892,5550
116.36847,40.01257,893,5550
116.36579,40.01214,894,5550
116.39359,40.00822,895,5550
116.40131,39.9952,896,5550
116.40134,39.99171,897,5550
116.40105,39.96836,898,5550
116.40114,39.96652,899,5550
116.40184,39.95254,900,5550
116.40194,39.94652,901,5550
116.40194,39.94652,902,5550
116.40233,39.93602,903,5550
116.40241,39.9349,904,5550
116.40245,39.93331,905,5550
116.40245,39.93277,906,5550
116.40999,39.92283,907,5550
116.41135,39.91934,908,5550
116.41158,39.91087,909,5550
116.4117,39.90976,910,5550
116.40753,39.90787,911,5550
116.40753,39.90787,912,5550
116.40971,39.90788,913,5550
116.40138,39.90654,914,5550
116.39792,39.90651,915,5550
116.38835,39.89473,916,5550
116.38882,39.88956,917,5550
116.37916,39.8882,918,5550
116.37887,39.88819,919,5550
116.38109,39.88166,920,5550
116.38124,39.87816,921,5550
116.39315,39.86658,922,5550
116.39324,39.86158,923,5550
116.39715,39.85543,924,5550
116.40257,39.85561,925,5550
116.45389,39.86585,926,5550
116.45499,39.87552,927,5550
116.45548,39.91678,928,5550
116.4556,39.92585,929,5550
116.44585,39.95833,930,5550
116.44583,39.96118,931,5550
116.43796,39.96357,932,5550
116.43229,39.967,933,5550
116.37853,39.96699,934,5550
116.36779,39.96682,935,5550
116.3637,39.97819,936,5550
116.37824,39.9861,937,5550
116.38889,39.98655,938,5550
116.41739,39.98729,939,5550
116.42464,39.98746,940,5550
116.46383,39.96837,941,5550
116.48855,39.97059,942,5550
116.48855,39.97059,943,5550
116.48385,39.97296,944,5550
116.48385,39.97296,945,5550
116.47651,39.96794,946,5550
116.47353,39.96406,947,5550
116.48343,39.93485,948,5550
116.47898,39.93248,949,5550
116.45463,39.93073,950,5550
116.45187,39.93072,951,5550
116.45273,39.93202,952,5550
116.45274,39.93202,953,5550
116.45517,39.92988,954,5550
116.45517,39.92988,955,5550
116.45533,39.92582,956,5550
116.45552,39.90649,957,5550
116.4554,39.89934,958,5550
116.45442,39.87103,959,5550
116.45524,39.87218,960,5550
116.45059,39.88314,961,5550
116.44741,39.88318,962,5550
116.43668,39.89735,963,5550
116.43376,39.89818,964,5550
116.41877,39.90332,965,5550
116.42028,39.90362,966,5550
116.43499,39.90584,967,5550
116.43513,39.90631,968,5550
116.44371,39.90682,969,5550
116.44521,39.90683,970,5550
116.45503,39.89357,971,5550
116.45404,39.89233,972,5550
116.41261,39.95175,973,5550
116.41516,39.94878,974,5550
116.41792,39.94883,975,5550
116.43652,39.94808,976,5550
116.44347,39.95196,977,5550
116.45536,39.94928,978,5550
116.45546,39.94626,979,5550
116.45546,39.94626,980,5550
116.45548,39.93354,981,5550
116.45533,39.92536,982,5550
116.455,39.90917,983,5550
116.45448,39.90783,984,5550
116.45156,39.91121,985,5550
116.4515,39.91133,986,5550
116.45162,39.91647,987,5550
116.45162,39.91647,988,5550
116.45028,39.91934,989,5550
116.43214,39.92552,990,5550
116.43077,39.92824,991,5550
116.42811,39.93169,992,5550
116.42808,39.9345,993,5550
116.4436,39.93981,994,5550
116.44841,39.93987,995,5550
116.45591,39.94704,996,5550
116.4559,39.94705,997,5550
116.45773,39.95438,998,5550
116.45334,39.95525,999,5550
116.45338,39.95524,1000,5550
116.45239,39.95414,1001,5550
116.44419,39.9598,1002,5550
116.44646,40.0316,1003,5550
116.44646,40.0316,1004,5550
116.43802,39.95912,1005,5550
116.43301,39.95346,1006,5550
116.42922,39.95441,1007,5550
116.42216,39.95804,1008,5550
116.41828,39.95792,1009,5550
116.42603,39.95591,1010,5550
116.42636,39.94906,1011,5550
116.41183,39.94801,1012,5550
116.39,39.9477,1013,5550
116.38265,39.94761,1014,5550
116.37321,39.95319,1015,5550
116.35927,39.95668,1016,5550
116.34877,39.96326,1017,5550
116.36369,39.96613,1018,5550
116.36152,39.95667,1019,5550
116.35513,39.96616,1020,5550
116.35951,39.96837,1021,5550
116.36032,39.97529,1022,5550
116.36316,39.97536,1023,5550
116.37285,39.97373,1024,5550
116.37411,39.96752,1025,5550
116.39152,39.96718,1026,5550
116.39956,39.96721,1027,5550
116.40139,39.9698,1028,5550
116.40149,39.9719,1029,5550
116.40358,39.98099,1030,5550
116.4111,39.98378,1031,5550
116.41432,39.98223,1032,5550
116.41823,39.9774,1033,5550
116.41851,39.96836,1034,5550
116.41887,39.96328,1035,5550
116.41887,39.96328,1036,5550
116.41878,39.96545,1037,5550
116.42509,39.96637,1038,5550
116.41886,39.95892,1039,5550
116.42224,39.958,1040,5550
116.42438,39.96087,1041,5550
116.42456,39.965,1042,5550
116.42497,39.9671,1043,5550
116.43693,39.96357,1044,5550
116.43697,39.96354,1045,5550
116.43505,39.96525,1046,5550
116.41311,39.96788,1047,5550
116.3618,39.96663,1048,5550
116.3618,39.96663,1049,5550
116.35954,39.97472,1050,5550
116.34741,39.97525,1051,5550
116.33954,39.97479,1052,5550
116.33121,39.97563,1053,5550
116.33102,39.9756,1054,5550
116.31939,39.97502,1055,5550
116.31939,39.97502,1056,5550
116.3193,39.96905,1057,5550
116.31789,39.96608,1058,5550
116.30584,39.96263,1059,5550
116.30099,39.96562,1060,5550
116.3011,39.96517,1061,5550
116.31192,39.96482,1062,5550
116.30178,39.96427,1063,5550
116.31606,39.96573,1064,5550
116.34832,39.96637,1065,5550
116.3736,39.96193,1066,5550
116.37288,39.94734,1067,5550
116.40457,39.94772,1068,5550
116.42756,39.94519,1069,5550
116.42853,39.91711,1070,5550
116.42851,39.89965,1071,5550
116.42098,39.90537,1072,5550
116.43014,39.90792,1073,5550
116.42781,39.93231,1074,5550
116.4221,39.94835,1075,5550
116.35995,39.94547,1076,5550
116.34901,39.95379,1077,5550
116.34793,39.97574,1078,5550
116.33511,39.98541,1079,5550
116.3227,39.98488,1080,5550
116.3227,39.98488,1081,5550
116.32238,39.98957,1082,5550
116.32675,39.98865,1083,5550
116.32903,39.97729,1084,5550
116.31941,39.97513,1085,5550
116.3118,39.97502,1086,5550
116.31035,39.97757,1087,5550
116.30001,39.97824,1088,5550
116.30137,39.98369,1089,5550
116.31047,39.97754,1090,5550
116.31351,39.96954,1091,5550
116.30215,39.95923,1092,5550
116.3039,39.93251,1093,5550
116.29583,39.92286,1094,5550
116.27933,39.9231,1095,5550
116.25885,39.92324,1096,5550
116.25871,39.91178,1097,5550
116.26026,39.91634,1098,5550
116.27263,39.91858,1099,5550
116.28187,39.92292,1100,5550
116.28187,39.92292,1101,5550
116.28222,39.92327,1102,5550
116.30386,39.92152,1103,5550
116.30417,39.90422,1104,5550
116.30969,39.85754,1105,5550
116.30585,39.8567,1106,5550
116.30583,39.85633,1107,5550
116.32184,39.8478,1108,5550
116.34589,39.86053,1109,5550
116.34801,39.86809,1110,5550
116.34409,39.88564,1111,5550
116.35729,39.90544,1112,5550
116.35075,39.91238,1113,5550
116.35113,39.91861,1114,5550
116.35122,39.91862,1115,5550
116.35122,39.91968,1116,5550
116.36266,39.91591,1117,5550
116.35717,39.91228,1118,5550
116.35718,39.8985,1119,5550
116.36243,39.89727,1120,5550
116.36855,39.89833,1121,5550
116.36864,39.8966,1122,5550
116.38153,39.89875,1123,5550
116.39057,39.90615,1124,5550
116.4108,39.90682,1125,5550
116.43385,39.90703,1126,5550
116.44875,39.90493,1127,5550
116.45402,39.90393,1128,5550
116.45613,39.90862,1129,5550
116.45395,39.91225,1130,5550
116.45477,39.91501,1131,5550
116.45466,39.91494,1132,5550
116.45505,39.91491,1133,5550
116.45523,39.91491,1134,5550
116.45524,39.91485,1135,5550
116.45525,39.91472,1136,5550
116.45523,39.9147,1137,5550
116.45477,39.91455,1138,5550
116.45506,39.88489,1139,5550
116.41105,39.85583,1140,5550
116.41105,39.85583,1141,5550
116.40759,39.85255,1142,5550
116.40778,39.86033,1143,5550
116.40911,39.85815,1144,5550
116.41425,39.86403,1145,5550
116.41482,39.88118,1146,5550
116.42502,39.88581,1147,5550
116.42181,39.89177,1148,5550
116.42068,39.89427,1149,5550
116.42144,39.89399,1150,5550
116.42926,39.89704,1151,5550
116.48359,39.98591,1152,5550
116.4899,39.9954,1153,5550
116.50591,40.00981,1154,5550
116.49839,40.00348,1155,5550
116.49729,40.00253,1156,5550
116.47704,39.98358,1157,5550
116.47614,39.98346,1158,5550
116.46063,39.97876,1159,5550
116.46128,39.97812,1160,5550
116.45943,39.97673,1161,5550
116.45943,39.97673,1162,5550
116.45943,39.97673,1163,5550
116.45943,39.97673,1164,5550
116.45943,39.97673,1165,5550
116.45943,39.97673,1166,5550
116.45943,39.97673,1167,5550
116.45105,39.97834,1168,5550
116.44969,39.97929,1169,5550
116.45049,39.98152,1170,5550
116.45079,39.98203,1171,5550
116.4505,39.98146,1172,5550
116.4505,39.98146,1173,5550
116.4505,39.98146,1174,5550
116.4505,39.98146,1175,5550
116.4505,39.98146,1176,5550
116.4505,39.98146,1177,5550
116.4505,39.98146,1178,5550
116.4505,39.98146,1179,5550
116.4505,39.98146,1180,5550
116.43408,39.98344,1181,5550
116.43286,39.98155,1182,5550
116.41169,39.96696,1183,5550
116.40263,39.95785,1184,5550
116.40274,39.94735,1185,5550
116.40412,39.94742,1186,5550
116.43591,39.93973,1187,5550
116.43775,39.93972,1188,5550
116.43799,39.93517,1189,5550
116.43035,39.93396,1190,5550
116.43262,39.93967,1191,5550
116.46689,39.94152,1192,5550
116.46838,39.93971,1193,5550
116.45595,39.93246,1194,5550
116.45592,39.93246,1195,5550
116.45527,39.91764,1196,5550
116.45527,39.91764,1197,5550
116.45538,39.91467,1198,5550
116.45514,39.90747,1199,5550
116.45609,39.90979,1200,5550
116.46253,39.91221,1201,5550
116.4607,39.90725,1202,5550
116.45605,39.91118,1203,5550
116.4329,39.96924,1204,5550
116.4329,39.96924,1205,5550
116.4279,39.96846,1206,5550
116.4126,39.9681,1207,5550
116.4126,39.9681,1208,5550
116.39636,39.96768,1209,5550
116.3929,39.9676,1210,5550
116.38416,39.96736,1211,5550
116.37724,39.96722,1212,5550
116.38175,39.96717,1213,5550
116.37094,39.96698,1214,5550
116.37368,39.96384,1215,5550
116.37352,39.95941,1216,5550
116.35953,39.96651,1217,5550
116.34357,39.96656,1218,5550
116.3368,39.96106,1219,5550
116.33017,39.96078,1220,5550
116.31721,39.95658,1221,5550
116.3178,39.96295,1222,5550
116.3144,39.9677,1223,5550
116.31213,39.97442,1224,5550
116.31288,39.9758,1225,5550
116.31247,39.97482,1226,5550
116.3192,39.97098,1227,5550
116.31839,39.96607,1228,5550
116.31782,39.95054,1229,5550
116.31854,39.94594,1230,5550
116.32864,39.93661,1231,5550
116.33265,39.93663,1232,5550
116.34815,39.93903,1233,5550
116.35124,39.93926,1234,5550
116.35124,39.93927,1235,5550
116.35124,39.93927,1236,5550
116.35124,39.93927,1237,5550
116.35124,39.93927,1238,5550
116.35758,39.94133,1239,5550
116.35695,39.94459,1240,5550
116.35059,39.94307,1241,5550
116.35509,39.95842,1242,5550
116.35485,39.96384,1243,5550
116.37055,39.96647,1244,5550
116.37118,39.96641,1245,5550
116.37118,39.96641,1246,5550
116.37094,39.967,1247,5550
116.36953,39.96959,1248,5550
116.36967,39.96937,1249,5550
116.36069,39.96648,1250,5550
116.34849,39.96641,1251,5550
116.31791,39.96605,1252,5550
116.31648,39.95548,1253,5550
116.31108,39.95469,1254,5550
116.31116,39.95507,1255,5550
116.31654,39.95549,1256,5550
116.32251,39.96323,1257,5550
116.32251,39.96323,1258,5550
116.32339,39.96363,1259,5550
116.32338,39.96372,1260,5550
116.3371,39.96608,1261,5550
116.34362,39.96622,1262,5550
116.38383,39.96692,1263,5550
116.39533,39.96745,1264,5550
116.42951,39.96683,1265,5550
116.42951,39.96683,1266,5550
116.42835,39.96327,1267,5550
116.4284,39.96325,1268,5550
116.4284,39.96325,1269,5550
116.43807,39.96282,1270,5550
116.44012,39.96146,1271,5550
116.44843,39.95615,1272,5550
116.45864,39.95735,1273,5550
116.45959,39.95834,1274,5550
116.47083,39.97225,1275,5550
116.47477,39.97609,1276,5550
116.47244,39.97917,1277,5550
116.48129,39.98712,1278,5550
116.49757,40.00269,1279,5550
116.50476,40.00878,1280,5550
116.5251,40.03576,1281,5550
116.52719,40.03981,1282,5550
116.54664,40.06125,1283,5550
116.54884,40.06408,1284,5550
116.55414,40.0943,1285,5550
116.55608,40.10577,1286,5550
116.57335,40.12647,1287,5550
116.58101,40.13295,1288,5550
116.61363,40.15487,1289,5550
116.62772,40.16178,1290,5550
116.63587,40.18705,1291,5550
116.63608,40.19743,1292,5550
116.63655,40.21797,1293,5550
116.6402,40.22284,1294,5550
116.63148,40.2601,1295,5550
116.63247,40.27057,1296,5550
116.64431,40.30675,1297,5550
116.6492,40.31482,1298,5550
116.69062,40.32658,1299,5550
116.70515,40.3268,1300,5550
116.75137,40.33523,1301,5550
116.76516,40.34178,1302,5550
116.78362,40.3464,1303,5550
116.78373,40.34661,1304,5550
116.78912,40.35327,1305,5550
116.78912,40.35327,1306,5550
116.82532,40.36697,1307,5550
116.82886,40.36733,1308,5550
116.84171,40.36896,1309,5550
116.84201,40.36911,1310,5550
116.84188,40.36892,1311,5550
116.84188,40.36892,1312,5550
116.84188,40.36892,1313,5550
116.83967,40.37112,1314,5550
116.83963,40.37276,1315,5550
116.83974,40.37352,1316,5550
116.83954,40.37349,1317,5550
116.83959,40.37348,1318,5550
116.83959,40.37348,1319,5550
116.83488,40.37493,1320,5550
116.83411,40.37476,1321,5550
116.8101,40.36341,1322,5550
116.80443,40.3607,1323,5550
116.78448,40.34788,1324,5550
116.78378,40.34653,1325,5550
116.78379,40.34656,1326,5550
116.78379,40.34656,1327,5550
116.78029,40.34604,1328,5550
116.77791,40.34638,1329,5550
116.78368,40.34654,1330,5550
116.77782,40.34629,1331,5550
116.78113,40.34726,1332,5550
116.78113,40.34726,1333,5550
116.78167,40.34771,1334,5550
116.78232,40.34673,1335,5550
116.78371,40.34659,1336,5550
116.78229,40.34755,1337,5550
116.80358,40.3602,1338,5550
116.81555,40.36515,1339,5550
116.82233,40.37303,1340,5550
116.82243,40.37333,1341,5550
116.8043,40.36065,1342,5550
116.78194,40.35001,1343,5550
116.78367,40.34734,1344,5550
116.78372,40.34656,1345,5550
116.78372,40.34656,1346,5550
116.78246,40.3453,1347,5550
116.78374,40.35076,1348,5550
116.79795,40.35752,1349,5550
116.82039,40.37102,1350,5550
116.8219,40.37095,1351,5550
116.82235,40.3731,1352,5550
116.81069,40.36376,1353,5550
116.80335,40.36024,1354,5550
116.78372,40.34657,1355,5550
116.78374,40.34654,1356,5550
116.78374,40.34654,1357,5550
116.78182,40.34978,1358,5550
116.78099,40.3573,1359,5550
116.77905,40.36211,1360,5550
116.78232,40.34698,1361,5550
116.78372,40.34658,1362,5550
116.78372,40.34658,1363,5550
116.79004,40.3538,1364,5550
116.7928,40.35569,1365,5550
116.78376,40.34653,1366,5550
116.78371,40.34655,1367,5550
116.78371,40.34655,1368,5550
116.80458,40.3607,1369,5550
116.81167,40.3641,1370,5550
116.82254,40.37294,1371,5550
116.80481,40.36086,1372,5550
116.80481,40.36086,1373,5550
116.79715,40.35724,1374,5550
116.78368,40.34656,1375,5550
116.78207,40.34877,1376,5550
116.80618,40.36149,1377,5550
116.8204,40.37009,1378,5550
116.82216,40.37317,1379,5550
116.79975,40.36372,1380,5550
116.79915,40.36375,1381,5550
116.77904,40.36214,1382,5550
116.77903,40.36207,1383,5550
116.7893,40.36348,1384,5550
116.80534,40.36593,1385,5550
116.82254,40.37307,1386,5550
