x,y,k,tid
116.44121,39.94402,0,5556
116.4412,39.94418,1,5556
116.44129,39.94408,2,5556
116.44135,39.94422,3,5556
116.44128,39.94413,4,5556
116.44132,39.94405,5,5556
116.44129,39.94422,6,5556
116.44129,39.94422,7,5556
116.44136,39.94417,8,5556
116.44129,39.94413,9,5556
116.44136,39.94414,10,5556
116.44137,39.94413,11,5556
116.44128,39.94405,12,5556
116.44129,39.94401,13,5556
116.44137,39.94405,14,5556
116.43674,39.9398,15,5556
116.42223,39.94838,16,5556
116.40855,39.94787,17,5556
116.38825,39.96946,18,5556
116.39494,39.98655,19,5556
116.39083,39.98493,20,5556
116.41054,39.9861,21,5556
116.40129,39.98158,22,5556
116.40103,39.97438,23,5556
116.39008,39.96739,24,5556
116.36459,39.96685,25,5556
116.35966,39.97634,26,5556
116.353,39.98028,27,5556
116.34773,39.9817,28,5556
116.33591,39.94659,29,5556
116.32781,39.95086,30,5556
116.31726,39.95575,31,5556
116.31616,39.96308,32,5556
116.31769,39.95089,33,5556
116.30601,39.94036,34,5556
116.28919,39.94625,35,5556
116.27026,39.94546,36,5556
116.25734,39.92326,37,5556
116.25734,39.92326,38,5556
116.24768,39.9245,39,5556
116.22391,39.92372,40,5556
116.21587,39.92371,41,5556
116.19217,39.92359,42,5556
116.18069,39.92349,43,5556
116.18042,39.91643,44,5556
116.18301,39.90959,45,5556
116.18052,39.91852,46,5556
116.18001,39.92634,47,5556
116.18751,39.92817,48,5556
116.18751,39.92817,49,5556
116.21084,39.93205,50,5556
116.21956,39.93162,51,5556
116.22297,39.93117,52,5556
116.21804,39.93183,53,5556
116.20806,39.93219,54,5556
116.1851,39.93071,55,5556
116.19325,39.946,56,5556
116.19422,39.9436,57,5556
116.20892,39.95236,58,5556
116.2376,39.94711,59,5556
116.24569,39.9459,60,5556
116.26594,39.94559,61,5556
116.26898,39.94549,62,5556
116.28376,39.9585,63,5556
116.2877,39.9582,64,5556
116.29814,39.95702,65,5556
116.29816,39.95705,66,5556
116.29815,39.95698,67,5556
116.30125,39.96546,68,5556
116.29505,39.97418,69,5556
116.27948,40.0005,70,5556
116.26122,40.00977,71,5556
116.25886,40.02538,72,5556
116.26071,40.01147,73,5556
116.26406,40.0053,74,5556
116.27984,40.00044,75,5556
116.29097,39.99105,76,5556
116.29264,39.98963,77,5556
116.30108,39.96632,78,5556
116.3039,39.94444,79,5556
116.30823,39.93931,80,5556
116.31939,39.93283,81,5556
116.31962,39.92502,82,5556
116.31958,39.92276,83,5556
116.31958,39.92276,84,5556
116.32843,39.91569,85,5556
116.3283,39.91292,86,5556
116.32918,39.90827,87,5556
116.35615,39.9059,88,5556
116.3733,39.90447,89,5556
116.37522,39.90327,90,5556
116.37093,39.89868,91,5556
116.361,39.89822,92,5556
116.361,39.89822,93,5556
116.36095,39.89835,94,5556
116.33689,39.89659,95,5556
116.33652,39.90158,96,5556
116.3311,39.90193,97,5556
116.32935,39.90429,98,5556
116.32917,39.90597,99,5556
116.32525,39.90634,100,5556
116.32137,39.90611,101,5556
116.31763,39.90625,102,5556
116.31447,39.90625,103,5556
116.3005,39.90639,104,5556
116.29974,39.90634,105,5556
116.29249,39.90642,106,5556
116.2899,39.90629,107,5556
116.28979,39.90624,108,5556
116.28893,39.90119,109,5556
116.28888,39.89593,110,5556
116.28893,39.89508,111,5556
116.28888,39.89045,112,5556
116.29115,39.88837,113,5556
116.28897,39.8895,114,5556
116.30498,39.89515,115,5556
116.30434,39.92003,116,5556
116.30436,39.9203,117,5556
116.29969,39.92294,118,5556
116.27942,39.92305,119,5556
116.27904,39.92305,120,5556
116.26796,39.90046,121,5556
116.26796,39.90046,122,5556
116.26301,39.8697,123,5556
116.24731,39.86282,124,5556
116.20463,39.83816,125,5556
116.19947,39.81175,126,5556
116.19202,39.80814,127,5556
116.19027,39.806,128,5556
116.18137,39.80681,129,5556
116.17574,39.80389,130,5556
116.15746,39.80896,131,5556
116.15711,39.80898,132,5556
116.15683,39.80917,133,5556
116.14682,39.80826,134,5556
116.14594,39.80815,135,5556
116.13792,39.79361,136,5556
116.09828,39.78969,137,5556
116.09067,39.78813,138,5556
116.07852,39.78719,139,5556
116.07982,39.76464,140,5556
116.0837,39.75497,141,5556
116.08331,39.74728,142,5556
116.08334,39.7473,143,5556
116.08334,39.7473,144,5556
116.08334,39.7473,145,5556
116.08334,39.7473,146,5556
116.08334,39.7473,147,5556
116.08245,39.74671,148,5556
116.06801,39.77587,149,5556
116.0664,39.77715,150,5556
116.06638,39.77715,151,5556
116.06641,39.77716,152,5556
116.06638,39.77715,153,5556
116.06639,39.77715,154,5556
116.07865,39.76785,155,5556
116.07865,39.76777,156,5556
116.07865,39.76773,157,5556
116.07868,39.76775,158,5556
116.07866,39.76774,159,5556
116.07866,39.76774,160,5556
116.07861,39.76778,161,5556
116.07863,39.76777,162,5556
116.07864,39.76777,163,5556
116.07864,39.76778,164,5556
116.07861,39.76775,165,5556
116.07864,39.76775,166,5556
116.07865,39.76777,167,5556
116.07866,39.76774,168,5556
116.07862,39.76779,169,5556
116.07866,39.76773,170,5556
116.07866,39.76777,171,5556
116.07867,39.76776,172,5556
116.07869,39.76772,173,5556
116.07867,39.76773,174,5556
116.07868,39.76773,175,5556
116.07869,39.76772,176,5556
116.08411,39.75722,177,5556
116.08331,39.7473,178,5556
116.08331,39.74727,179,5556
116.08331,39.74727,180,5556
116.08331,39.74727,181,5556
116.08331,39.74727,182,5556
116.08331,39.74727,183,5556
116.08331,39.74727,184,5556
116.08331,39.74727,185,5556
116.08331,39.74727,186,5556
116.08331,39.74727,187,5556
116.08331,39.74727,188,5556
116.08331,39.74727,189,5556
116.08331,39.74727,190,5556
116.08331,39.74727,191,5556
116.08331,39.74727,192,5556
116.08331,39.74727,193,5556
116.08331,39.74727,194,5556
116.08331,39.74727,195,5556
116.08331,39.74727,196,5556
116.08331,39.74727,197,5556
116.08331,39.74727,198,5556
116.08331,39.74727,199,5556
116.08331,39.74727,200,5556
116.08331,39.74727,201,5556
116.08327,39.74731,202,5556
116.08327,39.74731,203,5556
116.07908,39.73466,204,5556
116.07906,39.73465,205,5556
116.07906,39.73464,206,5556
116.08261,39.7374,207,5556
116.08328,39.74734,208,5556
116.09924,39.74365,209,5556
116.13201,39.74622,210,5556
116.19199,39.79069,211,5556
116.20655,39.82841,212,5556
116.21104,39.8426,213,5556
116.26914,39.88821,214,5556
116.3057,39.89479,215,5556
116.31359,39.89537,216,5556
116.31514,39.8975,217,5556
116.31039,39.90987,218,5556
116.31039,39.90987,219,5556
116.2935,39.91415,220,5556
116.2947,39.91519,221,5556
116.29456,39.91507,222,5556
116.29321,39.94468,223,5556
116.30306,39.94127,224,5556
116.34592,39.93871,225,5556
116.35494,39.94375,226,5556
116.38801,39.94754,227,5556
116.41025,39.94944,228,5556
116.41867,39.95274,229,5556
116.42381,39.95807,230,5556
116.44075,39.95622,231,5556
116.44051,39.95592,232,5556
116.42844,39.95626,233,5556
116.41333,39.96093,234,5556
116.41182,39.96732,235,5556
116.40686,39.96789,236,5556
116.32832,39.96157,237,5556
116.33238,39.97372,238,5556
116.33238,39.97372,239,5556
116.342,39.97489,240,5556
116.34121,39.97536,241,5556
116.33977,39.9753,242,5556
116.32816,39.97524,243,5556
116.28772,39.95705,244,5556
116.28235,39.95375,245,5556
116.28207,39.94621,246,5556
116.28167,39.92307,247,5556
116.26891,39.91966,248,5556
116.26599,39.90629,249,5556
116.26206,39.90261,250,5556
116.26764,39.8998,251,5556
116.26764,39.8998,252,5556
116.26916,39.88283,253,5556
116.27841,39.88797,254,5556
116.27831,39.88752,255,5556
116.27838,39.88751,256,5556
116.27838,39.88751,257,5556
116.27838,39.88751,258,5556
116.27838,39.88751,259,5556
116.27838,39.88751,260,5556
116.27838,39.88751,261,5556
116.27825,39.88509,262,5556
116.27825,39.88511,263,5556
116.27822,39.88511,264,5556
116.27823,39.88513,265,5556
116.27825,39.88509,266,5556
116.27825,39.88509,267,5556
116.27825,39.88508,268,5556
116.27826,39.8851,269,5556
116.27825,39.88513,270,5556
116.27823,39.88507,271,5556
116.27824,39.88518,272,5556
116.27822,39.88512,273,5556
116.27823,39.88509,274,5556
116.27826,39.88508,275,5556
116.27823,39.88513,276,5556
116.28475,39.8883,277,5556
116.3307,39.89596,278,5556
116.35048,39.90323,279,5556
116.35044,39.90947,280,5556
116.34956,39.93786,281,5556
116.35898,39.94519,282,5556
116.35268,39.94391,283,5556
116.35141,39.9447,284,5556
116.34462,39.95679,285,5556
116.34354,39.95758,286,5556
116.3428,39.95879,287,5556
116.34226,39.95876,288,5556
116.34194,39.95873,289,5556
116.34194,39.9588,290,5556
116.34165,39.95883,291,5556
116.34063,39.95937,292,5556
116.33997,39.96113,293,5556
116.34924,39.96652,294,5556
116.33353,39.96631,295,5556
116.32995,39.9663,296,5556
116.30611,39.96265,297,5556
116.29714,39.96093,298,5556
116.29676,39.96156,299,5556
116.29427,39.9626,300,5556
116.29441,39.96269,301,5556
116.29664,39.96169,302,5556
116.30064,39.96011,303,5556
116.30695,39.96252,304,5556
116.31963,39.96585,305,5556
116.31963,39.96585,306,5556
116.36342,39.96649,307,5556
116.40239,39.96748,308,5556
116.41409,39.96776,309,5556
116.4295,39.95988,310,5556
116.42606,39.95802,311,5556
116.42571,39.95832,312,5556
116.4172,39.9608,313,5556
116.41246,39.96067,314,5556
116.41248,39.96074,315,5556
116.41177,39.9669,316,5556
116.40709,39.96784,317,5556
116.40624,39.96779,318,5556
116.39579,39.96873,319,5556
116.39303,39.96751,320,5556
116.3919,39.96744,321,5556
116.38732,39.95248,322,5556
116.38732,39.95248,323,5556
116.38742,39.9478,324,5556
116.38742,39.9478,325,5556
116.38565,39.94776,326,5556
116.37326,39.94749,327,5556
116.36106,39.94584,328,5556
116.36069,39.94566,329,5556
116.34913,39.94018,330,5556
116.34413,39.93111,331,5556
116.34423,39.9311,332,5556
116.34001,39.93108,333,5556
116.3377,39.92892,334,5556
116.33762,39.92811,335,5556
116.33811,39.92288,336,5556
116.3354,39.9219,337,5556
116.33378,39.92198,338,5556
116.32068,39.92214,339,5556
116.30373,39.92254,340,5556
116.30391,39.92084,341,5556
116.30421,39.89471,342,5556
116.30349,39.86605,343,5556
116.30446,39.86536,344,5556
116.31652,39.86653,345,5556
116.3312,39.867,346,5556
116.33103,39.86754,347,5556
116.32062,39.87705,348,5556
116.32034,39.88565,349,5556
116.32032,39.88758,350,5556
116.32282,39.90135,351,5556
116.33091,39.90139,352,5556
116.33117,39.90134,353,5556
116.32505,39.90131,354,5556
116.32128,39.89877,355,5556
116.32058,39.89835,356,5556
116.30942,39.89594,357,5556
116.31515,39.90415,358,5556
116.3152,39.90563,359,5556
116.32022,39.91052,360,5556
116.31074,39.90987,361,5556
116.30414,39.92806,362,5556
116.28975,39.9462,363,5556
116.28836,39.94654,364,5556
116.29039,39.91909,365,5556
116.28906,39.90731,366,5556
116.28904,39.90725,367,5556
116.28893,39.89276,368,5556
116.28885,39.87753,369,5556
116.28888,39.87751,370,5556
116.28794,39.8624,371,5556
116.28361,39.85392,372,5556
116.28498,39.85398,373,5556
116.29968,39.88864,374,5556
116.31099,39.88405,375,5556
116.31099,39.88405,376,5556
116.31106,39.88382,377,5556
116.31106,39.88382,378,5556
116.31974,39.88313,379,5556
116.31887,39.87491,380,5556
116.3188,39.87489,381,5556
116.30495,39.88,382,5556
116.31225,39.89555,383,5556
116.31239,39.89554,384,5556
116.31344,39.89563,385,5556
116.31978,39.89222,386,5556
116.31976,39.89221,387,5556
116.30441,39.88645,388,5556
116.30414,39.92732,389,5556
116.30413,39.92778,390,5556
116.30015,39.96918,391,5556
116.29833,39.99555,392,5556
116.29833,39.99573,393,5556
116.30938,40.01753,394,5556
116.31404,40.03582,395,5556
116.31456,40.03562,396,5556
116.31724,40.04945,397,5556
116.31612,40.04278,398,5556
116.29741,40.03341,399,5556
116.26551,40.03105,400,5556
116.26497,40.03096,401,5556
116.25795,40.03723,402,5556
116.26102,40.01559,403,5556
116.25368,39.99658,404,5556
116.24539,39.98658,405,5556
116.26832,39.96659,406,5556
116.26783,39.93745,407,5556
116.26785,39.93691,408,5556
116.2677,39.90661,409,5556
116.26761,39.89913,410,5556
116.26761,39.89912,411,5556
116.27181,39.87289,412,5556
116.27181,39.87289,413,5556
116.27173,39.86724,414,5556
116.23531,39.85795,415,5556
116.20228,39.84236,416,5556
116.20228,39.84202,417,5556
116.19372,39.80928,418,5556
116.16688,39.77304,419,5556
116.16644,39.77252,420,5556
116.14828,39.74833,421,5556
116.13693,39.74637,422,5556
116.11059,39.74061,423,5556
116.08327,39.74703,424,5556
116.08322,39.74716,425,5556
116.08325,39.7473,426,5556
116.08331,39.74731,427,5556
116.08331,39.74731,428,5556
116.08331,39.74731,429,5556
116.08331,39.74731,430,5556
116.08331,39.74731,431,5556
116.08331,39.74731,432,5556
116.08331,39.74731,433,5556
116.08331,39.74731,434,5556
116.08331,39.74731,435,5556
116.08331,39.74731,436,5556
116.08331,39.74731,437,5556
116.08331,39.74731,438,5556
116.08331,39.74731,439,5556
116.08331,39.74731,440,5556
116.08331,39.74731,441,5556
116.08331,39.74731,442,5556
116.08331,39.74731,443,5556
116.08331,39.74731,444,5556
116.08331,39.74731,445,5556
116.08331,39.74731,446,5556
116.08331,39.74731,447,5556
116.08331,39.74731,448,5556
116.08331,39.74731,449,5556
116.08329,39.74729,450,5556
116.08329,39.74729,451,5556
116.08326,39.74728,452,5556
116.08327,39.74676,453,5556
116.09082,39.72634,454,5556
116.11837,39.73223,455,5556
116.11485,39.73408,456,5556
116.11485,39.73405,457,5556
116.11644,39.73277,458,5556
116.11939,39.73219,459,5556
116.12991,39.74612,460,5556
116.17545,39.78237,461,5556
116.19647,39.80344,462,5556
116.25691,39.86665,463,5556
116.28086,39.87688,464,5556
116.30431,39.88842,465,5556
116.31474,39.89498,466,5556
116.31614,39.89533,467,5556
116.31517,39.90135,468,5556
116.34705,39.91252,469,5556
116.34997,39.9256,470,5556
116.34944,39.95658,471,5556
116.35398,39.95658,472,5556
116.35398,39.95658,473,5556
116.34415,39.94288,474,5556
116.34237,39.94869,475,5556
116.33798,39.96025,476,5556
116.36473,39.95649,477,5556
116.36522,39.95043,478,5556
116.36565,39.94769,479,5556
116.40863,39.94783,480,5556
116.42712,39.94706,481,5556
116.42837,39.92054,482,5556
116.47116,39.90367,483,5556
116.47145,39.90231,484,5556
116.45869,39.89943,485,5556
116.45746,39.8994,486,5556
116.45593,39.9067,487,5556
116.4559,39.91181,488,5556
116.45568,39.91695,489,5556
116.44666,39.92074,490,5556
116.44666,39.92074,491,5556
116.45464,39.92204,492,5556
116.45573,39.92852,493,5556
116.44568,39.93247,494,5556
116.43299,39.93241,495,5556
116.42716,39.9326,496,5556
116.40193,39.9321,497,5556
116.38998,39.93377,498,5556
116.38671,39.93949,499,5556
116.3845,39.94103,500,5556
116.37401,39.94959,501,5556
116.365,39.95565,502,5556
116.36452,39.95995,503,5556
116.35299,39.96655,504,5556
116.34218,39.97486,505,5556
116.34046,39.9753,506,5556
116.34046,39.9753,507,5556
116.32838,39.98007,508,5556
116.31844,39.9848,509,5556
116.31852,39.98473,510,5556
116.31456,39.98407,511,5556
116.32761,39.97665,512,5556
116.32761,39.97665,513,5556
116.32746,39.97893,514,5556
116.33856,39.98501,515,5556
116.34222,39.97442,516,5556
116.34223,39.9741,517,5556
116.34062,39.96653,518,5556
116.32737,39.95621,519,5556
116.32204,39.95585,520,5556
116.31686,39.94737,521,5556
116.30333,39.94924,522,5556
116.30289,39.9449,523,5556
116.30282,39.94486,524,5556
116.30286,39.94491,525,5556
116.30286,39.94488,526,5556
116.30288,39.94487,527,5556
116.30292,39.94486,528,5556
116.30293,39.94489,529,5556
116.30294,39.94493,530,5556
116.30279,39.94489,531,5556
116.30299,39.9449,532,5556
116.30282,39.94487,533,5556
116.30285,39.94483,534,5556
116.30286,39.94485,535,5556
116.30286,39.94485,536,5556
116.30285,39.94488,537,5556
116.30286,39.94486,538,5556
116.30282,39.94482,539,5556
116.30288,39.94486,540,5556
116.30284,39.94483,541,5556
116.30291,39.94482,542,5556
116.30291,39.94482,543,5556
116.30286,39.94488,544,5556
116.3028,39.9449,545,5556
116.30285,39.94492,546,5556
116.30283,39.94493,547,5556
116.30283,39.94489,548,5556
116.30283,39.94489,549,5556
116.30289,39.94488,550,5556
116.30284,39.94489,551,5556
116.30293,39.94486,552,5556
116.30286,39.94493,553,5556
116.30291,39.94489,554,5556
116.30273,39.94489,555,5556
116.30289,39.94486,556,5556
116.30288,39.94484,557,5556
116.30287,39.9449,558,5556
116.30358,39.94448,559,5556
116.30023,39.94133,560,5556
116.30008,39.94089,561,5556
116.30016,39.94123,562,5556
116.29997,39.93499,563,5556
116.29859,39.93705,564,5556
116.31943,39.93619,565,5556
116.31393,39.93115,566,5556
116.3086,39.93114,567,5556
116.30068,39.92694,568,5556
116.31944,39.92687,569,5556
116.32324,39.92687,570,5556
116.32724,39.92717,571,5556
116.32844,39.91592,572,5556
116.32838,39.91233,573,5556
116.35828,39.90585,574,5556
116.38499,39.90611,575,5556
116.39049,39.90623,576,5556
116.4185,39.90682,577,5556
116.41487,39.90072,578,5556
116.41396,39.90029,579,5556
116.40544,39.90294,580,5556
116.40754,39.90919,581,5556
116.40126,39.91697,582,5556
116.38976,39.89939,583,5556
116.38976,39.89912,584,5556
116.38131,39.8882,585,5556
116.38131,39.8882,586,5556
116.37852,39.88739,587,5556
116.37851,39.88739,588,5556
116.3685,39.89512,589,5556
116.35592,39.89829,590,5556
116.35249,39.89893,591,5556
116.34217,39.89864,592,5556
116.31531,39.89661,593,5556
116.31533,39.89782,594,5556
116.31291,39.90981,595,5556
116.29473,39.91503,596,5556
116.29595,39.91229,597,5556
116.29474,39.91512,598,5556
116.29008,39.9172,599,5556
116.2901,39.91712,600,5556
116.28908,39.90959,601,5556
116.28904,39.90782,602,5556
116.28897,39.90707,603,5556
116.3039,39.90423,604,5556
116.30488,39.8797,605,5556
116.30626,39.86728,606,5556
116.30626,39.86728,607,5556
116.33966,39.84376,608,5556
116.33914,39.82406,609,5556
116.33765,39.82139,610,5556
116.33324,39.82179,611,5556
116.32126,39.81859,612,5556
116.31565,39.81764,613,5556
116.30774,39.7955,614,5556
116.28918,39.7776,615,5556
116.28918,39.7776,616,5556
116.28889,39.77746,617,5556
116.23972,39.76849,618,5556
116.20912,39.76297,619,5556
116.19715,39.76269,620,5556
116.15533,39.75907,621,5556
116.14842,39.74874,622,5556
116.14845,39.74881,623,5556
116.1445,39.7399,624,5556
116.13639,39.73464,625,5556
116.13288,39.73469,626,5556
116.13561,39.74133,627,5556
116.13519,39.73158,628,5556
116.13518,39.73164,629,5556
116.13573,39.73137,630,5556
116.12979,39.73624,631,5556
116.12983,39.73747,632,5556
116.12117,39.74489,633,5556
116.0808,39.76928,634,5556
116.07969,39.76866,635,5556
116.0769,39.77491,636,5556
116.07685,39.77498,637,5556
116.07685,39.77498,638,5556
116.08294,39.75089,639,5556
116.0833,39.74732,640,5556
116.08329,39.7473,641,5556
116.08329,39.7473,642,5556
116.08329,39.7473,643,5556
116.08329,39.7473,644,5556
116.08329,39.7473,645,5556
116.08329,39.7473,646,5556
116.08329,39.7473,647,5556
116.08329,39.7473,648,5556
116.08329,39.7473,649,5556
116.08329,39.7473,650,5556
116.08329,39.7473,651,5556
116.08329,39.7473,652,5556
116.08329,39.7473,653,5556
116.08329,39.7473,654,5556
116.08329,39.7473,655,5556
116.08329,39.7473,656,5556
116.08329,39.7473,657,5556
116.08329,39.7473,658,5556
116.08329,39.7473,659,5556
116.08679,39.74085,660,5556
116.07907,39.73463,661,5556
116.07907,39.73464,662,5556
116.078,39.73761,663,5556
116.07799,39.7376,664,5556
116.08378,39.74108,665,5556
116.08854,39.74403,666,5556
116.12033,39.74096,667,5556
116.136,39.7504,668,5556
116.13627,39.75211,669,5556
116.13626,39.75212,670,5556
116.18279,39.78371,671,5556
116.19614,39.80209,672,5556
116.20478,39.83799,673,5556
116.2484,39.86316,674,5556
116.26915,39.86398,675,5556
116.31157,39.86641,676,5556
116.35247,39.86701,677,5556
116.37344,39.86922,678,5556
116.40996,39.87033,679,5556
116.43835,39.89,680,5556
116.43835,39.89,681,5556
116.43081,39.89901,682,5556
116.45834,39.90319,683,5556
116.51485,39.90673,684,5556
116.53558,39.90715,685,5556
116.56038,39.90803,686,5556
116.57399,39.91311,687,5556
116.62025,39.9128,688,5556
116.62381,39.91097,689,5556
116.62356,39.91061,690,5556
116.60571,39.91198,691,5556
116.5939,39.91027,692,5556
116.5718,39.9095,693,5556
116.52437,39.90858,694,5556
116.47351,39.90712,695,5556
116.46996,39.91228,696,5556
116.4607,39.91215,697,5556
116.4607,39.91215,698,5556
116.46224,39.91222,699,5556
116.47172,39.91156,700,5556
116.47142,39.90634,701,5556
116.48319,39.89179,702,5556
116.48732,39.89178,703,5556
116.50853,39.8918,704,5556
116.50853,39.8918,705,5556
116.48376,39.8993,706,5556
116.48,39.89935,707,5556
116.47997,39.89932,708,5556
116.48019,39.89843,709,5556
116.47996,39.89859,710,5556
116.48012,39.89837,711,5556
116.47599,39.89931,712,5556
116.47169,39.9025,713,5556
116.47088,39.9072,714,5556
116.45564,39.93427,715,5556
116.45571,39.94703,716,5556
116.45363,39.95335,717,5556
116.45363,39.95335,718,5556
116.44203,39.9549,719,5556
116.43742,39.95374,720,5556
116.42934,39.95201,721,5556
116.41894,39.95913,722,5556
116.41871,39.9659,723,5556
116.41279,39.96806,724,5556
116.41238,39.9845,725,5556
116.41152,39.98207,726,5556
116.40144,39.98734,727,5556
116.38142,39.98932,728,5556
116.3811,39.9912,729,5556
116.38132,39.98567,730,5556
116.38935,39.97542,731,5556
116.39548,39.9737,732,5556
116.39581,39.96968,733,5556
116.35481,39.96639,734,5556
116.33352,39.96629,735,5556
116.3023,39.95875,736,5556
116.30408,39.92004,737,5556
116.3041,39.91725,738,5556
116.30414,39.91105,739,5556
116.30419,39.90097,740,5556
116.30403,39.88897,741,5556
116.30403,39.88897,742,5556
116.30107,39.88054,743,5556
116.29665,39.88315,744,5556
116.29311,39.88524,745,5556
116.28974,39.88834,746,5556
116.27859,39.8875,747,5556
116.27786,39.88539,748,5556
116.27784,39.88538,749,5556
116.27778,39.88552,750,5556
116.27783,39.8854,751,5556
116.27787,39.88551,752,5556
116.27783,39.88554,753,5556
116.27786,39.88546,754,5556
116.27784,39.88543,755,5556
116.2778,39.88538,756,5556
116.27782,39.8854,757,5556
116.27785,39.88544,758,5556
116.27782,39.88538,759,5556
116.27782,39.88544,760,5556
116.27783,39.88542,761,5556
116.27785,39.88544,762,5556
116.27786,39.88541,763,5556
116.27787,39.88545,764,5556
116.27788,39.88541,765,5556
116.27787,39.8854,766,5556
116.27785,39.88544,767,5556
116.27789,39.88546,768,5556
116.27789,39.88546,769,5556
116.27785,39.88537,770,5556
116.27782,39.88538,771,5556
116.27785,39.88548,772,5556
116.27782,39.8854,773,5556
116.27786,39.88545,774,5556
116.27786,39.88545,775,5556
116.27784,39.88544,776,5556
116.27783,39.88536,777,5556
116.28907,39.8907,778,5556
116.29015,39.89556,779,5556
116.31316,39.89552,780,5556
116.31617,39.89536,781,5556
116.31649,39.89494,782,5556
116.31618,39.89499,783,5556
116.3161,39.89559,784,5556
116.3161,39.89559,785,5556
116.33147,39.89603,786,5556
116.35045,39.90461,787,5556
116.35051,39.90924,788,5556
116.35042,39.92237,789,5556
116.34843,39.92672,790,5556
116.34975,39.92366,791,5556
116.35368,39.91434,792,5556
116.34772,39.91253,793,5556
116.34628,39.91253,794,5556
116.32852,39.91269,795,5556
116.31345,39.90625,796,5556
116.30747,39.90639,797,5556
116.3012,39.90649,798,5556
116.29076,39.90619,799,5556
116.28386,39.90626,800,5556
116.25958,39.90624,801,5556
116.2587,39.91504,802,5556
116.25747,39.9164,803,5556
116.25689,39.92268,804,5556
116.27745,39.91835,805,5556
116.28199,39.91816,806,5556
116.28921,39.90827,807,5556
116.28902,39.9076,808,5556
116.28905,39.90507,809,5556
116.29783,39.89556,810,5556
116.30187,39.89476,811,5556
116.33585,39.89629,812,5556
116.3721,39.89843,813,5556
116.37489,39.89853,814,5556
116.37772,39.89878,815,5556
116.39758,39.89923,816,5556
116.40272,39.89938,817,5556
116.41809,39.89917,818,5556
116.41809,39.89917,819,5556
116.44662,39.89218,820,5556
116.45289,39.89198,821,5556
116.45472,39.892,822,5556
116.46164,39.89191,823,5556
116.46292,39.89193,824,5556
116.47123,39.89165,825,5556
116.471,39.87668,826,5556
116.46227,39.87491,827,5556
116.43951,39.87567,828,5556
116.43918,39.88317,829,5556
116.42626,39.89229,830,5556
116.41239,39.8992,831,5556
116.41238,39.89925,832,5556
116.40544,39.90005,833,5556
116.39312,39.90474,834,5556
116.39308,39.90549,835,5556
116.37858,39.90587,836,5556
116.34745,39.9059,837,5556
116.34265,39.9059,838,5556
116.32963,39.90631,839,5556
116.32297,39.90136,840,5556
116.3231,39.90123,841,5556
116.315,39.89608,842,5556
116.30751,39.89549,843,5556
116.31591,39.89199,844,5556
116.31493,39.89067,845,5556
116.28963,39.87865,846,5556
116.26839,39.89854,847,5556
116.26835,39.89856,848,5556
116.26631,39.89646,849,5556
116.26819,39.87239,850,5556
116.26106,39.86879,851,5556
116.22687,39.84882,852,5556
116.2027,39.84119,853,5556
116.20343,39.8342,854,5556
116.19339,39.80917,855,5556
116.18034,39.78667,856,5556
116.1734,39.78046,857,5556
116.15369,39.75666,858,5556
116.1484,39.74849,859,5556
116.14801,39.74854,860,5556
116.143,39.74637,861,5556
116.12018,39.7409,862,5556
116.10789,39.74079,863,5556
116.08631,39.74551,864,5556
116.0833,39.74736,865,5556
116.08319,39.74637,866,5556
116.07841,39.73959,867,5556
116.08572,39.74063,868,5556
116.08335,39.74693,869,5556
116.08328,39.74734,870,5556
116.08338,39.74731,871,5556
116.08338,39.74731,872,5556
116.08338,39.74731,873,5556
116.08338,39.74731,874,5556
116.08338,39.74731,875,5556
116.08338,39.74731,876,5556
116.08338,39.74731,877,5556
116.08338,39.74731,878,5556
116.08338,39.74731,879,5556
116.08338,39.74731,880,5556
116.08338,39.74731,881,5556
116.08338,39.74731,882,5556
116.08338,39.74731,883,5556
116.08338,39.74731,884,5556
116.08338,39.74731,885,5556
116.08338,39.74731,886,5556
116.08338,39.74731,887,5556
116.08338,39.74731,888,5556
116.08338,39.74731,889,5556
116.08338,39.74731,890,5556
116.08338,39.74731,891,5556
116.08338,39.74731,892,5556
116.08327,39.74731,893,5556
116.08329,39.74732,894,5556
116.08329,39.74732,895,5556
116.0833,39.74733,896,5556
116.08331,39.74732,897,5556
116.08332,39.74731,898,5556
116.08331,39.74731,899,5556
116.08326,39.74731,900,5556
116.08326,39.7473,901,5556
116.08328,39.74731,902,5556
116.08328,39.74731,903,5556
116.08328,39.74731,904,5556
116.11975,39.74061,905,5556
116.12066,39.74123,906,5556
116.13628,39.75259,907,5556
116.19256,39.79205,908,5556
116.19354,39.7943,909,5556
116.21813,39.844,910,5556
116.25542,39.86139,911,5556
116.25652,39.86193,912,5556
116.27242,39.87149,913,5556
116.27242,39.87149,914,5556
116.27114,39.88822,915,5556
116.27114,39.88822,916,5556
116.27233,39.88832,917,5556
116.29676,39.8956,918,5556
116.31515,39.90218,919,5556
116.31516,39.90347,920,5556
116.35442,39.90587,921,5556
116.36183,39.89841,922,5556
116.36075,39.89839,923,5556
116.35893,39.90813,924,5556
116.36804,39.89909,925,5556
116.36804,39.89885,926,5556
116.37843,39.88846,927,5556
116.37901,39.88837,928,5556
116.37901,39.88836,929,5556
116.36387,39.89833,930,5556
116.35056,39.91189,931,5556
116.371,39.94747,932,5556
116.42915,39.9481,933,5556
116.43125,39.94813,934,5556
116.48299,39.98772,935,5556
116.54853,40.02752,936,5556
116.55128,40.02837,937,5556
116.58222,40.06861,938,5556
116.58038,40.07649,939,5556
116.56296,40.06706,940,5556
116.56545,40.07119,941,5556
116.56545,40.07119,942,5556
116.56545,40.07121,943,5556
116.56545,40.0712,944,5556
116.56542,40.07118,945,5556
116.56547,40.07118,946,5556
116.56545,40.07118,947,5556
116.56547,40.07116,948,5556
116.56545,40.07118,949,5556
116.56545,40.07115,950,5556
116.56546,40.07116,951,5556
116.56545,40.07117,952,5556
116.56544,40.07116,953,5556
116.56544,40.07119,954,5556
116.56544,40.07119,955,5556
116.56537,40.07118,956,5556
116.56548,40.07113,957,5556
116.56544,40.07116,958,5556
116.56545,40.07119,959,5556
116.56545,40.07117,960,5556
116.56546,40.07118,961,5556
116.56548,40.07113,962,5556
116.56543,40.07116,963,5556
116.56546,40.07116,964,5556
116.56544,40.07116,965,5556
116.56546,40.07118,966,5556
116.56546,40.07119,967,5556
116.56417,40.07083,968,5556
116.56418,40.07086,969,5556
116.56417,40.07086,970,5556
116.56416,40.07085,971,5556
116.56415,40.07081,972,5556
116.56417,40.07078,973,5556
116.56419,40.07072,974,5556
116.56414,40.07083,975,5556
116.56418,40.07084,976,5556
116.56417,40.07083,977,5556
116.56417,40.07085,978,5556
116.56424,40.07092,979,5556
116.56415,40.07083,980,5556
116.5642,40.07088,981,5556
116.56421,40.0709,982,5556
116.56418,40.07089,983,5556
116.56418,40.07089,984,5556
116.58264,40.06147,985,5556
116.58272,40.06146,986,5556
116.58218,40.0653,987,5556
116.58213,40.06552,988,5556
116.58212,40.0657,989,5556
116.58212,40.0657,990,5556
116.58192,40.06694,991,5556
116.58193,40.06692,992,5556
116.58171,40.06816,993,5556
116.58171,40.06817,994,5556
116.58167,40.0682,995,5556
116.58123,40.07119,996,5556
116.58126,40.07115,997,5556
116.58122,40.07118,998,5556
116.58114,40.07162,999,5556
116.58049,40.07579,1000,5556
116.58187,40.07586,1001,5556
116.58558,40.0767,1002,5556
116.58724,40.07866,1003,5556
116.58726,40.07874,1004,5556
116.58241,40.06701,1005,5556
116.5322,40.02196,1006,5556
116.51821,40.01701,1007,5556
116.46472,39.97132,1008,5556
116.45549,39.93039,1009,5556
116.45538,39.921,1010,5556
116.44587,39.91188,1011,5556
116.42213,39.90723,1012,5556
116.42063,39.91157,1013,5556
116.40631,39.91386,1014,5556
116.38973,39.89932,1015,5556
116.36892,39.89841,1016,5556
116.38365,39.88777,1017,5556
116.3785,39.88692,1018,5556
116.36929,39.88794,1019,5556
116.36732,39.88795,1020,5556
116.32971,39.88858,1021,5556
116.30536,39.88414,1022,5556
116.30206,39.88273,1023,5556
116.3021,39.88275,1024,5556
116.24475,39.86178,1025,5556
116.24475,39.86178,1026,5556
116.2275,39.84895,1027,5556
116.206,39.83163,1028,5556
116.18374,39.78403,1029,5556
116.15503,39.77117,1030,5556
116.13575,39.74807,1031,5556
116.11766,39.74717,1032,5556
116.11229,39.75316,1033,5556
116.08968,39.75659,1034,5556
116.08328,39.74731,1035,5556
116.08688,39.73842,1036,5556
116.0791,39.73462,1037,5556
116.07912,39.73463,1038,5556
116.08683,39.74039,1039,5556
116.08693,39.74294,1040,5556
116.08465,39.74086,1041,5556
116.07923,39.73461,1042,5556
116.07923,39.73461,1043,5556
116.07926,39.73462,1044,5556
116.07926,39.73462,1045,5556
116.07926,39.73462,1046,5556
116.07926,39.73462,1047,5556
116.07926,39.73462,1048,5556
116.07912,39.73262,1049,5556
116.10786,39.72474,1050,5556
116.11618,39.72955,1051,5556
116.129,39.73748,1052,5556
116.1544,39.75734,1053,5556
116.16981,39.77547,1054,5556
116.18169,39.78753,1055,5556
116.20168,39.81391,1056,5556
116.20337,39.83017,1057,5556
116.20622,39.8431,1058,5556
116.23218,39.85283,1059,5556
116.2533,39.84882,1060,5556
116.26933,39.8702,1061,5556
116.27307,39.87361,1062,5556
116.29891,39.88087,1063,5556
116.33114,39.89596,1064,5556
116.33629,39.89718,1065,5556
116.33923,39.91265,1066,5556
116.33923,39.91265,1067,5556
116.34475,39.91709,1068,5556
116.34975,39.91704,1069,5556
116.37029,39.9058,1070,5556
116.39129,39.90618,1071,5556
116.40482,39.90665,1072,5556
116.42095,39.90342,1073,5556
116.42872,39.90373,1074,5556
116.43682,39.89478,1075,5556
116.40859,39.8916,1076,5556
116.39272,39.89012,1077,5556
116.37929,39.88819,1078,5556
116.3578,39.88797,1079,5556
116.34265,39.89166,1080,5556
116.34989,39.94209,1081,5556
116.34873,39.96726,1082,5556
116.34293,39.96839,1083,5556
116.33301,39.96689,1084,5556
116.34748,39.95865,1085,5556
116.35006,39.94284,1086,5556
116.35025,39.91758,1087,5556
116.35044,39.91015,1088,5556
116.39696,39.90637,1089,5556
116.40998,39.90121,1090,5556
116.39394,39.90156,1091,5556
116.38403,39.90607,1092,5556
116.37597,39.90587,1093,5556
116.33098,39.90636,1094,5556
116.31133,39.90631,1095,5556
116.29605,39.90661,1096,5556
116.2903,39.91919,1097,5556
116.28909,39.91202,1098,5556
116.28902,39.90555,1099,5556
116.27226,39.89408,1100,5556
116.2774,39.895,1101,5556
116.2774,39.895,1102,5556
116.28145,39.88841,1103,5556
116.27845,39.88749,1104,5556
116.2783,39.88751,1105,5556
116.2783,39.88751,1106,5556
116.27834,39.88742,1107,5556
116.27834,39.88742,1108,5556
116.27834,39.88742,1109,5556
116.27787,39.88536,1110,5556
116.27787,39.88535,1111,5556
116.27792,39.88537,1112,5556
116.27789,39.88535,1113,5556
116.27791,39.88539,1114,5556
116.27789,39.88537,1115,5556
116.27788,39.88539,1116,5556
116.27795,39.88543,1117,5556
116.27793,39.88537,1118,5556
116.27789,39.88537,1119,5556
116.2779,39.88536,1120,5556
116.27795,39.88548,1121,5556
116.27787,39.88545,1122,5556
116.27789,39.8853,1123,5556
116.27791,39.88542,1124,5556
116.29929,39.89554,1125,5556
116.32285,39.8951,1126,5556
116.30953,39.88582,1127,5556
116.30611,39.86828,1128,5556
116.31754,39.84969,1129,5556
116.33677,39.82689,1130,5556
116.32988,39.81906,1131,5556
116.32996,39.82102,1132,5556
116.33208,39.82974,1133,5556
116.30737,39.82952,1134,5556
116.29467,39.82958,1135,5556
116.28311,39.83151,1136,5556
116.28649,39.83383,1137,5556
116.27698,39.85725,1138,5556
116.27776,39.8644,1139,5556
116.23247,39.85567,1140,5556
116.20475,39.84292,1141,5556
116.19893,39.84044,1142,5556
116.19893,39.84044,1143,5556
116.19193,39.83071,1144,5556
116.18601,39.83212,1145,5556
116.18406,39.83105,1146,5556
116.18421,39.83129,1147,5556
116.18416,39.83107,1148,5556
116.18388,39.83072,1149,5556
116.18914,39.83355,1150,5556
116.18914,39.83355,1151,5556
116.2166,39.84449,1152,5556
116.21833,39.84473,1153,5556
116.24207,39.85594,1154,5556
116.24884,39.85831,1155,5556
116.25193,39.85963,1156,5556
116.27021,39.87294,1157,5556
116.30038,39.89571,1158,5556
116.30825,39.89562,1159,5556
116.32279,39.89549,1160,5556
116.32024,39.88317,1161,5556
116.32541,39.8833,1162,5556
116.33545,39.88117,1163,5556
116.32043,39.88076,1164,5556
116.32047,39.88259,1165,5556
116.3108,39.88624,1166,5556
116.29444,39.88539,1167,5556
116.29647,39.88525,1168,5556
116.28906,39.89412,1169,5556
116.30386,39.89121,1170,5556
116.30391,39.89122,1171,5556
116.29193,39.87911,1172,5556
116.27658,39.85838,1173,5556
116.2766,39.85575,1174,5556
116.27965,39.83977,1175,5556
116.27809,39.84719,1176,5556
116.27562,39.84505,1177,5556
116.27958,39.84028,1178,5556
116.27827,39.84712,1179,5556
116.2773,39.84551,1180,5556
116.2616,39.84729,1181,5556
116.24847,39.85849,1182,5556
116.24367,39.85663,1183,5556
116.22548,39.84811,1184,5556
116.20289,39.83978,1185,5556
116.20355,39.83298,1186,5556
116.1928,39.8088,1187,5556
116.17648,39.78337,1188,5556
116.17648,39.78337,1189,5556
116.1705,39.77741,1190,5556
116.15358,39.75668,1191,5556
116.14304,39.74627,1192,5556
116.13637,39.74214,1193,5556
116.11948,39.7321,1194,5556
116.08747,39.73249,1195,5556
116.08306,39.73298,1196,5556
116.07949,39.73487,1197,5556
116.07949,39.73487,1198,5556
116.07949,39.73487,1199,5556
116.07949,39.73487,1200,5556
116.07949,39.73487,1201,5556
116.07949,39.73487,1202,5556
116.07949,39.73487,1203,5556
116.07949,39.73487,1204,5556
116.07949,39.73487,1205,5556
116.07949,39.73487,1206,5556
116.07949,39.73487,1207,5556
116.07949,39.73487,1208,5556
116.07949,39.73487,1209,5556
116.07949,39.73487,1210,5556
116.07949,39.73487,1211,5556
116.07949,39.73487,1212,5556
116.07949,39.73487,1213,5556
116.07949,39.73487,1214,5556
116.07949,39.73487,1215,5556
116.07949,39.73487,1216,5556
116.07949,39.73487,1217,5556
116.07949,39.73487,1218,5556
116.07949,39.73487,1219,5556
116.07949,39.73487,1220,5556
116.07941,39.73486,1221,5556
116.07944,39.7347,1222,5556
116.07907,39.73464,1223,5556
116.07904,39.73468,1224,5556
116.07904,39.73468,1225,5556
116.07904,39.73462,1226,5556
116.0833,39.74729,1227,5556
116.08659,39.72614,1228,5556
116.06657,39.72216,1229,5556
116.01145,39.72248,1230,5556
115.98049,39.72422,1231,5556
115.97868,39.7171,1232,5556
115.97833,39.7025,1233,5556
115.99823,39.70001,1234,5556
116.01228,39.70472,1235,5556
116.06978,39.71501,1236,5556
116.08879,39.72254,1237,5556
116.08795,39.7296,1238,5556
116.08328,39.74678,1239,5556
116.08328,39.74679,1240,5556
116.08326,39.74677,1241,5556
116.10844,39.74062,1242,5556
116.12847,39.74196,1243,5556
116.13323,39.74628,1244,5556
116.16037,39.77621,1245,5556
116.20127,39.81249,1246,5556
116.20732,39.82325,1247,5556
116.20554,39.84032,1248,5556
116.23032,39.85028,1249,5556
116.23951,39.85963,1250,5556
116.30309,39.8659,1251,5556
116.33487,39.86674,1252,5556
116.3483,39.86687,1253,5556
116.34991,39.86832,1254,5556
116.34991,39.86832,1255,5556
116.34287,39.87575,1256,5556
116.34258,39.87101,1257,5556
116.30134,39.86587,1258,5556
116.28382,39.82406,1259,5556
116.28451,39.81308,1260,5556
116.2941,39.81306,1261,5556
116.2839,39.82446,1262,5556
116.28118,39.83577,1263,5556
116.27999,39.84074,1264,5556
116.27119,39.87779,1265,5556
116.29025,39.87868,1266,5556
116.3056,39.88395,1267,5556
116.31504,39.88342,1268,5556
116.32054,39.87973,1269,5556
116.32341,39.87581,1270,5556
116.33012,39.86827,1271,5556
116.3297,39.86757,1272,5556
116.33756,39.86666,1273,5556
116.3393,39.82726,1274,5556
116.35179,39.81722,1275,5556
116.35888,39.81299,1276,5556
116.38535,39.80176,1277,5556
116.39646,39.80255,1278,5556
116.39641,39.80253,1279,5556
116.39626,39.81215,1280,5556
116.395,39.83509,1281,5556
116.39092,39.83906,1282,5556
116.38038,39.84513,1283,5556
116.38059,39.85936,1284,5556
116.38079,39.8601,1285,5556
116.38085,39.86026,1286,5556
116.39182,39.8702,1287,5556
116.40369,39.87174,1288,5556
116.39673,39.87154,1289,5556
116.38702,39.88204,1290,5556
116.37023,39.88807,1291,5556
116.36935,39.88807,1292,5556
116.36935,39.88807,1293,5556
116.35271,39.88817,1294,5556
116.31562,39.88808,1295,5556
116.31055,39.88617,1296,5556
116.25989,39.86815,1297,5556
116.20573,39.84101,1298,5556
116.20573,39.84101,1299,5556
116.20499,39.83679,1300,5556
116.19197,39.79123,1301,5556
116.13829,39.75571,1302,5556
116.13578,39.75011,1303,5556
116.10952,39.75524,1304,5556
116.08299,39.74655,1305,5556
116.08329,39.74729,1306,5556
116.08331,39.74728,1307,5556
116.08335,39.74727,1308,5556
116.08335,39.74727,1309,5556
116.08335,39.74727,1310,5556
116.08335,39.74727,1311,5556
116.08335,39.74727,1312,5556
116.08335,39.74727,1313,5556
116.08335,39.74727,1314,5556
116.08335,39.74727,1315,5556
116.08335,39.74727,1316,5556
116.08335,39.74727,1317,5556
116.08335,39.74727,1318,5556
116.08335,39.74727,1319,5556
116.08335,39.74727,1320,5556
116.08335,39.74727,1321,5556
116.08335,39.74727,1322,5556
116.08335,39.74727,1323,5556
116.08335,39.74727,1324,5556
116.08335,39.74727,1325,5556
116.08335,39.74727,1326,5556
116.08692,39.74259,1327,5556
116.08748,39.73201,1328,5556
116.08754,39.732,1329,5556
116.08754,39.732,1330,5556
116.09121,39.72411,1331,5556
