x,y,k,tid
116.37719,39.9585,0,5576
116.37719,39.9585,1,5576
116.37718,39.95851,2,5576
116.37718,39.95851,3,5576
116.37718,39.95851,4,5576
116.37304,39.95085,5,5576
116.65606,39.6643,6,5576
116.65606,39.6643,7,5576
116.65606,39.6643,8,5576
116.65606,39.6643,9,5576
116.65606,39.6643,10,5576
116.65606,39.6643,11,5576
116.65606,39.6643,12,5576
116.65606,39.6643,13,5576
116.65606,39.6643,14,5576
116.65606,39.6643,15,5576
116.65606,39.6643,16,5576
116.65606,39.6643,17,5576
116.65606,39.6643,18,5576
116.65606,39.6643,19,5576
116.65606,39.6643,20,5576
116.65606,39.6643,21,5576
116.65606,39.6643,22,5576
116.65606,39.6643,23,5576
116.65606,39.6643,24,5576
116.65606,39.6643,25,5576
116.65606,39.6643,26,5576
116.65606,39.6643,27,5576
116.65606,39.6643,28,5576
116.65605,39.66433,29,5576
116.65605,39.66433,30,5576
116.65613,39.6642,31,5576
116.65686,39.6651,32,5576
116.61815,39.66452,33,5576
116.61173,39.66541,34,5576
116.3774,39.95846,35,5576
116.3774,39.95846,36,5576
116.37363,39.95661,37,5576
116.37363,39.95661,38,5576
116.38467,39.9475,39,5576
116.38928,39.94754,40,5576
116.42788,39.93147,41,5576
116.42809,39.92761,42,5576
116.43826,39.88952,43,5576
116.43868,39.8862,44,5576
116.45495,39.87759,45,5576
116.45487,39.87399,46,5576
