x,y,k,tid
7.0,0.0,0,5791
7.0,0.0,1,5791
7.0,0.0,2,5791
7.0,0.0,3,5791
7.0,0.0,4,5791
7.0,0.0,5,5791
7.0,0.0,6,5791
7.0,0.0,7,5791
7.0,0.0,8,5791
7.0,0.0,9,5791
7.0,0.0,10,5791
7.0,0.0,11,5791
7.0,0.0,12,5791
7.0,0.0,13,5791
7.0,0.0,14,5791
7.0,0.0,15,5791
7.0,0.0,16,5791
7.0,0.0,17,5791
7.0,0.0,18,5791
7.0,0.0,19,5791
7.0,0.0,20,5791
7.0,0.0,21,5791
7.0,0.0,22,5791
7.0,0.0,23,5791
7.0,0.0,24,5791
7.0,0.0,25,5791
7.0,0.0,26,5791
7.0,0.0,27,5791
7.0,0.0,28,5791
7.0,0.0,29,5791
7.0,0.0,30,5791
7.0,0.0,31,5791
7.0,0.0,32,5791
7.0,0.0,33,5791
7.0,0.0,34,5791
7.0,0.0,35,5791
7.0,0.0,36,5791
7.0,0.0,37,5791
7.0,0.0,38,5791
7.0,0.0,39,5791
7.0,0.0,40,5791
7.0,0.0,41,5791
7.0,0.0,42,5791
7.0,0.0,43,5791
7.0,0.0,44,5791
7.0,0.0,45,5791
7.0,0.0,46,5791
7.0,0.0,47,5791
7.0,0.0,48,5791
7.0,0.0,49,5791
7.0,0.0,50,5791
7.0,0.0,51,5791
7.0,0.0,52,5791
7.0,0.0,53,5791
7.0,0.0,54,5791
7.0,0.0,55,5791
7.0,0.0,56,5791
7.0,0.0,57,5791
7.0,0.0,58,5791
7.0,0.0,59,5791
7.0,0.0,60,5791
7.0,0.0,61,5791
7.0,0.0,62,5791
7.0,0.0,63,5791
7.0,0.0,64,5791
7.0,0.0,65,5791
7.0,0.0,66,5791
7.0,0.0,67,5791
7.0,0.0,68,5791
7.0,0.0,69,5791
7.0,0.0,70,5791
7.0,0.0,71,5791
7.0,0.0,72,5791
7.0,0.0,73,5791
7.0,0.0,74,5791
7.0,0.0,75,5791
7.0,0.0,76,5791
7.0,0.0,77,5791
7.0,0.0,78,5791
7.0,0.0,79,5791
7.0,0.0,80,5791
7.0,0.0,81,5791
7.0,0.0,82,5791
7.0,0.0,83,5791
7.0,0.0,84,5791
7.0,0.0,85,5791
7.0,0.0,86,5791
7.0,0.0,87,5791
7.0,0.0,88,5791
7.0,0.0,89,5791
7.0,0.0,90,5791
7.0,0.0,91,5791
7.0,0.0,92,5791
7.0,0.0,93,5791
7.0,0.0,94,5791
7.0,0.0,95,5791
7.0,0.0,96,5791
7.0,0.0,97,5791
7.0,0.0,98,5791
7.0,0.0,99,5791
7.0,0.0,100,5791
7.0,0.0,101,5791
7.0,0.0,102,5791
7.0,0.0,103,5791
7.0,0.0,104,5791
7.0,0.0,105,5791
7.0,0.0,106,5791
7.0,0.0,107,5791
7.0,0.0,108,5791
7.0,0.0,109,5791
7.0,0.0,110,5791
7.0,0.0,111,5791
7.0,0.0,112,5791
7.0,0.0,113,5791
7.0,0.0,114,5791
7.0,0.0,115,5791
7.0,0.0,116,5791
7.0,0.0,117,5791
7.0,0.0,118,5791
7.0,0.0,119,5791
7.0,0.0,120,5791
7.0,0.0,121,5791
7.0,0.0,122,5791
7.0,0.0,123,5791
7.0,0.0,124,5791
7.0,0.0,125,5791
7.0,0.0,126,5791
7.0,0.0,127,5791
7.0,0.0,128,5791
7.0,0.0,129,5791
7.0,0.0,130,5791
7.0,0.0,131,5791
7.0,0.0,132,5791
7.0,0.0,133,5791
7.0,0.0,134,5791
7.0,0.0,135,5791
7.0,0.0,136,5791
7.0,0.0,137,5791
7.0,0.0,138,5791
7.0,0.0,139,5791
7.0,0.0,140,5791
7.0,0.0,141,5791
7.0,0.0,142,5791
7.0,0.0,143,5791
7.0,0.0,144,5791
7.0,0.0,145,5791
7.0,0.0,146,5791
7.0,0.0,147,5791
7.0,0.0,148,5791
7.0,0.0,149,5791
7.0,0.0,150,5791
7.0,0.0,151,5791
7.0,0.0,152,5791
7.0,0.0,153,5791
7.0,0.0,154,5791
7.0,0.0,155,5791
7.0,0.0,156,5791
7.0,0.0,157,5791
7.0,0.0,158,5791
7.0,0.0,159,5791
7.0,0.0,160,5791
7.0,0.0,161,5791
7.0,0.0,162,5791
7.0,0.0,163,5791
7.0,0.0,164,5791
7.0,0.0,165,5791
7.0,0.0,166,5791
7.0,0.0,167,5791
7.0,0.0,168,5791
7.0,0.0,169,5791
7.0,0.0,170,5791
7.0,0.0,171,5791
7.0,0.0,172,5791
7.0,0.0,173,5791
7.0,0.0,174,5791
7.0,0.0,175,5791
7.0,0.0,176,5791
7.0,0.0,177,5791
7.0,0.0,178,5791
7.0,0.0,179,5791
7.0,0.0,180,5791
7.0,0.0,181,5791
7.0,0.0,182,5791
7.0,0.0,183,5791
7.0,0.0,184,5791
7.0,0.0,185,5791
7.0,0.0,186,5791
7.0,0.0,187,5791
7.0,0.0,188,5791
7.0,0.0,189,5791
7.0,0.0,190,5791
7.0,0.0,191,5791
7.0,0.0,192,5791
7.0,0.0,193,5791
7.0,0.0,194,5791
7.0,0.0,195,5791
7.0,0.0,196,5791
7.0,0.0,197,5791
7.0,0.0,198,5791
7.0,0.0,199,5791
7.0,0.0,200,5791
7.0,0.0,201,5791
7.0,0.0,202,5791
7.0,0.0,203,5791
7.0,0.0,204,5791
7.0,0.0,205,5791
7.0,0.0,206,5791
7.0,0.0,207,5791
7.0,0.0,208,5791
7.0,0.0,209,5791
7.0,0.0,210,5791
7.0,0.0,211,5791
7.0,0.0,212,5791
7.0,0.0,213,5791
7.0,0.0,214,5791
7.0,0.0,215,5791
7.0,0.0,216,5791
7.0,0.0,217,5791
7.0,0.0,218,5791
7.0,0.0,219,5791
7.0,0.0,220,5791
7.0,0.0,221,5791
7.0,0.0,222,5791
7.0,0.0,223,5791
7.0,0.0,224,5791
7.0,0.0,225,5791
7.0,0.0,226,5791
7.0,0.0,227,5791
7.0,0.0,228,5791
7.0,0.0,229,5791
7.0,0.0,230,5791
7.0,0.0,231,5791
7.0,0.0,232,5791
7.0,0.0,233,5791
7.0,0.0,234,5791
7.0,0.0,235,5791
7.0,0.0,236,5791
7.0,0.0,237,5791
7.0,0.0,238,5791
7.0,0.0,239,5791
7.0,0.0,240,5791
7.0,0.0,241,5791
7.0,0.0,242,5791
7.0,0.0,243,5791
7.0,0.0,244,5791
7.0,0.0,245,5791
7.0,0.0,246,5791
7.0,0.0,247,5791
7.0,0.0,248,5791
7.0,0.0,249,5791
7.0,0.0,250,5791
7.0,0.0,251,5791
7.0,0.0,252,5791
7.0,0.0,253,5791
7.0,0.0,254,5791
7.0,0.0,255,5791
7.0,0.0,256,5791
7.0,0.0,257,5791
7.0,0.0,258,5791
7.0,0.0,259,5791
7.0,0.0,260,5791
7.0,0.0,261,5791
7.0,0.0,262,5791
7.0,0.0,263,5791
7.0,0.0,264,5791
7.0,0.0,265,5791
7.0,0.0,266,5791
7.0,0.0,267,5791
7.0,0.0,268,5791
7.0,0.0,269,5791
7.0,0.0,270,5791
7.0,0.0,271,5791
7.0,0.0,272,5791
7.0,0.0,273,5791
7.0,0.0,274,5791
7.0,0.0,275,5791
7.0,0.0,276,5791
7.0,0.0,277,5791
7.0,0.0,278,5791
7.0,0.0,279,5791
7.0,0.0,280,5791
7.0,0.0,281,5791
7.0,0.0,282,5791
7.0,0.0,283,5791
7.0,0.0,284,5791
7.0,0.0,285,5791
7.0,0.0,286,5791
7.0,0.0,287,5791
7.0,0.0,288,5791
7.0,0.0,289,5791
7.0,0.0,290,5791
7.0,0.0,291,5791
7.0,0.0,292,5791
7.0,0.0,293,5791
7.0,0.0,294,5791
7.0,0.0,295,5791
7.0,0.0,296,5791
7.0,0.0,297,5791
7.0,0.0,298,5791
7.0,0.0,299,5791
7.0,0.0,300,5791
7.0,0.0,301,5791
7.0,0.0,302,5791
7.0,0.0,303,5791
7.0,0.0,304,5791
7.0,0.0,305,5791
7.0,0.0,306,5791
7.0,0.0,307,5791
7.0,0.0,308,5791
7.0,0.0,309,5791
7.0,0.0,310,5791
7.0,0.0,311,5791
7.0,0.0,312,5791
7.0,0.0,313,5791
7.0,0.0,314,5791
7.0,0.0,315,5791
7.0,0.0,316,5791
7.0,0.0,317,5791
7.0,0.0,318,5791
7.0,0.0,319,5791
7.0,0.0,320,5791
7.0,0.0,321,5791
7.0,0.0,322,5791
7.0,0.0,323,5791
7.0,0.0,324,5791
7.0,0.0,325,5791
7.0,0.0,326,5791
7.0,0.0,327,5791
7.0,0.0,328,5791
7.0,0.0,329,5791
7.0,0.0,330,5791
7.0,0.0,331,5791
7.0,0.0,332,5791
7.0,0.0,333,5791
7.0,0.0,334,5791
7.0,0.0,335,5791
7.0,0.0,336,5791
7.0,0.0,337,5791
7.0,0.0,338,5791
7.0,0.0,339,5791
7.0,0.0,340,5791
7.0,0.0,341,5791
7.0,0.0,342,5791
7.0,0.0,343,5791
7.0,0.0,344,5791
7.0,0.0,345,5791
7.0,0.0,346,5791
7.0,0.0,347,5791
7.0,0.0,348,5791
7.0,0.0,349,5791
7.0,0.0,350,5791
7.0,0.0,351,5791
7.0,0.0,352,5791
7.0,0.0,353,5791
7.0,0.0,354,5791
7.0,0.0,355,5791
7.0,0.0,356,5791
7.0,0.0,357,5791
7.0,0.0,358,5791
7.0,0.0,359,5791
7.0,0.0,360,5791
7.0,0.0,361,5791
7.0,0.0,362,5791
7.0,0.0,363,5791
7.0,0.0,364,5791
7.0,0.0,365,5791
7.0,0.0,366,5791
7.0,0.0,367,5791
7.0,0.0,368,5791
7.0,0.0,369,5791
7.0,0.0,370,5791
7.0,0.0,371,5791
7.0,0.0,372,5791
7.0,0.0,373,5791
7.0,0.0,374,5791
7.0,0.0,375,5791
7.0,0.0,376,5791
7.0,0.0,377,5791
7.0,0.0,378,5791
7.0,0.0,379,5791
7.0,0.0,380,5791
7.0,0.0,381,5791
7.0,0.0,382,5791
7.0,0.0,383,5791
7.0,0.0,384,5791
7.0,0.0,385,5791
7.0,0.0,386,5791
7.0,0.0,387,5791
7.0,0.0,388,5791
7.0,0.0,389,5791
7.0,0.0,390,5791
7.0,0.0,391,5791
7.0,0.0,392,5791
7.0,0.0,393,5791
7.0,0.0,394,5791
7.0,0.0,395,5791
7.0,0.0,396,5791
7.0,0.0,397,5791
7.0,0.0,398,5791
7.0,0.0,399,5791
7.0,0.0,400,5791
7.0,0.0,401,5791
7.0,0.0,402,5791
7.0,0.0,403,5791
7.0,0.0,404,5791
7.0,0.0,405,5791
7.0,0.0,406,5791
7.0,0.0,407,5791
7.0,0.0,408,5791
7.0,0.0,409,5791
7.0,0.0,410,5791
7.0,0.0,411,5791
7.0,0.0,412,5791
7.0,0.0,413,5791
7.0,0.0,414,5791
7.0,0.0,415,5791
7.0,0.0,416,5791
7.0,0.0,417,5791
7.0,0.0,418,5791
7.0,0.0,419,5791
7.0,0.0,420,5791
7.0,0.0,421,5791
7.0,0.0,422,5791
7.0,0.0,423,5791
7.0,0.0,424,5791
7.0,0.0,425,5791
7.0,0.0,426,5791
7.0,0.0,427,5791
7.0,0.0,428,5791
7.0,0.0,429,5791
7.0,0.0,430,5791
7.0,0.0,431,5791
7.0,0.0,432,5791
7.0,0.0,433,5791
7.0,0.0,434,5791
7.0,0.0,435,5791
7.0,0.0,436,5791
7.0,0.0,437,5791
7.0,0.0,438,5791
7.0,0.0,439,5791
7.0,0.0,440,5791
7.0,0.0,441,5791
7.0,0.0,442,5791
7.0,0.0,443,5791
7.0,0.0,444,5791
7.0,0.0,445,5791
7.0,0.0,446,5791
7.0,0.0,447,5791
7.0,0.0,448,5791
7.0,0.0,449,5791
7.0,0.0,450,5791
7.0,0.0,451,5791
7.0,0.0,452,5791
7.0,0.0,453,5791
7.0,0.0,454,5791
7.0,0.0,455,5791
7.0,0.0,456,5791
7.0,0.0,457,5791
7.0,0.0,458,5791
7.0,0.0,459,5791
7.0,0.0,460,5791
7.0,0.0,461,5791
7.0,0.0,462,5791
7.0,0.0,463,5791
7.0,0.0,464,5791
7.0,0.0,465,5791
7.0,0.0,466,5791
7.0,0.0,467,5791
7.0,0.0,468,5791
7.0,0.0,469,5791
7.0,0.0,470,5791
7.0,0.0,471,5791
7.0,0.0,472,5791
7.0,0.0,473,5791
7.0,0.0,474,5791
7.0,0.0,475,5791
7.0,0.0,476,5791
7.0,0.0,477,5791
7.0,0.0,478,5791
7.0,0.0,479,5791
7.0,0.0,480,5791
7.0,0.0,481,5791
7.0,0.0,482,5791
7.0,0.0,483,5791
7.0,0.0,484,5791
7.0,0.0,485,5791
7.0,0.0,486,5791
7.0,0.0,487,5791
7.0,0.0,488,5791
7.0,0.0,489,5791
7.0,0.0,490,5791
7.0,0.0,491,5791
7.0,0.0,492,5791
7.0,0.0,493,5791
7.0,0.0,494,5791
7.0,0.0,495,5791
7.0,0.0,496,5791
7.0,0.0,497,5791
7.0,0.0,498,5791
7.0,0.0,499,5791
7.0,0.0,500,5791
7.0,0.0,501,5791
7.0,0.0,502,5791
7.0,0.0,503,5791
7.0,0.0,504,5791
7.0,0.0,505,5791
7.0,0.0,506,5791
7.0,0.0,507,5791
7.0,0.0,508,5791
7.0,0.0,509,5791
7.0,0.0,510,5791
7.0,0.0,511,5791
7.0,0.0,512,5791
7.0,0.0,513,5791
7.0,0.0,514,5791
7.0,0.0,515,5791
7.0,0.0,516,5791
7.0,0.0,517,5791
7.0,0.0,518,5791
7.0,0.0,519,5791
7.0,0.0,520,5791
7.0,0.0,521,5791
7.0,0.0,522,5791
7.0,0.0,523,5791
7.0,0.0,524,5791
7.0,0.0,525,5791
7.0,0.0,526,5791
7.0,0.0,527,5791
7.0,0.0,528,5791
7.0,0.0,529,5791
7.0,0.0,530,5791
7.0,0.0,531,5791
7.0,0.0,532,5791
7.0,0.0,533,5791
7.0,0.0,534,5791
7.0,0.0,535,5791
7.0,0.0,536,5791
7.0,0.0,537,5791
7.0,0.0,538,5791
7.0,0.0,539,5791
7.0,0.0,540,5791
7.0,0.0,541,5791
7.0,0.0,542,5791
7.0,0.0,543,5791
7.0,0.0,544,5791
7.0,0.0,545,5791
7.0,0.0,546,5791
7.0,0.0,547,5791
7.0,0.0,548,5791
7.0,0.0,549,5791
7.0,0.0,550,5791
7.0,0.0,551,5791
7.0,0.0,552,5791
7.0,0.0,553,5791
7.0,0.0,554,5791
7.0,0.0,555,5791
7.0,0.0,556,5791
7.0,0.0,557,5791
7.0,0.0,558,5791
7.0,0.0,559,5791
7.0,0.0,560,5791
7.0,0.0,561,5791
7.0,0.0,562,5791
7.0,0.0,563,5791
7.0,0.0,564,5791
7.0,0.0,565,5791
7.0,0.0,566,5791
7.0,0.0,567,5791
7.0,0.0,568,5791
7.0,0.0,569,5791
7.0,0.0,570,5791
7.0,0.0,571,5791
7.0,0.0,572,5791
7.0,0.0,573,5791
7.0,0.0,574,5791
7.0,0.0,575,5791
7.0,0.0,576,5791
7.0,0.0,577,5791
7.0,0.0,578,5791
7.0,0.0,579,5791
7.0,0.0,580,5791
7.0,0.0,581,5791
7.0,0.0,582,5791
7.0,0.0,583,5791
7.0,0.0,584,5791
7.0,0.0,585,5791
7.0,0.0,586,5791
7.0,0.0,587,5791
7.0,0.0,588,5791
7.0,0.0,589,5791
7.0,0.0,590,5791
7.0,0.0,591,5791
7.0,0.0,592,5791
7.0,0.0,593,5791
7.0,0.0,594,5791
7.0,0.0,595,5791
7.0,0.0,596,5791
7.0,0.0,597,5791
7.0,0.0,598,5791
7.0,0.0,599,5791
7.0,0.0,600,5791
7.0,0.0,601,5791
7.0,0.0,602,5791
7.0,0.0,603,5791
7.0,0.0,604,5791
7.0,0.0,605,5791
7.0,0.0,606,5791
7.0,0.0,607,5791
7.0,0.0,608,5791
7.0,0.0,609,5791
7.0,0.0,610,5791
7.0,0.0,611,5791
7.0,0.0,612,5791
7.0,0.0,613,5791
7.0,0.0,614,5791
7.0,0.0,615,5791
7.0,0.0,616,5791
7.0,0.0,617,5791
7.0,0.0,618,5791
7.0,0.0,619,5791
7.0,0.0,620,5791
7.0,0.0,621,5791
7.0,0.0,622,5791
7.0,0.0,623,5791
7.0,0.0,624,5791
7.0,0.0,625,5791
7.0,0.0,626,5791
7.0,0.0,627,5791
7.0,0.0,628,5791
7.0,0.0,629,5791
7.0,0.0,630,5791
7.0,0.0,631,5791
7.0,0.0,632,5791
7.0,0.0,633,5791
7.0,0.0,634,5791
7.0,0.0,635,5791
7.0,0.0,636,5791
7.0,0.0,637,5791
7.0,0.0,638,5791
7.0,0.0,639,5791
7.0,0.0,640,5791
7.0,0.0,641,5791
7.0,0.0,642,5791
7.0,0.0,643,5791
7.0,0.0,644,5791
7.0,0.0,645,5791
7.0,0.0,646,5791
7.0,0.0,647,5791
7.0,0.0,648,5791
7.0,0.0,649,5791
7.0,0.0,650,5791
7.0,0.0,651,5791
7.0,0.0,652,5791
7.0,0.0,653,5791
7.0,0.0,654,5791
7.0,0.0,655,5791
7.0,0.0,656,5791
7.0,0.0,657,5791
7.0,0.0,658,5791
7.0,0.0,659,5791
7.0,0.0,660,5791
7.0,0.0,661,5791
7.0,0.0,662,5791
7.0,0.0,663,5791
7.0,0.0,664,5791
7.0,0.0,665,5791
7.0,0.0,666,5791
7.0,0.0,667,5791
7.0,0.0,668,5791
7.0,0.0,669,5791
7.0,0.0,670,5791
7.0,0.0,671,5791
7.0,0.0,672,5791
7.0,0.0,673,5791
7.0,0.0,674,5791
7.0,0.0,675,5791
7.0,0.0,676,5791
7.0,0.0,677,5791
7.0,0.0,678,5791
7.0,0.0,679,5791
7.0,0.0,680,5791
7.0,0.0,681,5791
7.0,0.0,682,5791
7.0,0.0,683,5791
7.0,0.0,684,5791
7.0,0.0,685,5791
7.0,0.0,686,5791
7.0,0.0,687,5791
7.0,0.0,688,5791
7.0,0.0,689,5791
7.0,0.0,690,5791
7.0,0.0,691,5791
7.0,0.0,692,5791
7.0,0.0,693,5791
7.0,0.0,694,5791
7.0,0.0,695,5791
7.0,0.0,696,5791
7.0,0.0,697,5791
7.0,0.0,698,5791
7.0,0.0,699,5791
7.0,0.0,700,5791
7.0,0.0,701,5791
7.0,0.0,702,5791
7.0,0.0,703,5791
7.0,0.0,704,5791
7.0,0.0,705,5791
7.0,0.0,706,5791
7.0,0.0,707,5791
7.0,0.0,708,5791
7.0,0.0,709,5791
7.0,0.0,710,5791
7.0,0.0,711,5791
7.0,0.0,712,5791
7.0,0.0,713,5791
7.0,0.0,714,5791
7.0,0.0,715,5791
7.0,0.0,716,5791
7.0,0.0,717,5791
7.0,0.0,718,5791
7.0,0.0,719,5791
7.0,0.0,720,5791
7.0,0.0,721,5791
7.0,0.0,722,5791
7.0,0.0,723,5791
7.0,0.0,724,5791
7.0,0.0,725,5791
7.0,0.0,726,5791
7.0,0.0,727,5791
7.0,0.0,728,5791
7.0,0.0,729,5791
7.0,0.0,730,5791
7.0,0.0,731,5791
7.0,0.0,732,5791
7.0,0.0,733,5791
7.0,0.0,734,5791
7.0,0.0,735,5791
7.0,0.0,736,5791
7.0,0.0,737,5791
7.0,0.0,738,5791
7.0,0.0,739,5791
7.0,0.0,740,5791
7.0,0.0,741,5791
7.0,0.0,742,5791
7.0,0.0,743,5791
7.0,0.0,744,5791
7.0,0.0,745,5791
7.0,0.0,746,5791
7.0,0.0,747,5791
7.0,0.0,748,5791
7.0,0.0,749,5791
7.0,0.0,750,5791
7.0,0.0,751,5791
7.0,0.0,752,5791
7.0,0.0,753,5791
7.0,0.0,754,5791
7.0,0.0,755,5791
7.0,0.0,756,5791
7.0,0.0,757,5791
7.0,0.0,758,5791
7.0,0.0,759,5791
7.0,0.0,760,5791
7.0,0.0,761,5791
7.0,0.0,762,5791
7.0,0.0,763,5791
7.0,0.0,764,5791
7.0,0.0,765,5791
7.0,0.0,766,5791
7.0,0.0,767,5791
7.0,0.0,768,5791
7.0,0.0,769,5791
7.0,0.0,770,5791
7.0,0.0,771,5791
7.0,0.0,772,5791
7.0,0.0,773,5791
7.0,0.0,774,5791
7.0,0.0,775,5791
7.0,0.0,776,5791
7.0,0.0,777,5791
7.0,0.0,778,5791
7.0,0.0,779,5791
7.0,0.0,780,5791
7.0,0.0,781,5791
7.0,0.0,782,5791
7.0,0.0,783,5791
7.0,0.0,784,5791
7.0,0.0,785,5791
7.0,0.0,786,5791
7.0,0.0,787,5791
7.0,0.0,788,5791
7.0,0.0,789,5791
7.0,0.0,790,5791
7.0,0.0,791,5791
7.0,0.0,792,5791
7.0,0.0,793,5791
7.0,0.0,794,5791
7.0,0.0,795,5791
7.0,0.0,796,5791
7.0,0.0,797,5791
7.0,0.0,798,5791
7.0,0.0,799,5791
7.0,0.0,800,5791
7.0,0.0,801,5791
7.0,0.0,802,5791
7.0,0.0,803,5791
7.0,0.0,804,5791
7.0,0.0,805,5791
7.0,0.0,806,5791
7.0,0.0,807,5791
7.0,0.0,808,5791
7.0,0.0,809,5791
7.0,0.0,810,5791
7.0,0.0,811,5791
7.0,0.0,812,5791
7.0,0.0,813,5791
7.0,0.0,814,5791
7.0,0.0,815,5791
7.0,0.0,816,5791
7.0,0.0,817,5791
7.0,0.0,818,5791
7.0,0.0,819,5791
7.0,0.0,820,5791
7.0,0.0,821,5791
7.0,0.0,822,5791
7.0,0.0,823,5791
7.0,0.0,824,5791
7.0,0.0,825,5791
7.0,0.0,826,5791
7.0,0.0,827,5791
7.0,0.0,828,5791
7.0,0.0,829,5791
7.0,0.0,830,5791
7.0,0.0,831,5791
7.0,0.0,832,5791
7.0,0.0,833,5791
7.0,0.0,834,5791
7.0,0.0,835,5791
7.0,0.0,836,5791
7.0,0.0,837,5791
7.0,0.0,838,5791
7.0,0.0,839,5791
7.0,0.0,840,5791
7.0,0.0,841,5791
7.0,0.0,842,5791
7.0,0.0,843,5791
7.0,0.0,844,5791
7.0,0.0,845,5791
7.0,0.0,846,5791
7.0,0.0,847,5791
7.0,0.0,848,5791
7.0,0.0,849,5791
7.0,0.0,850,5791
7.0,0.0,851,5791
7.0,0.0,852,5791
7.0,0.0,853,5791
7.0,0.0,854,5791
7.0,0.0,855,5791
7.0,0.0,856,5791
7.0,0.0,857,5791
7.0,0.0,858,5791
7.0,0.0,859,5791
7.0,0.0,860,5791
7.0,0.0,861,5791
7.0,0.0,862,5791
7.0,0.0,863,5791
7.0,0.0,864,5791
7.0,0.0,865,5791
7.0,0.0,866,5791
7.0,0.0,867,5791
7.0,0.0,868,5791
7.0,0.0,869,5791
7.0,0.0,870,5791
7.0,0.0,871,5791
7.0,0.0,872,5791
7.0,0.0,873,5791
7.0,0.0,874,5791
7.0,0.0,875,5791
7.0,0.0,876,5791
7.0,0.0,877,5791
7.0,0.0,878,5791
7.0,0.0,879,5791
7.0,0.0,880,5791
7.0,0.0,881,5791
7.0,0.0,882,5791
7.0,0.0,883,5791
7.0,0.0,884,5791
7.0,0.0,885,5791
7.0,0.0,886,5791
7.0,0.0,887,5791
7.0,0.0,888,5791
7.0,0.0,889,5791
7.0,0.0,890,5791
7.0,0.0,891,5791
7.0,0.0,892,5791
7.0,0.0,893,5791
7.0,0.0,894,5791
7.0,0.0,895,5791
7.0,0.0,896,5791
7.0,0.0,897,5791
7.0,0.0,898,5791
7.0,0.0,899,5791
7.0,0.0,900,5791
7.0,0.0,901,5791
7.0,0.0,902,5791
7.0,0.0,903,5791
7.0,0.0,904,5791
7.0,0.0,905,5791
7.0,0.0,906,5791
7.0,0.0,907,5791
7.0,0.0,908,5791
7.0,0.0,909,5791
7.0,0.0,910,5791
7.0,0.0,911,5791
7.0,0.0,912,5791
7.0,0.0,913,5791
7.0,0.0,914,5791
7.0,0.0,915,5791
7.0,0.0,916,5791
7.0,0.0,917,5791
7.0,0.0,918,5791
7.0,0.0,919,5791
7.0,0.0,920,5791
7.0,0.0,921,5791
7.0,0.0,922,5791
7.0,0.0,923,5791
7.0,0.0,924,5791
7.0,0.0,925,5791
7.0,0.0,926,5791
7.0,0.0,927,5791
7.0,0.0,928,5791
7.0,0.0,929,5791
7.0,0.0,930,5791
7.0,0.0,931,5791
7.0,0.0,932,5791
7.0,0.0,933,5791
7.0,0.0,934,5791
7.0,0.0,935,5791
7.0,0.0,936,5791
7.0,0.0,937,5791
7.0,0.0,938,5791
7.0,0.0,939,5791
7.0,0.0,940,5791
7.0,0.0,941,5791
7.0,0.0,942,5791
7.0,0.0,943,5791
7.0,0.0,944,5791
7.0,0.0,945,5791
7.0,0.0,946,5791
7.0,0.0,947,5791
7.0,0.0,948,5791
7.0,0.0,949,5791
7.0,0.0,950,5791
7.0,0.0,951,5791
7.0,0.0,952,5791
7.0,0.0,953,5791
7.0,0.0,954,5791
7.0,0.0,955,5791
7.0,0.0,956,5791
7.0,0.0,957,5791
7.0,0.0,958,5791
7.0,0.0,959,5791
7.0,0.0,960,5791
7.0,0.0,961,5791
7.0,0.0,962,5791
7.0,0.0,963,5791
7.0,0.0,964,5791
7.0,0.0,965,5791
7.0,0.0,966,5791
7.0,0.0,967,5791
7.0,0.0,968,5791
7.0,0.0,969,5791
7.0,0.0,970,5791
7.0,0.0,971,5791
7.0,0.0,972,5791
7.0,0.0,973,5791
7.0,0.0,974,5791
7.0,0.0,975,5791
7.0,0.0,976,5791
7.0,0.0,977,5791
7.0,0.0,978,5791
7.0,0.0,979,5791
7.0,0.0,980,5791
7.0,0.0,981,5791
7.0,0.0,982,5791
7.0,0.0,983,5791
7.0,0.0,984,5791
7.0,0.0,985,5791
7.0,0.0,986,5791
7.0,0.0,987,5791
7.0,0.0,988,5791
7.0,0.0,989,5791
7.0,0.0,990,5791
7.0,0.0,991,5791
7.0,0.0,992,5791
7.0,0.0,993,5791
7.0,0.0,994,5791
7.0,0.0,995,5791
7.0,0.0,996,5791
7.0,0.0,997,5791
7.0,0.0,998,5791
7.0,0.0,999,5791
7.0,0.0,1000,5791
7.0,0.0,1001,5791
7.0,0.0,1002,5791
7.0,0.0,1003,5791
7.0,0.0,1004,5791
7.0,0.0,1005,5791
7.0,0.0,1006,5791
7.0,0.0,1007,5791
7.0,0.0,1008,5791
7.0,0.0,1009,5791
7.0,0.0,1010,5791
7.0,0.0,1011,5791
7.0,0.0,1012,5791
7.0,0.0,1013,5791
7.0,0.0,1014,5791
7.0,0.0,1015,5791
7.0,0.0,1016,5791
7.0,0.0,1017,5791
7.0,0.0,1018,5791
7.0,0.0,1019,5791
7.0,0.0,1020,5791
7.0,0.0,1021,5791
7.0,0.0,1022,5791
7.0,0.0,1023,5791
7.0,0.0,1024,5791
7.0,0.0,1025,5791
7.0,0.0,1026,5791
7.0,0.0,1027,5791
7.0,0.0,1028,5791
7.0,0.0,1029,5791
7.0,0.0,1030,5791
7.0,0.0,1031,5791
7.0,0.0,1032,5791
7.0,0.0,1033,5791
7.0,0.0,1034,5791
7.0,0.0,1035,5791
7.0,0.0,1036,5791
7.0,0.0,1037,5791
7.0,0.0,1038,5791
7.0,0.0,1039,5791
7.0,0.0,1040,5791
7.0,0.0,1041,5791
7.0,0.0,1042,5791
7.0,0.0,1043,5791
7.0,0.0,1044,5791
7.0,0.0,1045,5791
7.0,0.0,1046,5791
7.0,0.0,1047,5791
7.0,0.0,1048,5791
7.0,0.0,1049,5791
7.0,0.0,1050,5791
7.0,0.0,1051,5791
7.0,0.0,1052,5791
7.0,0.0,1053,5791
7.0,0.0,1054,5791
7.0,0.0,1055,5791
7.0,0.0,1056,5791
7.0,0.0,1057,5791
7.0,0.0,1058,5791
7.0,0.0,1059,5791
7.0,0.0,1060,5791
7.0,0.0,1061,5791
7.0,0.0,1062,5791
7.0,0.0,1063,5791
7.0,0.0,1064,5791
7.0,0.0,1065,5791
7.0,0.0,1066,5791
7.0,0.0,1067,5791
7.0,0.0,1068,5791
7.0,0.0,1069,5791
7.0,0.0,1070,5791
7.0,0.0,1071,5791
7.0,0.0,1072,5791
7.0,0.0,1073,5791
7.0,0.0,1074,5791
7.0,0.0,1075,5791
7.0,0.0,1076,5791
7.0,0.0,1077,5791
7.0,0.0,1078,5791
7.0,0.0,1079,5791
7.0,0.0,1080,5791
7.0,0.0,1081,5791
7.0,0.0,1082,5791
7.0,0.0,1083,5791
7.0,0.0,1084,5791
7.0,0.0,1085,5791
7.0,0.0,1086,5791
7.0,0.0,1087,5791
7.0,0.0,1088,5791
7.0,0.0,1089,5791
7.0,0.0,1090,5791
7.0,0.0,1091,5791
7.0,0.0,1092,5791
7.0,0.0,1093,5791
7.0,0.0,1094,5791
7.0,0.0,1095,5791
7.0,0.0,1096,5791
7.0,0.0,1097,5791
7.0,0.0,1098,5791
7.0,0.0,1099,5791
7.0,0.0,1100,5791
7.0,0.0,1101,5791
7.0,0.0,1102,5791
7.0,0.0,1103,5791
7.0,0.0,1104,5791
7.0,0.0,1105,5791
7.0,0.0,1106,5791
7.0,0.0,1107,5791
7.0,0.0,1108,5791
7.0,0.0,1109,5791
7.0,0.0,1110,5791
7.0,0.0,1111,5791
7.0,0.0,1112,5791
7.0,0.0,1113,5791
7.0,0.0,1114,5791
7.0,0.0,1115,5791
7.0,0.0,1116,5791
7.0,0.0,1117,5791
7.0,0.0,1118,5791
7.0,0.0,1119,5791
7.0,0.0,1120,5791
7.0,0.0,1121,5791
7.0,0.0,1122,5791
7.0,0.0,1123,5791
7.0,0.0,1124,5791
7.0,0.0,1125,5791
7.0,0.0,1126,5791
7.0,0.0,1127,5791
7.0,0.0,1128,5791
7.0,0.0,1129,5791
7.0,0.0,1130,5791
7.0,0.0,1131,5791
7.0,0.0,1132,5791
7.0,0.0,1133,5791
7.0,0.0,1134,5791
7.0,0.0,1135,5791
7.0,0.0,1136,5791
7.0,0.0,1137,5791
7.0,0.0,1138,5791
7.0,0.0,1139,5791
7.0,0.0,1140,5791
7.0,0.0,1141,5791
7.0,0.0,1142,5791
7.0,0.0,1143,5791
7.0,0.0,1144,5791
7.0,0.0,1145,5791
7.0,0.0,1146,5791
7.0,0.0,1147,5791
7.0,0.0,1148,5791
7.0,0.0,1149,5791
7.0,0.0,1150,5791
7.0,0.0,1151,5791
7.0,0.0,1152,5791
7.0,0.0,1153,5791
7.0,0.0,1154,5791
7.0,0.0,1155,5791
7.0,0.0,1156,5791
7.0,0.0,1157,5791
7.0,0.0,1158,5791
7.0,0.0,1159,5791
7.0,0.0,1160,5791
7.0,0.0,1161,5791
7.0,0.0,1162,5791
7.0,0.0,1163,5791
7.0,0.0,1164,5791
7.0,0.0,1165,5791
7.0,0.0,1166,5791
7.0,0.0,1167,5791
7.0,0.0,1168,5791
7.0,0.0,1169,5791
7.0,0.0,1170,5791
7.0,0.0,1171,5791
7.0,0.0,1172,5791
7.0,0.0,1173,5791
7.0,0.0,1174,5791
7.0,0.0,1175,5791
7.0,0.0,1176,5791
7.0,0.0,1177,5791
7.0,0.0,1178,5791
7.0,0.0,1179,5791
7.0,0.0,1180,5791
7.0,0.0,1181,5791
7.0,0.0,1182,5791
7.0,0.0,1183,5791
7.0,0.0,1184,5791
7.0,0.0,1185,5791
7.0,0.0,1186,5791
7.0,0.0,1187,5791
7.0,0.0,1188,5791
7.0,0.0,1189,5791
7.0,0.0,1190,5791
7.0,0.0,1191,5791
7.0,0.0,1192,5791
7.0,0.0,1193,5791
7.0,0.0,1194,5791
7.0,0.0,1195,5791
7.0,0.0,1196,5791
7.0,0.0,1197,5791
7.0,0.0,1198,5791
7.0,0.0,1199,5791
7.0,0.0,1200,5791
7.0,0.0,1201,5791
7.0,0.0,1202,5791
7.0,0.0,1203,5791
7.0,0.0,1204,5791
7.0,0.0,1205,5791
7.0,0.0,1206,5791
7.0,0.0,1207,5791
7.0,0.0,1208,5791
7.0,0.0,1209,5791
7.0,0.0,1210,5791
7.0,0.0,1211,5791
7.0,0.0,1212,5791
7.0,0.0,1213,5791
7.0,0.0,1214,5791
7.0,0.0,1215,5791
7.0,0.0,1216,5791
7.0,0.0,1217,5791
7.0,0.0,1218,5791
7.0,0.0,1219,5791
7.0,0.0,1220,5791
7.0,0.0,1221,5791
7.0,0.0,1222,5791
7.0,0.0,1223,5791
7.0,0.0,1224,5791
7.0,0.0,1225,5791
7.0,0.0,1226,5791
7.0,0.0,1227,5791
7.0,0.0,1228,5791
7.0,0.0,1229,5791
7.0,0.0,1230,5791
7.0,0.0,1231,5791
7.0,0.0,1232,5791
7.0,0.0,1233,5791
7.0,0.0,1234,5791
7.0,0.0,1235,5791
7.0,0.0,1236,5791
7.0,0.0,1237,5791
7.0,0.0,1238,5791
7.0,0.0,1239,5791
7.0,0.0,1240,5791
7.0,0.0,1241,5791
7.0,0.0,1242,5791
7.0,0.0,1243,5791
7.0,0.0,1244,5791
7.0,0.0,1245,5791
7.0,0.0,1246,5791
7.0,0.0,1247,5791
7.0,0.0,1248,5791
7.0,0.0,1249,5791
7.0,0.0,1250,5791
7.0,0.0,1251,5791
7.0,0.0,1252,5791
7.0,0.0,1253,5791
7.0,0.0,1254,5791
7.0,0.0,1255,5791
7.0,0.0,1256,5791
7.0,0.0,1257,5791
7.0,0.0,1258,5791
7.0,0.0,1259,5791
7.0,0.0,1260,5791
7.0,0.0,1261,5791
7.0,0.0,1262,5791
7.0,0.0,1263,5791
7.0,0.0,1264,5791
7.0,0.0,1265,5791
7.0,0.0,1266,5791
7.0,0.0,1267,5791
7.0,0.0,1268,5791
7.0,0.0,1269,5791
7.0,0.0,1270,5791
7.0,0.0,1271,5791
7.0,0.0,1272,5791
7.0,0.0,1273,5791
7.0,0.0,1274,5791
7.0,0.0,1275,5791
7.0,0.0,1276,5791
7.0,0.0,1277,5791
7.0,0.0,1278,5791
7.0,0.0,1279,5791
7.0,0.0,1280,5791
7.0,0.0,1281,5791
7.0,0.0,1282,5791
7.0,0.0,1283,5791
7.0,0.0,1284,5791
7.0,0.0,1285,5791
7.0,0.0,1286,5791
7.0,0.0,1287,5791
7.0,0.0,1288,5791
7.0,0.0,1289,5791
7.0,0.0,1290,5791
7.0,0.0,1291,5791
7.0,0.0,1292,5791
7.0,0.0,1293,5791
7.0,0.0,1294,5791
7.0,0.0,1295,5791
7.0,0.0,1296,5791
7.0,0.0,1297,5791
7.0,0.0,1298,5791
7.0,0.0,1299,5791
7.0,0.0,1300,5791
7.0,0.0,1301,5791
7.0,0.0,1302,5791
7.0,0.0,1303,5791
7.0,0.0,1304,5791
7.0,0.0,1305,5791
7.0,0.0,1306,5791
7.0,0.0,1307,5791
7.0,0.0,1308,5791
7.0,0.0,1309,5791
7.0,0.0,1310,5791
7.0,0.0,1311,5791
7.0,0.0,1312,5791
7.0,0.0,1313,5791
7.0,0.0,1314,5791
7.0,0.0,1315,5791
7.0,0.0,1316,5791
7.0,0.0,1317,5791
7.0,0.0,1318,5791
7.0,0.0,1319,5791
7.0,0.0,1320,5791
7.0,0.0,1321,5791
7.0,0.0,1322,5791
7.0,0.0,1323,5791
7.0,0.0,1324,5791
7.0,0.0,1325,5791
7.0,0.0,1326,5791
7.0,0.0,1327,5791
7.0,0.0,1328,5791
7.0,0.0,1329,5791
7.0,0.0,1330,5791
7.0,0.0,1331,5791
7.0,0.0,1332,5791
7.0,0.0,1333,5791
7.0,0.0,1334,5791
7.0,0.0,1335,5791
7.0,0.0,1336,5791
7.0,0.0,1337,5791
7.0,0.0,1338,5791
7.0,0.0,1339,5791
7.0,0.0,1340,5791
7.0,0.0,1341,5791
7.0,0.0,1342,5791
7.0,0.0,1343,5791
7.0,0.0,1344,5791
7.0,0.0,1345,5791
7.0,0.0,1346,5791
7.0,0.0,1347,5791
7.0,0.0,1348,5791
7.0,0.0,1349,5791
7.0,0.0,1350,5791
7.0,0.0,1351,5791
7.0,0.0,1352,5791
7.0,0.0,1353,5791
7.0,0.0,1354,5791
7.0,0.0,1355,5791
7.0,0.0,1356,5791
7.0,0.0,1357,5791
7.0,0.0,1358,5791
7.0,0.0,1359,5791
7.0,0.0,1360,5791
7.0,0.0,1361,5791
7.0,0.0,1362,5791
7.0,0.0,1363,5791
7.0,0.0,1364,5791
7.0,0.0,1365,5791
7.0,0.0,1366,5791
7.0,0.0,1367,5791
7.0,0.0,1368,5791
7.0,0.0,1369,5791
7.0,0.0,1370,5791
7.0,0.0,1371,5791
7.0,0.0,1372,5791
7.0,0.0,1373,5791
7.0,0.0,1374,5791
7.0,0.0,1375,5791
7.0,0.0,1376,5791
7.0,0.0,1377,5791
7.0,0.0,1378,5791
7.0,0.0,1379,5791
7.0,0.0,1380,5791
7.0,0.0,1381,5791
7.0,0.0,1382,5791
7.0,0.0,1383,5791
7.0,0.0,1384,5791
7.0,0.0,1385,5791
7.0,0.0,1386,5791
7.0,0.0,1387,5791
7.0,0.0,1388,5791
7.0,0.0,1389,5791
7.0,0.0,1390,5791
7.0,0.0,1391,5791
7.0,0.0,1392,5791
7.0,0.0,1393,5791
7.0,0.0,1394,5791
7.0,0.0,1395,5791
7.0,0.0,1396,5791
7.0,0.0,1397,5791
7.0,0.0,1398,5791
7.0,0.0,1399,5791
7.0,0.0,1400,5791
7.0,0.0,1401,5791
7.0,0.0,1402,5791
7.0,0.0,1403,5791
7.0,0.0,1404,5791
7.0,0.0,1405,5791
7.0,0.0,1406,5791
7.0,0.0,1407,5791
7.0,0.0,1408,5791
7.0,0.0,1409,5791
7.0,0.0,1410,5791
7.0,0.0,1411,5791
7.0,0.0,1412,5791
7.0,0.0,1413,5791
7.0,0.0,1414,5791
7.0,0.0,1415,5791
7.0,0.0,1416,5791
7.0,0.0,1417,5791
7.0,0.0,1418,5791
7.0,0.0,1419,5791
7.0,0.0,1420,5791
7.0,0.0,1421,5791
7.0,0.0,1422,5791
7.0,0.0,1423,5791
7.0,0.0,1424,5791
7.0,0.0,1425,5791
7.0,0.0,1426,5791
7.0,0.0,1427,5791
7.0,0.0,1428,5791
7.0,0.0,1429,5791
7.0,0.0,1430,5791
7.0,0.0,1431,5791
7.0,0.0,1432,5791
7.0,0.0,1433,5791
7.0,0.0,1434,5791
7.0,0.0,1435,5791
7.0,0.0,1436,5791
7.0,0.0,1437,5791
7.0,0.0,1438,5791
7.0,0.0,1439,5791
7.0,0.0,1440,5791
7.0,0.0,1441,5791
7.0,0.0,1442,5791
7.0,0.0,1443,5791
7.0,0.0,1444,5791
7.0,0.0,1445,5791
7.0,0.0,1446,5791
7.0,0.0,1447,5791
7.0,0.0,1448,5791
7.0,0.0,1449,5791
7.0,0.0,1450,5791
7.0,0.0,1451,5791
7.0,0.0,1452,5791
7.0,0.0,1453,5791
7.0,0.0,1454,5791
7.0,0.0,1455,5791
7.0,0.0,1456,5791
7.0,0.0,1457,5791
7.0,0.0,1458,5791
7.0,0.0,1459,5791
7.0,0.0,1460,5791
7.0,0.0,1461,5791
7.0,0.0,1462,5791
7.0,0.0,1463,5791
7.0,0.0,1464,5791
7.0,0.0,1465,5791
7.0,0.0,1466,5791
7.0,0.0,1467,5791
7.0,0.0,1468,5791
7.0,0.0,1469,5791
7.0,0.0,1470,5791
7.0,0.0,1471,5791
7.0,0.0,1472,5791
7.0,0.0,1473,5791
7.0,0.0,1474,5791
7.0,0.0,1475,5791
7.0,0.0,1476,5791
7.0,0.0,1477,5791
7.0,0.0,1478,5791
7.0,0.0,1479,5791
7.0,0.0,1480,5791
7.0,0.0,1481,5791
7.0,0.0,1482,5791
7.0,0.0,1483,5791
7.0,0.0,1484,5791
7.0,0.0,1485,5791
7.0,0.0,1486,5791
7.0,0.0,1487,5791
7.0,0.0,1488,5791
7.0,0.0,1489,5791
7.0,0.0,1490,5791
7.0,0.0,1491,5791
7.0,0.0,1492,5791
7.0,0.0,1493,5791
7.0,0.0,1494,5791
7.0,0.0,1495,5791
7.0,0.0,1496,5791
7.0,0.0,1497,5791
7.0,0.0,1498,5791
7.0,0.0,1499,5791
7.0,0.0,1500,5791
7.0,0.0,1501,5791
7.0,0.0,1502,5791
7.0,0.0,1503,5791
7.0,0.0,1504,5791
7.0,0.0,1505,5791
7.0,0.0,1506,5791
7.0,0.0,1507,5791
7.0,0.0,1508,5791
7.0,0.0,1509,5791
7.0,0.0,1510,5791
7.0,0.0,1511,5791
7.0,0.0,1512,5791
7.0,0.0,1513,5791
7.0,0.0,1514,5791
7.0,0.0,1515,5791
7.0,0.0,1516,5791
7.0,0.0,1517,5791
7.0,0.0,1518,5791
7.0,0.0,1519,5791
7.0,0.0,1520,5791
7.0,0.0,1521,5791
7.0,0.0,1522,5791
7.0,0.0,1523,5791
7.0,0.0,1524,5791
7.0,0.0,1525,5791
7.0,0.0,1526,5791
7.0,0.0,1527,5791
7.0,0.0,1528,5791
7.0,0.0,1529,5791
7.0,0.0,1530,5791
7.0,0.0,1531,5791
7.0,0.0,1532,5791
7.0,0.0,1533,5791
7.0,0.0,1534,5791
7.0,0.0,1535,5791
7.0,0.0,1536,5791
7.0,0.0,1537,5791
7.0,0.0,1538,5791
7.0,0.0,1539,5791
7.0,0.0,1540,5791
7.0,0.0,1541,5791
7.0,0.0,1542,5791
7.0,0.0,1543,5791
7.0,0.0,1544,5791
7.0,0.0,1545,5791
7.0,0.0,1546,5791
7.0,0.0,1547,5791
7.0,0.0,1548,5791
7.0,0.0,1549,5791
7.0,0.0,1550,5791
7.0,0.0,1551,5791
7.0,0.0,1552,5791
7.0,0.0,1553,5791
7.0,0.0,1554,5791
7.0,0.0,1555,5791
7.0,0.0,1556,5791
7.0,0.0,1557,5791
7.0,0.0,1558,5791
7.0,0.0,1559,5791
7.0,0.0,1560,5791
7.0,0.0,1561,5791
7.0,0.0,1562,5791
7.0,0.0,1563,5791
7.0,0.0,1564,5791
7.0,0.0,1565,5791
7.0,0.0,1566,5791
7.0,0.0,1567,5791
7.0,0.0,1568,5791
7.0,0.0,1569,5791
7.0,0.0,1570,5791
7.0,0.0,1571,5791
7.0,0.0,1572,5791
7.0,0.0,1573,5791
7.0,0.0,1574,5791
7.0,0.0,1575,5791
7.0,0.0,1576,5791
7.0,0.0,1577,5791
7.0,0.0,1578,5791
7.0,0.0,1579,5791
7.0,0.0,1580,5791
7.0,0.0,1581,5791
7.0,0.0,1582,5791
7.0,0.0,1583,5791
7.0,0.0,1584,5791
7.0,0.0,1585,5791
7.0,0.0,1586,5791
7.0,0.0,1587,5791
7.0,0.0,1588,5791
7.0,0.0,1589,5791
7.0,0.0,1590,5791
7.0,0.0,1591,5791
7.0,0.0,1592,5791
7.0,0.0,1593,5791
7.0,0.0,1594,5791
7.0,0.0,1595,5791
7.0,0.0,1596,5791
7.0,0.0,1597,5791
7.0,0.0,1598,5791
7.0,0.0,1599,5791
7.0,0.0,1600,5791
7.0,0.0,1601,5791
7.0,0.0,1602,5791
7.0,0.0,1603,5791
7.0,0.0,1604,5791
7.0,0.0,1605,5791
7.0,0.0,1606,5791
7.0,0.0,1607,5791
7.0,0.0,1608,5791
7.0,0.0,1609,5791
7.0,0.0,1610,5791
7.0,0.0,1611,5791
7.0,0.0,1612,5791
7.0,0.0,1613,5791
7.0,0.0,1614,5791
7.0,0.0,1615,5791
7.0,0.0,1616,5791
7.0,0.0,1617,5791
7.0,0.0,1618,5791
7.0,0.0,1619,5791
7.0,0.0,1620,5791
7.0,0.0,1621,5791
7.0,0.0,1622,5791
7.0,0.0,1623,5791
7.0,0.0,1624,5791
7.0,0.0,1625,5791
7.0,0.0,1626,5791
7.0,0.0,1627,5791
7.0,0.0,1628,5791
7.0,0.0,1629,5791
7.0,0.0,1630,5791
7.0,0.0,1631,5791
7.0,0.0,1632,5791
7.0,0.0,1633,5791
7.0,0.0,1634,5791
7.0,0.0,1635,5791
7.0,0.0,1636,5791
7.0,0.0,1637,5791
7.0,0.0,1638,5791
7.0,0.0,1639,5791
7.0,0.0,1640,5791
7.0,0.0,1641,5791
7.0,0.0,1642,5791
7.0,0.0,1643,5791
7.0,0.0,1644,5791
7.0,0.0,1645,5791
7.0,0.0,1646,5791
7.0,0.0,1647,5791
