x,y,k,tid
116.44123,39.8313,0,5829
116.4338,39.8527,1,5829
116.42808,39.85743,2,5829
116.41612,39.85615,3,5829
116.37177,39.85577,4,5829
116.31133,39.85635,5,5829
116.30368,39.86448,6,5829
116.30415,39.86427,7,5829
116.30415,39.86427,8,5829
116.30415,39.86427,9,5829
116.30415,39.86427,10,5829
116.30415,39.86427,11,5829
116.30415,39.86427,12,5829
116.30415,39.86427,13,5829
0.0,0.0,14,5829
0.0,0.0,15,5829
116.49883,40.0071,16,5829
116.4992,40.00722,17,5829
116.3403,39.8668,18,5829
116.3403,39.8668,19,5829
116.49893,40.00695,20,5829
116.49893,40.00695,21,5829
116.49893,40.00695,22,5829
116.49893,40.00695,23,5829
116.49893,40.00695,24,5829
116.49893,40.00695,25,5829
116.49893,40.00695,26,5829
116.49893,40.00695,27,5829
116.49893,40.00695,28,5829
116.49893,40.00695,29,5829
116.49893,40.00695,30,5829
116.49893,40.00695,31,5829
116.49893,40.00695,32,5829
116.49893,40.00695,33,5829
116.49893,40.00695,34,5829
116.49893,40.00695,35,5829
116.49893,40.00695,36,5829
116.49893,40.00695,37,5829
116.49893,40.00695,38,5829
116.49893,40.00695,39,5829
116.49893,40.00695,40,5829
116.49893,40.00695,41,5829
116.49893,40.00695,42,5829
116.49902,40.00698,43,5829
116.48233,39.95512,44,5829
116.48348,39.88942,45,5829
116.45378,39.83218,46,5829
116.44363,39.82527,47,5829
116.45273,39.83165,48,5829
116.43683,39.84433,49,5829
116.4325,39.85677,50,5829
116.41268,39.85568,51,5829
116.3861,39.8554,52,5829
116.43882,39.85742,53,5829
116.45492,39.87047,54,5829
116.46143,39.89923,55,5829
116.47468,39.89915,56,5829
116.47655,39.8991,57,5829
116.46793,39.8992,58,5829
116.45502,39.90045,59,5829
116.45337,39.90727,60,5829
116.44633,39.91497,61,5829
116.44582,39.92068,62,5829
116.466,39.90698,63,5829
116.47148,39.9088,64,5829
116.45317,39.9121,65,5829
116.44447,39.9147,66,5829
116.4442,39.92038,67,5829
116.4443,39.93037,68,5829
116.44442,39.93342,69,5829
116.43847,39.9506,70,5829
116.4404,39.95745,71,5829
116.44713,39.9571,72,5829
116.44713,39.9571,73,5829
116.44713,39.9571,74,5829
116.4387,39.96293,75,5829
116.44495,40.00018,76,5829
116.4119,40.02108,77,5829
116.41125,39.97817,78,5829
116.40342,39.9674,79,5829
116.38888,39.97547,80,5829
116.3779,39.98107,81,5829
116.37272,39.97085,82,5829
116.4069,39.98518,83,5829
116.4069,39.98518,84,5829
116.4069,39.98518,85,5829
116.4069,39.98518,86,5829
116.4069,39.98518,87,5829
116.4069,39.98518,88,5829
116.4069,39.98518,89,5829
116.4069,39.98518,90,5829
116.4069,39.98518,91,5829
116.4069,39.98518,92,5829
116.4069,39.98518,93,5829
116.4069,39.98518,94,5829
116.4069,39.98518,95,5829
116.4069,39.98518,96,5829
116.4069,39.98518,97,5829
116.4069,39.98518,98,5829
116.4449,39.96172,99,5829
116.4303,39.96797,100,5829
116.4587,40.00717,101,5829
116.46575,40.00998,102,5829
116.46202,39.99307,103,5829
116.46475,39.99108,104,5829
116.46727,39.98893,105,5829
116.46608,39.97382,106,5829
116.45245,39.95423,107,5829
116.4462,39.96152,108,5829
116.44335,39.95402,109,5829
116.44327,39.94288,110,5829
116.45197,39.93218,111,5829
116.45448,39.91887,112,5829
116.44353,39.91695,113,5829
116.4481,39.92203,114,5829
116.448,39.95667,115,5829
116.42252,39.98777,116,5829
116.42252,39.98777,117,5829
116.40123,39.97427,118,5829
116.4017,39.95385,119,5829
116.3492,39.93863,120,5829
116.35362,39.92235,121,5829
116.37602,39.9316,122,5829
116.41305,39.93215,123,5829
116.42035,39.91535,124,5829
116.41945,39.91413,125,5829
116.43637,39.92112,126,5829
116.4443,39.91457,127,5829
116.4355,39.91635,128,5829
116.41193,39.90692,129,5829
116.41193,39.90692,130,5829
116.36158,39.90595,131,5829
116.3076,39.89585,132,5829
116.29885,39.88853,133,5829
116.3284,39.88845,134,5829
116.37498,39.88798,135,5829
116.41273,39.89222,136,5829
116.43042,39.9069,137,5829
116.4444,39.9131,138,5829
116.45228,39.92693,139,5829
116.45333,39.92757,140,5829
116.46667,39.93328,141,5829
116.4686,39.93677,142,5829
116.44705,39.9576,143,5829
116.44585,39.96127,144,5829
116.44585,39.96127,145,5829
116.45962,39.96662,146,5829
116.52762,40.02023,147,5829
116.5782,40.04597,148,5829
116.58252,40.07508,149,5829
116.58208,40.07413,150,5829
116.53897,40.0244,151,5829
116.45987,39.96697,152,5829
116.44792,39.96288,153,5829
116.46183,39.9686,154,5829
116.54385,40.02595,155,5829
116.57967,40.04697,156,5829
116.58343,40.06152,157,5829
116.58662,40.07693,158,5829
116.58543,40.07988,159,5829
116.57195,40.03998,160,5829
116.48628,39.99082,161,5829
116.44718,39.96262,162,5829
116.44808,39.96288,163,5829
116.4538,39.95305,164,5829
116.45405,39.95332,165,5829
116.44752,39.96278,166,5829
116.44837,39.9629,167,5829
116.45222,39.95343,168,5829
116.46565,39.96487,169,5829
116.48447,39.97075,170,5829
116.48528,39.97068,171,5829
116.4626,39.96117,172,5829
116.4453,39.96063,173,5829
116.45052,39.9542,174,5829
116.45533,39.9501,175,5829
116.45525,39.92057,176,5829
116.46838,39.92975,177,5829
116.48412,39.94012,178,5829
116.47143,39.9657,179,5829
116.47287,39.97833,180,5829
116.48822,39.99348,181,5829
116.5062,40.0107,182,5829
116.49248,40.0014,183,5829
116.4864,40.00688,184,5829
116.46678,40.01255,185,5829
116.46665,40.01202,186,5829
116.46675,40.01182,187,5829
116.46702,39.98937,188,5829
116.47122,39.98645,189,5829
116.4721,40.00637,190,5829
116.47265,40.00205,191,5829
116.46142,40.0088,192,5829
116.4566,39.99977,193,5829
116.4282,39.988,194,5829
116.36683,39.98635,195,5829
116.36683,39.98635,196,5829
116.36428,39.96192,197,5829
116.35425,39.95127,198,5829
116.3654,39.95012,199,5829
116.366,39.94637,200,5829
116.36672,39.93153,201,5829
116.36733,39.91932,202,5829
116.36752,39.91322,203,5829
116.3671,39.90757,204,5829
116.3483,39.89708,205,5829
116.3412,39.8567,206,5829
116.34095,39.78433,207,5829
116.33918,39.82035,208,5829
116.34387,39.84318,209,5829
116.36085,39.85402,210,5829
116.39348,39.8542,211,5829
116.3943,39.8416,212,5829
116.39545,39.85533,213,5829
116.4069,39.85547,214,5829
116.40678,39.86387,215,5829
116.41525,39.8641,216,5829
116.4127,39.89087,217,5829
116.41243,39.89275,218,5829
116.41445,39.86907,219,5829
116.43023,39.86457,220,5829
116.42468,39.8646,221,5829
116.42713,39.86945,222,5829
116.42713,39.86945,223,5829
116.43013,39.90228,224,5829
116.43428,39.92268,225,5829
116.43473,39.91447,226,5829
116.43758,39.9073,227,5829
116.45012,39.90678,228,5829
116.46105,39.9067,229,5829
116.48357,39.90313,230,5829
116.47177,39.9025,231,5829
116.4678,39.89933,232,5829
116.45727,39.9068,233,5829
116.47147,39.89915,234,5829
116.4716,39.88927,235,5829
116.47175,39.90365,236,5829
116.4724,39.91418,237,5829
116.4899,39.92153,238,5829
116.49535,39.92188,239,5829
116.46418,39.922,240,5829
116.44808,39.9582,241,5829
116.44808,39.9582,242,5829
116.42863,39.95672,243,5829
116.43708,39.96345,244,5829
116.43875,39.95978,245,5829
116.42297,39.9485,246,5829
116.3542,39.94373,247,5829
116.34707,39.91262,248,5829
116.32785,39.90973,249,5829
116.31518,39.90435,250,5829
116.31483,39.90862,251,5829
116.31415,39.89565,252,5829
116.31487,39.90703,253,5829
116.336,39.91265,254,5829
116.36737,39.9131,255,5829
116.28298,39.91162,256,5829
116.2786,39.92193,257,5829
116.31623,39.92207,258,5829
116.29388,39.92262,259,5829
116.31598,39.9224,260,5829
116.2889,39.94617,261,5829
116.30647,39.9225,262,5829
116.30647,39.9225,263,5829
116.31967,39.93702,264,5829
116.33453,39.94652,265,5829
116.3294,39.93705,266,5829
116.31147,39.93838,267,5829
116.29267,39.95027,268,5829
116.27602,39.94535,269,5829
116.26247,39.89895,270,5829
116.31483,39.90667,271,5829
116.3242,39.88857,272,5829
116.35377,39.86292,273,5829
116.3539,39.8645,274,5829
116.3306,39.87028,275,5829
116.26865,39.884,276,5829
116.29543,39.9309,277,5829
116.29688,39.93627,278,5829
116.30998,39.931,279,5829
116.33197,39.93668,280,5829
116.35122,39.93908,281,5829
116.36393,39.96685,282,5829
116.3673,39.97582,283,5829
116.36308,39.97542,284,5829
116.3369,39.97513,285,5829
116.3308,39.97562,286,5829
116.32107,39.98958,287,5829
116.32107,39.98958,288,5829
116.32107,39.98958,289,5829
116.32107,39.98958,290,5829
116.55155,40.07697,291,5829
116.55155,40.07697,292,5829
116.53432,40.05272,293,5829
116.50935,40.01305,294,5829
116.49257,40.00575,295,5829
116.47253,40.00467,296,5829
116.48212,39.98785,297,5829
116.43162,39.92332,298,5829
116.4398,39.92118,299,5829
116.43483,39.89775,300,5829
116.44607,39.87623,301,5829
116.4499,39.88313,302,5829
116.45198,39.89582,303,5829
116.42955,39.90867,304,5829
116.41585,39.9481,305,5829
116.34412,39.95678,306,5829
116.33525,39.96085,307,5829
116.35292,39.95628,308,5829
116.35878,39.9503,309,5829
116.34947,39.94937,310,5829
116.35393,39.93925,311,5829
116.3651,39.93928,312,5829
116.37365,39.94722,313,5829
116.3698,39.99267,314,5829
116.3685,40.01432,315,5829
116.38192,39.98388,316,5829
116.3965,39.9672,317,5829
116.3965,39.9672,318,5829
116.43157,39.96708,319,5829
116.44625,39.96182,320,5829
116.44767,39.96268,321,5829
116.43362,39.96607,322,5829
116.39578,39.9724,323,5829
116.40115,39.97797,324,5829
116.58233,40.07555,325,5829
116.5483,40.0275,326,5829
116.47212,39.97807,327,5829
116.47212,39.97807,328,5829
116.44533,39.96107,329,5829
116.43343,39.95297,330,5829
116.4336,39.95757,331,5829
116.444,39.95902,332,5829
116.44683,39.95735,333,5829
116.45538,39.92623,334,5829
116.45517,39.89032,335,5829
116.43898,39.86017,336,5829
116.43302,39.86448,337,5829
116.42868,39.86457,338,5829
116.43063,39.86095,339,5829
116.43243,39.85815,340,5829
116.44245,39.85768,341,5829
116.45527,39.87918,342,5829
116.4554,39.89113,343,5829
116.45608,39.89932,344,5829
116.43837,39.90708,345,5829
116.42092,39.90503,346,5829
116.43345,39.90697,347,5829
116.43487,39.90562,348,5829
116.45605,39.89262,349,5829
116.47057,39.89187,350,5829
116.47158,39.90658,351,5829
116.47158,39.90658,352,5829
116.45587,39.92142,353,5829
116.43592,39.96458,354,5829
116.36963,39.9667,355,5829
116.36963,39.9667,356,5829
116.33727,39.9751,357,5829
116.35643,39.97525,358,5829
116.37278,39.96653,359,5829
116.4051,39.96737,360,5829
116.41172,39.96825,361,5829
116.42478,39.9836,362,5829
116.44507,39.97298,363,5829
116.445,39.9603,364,5829
116.45552,39.92867,365,5829
116.48905,39.90672,366,5829
116.57487,39.90903,367,5829
116.62862,39.90532,368,5829
116.60097,39.9081,369,5829
116.58015,39.91253,370,5829
116.5752,39.90583,371,5829
116.54777,39.90838,372,5829
116.5236,39.90695,373,5829
116.49643,39.90697,374,5829
116.46982,39.91232,375,5829
116.44437,39.91617,376,5829
116.44437,39.91848,377,5829
116.46517,39.91465,378,5829
116.44215,39.90725,379,5829
116.42132,39.89927,380,5829
116.42132,39.89927,381,5829
116.41152,39.89572,382,5829
116.41245,39.89532,383,5829
116.41527,39.86723,384,5829
116.43242,39.85772,385,5829
116.42982,39.87805,386,5829
116.41473,39.87938,387,5829
116.42598,39.85643,388,5829
116.43217,39.85735,389,5829
116.45507,39.86955,390,5829
116.45552,39.88915,391,5829
116.4567,39.8994,392,5829
116.44447,39.91483,393,5829
116.44428,39.93198,394,5829
116.44428,39.93198,395,5829
116.44923,39.94677,396,5829
116.46473,39.97068,397,5829
116.48737,39.99265,398,5829
116.49627,40.0079,399,5829
116.5114,40.01537,400,5829
116.54053,40.05667,401,5829
116.55478,40.10103,402,5829
116.5288,40.0959,403,5829
116.5982,40.14692,404,5829
116.6362,40.20337,405,5829
116.63162,40.2652,406,5829
116.65028,40.31655,407,5829
116.73465,40.32918,408,5829
116.74405,40.33665,409,5829
116.76778,40.38652,410,5829
116.79517,40.38968,411,5829
116.79427,40.38993,412,5829
116.79417,40.38992,413,5829
116.79412,40.39002,414,5829
116.79417,40.3899,415,5829
116.7846,40.38338,416,5829
116.79455,40.38982,417,5829
116.81202,40.3779,418,5829
116.78458,40.38327,419,5829
116.7942,40.38987,420,5829
116.78462,40.38317,421,5829
116.78332,40.38935,422,5829
116.79447,40.38987,423,5829
116.78385,40.38818,424,5829
116.76922,40.38652,425,5829
116.73622,40.38565,426,5829
116.78387,40.38828,427,5829
116.78392,40.38852,428,5829
116.79007,40.38618,429,5829
116.79007,40.38618,430,5829
116.86352,40.37568,431,5829
116.93553,40.40952,432,5829
117.0003,40.4377,433,5829
117.04858,40.4892,434,5829
117.1037,40.52782,435,5829
117.14727,40.56992,436,5829
117.19468,40.57902,437,5829
117.20815,40.57833,438,5829
117.20778,40.57817,439,5829
