x,y,k,tid
116.32765,39.96627,0,6378
116.31196,39.97404,1,6378
116.30772,39.9804,2,6378
116.32632,39.9846,3,6378
116.37326,39.98173,4,6378
116.30069,39.90644,5,6378
116.289,39.90768,6,6378
116.29125,39.92819,7,6378
116.27465,39.9559,8,6378
116.24942,39.98059,9,6378
116.24715,39.98342,10,6378
116.24713,39.98343,11,6378
116.24713,39.98343,12,6378
116.24713,39.98343,13,6378
116.2214,39.98986,14,6378
116.2214,39.98986,15,6378
116.2214,39.98986,16,6378
116.2214,39.98986,17,6378
116.2214,39.98986,18,6378
116.2214,39.98986,19,6378
116.2214,39.98986,20,6378
116.2214,39.98986,21,6378
116.2214,39.98986,22,6378
116.2214,39.98986,23,6378
116.2214,39.98986,24,6378
116.2214,39.98986,25,6378
116.2214,39.98986,26,6378
116.2214,39.98986,27,6378
116.2214,39.98986,28,6378
116.2214,39.98986,29,6378
116.2214,39.98986,30,6378
116.2214,39.98986,31,6378
116.21858,39.99445,32,6378
116.25077,40.00476,33,6378
116.28312,39.99956,34,6378
116.29831,39.99477,35,6378
116.2994,39.98419,36,6378
116.31446,39.96712,37,6378
116.34111,39.96604,38,6378
116.33974,39.96221,39,6378
116.34028,39.96593,40,6378
116.34595,39.96648,41,6378
116.3176,39.96597,42,6378
116.30455,39.96222,43,6378
116.30098,39.96052,44,6378
116.28228,39.9569,45,6378
116.29624,39.95847,46,6378
116.29958,39.95968,47,6378
116.30428,39.96161,48,6378
116.34703,39.9663,49,6378
116.36389,39.97362,50,6378
116.35242,39.97538,51,6378
116.32931,39.97526,52,6378
116.31961,39.97497,53,6378
116.30795,39.97038,54,6378
116.29976,39.98092,55,6378
116.29932,39.98673,56,6378
116.312,40.0049,57,6378
116.30836,40.01872,58,6378
116.29873,40.03874,59,6378
116.27724,40.05437,60,6378
116.26751,40.06701,61,6378
116.26009,40.08062,62,6378
116.22504,40.06829,63,6378
116.23457,40.05696,64,6378
116.23697,40.04461,65,6378
116.25827,40.0369,66,6378
116.27207,40.0247,67,6378
116.28453,40.02228,68,6378
116.30402,40.02459,69,6378
116.31793,40.01193,70,6378
116.31793,40.01193,71,6378
116.33105,39.99745,72,6378
116.3384,39.98493,73,6378
116.34636,39.98522,74,6378
116.34939,39.94984,75,6378
116.34939,39.94984,76,6378
116.34944,39.93399,77,6378
116.34985,39.92138,78,6378
116.35303,39.9127,79,6378
116.3662,39.91237,80,6378
116.35801,39.91277,81,6378
116.34719,39.91262,82,6378
116.32856,39.92097,83,6378
116.3271,39.93131,84,6378
116.31942,39.93956,85,6378
116.32853,39.95085,86,6378
116.32853,39.95085,87,6378
116.32853,39.95085,88,6378
116.33048,39.96645,89,6378
116.32986,39.96785,90,6378
116.32986,39.96785,91,6378
116.32986,39.96785,92,6378
116.32981,39.96775,93,6378
116.32502,39.9664,94,6378
116.31504,39.97154,95,6378
116.298,39.95929,96,6378
116.298,39.95929,97,6378
116.29237,39.97308,98,6378
116.30941,39.97486,99,6378
116.29594,39.97358,100,6378
116.30236,39.95816,101,6378
116.30303,39.95519,102,6378
116.30328,39.95175,103,6378
116.30403,39.91754,104,6378
116.30416,39.8949,105,6378
116.30474,39.88002,106,6378
116.33823,39.84798,107,6378
116.37458,39.85156,108,6378
116.3763,39.85086,109,6378
116.35894,39.85379,110,6378
116.33182,39.84621,111,6378
116.3282,39.84792,112,6378
116.31325,39.8541,113,6378
116.30455,39.90152,114,6378
116.30454,39.91122,115,6378
116.34016,39.93103,116,6378
116.37289,39.9315,117,6378
116.41132,39.91407,118,6378
116.42939,39.90835,119,6378
116.46256,39.90678,120,6378
116.47215,39.90967,121,6378
116.45602,39.91165,122,6378
116.45588,39.93195,123,6378
116.42427,39.9682,124,6378
116.42427,39.9682,125,6378
116.36428,39.96682,126,6378
116.31758,39.96593,127,6378
116.28389,39.95639,128,6378
116.25653,39.97216,129,6378
116.22005,39.98716,130,6378
116.20499,39.99252,131,6378
116.22137,39.98993,132,6378
116.22135,39.99003,133,6378
116.22134,39.99001,134,6378
116.22134,39.99001,135,6378
116.22134,39.99001,136,6378
116.22134,39.99001,137,6378
116.22134,39.99001,138,6378
116.22134,39.99001,139,6378
116.22134,39.99001,140,6378
116.22134,39.99001,141,6378
116.22134,39.99001,142,6378
116.22134,39.99001,143,6378
116.22134,39.99001,144,6378
116.22133,39.9901,145,6378
116.21718,39.98931,146,6378
116.20203,39.97288,147,6378
116.2034,39.96623,148,6378
116.2034,39.96623,149,6378
116.20335,39.9662,150,6378
116.21153,39.99236,151,6378
116.20464,39.90627,152,6378
116.22857,39.90612,153,6378
116.247,39.90624,154,6378
116.24695,39.92569,155,6378
116.26577,39.92756,156,6378
116.26518,39.92758,157,6378
116.27432,39.94531,158,6378
116.34397,39.93836,159,6378
116.34947,39.949,160,6378
116.34573,39.94,161,6378
116.32901,39.91699,162,6378
116.32919,39.90406,163,6378
116.3295,39.89609,164,6378
116.30125,39.88994,165,6378
116.30451,39.88588,166,6378
116.30715,39.89546,167,6378
116.30715,39.89546,168,6378
116.29605,39.90235,169,6378
116.29605,39.90235,170,6378
116.28489,39.91171,171,6378
116.30405,39.9044,172,6378
116.30416,39.89446,173,6378
116.30429,39.88359,174,6378
116.30751,39.88475,175,6378
116.31048,39.88599,176,6378
116.31439,39.88286,177,6378
116.30439,39.89964,178,6378
116.30423,39.91997,179,6378
116.29374,39.94479,180,6378
116.28133,39.95667,181,6378
116.3127,39.96478,182,6378
116.3237,39.96637,183,6378
116.31595,39.96604,184,6378
116.30974,39.96412,185,6378
116.30391,39.9343,186,6378
116.30405,39.9191,187,6378
116.30416,39.90022,188,6378
116.31027,39.88581,189,6378
116.31152,39.877,190,6378
116.31026,39.86677,191,6378
116.30623,39.87019,192,6378
116.30595,39.87228,193,6378
116.3058,39.87374,194,6378
116.30558,39.87559,195,6378
116.30541,39.87777,196,6378
116.30496,39.87796,197,6378
116.31023,39.85698,198,6378
116.3251,39.85745,199,6378
116.3275,39.85608,200,6378
116.31858,39.85743,201,6378
116.30841,39.86471,202,6378
116.30893,39.86523,203,6378
116.30441,39.8671,204,6378
116.27701,39.86272,205,6378
116.27701,39.86272,206,6378
116.27735,39.84781,207,6378
116.27986,39.83494,208,6378
116.27911,39.83121,209,6378
116.28072,39.83837,210,6378
116.27785,39.84968,211,6378
116.27753,39.86037,212,6378
116.27161,39.87705,213,6378
116.26975,39.89525,214,6378
116.26123,39.89903,215,6378
116.25867,39.90566,216,6378
116.25871,39.91542,217,6378
116.25865,39.92257,218,6378
116.26987,39.9236,219,6378
116.28585,39.9462,220,6378
116.30392,39.9459,221,6378
116.33733,39.96622,222,6378
116.37799,39.96677,223,6378
116.41123,39.96749,224,6378
116.41775,39.97403,225,6378
116.42463,39.98077,226,6378
116.43767,39.98596,227,6378
116.46122,40.01366,228,6378
116.46103,40.01718,229,6378
116.46091,40.02013,230,6378
116.46153,39.99951,231,6378
116.46057,39.98639,232,6378
116.44905,39.97989,233,6378
116.44182,39.97194,234,6378
116.44235,39.96332,235,6378
116.44919,39.95567,236,6378
116.45546,39.93911,237,6378
116.44502,39.93245,238,6378
116.42735,39.93281,239,6378
116.40362,39.93208,240,6378
116.38219,39.93201,241,6378
116.37322,39.93778,242,6378
116.37722,39.94998,243,6378
116.3874,39.95178,244,6378
116.37715,39.95,245,6378
116.37782,39.96144,246,6378
116.37564,39.96144,247,6378
116.36514,39.96694,248,6378
116.37038,39.97535,249,6378
116.37409,39.96811,250,6378
116.37831,39.9616,251,6378
116.36813,39.96686,252,6378
116.34499,39.96648,253,6378
116.32927,39.96632,254,6378
116.30346,39.94863,255,6378
116.30373,39.93311,256,6378
116.30405,39.92012,257,6378
116.30407,39.90828,258,6378
116.30406,39.89233,259,6378
116.28217,39.87726,260,6378
116.28425,39.83526,261,6378
116.28394,39.83115,262,6378
116.28013,39.84044,263,6378
116.27744,39.86029,264,6378
116.26809,39.88902,265,6378
116.26902,39.93103,266,6378
116.28821,39.94637,267,6378
116.33165,39.93687,268,6378
116.343,39.94661,269,6378
116.34489,39.95666,270,6378
116.34892,39.94019,271,6378
116.34892,39.94019,272,6378
116.3511,39.93926,273,6378
116.351,39.93961,274,6378
116.351,39.93961,275,6378
116.33934,39.94444,276,6378
116.32859,39.96246,277,6378
116.32779,39.96642,278,6378
116.30371,39.9464,279,6378
116.34281,39.93825,280,6378
116.34271,39.93884,281,6378
116.31956,39.9387,282,6378
116.31739,39.95528,283,6378
116.31035,39.96435,284,6378
116.2948,39.97761,285,6378
116.31002,39.98818,286,6378
116.33119,39.99158,287,6378
116.35038,39.98543,288,6378
116.40205,39.98685,289,6378
116.39997,39.99733,290,6378
116.40714,39.98743,291,6378
116.414,39.98198,292,6378
116.4186,39.96824,293,6378
116.41911,39.94801,294,6378
116.42272,39.9387,295,6378
116.41043,39.94743,296,6378
116.45945,39.96635,297,6378
116.45135,39.98747,298,6378
116.45497,39.98537,299,6378
116.44571,39.97616,300,6378
116.44571,39.97616,301,6378
116.43036,39.96818,302,6378
116.4303,39.96815,303,6378
116.39186,39.96732,304,6378
116.33641,39.96637,305,6378
116.32846,39.96095,306,6378
116.33398,39.94688,307,6378
116.32818,39.96572,308,6378
116.31067,39.96429,309,6378
116.29743,39.95914,310,6378
116.29332,39.95833,311,6378
116.26917,39.96233,312,6378
116.26301,39.95284,313,6378
116.25326,39.94548,314,6378
116.26924,39.95159,315,6378
116.26924,39.95159,316,6378
116.26749,39.90627,317,6378
116.24575,39.91046,318,6378
116.24698,39.92353,319,6378
116.26602,39.9273,320,6378
116.26852,39.91734,321,6378
116.26796,39.90611,322,6378
116.27742,39.90186,323,6378
116.27581,39.92325,324,6378
116.26013,39.94576,325,6378
116.23742,39.96219,326,6378
116.25463,39.97209,327,6378
116.2687,39.95991,328,6378
116.26877,39.95969,329,6378
116.26894,39.94979,330,6378
116.26857,39.93999,331,6378
116.26762,39.90987,332,6378
116.25857,39.8961,333,6378
116.25848,39.89501,334,6378
116.26148,39.91637,335,6378
116.26767,39.91334,336,6378
116.25873,39.91797,337,6378
116.266,39.92733,338,6378
116.25427,39.93113,339,6378
116.25139,39.93173,340,6378
116.25139,39.93173,341,6378
116.26841,39.92713,342,6378
116.26931,39.96096,343,6378
116.27102,39.94535,344,6378
116.29999,39.94237,345,6378
116.35012,39.9418,346,6378
116.41449,39.94797,347,6378
116.4373,39.93229,348,6378
116.45436,39.92185,349,6378
116.45511,39.9071,350,6378
116.44969,39.89462,351,6378
116.42198,39.89222,352,6378
116.36241,39.88801,353,6378
116.32253,39.88328,354,6378
116.38039,39.86921,355,6378
116.37798,39.86236,356,6378
116.35174,39.85193,357,6378
116.32331,39.84801,358,6378
116.30896,39.86697,359,6378
116.30511,39.89719,360,6378
116.296,39.91315,361,6378
116.30405,39.90433,362,6378
116.30405,39.90433,363,6378
116.28906,39.90319,364,6378
116.29579,39.91442,365,6378
116.28976,39.92306,366,6378
116.28983,39.92301,367,6378
116.28983,39.92301,368,6378
116.28978,39.92305,369,6378
116.28978,39.92305,370,6378
116.28978,39.92305,371,6378
116.28978,39.92305,372,6378
116.2818,39.92307,373,6378
116.26955,39.95075,374,6378
116.26955,39.95075,375,6378
116.24813,39.98208,376,6378
116.22189,39.99168,377,6378
116.22124,39.99028,378,6378
116.22124,39.99028,379,6378
116.2212,39.99025,380,6378
116.2212,39.99025,381,6378
116.2212,39.99025,382,6378
116.2212,39.99025,383,6378
116.2212,39.99025,384,6378
116.22118,39.9903,385,6378
116.23068,39.97788,386,6378
116.2072,39.97193,387,6378
116.20137,39.97187,388,6378
116.20368,39.9923,389,6378
116.22289,39.99606,390,6378
116.25074,40.00655,391,6378
116.26861,40.00181,392,6378
116.28949,39.9924,393,6378
116.30276,39.95635,394,6378
116.30108,39.92296,395,6378
116.29546,39.9306,396,6378
116.30438,39.93842,397,6378
116.34312,40.02784,398,6378
116.32751,40.04863,399,6378
116.32414,40.05474,400,6378
116.32414,40.05474,401,6378
116.33435,40.03816,402,6378
116.347,40.02033,403,6378
116.36808,39.99432,404,6378
116.38709,39.98192,405,6378
116.38845,39.96039,406,6378
116.38696,39.96728,407,6378
116.35982,39.96666,408,6378
116.35488,39.96666,409,6378
116.33565,39.96646,410,6378
116.30366,39.94481,411,6378
116.29103,39.95214,412,6378
116.30326,39.95166,413,6378
116.30123,39.92305,414,6378
116.30436,39.93054,415,6378
116.30331,39.94979,416,6378
116.29031,39.94725,417,6378
116.30383,39.94546,418,6378
116.34385,39.93833,419,6378
116.34645,39.93615,420,6378
116.33776,39.92902,421,6378
116.3311,39.92188,422,6378
116.32692,39.9313,423,6378
116.31963,39.93756,424,6378
116.31556,39.96517,425,6378
116.30898,39.97468,426,6378
116.3016,39.97771,427,6378
116.3098,39.97466,428,6378
116.30171,39.96127,429,6378
116.30171,39.96127,430,6378
116.30374,39.94503,431,6378
116.30404,39.91725,432,6378
116.30003,39.90625,433,6378
116.29108,39.90643,434,6378
116.29049,39.90627,435,6378
116.28898,39.90509,436,6378
116.27738,39.89913,437,6378
116.26951,39.90653,438,6378
116.26952,39.92746,439,6378
116.26932,39.94477,440,6378
116.26233,39.96868,441,6378
116.25564,39.97313,442,6378
116.26864,39.96293,443,6378
116.28633,39.94641,444,6378
116.33939,39.93735,445,6378
116.35352,39.93918,446,6378
116.34222,39.94885,447,6378
116.31752,39.96607,448,6378
116.30182,39.96352,449,6378
116.28097,39.97121,450,6378
116.24982,39.98014,451,6378
116.22188,39.99168,452,6378
116.22125,39.99019,453,6378
116.22127,39.99017,454,6378
116.22127,39.99017,455,6378
116.22127,39.99017,456,6378
116.22127,39.99017,457,6378
116.22127,39.99017,458,6378
116.22127,39.99017,459,6378
116.22127,39.99017,460,6378
116.22127,39.99017,461,6378
116.22127,39.99017,462,6378
116.22127,39.99017,463,6378
116.22127,39.99017,464,6378
116.22127,39.99017,465,6378
116.22127,39.99017,466,6378
116.22127,39.99017,467,6378
116.22127,39.99017,468,6378
116.22127,39.99017,469,6378
116.22127,39.99017,470,6378
116.22127,39.99017,471,6378
116.22127,39.99017,472,6378
116.22127,39.99017,473,6378
116.22073,39.99141,474,6378
116.23182,39.99835,475,6378
116.25875,40.00466,476,6378
116.28334,39.99779,477,6378
116.28926,39.99571,478,6378
116.29668,39.97122,479,6378
116.30392,39.93633,480,6378
116.30397,39.92309,481,6378
116.30408,39.91032,482,6378
116.30421,39.8886,483,6378
116.317,39.85002,484,6378
116.33937,39.82463,485,6378
116.33857,39.78135,486,6378
116.3321,39.75689,487,6378
116.33211,39.74795,488,6378
116.33434,39.76012,489,6378
116.34164,39.78587,490,6378
116.33981,39.83729,491,6378
116.3123,39.85509,492,6378
116.3052,39.87719,493,6378
116.30519,39.87734,494,6378
116.30577,39.89509,495,6378
116.30577,39.89509,496,6378
116.33533,39.89608,497,6378
116.33649,39.90157,498,6378
116.33331,39.90193,499,6378
116.32142,39.9062,500,6378
116.3108,39.90633,501,6378
116.3042,39.9253,502,6378
116.30258,39.95834,503,6378
116.31468,39.96529,504,6378
116.31879,39.9818,505,6378
116.32544,39.9751,506,6378
116.34632,39.96614,507,6378
116.31166,39.97425,508,6378
116.30872,39.98123,509,6378
116.31463,39.96667,510,6378
116.34326,39.96623,511,6378
116.35538,39.95284,512,6378
116.3506,39.95095,513,6378
116.34901,39.95773,514,6378
116.31362,39.97492,515,6378
116.30192,39.97778,516,6378
116.31323,39.97476,517,6378
116.37867,39.94999,518,6378
116.37438,39.96689,519,6378
116.31314,39.97078,520,6378
116.31884,39.979,521,6378
116.30599,39.979,522,6378
116.31915,39.97095,523,6378
116.3192,39.96611,524,6378
116.31729,39.96616,525,6378
116.31841,39.95555,526,6378
116.32475,39.95849,527,6378
116.32828,39.96488,528,6378
116.32572,39.96672,529,6378
116.35726,39.96637,530,6378
116.38605,39.9866,531,6378
116.45229,39.97706,532,6378
116.50301,40.00581,533,6378
116.57519,40.04337,534,6378
116.58664,40.07891,535,6378
116.57943,40.04753,536,6378
116.51927,40.01737,537,6378
116.44204,39.96083,538,6378
116.43154,39.96713,539,6378
116.42202,39.96846,540,6378
116.42202,39.96846,541,6378
116.41094,39.98822,542,6378
116.41157,40.0213,543,6378
116.40684,40.04624,544,6378
116.42253,40.06493,545,6378
116.43213,40.06715,546,6378
116.41096,40.06032,547,6378
116.40332,40.02779,548,6378
116.40344,40.0079,549,6378
116.40128,39.99262,550,6378
116.43609,39.98623,551,6378
116.45966,39.98693,552,6378
116.47395,40.00073,553,6378
116.45149,39.98323,554,6378
116.45149,39.98323,555,6378
116.44555,39.97601,556,6378
116.40035,39.96769,557,6378
116.33527,39.96643,558,6378
116.31068,39.96433,559,6378
116.31077,39.96431,560,6378
116.31077,39.96431,561,6378
116.31052,39.96426,562,6378
116.29581,39.95858,563,6378
116.22135,39.98992,564,6378
116.22135,39.98992,565,6378
116.22135,39.98992,566,6378
116.22135,39.98992,567,6378
116.22135,39.98992,568,6378
116.22135,39.98992,569,6378
116.22135,39.98992,570,6378
116.22135,39.98992,571,6378
116.22135,39.98992,572,6378
116.22135,39.98992,573,6378
116.22135,39.98992,574,6378
116.22135,39.98992,575,6378
116.22135,39.98992,576,6378
116.22135,39.98992,577,6378
116.22135,39.98992,578,6378
116.22135,39.98992,579,6378
116.22135,39.98992,580,6378
116.22135,39.98992,581,6378
116.22135,39.98992,582,6378
116.22135,39.98992,583,6378
116.22135,39.98992,584,6378
116.22135,39.98992,585,6378
116.21919,39.99144,586,6378
116.23146,39.97605,587,6378
116.20205,39.97286,588,6378
116.20384,39.99173,589,6378
116.30002,39.92255,590,6378
116.31464,39.90605,591,6378
116.30697,39.89601,592,6378
116.30583,39.89501,593,6378
116.36871,39.94725,594,6378
116.36951,39.96731,595,6378
116.36719,39.96648,596,6378
116.42237,39.96795,597,6378
116.45551,39.94241,598,6378
116.46038,39.90683,599,6378
116.47185,39.9083,600,6378
116.47159,39.90726,601,6378
116.4715,39.89985,602,6378
116.46785,39.88313,603,6378
116.43783,39.89627,604,6378
116.42642,39.90721,605,6378
116.40531,39.90849,606,6378
116.40047,39.91449,607,6378
116.40047,39.91449,608,6378
116.39966,39.93176,609,6378
116.3866,39.92182,610,6378
116.37582,39.90921,611,6378
116.37754,39.90378,612,6378
116.3782,39.8948,613,6378
116.38126,39.87887,614,6378
116.38061,39.8602,615,6378
116.3806,39.84811,616,6378
116.36674,39.8493,617,6378
116.36786,39.86428,618,6378
116.40674,39.87071,619,6378
116.41468,39.88203,620,6378
116.41207,39.89573,621,6378
116.39606,39.89084,622,6378
116.38013,39.88826,623,6378
116.34699,39.8908,624,6378
116.34648,39.90437,625,6378
116.34684,39.91206,626,6378
116.33553,39.91271,627,6378
116.33553,39.91271,628,6378
116.3291,39.91274,629,6378
116.3096,39.90991,630,6378
116.29189,39.92289,631,6378
116.26964,39.92554,632,6378
116.26286,39.94581,633,6378
116.23937,39.95786,634,6378
116.23767,39.94687,635,6378
116.24517,39.94597,636,6378
116.26783,39.93689,637,6378
116.26929,39.94488,638,6378
116.26866,39.95981,639,6378
116.26862,39.95985,640,6378
116.26816,39.94631,641,6378
116.27978,39.94832,642,6378
116.28056,39.95631,643,6378
116.27782,39.96192,644,6378
116.27446,39.97124,645,6378
116.31593,39.98408,646,6378
116.31444,39.98461,647,6378
116.29503,39.98424,648,6378
116.28555,39.98402,649,6378
116.26449,39.96876,650,6378
116.22345,39.97194,651,6378
116.20336,39.96631,652,6378
116.20343,39.96641,653,6378
116.20343,39.96641,654,6378
116.20343,39.96641,655,6378
116.21295,39.97181,656,6378
116.25528,39.97208,657,6378
116.26867,39.96368,658,6378
116.28158,39.95916,659,6378
116.26903,39.95922,660,6378
116.26426,39.92766,661,6378
116.24509,39.92824,662,6378
116.22422,39.93095,663,6378
116.23778,39.92835,664,6378
116.25845,39.92774,665,6378
116.26827,39.93979,666,6378
116.29072,39.98302,667,6378
116.41685,39.98744,668,6378
116.41685,39.98744,669,6378
116.47297,39.9636,670,6378
116.48347,39.93272,671,6378
116.49787,39.93023,672,6378
116.49629,39.93036,673,6378
116.48571,39.93255,674,6378
116.47557,39.96208,675,6378
116.4502,39.9789,676,6378
116.42671,39.98802,677,6378
116.39166,39.9869,678,6378
116.36295,39.99204,679,6378
116.34673,39.99774,680,6378
116.32718,39.99443,681,6378
116.31029,39.98283,682,6378
116.3141,39.96777,683,6378
116.32938,39.96604,684,6378
116.36817,39.96657,685,6378
116.39634,39.966,686,6378
116.39624,39.96602,687,6378
116.39122,39.96189,688,6378
116.3785,39.96699,689,6378
116.3785,39.96699,690,6378
116.32557,39.96627,691,6378
116.3025,39.95595,692,6378
116.30142,39.94219,693,6378
116.30371,39.93131,694,6378
116.30371,39.93131,695,6378
116.31342,39.93104,696,6378
116.30416,39.94571,697,6378
116.30416,39.94574,698,6378
116.30408,39.94585,699,6378
116.30425,39.94969,700,6378
116.31779,39.94954,701,6378
116.32411,39.93693,702,6378
116.31968,39.93716,703,6378
116.31559,39.96509,704,6378
116.31303,39.97088,705,6378
116.31066,39.96441,706,6378
116.3105,39.96436,707,6378
116.31052,39.96433,708,6378
116.31052,39.96433,709,6378
116.30289,39.96155,710,6378
116.31119,39.95532,711,6378
116.31113,39.95246,712,6378
116.31075,39.96445,713,6378
116.31063,39.96441,714,6378
116.31088,39.96446,715,6378
116.31088,39.96446,716,6378
116.3105,39.96437,717,6378
116.31045,39.96427,718,6378
116.3105,39.96426,719,6378
116.31036,39.96431,720,6378
116.31038,39.96418,721,6378
116.31038,39.96418,722,6378
116.31038,39.96418,723,6378
116.31038,39.96418,724,6378
116.31038,39.96418,725,6378
116.31038,39.96418,726,6378
116.31038,39.96418,727,6378
116.30146,39.96551,728,6378
116.29145,39.96474,729,6378
116.28843,39.9569,730,6378
116.26979,39.94555,731,6378
116.26763,39.93613,732,6378
116.27053,39.94544,733,6378
116.31682,39.93769,734,6378
116.3549,39.9392,735,6378
116.36174,39.93136,736,6378
116.35417,39.92249,737,6378
116.33947,39.92694,738,6378
116.31554,39.94512,739,6378
116.31107,39.95176,740,6378
116.29768,39.95606,741,6378
116.304,39.93061,742,6378
116.30444,39.93838,743,6378
116.27877,39.94858,744,6378
116.26916,39.95724,745,6378
116.28792,39.9177,746,6378
116.27743,39.91255,747,6378
116.26663,39.92472,748,6378
116.26934,39.94463,749,6378
116.29005,39.94867,750,6378
116.29005,39.94867,751,6378
116.26872,39.95993,752,6378
116.26872,39.9599,753,6378
116.26868,39.9599,754,6378
116.26871,39.95981,755,6378
116.26767,39.92247,756,6378
116.30219,39.92251,757,6378
116.26863,39.94138,758,6378
116.26871,39.95993,759,6378
116.26872,39.95987,760,6378
116.26869,39.95985,761,6378
116.2752,39.94528,762,6378
116.2957,39.93618,763,6378
116.27184,39.93148,764,6378
116.26291,39.94579,765,6378
116.20092,39.97606,766,6378
116.19912,39.984,767,6378
116.20128,39.96636,768,6378
116.20315,39.96621,769,6378
116.20303,39.96624,770,6378
116.20303,39.96624,771,6378
116.20303,39.96624,772,6378
116.20303,39.96624,773,6378
116.20303,39.96624,774,6378
116.20303,39.96624,775,6378
116.20303,39.96624,776,6378
116.20303,39.96624,777,6378
116.20303,39.96624,778,6378
116.20303,39.96624,779,6378
116.20303,39.96624,780,6378
116.20303,39.96624,781,6378
116.20303,39.96624,782,6378
116.20303,39.96624,783,6378
116.20303,39.96624,784,6378
116.20303,39.96624,785,6378
116.20303,39.96624,786,6378
116.20303,39.96624,787,6378
116.20303,39.96624,788,6378
116.20303,39.96624,789,6378
116.20303,39.96624,790,6378
116.20303,39.96624,791,6378
116.21418,39.97183,792,6378
116.22801,39.97184,793,6378
116.21788,39.99141,794,6378
116.22122,39.99028,795,6378
116.22469,39.98331,796,6378
116.2185,39.97194,797,6378
116.20195,39.97279,798,6378
116.20143,39.97135,799,6378
116.20397,39.99265,800,6378
116.21278,39.99218,801,6378
116.22235,39.99043,802,6378
116.21696,39.99295,803,6378
116.24198,40.00189,804,6378
116.24198,40.00189,805,6378
116.25073,40.00655,806,6378
116.26577,40.00419,807,6378
116.29331,39.98794,808,6378
116.31082,39.97579,809,6378
116.31899,39.97466,810,6378
116.31732,39.954,811,6378
116.3196,39.92834,812,6378
116.3285,39.91004,813,6378
116.34648,39.90369,814,6378
116.34006,39.91273,815,6378
116.32196,39.93134,816,6378
116.3439,39.94288,817,6378
116.3433,39.94545,818,6378
116.33054,39.95641,819,6378
116.31916,39.96607,820,6378
116.34999,39.94614,821,6378
116.35642,39.90581,822,6378
116.38919,39.90608,823,6378
116.42058,39.90424,824,6378
116.39395,39.89897,825,6378
116.37817,39.89883,826,6378
116.36831,39.9097,827,6378
116.36831,39.9097,828,6378
116.35831,39.91733,829,6378
116.34703,39.92536,830,6378
116.32741,39.93114,831,6378
116.31831,39.94771,832,6378
116.31114,39.95417,833,6378
116.32842,39.95625,834,6378
116.31942,39.96651,835,6378
116.31916,39.97295,836,6378
116.3188,39.9799,837,6378
116.3473,39.98793,838,6378
116.30909,39.97954,839,6378
116.31896,39.97578,840,6378
116.34955,39.97512,841,6378
116.37571,39.97541,842,6378
116.37617,39.97557,843,6378
116.36001,39.97538,844,6378
116.34783,39.98011,845,6378
116.27181,39.97043,846,6378
116.26908,39.92647,847,6378
116.27142,39.87484,848,6378
116.19,39.85147,849,6378
116.16927,39.85936,850,6378
116.18958,39.8516,851,6378
116.21513,39.98084,852,6378
116.22283,39.99055,853,6378
116.22282,39.99048,854,6378
116.22282,39.99048,855,6378
116.22282,39.99048,856,6378
116.22282,39.99048,857,6378
116.22282,39.99048,858,6378
116.22282,39.99048,859,6378
116.22282,39.99048,860,6378
116.22282,39.99048,861,6378
116.22282,39.99048,862,6378
116.22282,39.99048,863,6378
116.22282,39.99048,864,6378
116.22282,39.99048,865,6378
116.22282,39.99048,866,6378
116.22282,39.99048,867,6378
116.22282,39.99048,868,6378
116.22282,39.99048,869,6378
116.22282,39.99048,870,6378
116.22282,39.99048,871,6378
116.22282,39.99048,872,6378
116.22282,39.99048,873,6378
116.22282,39.99048,874,6378
116.2228,39.99059,875,6378
116.23064,39.99177,876,6378
116.2516,39.98186,877,6378
116.26381,39.98034,878,6378
116.30225,39.97436,879,6378
116.31047,39.97947,880,6378
116.33048,39.98153,881,6378
116.32215,39.97962,882,6378
116.32215,39.97962,883,6378
116.31698,39.97961,884,6378
116.33351,39.97501,885,6378
116.35461,39.98031,886,6378
116.36353,39.97558,887,6378
116.36948,39.96576,888,6378
116.37473,39.96627,889,6378
116.35193,39.96656,890,6378
116.33452,39.96656,891,6378
116.31924,39.97048,892,6378
116.33379,39.97496,893,6378
116.33973,39.97515,894,6378
116.29466,39.98418,895,6378
116.29921,39.98281,896,6378
116.29551,39.97036,897,6378
116.28681,39.95689,898,6378
116.28225,39.95484,899,6378
116.27736,39.94012,900,6378
116.27736,39.94012,901,6378
116.26998,39.93632,902,6378
116.28097,39.97532,903,6378
116.31023,39.9846,904,6378
116.31041,40.01655,905,6378
116.3091,40.03611,906,6378
116.32188,40.03915,907,6378
116.3303,40.0348,908,6378
116.33054,40.0345,909,6378
116.33682,40.02938,910,6378
116.34605,40.00299,911,6378
116.34685,39.98731,912,6378
116.32504,39.97966,913,6378
116.3189,39.97985,914,6378
116.30656,39.98432,915,6378
116.25458,39.97453,916,6378
116.23617,39.99199,917,6378
116.22004,39.9914,918,6378
116.22127,39.9901,919,6378
116.22122,39.99001,920,6378
116.22122,39.99001,921,6378
116.22122,39.99001,922,6378
116.22122,39.99001,923,6378
116.22122,39.99001,924,6378
116.22122,39.99001,925,6378
116.22122,39.99001,926,6378
116.22122,39.99001,927,6378
116.22122,39.99001,928,6378
116.22122,39.99001,929,6378
116.22122,39.99001,930,6378
116.22122,39.99001,931,6378
116.22122,39.99001,932,6378
116.22122,39.99001,933,6378
116.22122,39.99001,934,6378
116.22122,39.99001,935,6378
116.22122,39.99001,936,6378
116.22122,39.99001,937,6378
116.22122,39.99001,938,6378
116.22122,39.99001,939,6378
116.22122,39.99001,940,6378
116.22122,39.99001,941,6378
116.22122,39.99001,942,6378
116.22122,39.99001,943,6378
116.22122,39.99001,944,6378
116.22122,39.99001,945,6378
116.22122,39.99001,946,6378
116.22122,39.99001,947,6378
116.22122,39.99001,948,6378
116.22122,39.99001,949,6378
116.22122,39.99001,950,6378
116.22122,39.99001,951,6378
116.22122,39.99001,952,6378
116.22122,39.99001,953,6378
116.22122,39.99001,954,6378
116.22122,39.99001,955,6378
116.22122,39.99001,956,6378
116.22122,39.99001,957,6378
116.22122,39.99001,958,6378
116.22122,39.99001,959,6378
116.21916,39.99138,960,6378
116.22862,39.98042,961,6378
116.20074,39.97315,962,6378
116.20322,39.9662,963,6378
116.20535,39.97047,964,6378
116.24,39.97181,965,6378
116.26197,39.97482,966,6378
116.25607,39.97225,967,6378
116.20313,39.96619,968,6378
116.20312,39.96619,969,6378
116.20312,39.96619,970,6378
116.20312,39.96619,971,6378
116.20312,39.96619,972,6378
116.20312,39.96619,973,6378
116.20312,39.96619,974,6378
116.20312,39.96619,975,6378
116.20312,39.96619,976,6378
116.20312,39.96619,977,6378
116.20312,39.96619,978,6378
116.20312,39.96619,979,6378
116.20312,39.96619,980,6378
116.20312,39.96619,981,6378
116.20312,39.96619,982,6378
116.20312,39.96619,983,6378
116.20312,39.96619,984,6378
116.20312,39.96619,985,6378
116.20312,39.96619,986,6378
116.20312,39.96619,987,6378
116.20312,39.96619,988,6378
116.20312,39.96619,989,6378
116.20312,39.96619,990,6378
116.20312,39.96619,991,6378
116.22758,39.97189,992,6378
116.26797,39.96662,993,6378
116.24888,39.98123,994,6378
116.26161,40.00112,995,6378
116.28109,40.01155,996,6378
116.2771,40.01897,997,6378
116.28277,40.00107,998,6378
116.29383,39.98489,999,6378
116.30181,39.96121,1000,6378
116.34393,39.96616,1001,6378
116.3385,39.97058,1002,6378
116.29357,39.97329,1003,6378
116.29293,39.95963,1004,6378
116.2777,39.96305,1005,6378
116.2777,39.96305,1006,6378
116.27424,39.97176,1007,6378
116.26852,39.95969,1008,6378
116.26944,39.95366,1009,6378
116.26783,39.94052,1010,6378
116.26808,39.93141,1011,6378
116.27005,39.9527,1012,6378
116.29261,39.96117,1013,6378
116.2909,39.96661,1014,6378
116.29424,39.98418,1015,6378
116.28707,39.99533,1016,6378
116.30909,39.99981,1017,6378
116.30788,40.02197,1018,6378
116.27706,40.02013,1019,6378
116.28202,40.00578,1020,6378
116.28959,39.99229,1021,6378
116.30341,39.95087,1022,6378
116.34277,39.93825,1023,6378
116.39919,39.94758,1024,6378
116.42829,39.92118,1025,6378
116.42062,39.90407,1026,6378
116.42052,39.90388,1027,6378
116.42474,39.90732,1028,6378
116.42083,39.9078,1029,6378
116.40804,39.91411,1030,6378
116.40012,39.92275,1031,6378
116.39044,39.93216,1032,6378
116.38759,39.94711,1033,6378
116.36835,39.94964,1034,6378
116.34872,39.95473,1035,6378
116.3438,39.94343,1036,6378
116.32921,39.95606,1037,6378
116.31044,39.96414,1038,6378
116.30409,39.92046,1039,6378
116.31353,39.89544,1040,6378
116.34047,39.89645,1041,6378
116.37606,39.89858,1042,6378
116.37606,39.89858,1043,6378
116.38954,39.89868,1044,6378
116.41133,39.89942,1045,6378
116.41167,39.89782,1046,6378
116.41806,39.89908,1047,6378
116.41184,39.89178,1048,6378
116.39387,39.88534,1049,6378
116.55153,37.75197,1050,6378
116.37855,39.88754,1051,6378
116.37765,39.88814,1052,6378
116.36109,39.88799,1053,6378
116.34682,39.89445,1054,6378
116.33683,39.8966,1055,6378
116.3043,39.9039,1056,6378
116.29871,39.94297,1057,6378
116.28503,39.95664,1058,6378
116.26997,39.95556,1059,6378
116.2688,39.94937,1060,6378
116.27421,39.96235,1061,6378
116.2748,39.97218,1062,6378
116.28876,39.95238,1063,6378
116.31367,39.93657,1064,6378
116.31042,39.923,1065,6378
116.30443,39.93663,1066,6378
116.30443,39.93663,1067,6378
116.30417,39.94594,1068,6378
116.30416,39.94588,1069,6378
116.30416,39.94588,1070,6378
116.31104,39.95137,1071,6378
116.30202,39.96092,1072,6378
116.27606,39.95603,1073,6378
116.26882,39.96925,1074,6378
116.25134,39.97745,1075,6378
116.24767,39.98489,1076,6378
116.2409,39.97915,1077,6378
116.25746,39.97089,1078,6378
116.26887,39.95981,1079,6378
116.26801,39.93733,1080,6378
116.27035,39.90619,1081,6378
116.27035,39.90619,1082,6378
116.28289,39.90892,1083,6378
116.29604,39.90739,1084,6378
116.29603,39.91239,1085,6378
116.29439,39.9117,1086,6378
116.28903,39.89935,1087,6378
116.29307,39.88569,1088,6378
116.30476,39.88019,1089,6378
116.33973,39.84831,1090,6378
116.40117,39.85561,1091,6378
116.42631,39.85506,1092,6378
116.43723,39.8444,1093,6378
116.45073,39.84184,1094,6378
116.44344,39.83679,1095,6378
116.44754,39.85102,1096,6378
116.45086,39.84124,1097,6378
116.45084,39.84123,1098,6378
116.44784,39.84896,1099,6378
116.41696,39.8566,1100,6378
116.39323,39.8566,1101,6378
116.39807,39.85598,1102,6378
116.40254,39.87162,1103,6378
116.375,39.86947,1104,6378
116.34274,39.88598,1105,6378
116.30564,39.89592,1106,6378
116.30318,39.92303,1107,6378
116.27764,39.92057,1108,6378
116.26846,39.94031,1109,6378
116.26872,39.95976,1110,6378
116.26872,39.95976,1111,6378
116.27641,39.92298,1112,6378
116.2697,39.92568,1113,6378
116.26724,39.94564,1114,6378
116.23409,39.95046,1115,6378
116.20731,39.95526,1116,6378
116.19827,39.94293,1117,6378
116.19424,39.9443,1118,6378
116.19416,39.94429,1119,6378
116.19416,39.94429,1120,6378
116.19424,39.94294,1121,6378
116.20755,39.95474,1122,6378
116.20313,39.96623,1123,6378
116.2092,39.97195,1124,6378
116.19971,39.99302,1125,6378
116.20348,39.99138,1126,6378
116.20348,39.99138,1127,6378
116.21684,39.97186,1128,6378
116.25525,39.97211,1129,6378
116.26871,39.95978,1130,6378
116.26873,39.95974,1131,6378
116.26873,39.95974,1132,6378
116.26873,39.95974,1133,6378
116.26863,39.95977,1134,6378
116.27841,39.94864,1135,6378
116.22283,39.97183,1136,6378
116.20315,39.96622,1137,6378
116.20308,39.96618,1138,6378
116.20308,39.96618,1139,6378
116.20308,39.96618,1140,6378
116.20308,39.96618,1141,6378
116.20308,39.96618,1142,6378
116.20308,39.96618,1143,6378
116.20308,39.96618,1144,6378
116.20308,39.96618,1145,6378
116.20308,39.96618,1146,6378
116.20308,39.96618,1147,6378
116.20308,39.96618,1148,6378
116.20308,39.96618,1149,6378
116.20308,39.96618,1150,6378
116.20308,39.96618,1151,6378
116.20308,39.96618,1152,6378
116.20308,39.96618,1153,6378
116.20308,39.96618,1154,6378
116.20308,39.96618,1155,6378
116.20308,39.96618,1156,6378
116.20308,39.96618,1157,6378
116.20308,39.96618,1158,6378
116.20812,39.97183,1159,6378
116.22383,39.98408,1160,6378
116.22122,39.99024,1161,6378
116.22965,39.97967,1162,6378
116.22965,39.97967,1163,6378
116.22965,39.97967,1164,6378
116.20248,39.97219,1165,6378
116.20149,39.97058,1166,6378
116.201,39.97983,1167,6378
116.20399,39.99261,1168,6378
116.20399,39.99261,1169,6378
116.21484,39.981,1170,6378
116.20594,39.92415,1171,6378
116.22407,39.90613,1172,6378
116.24697,39.91187,1173,6378
116.24408,39.9124,1174,6378
116.24691,39.90878,1175,6378
116.26865,39.9061,1176,6378
116.31396,39.90612,1177,6378
116.35458,39.90581,1178,6378
116.39635,39.90634,1179,6378
116.42057,39.90476,1180,6378
116.42053,39.90437,1181,6378
116.4205,39.90429,1182,6378
116.42049,39.90402,1183,6378
116.42052,39.90387,1184,6378
116.42858,39.91494,1185,6378
116.41906,39.95358,1186,6378
116.41254,39.96801,1187,6378
116.39584,39.96942,1188,6378
116.35869,39.96648,1189,6378
116.34944,39.93266,1190,6378
116.33534,39.89633,1191,6378
116.3142,39.90631,1192,6378
116.30453,39.90904,1193,6378
116.2961,39.92295,1194,6378
116.29542,39.93058,1195,6378
116.30444,39.9376,1196,6378
116.31803,39.9513,1197,6378
116.31802,39.95248,1198,6378
116.31802,39.95248,1199,6378
116.32876,39.96045,1200,6378
116.43704,39.96376,1201,6378
116.45524,39.92248,1202,6378
116.46616,39.91452,1203,6378
116.48314,39.91418,1204,6378
116.48314,39.91418,1205,6378
116.5121,39.91535,1206,6378
116.49066,39.91459,1207,6378
116.47223,39.91446,1208,6378
116.44601,39.8923,1209,6378
116.41348,39.89189,1210,6378
116.38957,39.88931,1211,6378
116.3798,39.8883,1212,6378
116.36969,39.88808,1213,6378
116.35342,39.88815,1214,6378
116.33024,39.88338,1215,6378
116.32039,39.88813,1216,6378
116.30438,39.90363,1217,6378
116.29972,39.92299,1218,6378
116.28186,39.92301,1219,6378
116.28897,39.89414,1220,6378
116.28912,39.8924,1221,6378
116.32724,39.89584,1222,6378
116.34359,39.89629,1223,6378
116.35044,39.90882,1224,6378
116.3496,39.9359,1225,6378
116.34925,39.95353,1226,6378
116.33453,39.96659,1227,6378
116.33453,39.96659,1228,6378
116.32535,39.96647,1229,6378
116.34837,39.96774,1230,6378
116.35919,39.97528,1231,6378
116.34267,39.98559,1232,6378
116.27706,39.973,1233,6378
116.24414,39.98797,1234,6378
116.22138,39.9899,1235,6378
116.22141,39.9899,1236,6378
116.22141,39.9899,1237,6378
116.22141,39.9899,1238,6378
116.22141,39.9899,1239,6378
116.22141,39.9899,1240,6378
116.22141,39.9899,1241,6378
116.22141,39.9899,1242,6378
116.22141,39.9899,1243,6378
116.22141,39.9899,1244,6378
116.22141,39.9899,1245,6378
116.22141,39.9899,1246,6378
116.22141,39.9899,1247,6378
116.22141,39.9899,1248,6378
116.22141,39.9899,1249,6378
116.33021,40.06979,1250,6378
116.22141,39.9899,1251,6378
116.45512,39.88373,1252,6378
116.45512,39.88373,1253,6378
116.22131,39.99009,1254,6378
116.22131,39.99009,1255,6378
116.22096,39.99087,1256,6378
116.21845,39.99445,1257,6378
116.23683,39.97182,1258,6378
116.26922,39.94991,1259,6378
116.26995,39.90604,1260,6378
116.27282,39.89186,1261,6378
116.26846,39.89926,1262,6378
116.26841,39.90645,1263,6378
116.26764,39.91644,1264,6378
116.25894,39.92318,1265,6378
116.25862,39.9148,1266,6378
116.28634,39.90624,1267,6378
116.30412,39.92669,1268,6378
116.32628,39.96608,1269,6378
116.31548,39.96616,1270,6378
116.30366,39.92335,1271,6378
116.30431,39.93023,1272,6378
116.30351,39.95272,1273,6378
116.29765,39.95686,1274,6378
