x,y,k,tid
116.36767,39.86866,0,6437
116.38805,39.86999,1,6437
116.39253,39.88409,2,6437
116.40816,39.89143,3,6437
116.41246,39.89789,4,6437
116.41173,39.90819,5,6437
116.41665,39.91395,6,6437
116.42015,39.92011,7,6437
116.41961,39.93202,8,6437
116.40318,39.93202,9,6437
116.37054,39.93026,10,6437
116.3628,39.93069,11,6437
116.35703,39.90717,12,6437
116.35712,39.90052,13,6437
116.3574,39.89835,14,6437
116.3532,39.86228,15,6437
116.35324,39.86215,16,6437
116.35338,39.86217,17,6437
116.33283,39.867,18,6437
116.32062,39.876,19,6437
116.4224,39.86659,20,6437
116.33342,39.89631,21,6437
116.30263,39.95247,22,6437
116.30371,39.93693,23,6437
116.30392,39.92786,24,6437
116.31212,39.89555,25,6437
116.32429,39.89549,26,6437
116.35726,39.89098,27,6437
116.35274,39.88526,28,6437
116.35691,39.86525,29,6437
116.35326,39.86223,30,6437
116.36712,39.86848,31,6437
116.36712,39.86848,32,6437
116.36714,39.86845,33,6437
116.36714,39.86845,34,6437
116.36713,39.86846,35,6437
116.36713,39.86846,36,6437
116.36713,39.86846,37,6437
116.36713,39.86846,38,6437
116.36715,39.86846,39,6437
116.36726,39.86608,40,6437
116.43825,39.87252,41,6437
116.42965,39.90832,42,6437
116.42642,39.90386,43,6437
116.41457,39.90051,44,6437
116.40959,39.89991,45,6437
116.40928,39.89982,46,6437
116.40582,39.89836,47,6437
116.38932,39.88941,48,6437
116.38088,39.88836,49,6437
116.36824,39.88722,50,6437
116.36824,39.88722,51,6437
116.37217,39.86929,52,6437
116.40208,39.85535,53,6437
116.30735,39.86382,54,6437
116.26627,39.92782,55,6437
116.26977,39.94467,56,6437
116.31713,39.95214,57,6437
116.31923,39.93095,58,6437
116.33752,39.93118,59,6437
116.34933,39.94113,60,6437
116.37748,39.96687,61,6437
116.38195,39.96855,62,6437
116.38195,39.97112,63,6437
116.36399,39.96687,64,6437
116.31592,39.95269,65,6437
116.31946,39.93818,66,6437
116.34972,39.94053,67,6437
116.38802,39.93926,68,6437
116.3898,39.93809,69,6437
116.37847,39.93203,70,6437
116.36218,39.93122,71,6437
116.35829,39.91618,72,6437
116.35393,39.91175,73,6437
116.35698,39.90671,74,6437
116.35761,39.89985,75,6437
116.35734,39.88839,76,6437
116.35756,39.87492,77,6437
116.35796,39.86674,78,6437
116.35373,39.86226,79,6437
116.35298,39.86222,80,6437
116.35298,39.86222,81,6437
116.35298,39.86222,82,6437
116.35298,39.86222,83,6437
116.35298,39.86222,84,6437
116.35298,39.86222,85,6437
116.35298,39.86222,86,6437
116.35298,39.86222,87,6437
116.35298,39.86222,88,6437
116.35298,39.86222,89,6437
116.35298,39.86222,90,6437
116.35298,39.86222,91,6437
116.35298,39.86222,92,6437
116.35298,39.86222,93,6437
116.35298,39.86222,94,6437
116.35298,39.86222,95,6437
116.35298,39.86222,96,6437
116.35298,39.86222,97,6437
116.35298,39.86222,98,6437
116.35298,39.86222,99,6437
116.35298,39.86222,100,6437
116.35298,39.86222,101,6437
116.35298,39.86222,102,6437
116.34664,39.89319,103,6437
116.3478,39.89322,104,6437
116.35326,39.86224,105,6437
116.35382,39.8621,106,6437
116.34723,39.86715,107,6437
116.33968,39.82862,108,6437
116.33619,39.7767,109,6437
116.3535,39.72042,110,6437
116.33783,39.7543,111,6437
116.33899,39.8122,112,6437
116.34208,39.86276,113,6437
116.34272,39.88282,114,6437
116.3523,39.89662,115,6437
116.34885,39.89327,116,6437
116.34733,39.89302,117,6437
116.35077,39.90348,118,6437
116.3869,39.90603,119,6437
116.41165,39.9137,120,6437
116.44932,39.90266,121,6437
116.52119,39.90807,122,6437
116.57061,39.90888,123,6437
116.57877,39.91079,124,6437
116.57877,39.91079,125,6437
116.57877,39.91079,126,6437
116.57877,39.91079,127,6437
116.57877,39.91079,128,6437
116.57877,39.91079,129,6437
116.57877,39.91079,130,6437
116.57877,39.91079,131,6437
116.57877,39.91079,132,6437
116.57877,39.91079,133,6437
116.57877,39.91079,134,6437
116.57877,39.91079,135,6437
116.57877,39.91079,136,6437
116.57877,39.91079,137,6437
116.57877,39.91079,138,6437
116.57877,39.91079,139,6437
116.57877,39.91079,140,6437
116.57877,39.91079,141,6437
116.57877,39.91079,142,6437
116.57877,39.91079,143,6437
116.57877,39.91079,144,6437
116.57877,39.91079,145,6437
116.57877,39.91079,146,6437
116.57877,39.91079,147,6437
116.25316,39.85898,148,6437
116.56139,39.90844,149,6437
116.4902,39.90669,150,6437
116.43617,39.90707,151,6437
116.40142,39.90647,152,6437
116.40142,39.90647,153,6437
116.3696,39.90589,154,6437
116.35008,39.89918,155,6437
116.34748,39.89331,156,6437
116.35527,39.87674,157,6437
116.35386,39.86518,158,6437
116.35333,39.8623,159,6437
116.35283,39.86208,160,6437
116.35283,39.86208,161,6437
116.35283,39.86208,162,6437
116.35283,39.86208,163,6437
116.35283,39.86208,164,6437
116.35283,39.86208,165,6437
116.35283,39.86208,166,6437
116.35283,39.86208,167,6437
116.35283,39.86208,168,6437
116.35283,39.86208,169,6437
116.35283,39.86208,170,6437
116.35283,39.86208,171,6437
116.35283,39.86208,172,6437
116.35283,39.86208,173,6437
116.35283,39.86208,174,6437
116.35283,39.86208,175,6437
116.35283,39.86208,176,6437
116.35283,39.86208,177,6437
116.35283,39.86208,178,6437
116.35283,39.86208,179,6437
116.34693,39.89285,180,6437
116.35561,39.89495,181,6437
116.35054,39.86698,182,6437
116.34519,39.89678,183,6437
116.354,39.91473,184,6437
116.35702,39.90977,185,6437
116.35374,39.89845,186,6437
116.35635,39.89785,187,6437
116.3423,39.88835,188,6437
116.34064,39.87432,189,6437
116.34422,39.87717,190,6437
116.38136,39.87497,191,6437
116.36823,39.87746,192,6437
116.36843,39.89779,193,6437
116.36795,39.90876,194,6437
116.35091,39.91481,195,6437
116.38795,39.94756,196,6437
116.40223,39.94816,197,6437
116.4017,39.95634,198,6437
116.40195,39.94576,199,6437
116.39071,39.93219,200,6437
116.36426,39.93126,201,6437
116.34285,39.93861,202,6437
116.34285,39.93861,203,6437
116.2995,39.98268,204,6437
116.30008,39.97628,205,6437
116.30809,39.97964,206,6437
116.31918,39.9705,207,6437
116.30208,39.96097,208,6437
116.29164,39.94964,209,6437
116.30323,39.94957,210,6437
116.30362,39.93156,211,6437
116.32823,39.92312,212,6437
116.34794,39.91717,213,6437
