x,y,k,tid
116.33262,40.07925,0,6525
116.32795,40.07478,1,6525
116.30736,40.07352,2,6525
116.30782,40.07292,3,6525
116.34147,40.02955,4,6525
116.35509,40.01158,5,6525
116.35512,40.01152,6,6525
116.40159,39.99356,7,6525
116.40156,39.99391,8,6525
116.39924,40.00377,9,6525
116.40131,39.9974,10,6525
116.40131,39.9974,11,6525
116.4011,39.97532,12,6525
116.40152,39.95761,13,6525
116.40155,39.95708,14,6525
116.42717,39.94428,15,6525
116.43019,39.93943,16,6525
116.43019,39.93943,17,6525
116.43005,39.93917,18,6525
116.42,39.93236,19,6525
116.42,39.93236,20,6525
116.41152,39.93229,21,6525
116.41112,39.92507,22,6525
116.41114,39.92483,23,6525
116.41925,39.92281,24,6525
116.41953,39.92279,25,6525
116.41787,39.91416,26,6525
116.41961,39.92982,27,6525
116.42256,39.93966,28,6525
116.4225,39.93983,29,6525
116.4225,39.93983,30,6525
116.4108,39.93405,31,6525
116.41107,39.9265,32,6525
116.41124,39.92318,33,6525
116.40638,39.91415,34,6525
116.40638,39.91415,35,6525
116.46978,39.88296,36,6525
116.47504,39.88291,37,6525
116.48326,39.87715,38,6525
116.47136,39.88158,39,6525
116.47128,39.88266,40,6525
116.46217,39.88312,41,6525
116.45302,39.8864,42,6525
116.45162,39.88314,43,6525
116.42528,39.88285,44,6525
116.41853,39.88267,45,6525
116.41364,39.88579,46,6525
116.41364,39.88579,47,6525
116.41364,39.88579,48,6525
116.42126,39.8918,49,6525
116.44039,39.90228,50,6525
116.4541,39.90359,51,6525
116.45256,39.90662,52,6525
116.45331,39.90637,53,6525
116.45345,39.90643,54,6525
116.45345,39.90643,55,6525
116.44425,39.93127,56,6525
116.43823,39.9324,57,6525
116.42766,39.94371,58,6525
116.42582,39.94817,59,6525
116.40204,39.94916,60,6525
116.40165,39.95737,61,6525
116.39919,39.95841,62,6525
116.39955,39.95993,63,6525
116.39955,39.95993,64,6525
116.39221,39.96073,65,6525
116.39614,39.96649,66,6525
116.4443,39.95891,67,6525
116.44854,39.95656,68,6525
116.47852,39.98359,69,6525
116.53545,40.02301,70,6525
116.55534,40.02974,71,6525
116.58401,40.05262,72,6525
116.58563,40.07987,73,6525
116.58141,40.07726,74,6525
116.58162,40.0677,75,6525
116.58128,40.07726,76,6525
116.58128,40.07726,77,6525
116.57247,40.06322,78,6525
116.56516,40.06415,79,6525
116.56355,40.06454,80,6525
116.56318,40.07012,81,6525
116.56655,40.07044,82,6525
116.56609,40.07184,83,6525
116.56609,40.07184,84,6525
116.56608,40.07184,85,6525
116.56608,40.07184,86,6525
116.56608,40.07184,87,6525
116.56608,40.07184,88,6525
116.56608,40.07184,89,6525
116.56608,40.07184,90,6525
116.56608,40.07184,91,6525
116.56608,40.07184,92,6525
116.56608,40.07184,93,6525
116.56608,40.07184,94,6525
116.56608,40.07184,95,6525
116.5625,40.07006,96,6525
116.56317,40.06601,97,6525
116.57374,40.06306,98,6525
116.5827,40.06111,99,6525
116.583,40.06028,100,6525
116.583,40.06028,101,6525
116.58263,40.06261,102,6525
116.58263,40.06261,103,6525
116.5821,40.06577,104,6525
116.58183,40.06736,105,6525
116.58164,40.06868,106,6525
116.58125,40.07095,107,6525
116.58085,40.07315,108,6525
116.58064,40.07442,109,6525
116.58064,40.07442,110,6525
116.58064,40.07442,111,6525
116.58045,40.07569,112,6525
116.58402,40.07646,113,6525
116.58416,40.0765,114,6525
116.56148,40.03276,115,6525
116.52194,40.01831,116,6525
116.49647,40.00006,117,6525
116.47577,39.96172,118,6525
116.47577,39.96172,119,6525
116.48365,39.93665,120,6525
116.48357,39.91611,121,6525
116.44603,39.90717,122,6525
116.42998,39.90726,123,6525
116.4301,39.90167,124,6525
116.41213,39.89976,125,6525
116.40762,39.90248,126,6525
116.40825,39.90373,127,6525
116.40525,39.9056,128,6525
116.40589,39.90915,129,6525
116.41152,39.90738,130,6525
116.41212,39.9021,131,6525
116.41221,39.90108,132,6525
116.4122,39.90037,133,6525
116.43776,39.89393,134,6525
116.44938,39.8922,135,6525
116.44938,39.8922,136,6525
116.45484,39.8882,137,6525
116.45572,39.901,138,6525
116.4561,39.9041,139,6525
116.43103,39.90723,140,6525
116.40936,39.90699,141,6525
116.40806,39.90789,142,6525
116.41206,39.9021,143,6525
116.41206,39.9014,144,6525
116.41183,39.89996,145,6525
116.39453,39.899,146,6525
116.38604,39.89901,147,6525
116.37058,39.89854,148,6525
116.35049,39.89762,149,6525
116.33639,39.90084,150,6525
116.33111,39.90197,151,6525
116.32556,39.90645,152,6525
116.32025,39.90975,153,6525
116.29586,39.91415,154,6525
116.29104,39.91911,155,6525
116.30002,39.92264,156,6525
116.31827,39.94847,157,6525
116.30612,39.96429,158,6525
116.33834,39.9661,159,6525
116.34854,39.96781,160,6525
116.34814,39.97498,161,6525
116.42214,39.98758,162,6525
116.44525,39.98156,163,6525
116.45954,39.98675,164,6525
116.4661,39.98273,165,6525
116.45821,39.98789,166,6525
116.45097,39.9897,167,6525
116.44606,39.98157,168,6525
116.42473,39.98795,169,6525
116.41781,39.98905,170,6525
116.40651,39.98728,171,6525
116.37992,39.98665,172,6525
116.35184,40.01657,173,6525
116.34299,40.02783,174,6525
116.34052,40.0244,175,6525
116.34075,40.0298,176,6525
116.33654,40.03814,177,6525
116.33367,40.04529,178,6525
116.35026,40.04768,179,6525
116.36285,40.05098,180,6525
116.37633,40.05454,181,6525
116.37403,40.05969,182,6525
116.37388,40.0597,183,6525
116.37388,40.0597,184,6525
116.37388,40.0597,185,6525
116.37388,40.0597,186,6525
116.37388,40.0597,187,6525
116.37388,40.0597,188,6525
116.37388,40.0597,189,6525
116.36751,40.06021,190,6525
116.34122,40.05919,191,6525
116.32377,40.05454,192,6525
116.32377,40.05454,193,6525
116.34499,40.02488,194,6525
116.35897,40.00653,195,6525
116.37069,39.98777,196,6525
116.40747,39.98713,197,6525
116.40988,39.98709,198,6525
116.4153,39.9855,199,6525
116.4032,39.98062,200,6525
116.40218,39.97828,201,6525
116.39843,40.00306,202,6525
116.40909,40.00789,203,6525
116.40843,40.00146,204,6525
116.41057,40.00151,205,6525
116.40119,39.9936,206,6525
116.40125,40.00803,207,6525
116.40298,40.02296,208,6525
116.40406,40.02894,209,6525
116.41633,40.03333,210,6525
116.41002,40.03624,211,6525
116.41088,40.03389,212,6525
116.41003,40.00818,213,6525
116.41058,39.99038,214,6525
116.41077,39.98482,215,6525
116.41171,39.96749,216,6525
116.41243,39.95029,217,6525
116.41056,39.94981,218,6525
116.41053,39.93963,219,6525
116.41105,39.92613,220,6525
116.41105,39.92599,221,6525
116.41119,39.92112,222,6525
116.41157,39.91157,223,6525
116.41153,39.9113,224,6525
116.40758,39.909,225,6525
116.40758,39.909,226,6525
116.41539,39.90689,227,6525
116.45487,39.90662,228,6525
116.4537,39.86578,229,6525
116.4537,39.86578,230,6525
116.4489,39.86193,231,6525
116.48986,39.82481,232,6525
116.47287,39.80127,233,6525
116.4828,39.77997,234,6525
116.48639,39.77899,235,6525
116.48612,39.77915,236,6525
116.48683,39.78684,237,6525
116.48654,39.78689,238,6525
116.48934,39.78782,239,6525
116.51537,39.77218,240,6525
116.49677,39.77695,241,6525
116.48904,39.7808,242,6525
116.47469,39.79971,243,6525
116.45684,39.81611,244,6525
116.4501,39.82125,245,6525
116.44083,39.83485,246,6525
116.43931,39.85242,247,6525
116.43471,39.85271,248,6525
116.43251,39.85666,249,6525
116.42764,39.85758,250,6525
116.42764,39.85758,251,6525
116.42762,39.85761,252,6525
116.42733,39.85763,253,6525
116.42702,39.85753,254,6525
116.40629,39.85571,255,6525
116.36668,39.85563,256,6525
116.35997,39.85404,257,6525
116.34215,39.86366,258,6525
116.32988,39.86697,259,6525
116.3256,39.86698,260,6525
116.31033,39.86681,261,6525
116.31033,39.86681,262,6525
116.31033,39.86681,263,6525
116.31064,39.86635,264,6525
116.31064,39.86635,265,6525
116.33306,39.86664,266,6525
116.35359,39.86681,267,6525
116.35353,39.86676,268,6525
116.35387,39.86565,269,6525
116.3584,39.86009,270,6525
116.35839,39.85993,271,6525
116.35939,39.84449,272,6525
116.3616,39.83368,273,6525
116.35883,39.83719,274,6525
116.36486,39.84954,275,6525
116.3698,39.84199,276,6525
116.36973,39.84344,277,6525
116.37982,39.84791,278,6525
116.38086,39.85051,279,6525
116.38086,39.85051,280,6525
116.38086,39.85051,281,6525
116.38086,39.85051,282,6525
116.38086,39.85051,283,6525
116.38086,39.85051,284,6525
116.38086,39.85051,285,6525
116.38086,39.85051,286,6525
116.38086,39.85051,287,6525
116.38086,39.85051,288,6525
116.38086,39.85051,289,6525
116.38086,39.85051,290,6525
116.38086,39.85051,291,6525
116.38086,39.85051,292,6525
116.38088,39.85051,293,6525
116.38073,39.85057,294,6525
116.38073,39.85057,295,6525
116.38079,39.85057,296,6525
116.38079,39.85057,297,6525
116.38079,39.85057,298,6525
116.38074,39.85423,299,6525
116.38159,39.87091,300,6525
116.38149,39.8744,301,6525
116.37262,39.87943,302,6525
116.37262,39.87943,303,6525
116.37061,39.88185,304,6525
116.36994,39.88189,305,6525
116.36223,39.88175,306,6525
116.367,39.88774,307,6525
116.367,39.88774,308,6525
116.36805,39.88488,309,6525
116.35839,39.8769,310,6525
116.353,39.87915,311,6525
116.35289,39.88129,312,6525
116.3542,39.88781,313,6525
116.36343,39.88773,314,6525
116.36566,39.88769,315,6525
116.36819,39.88208,316,6525
116.37471,39.88175,317,6525
116.37553,39.8822,318,6525
116.37551,39.87945,319,6525
116.36931,39.87733,320,6525
116.36931,39.87733,321,6525
116.36803,39.87428,322,6525
116.36833,39.88091,323,6525
116.36831,39.88385,324,6525
116.3816,39.88813,325,6525
116.39472,39.8912,326,6525
116.39487,39.89501,327,6525
116.40264,39.90651,328,6525
116.42272,39.90685,329,6525
116.4227,39.90679,330,6525
116.42412,39.90682,331,6525
116.4325,39.90199,332,6525
116.43967,39.90217,333,6525
116.455,39.90303,334,6525
116.4582,39.90439,335,6525
116.45833,39.90518,336,6525
116.47089,39.9066,337,6525
116.47154,39.89981,338,6525
116.4714,39.89516,339,6525
116.46308,39.88312,340,6525
116.46157,39.88239,341,6525
116.46143,39.88045,342,6525
116.46143,39.88045,343,6525
116.45532,39.88165,344,6525
116.45549,39.88357,345,6525
116.45548,39.88602,346,6525
116.45567,39.89766,347,6525
116.45661,39.90516,348,6525
116.45661,39.90516,349,6525
116.45899,39.90524,350,6525
116.45599,39.9068,351,6525
116.45482,39.90734,352,6525
116.44515,39.91217,353,6525
116.43977,39.91887,354,6525
116.43795,39.91908,355,6525
116.43181,39.92272,356,6525
116.43193,39.92277,357,6525
116.43193,39.92277,358,6525
116.43888,39.92195,359,6525
116.45399,39.91811,360,6525
116.455,39.9159,361,6525
116.4547,39.86798,362,6525
116.4327,39.85784,363,6525
116.43261,39.85781,364,6525
116.43053,39.85725,365,6525
116.43333,39.8707,366,6525
116.43348,39.87413,367,6525
116.43398,39.88781,368,6525
116.44878,39.89225,369,6525
116.44963,39.89254,370,6525
116.45538,39.89399,371,6525
116.45601,39.91061,372,6525
116.45603,39.91112,373,6525
116.45572,39.94348,374,6525
116.4741,39.95388,375,6525
116.47968,39.95586,376,6525
116.49584,39.96334,377,6525
116.50161,39.97242,378,6525
116.50092,39.97303,379,6525
116.48438,39.97084,380,6525
116.46428,39.96327,381,6525
116.44314,39.96006,382,6525
116.43357,39.96751,383,6525
116.43357,39.96751,384,6525
116.43298,39.96694,385,6525
116.41698,39.97615,386,6525
116.41668,39.9761,387,6525
116.27397,39.93515,388,6525
116.27392,39.93517,389,6525
116.28645,39.94639,390,6525
116.28645,39.94639,391,6525
116.30438,39.94237,392,6525
116.30389,39.94919,393,6525
116.31138,39.96411,394,6525
116.31138,39.96411,395,6525
116.31138,39.96411,396,6525
116.31336,39.96488,397,6525
116.31081,39.97967,398,6525
116.32741,39.98448,399,6525
116.3389,39.98504,400,6525
116.34486,39.98506,401,6525
116.34486,39.98506,402,6525
116.34495,39.98505,403,6525
116.39759,39.98677,404,6525
116.40177,40.0063,405,6525
116.41125,40.0313,406,6525
116.41052,40.05639,407,6525
116.42252,40.06543,408,6525
116.40471,40.06658,409,6525
116.39582,40.06619,410,6525
116.3724,40.05895,411,6525
116.37398,40.05976,412,6525
116.37398,40.05976,413,6525
116.37398,40.05976,414,6525
116.37398,40.05976,415,6525
116.37398,40.05976,416,6525
116.37398,40.05976,417,6525
116.37398,40.05976,418,6525
116.37398,40.05976,419,6525
116.36159,40.05964,420,6525
116.35945,40.05945,421,6525
116.35431,40.06028,422,6525
116.35448,40.06018,423,6525
116.33948,40.05882,424,6525
116.33817,40.05842,425,6525
116.33817,40.05842,426,6525
116.34992,40.06864,427,6525
116.34309,40.06476,428,6525
116.34196,40.0641,429,6525
116.31661,40.06138,430,6525
116.2915,40.053,431,6525
116.28997,40.05257,432,6525
116.29292,40.04786,433,6525
116.3053,40.02858,434,6525
116.30688,40.02755,435,6525
116.31207,40.01172,436,6525
116.32854,39.87378,437,6525
116.32854,39.87378,438,6525
116.32732,39.99453,439,6525
116.32748,39.98446,440,6525
116.3422,39.98511,441,6525
116.3422,39.98511,442,6525
116.3422,39.98511,443,6525
116.34287,39.98524,444,6525
116.32961,39.98497,445,6525
116.32961,39.98497,446,6525
116.32606,39.98485,447,6525
116.27933,39.97429,448,6525
116.26968,39.95381,449,6525
116.26952,39.95202,450,6525
116.26901,39.92018,451,6525
116.27712,39.9062,452,6525
116.27712,39.9062,453,6525
116.29473,39.90602,454,6525
116.30292,39.8962,455,6525
116.30292,39.8962,456,6525
116.30478,39.87959,457,6525
116.30136,39.87949,458,6525
116.30129,39.87958,459,6525
116.30767,39.88486,460,6525
116.3199,39.88858,461,6525
116.32139,39.88859,462,6525
116.32861,39.89068,463,6525
116.32834,39.89429,464,6525
116.32834,39.89429,465,6525
116.32316,39.89562,466,6525
116.3065,39.89592,467,6525
116.30537,39.89625,468,6525
116.28894,39.89161,469,6525
116.2906,39.906,470,6525
116.29223,39.90601,471,6525
116.31081,39.90613,472,6525
116.33649,39.90209,473,6525
116.33647,39.90193,474,6525
116.33653,39.89175,475,6525
116.3303,39.89169,476,6525
116.32977,39.89163,477,6525
116.32847,39.89199,478,6525
116.31695,39.89597,479,6525
116.31562,39.89597,480,6525
116.26995,39.89684,481,6525
116.26995,39.89684,482,6525
116.26822,39.93799,483,6525
116.26823,39.94046,484,6525
116.28711,39.95739,485,6525
116.28691,39.95826,486,6525
116.29043,39.92172,487,6525
116.29597,39.92281,488,6525
116.29518,39.92287,489,6525
116.29854,39.92686,490,6525
116.30451,39.93966,491,6525
116.30635,39.93979,492,6525
116.31939,39.93173,493,6525
116.31817,39.93437,494,6525
116.31684,39.93436,495,6525
116.31737,39.9312,496,6525
116.30403,39.92592,497,6525
116.30396,39.92406,498,6525
116.30182,39.9054,499,6525
116.31514,39.89936,500,6525
116.31518,39.89913,501,6525
116.32858,39.90589,502,6525
116.34022,39.90601,503,6525
116.34022,39.90601,504,6525
116.33708,39.9018,505,6525
116.31554,39.89602,506,6525
116.31518,39.89676,507,6525
116.30419,39.92908,508,6525
116.30419,39.93104,509,6525
116.31118,39.9642,510,6525
116.32765,39.97488,511,6525
116.32765,39.97488,512,6525
116.32719,39.98424,513,6525
116.32374,39.99338,514,6525
116.32374,39.99338,515,6525
116.32818,39.99122,516,6525
116.32801,39.99155,517,6525
116.32731,39.99152,518,6525
116.32731,39.99152,519,6525
116.32709,39.98229,520,6525
116.32781,39.96835,521,6525
116.32781,39.96835,522,6525
116.32782,39.96748,523,6525
116.30394,39.96176,524,6525
116.30372,39.93189,525,6525
116.30369,39.93131,526,6525
116.29609,39.93242,527,6525
116.30045,39.94157,528,6525
116.30045,39.94156,529,6525
116.3005,39.94158,530,6525
116.3005,39.94158,531,6525
116.30047,39.94156,532,6525
116.30047,39.94157,533,6525
116.30047,39.94157,534,6525
116.30052,39.94155,535,6525
116.30052,39.94155,536,6525
116.30052,39.94155,537,6525
116.30053,39.94155,538,6525
116.30053,39.94155,539,6525
116.30053,39.94155,540,6525
116.30055,39.94156,541,6525
116.30055,39.94156,542,6525
116.30055,39.94156,543,6525
116.31625,39.93756,544,6525
116.31808,39.94967,545,6525
116.31799,39.95065,546,6525
116.31753,39.95394,547,6525
116.31548,39.96511,548,6525
116.31423,39.9686,549,6525
116.31203,39.97462,550,6525
116.31143,39.97534,551,6525
116.30872,39.98197,552,6525
116.3107,39.97651,553,6525
116.31103,39.97544,554,6525
116.32971,39.97511,555,6525
116.32971,39.97511,556,6525
116.34269,39.97213,557,6525
116.34269,39.97213,558,6525
116.34335,39.97215,559,6525
116.33724,39.96661,560,6525
116.33277,39.96931,561,6525
116.33277,39.96931,562,6525
116.33286,39.96803,563,6525
116.3465,39.96251,564,6525
116.34557,39.96258,565,6525
116.36244,39.94623,566,6525
116.36146,39.9462,567,6525
116.35358,39.95101,568,6525
116.35626,39.95107,569,6525
116.38092,39.97546,570,6525
116.30892,39.97743,571,6525
116.31107,39.97516,572,6525
116.31107,39.97516,573,6525
116.32697,39.97256,574,6525
116.32761,39.97032,575,6525
116.31037,39.97742,576,6525
116.31437,39.98408,577,6525
116.32353,39.98436,578,6525
116.32685,39.99115,579,6525
116.33207,39.99932,580,6525
116.33848,40.00657,581,6525
116.33055,39.99166,582,6525
116.33049,39.99166,583,6525
116.31044,39.99094,584,6525
116.29862,39.99089,585,6525
116.29901,39.98688,586,6525
116.31046,39.9798,587,6525
116.31153,39.97423,588,6525
116.37481,39.971,589,6525
116.37258,39.98541,590,6525
116.33093,40.00162,591,6525
116.33076,40.0045,592,6525
116.33085,39.9918,593,6525
116.33122,39.99152,594,6525
116.33122,39.99152,595,6525
116.33136,39.99154,596,6525
116.33136,39.99153,597,6525
116.33136,39.99153,598,6525
116.3327,39.99158,599,6525
116.33499,39.99927,600,6525
116.34593,40.01581,601,6525
116.34743,40.02371,602,6525
116.33783,40.0347,603,6525
116.33783,40.0347,604,6525
116.31909,40.05953,605,6525
116.31061,40.07249,606,6525
116.30124,40.08045,607,6525
116.31099,40.07304,608,6525
116.32585,40.07754,609,6525
116.33122,40.06381,610,6525
116.35797,40.05912,611,6525
116.37403,40.05971,612,6525
116.37414,40.05974,613,6525
116.37409,40.05973,614,6525
116.37409,40.05973,615,6525
116.37407,40.05972,616,6525
116.37407,40.05972,617,6525
116.37407,40.05972,618,6525
116.37238,40.05922,619,6525
116.3588,40.05992,620,6525
116.3417,40.05924,621,6525
116.32332,40.05425,622,6525
116.31879,40.05061,623,6525
116.31029,40.04433,624,6525
116.30509,40.03343,625,6525
116.30787,40.02108,626,6525
116.31251,40.0083,627,6525
116.30973,39.99042,628,6525
116.30992,39.98624,629,6525
116.31003,39.9853,630,6525
116.31056,39.97867,631,6525
116.31006,39.97755,632,6525
116.30519,39.97755,633,6525
116.3038,39.97451,634,6525
116.30063,39.96939,635,6525
116.31057,39.97471,636,6525
116.3166,39.97487,637,6525
116.32751,39.9742,638,6525
116.34702,39.9643,639,6525
116.35003,39.94491,640,6525
116.34999,39.93899,641,6525
116.36204,39.93372,642,6525
116.36629,39.93127,643,6525
116.36672,39.93739,644,6525
116.36595,39.94664,645,6525
116.37351,39.95046,646,6525
116.37491,39.9718,647,6525
116.3577,40.00874,648,6525
116.34683,40.02392,649,6525
116.33949,40.03284,650,6525
116.32448,40.0522,651,6525
116.33792,40.05846,652,6525
116.33817,40.05847,653,6525
116.33817,40.05847,654,6525
116.32318,40.05305,655,6525
116.33449,40.03807,656,6525
116.34089,40.02987,657,6525
116.3458,40.01418,658,6525
116.34637,40.00027,659,6525
116.34676,39.99258,660,6525
116.35921,39.98506,661,6525
116.35616,39.9826,662,6525
116.35452,39.98035,663,6525
116.35269,39.9803,664,6525
116.35269,39.9803,665,6525
116.35269,39.98031,666,6525
116.3527,39.98031,667,6525
116.3527,39.98031,668,6525
116.34851,39.98021,669,6525
116.33768,39.99179,670,6525
116.32774,39.99163,671,6525
116.32774,39.99163,672,6525
116.32274,39.99299,673,6525
116.32221,39.99673,674,6525
116.3161,39.99109,675,6525
116.32936,39.99148,676,6525
116.32679,39.99274,677,6525
116.32651,39.99276,678,6525
116.32653,39.99276,679,6525
116.32653,39.99276,680,6525
116.32653,39.99276,681,6525
116.32657,39.99274,682,6525
116.32702,39.98529,683,6525
116.3408,39.98524,684,6525
116.37265,39.98624,685,6525
116.4394,39.98506,686,6525
116.46877,39.9664,687,6525
116.48378,39.9463,688,6525
116.48581,39.91422,689,6525
116.49688,39.91448,690,6525
116.51171,39.92138,691,6525
116.51171,39.92138,692,6525
116.51184,39.93247,693,6525
116.51115,39.92527,694,6525
116.51016,39.91551,695,6525
116.50722,39.91499,696,6525
116.49741,39.91473,697,6525
116.47867,39.91416,698,6525
116.45932,39.91664,699,6525
116.45377,39.91871,700,6525
116.44813,39.91291,701,6525
116.44457,39.91448,702,6525
116.44429,39.91811,703,6525
116.44416,39.91975,704,6525
116.44418,39.92036,705,6525
116.44413,39.92092,706,6525
116.43521,39.92279,707,6525
116.43338,39.92281,708,6525
116.43094,39.92255,709,6525
116.4298,39.92297,710,6525
116.4078,39.92299,711,6525
116.38483,39.92121,712,6525
116.38562,39.90745,713,6525
116.38552,39.90358,714,6525
116.3684,39.89071,715,6525
116.37035,39.89137,716,6525
116.37035,39.89137,717,6525
116.37035,39.89137,718,6525
116.37035,39.89137,719,6525
116.37035,39.89137,720,6525
116.37035,39.89137,721,6525
116.37035,39.89137,722,6525
116.37035,39.89137,723,6525
116.37035,39.89137,724,6525
116.37035,39.89137,725,6525
116.37035,39.89137,726,6525
116.37035,39.89137,727,6525
116.37035,39.89137,728,6525
116.37035,39.89137,729,6525
116.36863,39.89148,730,6525
116.36993,39.89385,731,6525
116.36816,39.88881,732,6525
116.36809,39.88234,733,6525
116.36543,39.87717,734,6525
116.36768,39.87707,735,6525
116.36832,39.88381,736,6525
116.3684,39.88619,737,6525
116.36847,39.89098,738,6525
116.3684,39.89339,739,6525
116.36808,39.90219,740,6525
116.36804,39.90405,741,6525
116.36796,39.90492,742,6525
116.36786,39.90962,743,6525
116.36786,39.90962,744,6525
116.36751,39.91651,745,6525
116.36687,39.93095,746,6525
116.3667,39.93413,747,6525
116.36612,39.9426,748,6525
116.36493,39.95616,749,6525
116.36406,39.96567,750,6525
116.36379,39.97505,751,6525
116.36492,39.97893,752,6525
116.36349,39.97901,753,6525
116.36364,39.97569,754,6525
116.35084,39.96674,755,6525
116.35067,39.97317,756,6525
116.35067,39.97317,757,6525
116.34811,39.97488,758,6525
116.3395,39.97576,759,6525
116.33298,39.97523,760,6525
116.33208,39.97384,761,6525
116.33417,39.9661,762,6525
116.34694,39.9625,763,6525
116.34316,39.96059,764,6525
116.34195,39.95702,765,6525
116.33686,39.95677,766,6525
116.31757,39.95169,767,6525
116.3183,39.94536,768,6525
116.30998,39.93893,769,6525
116.30031,39.92298,770,6525
116.2859,39.92295,771,6525
116.27751,39.92026,772,6525
116.2774,39.9014,773,6525
116.27743,39.90041,774,6525
116.27743,39.9107,775,6525
116.28238,39.92382,776,6525
116.2823,39.92321,777,6525
116.29313,39.92247,778,6525
116.30246,39.92258,779,6525
116.30448,39.92432,780,6525
116.30448,39.92432,781,6525
116.30451,39.92429,782,6525
116.30451,39.92429,783,6525
116.30451,39.92429,784,6525
116.31683,39.92678,785,6525
116.31688,39.92673,786,6525
116.31654,39.92691,787,6525
116.30411,39.94435,788,6525
116.30169,39.95249,789,6525
116.30697,39.96254,790,6525
116.31414,39.96896,791,6525
116.31418,39.96894,792,6525
116.31243,39.97255,793,6525
116.33291,39.97508,794,6525
116.34716,39.9752,795,6525
116.35492,39.98035,796,6525
116.36332,39.98305,797,6525
116.36332,39.98305,798,6525
116.3633,39.98329,799,6525
116.36325,39.98321,800,6525
116.37457,39.97724,801,6525
116.37455,39.972,802,6525
116.37297,39.95133,803,6525
116.36986,39.94122,804,6525
116.36603,39.94611,805,6525
116.3654,39.95163,806,6525
116.36381,39.97448,807,6525
116.36342,39.98032,808,6525
116.36089,39.97542,809,6525
116.33869,39.97535,810,6525
116.33186,39.97468,811,6525
116.33215,39.97315,812,6525
116.3322,39.97331,813,6525
116.33813,39.97513,814,6525
116.33456,39.98476,815,6525
116.33456,39.98476,816,6525
116.33708,39.99179,817,6525
116.33167,39.99163,818,6525
116.33048,39.99161,819,6525
116.33443,39.99167,820,6525
116.35866,39.99235,821,6525
116.36149,39.98763,822,6525
116.36145,39.98718,823,6525
116.35913,39.9905,824,6525
116.35913,39.9905,825,6525
116.35913,39.9905,826,6525
116.35913,39.9905,827,6525
116.35913,39.9905,828,6525
116.35913,39.9905,829,6525
116.3591,39.99054,830,6525
116.3591,39.99054,831,6525
116.3591,39.99054,832,6525
116.3591,39.99054,833,6525
116.3591,39.99054,834,6525
116.3591,39.99054,835,6525
116.3591,39.99054,836,6525
116.35908,39.99053,837,6525
116.35908,39.99053,838,6525
116.35908,39.99053,839,6525
116.35908,39.99053,840,6525
116.35903,39.99053,841,6525
116.35901,39.99054,842,6525
116.35901,39.99054,843,6525
116.35901,39.99054,844,6525
116.35901,39.99054,845,6525
116.35901,39.99054,846,6525
116.35901,39.99054,847,6525
116.35901,39.99054,848,6525
116.35901,39.99054,849,6525
116.35901,39.99054,850,6525
116.35901,39.99054,851,6525
116.35901,39.99054,852,6525
116.35901,39.99054,853,6525
116.35869,39.99691,854,6525
116.36077,40.00467,855,6525
116.32494,40.05151,856,6525
116.33508,40.05797,857,6525
116.37402,40.0598,858,6525
116.37402,40.0598,859,6525
116.37402,40.0598,860,6525
116.37402,40.0598,861,6525
116.37402,40.0598,862,6525
116.37402,40.0598,863,6525
116.35685,40.0601,864,6525
116.33098,40.05736,865,6525
116.32395,40.05465,866,6525
116.32461,40.05505,867,6525
116.33813,40.05855,868,6525
116.3381,40.05853,869,6525
116.33819,40.0586,870,6525
116.34044,40.05901,871,6525
116.33397,40.05786,872,6525
116.32377,40.05185,873,6525
116.3348,40.03773,874,6525
116.34739,40.02017,875,6525
116.37456,39.97722,876,6525
116.36115,39.97534,877,6525
116.36115,39.97534,878,6525
116.35941,39.973,879,6525
116.3593,39.97063,880,6525
116.35223,39.96656,881,6525
116.34731,39.9585,882,6525
116.34993,39.94626,883,6525
116.32803,39.93525,884,6525
116.32842,39.92248,885,6525
116.33882,39.90967,886,6525
116.33669,39.90244,887,6525
116.33626,39.89665,888,6525
116.34307,39.87525,889,6525
116.36103,39.86822,890,6525
116.36739,39.86224,891,6525
116.36976,39.84924,892,6525
116.37349,39.84654,893,6525
116.37281,39.84284,894,6525
116.36865,39.83758,895,6525
116.36865,39.83757,896,6525
116.36864,39.83755,897,6525
116.36864,39.83751,898,6525
116.36864,39.83751,899,6525
116.36864,39.83751,900,6525
116.3687,39.83751,901,6525
116.36869,39.8375,902,6525
116.36866,39.83753,903,6525
116.36866,39.83753,904,6525
116.36866,39.83753,905,6525
116.36994,39.83888,906,6525
116.36822,39.84923,907,6525
116.36823,39.86829,908,6525
116.361,39.86833,909,6525
116.35022,39.91886,910,6525
116.37318,39.9531,911,6525
116.36166,40.00316,912,6525
116.36166,40.00316,913,6525
116.35033,40.01819,914,6525
116.33697,40.05832,915,6525
116.34877,40.06041,916,6525
116.35428,40.06025,917,6525
116.37402,40.05972,918,6525
116.37402,40.05972,919,6525
116.37402,40.05972,920,6525
116.37225,40.06022,921,6525
116.35186,40.06107,922,6525
116.33404,40.06043,923,6525
116.32789,40.0757,924,6525
116.31669,40.07715,925,6525
116.31629,40.07816,926,6525
116.31614,40.07848,927,6525
116.31614,40.07848,928,6525
116.31614,40.07848,929,6525
116.31614,40.07848,930,6525
116.31614,40.07848,931,6525
116.31614,40.07848,932,6525
116.31614,40.07848,933,6525
116.30541,40.0774,934,6525
116.2943,40.09156,935,6525
116.23983,40.16279,936,6525
116.20071,40.22358,937,6525
116.14814,40.24162,938,6525
116.12136,40.2543,939,6525
116.06291,40.29379,940,6525
116.06291,40.29379,941,6525
116.03646,40.32239,942,6525
116.0224,40.33582,943,6525
115.98269,40.35926,944,6525
115.95641,40.36364,945,6525
115.94742,40.37359,946,6525
115.97655,40.42202,947,6525
115.99923,40.45035,948,6525
115.99769,40.46142,949,6525
115.99769,40.46142,950,6525
115.99666,40.46072,951,6525
115.99666,40.46072,952,6525
115.99666,40.46072,953,6525
115.99666,40.46072,954,6525
115.99273,40.46323,955,6525
115.97607,40.4607,956,6525
115.97597,40.46069,957,6525
115.97597,40.46069,958,6525
115.97597,40.46069,959,6525
115.97599,40.46067,960,6525
115.97602,40.46044,961,6525
115.93902,40.45048,962,6525
115.89627,40.45222,963,6525
115.87436,40.45422,964,6525
115.85648,40.47916,965,6525
115.85686,40.48198,966,6525
115.85679,40.48198,967,6525
115.85634,40.48338,968,6525
115.85634,40.48338,969,6525
115.85717,40.48427,970,6525
115.85521,40.48453,971,6525
115.85521,40.48453,972,6525
115.85521,40.48453,973,6525
115.85651,40.47843,974,6525
115.89182,40.5008,975,6525
115.93801,40.51312,976,6525
115.96439,40.48122,977,6525
115.96589,40.47361,978,6525
115.90159,40.45155,979,6525
115.86853,40.46015,980,6525
115.8569,40.482,981,6525
115.8569,40.482,982,6525
115.85747,40.48312,983,6525
115.85694,40.48195,984,6525
115.85592,40.47998,985,6525
115.79812,40.45781,986,6525
115.79812,40.45781,987,6525
115.79812,40.45781,988,6525
115.79739,40.45871,989,6525
115.79814,40.45776,990,6525
115.78742,40.44032,991,6525
115.77323,40.43049,992,6525
115.80047,40.45315,993,6525
115.79627,40.46023,994,6525
115.79627,40.46023,995,6525
115.8035,40.45216,996,6525
115.83691,40.47426,997,6525
115.8447,40.46953,998,6525
115.91071,40.44764,999,6525
115.96065,40.45519,1000,6525
115.96461,40.45748,1001,6525
115.9727,40.4559,1002,6525
115.99675,40.46052,1003,6525
115.99675,40.46052,1004,6525
115.99675,40.46052,1005,6525
115.9794,40.46483,1006,6525
115.97336,40.4637,1007,6525
115.96062,40.44608,1008,6525
115.93862,40.41763,1009,6525
115.926,40.40838,1010,6525
115.90382,40.36898,1011,6525
115.90236,40.37169,1012,6525
115.90223,40.37162,1013,6525
115.90217,40.37161,1014,6525
115.90217,40.37161,1015,6525
115.90503,40.36939,1016,6525
115.89314,40.40731,1017,6525
115.89148,40.41011,1018,6525
115.87111,40.45624,1019,6525
115.85561,40.4815,1020,6525
115.85572,40.48183,1021,6525
115.85678,40.48199,1022,6525
115.85686,40.48201,1023,6525
115.85687,40.48195,1024,6525
115.85687,40.48195,1025,6525
115.85687,40.48195,1026,6525
115.85647,40.47841,1027,6525
115.86355,40.46752,1028,6525
115.86678,40.46275,1029,6525
115.88144,40.43176,1030,6525
115.89517,40.38175,1031,6525
115.8885,40.37993,1032,6525
115.8685,40.35959,1033,6525
115.8685,40.35959,1034,6525
115.84722,40.34297,1035,6525
115.84302,40.34193,1036,6525
115.82179,40.33671,1037,6525
115.80462,40.32251,1038,6525
115.8078,40.32289,1039,6525
115.80839,40.32374,1040,6525
115.80839,40.32374,1041,6525
115.80839,40.32374,1042,6525
115.80839,40.32374,1043,6525
115.79393,40.32984,1044,6525
115.78676,40.32918,1045,6525
115.74382,40.32014,1046,6525
115.71946,40.31683,1047,6525
115.71946,40.31683,1048,6525
115.71619,40.31632,1049,6525
115.69967,40.31104,1050,6525
115.68219,40.30475,1051,6525
115.68212,40.306,1052,6525
115.68007,40.30679,1053,6525
