x,y,k,tid
116.35316,39.85323,0,6610
116.35871,39.85756,1,6610
116.35853,39.85749,2,6610
116.35853,39.85749,3,6610
116.35853,39.85749,4,6610
116.35853,39.85749,5,6610
116.35853,39.85749,6,6610
116.35853,39.85749,7,6610
116.35853,39.85749,8,6610
116.35853,39.85749,9,6610
116.35853,39.85749,10,6610
116.35853,39.85749,11,6610
116.35853,39.85749,12,6610
116.35853,39.85749,13,6610
116.35853,39.85749,14,6610
116.35853,39.85749,15,6610
116.35853,39.85749,16,6610
116.35853,39.85749,17,6610
116.35867,39.85833,18,6610
116.35832,39.86798,19,6610
116.31915,39.86685,20,6610
116.29113,39.86467,21,6610
116.29111,39.86471,22,6610
116.29111,39.86471,23,6610
116.29111,39.86471,24,6610
116.29111,39.86471,25,6610
116.29111,39.86471,26,6610
116.29111,39.86471,27,6610
116.29111,39.86471,28,6610
116.29111,39.86471,29,6610
116.29111,39.86471,30,6610
116.29111,39.86471,31,6610
116.29111,39.86471,32,6610
116.29111,39.86471,33,6610
116.29111,39.86471,34,6610
116.29111,39.86471,35,6610
116.29111,39.86471,36,6610
116.29111,39.86471,37,6610
116.29111,39.86471,38,6610
116.29111,39.86471,39,6610
116.29111,39.86471,40,6610
116.29111,39.86471,41,6610
116.29111,39.86471,42,6610
116.29111,39.86471,43,6610
116.29111,39.86471,44,6610
116.2978,39.86544,45,6610
116.33912,39.84813,46,6610
116.3483,39.85157,47,6610
116.34392,39.84963,48,6610
116.35484,39.82944,49,6610
116.35289,39.83062,50,6610
116.40811,39.82949,51,6610
116.44492,39.80473,52,6610
116.43793,39.80457,53,6610
116.43798,39.80454,54,6610
116.43798,39.80454,55,6610
116.43798,39.80454,56,6610
116.43798,39.80454,57,6610
116.43798,39.80454,58,6610
116.43853,39.79434,59,6610
116.41556,39.78038,60,6610
116.39787,39.76482,61,6610
116.36299,39.76186,62,6610
116.33486,39.75152,63,6610
116.33642,39.75165,64,6610
116.335,39.75099,65,6610
116.338,39.73145,66,6610
116.3305,39.71605,67,6610
116.33223,39.72055,68,6610
116.33975,39.73436,69,6610
116.33678,39.76328,70,6610
116.34748,39.79092,71,6610
116.36104,39.80015,72,6610
116.36461,39.834,73,6610
116.35801,39.84462,74,6610
116.35865,39.85636,75,6610
116.35553,39.86728,76,6610
116.34983,39.86666,77,6610
116.34983,39.86666,78,6610
116.36793,39.86465,79,6610
116.36814,39.86805,80,6610
116.36821,39.88762,81,6610
116.3617,39.88742,82,6610
116.35264,39.88813,83,6610
116.30396,39.89546,84,6610
116.31401,39.8954,85,6610
116.32233,39.89556,86,6610
116.32409,39.90133,87,6610
116.33612,39.9018,88,6610
116.34645,39.9069,89,6610
116.33879,39.91421,90,6610
116.33613,39.92201,91,6610
116.33787,39.92515,92,6610
116.33787,39.92944,93,6610
116.34697,39.93599,94,6610
116.32713,39.93511,95,6610
116.32452,39.9373,96,6610
116.32808,39.92575,97,6610
116.34326,39.91671,98,6610
116.34966,39.91259,99,6610
116.35715,39.89509,100,6610
116.34701,39.88783,101,6610
116.3472,39.88772,102,6610
116.3494,39.88823,103,6610
116.34716,39.88471,104,6610
116.35682,39.88792,105,6610
116.37691,39.88797,106,6610
116.39339,39.89015,107,6610
116.42232,39.89207,108,6610
116.43293,39.89552,109,6610
116.41405,39.89562,110,6610
116.41504,39.89872,111,6610
116.42299,39.89932,112,6610
116.42125,39.90339,113,6610
116.42139,39.90342,114,6610
116.42148,39.90344,115,6610
116.42295,39.90363,116,6610
116.4394,39.87594,117,6610
116.4156,39.86041,118,6610
116.40806,39.85268,119,6610
116.40644,39.83725,120,6610
116.40868,39.8432,121,6610
116.4175,39.85295,122,6610
116.42444,39.86384,123,6610
116.41616,39.86411,124,6610
116.41616,39.86411,125,6610
116.408,39.85402,126,6610
116.39992,39.84462,127,6610
116.40224,39.85567,128,6610
116.44754,39.86058,129,6610
116.43973,39.88123,130,6610
116.4301,39.90251,131,6610
116.4223,39.90705,132,6610
116.40816,39.90896,133,6610
116.40097,39.90667,134,6610
116.4001,39.9227,135,6610
116.3967,39.93212,136,6610
116.36941,39.93138,137,6610
116.35022,39.93084,138,6610
116.34872,39.96459,139,6610
116.36377,39.96609,140,6610
116.36239,39.95134,141,6610
116.36286,39.95127,142,6610
116.36283,39.95124,143,6610
116.36283,39.95124,144,6610
116.36524,39.95026,145,6610
116.36524,39.95026,146,6610
116.36383,39.94703,147,6610
116.35771,39.94477,148,6610
116.34922,39.93918,149,6610
116.34981,39.92616,150,6610
116.35023,39.91681,151,6610
116.35036,39.90264,152,6610
116.35665,39.89527,153,6610
116.35659,39.89528,154,6610
116.35659,39.89528,155,6610
116.35052,39.89388,156,6610
116.34297,39.87583,157,6610
116.33956,39.82686,158,6610
116.33759,39.77973,159,6610
116.33177,39.70914,160,6610
116.31776,39.63803,161,6610
116.31889,39.56004,162,6610
116.31998,39.51866,163,6610
116.30402,39.46484,164,6610
116.30292,39.42976,165,6610
116.30772,39.37568,166,6610
116.32474,39.30985,167,6610
116.32474,39.30985,168,6610
116.25899,39.13217,169,6610
116.19961,39.13784,170,6610
116.12556,39.11677,171,6610
116.10844,39.08774,172,6610
116.10547,39.08844,173,6610
116.10546,39.08843,174,6610
116.10546,39.08843,175,6610
116.10546,39.08843,176,6610
116.10546,39.08843,177,6610
116.10546,39.08843,178,6610
116.10546,39.0884,179,6610
116.11041,39.11043,180,6610
116.18089,39.13136,181,6610
116.23895,39.12944,182,6610
116.30122,39.1287,183,6610
116.36244,39.10532,184,6610
116.38437,39.11425,185,6610
116.38229,39.15012,186,6610
116.35676,39.21025,187,6610
116.32543,39.30735,188,6610
116.30864,39.36714,189,6610
116.30303,39.42896,190,6610
116.30411,39.46141,191,6610
116.31802,39.50857,192,6610
116.31954,39.56297,193,6610
116.31741,39.64254,194,6610
116.33788,39.7159,195,6610
116.34223,39.79107,196,6610
116.34007,39.84641,197,6610
116.34331,39.89626,198,6610
116.35016,39.91332,199,6610
116.3503,39.90469,200,6610
116.34278,39.87205,201,6610
116.33642,39.82624,202,6610
116.32984,39.81967,203,6610
116.33899,39.80621,204,6610
116.34139,39.79407,205,6610
116.33532,39.74619,206,6610
116.33663,39.75178,207,6610
116.33665,39.75173,208,6610
116.33665,39.75173,209,6610
116.33665,39.75173,210,6610
116.33665,39.75173,211,6610
116.33665,39.75173,212,6610
116.33665,39.75173,213,6610
116.33665,39.75173,214,6610
116.33665,39.75173,215,6610
116.33665,39.75173,216,6610
116.33665,39.75173,217,6610
116.33665,39.75173,218,6610
116.33665,39.75173,219,6610
116.33665,39.75173,220,6610
116.33665,39.75173,221,6610
116.33665,39.75173,222,6610
116.33665,39.75173,223,6610
116.33665,39.75173,224,6610
116.33665,39.75173,225,6610
116.33665,39.75173,226,6610
116.33665,39.75173,227,6610
116.33665,39.75173,228,6610
116.33604,39.75118,229,6610
116.33881,39.74139,230,6610
116.33596,39.77394,231,6610
116.35402,39.79201,232,6610
116.37197,39.79027,233,6610
116.37472,39.76275,234,6610
116.42131,39.76264,235,6610
116.43561,39.76934,236,6610
116.43055,39.77385,237,6610
116.41598,39.78496,238,6610
116.41795,39.79988,239,6610
116.39696,39.80363,240,6610
116.39593,39.81969,241,6610
116.39493,39.83685,242,6610
116.39763,39.85546,243,6610
116.40806,39.85262,244,6610
116.41491,39.84442,245,6610
116.41486,39.84439,246,6610
116.41486,39.84439,247,6610
116.41486,39.84439,248,6610
116.41486,39.84439,249,6610
116.41486,39.84439,250,6610
116.415,39.8445,251,6610
116.41555,39.84722,252,6610
116.42183,39.857,253,6610
116.41546,39.86991,254,6610
116.36524,39.86874,255,6610
116.34282,39.89409,256,6610
116.30351,39.89589,257,6610
116.30285,39.8957,258,6610
116.30285,39.8957,259,6610
116.31284,39.89562,260,6610
116.30462,39.89749,261,6610
116.3041,39.93524,262,6610
116.20997,39.99074,263,6610
116.23845,40.00004,264,6610
116.26343,40.0043,265,6610
116.26117,40.01305,266,6610
116.26117,40.01305,267,6610
116.26631,40.00625,268,6610
116.24164,40.00175,269,6610
116.22387,39.98398,270,6610
116.22387,39.98398,271,6610
116.25318,39.97201,272,6610
116.23579,39.97192,273,6610
116.24496,39.97131,274,6610
116.26923,39.96517,275,6610
116.2727,39.95555,276,6610
116.2796,39.9583,277,6610
116.28147,39.96003,278,6610
116.29957,39.95972,279,6610
116.31093,39.96396,280,6610
116.31464,39.96522,281,6610
116.31803,39.9656,282,6610
116.32893,39.95645,283,6610
116.31498,39.96643,284,6610
116.31055,39.97942,285,6610
116.30859,39.98117,286,6610
116.30358,39.98111,287,6610
116.3005,39.97097,288,6610
116.30025,39.96881,289,6610
116.30059,39.98083,290,6610
116.31072,39.97625,291,6610
116.31487,39.96608,292,6610
116.32064,39.96621,293,6610
116.30623,39.96273,294,6610
116.30079,39.95427,295,6610
116.30079,39.95427,296,6610
116.31102,39.95203,297,6610
116.3182,39.94558,298,6610
116.31964,39.93194,299,6610
116.31531,39.92688,300,6610
116.31765,39.9374,301,6610
116.33643,39.93632,302,6610
116.33776,39.92712,303,6610
116.33787,39.93394,304,6610
116.32869,39.96265,305,6610
116.3278,39.9747,306,6610
116.34528,39.97518,307,6610
116.36653,39.97536,308,6610
116.38801,39.97342,309,6610
116.38923,39.94877,310,6610
116.4252,39.94824,311,6610
116.42773,39.93076,312,6610
116.42812,39.92109,313,6610
116.42037,39.91381,314,6610
116.42052,39.90377,315,6610
116.42058,39.91257,316,6610
116.42007,39.92271,317,6610
116.41954,39.93856,318,6610
116.41773,39.93966,319,6610
116.41938,39.93952,320,6610
116.41938,39.93952,321,6610
116.41997,39.92366,322,6610
116.42036,39.91511,323,6610
116.42061,39.90533,324,6610
116.41426,39.90035,325,6610
116.41191,39.90061,326,6610
116.41251,39.89422,327,6610
116.40724,39.86839,328,6610
116.40748,39.86514,329,6610
116.40786,39.85777,330,6610
116.40826,39.84857,331,6610
116.40808,39.85392,332,6610
116.4012,39.85584,333,6610
116.34378,39.84126,334,6610
116.34082,39.78472,335,6610
116.33852,39.74088,336,6610
116.33832,39.73496,337,6610
116.33818,39.73485,338,6610
116.33818,39.73485,339,6610
116.33818,39.73485,340,6610
116.33818,39.73485,341,6610
116.33818,39.73485,342,6610
116.33818,39.73485,343,6610
116.33818,39.73485,344,6610
116.33818,39.73485,345,6610
116.33818,39.73485,346,6610
116.33818,39.73485,347,6610
116.33818,39.73485,348,6610
116.33818,39.73485,349,6610
116.33818,39.73485,350,6610
116.33818,39.73485,351,6610
116.33818,39.73485,352,6610
116.33818,39.73485,353,6610
116.33818,39.73485,354,6610
116.33818,39.73485,355,6610
116.33818,39.73485,356,6610
116.33818,39.73485,357,6610
116.3357,39.74371,358,6610
116.33645,39.75163,359,6610
116.33858,39.74922,360,6610
116.33903,39.77786,361,6610
116.33903,39.77786,362,6610
116.35542,39.7922,363,6610
116.35542,39.7922,364,6610
116.36201,39.82547,365,6610
116.36174,39.84454,366,6610
116.35836,39.85185,367,6610
116.34876,39.84459,368,6610
116.34544,39.86634,369,6610
116.34769,39.87497,370,6610
116.34767,39.87442,371,6610
116.34462,39.8731,372,6610
116.35138,39.88802,373,6610
116.36576,39.88785,374,6610
116.3677,39.88786,375,6610
116.36816,39.90064,376,6610
116.36985,39.90744,377,6610
116.36759,39.91211,378,6610
116.36562,39.90672,379,6610
116.35515,39.91271,380,6610
116.35359,39.91482,381,6610
116.34363,39.91246,382,6610
116.32882,39.91277,383,6610
116.3145,39.90913,384,6610
116.31678,39.90979,385,6610
116.331,39.91273,386,6610
116.33821,39.91262,387,6610
116.35012,39.9429,388,6610
116.3539,39.97523,389,6610
116.35941,39.97178,390,6610
116.33354,39.96648,391,6610
116.31711,39.96602,392,6610
116.29759,39.9672,393,6610
116.29521,39.96806,394,6610
116.30618,39.97458,395,6610
116.33859,39.97523,396,6610
116.33843,39.97513,397,6610
116.31177,39.97478,398,6610
116.31059,39.97923,399,6610
116.30865,39.9811,400,6610
116.31113,39.97522,401,6610
116.30358,39.94575,402,6610
116.28267,39.94576,403,6610
116.26972,39.94148,404,6610
116.28217,39.94727,405,6610
116.27846,39.9546,406,6610
116.26918,39.96223,407,6610
116.25998,39.95037,408,6610
116.26993,39.9519,409,6610
116.29826,39.9836,410,6610
116.30845,39.98249,411,6610
116.30845,39.98249,412,6610
116.31372,39.96896,413,6610
116.30274,39.95455,414,6610
116.30479,39.94053,415,6610
116.33277,39.93672,416,6610
116.33072,39.93667,417,6610
116.31948,39.93935,418,6610
116.33298,39.94624,419,6610
116.32904,39.95735,420,6610
116.3393,39.95836,421,6610
116.34387,39.9438,422,6610
116.32395,39.93744,423,6610
116.30382,39.94062,424,6610
116.30373,39.92413,425,6610
116.281,39.92304,426,6610
116.25881,39.9233,427,6610
116.24269,39.9195,428,6610
116.24686,39.9119,429,6610
116.27012,39.90616,430,6610
116.28822,39.90618,431,6610
116.3186,39.90208,432,6610
116.31337,39.89596,433,6610
116.35049,39.90943,434,6610
116.35392,39.93097,435,6610
116.34998,39.92227,436,6610
116.35001,39.91943,437,6610
116.35028,39.91132,438,6610
116.34241,39.89482,439,6610
116.34467,39.87624,440,6610
116.35454,39.87587,441,6610
116.35518,39.87596,442,6610
116.3711,39.8773,443,6610
116.36898,39.88189,444,6610
116.36839,39.89329,445,6610
116.37223,39.89832,446,6610
116.37373,39.89708,447,6610
116.36802,39.89834,448,6610
116.36802,39.89834,449,6610
116.34146,39.90599,450,6610
116.34631,39.91253,451,6610
116.35054,39.90914,452,6610
116.32796,39.93116,453,6610
116.32738,39.93148,454,6610
116.34696,39.92124,455,6610
116.35393,39.91261,456,6610
116.36727,39.91024,457,6610
116.36795,39.90007,458,6610
116.36798,39.89906,459,6610
116.36164,39.88701,460,6610
116.36807,39.87703,461,6610
116.34113,39.85682,462,6610
116.34037,39.79922,463,6610
116.33827,39.74404,464,6610
116.33828,39.73497,465,6610
116.33831,39.73505,466,6610
116.33831,39.73505,467,6610
116.33831,39.73505,468,6610
116.33831,39.73505,469,6610
116.33831,39.73505,470,6610
116.33831,39.73505,471,6610
116.33831,39.73505,472,6610
116.33831,39.73505,473,6610
116.33831,39.73505,474,6610
116.33831,39.73505,475,6610
116.33831,39.73505,476,6610
116.33831,39.73505,477,6610
116.33831,39.73505,478,6610
116.33831,39.73505,479,6610
116.33831,39.73505,480,6610
116.33831,39.73505,481,6610
116.33831,39.73505,482,6610
116.33831,39.73505,483,6610
116.33525,39.74695,484,6610
116.33644,39.75169,485,6610
116.33631,39.75152,486,6610
116.33818,39.73507,487,6610
116.3333,39.73735,488,6610
116.33337,39.73737,489,6610
116.33337,39.73737,490,6610
116.33337,39.73737,491,6610
116.33337,39.73737,492,6610
116.33337,39.73737,493,6610
116.33337,39.73737,494,6610
116.33337,39.73737,495,6610
116.33337,39.73737,496,6610
116.33337,39.73737,497,6610
116.33337,39.73737,498,6610
116.33337,39.73737,499,6610
116.33337,39.73737,500,6610
116.3376,39.73575,501,6610
116.33819,39.73508,502,6610
116.33819,39.73508,503,6610
116.33819,39.73508,504,6610
116.33819,39.73508,505,6610
116.33819,39.73508,506,6610
116.33819,39.73508,507,6610
116.33851,39.7499,508,6610
116.34316,39.78697,509,6610
116.36193,39.79427,510,6610
116.36492,39.84265,511,6610
116.36536,39.86409,512,6610
116.35778,39.87337,513,6610
116.36118,39.88396,514,6610
116.36843,39.89363,515,6610
116.36981,39.9076,516,6610
116.3675,39.91649,517,6610
116.35713,39.93918,518,6610
116.32049,39.93755,519,6610
116.30482,39.93114,520,6610
116.29093,39.93856,521,6610
116.27048,39.94551,522,6610
116.26404,39.93991,523,6610
116.26764,39.90671,524,6610
116.25912,39.91629,525,6610
116.28109,39.92285,526,6610
116.30421,39.93568,527,6610
116.30373,39.9419,528,6610
116.30373,39.9419,529,6610
116.34963,39.94076,530,6610
116.37502,39.97694,531,6610
116.41651,39.98723,532,6610
116.41883,40.00208,533,6610
116.41785,39.98681,534,6610
116.40358,39.99741,535,6610
116.41091,39.98703,536,6610
116.36926,39.98627,537,6610
116.31474,39.98459,538,6610
116.31306,39.97008,539,6610
116.31436,39.96526,540,6610
116.31394,39.96897,541,6610
116.32888,39.97512,542,6610
116.32761,39.97465,543,6610
116.32692,39.98707,544,6610
116.32077,39.99682,545,6610
116.30999,39.98508,546,6610
116.31471,39.96607,547,6610
116.30976,39.96037,548,6610
116.31739,39.95389,549,6610
116.32798,39.93668,550,6610
116.37685,39.94746,551,6610
116.42749,39.93506,552,6610
116.42749,39.93506,553,6610
116.44639,39.93226,554,6610
116.45165,39.90714,555,6610
116.44424,39.91572,556,6610
116.45361,39.90696,557,6610
116.45479,39.88356,558,6610
116.45738,39.88318,559,6610
116.44545,39.89141,560,6610
116.44966,39.89592,561,6610
116.46085,39.883,562,6610
116.44987,39.87753,563,6610
116.43838,39.8832,564,6610
116.42254,39.89048,565,6610
116.4302,39.90162,566,6610
116.42126,39.94832,567,6610
116.37342,39.95968,568,6610
116.37349,39.96448,569,6610
116.37321,39.94236,570,6610
116.3898,39.93544,571,6610
116.36639,39.93135,572,6610
116.2674,39.90612,573,6610
116.28756,39.90894,574,6610
116.31227,39.90984,575,6610
116.334,39.91269,576,6610
116.35695,39.91265,577,6610
116.37395,39.91092,578,6610
116.36778,39.90976,579,6610
116.36778,39.90976,580,6610
116.36812,39.89678,581,6610
116.36801,39.87756,582,6610
116.3674,39.86249,583,6610
116.36463,39.8394,584,6610
116.36048,39.80282,585,6610
116.35579,39.77263,586,6610
116.33721,39.76179,587,6610
116.33689,39.7394,588,6610
116.3383,39.73504,589,6610
116.3388,39.73492,590,6610
116.34637,39.72039,591,6610
116.40278,39.71932,592,6610
116.46641,39.72295,593,6610
116.43596,39.72201,594,6610
116.36837,39.72066,595,6610
116.33957,39.73359,596,6610
116.3382,39.73503,597,6610
116.33793,39.73476,598,6610
116.33517,39.74768,599,6610
116.33647,39.75163,600,6610
116.33646,39.75178,601,6610
116.33646,39.75178,602,6610
116.33646,39.75178,603,6610
116.33646,39.75178,604,6610
116.33646,39.75178,605,6610
116.33646,39.75178,606,6610
116.33646,39.75178,607,6610
116.33646,39.75178,608,6610
116.33646,39.75178,609,6610
116.33646,39.75178,610,6610
116.33646,39.75178,611,6610
116.33646,39.75178,612,6610
116.33646,39.75178,613,6610
116.33646,39.75178,614,6610
116.33646,39.75178,615,6610
116.33646,39.75178,616,6610
116.33646,39.75178,617,6610
116.33646,39.75178,618,6610
116.33646,39.75178,619,6610
116.33646,39.75178,620,6610
116.33646,39.75178,621,6610
116.33646,39.75178,622,6610
116.33641,39.75181,623,6610
116.33641,39.7518,624,6610
116.33816,39.73478,625,6610
116.33834,39.73475,626,6610
116.33834,39.73475,627,6610
116.33834,39.73475,628,6610
116.33834,39.73475,629,6610
116.33915,39.73479,630,6610
116.40267,39.7193,631,6610
116.40267,39.7193,632,6610
116.45847,39.72244,633,6610
116.46354,39.72143,634,6610
116.46356,39.72148,635,6610
116.46362,39.72142,636,6610
116.4662,39.72207,637,6610
116.46627,39.72194,638,6610
116.46703,39.72311,639,6610
116.46703,39.72311,640,6610
116.46701,39.72312,641,6610
116.46701,39.72312,642,6610
116.46866,39.72228,643,6610
116.45841,39.72247,644,6610
116.45629,39.72639,645,6610
116.4028,39.71894,646,6610
116.4032,39.71177,647,6610
116.40317,39.71181,648,6610
116.40317,39.71181,649,6610
116.40262,39.7195,650,6610
116.4024,39.71959,651,6610
116.34766,39.72049,652,6610
116.32568,39.72758,653,6610
116.3249,39.72769,654,6610
116.3249,39.72769,655,6610
116.3249,39.72769,656,6610
116.32497,39.72785,657,6610
116.32463,39.72783,658,6610
116.32482,39.73203,659,6610
116.32501,39.7321,660,6610
116.32501,39.7321,661,6610
116.32633,39.74736,662,6610
116.32809,39.74874,663,6610
116.33372,39.75263,664,6610
116.33367,39.75233,665,6610
116.33367,39.75233,666,6610
116.33367,39.75233,667,6610
116.33367,39.75233,668,6610
116.33367,39.75233,669,6610
116.33367,39.75233,670,6610
116.33367,39.75233,671,6610
116.33367,39.75233,672,6610
116.33367,39.75233,673,6610
116.33367,39.75233,674,6610
116.33367,39.75233,675,6610
116.33367,39.75233,676,6610
116.33367,39.75233,677,6610
116.33367,39.75233,678,6610
116.33367,39.75233,679,6610
116.33367,39.75233,680,6610
116.33367,39.75233,681,6610
116.33367,39.75233,682,6610
116.33367,39.75233,683,6610
116.33367,39.75233,684,6610
116.33367,39.75233,685,6610
116.33367,39.75233,686,6610
116.33367,39.75233,687,6610
116.32662,39.75231,688,6610
116.31485,39.74265,689,6610
116.33302,39.74127,690,6610
116.3366,39.75169,691,6610
116.33664,39.75161,692,6610
116.33664,39.75161,693,6610
116.33664,39.75161,694,6610
116.33664,39.75161,695,6610
116.33664,39.75161,696,6610
116.33664,39.75161,697,6610
116.33664,39.75161,698,6610
116.33664,39.75161,699,6610
116.33664,39.75161,700,6610
116.33664,39.75161,701,6610
116.33664,39.75161,702,6610
116.33664,39.75161,703,6610
116.33664,39.75161,704,6610
116.33664,39.75161,705,6610
116.33664,39.75161,706,6610
116.33664,39.75161,707,6610
116.33664,39.75161,708,6610
116.33664,39.75161,709,6610
116.33664,39.75161,710,6610
116.33664,39.75161,711,6610
116.33664,39.75161,712,6610
116.33664,39.75161,713,6610
116.01842,39.59831,714,6610
116.33595,39.75153,715,6610
116.33825,39.73513,716,6610
116.33937,39.72117,717,6610
116.36372,39.72065,718,6610
116.41696,39.72086,719,6610
116.46816,39.71409,720,6610
116.49025,39.68882,721,6610
116.50473,39.68214,722,6610
116.48191,39.6979,723,6610
116.46159,39.72019,724,6610
116.40008,39.72491,725,6610
116.40334,39.72751,726,6610
