x,y,k,tid
116.44898,39.97956,0,6690
116.46345,39.99067,1,6690
116.46366,40.00359,2,6690
116.4649,40.0102,3,6690
116.47132,40.01283,4,6690
116.47133,40.01284,5,6690
116.47133,40.01284,6,6690
116.47132,40.01284,7,6690
116.47132,40.01282,8,6690
116.47643,40.0097,9,6690
116.47641,39.99137,10,6690
116.46477,39.96906,11,6690
116.48372,39.92454,12,6690
116.45522,39.90309,13,6690
116.44686,39.89759,14,6690
116.45574,39.89845,15,6690
116.45563,39.9067,16,6690
116.44442,39.91856,17,6690
116.45595,39.94629,18,6690
116.45804,39.95684,19,6690
116.49028,39.95181,20,6690
116.48351,39.93102,21,6690
116.47123,39.90661,22,6690
116.43843,39.90765,23,6690
116.4219,39.90701,24,6690
116.40548,39.90664,25,6690
116.38473,39.90613,26,6690
116.38473,39.90613,27,6690
116.35918,39.90591,28,6690
116.35918,39.90591,29,6690
116.35056,39.9136,30,6690
116.34996,39.92626,31,6690
116.34917,39.95136,32,6690
116.33288,39.96641,33,6690
116.31037,39.97612,34,6690
116.30335,39.97428,35,6690
116.29119,39.9911,36,6690
116.27052,40.00137,37,6690
116.27052,40.00137,38,6690
116.26103,40.01664,39,6690
116.25934,40.02674,40,6690
116.27358,40.03226,41,6690
116.30047,40.034,42,6690
116.29668,40.04519,43,6690
116.29671,40.04521,44,6690
116.29673,40.04521,45,6690
116.29674,40.04522,46,6690
116.29652,40.04516,47,6690
116.29663,40.04515,48,6690
116.29659,40.0451,49,6690
116.29661,40.04512,50,6690
116.29661,40.04513,51,6690
116.29663,40.04513,52,6690
116.29664,40.04513,53,6690
116.29965,40.03862,54,6690
116.29771,40.02419,55,6690
116.28643,39.99783,56,6690
116.27688,39.97317,57,6690
116.28001,39.95844,58,6690
116.27718,39.95331,59,6690
116.275,39.95385,60,6690
116.28873,39.9525,61,6690
116.29625,39.92251,62,6690
116.30382,39.92029,63,6690
116.30413,39.90892,64,6690
116.31029,39.90604,65,6690
116.33514,39.9058,66,6690
116.35632,39.90578,67,6690
116.37189,39.90568,68,6690
116.39193,39.90623,69,6690
116.40552,39.90208,70,6690
116.40996,39.90169,71,6690
116.41083,39.90711,72,6690
116.43449,39.90712,73,6690
116.45395,39.90703,74,6690
116.48382,39.91717,75,6690
116.47395,39.96319,76,6690
116.50048,40.00342,77,6690
116.56242,40.03316,78,6690
116.58275,40.06536,79,6690
116.5865,40.0793,80,6690
116.58113,40.07226,81,6690
116.57849,40.0627,82,6690
116.56421,40.06199,83,6690
116.55432,40.09452,84,6690
116.58159,40.11678,85,6690
116.62297,40.11636,86,6690
116.65443,40.10474,87,6690
116.6241,40.11643,88,6690
116.57636,40.11675,89,6690
116.5367,40.11112,90,6690
116.5367,40.11112,91,6690
116.53676,40.10336,92,6690
116.51743,40.0955,93,6690
116.51019,40.10028,94,6690
116.53074,40.09784,95,6690
116.55333,40.08946,96,6690
116.56139,40.0747,97,6690
116.56579,40.07165,98,6690
116.56577,40.07166,99,6690
116.56577,40.07166,100,6690
116.56577,40.07166,101,6690
116.56575,40.07168,102,6690
116.56576,40.07169,103,6690
116.56576,40.0717,104,6690
116.56576,40.0717,105,6690
116.56576,40.0717,106,6690
116.56576,40.07171,107,6690
116.56576,40.07171,108,6690
116.56576,40.07171,109,6690
116.56576,40.07171,110,6690
116.56576,40.07171,111,6690
116.56253,40.06944,112,6690
116.58214,40.06233,113,6690
116.58243,40.06429,114,6690
116.58209,40.06641,115,6690
116.58179,40.06755,116,6690
116.58183,40.06761,117,6690
116.58184,40.06762,118,6690
116.58155,40.07001,119,6690
116.58138,40.07089,120,6690
116.58079,40.07373,121,6690
116.58079,40.07373,122,6690
116.58256,40.0745,123,6690
116.58778,40.07748,124,6690
116.58714,40.07908,125,6690
116.57967,40.04743,126,6690
116.51741,40.01657,127,6690
116.46407,39.96975,128,6690
116.48533,39.93237,129,6690
116.48934,39.93232,130,6690
116.48796,39.93274,131,6690
116.49228,39.95447,132,6690
116.48721,39.97513,133,6690
116.48399,39.97269,134,6690
116.46162,39.96019,135,6690
116.44575,39.95186,136,6690
116.44574,39.95185,137,6690
116.44571,39.95187,138,6690
116.44568,39.95188,139,6690
116.44567,39.95188,140,6690
116.44567,39.95188,141,6690
116.45381,39.94779,142,6690
116.457,39.95143,143,6690
116.47033,39.9679,144,6690
116.4921,39.97532,145,6690
116.47376,39.97541,146,6690
116.47372,39.97538,147,6690
116.47372,39.97538,148,6690
116.47374,39.97531,149,6690
116.47377,39.9753,150,6690
116.47377,39.9753,151,6690
116.47376,39.97529,152,6690
116.47398,39.97542,153,6690
116.47521,39.97655,154,6690
116.46206,39.99534,155,6690
116.46232,39.995,156,6690
116.45724,40.01154,157,6690
116.4614,40.00729,158,6690
116.45436,39.99558,159,6690
116.46033,39.97918,160,6690
116.46028,39.97919,161,6690
116.46029,39.97916,162,6690
116.46028,39.97916,163,6690
116.46028,39.97916,164,6690
116.46039,39.9788,165,6690
116.46044,39.97941,166,6690
116.46031,39.97915,167,6690
116.46028,39.97918,168,6690
116.46031,39.97929,169,6690
116.46032,39.97925,170,6690
116.46032,39.97925,171,6690
116.46031,39.97924,172,6690
116.4603,39.97922,173,6690
116.4603,39.97921,174,6690
116.4603,39.97921,175,6690
116.4603,39.9792,176,6690
116.4603,39.9792,177,6690
116.4603,39.97919,178,6690
116.4603,39.97919,179,6690
116.4603,39.97919,180,6690
116.46007,39.98039,181,6690
116.46029,39.97925,182,6690
116.46031,39.97929,183,6690
116.46023,39.97924,184,6690
116.4603,39.97924,185,6690
116.4603,39.97925,186,6690
116.4603,39.97925,187,6690
116.4603,39.97925,188,6690
116.46029,39.97921,189,6690
116.46029,39.9792,190,6690
116.46029,39.9792,191,6690
116.46028,39.9792,192,6690
116.46027,39.9792,193,6690
116.46026,39.97921,194,6690
116.46025,39.9792,195,6690
116.46025,39.9792,196,6690
116.46025,39.9792,197,6690
116.4594,39.97654,198,6690
116.44565,39.97563,199,6690
116.44565,39.97563,200,6690
116.46018,39.97063,201,6690
116.46003,39.97109,202,6690
116.4601,39.9708,203,6690
116.4664,39.98215,204,6690
116.4817,39.98748,205,6690
116.48832,39.99365,206,6690
116.48833,39.99365,207,6690
116.48835,39.99366,208,6690
116.50156,40.00649,209,6690
116.50158,40.00649,210,6690
116.50157,40.00648,211,6690
116.50158,40.00649,212,6690
116.50159,40.00649,213,6690
116.5016,40.0065,214,6690
116.50159,40.00651,215,6690
116.50159,40.00651,216,6690
116.50156,40.0065,217,6690
116.50155,40.00652,218,6690
116.50155,40.00652,219,6690
116.50156,40.00652,220,6690
116.50157,40.00652,221,6690
116.49068,40.00059,222,6690
116.47536,40.00072,223,6690
116.47408,40.00085,224,6690
116.47408,40.00085,225,6690
116.44964,39.99571,226,6690
116.44586,39.99451,227,6690
116.45618,39.98633,228,6690
116.46861,39.98476,229,6690
116.48118,39.9871,230,6690
116.48118,39.9871,231,6690
116.44979,39.95901,232,6690
116.42825,39.93804,233,6690
116.40372,39.92122,234,6690
116.40281,39.9221,235,6690
116.40014,39.93145,236,6690
116.40232,39.93769,237,6690
116.40157,39.95987,238,6690
116.40122,39.98013,239,6690
116.39208,39.98529,240,6690
116.40501,39.98349,241,6690
116.41847,39.97018,242,6690
116.41925,39.94903,243,6690
116.41922,39.94014,244,6690
116.41953,39.93335,245,6690
116.42235,39.92944,246,6690
116.42571,39.92809,247,6690
116.38866,39.96153,248,6690
116.38173,39.97693,249,6690
116.38041,39.99006,250,6690
116.38165,39.97281,251,6690
116.38493,39.97154,252,6690
116.39599,39.96453,253,6690
116.40175,39.95288,254,6690
116.39688,39.93349,255,6690
116.39695,39.93444,256,6690
116.40167,39.93935,257,6690
116.41062,39.93994,258,6690
116.41174,39.94173,259,6690
116.41176,39.94174,260,6690
116.41176,39.94174,261,6690
116.41175,39.94176,262,6690
116.41177,39.94178,263,6690
116.41181,39.94182,264,6690
116.41179,39.94184,265,6690
116.41171,39.94213,266,6690
116.41175,39.94196,267,6690
116.41172,39.942,268,6690
116.41172,39.94197,269,6690
116.41173,39.94194,270,6690
116.41174,39.94193,271,6690
116.41174,39.94191,272,6690
116.41176,39.94191,273,6690
116.41177,39.9419,274,6690
116.41256,39.94177,275,6690
116.4193,39.94378,276,6690
116.42609,39.95356,277,6690
116.43664,39.95812,278,6690
116.46199,39.94996,279,6690
116.46544,39.93462,280,6690
116.47157,39.9275,281,6690
116.47176,39.9273,282,6690
116.45938,39.92196,283,6690
116.42115,39.91426,284,6690
116.42008,39.91396,285,6690
116.41104,39.92774,286,6690
116.42247,39.92857,287,6690
116.42247,39.92857,288,6690
116.42777,39.93601,289,6690
116.43238,39.9582,290,6690
116.43516,39.95536,291,6690
116.44324,39.96384,292,6690
116.44249,39.96333,293,6690
116.45555,39.94364,294,6690
116.45535,39.92556,295,6690
116.45506,39.89159,296,6690
116.4401,39.85753,297,6690
116.41509,39.85609,298,6690
116.40821,39.85592,299,6690
116.40821,39.85592,300,6690
116.40424,39.85276,301,6690
116.40365,39.85538,302,6690
116.39594,39.8631,303,6690
116.41007,39.86387,304,6690
116.40727,39.86979,305,6690
116.39257,39.88067,306,6690
116.38694,39.88407,307,6690
116.38694,39.88407,308,6690
116.39881,39.88649,309,6690
116.41799,39.88256,310,6690
116.42485,39.88274,311,6690
116.41385,39.89182,312,6690
116.40091,39.89926,313,6690
116.40045,39.90477,314,6690
116.39673,39.91575,315,6690
116.39073,39.93193,316,6690
116.39158,39.93194,317,6690
116.40241,39.93897,318,6690
116.40997,39.95572,319,6690
116.41492,39.9558,320,6690
116.41492,39.9558,321,6690
116.42641,39.95075,322,6690
116.42598,39.95456,323,6690
116.42598,39.95456,324,6690
116.44259,39.97062,325,6690
116.46717,39.98335,326,6690
116.46174,40.00189,327,6690
116.46686,39.99405,328,6690
116.46686,39.99405,329,6690
116.47564,39.98798,330,6690
116.47474,39.98818,331,6690
116.44893,39.99575,332,6690
116.45023,39.99565,333,6690
116.45902,39.9958,334,6690
116.47669,39.99992,335,6690
116.47171,39.99474,336,6690
116.47606,39.98333,337,6690
116.48245,39.97186,338,6690
116.49049,39.9706,339,6690
116.49048,39.9706,340,6690
116.49561,39.97055,341,6690
116.4956,39.97056,342,6690
116.49713,39.96658,343,6690
116.49218,39.95887,344,6690
116.49219,39.95893,345,6690
116.49194,39.95935,346,6690
116.4858,39.95879,347,6690
116.48162,39.95948,348,6690
116.46242,39.94742,349,6690
116.463,39.94398,350,6690
116.46172,39.95655,351,6690
116.45268,39.95461,352,6690
116.45159,39.95525,353,6690
116.43804,39.96739,354,6690
116.44649,39.97669,355,6690
116.44748,39.97781,356,6690
116.44935,39.98006,357,6690
116.46361,39.9908,358,6690
116.46193,40.00092,359,6690
116.47229,40.0038,360,6690
116.48049,39.9887,361,6690
116.48313,39.98794,362,6690
116.43599,39.94837,363,6690
116.41719,39.93238,364,6690
116.40833,39.93385,365,6690
116.40287,39.93219,366,6690
116.36289,39.93127,367,6690
116.35089,39.93105,368,6690
116.35053,39.91579,369,6690
116.35133,39.90046,370,6690
116.35164,39.9004,371,6690
116.35317,39.91893,372,6690
116.35366,39.91807,373,6690
116.3389,39.90984,374,6690
116.33662,39.90209,375,6690
116.31648,39.89596,376,6690
116.31953,39.89832,377,6690
116.31848,39.89832,378,6690
116.29314,39.89571,379,6690
116.27499,39.8684,380,6690
116.27686,39.85016,381,6690
116.27429,39.84522,382,6690
116.2816,39.84708,383,6690
116.2816,39.84708,384,6690
116.28784,39.85408,385,6690
116.30824,39.86616,386,6690
116.3607,39.86796,387,6690
116.3607,39.86796,388,6690
116.37101,39.86892,389,6690
116.42671,39.86969,390,6690
116.46596,39.892,391,6690
116.46327,39.89196,392,6690
116.45515,39.903,393,6690
116.44697,39.9042,394,6690
116.44701,39.90359,395,6690
116.43959,39.88025,396,6690
116.41569,39.86451,397,6690
116.40809,39.8537,398,6690
116.40894,39.84086,399,6690
116.42314,39.84824,400,6690
116.43254,39.85715,401,6690
116.42712,39.86475,402,6690
116.4205,39.86449,403,6690
116.41661,39.85612,404,6690
116.42218,39.84545,405,6690
116.42075,39.84266,406,6690
116.42239,39.85663,407,6690
116.431,39.86924,408,6690
116.4556,39.88335,409,6690
116.45564,39.93463,410,6690
116.44581,39.95751,411,6690
116.43679,39.94885,412,6690
116.40626,39.94784,413,6690
116.37478,39.95384,414,6690
116.38757,39.9505,415,6690
116.34878,39.93947,416,6690
116.31734,39.95527,417,6690
116.31392,39.95554,418,6690
116.32331,39.96452,419,6690
116.30399,39.93865,420,6690
116.30293,39.89511,421,6690
116.30947,39.89555,422,6690
116.31063,39.89557,423,6690
116.31235,39.89559,424,6690
116.35071,39.90148,425,6690
116.35363,39.92025,426,6690
116.35353,39.91981,427,6690
116.35353,39.91844,428,6690
116.36797,39.89906,429,6690
116.36805,39.89421,430,6690
116.3686,39.89349,431,6690
116.35094,39.90062,432,6690
116.34959,39.93496,433,6690
116.35249,39.94858,434,6690
116.34927,39.95174,435,6690
116.3419,39.97571,436,6690
116.3419,39.97571,437,6690
116.3538,39.9855,438,6690
116.35905,39.99163,439,6690
116.35907,39.99166,440,6690
116.39551,39.98668,441,6690
116.41027,39.98754,442,6690
116.41021,39.98704,443,6690
116.41059,39.98644,444,6690
116.38252,39.96707,445,6690
116.32639,39.96647,446,6690
116.32324,39.96624,447,6690
116.33468,39.96603,448,6690
116.38164,39.96237,449,6690
116.38192,39.96358,450,6690
116.43979,39.96192,451,6690
116.45512,39.92231,452,6690
116.45029,39.91618,453,6690
116.45056,39.92195,454,6690
116.45758,39.92686,455,6690
116.45554,39.93246,456,6690
116.44923,39.93447,457,6690
116.44926,39.93457,458,6690
116.44795,39.93509,459,6690
116.44793,39.93505,460,6690
116.44795,39.93502,461,6690
116.44796,39.93501,462,6690
116.44796,39.93501,463,6690
116.44815,39.93475,464,6690
116.44791,39.93489,465,6690
116.44801,39.93463,466,6690
116.43759,39.92788,467,6690
116.43759,39.92788,468,6690
116.42667,39.94753,469,6690
116.35848,39.9449,470,6690
116.30108,39.94218,471,6690
116.27091,39.9601,472,6690
116.27228,39.96006,473,6690
116.28163,39.959,474,6690
116.28224,39.95715,475,6690
116.30129,39.97138,476,6690
116.30142,39.97239,477,6690
116.34168,39.96612,478,6690
116.34234,39.96613,479,6690
116.34938,39.94282,480,6690
116.34909,39.94206,481,6690
116.35216,39.96617,482,6690
116.36798,39.9725,483,6690
116.38395,39.96169,484,6690
116.42481,39.96805,485,6690
116.43266,39.96048,486,6690
116.43308,39.96016,487,6690
116.43549,39.9871,488,6690
116.3619,39.98601,489,6690
116.33105,39.9899,490,6690
116.34747,39.98003,491,6690
116.34865,39.94286,492,6690
116.34922,39.94286,493,6690
116.34922,39.94286,494,6690
116.34922,39.94286,495,6690
116.34922,39.94286,496,6690
116.34922,39.94286,497,6690
116.34922,39.94286,498,6690
116.34922,39.94286,499,6690
116.34922,39.94286,500,6690
116.34909,39.94294,501,6690
116.34917,39.94292,502,6690
116.34917,39.94292,503,6690
116.34917,39.94291,504,6690
116.34918,39.94292,505,6690
116.34918,39.94292,506,6690
116.34919,39.94292,507,6690
116.34928,39.94283,508,6690
116.37272,39.94117,509,6690
116.37983,39.94395,510,6690
116.37075,39.99119,511,6690
116.3768,39.99632,512,6690
116.38511,39.97551,513,6690
116.40264,39.94754,514,6690
116.40264,39.94754,515,6690
116.41209,39.94178,516,6690
116.41187,39.94188,517,6690
116.41189,39.94191,518,6690
116.41193,39.94171,519,6690
116.41197,39.94094,520,6690
116.41181,39.94191,521,6690
116.41181,39.94184,522,6690
116.41185,39.94182,523,6690
116.41188,39.94182,524,6690
116.41191,39.94182,525,6690
116.43052,39.94801,526,6690
116.4623,39.96083,527,6690
116.45999,39.97108,528,6690
116.45984,39.97115,529,6690
116.47352,39.98503,530,6690
116.4865,39.99179,531,6690
116.48841,39.99378,532,6690
116.48842,39.99378,533,6690
116.49662,40.00175,534,6690
116.50207,40.00673,535,6690
116.50207,40.00673,536,6690
116.50207,40.00673,537,6690
116.48834,39.99383,538,6690
116.48121,39.99452,539,6690
116.48113,39.99431,540,6690
116.48118,39.99408,541,6690
116.46873,39.98454,542,6690
116.48061,39.99422,543,6690
116.48061,39.99422,544,6690
116.48037,39.99417,545,6690
116.47844,39.99413,546,6690
116.46172,39.9784,547,6690
116.42419,39.98775,548,6690
116.37298,39.98623,549,6690
116.30703,39.98411,550,6690
116.29988,39.97652,551,6690
116.29988,39.97652,552,6690
116.29553,39.97019,553,6690
116.29669,39.96017,554,6690
116.29676,39.95908,555,6690
116.3036,39.94881,556,6690
116.30404,39.91215,557,6690
116.30406,39.88697,558,6690
116.30748,39.86089,559,6690
116.31368,39.8533,560,6690
116.31479,39.85249,561,6690
116.30434,39.88892,562,6690
116.3044,39.92147,563,6690
116.31938,39.92691,564,6690
116.33543,39.92174,565,6690
116.33845,39.90733,566,6690
116.34203,39.90572,567,6690
116.3426,39.89064,568,6690
116.37101,39.86901,569,6690
116.40667,39.87055,570,6690
116.43279,39.86557,571,6690
116.43274,39.85019,572,6690
116.44067,39.83946,573,6690
116.44337,39.8256,574,6690
116.44336,39.82557,575,6690
116.44335,39.82558,576,6690
116.44335,39.82562,577,6690
116.44335,39.82564,578,6690
116.44336,39.82566,579,6690
116.44336,39.82566,580,6690
116.44336,39.82566,581,6690
116.44336,39.82566,582,6690
116.44336,39.82565,583,6690
116.44336,39.82565,584,6690
116.44335,39.82565,585,6690
116.44335,39.82564,586,6690
116.44335,39.82564,587,6690
116.44335,39.82564,588,6690
116.44335,39.82564,589,6690
116.44335,39.82564,590,6690
116.44334,39.82564,591,6690
116.44334,39.82564,592,6690
116.44334,39.82564,593,6690
116.44334,39.82563,594,6690
116.44334,39.82563,595,6690
116.44334,39.82563,596,6690
116.44288,39.82503,597,6690
116.44333,39.82559,598,6690
116.44331,39.82557,599,6690
116.44333,39.8256,600,6690
116.44336,39.82563,601,6690
116.44337,39.82564,602,6690
116.44337,39.82564,603,6690
116.44766,39.82311,604,6690
116.45817,39.8325,605,6690
116.47981,39.85052,606,6690
116.52418,39.86839,607,6690
116.51505,39.86866,608,6690
116.51448,39.86873,609,6690
116.49553,39.8757,610,6690
116.48402,39.8823,611,6690
116.48402,39.8823,612,6690
116.44423,39.92052,613,6690
116.4444,39.93617,614,6690
116.4553,39.94002,615,6690
116.465,39.96407,616,6690
116.47103,39.9755,617,6690
116.47511,39.9698,618,6690
116.48388,39.9742,619,6690
116.48404,39.97429,620,6690
116.49701,39.96992,621,6690
116.5011,39.96391,622,6690
116.49618,39.96021,623,6690
116.48169,39.95676,624,6690
116.48353,39.91041,625,6690
116.4194,39.86996,626,6690
116.40751,39.86492,627,6690
116.39971,39.86403,628,6690
116.4073,39.86387,629,6690
116.41522,39.87399,630,6690
116.41522,39.87399,631,6690
116.41522,39.87456,632,6690
116.41524,39.8745,633,6690
116.41521,39.87447,634,6690
116.41521,39.87447,635,6690
116.41519,39.87445,636,6690
116.41519,39.87445,637,6690
116.41523,39.87444,638,6690
116.42491,39.8852,639,6690
116.42391,39.89211,640,6690
116.42344,39.89158,641,6690
116.41465,39.89189,642,6690
116.41219,39.89375,643,6690
116.41114,39.89482,644,6690
116.41203,39.89555,645,6690
116.41131,39.89979,646,6690
116.43078,39.8991,647,6690
116.42885,39.91635,648,6690
116.43559,39.92254,649,6690
116.44419,39.92812,650,6690
116.44379,39.93044,651,6690
116.4444,39.93848,652,6690
116.43856,39.93986,653,6690
116.42771,39.94391,654,6690
116.42771,39.94391,655,6690
116.42779,39.95665,656,6690
116.42818,39.95656,657,6690
116.41281,39.95792,658,6690
116.40172,39.956,659,6690
116.39167,39.95019,660,6690
116.39137,39.95016,661,6690
116.38893,39.95838,662,6690
116.40662,39.96748,663,6690
116.40152,39.97038,664,6690
116.40157,39.97061,665,6690
116.41371,39.98733,666,6690
116.41371,39.98733,667,6690
116.4487,39.97944,668,6690
116.46034,39.98179,669,6690
116.46116,39.97851,670,6690
116.47997,39.98925,671,6690
116.48127,39.98803,672,6690
116.48358,39.9834,673,6690
116.48383,39.97229,674,6690
116.48376,39.97444,675,6690
116.48352,39.98604,676,6690
116.47122,39.97725,677,6690
116.42714,39.94645,678,6690
116.42762,39.93002,679,6690
116.42792,39.9249,680,6690
116.42876,39.91588,681,6690
116.41379,39.91368,682,6690
116.4114,39.92275,683,6690
116.4203,39.91441,684,6690
116.42952,39.90851,685,6690
116.47697,39.90412,686,6690
116.60076,39.90765,687,6690
116.62623,39.9012,688,6690
116.62336,39.89886,689,6690
116.62996,39.90504,690,6690
116.59472,39.90905,691,6690
116.57685,39.91303,692,6690
116.52952,39.9155,693,6690
116.51201,39.91945,694,6690
116.49297,39.93408,695,6690
116.46507,39.9689,696,6690
116.36688,39.99651,697,6690
116.34442,39.99975,698,6690
116.33426,39.99942,699,6690
116.3334,39.99912,700,6690
116.33215,39.99163,701,6690
116.34612,39.99972,702,6690
116.36892,40.00045,703,6690
116.37894,39.96675,704,6690
116.37782,39.96188,705,6690
116.36941,39.98668,706,6690
116.36299,39.99167,707,6690
116.35287,40.00004,708,6690
116.33258,39.99942,709,6690
116.32664,39.99314,710,6690
116.32659,39.99186,711,6690
116.32747,39.97695,712,6690
116.34273,39.96607,713,6690
116.36692,39.96629,714,6690
116.40497,39.96754,715,6690
116.44753,39.95678,716,6690
116.44598,39.95158,717,6690
116.44595,39.95155,718,6690
116.44596,39.95156,719,6690
116.44596,39.95156,720,6690
116.44595,39.95158,721,6690
116.44591,39.95156,722,6690
116.44593,39.95157,723,6690
116.44594,39.95159,724,6690
116.44595,39.95159,725,6690
116.44595,39.9516,726,6690
116.44595,39.95159,727,6690
116.44595,39.95159,728,6690
116.44595,39.9516,729,6690
116.44595,39.9516,730,6690
116.44595,39.9516,731,6690
116.44598,39.95159,732,6690
116.44596,39.95154,733,6690
116.44597,39.95154,734,6690
116.44584,39.95158,735,6690
116.44605,39.95153,736,6690
116.44603,39.95154,737,6690
116.44604,39.95153,738,6690
116.45528,39.9482,739,6690
116.45528,39.9482,740,6690
116.45795,39.95662,741,6690
116.4683,39.96647,742,6690
116.45539,39.93289,743,6690
116.45794,39.93271,744,6690
116.45815,39.93345,745,6690
116.33769,39.9753,746,6690
116.32173,39.97966,747,6690
116.29893,39.9886,748,6690
116.30753,39.98312,749,6690
116.30511,39.97618,750,6690
116.28313,39.98144,751,6690
116.28294,39.9814,752,6690
116.30015,39.97439,753,6690
116.29762,39.95579,754,6690
116.30367,39.94345,755,6690
116.30421,39.89023,756,6690
116.31627,39.84663,757,6690
116.31696,39.84128,758,6690
116.32519,39.84762,759,6690
116.32539,39.84762,760,6690
116.34762,39.87642,761,6690
116.3511,39.87879,762,6690
116.35492,39.87669,763,6690
116.35751,39.88703,764,6690
116.35725,39.8947,765,6690
116.4208,39.9086,766,6690
116.42138,39.92624,767,6690
116.42138,39.92624,768,6690
116.42138,39.92624,769,6690
116.41207,39.93236,770,6690
116.4088,39.92523,771,6690
116.40731,39.92434,772,6690
116.42329,39.93512,773,6690
116.42458,39.93647,774,6690
116.43275,39.94153,775,6690
116.4534,39.95291,776,6690
116.46512,39.95332,777,6690
116.46516,39.95335,778,6690
116.46517,39.95334,779,6690
116.46517,39.95334,780,6690
116.46517,39.95333,781,6690
116.46516,39.95333,782,6690
116.46516,39.95334,783,6690
116.46515,39.95334,784,6690
116.46515,39.95334,785,6690
116.46515,39.95334,786,6690
116.46515,39.95334,787,6690
116.46515,39.95334,788,6690
116.46514,39.95334,789,6690
116.46514,39.95334,790,6690
116.46514,39.95334,791,6690
116.46239,39.95268,792,6690
116.49742,39.96364,793,6690
116.4923,39.95827,794,6690
116.49228,39.95827,795,6690
116.49215,39.95837,796,6690
116.49216,39.95834,797,6690
116.49213,39.95831,798,6690
116.49128,39.95847,799,6690
116.49186,39.95848,800,6690
116.49188,39.9585,801,6690
116.49204,39.9583,802,6690
116.49215,39.95835,803,6690
116.49214,39.95852,804,6690
116.49235,39.95864,805,6690
116.49166,39.95882,806,6690
116.49166,39.95882,807,6690
116.49265,39.95937,808,6690
116.48403,39.97106,809,6690
116.47265,39.98584,810,6690
116.46132,40.01082,811,6690
116.44345,40.01984,812,6690
116.42584,40.03125,813,6690
116.40884,40.05385,814,6690
116.40812,40.05664,815,6690
116.40778,40.04172,816,6690
116.41012,40.02205,817,6690
116.46559,40.01378,818,6690
116.51149,40.0134,819,6690
116.55567,40.02981,820,6690
116.57983,40.04731,821,6690
116.58303,40.06408,822,6690
116.58242,40.07513,823,6690
116.58165,40.07667,824,6690
116.58224,40.06226,825,6690
116.5498,40.0642,826,6690
116.53375,40.05183,827,6690
116.47567,39.99657,828,6690
116.47612,39.9916,829,6690
116.46771,39.98517,830,6690
116.46771,39.98517,831,6690
116.45544,39.94168,832,6690
116.45544,39.94168,833,6690
116.45252,39.93436,834,6690
116.44916,39.93905,835,6690
116.45056,39.95041,836,6690
116.46947,39.9673,837,6690
116.47926,39.96683,838,6690
116.4836,39.93579,839,6690
116.47969,39.91431,840,6690
116.46591,39.91484,841,6690
116.45574,39.94181,842,6690
116.45829,39.94507,843,6690
116.46571,39.94937,844,6690
116.46576,39.9374,845,6690
116.46578,39.93744,846,6690
116.46522,39.93659,847,6690
116.46552,39.93696,848,6690
116.46675,39.93295,849,6690
116.47204,39.9181,850,6690
116.4677,39.90807,851,6690
116.47199,39.91388,852,6690
116.48561,39.90968,853,6690
116.48397,39.93204,854,6690
116.48577,39.938,855,6690
116.48581,39.93693,856,6690
116.47349,39.95378,857,6690
116.47349,39.95378,858,6690
116.45512,39.95204,859,6690
116.45488,39.95178,860,6690
116.46599,39.97466,861,6690
116.4762,39.9832,862,6690
116.48369,39.96652,863,6690
116.48825,39.9621,864,6690
116.48825,39.9621,865,6690
116.48875,39.96134,866,6690
116.4834,39.933,867,6690
116.46086,39.93233,868,6690
116.45938,39.92751,869,6690
116.4563,39.92752,870,6690
116.43967,39.96219,871,6690
116.38628,39.96715,872,6690
116.34814,39.97496,873,6690
116.33096,39.97564,874,6690
116.33023,39.97705,875,6690
116.34685,39.97516,876,6690
116.363,39.97536,877,6690
116.3636,39.97901,878,6690
116.38224,39.97546,879,6690
116.38896,39.95083,880,6690
116.39472,39.94757,881,6690
116.4455,39.9539,882,6690
116.43856,39.98869,883,6690
116.46123,40.01388,884,6690
116.46099,40.01903,885,6690
116.46077,40.01732,886,6690
116.43416,39.98343,887,6690
116.41885,39.95805,888,6690
116.42718,39.94243,889,6690
116.42718,39.94243,890,6690
116.41255,39.94188,891,6690
116.41255,39.94188,892,6690
116.41253,39.94188,893,6690
116.41251,39.94189,894,6690
116.4125,39.94188,895,6690
116.41248,39.94187,896,6690
116.41252,39.94209,897,6690
116.41246,39.94207,898,6690
116.41247,39.94205,899,6690
116.41248,39.94203,900,6690
116.41248,39.94201,901,6690
116.41248,39.94201,902,6690
116.41248,39.94202,903,6690
116.41248,39.94202,904,6690
116.41248,39.94201,905,6690
116.41248,39.94201,906,6690
116.41248,39.94201,907,6690
116.41248,39.942,908,6690
116.41248,39.94199,909,6690
116.41249,39.94198,910,6690
116.41249,39.94197,911,6690
116.41249,39.94197,912,6690
116.41248,39.94196,913,6690
116.4105,39.9425,914,6690
116.43238,39.93952,915,6690
116.44423,39.93329,916,6690
116.44948,39.93226,917,6690
116.4543,39.93237,918,6690
116.45566,39.94548,919,6690
116.48124,39.98609,920,6690
116.54572,40.02662,921,6690
116.58011,40.0475,922,6690
116.58677,40.07781,923,6690
116.58094,40.07311,924,6690
116.56288,40.06753,925,6690
116.55683,40.06929,926,6690
116.53747,40.05531,927,6690
116.51099,40.03313,928,6690
116.49297,40.02159,929,6690
116.48606,40.00827,930,6690
116.4737,40.01026,931,6690
116.47141,40.01026,932,6690
116.46214,39.99242,933,6690
116.4708,39.98658,934,6690
116.45127,39.95992,935,6690
116.44112,39.94435,936,6690
116.4363,39.93723,937,6690
116.43769,39.93507,938,6690
116.43319,39.92314,939,6690
116.43314,39.92318,940,6690
116.43547,39.93965,941,6690
116.43794,39.93654,942,6690
116.42683,39.92816,943,6690
116.42578,39.9263,944,6690
116.42874,39.93255,945,6690
116.43087,39.93974,946,6690
116.46251,39.94307,947,6690
116.46275,39.9459,948,6690
116.45844,39.95216,949,6690
116.45648,39.95525,950,6690
116.43881,39.95044,951,6690
116.42565,39.94818,952,6690
116.3735,39.94744,953,6690
116.33074,39.93441,954,6690
116.35014,39.93874,955,6690
116.35077,39.95077,956,6690
116.36481,39.95144,957,6690
116.3803,39.94997,958,6690
116.38774,39.94167,959,6690
116.38995,39.93394,960,6690
116.39542,39.92853,961,6690
116.39562,39.92774,962,6690
116.4156,39.93222,963,6690
116.42922,39.93926,964,6690
116.43291,39.93919,965,6690
116.42962,39.93956,966,6690
116.42971,39.93945,967,6690
116.43006,39.93958,968,6690
116.42817,39.91428,969,6690
116.41158,39.9084,970,6690
116.41168,39.90794,971,6690
116.4127,39.89653,972,6690
116.41451,39.8834,973,6690
116.42805,39.88144,974,6690
116.42805,39.88144,975,6690
116.43961,39.88513,976,6690
116.4321,39.90518,977,6690
116.43488,39.91026,978,6690
116.43465,39.92144,979,6690
116.42851,39.91631,980,6690
116.4389,39.8923,981,6690
116.42562,39.89247,982,6690
116.39442,39.89053,983,6690
116.37077,39.88809,984,6690
116.37077,39.88809,985,6690
116.37018,39.88809,986,6690
116.36851,39.89509,987,6690
116.37238,39.89832,988,6690
116.37709,39.90568,989,6690
116.38974,39.89902,990,6690
116.36798,39.90549,991,6690
116.36791,39.90796,992,6690
116.36729,39.92058,993,6690
116.36692,39.93092,994,6690
116.37581,39.93088,995,6690
116.37298,39.91319,996,6690
116.38543,39.90488,997,6690
116.38798,39.90146,998,6690
116.40459,39.90656,999,6690
116.40688,39.90913,1000,6690
116.40688,39.90913,1001,6690
116.40807,39.90771,1002,6690
116.40823,39.9077,1003,6690
116.40864,39.90742,1004,6690
116.40861,39.90817,1005,6690
116.40846,39.90771,1006,6690
116.41179,39.92286,1007,6690
116.42808,39.92992,1008,6690
116.44598,39.95823,1009,6690
116.44496,39.96036,1010,6690
116.44496,39.96036,1011,6690
116.44451,39.96481,1012,6690
116.45894,39.97242,1013,6690
116.48154,39.95669,1014,6690
116.49697,39.97046,1015,6690
116.4935,39.95673,1016,6690
116.4935,39.95673,1017,6690
116.49102,39.96034,1018,6690
116.46,39.94948,1019,6690
116.43831,39.95409,1020,6690
116.45697,39.95608,1021,6690
116.43845,39.94273,1022,6690
116.43847,39.94262,1023,6690
116.43591,39.94687,1024,6690
116.44181,39.96547,1025,6690
116.44056,39.96121,1026,6690
116.43279,39.94113,1027,6690
116.4269,39.94001,1028,6690
116.4225,39.93985,1029,6690
116.42137,39.90717,1030,6690
116.3863,39.90621,1031,6690
116.37175,39.90801,1032,6690
116.37022,39.90899,1033,6690
116.33464,39.90627,1034,6690
116.29365,39.91564,1035,6690
116.29284,39.91599,1036,6690
116.35382,39.91427,1037,6690
116.35467,39.91383,1038,6690
116.40363,39.90654,1039,6690
116.43306,39.9068,1040,6690
116.43785,39.90699,1041,6690
116.45312,39.90671,1042,6690
116.46079,39.92957,1043,6690
116.46559,39.93226,1044,6690
116.49546,39.93475,1045,6690
116.4957,39.93842,1046,6690
116.4834,39.95324,1047,6690
116.48282,39.95466,1048,6690
116.44459,39.94859,1049,6690
116.44659,39.94677,1050,6690
116.44811,39.94633,1051,6690
116.4651,39.95455,1052,6690
116.4651,39.95455,1053,6690
116.46509,39.9545,1054,6690
116.46342,39.95397,1055,6690
116.46348,39.95386,1056,6690
116.46338,39.95351,1057,6690
116.46315,39.9559,1058,6690
116.46207,39.9538,1059,6690
116.45524,39.91943,1060,6690
116.45524,39.91943,1061,6690
116.45782,39.87154,1062,6690
116.45781,39.87151,1063,6690
116.45922,39.88696,1064,6690
116.46298,39.91507,1065,6690
116.47497,39.91402,1066,6690
116.47549,39.92685,1067,6690
116.46568,39.94911,1068,6690
116.462,39.95413,1069,6690
116.48069,39.97745,1070,6690
116.49545,39.99724,1071,6690
116.49435,39.99628,1072,6690
117.0949,40.15023,1073,6690
117.09491,40.15022,1074,6690
117.09491,40.15022,1075,6690
117.09493,40.15022,1076,6690
117.09495,40.15023,1077,6690
117.09497,40.15021,1078,6690
117.09501,40.15021,1079,6690
117.09502,40.1502,1080,6690
117.09501,40.15019,1081,6690
117.09502,40.1502,1082,6690
117.09503,40.15021,1083,6690
117.09503,40.1502,1084,6690
117.09503,40.1502,1085,6690
117.09504,40.1502,1086,6690
117.09504,40.1502,1087,6690
117.09503,40.1502,1088,6690
117.09503,40.1502,1089,6690
117.09503,40.1502,1090,6690
117.09504,40.1502,1091,6690
117.09504,40.1502,1092,6690
117.09505,40.1502,1093,6690
117.09505,40.1502,1094,6690
117.09505,40.1502,1095,6690
117.09505,40.1502,1096,6690
117.09505,40.1502,1097,6690
117.09563,40.15037,1098,6690
117.0952,40.15027,1099,6690
117.095,40.15019,1100,6690
117.095,40.15019,1101,6690
117.09503,40.15021,1102,6690
117.09502,40.15021,1103,6690
117.09505,40.15022,1104,6690
117.09506,40.15022,1105,6690
117.09506,40.15022,1106,6690
117.09505,40.15021,1107,6690
117.09503,40.15021,1108,6690
117.09504,40.15021,1109,6690
117.09504,40.15021,1110,6690
117.09504,40.1502,1111,6690
117.09511,40.15018,1112,6690
117.09495,40.15012,1113,6690
117.09507,40.15022,1114,6690
117.0951,40.15025,1115,6690
117.09509,40.15024,1116,6690
117.09495,40.1508,1117,6690
117.09987,40.14859,1118,6690
117.11675,40.14224,1119,6690
117.13341,40.13505,1120,6690
117.15951,40.1225,1121,6690
117.16877,40.12336,1122,6690
117.16876,40.12334,1123,6690
117.16874,40.12335,1124,6690
117.14329,40.12954,1125,6690
117.11741,40.13802,1126,6690
117.11646,40.14998,1127,6690
117.11,40.15253,1128,6690
117.10458,40.16623,1129,6690
117.11148,40.20588,1130,6690
117.11148,40.20588,1131,6690
117.12016,40.24071,1132,6690
117.12103,40.26387,1133,6690
117.12094,40.26379,1134,6690
117.1207,40.26353,1135,6690
117.1207,40.26354,1136,6690
117.12069,40.26356,1137,6690
117.12069,40.26356,1138,6690
117.1207,40.26356,1139,6690
117.1207,40.26355,1140,6690
117.12071,40.26354,1141,6690
117.1207,40.26353,1142,6690
117.1207,40.26352,1143,6690
117.12069,40.26352,1144,6690
117.1207,40.26351,1145,6690
117.1207,40.2635,1146,6690
117.1207,40.2635,1147,6690
117.1207,40.2635,1148,6690
117.1207,40.2635,1149,6690
117.1207,40.2635,1150,6690
117.12077,40.26338,1151,6690
117.12068,40.26352,1152,6690
117.12104,40.26295,1153,6690
117.12112,40.26289,1154,6690
117.12053,40.26377,1155,6690
117.12057,40.26372,1156,6690
117.12058,40.2637,1157,6690
117.1206,40.2637,1158,6690
117.12061,40.26369,1159,6690
117.12062,40.26368,1160,6690
117.12062,40.26368,1161,6690
117.12063,40.26366,1162,6690
117.12063,40.26364,1163,6690
117.12063,40.26363,1164,6690
117.12063,40.26363,1165,6690
117.12064,40.26362,1166,6690
117.12064,40.26361,1167,6690
117.12064,40.26361,1168,6690
117.12064,40.2636,1169,6690
117.12064,40.26359,1170,6690
117.12064,40.26359,1171,6690
117.12064,40.26358,1172,6690
117.12076,40.26347,1173,6690
117.12074,40.26337,1174,6690
117.12072,40.26337,1175,6690
117.12072,40.2634,1176,6690
117.12072,40.26341,1177,6690
117.12074,40.26354,1178,6690
117.11986,40.24688,1179,6690
117.11381,40.2213,1180,6690
117.10469,40.14702,1181,6690
117.10478,40.15008,1182,6690
117.09628,40.14999,1183,6690
117.09599,40.15055,1184,6690
117.09606,40.15039,1185,6690
117.0964,40.14987,1186,6690
117.0963,40.15005,1187,6690
117.09623,40.15008,1188,6690
117.09622,40.1501,1189,6690
117.09622,40.15009,1190,6690
117.09626,40.15001,1191,6690
117.09629,40.15006,1192,6690
117.09634,40.14983,1193,6690
117.09628,40.15034,1194,6690
117.09631,40.15022,1195,6690
117.0963,40.15022,1196,6690
117.0963,40.15023,1197,6690
117.09648,40.15039,1198,6690
117.09629,40.15024,1199,6690
117.0963,40.1502,1200,6690
117.09631,40.15022,1201,6690
117.09632,40.15024,1202,6690
117.09633,40.15024,1203,6690
117.09633,40.15016,1204,6690
117.09624,40.15019,1205,6690
117.09645,40.15058,1206,6690
117.09619,40.15028,1207,6690
117.09618,40.15019,1208,6690
117.0961,40.15031,1209,6690
117.09628,40.15025,1210,6690
117.09625,40.15025,1211,6690
117.09641,40.15037,1212,6690
117.09631,40.1503,1213,6690
117.09628,40.15026,1214,6690
117.09625,40.15025,1215,6690
117.09624,40.15024,1216,6690
117.09624,40.15024,1217,6690
117.09612,40.1502,1218,6690
117.09589,40.14979,1219,6690
117.09993,40.15218,1220,6690
117.10463,40.14969,1221,6690
117.10459,40.1497,1222,6690
117.10485,40.14518,1223,6690
117.10498,40.14435,1224,6690
117.10498,40.14434,1225,6690
117.10499,40.14434,1226,6690
117.10498,40.14435,1227,6690
117.1047,40.14449,1228,6690
117.10459,40.14453,1229,6690
117.10462,40.14455,1230,6690
117.10462,40.14457,1231,6690
117.10461,40.14455,1232,6690
117.10462,40.14457,1233,6690
117.10463,40.14457,1234,6690
117.10462,40.14462,1235,6690
117.10464,40.14462,1236,6690
117.10465,40.14463,1237,6690
117.10464,40.14463,1238,6690
117.10468,40.14465,1239,6690
117.10476,40.14458,1240,6690
117.10467,40.14463,1241,6690
117.10506,40.15064,1242,6690
117.10481,40.15044,1243,6690
117.10491,40.15048,1244,6690
117.10491,40.15048,1245,6690
117.10493,40.15049,1246,6690
117.10492,40.15046,1247,6690
117.10491,40.15044,1248,6690
117.10491,40.15044,1249,6690
117.10482,40.15053,1250,6690
117.10474,40.15045,1251,6690
117.10473,40.14692,1252,6690
117.10462,40.1448,1253,6690
117.10459,40.15704,1254,6690
117.10735,40.19375,1255,6690
117.12103,40.23453,1256,6690
117.12157,40.26314,1257,6690
117.12065,40.26346,1258,6690
117.12065,40.26346,1259,6690
117.12065,40.26347,1260,6690
117.12064,40.26347,1261,6690
117.12064,40.26348,1262,6690
117.12063,40.26348,1263,6690
117.12063,40.26348,1264,6690
117.12064,40.26348,1265,6690
117.12064,40.26348,1266,6690
117.12064,40.26348,1267,6690
117.12064,40.26349,1268,6690
117.12058,40.26352,1269,6690
117.12065,40.2635,1270,6690
117.12065,40.2635,1271,6690
117.12065,40.2635,1272,6690
117.12066,40.2635,1273,6690
117.12066,40.2635,1274,6690
117.12066,40.2635,1275,6690
117.12066,40.2635,1276,6690
117.12066,40.2635,1277,6690
117.12066,40.26351,1278,6690
117.12067,40.26351,1279,6690
117.12067,40.26351,1280,6690
117.12067,40.26351,1281,6690
117.12067,40.26351,1282,6690
117.12067,40.26351,1283,6690
117.12067,40.26351,1284,6690
117.12067,40.26352,1285,6690
117.12067,40.26352,1286,6690
117.12067,40.26352,1287,6690
117.12067,40.26352,1288,6690
117.12067,40.26352,1289,6690
117.12067,40.26352,1290,6690
117.12067,40.26352,1291,6690
117.12067,40.26352,1292,6690
117.12067,40.26352,1293,6690
117.12067,40.26352,1294,6690
117.12067,40.26353,1295,6690
117.12067,40.26353,1296,6690
117.12064,40.26344,1297,6690
117.12066,40.26345,1298,6690
117.12067,40.26345,1299,6690
117.12067,40.26347,1300,6690
117.12066,40.26348,1301,6690
117.12067,40.2635,1302,6690
117.12067,40.2635,1303,6690
117.12069,40.2635,1304,6690
117.1207,40.26351,1305,6690
117.1207,40.26351,1306,6690
117.12071,40.26351,1307,6690
117.12071,40.26351,1308,6690
117.1207,40.26351,1309,6690
117.1207,40.26352,1310,6690
117.12071,40.26352,1311,6690
117.1207,40.26352,1312,6690
117.1207,40.26352,1313,6690
117.12071,40.26352,1314,6690
117.1207,40.26352,1315,6690
117.12071,40.26352,1316,6690
117.12071,40.26351,1317,6690
117.12071,40.26351,1318,6690
117.12071,40.26351,1319,6690
117.12071,40.26351,1320,6690
117.12071,40.26351,1321,6690
117.12071,40.26351,1322,6690
117.12071,40.26351,1323,6690
117.12071,40.26351,1324,6690
117.12071,40.26351,1325,6690
117.12071,40.26351,1326,6690
117.12071,40.26351,1327,6690
117.1209,40.2637,1328,6690
117.12086,40.26366,1329,6690
117.1208,40.26362,1330,6690
117.12079,40.26362,1331,6690
117.12078,40.26363,1332,6690
117.12078,40.26363,1333,6690
117.12078,40.26361,1334,6690
117.12077,40.2636,1335,6690
117.12076,40.26357,1336,6690
117.12074,40.26355,1337,6690
117.12072,40.26353,1338,6690
117.12071,40.26352,1339,6690
117.1207,40.26351,1340,6690
117.1207,40.26351,1341,6690
117.1207,40.26351,1342,6690
117.12069,40.26351,1343,6690
117.12069,40.26352,1344,6690
117.12069,40.26352,1345,6690
117.12068,40.26352,1346,6690
117.12068,40.26352,1347,6690
117.12068,40.26352,1348,6690
117.12068,40.26352,1349,6690
117.12067,40.26352,1350,6690
117.12067,40.26352,1351,6690
117.12067,40.26352,1352,6690
117.12067,40.26352,1353,6690
117.12067,40.26352,1354,6690
117.12067,40.26352,1355,6690
117.12067,40.26352,1356,6690
117.12067,40.26352,1357,6690
117.12067,40.26352,1358,6690
117.12067,40.26352,1359,6690
117.12067,40.26351,1360,6690
117.12067,40.26351,1361,6690
117.12067,40.26352,1362,6690
117.12067,40.26352,1363,6690
117.12068,40.26352,1364,6690
117.12068,40.26352,1365,6690
117.12071,40.26358,1366,6690
117.12072,40.26374,1367,6690
117.12074,40.26372,1368,6690
117.12076,40.2635,1369,6690
117.12078,40.26347,1370,6690
117.12074,40.26352,1371,6690
117.12076,40.26353,1372,6690
117.12077,40.26355,1373,6690
117.12077,40.26355,1374,6690
117.12076,40.26355,1375,6690
117.12075,40.26356,1376,6690
117.12075,40.26355,1377,6690
117.12076,40.26354,1378,6690
117.12076,40.26354,1379,6690
117.12078,40.26349,1380,6690
117.12075,40.26348,1381,6690
117.12073,40.26348,1382,6690
117.12072,40.26349,1383,6690
117.12153,40.26241,1384,6690
117.10462,40.16122,1385,6690
117.09487,40.15008,1386,6690
117.10243,40.14424,1387,6690
117.08967,40.13814,1388,6690
117.0422,40.14457,1389,6690
116.9653,40.14717,1390,6690
116.88925,40.15265,1391,6690
116.75859,40.13865,1392,6690
116.68991,40.12228,1393,6690
116.62388,40.11647,1394,6690
116.58245,40.11701,1395,6690
116.55519,40.10111,1396,6690
116.5407,40.05687,1397,6690
116.47264,40.00209,1398,6690
116.47246,40.00107,1399,6690
116.46618,39.97273,1400,6690
116.41248,39.94835,1401,6690
116.41167,39.9483,1402,6690
116.42762,39.93933,1403,6690
116.43065,39.91128,1404,6690
116.43333,39.91047,1405,6690
116.44388,39.91208,1406,6690
116.44431,39.93208,1407,6690
116.44095,39.9467,1408,6690
116.43457,39.94731,1409,6690
116.42792,39.94479,1410,6690
116.41231,39.94824,1411,6690
116.37739,39.94759,1412,6690
116.37296,39.93894,1413,6690
116.37361,39.93291,1414,6690
116.3659,39.94672,1415,6690
116.36591,39.94678,1416,6690
116.34902,39.95479,1417,6690
116.32706,39.98719,1418,6690
116.32157,39.99143,1419,6690
116.30915,40.00288,1420,6690
116.30121,40.03063,1421,6690
116.30203,40.02927,1422,6690
116.31558,40.01175,1423,6690
116.3288,39.99568,1424,6690
116.34098,39.98523,1425,6690
116.29893,39.98705,1426,6690
116.30068,39.98931,1427,6690
116.30115,39.96479,1428,6690
116.28508,39.97974,1429,6690
116.28033,39.97678,1430,6690
116.26817,39.96963,1431,6690
116.2681,39.96748,1432,6690
116.26788,39.96832,1433,6690
116.28222,39.95696,1434,6690
116.29898,39.95715,1435,6690
116.28586,39.95766,1436,6690
116.27774,39.95618,1437,6690
116.26906,39.92103,1438,6690
116.25057,39.9026,1439,6690
116.24958,39.90243,1440,6690
116.29013,39.89942,1441,6690
116.30452,39.90963,1442,6690
116.31692,39.9271,1443,6690
116.34047,39.92695,1444,6690
116.3524,39.93669,1445,6690
116.37343,39.9432,1446,6690
116.39027,39.9392,1447,6690
116.39469,39.93908,1448,6690
116.40233,39.94749,1449,6690
116.40259,39.95,1450,6690
116.40136,39.95378,1451,6690
116.40113,39.97397,1452,6690
116.40089,39.99912,1453,6690
116.40135,40.00316,1454,6690
116.40197,40.01281,1455,6690
116.40603,40.04574,1456,6690
116.40181,40.06828,1457,6690
116.40172,40.06921,1458,6690
116.40548,40.04846,1459,6690
116.40279,40.04614,1460,6690
116.4117,40.02068,1461,6690
116.46084,40.01271,1462,6690
116.46159,39.99737,1463,6690
116.46249,39.99549,1464,6690
116.46185,39.99331,1465,6690
116.46454,39.98593,1466,6690
116.41868,39.98786,1467,6690
116.41279,39.98763,1468,6690
116.41167,39.99365,1469,6690
116.41149,39.9685,1470,6690
116.41223,39.95684,1471,6690
116.41095,39.95585,1472,6690
116.41143,39.95584,1473,6690
116.41194,39.96351,1474,6690
116.39293,39.96729,1475,6690
116.36362,39.98186,1476,6690
116.36352,39.98281,1477,6690
116.3855,39.98115,1478,6690
116.38811,39.96943,1479,6690
116.38845,39.96749,1480,6690
116.3877,39.94337,1481,6690
116.38782,39.94106,1482,6690
116.38787,39.93952,1483,6690
116.39094,39.9395,1484,6690
116.41038,39.93938,1485,6690
116.44563,39.93985,1486,6690
116.46459,39.94528,1487,6690
116.46503,39.94388,1488,6690
116.45558,39.91609,1489,6690
116.45446,39.87012,1490,6690
116.47933,39.87024,1491,6690
116.47147,39.87621,1492,6690
116.47165,39.89382,1493,6690
116.47512,39.90909,1494,6690
116.45614,39.91716,1495,6690
116.45038,39.93242,1496,6690
116.44953,39.93333,1497,6690
116.44381,39.95969,1498,6690
116.43624,39.95862,1499,6690
116.42636,39.95813,1500,6690
116.41929,39.94674,1501,6690
116.41101,39.93236,1502,6690
116.38477,39.93207,1503,6690
116.38218,39.93432,1504,6690
116.37881,39.93533,1505,6690
116.39065,39.93202,1506,6690
116.39065,39.93202,1507,6690
116.43087,39.93236,1508,6690
116.43087,39.93236,1509,6690
116.45518,39.93002,1510,6690
116.45515,39.92858,1511,6690
116.43832,39.93747,1512,6690
116.43837,39.9395,1513,6690
116.41821,39.94807,1514,6690
116.37406,39.96475,1515,6690
116.36316,39.99024,1516,6690
116.38351,39.97546,1517,6690
116.38925,39.94785,1518,6690
116.41224,39.94164,1519,6690
116.41226,39.94167,1520,6690
116.41225,39.94169,1521,6690
116.41224,39.94171,1522,6690
116.41222,39.94172,1523,6690
116.41222,39.94175,1524,6690
116.41222,39.94176,1525,6690
116.41213,39.94178,1526,6690
116.4119,39.94173,1527,6690
116.41236,39.94195,1528,6690
116.41234,39.94195,1529,6690
116.41232,39.94195,1530,6690
116.41229,39.94194,1531,6690
116.41243,39.94201,1532,6690
116.41248,39.94192,1533,6690
116.41418,39.94197,1534,6690
116.42017,39.92428,1535,6690
116.416,39.92271,1536,6690
116.43985,39.92206,1537,6690
116.43152,39.9325,1538,6690
116.42811,39.95518,1539,6690
116.40339,39.95785,1540,6690
116.39122,39.96195,1541,6690
116.40179,39.94954,1542,6690
116.40693,39.94763,1543,6690
116.45401,39.96163,1544,6690
116.43637,39.98893,1545,6690
116.49127,39.99803,1546,6690
116.51666,40.02313,1547,6690
116.52569,40.02421,1548,6690
116.52569,40.02421,1549,6690
116.52569,40.02421,1550,6690
116.52569,40.02421,1551,6690
116.52569,40.02421,1552,6690
116.52569,40.02421,1553,6690
116.52569,40.02421,1554,6690
116.52569,40.02421,1555,6690
116.52569,40.02421,1556,6690
116.42793,39.94656,1557,6690
116.40167,39.95729,1558,6690
116.39947,39.95751,1559,6690
116.40175,39.95353,1560,6690
116.39964,39.96325,1561,6690
116.39607,39.96666,1562,6690
116.40132,39.96127,1563,6690
116.37378,39.94979,1564,6690
116.37881,39.9359,1565,6690
116.37889,39.93535,1566,6690
116.35043,39.93113,1567,6690
116.32988,39.92898,1568,6690
116.3285,39.92907,1569,6690
116.35656,39.93909,1570,6690
116.35798,39.93746,1571,6690
116.35942,39.92394,1572,6690
116.35719,39.8974,1573,6690
116.35614,39.89496,1574,6690
116.36268,39.89785,1575,6690
116.38961,39.90307,1576,6690
116.38536,39.90323,1577,6690
116.3544,39.90632,1578,6690
116.31039,39.90655,1579,6690
116.31039,39.90655,1580,6690
116.30651,39.86535,1581,6690
116.31991,39.84817,1582,6690
116.35302,39.84452,1583,6690
116.35876,39.85332,1584,6690
116.33244,39.84788,1585,6690
116.359,39.84977,1586,6690
116.36777,39.86338,1587,6690
116.3683,39.88701,1588,6690
116.37053,39.89329,1589,6690
116.36819,39.88854,1590,6690
116.37557,39.86933,1591,6690
116.42542,39.86713,1592,6690
116.43419,39.88431,1593,6690
116.43101,39.89896,1594,6690
116.43476,39.91956,1595,6690
116.4342,39.92773,1596,6690
116.45534,39.91235,1597,6690
116.46941,39.90822,1598,6690
116.4694,39.90822,1599,6690
116.45793,39.90732,1600,6690
116.4587,39.90687,1601,6690
116.53692,39.9064,1602,6690
116.56996,39.90882,1603,6690
116.53804,39.90985,1604,6690
116.51607,39.912,1605,6690
116.51574,39.91329,1606,6690
116.52791,39.91556,1607,6690
116.50652,39.91505,1608,6690
116.53839,39.91739,1609,6690
116.54127,39.9488,1610,6690
116.55204,39.97015,1611,6690
116.55204,39.97015,1612,6690
116.55035,39.9727,1613,6690
116.526,39.97669,1614,6690
116.4932,39.97052,1615,6690
116.47066,39.96561,1616,6690
116.46897,39.95605,1617,6690
116.46268,39.95408,1618,6690
116.46302,39.94522,1619,6690
116.44356,39.93993,1620,6690
116.43869,39.90722,1621,6690
116.4216,39.89952,1622,6690
116.41887,39.89948,1623,6690
116.42004,39.92149,1624,6690
116.41887,39.94194,1625,6690
116.412,39.94199,1626,6690
116.41201,39.94199,1627,6690
116.41216,39.94196,1628,6690
116.41212,39.94192,1629,6690
116.41208,39.94189,1630,6690
116.41204,39.94186,1631,6690
116.41203,39.94186,1632,6690
116.412,39.94186,1633,6690
116.4119,39.94191,1634,6690
116.41197,39.94178,1635,6690
116.41195,39.94186,1636,6690
116.41197,39.94187,1637,6690
116.41197,39.94187,1638,6690
116.41197,39.94187,1639,6690
116.41196,39.94187,1640,6690
116.41197,39.94179,1641,6690
116.41197,39.94182,1642,6690
116.41197,39.94182,1643,6690
116.41196,39.94184,1644,6690
116.41196,39.94185,1645,6690
116.41197,39.94186,1646,6690
116.41197,39.94186,1647,6690
116.41197,39.94185,1648,6690
116.41197,39.94185,1649,6690
116.41197,39.94184,1650,6690
116.41198,39.94184,1651,6690
116.41197,39.94184,1652,6690
116.41182,39.94179,1653,6690
116.41199,39.94189,1654,6690
116.41198,39.94187,1655,6690
116.4119,39.94186,1656,6690
116.41189,39.94188,1657,6690
116.41187,39.9419,1658,6690
116.41187,39.9419,1659,6690
116.41186,39.94189,1660,6690
116.41162,39.94195,1661,6690
116.41168,39.94193,1662,6690
116.41171,39.94192,1663,6690
116.41175,39.94191,1664,6690
116.41178,39.94189,1665,6690
116.41181,39.94188,1666,6690
116.41183,39.94187,1667,6690
116.41184,39.94187,1668,6690
116.41185,39.94186,1669,6690
116.41186,39.94186,1670,6690
116.41186,39.94186,1671,6690
116.41186,39.94186,1672,6690
116.41202,39.942,1673,6690
116.41198,39.94188,1674,6690
116.41197,39.94188,1675,6690
116.41196,39.94188,1676,6690
116.41195,39.94189,1677,6690
116.41194,39.94191,1678,6690
116.41192,39.94193,1679,6690
116.41192,39.94195,1680,6690
116.4119,39.94195,1681,6690
116.4119,39.94195,1682,6690
116.4119,39.94195,1683,6690
116.4119,39.94193,1684,6690
116.4119,39.94193,1685,6690
116.4119,39.94193,1686,6690
116.4119,39.94192,1687,6690
116.4119,39.94192,1688,6690
116.4119,39.94192,1689,6690
116.4119,39.94192,1690,6690
116.4119,39.94191,1691,6690
116.4119,39.94191,1692,6690
116.4119,39.94191,1693,6690
116.4119,39.94191,1694,6690
116.41302,39.94789,1695,6690
116.46236,39.96884,1696,6690
116.48709,39.99237,1697,6690
116.51873,40.02608,1698,6690
116.54864,40.06356,1699,6690
116.55731,40.10946,1700,6690
116.63488,40.11623,1701,6690
116.63488,40.11623,1702,6690
116.69332,40.12371,1703,6690
116.76048,40.13912,1704,6690
116.82789,40.14955,1705,6690
116.90779,40.15229,1706,6690
116.99169,40.14044,1707,6690
117.00952,40.18463,1708,6690
117.02027,40.25423,1709,6690
117.07115,40.27473,1710,6690
117.10503,40.27865,1711,6690
117.12296,40.26726,1712,6690
117.12072,40.26348,1713,6690
117.12071,40.26344,1714,6690
117.01712,40.24367,1715,6690
117.12058,40.26356,1716,6690
117.1206,40.26352,1717,6690
117.1206,40.2635,1718,6690
117.1206,40.2635,1719,6690
117.1206,40.2635,1720,6690
117.1206,40.26349,1721,6690
117.12069,40.26349,1722,6690
117.12061,40.26378,1723,6690
117.1207,40.26374,1724,6690
117.12066,40.26379,1725,6690
117.12064,40.26353,1726,6690
117.12063,40.26347,1727,6690
117.12065,40.26349,1728,6690
117.1207,40.2635,1729,6690
117.12071,40.26351,1730,6690
117.12071,40.26352,1731,6690
117.12055,40.26357,1732,6690
117.12055,40.26357,1733,6690
117.12059,40.26361,1734,6690
117.1206,40.26361,1735,6690
117.12075,40.26361,1736,6690
117.08986,40.27317,1737,6690
117.10056,40.26513,1738,6690
117.10017,40.26502,1739,6690
117.1003,40.26489,1740,6690
117.10041,40.26501,1741,6690
117.10071,40.26589,1742,6690
117.10067,40.26579,1743,6690
117.09511,40.26589,1744,6690
117.12304,40.27708,1745,6690
117.12095,40.26336,1746,6690
117.12066,40.26324,1747,6690
117.12063,40.26327,1748,6690
117.12063,40.26327,1749,6690
117.12063,40.26327,1750,6690
117.12063,40.26327,1751,6690
117.12062,40.26329,1752,6690
117.12063,40.26329,1753,6690
117.12064,40.26329,1754,6690
117.12064,40.26329,1755,6690
117.12065,40.26329,1756,6690
117.12065,40.2633,1757,6690
117.12065,40.2633,1758,6690
117.12066,40.2633,1759,6690
117.12066,40.2633,1760,6690
117.12066,40.2633,1761,6690
117.12066,40.2633,1762,6690
117.12091,40.26341,1763,6690
117.12081,40.26343,1764,6690
117.12078,40.26341,1765,6690
117.12073,40.26338,1766,6690
117.12071,40.26335,1767,6690
117.1207,40.26334,1768,6690
117.12069,40.26333,1769,6690
117.12068,40.26331,1770,6690
117.12068,40.26331,1771,6690
117.12068,40.2633,1772,6690
117.12068,40.2633,1773,6690
117.12068,40.2633,1774,6690
117.12069,40.26331,1775,6690
117.12069,40.2633,1776,6690
117.1207,40.26329,1777,6690
117.1207,40.26329,1778,6690
117.1207,40.26329,1779,6690
117.12062,40.26334,1780,6690
117.12064,40.26336,1781,6690
117.12066,40.26337,1782,6690
117.12066,40.26335,1783,6690
117.12068,40.26342,1784,6690
117.12067,40.26341,1785,6690
117.12068,40.26339,1786,6690
117.12069,40.26338,1787,6690
117.12069,40.26338,1788,6690
117.12069,40.26337,1789,6690
117.12069,40.26337,1790,6690
117.12069,40.26337,1791,6690
117.12069,40.26337,1792,6690
117.12069,40.26337,1793,6690
117.12069,40.26336,1794,6690
117.12068,40.26336,1795,6690
117.12068,40.26335,1796,6690
117.12068,40.26334,1797,6690
117.12068,40.26333,1798,6690
117.12068,40.26333,1799,6690
117.12068,40.26333,1800,6690
117.12068,40.26333,1801,6690
117.12068,40.26332,1802,6690
117.12065,40.26334,1803,6690
117.12066,40.26334,1804,6690
117.12066,40.26335,1805,6690
117.12066,40.26335,1806,6690
