x,y,k,tid
116.44049,39.96226,0,693
116.39268,39.97391,1,693
116.40668,39.94775,2,693
116.40668,39.94775,3,693
116.42893,39.91467,4,693
116.42893,39.91467,5,693
116.41935,39.94264,6,693
116.44043,39.96225,7,693
116.44043,39.96225,8,693
116.44043,39.96225,9,693
116.3943,39.96735,10,693
116.34987,39.94848,11,693
116.35039,39.91258,12,693
116.33699,39.90388,13,693
116.30434,39.91339,14,693
116.30356,39.95268,15,693
116.34823,39.96629,16,693
116.36537,39.94998,17,693
116.35569,39.94498,18,693
116.32929,39.95539,19,693
116.32906,39.97514,20,693
116.35004,39.94638,21,693
116.34981,39.92588,22,693
116.34243,39.89261,23,693
116.3439,39.89518,24,693
116.34999,39.9306,25,693
116.42606,39.9681,26,693
116.40188,39.96761,27,693
116.35311,39.94757,28,693
116.36267,39.90576,29,693
116.35142,39.92243,30,693
116.35023,39.94272,31,693
116.31647,39.96181,32,693
116.37484,39.96976,33,693
116.37811,39.97546,34,693
116.34311,39.96655,35,693
116.30227,39.95744,36,693
116.39974,39.96741,37,693
116.45915,39.91219,38,693
116.45914,39.90734,39,693
116.46343,39.93239,40,693
116.44201,39.96082,41,693
116.40509,39.96733,42,693
116.40509,39.96733,43,693
116.44046,39.96233,44,693
116.43978,39.96604,45,693
116.43912,39.96274,46,693
116.39286,39.96744,47,693
116.35483,39.96661,48,693
116.35185,39.99516,49,693
116.36321,39.98672,50,693
116.42353,39.9618,51,693
116.45491,39.94838,52,693
116.46653,39.96541,53,693
116.38757,39.96727,54,693
116.36608,39.94806,55,693
116.37906,39.96279,56,693
116.39933,39.93213,57,693
116.34931,39.94036,58,693
116.35271,39.9753,59,693
116.38179,39.96679,60,693
116.4405,39.96227,61,693
116.42975,39.96814,62,693
116.39987,39.96742,63,693
116.44054,39.96234,64,693
116.43846,39.96311,65,693
116.41848,39.97378,66,693
116.44041,39.96219,67,693
116.43575,39.98688,68,693
116.29387,39.9888,69,693
116.34749,39.97877,70,693
116.31051,39.97941,71,693
116.32427,39.97968,72,693
116.31887,39.96566,73,693
116.34996,39.94321,74,693
116.35046,39.91247,75,693
116.3667,39.8555,76,693
116.42547,39.85694,77,693
116.45531,39.88227,78,693
116.4504,39.88016,79,693
116.45608,39.91112,80,693
116.45589,39.9389,81,693
116.44037,39.96224,82,693
116.44037,39.96224,83,693
116.44027,39.9622,84,693
116.38689,39.9859,85,693
116.36293,39.96662,86,693
116.31067,39.88595,87,693
116.31676,39.89523,88,693
116.3825,39.90594,89,693
116.41974,39.9071,90,693
116.42011,39.92259,91,693
116.41173,39.96701,92,693
116.39545,40.00366,93,693
116.35256,40.01481,94,693
116.42776,39.93983,95,693
116.42776,39.93983,96,693
116.41619,39.96804,97,693
116.37011,39.96669,98,693
116.41909,39.94821,99,693
116.40372,39.97098,100,693
116.39841,39.94777,101,693
116.27849,39.95098,102,693
116.32054,39.92688,103,693
116.32778,39.97172,104,693
116.3187,39.96563,105,693
116.35569,40.01161,106,693
116.41858,40.06242,107,693
116.40825,40.05663,108,693
116.40825,40.05663,109,693
116.41034,39.99384,110,693
116.44047,39.9622,111,693
116.35028,39.91909,112,693
116.31642,39.89515,113,693
116.28973,39.91701,114,693
116.3594,39.9503,115,693
116.348,39.97475,116,693
116.348,39.97475,117,693
116.34708,39.98757,118,693
116.36689,39.92904,119,693
116.4181,39.93957,120,693
116.41262,39.94985,121,693
116.41453,39.96766,122,693
116.44059,39.96731,123,693
116.37522,39.95211,124,693
116.43123,39.96748,125,693
116.35981,39.96648,126,693
