x,y,k,tid
116.34531,40.00625,0,7172
116.33494,39.99935,1,7172
116.33031,39.99155,2,7172
116.32102,39.9868,3,7172
116.33387,39.99161,4,7172
116.35836,39.98564,5,7172
116.36981,39.97902,6,7172
116.36981,39.97902,7,7172
116.37395,39.97688,8,7172
116.3741,39.97709,9,7172
116.36499,39.99893,10,7172
116.35808,40.0083,11,7172
116.35645,40.00964,12,7172
116.37423,39.96762,13,7172
116.37249,39.94934,14,7172
116.36601,39.94375,15,7172
116.3667,39.93154,16,7172
116.36749,39.91476,17,7172
116.36778,39.90383,18,7172
116.3684,39.89481,19,7172
116.35167,39.90011,20,7172
116.34823,39.90577,21,7172
116.35931,39.90254,22,7172
116.35941,39.90258,23,7172
116.35748,39.91201,24,7172
116.35043,39.92061,25,7172
116.3469,39.92222,26,7172
116.34235,39.91709,27,7172
116.33861,39.92064,28,7172
116.32755,39.931,29,7172
116.31936,39.94004,30,7172
116.31205,39.97392,31,7172
116.31672,39.98412,32,7172
116.31672,39.98412,33,7172
116.32716,39.99102,34,7172
116.3091,39.99913,35,7172
116.30824,40.0192,36,7172
116.32251,40.02995,37,7172
116.3216,40.02992,38,7172
116.3011,40.04054,39,7172
116.31224,40.01024,40,7172
116.30993,39.98637,41,7172
116.31035,39.98171,42,7172
116.30748,39.98111,43,7172
116.31068,39.97823,44,7172
116.31345,39.96971,45,7172
116.31576,39.96554,46,7172
116.34959,39.96632,47,7172
116.37869,39.96667,48,7172
116.37406,39.96143,49,7172
116.37074,39.96681,50,7172
116.36253,39.96654,51,7172
116.34864,39.96642,52,7172
116.32563,39.96622,53,7172
116.30214,39.95907,54,7172
116.30373,39.94248,55,7172
116.30103,39.93114,56,7172
116.30103,39.93114,57,7172
116.29116,39.9229,58,7172
116.29281,39.91599,59,7172
116.29558,39.91478,60,7172
116.29025,39.9181,61,7172
116.29126,39.95759,62,7172
116.30449,39.96167,63,7172
116.31476,39.9653,64,7172
116.3188,39.96565,65,7172
116.34536,39.96625,66,7172
116.35653,39.96628,67,7172
116.37421,39.97994,68,7172
116.39662,39.98666,69,7172
116.40154,39.98591,70,7172
116.41019,39.99384,71,7172
116.4126,39.98762,72,7172
116.37116,39.9864,73,7172
116.36961,39.95682,74,7172
116.35556,39.95349,75,7172
116.3622,39.96625,76,7172
116.35955,39.97375,77,7172
116.34799,39.97902,78,7172
116.3501,39.99215,79,7172
116.35854,39.99235,80,7172
116.34532,39.99971,81,7172
116.34532,39.99971,82,7172
116.33178,39.99161,83,7172
116.30901,39.99839,84,7172
116.28763,39.99424,85,7172
116.29276,39.99595,86,7172
116.31008,40.00445,87,7172
116.30785,40.02228,88,7172
116.3225,40.03023,89,7172
116.32248,40.0302,90,7172
116.35381,40.007,91,7172
116.36579,39.94757,92,7172
116.37275,39.9429,93,7172
116.36611,39.94522,94,7172
116.36561,39.94904,95,7172
116.36393,39.96602,96,7172
116.34904,39.96645,97,7172
116.31552,39.96427,98,7172
116.3165,39.95561,99,7172
116.34303,39.96608,100,7172
116.34303,39.96608,101,7172
116.35939,39.97153,102,7172
116.34763,39.98508,103,7172
116.32689,39.9855,104,7172
116.31055,39.98126,105,7172
116.31533,39.99103,106,7172
116.32672,39.98453,107,7172
116.37705,39.98613,108,7172
116.37662,39.98103,109,7172
116.36293,39.99212,110,7172
116.357,40.00011,111,7172
116.3449,40.00648,112,7172
116.33236,39.9994,113,7172
116.32367,39.98492,114,7172
116.32371,39.98484,115,7172
116.32346,39.98491,116,7172
116.32346,39.98494,117,7172
116.32343,39.98493,118,7172
116.3234,39.98492,119,7172
116.32342,39.98491,120,7172
116.32342,39.98491,121,7172
116.32357,39.98484,122,7172
116.32337,39.98491,123,7172
116.32338,39.98489,124,7172
116.3232,39.98489,125,7172
116.32837,39.97512,126,7172
116.33502,39.97921,127,7172
116.33496,39.97921,128,7172
116.33561,39.9854,129,7172
116.32105,39.98904,130,7172
116.31869,39.98138,131,7172
116.31187,39.97466,132,7172
116.34648,39.97518,133,7172
116.35409,39.97823,134,7172
116.34722,39.98967,135,7172
116.35367,39.99284,136,7172
116.36018,40.00004,137,7172
116.34032,40.03112,138,7172
116.33085,40.05689,139,7172
116.33497,40.06564,140,7172
116.32782,40.05665,141,7172
116.3169,40.04185,142,7172
116.3227,40.03035,143,7172
116.3227,40.03035,144,7172
116.3227,40.03035,145,7172
116.3227,40.03035,146,7172
116.3227,40.03035,147,7172
116.3227,40.03035,148,7172
116.3227,40.03035,149,7172
116.3227,40.03035,150,7172
116.3227,40.03035,151,7172
116.3227,40.03035,152,7172
116.3227,40.03035,153,7172
116.3227,40.03035,154,7172
116.3227,40.03035,155,7172
116.3227,40.03035,156,7172
116.32263,40.03006,157,7172
116.32263,40.03006,158,7172
116.31018,40.02838,159,7172
116.31018,40.02838,160,7172
116.30509,40.03414,161,7172
116.3036,40.04326,162,7172
116.29766,40.04339,163,7172
116.30045,40.04215,164,7172
116.29542,40.05345,165,7172
116.30469,40.04137,166,7172
116.3006,40.0482,167,7172
116.27915,40.06894,168,7172
116.26266,40.07515,169,7172
116.29018,40.06751,170,7172
116.30164,40.03995,171,7172
116.30782,40.02159,172,7172
116.30061,39.9964,173,7172
116.29931,39.98284,174,7172
116.30204,39.98506,175,7172
116.31025,39.98413,176,7172
116.31902,39.97173,177,7172
116.31758,39.96615,178,7172
116.34606,39.96633,179,7172
116.32695,39.98338,180,7172
116.32774,39.97014,181,7172
116.30405,39.92266,182,7172
116.3043,39.90896,183,7172
116.30041,39.97212,184,7172
116.30201,39.98285,185,7172
116.30043,39.97457,186,7172
116.40147,39.99088,187,7172
116.41212,40.02986,188,7172
116.41212,40.02986,189,7172
116.41168,40.0295,190,7172
116.40996,40.00895,191,7172
116.48375,39.94272,192,7172
116.48642,39.90599,193,7172
116.62448,39.90527,194,7172
116.63761,39.88938,195,7172
116.64382,39.88702,196,7172
116.61364,39.90573,197,7172
116.50249,39.90674,198,7172
116.50249,39.90674,199,7172
116.43943,39.90729,200,7172
116.43943,39.90729,201,7172
116.42748,39.90723,202,7172
116.41126,39.90689,203,7172
116.37921,39.90591,204,7172
116.3538,39.90594,205,7172
116.31553,39.90823,206,7172
116.31548,39.89505,207,7172
116.30449,39.89792,208,7172
116.30343,39.95247,209,7172
116.31071,40.02855,210,7172
116.32251,40.03027,211,7172
116.32251,40.03027,212,7172
116.32251,40.03027,213,7172
116.32251,40.03027,214,7172
116.32251,40.03027,215,7172
116.32251,40.03027,216,7172
116.32251,40.03027,217,7172
116.32251,40.03027,218,7172
116.32251,40.03027,219,7172
116.32251,40.03027,220,7172
116.32251,40.03027,221,7172
116.32251,40.03027,222,7172
116.32251,40.03027,223,7172
116.32251,40.03027,224,7172
116.32251,40.03027,225,7172
116.32251,40.03027,226,7172
116.32251,40.03027,227,7172
116.32251,40.03027,228,7172
116.32251,40.03027,229,7172
116.32251,40.03027,230,7172
116.32251,40.03027,231,7172
116.32251,40.03027,232,7172
116.32251,40.03027,233,7172
116.32245,40.03027,234,7172
116.33098,40.03297,235,7172
116.34344,40.0266,236,7172
116.34614,40.00654,237,7172
116.34614,40.00654,238,7172
116.33114,39.99709,239,7172
116.31472,39.99202,240,7172
116.32104,39.98503,241,7172
116.32783,39.96747,242,7172
116.32313,39.95917,243,7172
116.31558,39.95558,244,7172
116.31086,39.96236,245,7172
116.30773,39.96331,246,7172
116.30268,39.95189,247,7172
116.30412,39.91181,248,7172
116.31373,39.89533,249,7172
116.31712,39.89593,250,7172
116.31022,39.90629,251,7172
116.27207,39.90622,252,7172
116.24291,39.90622,253,7172
116.23921,39.91304,254,7172
116.23917,39.91303,255,7172
116.23917,39.91303,256,7172
116.23917,39.91303,257,7172
116.23917,39.91303,258,7172
116.24161,39.91413,259,7172
116.2691,39.92174,260,7172
116.26974,39.96865,261,7172
116.29987,39.98169,262,7172
116.31114,39.97601,263,7172
116.31258,39.99089,264,7172
116.32368,39.98493,265,7172
116.32368,39.98493,266,7172
116.32369,39.98489,267,7172
116.32263,39.98476,268,7172
116.31747,39.97968,269,7172
116.30016,39.97445,270,7172
116.29913,39.95985,271,7172
116.29599,39.9656,272,7172
116.30362,39.94778,273,7172
116.30394,39.91397,274,7172
116.30355,39.90767,275,7172
116.30468,39.90775,276,7172
116.3044,39.92778,277,7172
116.29095,39.94579,278,7172
116.28235,39.95235,279,7172
116.30095,39.96041,280,7172
116.30159,39.96212,281,7172
116.34947,39.96635,282,7172
116.3989,39.96722,283,7172
116.40125,39.97547,284,7172
116.37887,39.9867,285,7172
116.3587,39.99596,286,7172
116.3465,39.99952,287,7172
116.3727,39.98409,288,7172
116.39787,39.96736,289,7172
116.40927,39.95569,290,7172
116.40927,39.95569,291,7172
116.39914,39.95735,292,7172
116.38877,39.96165,293,7172
116.38216,39.98676,294,7172
116.35667,40.01047,295,7172
116.3426,40.02867,296,7172
116.33937,40.0259,297,7172
116.32306,40.03007,298,7172
116.3225,40.03023,299,7172
116.32252,40.03025,300,7172
116.32252,40.03025,301,7172
116.32252,40.03025,302,7172
116.32252,40.03025,303,7172
116.32252,40.03025,304,7172
116.32252,40.03025,305,7172
116.32252,40.03025,306,7172
116.32252,40.03025,307,7172
116.32252,40.03025,308,7172
116.32252,40.03025,309,7172
116.32252,40.03025,310,7172
116.32252,40.03025,311,7172
116.32273,40.03012,312,7172
116.30962,40.02826,313,7172
116.30324,40.03761,314,7172
116.30324,40.03761,315,7172
116.30132,40.04056,316,7172
116.30124,40.04065,317,7172
116.298,40.05523,318,7172
116.31542,40.06525,319,7172
116.32764,40.0776,320,7172
116.35146,40.08497,321,7172
116.35089,40.08708,322,7172
116.33392,40.0592,323,7172
116.32262,40.05372,324,7172
116.30763,40.04276,325,7172
116.30763,40.04276,326,7172
116.30622,40.03542,327,7172
116.29543,40.02389,328,7172
116.27921,40.01638,329,7172
116.28262,40.00119,330,7172
116.27692,39.99811,331,7172
116.28722,39.99532,332,7172
116.29835,39.99275,333,7172
116.32646,39.98457,334,7172
116.36344,39.97957,335,7172
116.36389,39.96741,336,7172
116.36484,39.95689,337,7172
116.35928,39.971,338,7172
116.37423,39.97539,339,7172
116.36907,39.99346,340,7172
116.3793,40.00043,341,7172
116.36536,40.00023,342,7172
116.36438,39.98616,343,7172
116.32702,39.98464,344,7172
116.32147,39.98159,345,7172
116.31517,39.98463,346,7172
116.32197,39.99133,347,7172
116.32725,39.97919,348,7172
116.32823,39.9634,349,7172
116.32336,39.98487,350,7172
116.32336,39.98487,351,7172
116.32319,39.98491,352,7172
116.29938,39.98595,353,7172
116.31774,39.97975,354,7172
116.31027,39.984,355,7172
116.27189,39.97063,356,7172
116.29353,39.9829,357,7172
116.30997,39.98975,358,7172
116.31245,40.01099,359,7172
116.29578,40.02396,360,7172
116.29977,40.02431,361,7172
116.32164,40.02993,362,7172
116.32259,40.03027,363,7172
116.32249,40.03023,364,7172
116.32268,40.03029,365,7172
116.32251,40.03027,366,7172
116.32257,40.03018,367,7172
116.33914,40.02626,368,7172
116.34622,40.00657,369,7172
116.34769,39.97829,370,7172
116.34995,39.92368,371,7172
116.39458,39.84963,372,7172
116.39449,39.84954,373,7172
116.39449,39.84954,374,7172
116.39449,39.84954,375,7172
116.39449,39.84954,376,7172
116.39449,39.84954,377,7172
116.3941,39.86379,378,7172
116.39416,39.8664,379,7172
116.38445,39.87091,380,7172
116.36835,39.88253,381,7172
116.36832,39.89778,382,7172
116.3514,39.90016,383,7172
116.34717,39.91826,384,7172
116.32822,39.92687,385,7172
116.31887,39.9435,386,7172
116.33695,39.93562,387,7172
116.34914,39.93097,388,7172
116.36958,39.9313,389,7172
116.3689,39.94106,390,7172
116.3689,39.94106,391,7172
116.36462,39.9593,392,7172
116.35948,39.97026,393,7172
116.36476,39.9569,394,7172
116.36658,39.94701,395,7172
116.36573,39.94833,396,7172
116.36405,39.96611,397,7172
116.36306,39.98805,398,7172
116.34642,40.00406,399,7172
116.3449,40.00635,400,7172
116.34452,40.00631,401,7172
116.34164,40.01381,402,7172
116.34627,39.9997,403,7172
116.33399,39.99173,404,7172
116.35764,39.98571,405,7172
116.37544,39.96668,406,7172
116.43387,39.96582,407,7172
116.45536,39.92349,408,7172
116.46615,39.90554,409,7172
116.45595,39.90641,410,7172
116.45577,39.91782,411,7172
116.4559,39.93752,412,7172
116.45236,39.95416,413,7172
116.43304,39.9668,414,7172
116.42959,39.97555,415,7172
116.38781,39.98691,416,7172
116.36294,39.992,417,7172
116.35871,39.9982,418,7172
116.35873,39.99813,419,7172
116.35873,39.99813,420,7172
116.33389,39.99524,421,7172
116.31356,39.99099,422,7172
116.3208,39.99118,423,7172
116.32379,39.9849,424,7172
116.32377,39.9849,425,7172
116.32381,39.98489,426,7172
116.32358,39.98486,427,7172
116.32362,39.98488,428,7172
116.32364,39.98483,429,7172
116.32357,39.98483,430,7172
116.3236,39.98485,431,7172
116.41302,39.98487,432,7172
116.41302,39.98487,433,7172
116.32345,39.98488,434,7172
116.32358,39.98486,435,7172
116.32204,39.98481,436,7172
116.3091,39.99802,437,7172
116.30964,40.00414,438,7172
116.30733,40.02715,439,7172
116.32279,40.03025,440,7172
116.32277,40.03015,441,7172
116.32278,40.0302,442,7172
116.30575,40.0321,443,7172
116.3495,40.03365,444,7172
116.35392,40.01309,445,7172
116.3734,39.9526,446,7172
116.36413,39.96523,447,7172
116.35932,39.97151,448,7172
116.36189,39.97524,449,7172
116.35649,39.986,450,7172
116.35655,39.98609,451,7172
116.35655,39.9861,452,7172
116.35656,39.98606,453,7172
116.35653,39.98609,454,7172
116.35653,39.98609,455,7172
116.32774,39.985,456,7172
116.3139,39.99098,457,7172
116.32326,39.9849,458,7172
116.3233,39.98493,459,7172
116.30051,39.98404,460,7172
116.27872,40.0055,461,7172
116.29904,39.98639,462,7172
116.30993,39.98465,463,7172
116.30722,39.97747,464,7172
116.29851,39.97436,465,7172
116.31925,39.97051,466,7172
116.29415,39.96264,467,7172
116.28202,39.95832,468,7172
116.27325,39.97073,469,7172
116.28606,39.98006,470,7172
116.28606,39.98006,471,7172
116.3261,39.98441,472,7172
116.3397,39.96637,473,7172
116.31305,39.89559,474,7172
116.31392,39.89504,475,7172
116.31621,39.89595,476,7172
116.30441,39.91015,477,7172
116.31086,39.97689,478,7172
116.3098,39.99164,479,7172
116.32251,40.03027,480,7172
116.32242,40.03025,481,7172
116.32242,40.03025,482,7172
116.32242,40.03025,483,7172
116.32242,40.03025,484,7172
116.32242,40.03025,485,7172
116.32242,40.03025,486,7172
116.32242,40.03025,487,7172
116.32242,40.03025,488,7172
116.32242,40.03025,489,7172
116.32242,40.03025,490,7172
116.32242,40.03025,491,7172
116.32242,40.03025,492,7172
116.32242,40.03025,493,7172
116.32242,40.03025,494,7172
116.32242,40.03025,495,7172
116.32242,40.03025,496,7172
116.32242,40.03025,497,7172
116.32242,40.03025,498,7172
116.32242,40.03025,499,7172
116.32242,40.03025,500,7172
116.32242,40.03025,501,7172
116.32247,40.03027,502,7172
116.32247,40.03026,503,7172
116.33098,40.02764,504,7172
116.34456,40.022,505,7172
116.37689,40.01293,506,7172
116.43248,40.01992,507,7172
116.4912,39.99778,508,7172
116.52087,40.02945,509,7172
116.53998,40.05644,510,7172
116.5667,40.12085,511,7172
116.60873,40.1526,512,7172
116.63583,40.18403,513,7172
116.63583,40.18403,514,7172
116.64207,40.22481,515,7172
116.63173,40.26655,516,7172
116.64346,40.30538,517,7172
116.67951,40.3261,518,7172
116.72416,40.32755,519,7172
116.78157,40.34975,520,7172
116.82134,40.36663,521,7172
116.82305,40.37056,522,7172
116.82305,40.37056,523,7172
116.82305,40.37056,524,7172
116.83647,40.36812,525,7172
116.85939,40.37389,526,7172
116.88729,40.38733,527,7172
116.94195,40.40846,528,7172
116.99456,40.42825,529,7172
117.03001,40.47328,530,7172
117.07396,40.51086,531,7172
117.12852,40.54055,532,7172
117.13585,40.57107,533,7172
117.11514,40.59934,534,7172
117.10597,40.60021,535,7172
117.10597,40.60021,536,7172
117.10597,40.60021,537,7172
117.07545,40.59725,538,7172
117.0724,40.60142,539,7172
117.07242,40.60145,540,7172
117.07242,40.60145,541,7172
117.07242,40.60145,542,7172
117.07242,40.60145,543,7172
117.07242,40.60145,544,7172
117.07242,40.60145,545,7172
117.07242,40.60145,546,7172
117.07242,40.60145,547,7172
117.07242,40.60145,548,7172
117.07242,40.60145,549,7172
117.07242,40.60145,550,7172
117.07242,40.60145,551,7172
117.07242,40.60145,552,7172
117.07242,40.60145,553,7172
117.07242,40.60145,554,7172
117.07242,40.60145,555,7172
117.07242,40.60145,556,7172
117.07242,40.60145,557,7172
117.07242,40.60145,558,7172
117.07242,40.60145,559,7172
117.07242,40.60145,560,7172
117.07242,40.60145,561,7172
117.07242,40.60145,562,7172
