x,y,k,tid
116.45412,39.95006,0,726
116.45542,39.94037,1,726
116.45201,39.93127,2,726
116.45602,39.93591,3,726
116.44815,39.95008,4,726
116.45219,39.95342,5,726
116.45539,39.91922,6,726
116.42244,39.89295,7,726
116.42359,39.88941,8,726
116.42116,39.8987,9,726
116.40851,39.90086,10,726
116.41182,39.91117,11,726
116.42042,39.91314,12,726
116.4203,39.9064,13,726
116.43753,39.90694,14,726
116.44428,39.90942,15,726
116.43399,39.91194,16,726
116.43399,39.91194,17,726
116.43145,39.92302,18,726
116.43763,39.92022,19,726
116.44296,39.91202,20,726
116.4478,39.90689,21,726
116.44168,39.90714,22,726
116.42072,39.91172,23,726
116.41861,39.92295,24,726
116.41861,39.92295,25,726
116.41933,39.92444,26,726
116.42493,39.923,27,726
116.42872,39.92947,28,726
116.44544,39.93979,29,726
116.45519,39.92982,30,726
116.45296,39.91841,31,726
116.44958,39.90988,32,726
116.45451,39.90919,33,726
116.45448,39.90379,34,726
116.45509,39.88308,35,726
116.44494,39.85887,36,726
116.43252,39.86231,37,726
116.42784,39.86452,38,726
116.42569,39.85855,39,726
116.40794,39.85594,40,726
116.39259,39.8559,41,726
116.39363,39.85515,42,726
116.4523,39.86397,43,726
116.45512,39.87774,44,726
116.45649,39.8993,45,726
116.45632,39.90388,46,726
116.45616,39.90573,47,726
116.43888,39.89932,48,726
116.45517,39.89756,49,726
116.45999,39.89931,50,726
116.45999,39.89931,51,726
116.46008,39.89929,52,726
116.46008,39.89928,53,726
116.46008,39.89928,54,726
116.46122,39.89693,55,726
116.4612,39.89693,56,726
116.4611,39.89689,57,726
116.46755,39.89911,58,726
116.47038,39.89926,59,726
116.47206,39.90215,60,726
116.47223,39.90568,61,726
116.46791,39.90697,62,726
116.45974,39.90727,63,726
116.45684,39.907,64,726
116.45206,39.91858,65,726
116.44813,39.91983,66,726
116.44574,39.92179,67,726
116.44156,39.92548,68,726
116.44434,39.93118,69,726
116.44433,39.9389,70,726
116.44931,39.94741,71,726
116.45543,39.94933,72,726
116.46244,39.94715,73,726
116.45766,39.94585,74,726
116.45257,39.94761,75,726
116.45362,39.94793,76,726
116.45366,39.94812,77,726
116.45366,39.94812,78,726
116.46462,39.95079,79,726
116.47729,39.96112,80,726
116.47612,39.96234,81,726
116.47763,39.9744,82,726
116.48356,39.98623,83,726
116.49187,39.99746,84,726
116.51764,40.0245,85,726
116.5067,40.03472,86,726
116.50607,40.03833,87,726
116.49923,40.02249,88,726
116.46469,40.0216,89,726
116.46104,40.01052,90,726
116.46082,40.01231,91,726
116.46081,40.01231,92,726
116.46356,40.01112,93,726
116.46346,40.01099,94,726
116.46133,40.00145,95,726
116.4763,39.98322,96,726
116.47289,39.97861,97,726
116.42723,39.94654,98,726
116.42812,39.91428,99,726
116.43001,39.90243,100,726
116.41928,39.90342,101,726
116.42147,39.90348,102,726
116.42434,39.90369,103,726
116.43901,39.88327,104,726
116.38065,39.85863,105,726
116.38045,39.85594,106,726
116.42976,39.85737,107,726
116.4527,39.8643,108,726
116.45517,39.8737,109,726
116.45565,39.92113,110,726
116.42418,39.90723,111,726
116.40589,39.90678,112,726
116.39224,39.90638,113,726
116.38783,39.90623,114,726
116.36632,39.906,115,726
116.34205,39.88968,116,726
116.3286,39.89259,117,726
116.32849,39.88977,118,726
116.3066,39.88443,119,726
116.30685,39.89519,120,726
116.30773,39.89522,121,726
116.30778,39.89504,122,726
116.30759,39.89548,123,726
116.30777,39.89558,124,726
116.30777,39.89558,125,726
116.30777,39.89558,126,726
116.34758,39.89687,127,726
116.34758,39.89687,128,726
116.37347,39.98253,129,726
116.34117,40.03019,130,726
116.31561,40.0687,131,726
116.32038,40.06811,132,726
116.33486,40.03765,133,726
116.34598,40.02077,134,726
116.37398,39.9668,135,726
116.43105,39.96749,136,726
116.45509,39.94839,137,726
116.46794,39.95199,138,726
116.47649,39.95586,139,726
116.47689,39.95533,140,726
116.47689,39.95533,141,726
116.47689,39.95532,142,726
116.47687,39.95531,143,726
116.47687,39.9553,144,726
116.47686,39.95529,145,726
116.47686,39.95528,146,726
116.47686,39.95528,147,726
116.47687,39.95527,148,726
116.47687,39.95527,149,726
116.47687,39.95527,150,726
116.47675,39.95524,151,726
116.42734,39.75568,152,726
116.42734,39.75568,153,726
116.42734,39.75568,154,726
116.47679,39.95523,155,726
116.47678,39.95524,156,726
116.47678,39.95524,157,726
116.4768,39.95523,158,726
116.47681,39.95523,159,726
116.47681,39.95523,160,726
116.47682,39.95523,161,726
116.47682,39.95524,162,726
116.47683,39.95524,163,726
116.47684,39.95524,164,726
116.47683,39.95519,165,726
116.47684,39.95521,166,726
116.47685,39.95522,167,726
116.47685,39.95523,168,726
116.47686,39.95523,169,726
116.47686,39.95523,170,726
116.47686,39.95523,171,726
116.47686,39.95523,172,726
116.47686,39.95523,173,726
116.47685,39.95523,174,726
116.47685,39.95523,175,726
116.47685,39.95523,176,726
116.47685,39.95524,177,726
116.47685,39.95524,178,726
116.47685,39.95524,179,726
116.47685,39.95524,180,726
116.47684,39.95524,181,726
116.46652,39.95157,182,726
116.45578,39.94556,183,726
116.45534,39.93962,184,726
116.45516,39.92007,185,726
116.45491,39.91802,186,726
116.48838,39.90623,187,726
116.45537,39.91575,188,726
116.4531,39.91121,189,726
116.43703,39.93878,190,726
116.45578,39.92945,191,726
116.45596,39.94775,192,726
116.45567,39.95487,193,726
116.46227,39.96033,194,726
116.46805,39.96622,195,726
116.48321,39.979,196,726
116.46147,39.99581,197,726
116.46117,40.0137,198,726
116.44354,40.01985,199,726
116.44363,40.02935,200,726
116.44099,40.03098,201,726
116.44579,40.01591,202,726
116.50716,40.00846,203,726
116.50721,40.00845,204,726
116.50714,40.00839,205,726
116.507,40.00849,206,726
116.507,40.00851,207,726
116.507,40.00851,208,726
116.507,40.0085,209,726
116.50702,40.0085,210,726
116.50703,40.00849,211,726
116.50705,40.00848,212,726
116.50706,40.00848,213,726
116.50707,40.00848,214,726
116.50707,40.00848,215,726
116.50708,40.00847,216,726
116.50708,40.00847,217,726
116.50708,40.00847,218,726
116.50709,40.00847,219,726
116.49896,40.00003,220,726
116.49238,39.97546,221,726
116.49258,39.97503,222,726
116.49234,39.97549,223,726
116.49241,39.9754,224,726
116.4924,39.97536,225,726
116.49235,39.97526,226,726
116.49221,39.97507,227,726
116.49208,39.97517,228,726
116.48694,39.97539,229,726
116.48183,39.97975,230,726
116.46364,39.99188,231,726
116.46185,39.98951,232,726
116.44935,39.98044,233,726
116.44935,39.98044,234,726
116.48375,39.94699,235,726
116.46597,39.93237,236,726
116.46063,39.92306,237,726
116.4818,39.92146,238,726
116.48468,39.9366,239,726
116.48733,39.93573,240,726
116.48303,39.93253,241,726
116.46545,39.92942,242,726
116.45535,39.92155,243,726
116.45052,39.88316,244,726
116.45004,39.88205,245,726
116.45563,39.93972,246,726
116.46459,39.96953,247,726
116.40763,39.98732,248,726
116.45628,39.92476,249,726
116.37209,39.9854,250,726
116.38725,39.97534,251,726
116.4115,39.96772,252,726
116.44617,39.95619,253,726
116.44457,39.96059,254,726
116.43737,39.95731,255,726
116.43507,39.94729,256,726
116.43803,39.94076,257,726
116.43763,39.93258,258,726
116.43102,39.92786,259,726
116.43102,39.92786,260,726
116.42844,39.93165,261,726
116.42566,39.92284,262,726
116.42566,39.92284,263,726
116.43726,39.91206,264,726
116.45512,39.90818,265,726
116.45477,39.88665,266,726
116.45617,39.88431,267,726
116.45566,39.89476,268,726
116.45588,39.91161,269,726
116.44548,39.90743,270,726
116.44452,39.91849,271,726
116.44428,39.92001,272,726
116.448,39.9253,273,726
116.44801,39.92564,274,726
116.43487,39.92219,275,726
116.4299,39.9233,276,726
116.42568,39.92932,277,726
116.42577,39.92933,278,726
116.43353,39.93221,279,726
116.43443,39.92353,280,726
116.46306,39.91532,281,726
116.47818,39.91414,282,726
116.48565,39.91374,283,726
116.47205,39.92027,284,726
116.46099,39.92797,285,726
116.46148,39.9283,286,726
116.46459,39.92185,287,726
116.45587,39.93144,288,726
116.44459,39.92562,289,726
116.44459,39.92562,290,726
116.43395,39.92728,291,726
116.43007,39.92879,292,726
116.42797,39.93506,293,726
116.45011,39.95803,294,726
116.48337,39.98095,295,726
116.46642,39.98993,296,726
116.46642,39.99547,297,726
116.46725,39.98887,298,726
116.47299,39.9778,299,726
116.46452,39.96355,300,726
116.45147,39.9515,301,726
116.4494,39.94648,302,726
116.44916,39.93237,303,726
116.42929,39.9323,304,726
116.43355,39.93,305,726
116.43958,39.92181,306,726
116.45514,39.91697,307,726
116.45505,39.90552,308,726
116.45499,39.88748,309,726
116.45001,39.87015,310,726
116.4557,39.88294,311,726
116.45606,39.89137,312,726
116.45594,39.90265,313,726
116.45559,39.92237,314,726
116.45533,39.9289,315,726
116.44277,39.92564,316,726
116.45409,39.92186,317,726
116.47296,39.92154,318,726
116.47296,39.92154,319,726
116.49729,39.93024,320,726
116.48761,39.92179,321,726
116.46994,39.92968,322,726
116.45598,39.93121,323,726
116.44528,39.92566,324,726
116.42045,39.92314,325,726
116.41884,39.93217,326,726
116.43394,39.92933,327,726
116.42964,39.93026,328,726
116.42618,39.9328,329,726
116.42807,39.8997,330,726
116.41901,39.89441,331,726
116.43494,39.90486,332,726
116.4347,39.91997,333,726
116.43419,39.92064,334,726
116.43108,39.92789,335,726
116.43285,39.94845,336,726
116.43278,39.95833,337,726
116.43752,39.9458,338,726
116.43352,39.95831,339,726
116.43272,39.96326,340,726
116.43546,39.95373,341,726
116.43546,39.95373,342,726
116.43855,39.94057,343,726
116.42784,39.93269,344,726
116.4298,39.90384,345,726
116.42198,39.89167,346,726
116.42198,39.89167,347,726
116.43193,39.90198,348,726
116.43504,39.90685,349,726
116.43493,39.91354,350,726
116.4349,39.91469,351,726
116.43391,39.90732,352,726
116.42311,39.90562,353,726
116.42288,39.90648,354,726
116.42552,39.90692,355,726
116.4357,39.9211,356,726
116.42965,39.92884,357,726
116.39291,39.94776,358,726
116.40574,39.94756,359,726
116.41666,39.94672,360,726
116.42621,39.95199,361,726
116.43426,39.94797,362,726
116.43794,39.93651,363,726
116.43098,39.92312,364,726
116.4144,39.90706,365,726
116.41127,39.90896,366,726
116.42227,39.89052,367,726
116.41525,39.86746,368,726
116.42177,39.85946,369,726
116.4253,39.85745,370,726
116.45527,39.89646,371,726
116.45293,39.95356,372,726
116.45293,39.95356,373,726
116.45066,39.98405,374,726
116.45345,39.99741,375,726
116.45723,39.98852,376,726
116.47111,39.97313,377,726
116.47428,39.96451,378,726
116.4515,39.95142,379,726
116.4401,39.93523,380,726
116.43806,39.93853,381,726
116.43789,39.93843,382,726
116.43754,39.93536,383,726
116.4457,39.91969,384,726
116.44324,39.91634,385,726
116.43777,39.92792,386,726
116.43814,39.93876,387,726
116.44901,39.94689,388,726
116.44898,39.95188,389,726
116.44896,39.95188,390,726
116.44896,39.95188,391,726
116.44896,39.95187,392,726
116.44894,39.95186,393,726
116.44895,39.95187,394,726
116.44895,39.95197,395,726
116.449,39.95194,396,726
116.449,39.95193,397,726
116.44901,39.95192,398,726
116.44901,39.95192,399,726
116.44901,39.95192,400,726
116.44852,39.9514,401,726
116.44194,39.94322,402,726
116.44194,39.94322,403,726
116.44148,39.94403,404,726
116.44145,39.94412,405,726
116.44142,39.94413,406,726
116.44133,39.94413,407,726
116.44153,39.94419,408,726
116.44139,39.94409,409,726
116.44117,39.94436,410,726
116.44137,39.94405,411,726
116.44145,39.94415,412,726
116.44148,39.94435,413,726
116.4415,39.94416,414,726
116.44132,39.9441,415,726
116.44117,39.94368,416,726
116.44137,39.94411,417,726
116.44137,39.9441,418,726
116.44137,39.94409,419,726
116.44138,39.94409,420,726
116.44137,39.9441,421,726
116.4413,39.94424,422,726
116.44129,39.94417,423,726
116.44137,39.94401,424,726
116.44129,39.94405,425,726
116.44043,39.94405,426,726
116.44058,39.94383,427,726
116.44133,39.94381,428,726
116.44126,39.94415,429,726
116.44126,39.94413,430,726
116.44126,39.94413,431,726
116.44124,39.94405,432,726
116.44126,39.94411,433,726
116.44129,39.94411,434,726
116.4413,39.94411,435,726
116.4413,39.94412,436,726
116.44136,39.94408,437,726
116.44044,39.94388,438,726
116.44146,39.94414,439,726
116.4414,39.94415,440,726
116.44135,39.94414,441,726
116.44142,39.94389,442,726
116.44089,39.94389,443,726
116.43037,39.93941,444,726
116.43366,39.92994,445,726
116.42921,39.92321,446,726
116.43247,39.92561,447,726
116.43246,39.92585,448,726
116.43242,39.92573,449,726
116.43238,39.9258,450,726
116.43354,39.93133,451,726
116.43471,39.92269,452,726
116.44894,39.92365,453,726
116.45586,39.92765,454,726
116.44919,39.92672,455,726
116.43739,39.92113,456,726
116.42802,39.93122,457,726
116.42802,39.93122,458,726
116.39283,39.94764,459,726
116.39283,39.94764,460,726
116.36736,39.94747,461,726
116.34962,39.94224,462,726
116.31892,39.9438,463,726
116.36453,39.95645,464,726
116.38758,39.9671,465,726
116.43801,39.96314,466,726
116.44887,39.94662,467,726
116.44438,39.94603,468,726
116.452,39.94741,469,726
116.44755,39.95707,470,726
116.42606,39.96883,471,726
116.45128,40.0156,472,726
116.44247,40.02985,473,726
116.44343,40.0293,474,726
116.44343,40.0293,475,726
116.44343,40.0293,476,726
116.44343,40.0293,477,726
116.44343,40.0293,478,726
116.44343,40.0293,479,726
116.44365,40.02944,480,726
116.44358,40.02942,481,726
116.45707,40.01015,482,726
116.47585,40.01278,483,726
116.47594,40.01178,484,726
116.47656,40.01247,485,726
116.47656,40.01247,486,726
116.48979,40.00188,487,726
116.50735,40.00875,488,726
116.50708,40.00831,489,726
116.50709,40.00832,490,726
116.50708,40.00831,491,726
116.50707,40.00831,492,726
116.50707,40.00831,493,726
116.50706,40.00831,494,726
116.50128,40.00348,495,726
116.486,39.98962,496,726
116.48136,39.97803,497,726
116.47345,39.97091,498,726
116.46212,39.95728,499,726
116.46188,39.94704,500,726
116.45681,39.93221,501,726
116.44903,39.92672,502,726
116.45303,39.9184,503,726
116.4443,39.9146,504,726
116.44399,39.92141,505,726
116.44785,39.92556,506,726
116.45517,39.91769,507,726
116.47086,39.91462,508,726
116.45143,39.91949,509,726
116.4362,39.92255,510,726
116.41753,39.92305,511,726
116.39686,39.92248,512,726
116.37239,39.9214,513,726
116.36637,39.92262,514,726
116.36637,39.92262,515,726
116.35023,39.92426,516,726
116.34884,39.95915,517,726
116.34884,39.95915,518,726
116.32944,39.96649,519,726
116.32885,39.95658,520,726
116.3469,39.96625,521,726
116.36462,39.95652,522,726
116.3743,39.96518,523,726
116.41146,39.96765,524,726
116.41646,39.9767,525,726
116.41807,39.96774,526,726
116.4553,39.94993,527,726
116.45482,39.94761,528,726
116.46074,39.94264,529,726
116.45523,39.93371,530,726
116.44915,39.92401,531,726
116.45502,39.9203,532,726
116.45547,39.91319,533,726
116.50026,39.90672,534,726
116.54649,39.90778,535,726
116.57115,39.90702,536,726
116.56928,39.90584,537,726
116.57118,39.90629,538,726
116.54464,39.90843,539,726
116.51036,39.9067,540,726
116.41135,39.9224,541,726
116.4058,39.9233,542,726
116.4058,39.9233,543,726
116.40613,39.93196,544,726
116.42441,39.93246,545,726
116.42577,39.9283,546,726
116.42804,39.92301,547,726
116.42831,39.91966,548,726
116.42826,39.91086,549,726
116.43914,39.88566,550,726
116.43295,39.86882,551,726
116.43303,39.85736,552,726
116.44235,39.85766,553,726
116.45528,39.86971,554,726
116.45567,39.89642,555,726
116.45519,39.90825,556,726
116.43667,39.89626,557,726
116.42772,39.86955,558,726
116.41025,39.8679,559,726
116.41024,39.86772,560,726
116.41288,39.86444,561,726
116.45495,39.86767,562,726
116.45542,39.88253,563,726
116.45598,39.89916,564,726
116.45459,39.90904,565,726
116.4547,39.89488,566,726
116.4547,39.89488,567,726
116.4381,39.85778,568,726
116.43272,39.84477,569,726
116.42524,39.84393,570,726
116.42738,39.85077,571,726
116.45493,39.88203,572,726
116.45572,39.8968,573,726
116.4586,39.89947,574,726
116.45861,39.89947,575,726
116.45814,39.89946,576,726
116.45507,39.90942,577,726
116.46433,39.91223,578,726
116.4715,39.90517,579,726
116.45871,39.89145,580,726
116.45671,39.88751,581,726
116.4558,39.90262,582,726
116.45539,39.90799,583,726
116.46192,39.93237,584,726
116.45441,39.90721,585,726
116.42173,39.90705,586,726
116.39359,39.90641,587,726
116.36863,39.9059,588,726
116.35149,39.91151,589,726
116.34995,39.92945,590,726
116.37333,39.95887,591,726
116.35661,40.01018,592,726
116.32289,40.05393,593,726
116.32691,40.07792,594,726
116.32691,40.07792,595,726
116.36792,40.08045,596,726
116.37606,40.07717,597,726
116.40731,40.07619,598,726
116.40757,40.05518,599,726
116.40249,40.02168,600,726
116.40147,39.99766,601,726
116.40119,39.96959,602,726
116.34949,39.93241,603,726
116.33299,39.89635,604,726
116.30842,39.89611,605,726
116.30752,39.8951,606,726
116.30752,39.8951,607,726
116.30752,39.8951,608,726
116.30752,39.8951,609,726
116.30752,39.8951,610,726
116.30752,39.8951,611,726
116.30752,39.8951,612,726
116.30752,39.8951,613,726
116.30752,39.8951,614,726
116.30752,39.8951,615,726
116.30752,39.8951,616,726
116.30752,39.8951,617,726
116.30752,39.8951,618,726
116.30752,39.8951,619,726
116.30752,39.8951,620,726
116.30752,39.8951,621,726
116.30752,39.8951,622,726
116.30752,39.8951,623,726
116.3042,39.91221,624,726
116.31045,39.96389,625,726
116.40119,39.96931,626,726
116.39651,39.96725,627,726
116.3972,39.96718,628,726
116.3972,39.96719,629,726
116.39721,39.96719,630,726
116.39721,39.96719,631,726
116.3972,39.96677,632,726
116.39723,39.96695,633,726
116.39715,39.96713,634,726
116.39723,39.96711,635,726
116.39744,39.96744,636,726
116.39744,39.96735,637,726
116.39738,39.96727,638,726
116.39736,39.96726,639,726
116.39735,39.96724,640,726
116.39733,39.96722,641,726
116.39732,39.96721,642,726
116.3973,39.96721,643,726
116.3973,39.96721,644,726
116.39729,39.96721,645,726
116.39728,39.9672,646,726
116.39728,39.9672,647,726
116.3954,39.96791,648,726
116.39715,39.96712,649,726
116.39568,39.96786,650,726
116.39724,39.96715,651,726
116.39726,39.96711,652,726
116.39724,39.9671,653,726
116.39723,39.96711,654,726
116.39703,39.96752,655,726
116.39713,39.96706,656,726
116.44141,39.96095,657,726
116.44141,39.96095,658,726
116.46599,39.9651,659,726
116.46232,39.94917,660,726
116.45541,39.94559,661,726
116.45515,39.92237,662,726
116.4558,39.91954,663,726
116.45603,39.91879,664,726
116.45473,39.92079,665,726
116.45482,39.92032,666,726
116.45561,39.94499,667,726
116.40053,39.96762,668,726
116.36722,40.00854,669,726
116.33835,40.05849,670,726
116.32319,40.0538,671,726
116.34384,40.02599,672,726
116.36678,39.99591,673,726
116.36678,39.99591,674,726
116.32789,39.96665,675,726
116.34457,39.96612,676,726
116.3361,39.96196,677,726
116.33608,39.96194,678,726
116.36733,39.96634,679,726
116.39691,39.96717,680,726
116.43996,39.96178,681,726
116.4415,39.95484,682,726
116.44329,39.95921,683,726
116.45557,39.93137,684,726
116.47213,39.90681,685,726
116.49259,39.90659,686,726
116.50701,40.00839,687,726
116.50703,40.00836,688,726
116.50703,40.00836,689,726
116.50704,40.00836,690,726
116.50705,40.00836,691,726
116.50705,40.00836,692,726
116.50705,40.00836,693,726
116.50705,40.00837,694,726
116.50705,40.00837,695,726
116.50705,40.00837,696,726
116.50705,40.00837,697,726
116.50707,40.00837,698,726
116.49964,39.99966,699,726
116.49706,39.97919,700,726
116.49224,39.97515,701,726
116.49224,39.97513,702,726
116.4836,39.97226,703,726
116.48693,39.97518,704,726
116.48079,39.97319,705,726
116.47,39.96379,706,726
116.46254,39.9476,707,726
116.46735,39.93463,708,726
116.45521,39.9183,709,726
116.45606,39.90012,710,726
116.45595,39.90374,711,726
116.45338,39.91244,712,726
116.45305,39.91383,713,726
116.44819,39.92553,714,726
116.45204,39.93236,715,726
116.43494,39.92773,716,726
116.43288,39.92521,717,726
116.43261,39.92549,718,726
116.43285,39.92588,719,726
116.43285,39.92588,720,726
116.43408,39.92716,721,726
116.42758,39.94284,722,726
116.46464,39.96952,723,726
116.46602,39.99013,724,726
116.44346,39.99445,725,726
116.42117,39.99238,726,726
116.41811,39.98251,727,726
116.41867,39.96762,728,726
116.43336,39.95937,729,726
116.43341,39.95397,730,726
116.43868,39.94032,731,726
116.43562,39.9257,732,726
116.43046,39.92953,733,726
116.44344,39.9323,734,726
116.45597,39.93221,735,726
116.46556,39.92932,736,726
116.45575,39.93146,737,726
116.4407,39.92574,738,726
116.43347,39.91655,739,726
116.43457,39.9217,740,726
116.44442,39.93037,741,726
116.44452,39.93198,742,726
116.44043,39.9489,743,726
116.4335,39.95755,744,726
116.42962,39.96495,745,726
116.43318,39.95985,746,726
116.43969,39.95572,747,726
116.43392,39.95082,748,726
116.43392,39.95082,749,726
116.43529,39.93988,750,726
116.41962,39.93518,751,726
116.43784,39.93964,752,726
116.43748,39.93319,753,726
116.44268,39.92561,754,726
116.43029,39.93238,755,726
116.42158,39.93233,756,726
116.42158,39.93233,757,726
116.40465,39.93205,758,726
116.39582,39.93942,759,726
116.40071,39.93946,760,726
116.41893,39.93959,761,726
116.44388,39.93987,762,726
116.45481,39.94758,763,726
116.46879,39.96661,764,726
116.49029,39.98661,765,726
116.50937,40.0107,766,726
116.50957,40.01099,767,726
116.52163,40.01678,768,726
116.52708,40.03942,769,726
116.54923,40.06492,770,726
116.55676,40.10809,771,726
116.59228,40.1423,772,726
116.63572,40.17869,773,726
116.64349,40.22633,774,726
116.6316,40.2615,775,726
116.69102,40.32676,776,726
116.74844,40.33394,777,726
116.74844,40.33394,778,726
116.79812,40.35761,779,726
116.8313,40.36759,780,726
116.8664,40.3769,781,726
116.91207,40.39992,782,726
116.96586,40.40509,783,726
117.00922,40.44608,784,726
117.04164,40.48441,785,726
117.0981,40.52226,786,726
117.11315,40.53761,787,726
117.12399,40.53495,788,726
117.12461,40.53608,789,726
117.12459,40.5361,790,726
117.12425,40.53607,791,726
117.12426,40.53607,792,726
117.12453,40.53602,793,726
117.12435,40.53587,794,726
117.12438,40.5359,795,726
117.12442,40.53592,796,726
117.125,40.53577,797,726
117.12433,40.53608,798,726
117.12438,40.53608,799,726
117.1244,40.53608,800,726
117.12441,40.53608,801,726
117.07591,40.53456,802,726
117.07599,40.53461,803,726
117.07599,40.53462,804,726
117.07598,40.53462,805,726
117.07598,40.53462,806,726
117.07598,40.53462,807,726
117.07597,40.53462,808,726
117.07597,40.53461,809,726
117.07597,40.53461,810,726
117.07598,40.53461,811,726
117.07598,40.53461,812,726
117.07598,40.5346,813,726
117.07598,40.5346,814,726
117.07598,40.5346,815,726
117.07599,40.5346,816,726
117.07598,40.5346,817,726
117.07598,40.5346,818,726
117.07599,40.5346,819,726
117.07598,40.5346,820,726
117.07599,40.5346,821,726
117.07599,40.5346,822,726
117.07599,40.5346,823,726
117.07599,40.53459,824,726
117.07599,40.53459,825,726
117.07599,40.53459,826,726
117.07598,40.53459,827,726
117.07598,40.53459,828,726
117.07598,40.53459,829,726
117.07598,40.53459,830,726
117.07598,40.53459,831,726
117.07598,40.53459,832,726
117.07597,40.53459,833,726
117.07597,40.53459,834,726
117.07597,40.53459,835,726
117.07597,40.53459,836,726
117.07597,40.53459,837,726
117.07596,40.53459,838,726
117.07596,40.5346,839,726
117.07596,40.5346,840,726
117.07596,40.5346,841,726
117.07596,40.5346,842,726
117.07596,40.5346,843,726
117.07596,40.5346,844,726
117.07595,40.5346,845,726
117.07595,40.5346,846,726
117.07595,40.53459,847,726
117.07595,40.53459,848,726
117.07595,40.53459,849,726
117.07595,40.53459,850,726
117.07595,40.53459,851,726
117.07595,40.53459,852,726
117.07595,40.53459,853,726
117.07595,40.53459,854,726
117.07595,40.53459,855,726
117.07595,40.53459,856,726
117.07595,40.5346,857,726
117.07595,40.5346,858,726
117.07595,40.5346,859,726
117.07595,40.5346,860,726
117.07595,40.5346,861,726
117.07595,40.5346,862,726
117.07595,40.5346,863,726
117.07595,40.5346,864,726
117.07595,40.5346,865,726
117.07595,40.5346,866,726
117.07595,40.5346,867,726
117.07595,40.5346,868,726
117.07595,40.5346,869,726
117.07595,40.5346,870,726
117.07595,40.5346,871,726
117.07595,40.5346,872,726
117.0777,40.53619,873,726
117.07769,40.5362,874,726
117.0777,40.53621,875,726
117.07769,40.5362,876,726
117.0777,40.53621,877,726
117.0777,40.53621,878,726
117.0777,40.53621,879,726
117.0777,40.53621,880,726
117.0777,40.53621,881,726
117.0777,40.53621,882,726
117.0777,40.53621,883,726
117.0777,40.53621,884,726
117.0777,40.53621,885,726
117.0777,40.53621,886,726
117.0777,40.53621,887,726
117.0777,40.53621,888,726
117.0777,40.53621,889,726
117.0777,40.53621,890,726
117.0777,40.53621,891,726
117.0777,40.53622,892,726
117.0777,40.53622,893,726
117.0777,40.53622,894,726
117.0777,40.53622,895,726
117.0777,40.53622,896,726
117.07769,40.53622,897,726
117.07769,40.53622,898,726
117.07769,40.53622,899,726
117.07769,40.53623,900,726
117.07769,40.53623,901,726
117.07769,40.53623,902,726
117.07769,40.53623,903,726
117.07769,40.53623,904,726
117.07769,40.53623,905,726
117.07769,40.53623,906,726
117.07769,40.53623,907,726
117.07769,40.53623,908,726
117.0777,40.53623,909,726
117.0777,40.53623,910,726
117.0777,40.53623,911,726
117.0777,40.53623,912,726
117.07771,40.53623,913,726
117.07771,40.53623,914,726
117.07771,40.53623,915,726
117.07771,40.53623,916,726
117.07771,40.53623,917,726
117.07771,40.53623,918,726
117.07771,40.53623,919,726
117.07771,40.53623,920,726
117.07771,40.53623,921,726
117.07772,40.53623,922,726
117.07772,40.53623,923,726
117.07772,40.53623,924,726
117.07772,40.53623,925,726
117.07772,40.53623,926,726
117.07772,40.53624,927,726
117.07772,40.53624,928,726
117.07595,40.5346,929,726
117.07777,40.53622,930,726
117.07776,40.53624,931,726
117.07776,40.53624,932,726
117.07775,40.53625,933,726
117.07775,40.53625,934,726
117.07776,40.53625,935,726
117.0778,40.53625,936,726
117.0778,40.53625,937,726
117.0778,40.53625,938,726
117.0778,40.53625,939,726
117.07774,40.53613,940,726
117.07778,40.53614,941,726
117.07789,40.53581,942,726
117.09391,40.54158,943,726
117.1089,40.54142,944,726
117.14165,40.55448,945,726
117.13981,40.55183,946,726
117.11208,40.54352,947,726
117.08378,40.53444,948,726
117.07927,40.53503,949,726
117.11017,40.54121,950,726
117.12427,40.53586,951,726
117.12427,40.5359,952,726
117.12783,40.54014,953,726
117.14906,40.5504,954,726
117.14906,40.55038,955,726
117.14906,40.55037,956,726
117.14906,40.55037,957,726
117.14907,40.55036,958,726
117.14907,40.55036,959,726
117.14908,40.55035,960,726
117.14908,40.55034,961,726
117.14908,40.55033,962,726
117.14908,40.55032,963,726
117.14908,40.55032,964,726
117.14908,40.55031,965,726
117.14908,40.55031,966,726
117.14908,40.55031,967,726
117.14908,40.5503,968,726
117.14908,40.5503,969,726
117.14908,40.5503,970,726
117.14908,40.5503,971,726
117.14908,40.5503,972,726
117.14908,40.5503,973,726
117.14907,40.55031,974,726
117.14907,40.55031,975,726
117.14907,40.55031,976,726
117.14269,40.55625,977,726
117.1241,40.53568,978,726
117.12722,40.53378,979,726
117.13782,40.51677,980,726
117.21087,40.52663,981,726
117.24055,40.53755,982,726
117.25537,40.5428,983,726
117.27401,40.54272,984,726
117.27147,40.5401,985,726
117.2748,40.54257,986,726
117.25978,40.54126,987,726
117.21683,40.532,988,726
117.19123,40.50916,989,726
117.14338,40.51069,990,726
117.12697,40.53974,991,726
117.14272,40.55622,992,726
117.14874,40.55046,993,726
117.14873,40.55049,994,726
117.14871,40.55044,995,726
117.14871,40.55043,996,726
117.14872,40.55045,997,726
117.14882,40.55026,998,726
117.1488,40.55027,999,726
117.14878,40.55026,1000,726
117.14876,40.55027,1001,726
117.14876,40.55028,1002,726
117.14876,40.55029,1003,726
117.14877,40.55031,1004,726
117.14877,40.55032,1005,726
117.14878,40.55033,1006,726
117.14878,40.55033,1007,726
117.14878,40.55033,1008,726
117.14878,40.55034,1009,726
117.14878,40.55034,1010,726
117.14878,40.55034,1011,726
117.14878,40.55034,1012,726
117.14878,40.55034,1013,726
117.14878,40.55035,1014,726
117.14879,40.55035,1015,726
117.14879,40.55035,1016,726
117.14879,40.55035,1017,726
117.14879,40.55035,1018,726
117.14878,40.55035,1019,726
117.14878,40.55035,1020,726
117.14878,40.55034,1021,726
117.14878,40.55034,1022,726
117.14878,40.55034,1023,726
117.14878,40.55035,1024,726
117.14877,40.55035,1025,726
117.14877,40.55035,1026,726
117.14877,40.55035,1027,726
117.14877,40.55035,1028,726
117.14877,40.55035,1029,726
117.14877,40.55035,1030,726
117.14877,40.55035,1031,726
117.14877,40.55035,1032,726
117.14877,40.55035,1033,726
117.14877,40.55035,1034,726
117.14878,40.55035,1035,726
117.14878,40.55036,1036,726
117.14878,40.55036,1037,726
117.14878,40.55036,1038,726
117.14878,40.55036,1039,726
117.14878,40.55037,1040,726
117.14878,40.55037,1041,726
117.14878,40.55037,1042,726
117.14878,40.55037,1043,726
117.14878,40.55037,1044,726
117.14878,40.55038,1045,726
117.14877,40.55038,1046,726
117.14877,40.55038,1047,726
117.14877,40.55038,1048,726
117.14877,40.55038,1049,726
117.14877,40.55038,1050,726
117.14877,40.55038,1051,726
117.14851,40.5504,1052,726
117.14862,40.55041,1053,726
117.14867,40.55042,1054,726
117.14872,40.5504,1055,726
117.14874,40.5504,1056,726
117.14874,40.5504,1057,726
117.14874,40.5504,1058,726
117.14875,40.5504,1059,726
117.14876,40.5504,1060,726
117.14876,40.5504,1061,726
117.14876,40.5504,1062,726
117.14876,40.5504,1063,726
117.14876,40.5504,1064,726
117.14876,40.55039,1065,726
117.14876,40.55039,1066,726
117.14876,40.55038,1067,726
117.14875,40.55037,1068,726
117.14875,40.55037,1069,726
117.14875,40.55037,1070,726
117.14875,40.55037,1071,726
117.14875,40.55037,1072,726
117.14874,40.55037,1073,726
117.14874,40.55038,1074,726
117.14875,40.55038,1075,726
117.14875,40.55038,1076,726
117.14874,40.55038,1077,726
117.14874,40.55038,1078,726
117.14874,40.55038,1079,726
117.14874,40.55038,1080,726
117.14874,40.55038,1081,726
117.14873,40.55038,1082,726
117.14873,40.55038,1083,726
117.14873,40.55037,1084,726
117.14873,40.55037,1085,726
117.14873,40.55037,1086,726
117.14873,40.55037,1087,726
117.14873,40.55037,1088,726
117.14873,40.55037,1089,726
117.14874,40.55037,1090,726
117.14874,40.55037,1091,726
117.14874,40.55037,1092,726
117.14874,40.55037,1093,726
117.14874,40.55037,1094,726
117.14874,40.55037,1095,726
117.14874,40.55037,1096,726
117.14874,40.55037,1097,726
117.14875,40.55037,1098,726
117.14875,40.55037,1099,726
117.14875,40.55037,1100,726
117.14875,40.55036,1101,726
117.14875,40.55036,1102,726
117.14875,40.55035,1103,726
117.14875,40.55035,1104,726
117.14875,40.55035,1105,726
117.14875,40.55036,1106,726
117.14875,40.55036,1107,726
117.14874,40.55037,1108,726
117.14874,40.55037,1109,726
117.14874,40.55037,1110,726
117.14874,40.55037,1111,726
117.14874,40.55037,1112,726
117.14873,40.55037,1113,726
117.14874,40.55038,1114,726
117.14874,40.55038,1115,726
117.14874,40.55039,1116,726
117.14874,40.55039,1117,726
117.14874,40.55039,1118,726
117.14874,40.55038,1119,726
117.14874,40.55039,1120,726
117.14875,40.55038,1121,726
117.14875,40.55038,1122,726
117.14875,40.55038,1123,726
117.14875,40.55038,1124,726
117.14875,40.55038,1125,726
117.14875,40.55038,1126,726
117.14875,40.55038,1127,726
117.14875,40.55038,1128,726
117.14875,40.55038,1129,726
117.14875,40.55038,1130,726
117.14875,40.55037,1131,726
117.14876,40.55037,1132,726
117.14876,40.55037,1133,726
117.14876,40.55037,1134,726
117.14876,40.55037,1135,726
117.14876,40.55037,1136,726
117.14876,40.55037,1137,726
117.14877,40.55037,1138,726
117.14877,40.55038,1139,726
117.14877,40.55038,1140,726
117.14878,40.55038,1141,726
117.14878,40.55037,1142,726
117.14878,40.55038,1143,726
117.14878,40.55038,1144,726
117.14878,40.55038,1145,726
117.14878,40.55038,1146,726
117.14878,40.55038,1147,726
117.14878,40.55038,1148,726
117.14878,40.55039,1149,726
117.14878,40.55039,1150,726
117.14878,40.55039,1151,726
117.14878,40.55039,1152,726
117.14878,40.55039,1153,726
117.14878,40.55039,1154,726
117.14878,40.55033,1155,726
117.14893,40.55034,1156,726
117.14893,40.55035,1157,726
117.1489,40.55036,1158,726
117.14886,40.55036,1159,726
117.14885,40.55037,1160,726
117.14884,40.55037,1161,726
117.14882,40.55036,1162,726
117.14882,40.55037,1163,726
117.14882,40.55037,1164,726
117.14882,40.55037,1165,726
117.14881,40.55038,1166,726
117.14881,40.55038,1167,726
117.14881,40.55037,1168,726
117.14882,40.55037,1169,726
117.14881,40.55037,1170,726
117.14881,40.55037,1171,726
117.14881,40.55037,1172,726
117.1488,40.55037,1173,726
117.1488,40.55036,1174,726
117.1488,40.55036,1175,726
117.1488,40.55037,1176,726
117.1488,40.55037,1177,726
117.1488,40.55037,1178,726
117.1488,40.55037,1179,726
117.1488,40.55037,1180,726
117.14879,40.55038,1181,726
117.14879,40.55038,1182,726
117.14879,40.55038,1183,726
117.14879,40.55038,1184,726
117.14879,40.55038,1185,726
117.14879,40.55038,1186,726
117.14879,40.55038,1187,726
117.14879,40.55038,1188,726
117.14879,40.55038,1189,726
117.14879,40.55038,1190,726
117.14879,40.55038,1191,726
117.14879,40.55037,1192,726
117.14879,40.55037,1193,726
117.14879,40.55037,1194,726
117.14879,40.55037,1195,726
117.1488,40.55037,1196,726
117.14879,40.55036,1197,726
117.14879,40.55037,1198,726
117.14879,40.55036,1199,726
117.1488,40.55036,1200,726
117.1488,40.55036,1201,726
117.14875,40.55038,1202,726
117.14881,40.55038,1203,726
117.14879,40.55037,1204,726
117.14878,40.55035,1205,726
117.14876,40.55034,1206,726
117.14876,40.55033,1207,726
117.14876,40.55032,1208,726
117.14875,40.55032,1209,726
117.14875,40.55033,1210,726
117.14875,40.55032,1211,726
117.14874,40.55031,1212,726
117.14874,40.55031,1213,726
117.14873,40.55029,1214,726
117.14873,40.55029,1215,726
117.14872,40.5503,1216,726
117.14872,40.5503,1217,726
117.14872,40.5503,1218,726
117.14869,40.55062,1219,726
117.14867,40.55056,1220,726
117.1487,40.5505,1221,726
117.14873,40.55047,1222,726
117.14617,40.55141,1223,726
117.11628,40.54285,1224,726
117.08414,40.53454,1225,726
117.07782,40.53628,1226,726
117.07759,40.53524,1227,726
117.10274,40.53827,1228,726
117.12396,40.53523,1229,726
117.14221,40.55428,1230,726
117.14916,40.5504,1231,726
117.12437,40.53587,1232,726
117.12581,40.53817,1233,726
117.14732,40.5698,1234,726
117.14837,40.57219,1235,726
117.17529,40.62562,1236,726
117.17485,40.65235,1237,726
117.15703,40.68645,1238,726
117.18813,40.72078,1239,726
117.1922,40.737,1240,726
117.19915,40.76678,1241,726
117.20228,40.78503,1242,726
117.20228,40.78503,1243,726
117.20228,40.78503,1244,726
117.20228,40.78503,1245,726
117.20823,40.80386,1246,726
117.20757,40.81662,1247,726
117.20757,40.81661,1248,726
117.20756,40.81661,1249,726
117.20754,40.81662,1250,726
117.20754,40.81665,1251,726
117.20753,40.81667,1252,726
117.20753,40.81667,1253,726
117.20753,40.81668,1254,726
117.20753,40.81668,1255,726
117.20753,40.81668,1256,726
117.20753,40.81668,1257,726
117.20753,40.81668,1258,726
117.20753,40.81668,1259,726
117.20753,40.81668,1260,726
117.20752,40.81668,1261,726
117.20752,40.81667,1262,726
117.20751,40.81667,1263,726
117.20751,40.81667,1264,726
117.20751,40.81667,1265,726
117.20751,40.81667,1266,726
117.20751,40.81666,1267,726
117.20751,40.81666,1268,726
117.20751,40.81666,1269,726
117.20751,40.81666,1270,726
117.20751,40.81666,1271,726
117.20751,40.81666,1272,726
117.20751,40.81666,1273,726
117.20751,40.81666,1274,726
117.20751,40.81666,1275,726
117.20751,40.81666,1276,726
117.20751,40.81666,1277,726
117.20751,40.81666,1278,726
117.20751,40.81666,1279,726
117.20751,40.81666,1280,726
117.20751,40.81666,1281,726
117.20751,40.81666,1282,726
117.20751,40.81666,1283,726
117.20751,40.81666,1284,726
117.20751,40.81666,1285,726
117.20751,40.81666,1286,726
117.20751,40.81666,1287,726
117.20751,40.81666,1288,726
117.20751,40.81666,1289,726
117.20751,40.81666,1290,726
117.20752,40.81666,1291,726
117.20752,40.81667,1292,726
117.20752,40.81666,1293,726
117.20751,40.81666,1294,726
117.20751,40.81666,1295,726
117.20751,40.81667,1296,726
117.20751,40.81667,1297,726
117.20751,40.81667,1298,726
