x,y,k,tid
116.46383,39.90755,0,7491
116.43277,39.96683,1,7491
116.42505,39.96565,2,7491
116.42513,39.96505,3,7491
116.42513,39.96505,4,7491
116.3279,39.9812,5,7491
116.33138,39.97502,6,7491
116.33622,39.98407,7,7491
116.32907,39.98457,8,7491
116.44255,39.94113,9,7491
116.4516,39.96008,10,7491
116.4667,39.98992,11,7491
116.4722,40.00748,12,7491
116.48393,39.97568,13,7491
116.50018,39.95817,14,7491
116.48503,39.9752,15,7491
116.48498,39.97522,16,7491
116.4849,39.97525,17,7491
116.4628,39.97742,18,7491
116.46538,40.00042,19,7491
116.46467,40.00043,20,7491
116.4415,39.99302,21,7491
116.43093,39.98808,22,7491
116.43105,39.98917,23,7491
116.4041,39.98732,24,7491
116.40105,39.9706,25,7491
116.40105,39.9706,26,7491
116.40138,39.94813,27,7491
116.40127,39.98157,28,7491
116.40012,40.0037,29,7491
116.40155,40.00348,30,7491
116.39562,39.96898,31,7491
116.39565,39.96797,32,7491
116.38207,39.96587,33,7491
116.4018,39.97392,34,7491
116.44128,39.96197,35,7491
116.43323,39.96718,36,7491
116.43813,39.97617,37,7491
116.43433,39.9686,38,7491
116.39577,40.00263,39,7491
116.4009,40.00423,40,7491
116.4197,40.03672,41,7491
116.41023,39.98008,42,7491
116.41195,39.96845,43,7491
116.41178,39.96937,44,7491
116.41527,39.98675,45,7491
116.40748,39.98197,46,7491
116.40748,39.98197,47,7491
116.40677,39.98192,48,7491
116.28402,39.95692,49,7491
116.28143,39.95603,50,7491
116.31898,39.8885,51,7491
116.33202,39.87597,52,7491
116.32127,39.98232,53,7491
116.3189,39.98053,54,7491
116.46182,39.9492,55,7491
116.4476,39.94678,56,7491
116.40017,39.9598,57,7491
116.40185,39.9494,58,7491
116.40278,39.9262,59,7491
116.4177,39.92288,60,7491
116.52783,39.91557,61,7491
116.45095,39.93252,62,7491
116.44435,39.91467,63,7491
116.43717,39.9289,64,7491
116.43655,39.92527,65,7491
116.50382,39.92923,66,7491
116.51123,39.93352,67,7491
116.48048,39.98643,68,7491
116.46348,40.00488,69,7491
116.58757,40.04778,70,7491
116.5323,40.0122,71,7491
116.5114,40.00015,72,7491
116.48383,39.98762,73,7491
116.42693,39.94105,74,7491
116.4198,39.9411,75,7491
116.48993,39.92767,76,7491
116.4901,39.92975,77,7491
116.45593,39.94372,78,7491
116.45592,39.944,79,7491
116.44622,39.94313,80,7491
116.44622,39.94313,81,7491
116.45032,39.92572,82,7491
116.44477,39.92575,83,7491
116.43738,39.94592,84,7491
116.43782,39.94563,85,7491
116.43793,39.94557,86,7491
116.45528,39.9209,87,7491
116.45535,39.91885,88,7491
116.49837,39.92965,89,7491
116.49588,39.92342,90,7491
116.47237,39.9275,91,7491
116.47237,39.9275,92,7491
116.46935,39.93252,93,7491
116.38978,39.93763,94,7491
116.38977,39.93768,95,7491
116.38977,39.93768,96,7491
116.38977,39.93773,97,7491
116.38977,39.93773,98,7491
116.39622,39.95585,99,7491
116.39563,39.9697,100,7491
116.39315,39.97143,101,7491
116.40212,39.96752,102,7491
116.41118,39.96755,103,7491
116.41162,39.96462,104,7491
116.37992,39.96155,105,7491
116.38505,39.96683,106,7491
116.38543,39.9669,107,7491
116.51997,39.91413,108,7491
116.47027,40.00385,109,7491
116.46265,40.01017,110,7491
116.46223,40.00048,111,7491
116.45123,39.9939,112,7491
116.4685,39.98123,113,7491
116.46867,39.98108,114,7491
116.46875,39.98102,115,7491
116.5867,40.07832,116,7491
116.5968,40.03808,117,7491
116.50268,40.01087,118,7491
116.50482,40.00902,119,7491
116.48565,40.00652,120,7491
116.46672,40.01038,121,7491
116.4566,39.98867,122,7491
116.45553,39.98812,123,7491
116.44435,39.95995,124,7491
116.4446,39.96025,125,7491
116.4232,39.96832,126,7491
116.41485,39.98208,127,7491
116.4065,39.99905,128,7491
116.40648,39.9997,129,7491
116.58667,40.07843,130,7491
116.47097,39.978,131,7491
116.42067,40.00062,132,7491
116.40603,39.99363,133,7491
116.40993,39.99377,134,7491
116.27745,39.9088,135,7491
116.31723,39.93105,136,7491
116.36125,39.88525,137,7491
116.3616,39.88612,138,7491
116.3616,39.88612,139,7491
116.3616,39.88623,140,7491
116.3616,39.88642,141,7491
116.3616,39.88642,142,7491
116.34125,39.90583,143,7491
116.44503,39.9656,144,7491
116.4308,39.9679,145,7491
116.43,39.93745,146,7491
116.43752,39.92802,147,7491
116.43752,39.92793,148,7491
116.36792,39.91335,149,7491
116.36662,39.93443,150,7491
116.36733,39.97907,151,7491
116.39548,39.98662,152,7491
116.3239,40.053,153,7491
116.48843,39.99373,154,7491
116.49248,40.02388,155,7491
116.58722,40.04773,156,7491
116.58685,40.0477,157,7491
116.54722,40.02595,158,7491
116.30945,39.94425,159,7491
116.32758,39.97215,160,7491
116.3271,39.93383,161,7491
116.3271,39.93482,162,7491
116.30258,39.94253,163,7491
116.31735,39.94528,164,7491
116.3397,39.93715,165,7491
116.34375,39.93833,166,7491
116.35023,39.948,167,7491
116.34932,39.95107,168,7491
116.32963,39.9665,169,7491
116.3278,39.97293,170,7491
116.31182,39.96552,171,7491
116.30573,39.96272,172,7491
116.31393,39.97013,173,7491
116.30823,39.96295,174,7491
116.30863,39.9631,175,7491
116.30863,39.9631,176,7491
116.30875,39.96315,177,7491
116.30875,39.96315,178,7491
116.31778,39.95112,179,7491
116.31772,39.95163,180,7491
116.41253,39.97872,181,7491
116.40135,39.982,182,7491
116.40132,39.98365,183,7491
116.40817,39.98912,184,7491
116.40257,39.98178,185,7491
116.48067,39.98873,186,7491
116.46725,40.00025,187,7491
116.44753,39.95847,188,7491
116.38295,39.98142,189,7491
116.38295,39.98142,190,7491
116.30037,39.98363,191,7491
116.30037,39.98363,192,7491
116.30048,39.98343,193,7491
116.30077,39.98353,194,7491
116.30095,39.98355,195,7491
116.35495,39.97543,196,7491
116.35275,39.97617,197,7491
116.54788,39.9638,198,7491
116.50875,39.97455,199,7491
116.48363,39.96727,200,7491
116.49745,39.96313,201,7491
116.49337,39.97282,202,7491
116.49337,39.97267,203,7491
116.49338,39.97245,204,7491
116.44442,39.9336,205,7491
116.44442,39.9336,206,7491
116.31395,39.89503,207,7491
116.30293,39.90743,208,7491
116.30455,39.89957,209,7491
116.34272,39.90582,210,7491
116.34278,39.9055,211,7491
116.34278,39.90545,212,7491
116.34278,39.90542,213,7491
116.31833,39.89835,214,7491
116.3288,39.92192,215,7491
116.3288,39.92192,216,7491
116.20253,39.91643,217,7491
116.25503,39.9165,218,7491
116.42887,39.91643,219,7491
116.5866,40.07905,220,7491
116.57858,40.05983,221,7491
116.46212,40.04118,222,7491
116.58143,40.05925,223,7491
116.59055,40.04667,224,7491
116.58408,40.0477,225,7491
116.58783,40.07705,226,7491
116.58507,40.0482,227,7491
116.58882,40.04622,228,7491
116.46282,39.85872,229,7491
116.46282,39.85872,230,7491
116.50107,39.80042,231,7491
116.4937,39.80015,232,7491
116.41232,39.89758,233,7491
116.44173,39.89808,234,7491
116.42478,39.89342,235,7491
116.40503,39.86718,236,7491
116.58665,40.07842,237,7491
116.55542,40.10165,238,7491
116.55547,40.10198,239,7491
116.54652,40.10525,240,7491
116.54652,40.10525,241,7491
116.55503,40.06117,242,7491
116.58215,40.07937,243,7491
116.58783,40.07707,244,7491
116.58265,40.0493,245,7491
116.57092,40.06057,246,7491
116.40812,39.99748,247,7491
116.40837,39.99748,248,7491
116.4086,39.99745,249,7491
116.42637,39.99415,250,7491
116.41565,39.99128,251,7491
116.369,40.0065,252,7491
116.36955,40.00162,253,7491
116.41075,39.98607,254,7491
116.3671,39.9103,255,7491
116.36625,39.94265,256,7491
116.33438,39.96607,257,7491
116.46265,39.99857,258,7491
116.46638,39.98815,259,7491
116.46815,39.97695,260,7491
116.41405,39.98448,261,7491
116.40928,39.96798,262,7491
116.36965,39.96805,263,7491
116.251,40.00085,264,7491
116.29553,39.97035,265,7491
116.27855,39.95482,266,7491
116.30053,39.95808,267,7491
116.30582,40.03115,268,7491
116.3371,39.98475,269,7491
116.3371,39.98475,270,7491
116.40643,39.99423,271,7491
116.59222,39.9142,272,7491
116.59303,39.91332,273,7491
116.31735,39.8962,274,7491
116.40673,39.90657,275,7491
116.45758,39.98447,276,7491
116.36467,39.87452,277,7491
116.36112,39.8768,278,7491
116.36112,39.8768,279,7491
116.36102,39.8768,280,7491
116.36102,39.8768,281,7491
116.36057,39.87682,282,7491
116.36057,39.87682,283,7491
116.3479,39.87643,284,7491
116.55968,40.03195,285,7491
116.55567,40.03,286,7491
116.42698,39.94012,287,7491
116.42695,39.94003,288,7491
116.42692,39.93992,289,7491
116.42045,39.9173,290,7491
116.4203,39.92605,291,7491
116.41462,39.9487,292,7491
116.4227,39.92682,293,7491
116.4384,39.93532,294,7491
116.43823,39.9353,295,7491
116.38602,39.89918,296,7491
116.35368,39.93663,297,7491
116.38698,39.9319,298,7491
116.37355,39.96393,299,7491
116.41675,39.95587,300,7491
116.41717,39.95587,301,7491
116.41758,39.95592,302,7491
116.4153,39.96815,303,7491
116.41388,39.96805,304,7491
116.31858,39.96612,305,7491
116.32772,39.96965,306,7491
116.36503,39.95465,307,7491
116.36495,39.95593,308,7491
116.35953,39.97187,309,7491
116.37343,39.9565,310,7491
116.3734,39.95657,311,7491
116.40733,39.96347,312,7491
116.3827,39.96112,313,7491
116.37987,39.9616,314,7491
116.3798,39.96158,315,7491
116.37955,39.96157,316,7491
116.36673,39.91022,317,7491
116.35793,39.91272,318,7491
116.35793,39.91272,319,7491
116.33675,39.91267,320,7491
116.33975,39.936,321,7491
116.25135,39.94733,322,7491
116.4003,39.96718,323,7491
116.60135,39.88885,324,7491
116.40542,39.90728,325,7491
116.4638,39.97675,326,7491
116.4638,39.97675,327,7491
116.4638,39.97675,328,7491
116.46867,39.98463,329,7491
116.42817,39.9403,330,7491
116.43347,39.95755,331,7491
116.43342,39.95765,332,7491
116.43342,39.95768,333,7491
116.4296,39.96492,334,7491
116.43057,39.96797,335,7491
116.43117,39.9796,336,7491
116.4306,39.97867,337,7491
116.4025,39.99743,338,7491
116.37567,39.96142,339,7491
116.38185,39.96565,340,7491
116.4581,39.97902,341,7491
116.47087,39.97782,342,7491
116.47087,39.97782,343,7491
116.46563,39.94143,344,7491
116.46807,39.94378,345,7491
116.46125,39.96655,346,7491
116.42197,39.95813,347,7491
116.41142,39.97667,348,7491
116.40243,39.98183,349,7491
116.40132,39.98462,350,7491
116.44088,39.96752,351,7491
116.42978,39.96838,352,7491
116.4518,39.98767,353,7491
116.45277,39.9877,354,7491
116.43285,39.96682,355,7491
116.40137,39.99212,356,7491
116.37932,39.99585,357,7491
116.43058,39.98668,358,7491
116.41093,39.99247,359,7491
116.41048,40.00562,360,7491
116.41047,40.00483,361,7491
116.41408,39.98763,362,7491
116.4119,39.98762,363,7491
116.41835,39.99297,364,7491
116.44683,39.94467,365,7491
116.45582,39.95497,366,7491
116.45677,39.985,367,7491
116.45328,39.98782,368,7491
116.58745,40.04778,369,7491
116.47623,39.9758,370,7491
116.58672,40.07765,371,7491
116.58638,40.04372,372,7491
116.58957,40.04708,373,7491
116.58948,40.04747,374,7491
116.58943,40.04775,375,7491
116.5857,40.06725,376,7491
116.5887,40.04793,377,7491
116.35035,39.9112,378,7491
116.35042,39.90855,379,7491
116.31182,39.87427,380,7491
116.31178,39.87528,381,7491
116.37565,39.99205,382,7491
116.37565,39.99205,383,7491
116.37587,39.98903,384,7491
116.35942,39.97207,385,7491
116.3594,39.97115,386,7491
116.3594,39.97115,387,7491
116.35942,39.9709,388,7491
116.26788,39.93558,389,7491
116.26858,39.93062,390,7491
116.25873,39.91055,391,7491
116.25872,39.91847,392,7491
116.25873,39.91863,393,7491
116.33758,39.93005,394,7491
116.37368,39.90265,395,7491
116.35505,39.97518,396,7491
116.42918,39.96467,397,7491
116.42052,39.91213,398,7491
116.45388,40.00292,399,7491
116.45865,39.99995,400,7491
116.45827,39.9999,401,7491
116.45787,39.99983,402,7491
116.4417,39.99318,403,7491
116.4417,39.99318,404,7491
116.4427,39.99425,405,7491
116.46207,39.99248,406,7491
116.4426,39.99423,407,7491
116.46913,40.00063,408,7491
116.47255,39.99997,409,7491
116.41248,40.00797,410,7491
116.4258,40.00753,411,7491
116.28402,39.95647,412,7491
116.28415,39.95613,413,7491
116.28448,39.92602,414,7491
116.29935,39.931,415,7491
116.2997,39.931,416,7491
116.30107,39.93103,417,7491
116.24795,39.94777,418,7491
116.24672,39.94775,419,7491
116.24672,39.94775,420,7491
116.22293,39.95852,421,7491
116.47692,39.98612,422,7491
116.45367,39.88327,423,7491
116.43092,39.93965,424,7491
116.41207,39.97405,425,7491
116.3753,39.96148,426,7491
116.40473,39.9679,427,7491
116.3294,39.97255,428,7491
116.3406,39.97288,429,7491
116.38668,39.93223,430,7491
116.3741,39.94863,431,7491
116.39918,39.95015,432,7491
116.402,39.95252,433,7491
116.41293,39.95258,434,7491
117.95738,31.28248,435,7491
116.33992,40.0029,436,7491
116.33917,40.00622,437,7491
116.33978,40.00623,438,7491
116.3401,40.00623,439,7491
116.3703,39.89288,440,7491
116.35102,39.9016,441,7491
116.40603,39.99053,442,7491
116.4047,39.98748,443,7491
116.40452,39.98748,444,7491
116.3765,39.99125,445,7491
116.37387,39.9892,446,7491
116.37335,39.98925,447,7491
116.3731,39.98935,448,7491
116.35945,40.00472,449,7491
116.37443,39.97758,450,7491
116.44035,39.95585,451,7491
116.43003,39.93342,452,7491
116.37265,39.93162,453,7491
116.41703,39.97818,454,7491
116.41717,39.97818,455,7491
116.4192,39.94342,456,7491
116.43838,39.93977,457,7491
116.40377,39.96048,458,7491
116.32452,39.88818,459,7491
116.369,39.96008,460,7491
116.38138,39.96145,461,7491
116.42528,39.9341,462,7491
116.43387,39.94988,463,7491
116.44692,39.87815,464,7491
116.45135,39.89583,465,7491
116.42602,39.92645,466,7491
116.50142,39.93022,467,7491
116.66155,40.11533,468,7491
116.65503,40.06723,469,7491
116.65503,40.06723,470,7491
116.6048,40.11672,471,7491
116.42433,39.928,472,7491
116.44058,39.96188,473,7491
116.4367,39.96445,474,7491
116.3665,39.93812,475,7491
116.36662,39.93798,476,7491
116.23603,40.0006,477,7491
116.23975,40.0008,478,7491
116.28613,39.99527,479,7491
116.28788,39.99247,480,7491
116.29623,39.98932,481,7491
116.29908,39.98647,482,7491
116.31353,39.9841,483,7491
116.3153,39.98402,484,7491
116.36608,39.9102,485,7491
116.36108,39.9274,486,7491
116.35102,39.97355,487,7491
116.3662,39.94692,488,7491
116.38727,39.9515,489,7491
116.3899,39.93438,490,7491
116.42587,39.9301,491,7491
116.42243,39.92293,492,7491
116.43757,39.83055,493,7491
116.43757,39.83055,494,7491
116.4409,39.83922,495,7491
116.44003,39.90148,496,7491
116.49333,39.95557,497,7491
116.48057,39.98885,498,7491
116.45325,40.00837,499,7491
116.45367,40.00793,500,7491
117.08671,40.16291,501,7491
117.08671,40.16291,502,7491
116.29992,39.97318,503,7491
116.33177,39.97412,504,7491
