x,y,k,tid
116.37779,39.88789,0,7707
116.4063,39.8885,1,7707
116.41454,39.88316,2,7707
116.42859,39.87895,3,7707
116.42855,39.87895,4,7707
116.42914,39.8799,5,7707
116.42919,39.87985,6,7707
116.42919,39.87985,7,7707
116.43354,39.87998,8,7707
116.43798,39.89656,9,7707
116.46828,39.90375,10,7707
116.46822,39.90378,11,7707
116.46824,39.90381,12,7707
116.47016,39.90587,13,7707
116.47031,39.90509,14,7707
116.47068,39.90736,15,7707
116.4787,39.92581,16,7707
116.47306,39.92686,17,7707
116.45559,39.94018,18,7707
116.44002,39.95526,19,7707
116.43343,39.95239,20,7707
116.44567,39.95584,21,7707
116.4412,39.96149,22,7707
116.43697,39.96697,23,7707
116.45835,39.97294,24,7707
116.48393,39.97028,25,7707
116.49055,39.97061,26,7707
116.48636,39.97548,27,7707
116.48799,39.97521,28,7707
116.48392,39.96727,29,7707
116.3418,39.92675,30,7707
116.48338,39.91756,31,7707
116.47772,39.91338,32,7707
116.47546,39.91455,33,7707
116.45792,39.91728,34,7707
116.44098,39.91215,35,7707
116.42935,39.90713,36,7707
116.41677,39.91264,37,7707
116.41177,39.9128,38,7707
116.41725,39.92266,39,7707
116.42751,39.92246,40,7707
116.42885,39.92254,41,7707
116.42837,39.93025,42,7707
116.41638,39.93222,43,7707
116.3947,39.93203,44,7707
116.37167,39.93144,45,7707
116.35438,39.93082,46,7707
116.34041,39.9315,47,7707
116.29887,39.93119,48,7707
116.2968,39.93312,49,7707
116.30431,39.94464,50,7707
116.30799,39.96299,51,7707
116.3235,39.96621,52,7707
116.32391,39.96599,53,7707
116.33145,39.94851,54,7707
116.33788,39.92706,55,7707
116.3385,39.91867,56,7707
116.33782,39.91281,57,7707
116.34114,39.91373,58,7707
116.34931,39.9128,59,7707
116.35062,39.91771,60,7707
116.35062,39.91771,61,7707
116.35062,39.91771,62,7707
116.35007,39.92763,63,7707
116.36114,39.93092,64,7707
116.37287,39.93149,65,7707
116.37343,39.93583,66,7707
116.37364,39.9474,67,7707
116.37478,39.97124,68,7707
116.39027,39.98646,69,7707
116.43793,39.98612,70,7707
116.47569,40.01286,71,7707
116.47674,40.01243,72,7707
116.49248,40.00543,73,7707
116.49233,40.01173,74,7707
116.49232,40.01173,75,7707
116.49232,40.01172,76,7707
116.49232,40.0117,77,7707
116.49231,40.01171,78,7707
116.49231,40.01171,79,7707
116.4923,40.01173,80,7707
116.49231,40.01174,81,7707
116.4923,40.01175,82,7707
116.4877,40.00563,83,7707
116.47212,40.00866,84,7707
116.47251,39.98758,85,7707
116.46115,39.96982,86,7707
116.47275,39.95363,87,7707
116.46573,39.95127,88,7707
116.46639,39.94393,89,7707
116.46469,39.94354,90,7707
116.45058,39.95831,91,7707
116.45058,39.95831,92,7707
116.47157,39.97842,93,7707
116.48664,39.99563,94,7707
116.48481,39.99058,95,7707
116.43173,39.96716,96,7707
116.41935,39.98784,97,7707
116.4151,39.98775,98,7707
116.38901,39.98681,99,7707
116.33026,39.98521,100,7707
116.32838,39.99046,101,7707
116.34722,39.97504,102,7707
116.36753,39.96637,103,7707
116.37344,39.96284,104,7707
116.37084,39.94762,105,7707
116.33781,39.93725,106,7707
116.29012,39.94597,107,7707
116.26789,39.91172,108,7707
116.25889,39.90606,109,7707
116.2359,39.90616,110,7707
116.21519,39.90624,111,7707
116.20439,39.89986,112,7707
116.22796,39.90604,113,7707
116.24688,39.90547,114,7707
116.25117,39.88771,115,7707
116.25259,39.88822,116,7707
116.2683,39.88744,117,7707
116.28205,39.88827,118,7707
116.28902,39.89875,119,7707
116.28901,39.90205,120,7707
116.26896,39.90629,121,7707
116.25874,39.90865,122,7707
116.27663,39.90633,123,7707
116.28825,39.90607,124,7707
116.28871,39.89905,125,7707
116.25764,39.89592,126,7707
116.2184,39.89402,127,7707
116.21715,39.89285,128,7707
116.2239,39.89268,129,7707
116.22301,39.90453,130,7707
116.19359,39.90621,131,7707
116.20508,39.90613,132,7707
116.23294,39.90614,133,7707
116.26721,39.90629,134,7707
116.28233,39.92284,135,7707
116.30444,39.92548,136,7707
116.30452,39.94971,137,7707
116.31108,39.95386,138,7707
116.32418,39.96589,139,7707
116.34375,39.96611,140,7707
116.36368,39.97787,141,7707
116.36789,39.99242,142,7707
116.36602,39.99427,143,7707
116.36307,39.98974,144,7707
116.39157,39.94758,145,7707
116.428,39.92714,146,7707
116.44356,39.92135,147,7707
116.43511,39.92269,148,7707
116.43782,39.92202,149,7707
116.45464,39.91806,150,7707
116.47217,39.91775,151,7707
116.47433,39.91782,152,7707
116.46099,39.92534,153,7707
116.45348,39.9272,154,7707
116.45348,39.9272,155,7707
116.43509,39.9324,156,7707
116.4287,39.93267,157,7707
116.38143,39.94753,158,7707
116.34857,39.96457,159,7707
116.34613,39.98566,160,7707
116.2889,39.99496,161,7707
116.28264,39.99429,162,7707
116.31188,39.96482,163,7707
116.30405,39.91219,164,7707
116.31889,39.90602,165,7707
116.33312,39.91695,166,7707
116.33467,39.91703,167,7707
116.34769,39.98098,168,7707
116.3466,40.00189,169,7707
116.34945,40.02148,170,7707
116.34422,40.03314,171,7707
116.33554,40.03688,172,7707
116.34583,40.01416,173,7707
116.33438,39.99941,174,7707
116.33383,39.99549,175,7707
116.33386,39.99547,176,7707
116.33892,39.99175,177,7707
116.35634,39.97512,178,7707
116.36361,40.00434,179,7707
116.36361,40.00434,180,7707
116.35957,40.01619,181,7707
116.35957,40.01619,182,7707
116.36323,39.98062,183,7707
116.37485,39.97534,184,7707
116.37751,39.97045,185,7707
116.38398,39.96723,186,7707
116.3819,39.96567,187,7707
116.38206,39.96596,188,7707
116.39967,39.95749,189,7707
116.41874,39.95781,190,7707
116.43381,39.95171,191,7707
116.43369,39.95229,192,7707
116.43345,39.9522,193,7707
116.43348,39.9522,194,7707
116.4335,39.9522,195,7707
116.43352,39.95235,196,7707
116.43992,39.95544,197,7707
116.45232,39.95504,198,7707
116.45275,39.95487,199,7707
116.45271,39.95489,200,7707
116.45287,39.9548,201,7707
116.45228,39.95512,202,7707
116.46193,39.96013,203,7707
116.46234,39.96005,204,7707
116.46605,39.96493,205,7707
116.4832,39.98705,206,7707
116.50078,40.0055,207,7707
116.49235,40.01176,208,7707
116.49234,40.01176,209,7707
116.49232,40.01177,210,7707
116.49232,40.01174,211,7707
116.49233,40.01174,212,7707
116.49233,40.01174,213,7707
116.49871,40.00703,214,7707
116.4822,39.98786,215,7707
116.43775,39.94824,216,7707
116.3247,39.90962,217,7707
116.33216,39.91265,218,7707
116.35142,39.91459,219,7707
116.44905,39.95696,220,7707
116.50433,40.00688,221,7707
116.57677,40.04465,222,7707
116.58212,40.07365,223,7707
116.58668,40.07867,224,7707
116.58078,40.07656,225,7707
116.56114,40.03073,226,7707
116.4956,39.99785,227,7707
116.49531,39.98661,228,7707
116.47227,39.97877,229,7707
116.45814,39.98801,230,7707
116.45562,40.00683,231,7707
116.46155,40.00211,232,7707
116.46155,40.00211,233,7707
116.46146,40.00132,234,7707
116.46162,40.00037,235,7707
116.46621,39.99855,236,7707
116.46455,40.00028,237,7707
116.46451,40.0003,238,7707
116.46237,40.00023,239,7707
116.46295,40.01276,240,7707
116.46101,40.01249,241,7707
116.4591,40.00364,242,7707
116.45741,40.0035,243,7707
116.45927,40.00362,244,7707
116.48307,39.95285,245,7707
116.48322,39.93269,246,7707
116.47864,39.93122,247,7707
116.47851,39.93002,248,7707
116.47187,39.91779,249,7707
116.47151,39.9073,250,7707
116.47138,39.90246,251,7707
116.47201,39.92056,252,7707
116.47153,39.91275,253,7707
116.45618,39.91246,254,7707
116.47158,39.91485,255,7707
116.47198,39.917,256,7707
116.44865,39.9223,257,7707
116.44422,39.92948,258,7707
116.46316,39.95071,259,7707
116.47946,39.95937,260,7707
116.48269,39.97008,261,7707
116.48266,39.97009,262,7707
116.48268,39.97007,263,7707
116.48267,39.97004,264,7707
116.48324,39.97007,265,7707
116.48398,39.97364,266,7707
116.48401,39.9737,267,7707
116.48376,39.97458,268,7707
116.48376,39.97458,269,7707
116.49186,39.99574,270,7707
116.5634,40.03354,271,7707
116.58256,40.07554,272,7707
116.58663,40.07871,273,7707
116.58239,40.063,274,7707
116.55641,40.05862,275,7707
116.56212,40.03808,276,7707
116.54894,40.02649,277,7707
116.512,40.01313,278,7707
116.49559,39.99798,279,7707
116.49114,39.98963,280,7707
116.49119,39.98738,281,7707
116.49119,39.98738,282,7707
116.48687,39.9864,283,7707
116.48687,39.9864,284,7707
116.4827,39.98713,285,7707
116.47216,40.0082,286,7707
116.46944,40.01281,287,7707
116.46942,40.01281,288,7707
116.46941,40.01282,289,7707
116.46942,40.01281,290,7707
116.46941,40.01281,291,7707
116.46392,40.01161,292,7707
116.4638,40.01135,293,7707
116.46997,40.00036,294,7707
116.45412,39.99945,295,7707
116.44221,39.99401,296,7707
116.45601,39.99557,297,7707
116.46749,40.00073,298,7707
116.44125,39.99267,299,7707
116.41815,39.9878,300,7707
116.41791,39.99714,301,7707
116.41791,39.99714,302,7707
116.41806,39.99701,303,7707
116.41347,39.98759,304,7707
116.38126,39.99055,305,7707
116.38148,39.99196,306,7707
116.38796,39.9812,307,7707
116.40864,39.98693,308,7707
116.40258,39.98712,309,7707
116.38187,39.99108,310,7707
116.36446,40.00033,311,7707
116.33986,39.99951,312,7707
116.32795,40.00596,313,7707
116.32145,40.00491,314,7707
116.32889,40.00853,315,7707
116.33279,39.99163,316,7707
116.34457,39.99188,317,7707
116.48269,39.98734,318,7707
116.48269,39.98734,319,7707
116.54306,40.02571,320,7707
116.58296,40.05042,321,7707
116.58038,40.07586,322,7707
116.58243,40.06304,323,7707
116.55744,40.06148,324,7707
116.55744,40.06148,325,7707
116.56393,40.03642,326,7707
116.54664,40.02563,327,7707
116.51997,40.01615,328,7707
116.52209,40.02019,329,7707
116.51769,40.02363,330,7707
116.50577,40.01049,331,7707
116.50578,40.01049,332,7707
116.49875,40.00716,333,7707
116.49876,40.00713,334,7707
116.49879,40.0071,335,7707
116.49384,40.009,336,7707
116.49385,40.00904,337,7707
116.49385,40.00905,338,7707
116.49385,40.00905,339,7707
116.49235,40.01185,340,7707
116.49234,40.01185,341,7707
116.49234,40.01186,342,7707
116.49234,40.01187,343,7707
116.49234,40.01188,344,7707
116.49236,40.01188,345,7707
116.49236,40.01189,346,7707
116.49237,40.01189,347,7707
116.49237,40.01189,348,7707
116.49237,40.01189,349,7707
116.49237,40.0119,350,7707
116.49237,40.0119,351,7707
116.49238,40.0119,352,7707
116.49238,40.0119,353,7707
116.50059,40.00568,354,7707
116.4768,40.00921,355,7707
116.46157,39.99972,356,7707
116.45981,39.98733,357,7707
116.46468,39.98122,358,7707
116.45109,39.9839,359,7707
116.44956,39.98065,360,7707
116.42801,39.96849,361,7707
116.43703,39.96343,362,7707
116.44339,39.95946,363,7707
116.45554,39.94147,364,7707
116.45547,39.92461,365,7707
116.45522,39.90742,366,7707
116.45717,39.90645,367,7707
116.45702,39.90641,368,7707
116.46881,39.90718,369,7707
116.45425,39.91267,370,7707
116.45431,39.9116,371,7707
116.45555,39.90689,372,7707
116.45979,39.89198,373,7707
116.46662,39.89222,374,7707
116.46658,39.89227,375,7707
116.4664,39.89577,376,7707
116.454,39.90354,377,7707
116.45399,39.90364,378,7707
116.45399,39.90364,379,7707
116.45511,39.89394,380,7707
116.48302,39.89183,381,7707
116.49755,39.89404,382,7707
116.49755,39.89404,383,7707
116.50009,39.89508,384,7707
116.49319,39.89952,385,7707
116.42236,39.98789,386,7707
116.48478,39.89942,387,7707
116.47171,39.892,388,7707
116.45565,39.89221,389,7707
116.45289,39.89247,390,7707
116.45541,39.89571,391,7707
116.45595,39.90556,392,7707
116.45524,39.9181,393,7707
116.44019,39.9219,394,7707
116.42847,39.92705,395,7707
116.42819,39.92903,396,7707
116.45577,39.94269,397,7707
116.46863,39.96659,398,7707
116.48373,39.98282,399,7707
116.48372,39.983,400,7707
116.47697,39.9829,401,7707
116.4716,39.97856,402,7707
116.46124,39.95996,403,7707
116.4602,39.95899,404,7707
116.4555,39.93093,405,7707
116.45557,39.9074,406,7707
116.45557,39.9074,407,7707
116.45511,39.91209,408,7707
116.4442,39.92359,409,7707
116.44427,39.93911,410,7707
116.43639,39.95816,411,7707
116.43642,39.96649,412,7707
116.44864,39.9791,413,7707
116.46086,39.98627,414,7707
116.46599,39.97388,415,7707
116.46385,39.96262,416,7707
116.46257,39.97031,417,7707
116.47881,39.98256,418,7707
116.47933,39.98223,419,7707
116.4809,39.98016,420,7707
116.44819,39.98009,421,7707
116.42397,39.99021,422,7707
116.42397,39.99021,423,7707
116.41839,39.99231,424,7707
116.42799,39.98763,425,7707
116.48319,39.95273,426,7707
116.48511,39.90503,427,7707
116.49044,39.9067,428,7707
116.47228,39.90667,429,7707
116.46834,39.92176,430,7707
116.45799,39.93078,431,7707
116.44477,39.92565,432,7707
116.43434,39.92658,433,7707
116.42951,39.90739,434,7707
116.41046,39.89171,435,7707
116.37862,39.88828,436,7707
116.35178,39.8881,437,7707
116.3272,39.88329,438,7707
116.32719,39.8833,439,7707
116.3443,39.88997,440,7707
116.34645,39.90295,441,7707
116.36813,39.90541,442,7707
116.37106,39.92605,443,7707
116.37106,39.92605,444,7707
116.38763,39.93929,445,7707
116.38763,39.93929,446,7707
116.38719,39.95006,447,7707
116.4023,39.95578,448,7707
116.41872,39.96581,449,7707
116.41863,39.96727,450,7707
116.41933,39.97282,451,7707
116.41085,39.96795,452,7707
116.40852,39.96787,453,7707
116.36966,39.96674,454,7707
116.35942,39.98005,455,7707
116.35937,39.97997,456,7707
116.35936,39.97999,457,7707
116.34798,39.97685,458,7707
116.32957,39.99144,459,7707
116.34646,39.99571,460,7707
116.34666,39.97331,461,7707
116.34721,39.95929,462,7707
116.36283,39.96547,463,7707
116.37319,39.95935,464,7707
116.37579,39.96145,465,7707
116.36822,39.94757,466,7707
116.36595,39.9462,467,7707
116.37385,39.94645,468,7707
116.37343,39.96148,469,7707
116.36628,39.94074,470,7707
116.37751,39.94999,471,7707
116.38279,39.96169,472,7707
116.39788,39.96105,473,7707
116.40092,39.9558,474,7707
116.39988,39.93215,475,7707
116.39988,39.93215,476,7707
116.40035,39.91417,477,7707
116.40576,39.896,478,7707
116.39255,39.87937,479,7707
116.39255,39.87937,480,7707
116.40336,39.86371,481,7707
116.41246,39.8989,482,7707
116.40607,39.91719,483,7707
116.43193,39.92118,484,7707
116.42815,39.93179,485,7707
116.42784,39.93861,486,7707
116.41223,39.93958,487,7707
116.42243,39.94,488,7707
116.4249,39.93944,489,7707
116.4249,39.93944,490,7707
116.37838,39.94762,491,7707
116.37301,39.97944,492,7707
116.35476,39.97638,493,7707
116.36332,39.98291,494,7707
116.36418,39.96685,495,7707
116.41209,39.96762,496,7707
116.45266,39.95435,497,7707
116.45276,39.95456,498,7707
116.45278,39.95455,499,7707
116.45279,39.95455,500,7707
116.45284,39.95453,501,7707
116.45308,39.95439,502,7707
116.45299,39.95445,503,7707
116.46206,39.96007,504,7707
116.46774,39.96599,505,7707
116.49013,39.97058,506,7707
116.4901,39.97058,507,7707
116.48326,39.98693,508,7707
116.50076,40.00533,509,7707
116.49227,40.01181,510,7707
116.49226,40.01183,511,7707
116.49227,40.01183,512,7707
116.49225,40.01186,513,7707
116.49226,40.01186,514,7707
116.49226,40.01186,515,7707
116.49225,40.01187,516,7707
116.49225,40.01187,517,7707
116.49225,40.01187,518,7707
116.49225,40.01187,519,7707
116.49226,40.01188,520,7707
116.49226,40.01119,521,7707
116.49162,39.99748,522,7707
116.48365,39.97585,523,7707
116.48419,39.96487,524,7707
116.46482,39.95087,525,7707
116.42833,39.93992,526,7707
116.31555,39.89675,527,7707
116.33515,39.92176,528,7707
116.34975,39.93641,529,7707
116.35023,39.94831,530,7707
116.36579,39.94772,531,7707
116.3658,39.94785,532,7707
116.37778,39.96215,533,7707
116.3967,39.96708,534,7707
116.41068,39.97424,535,7707
116.41068,39.97424,536,7707
116.41789,39.98712,537,7707
116.42722,39.99694,538,7707
116.41249,39.99332,539,7707
116.4129,39.99313,540,7707
116.41285,39.99311,541,7707
116.41285,39.9931,542,7707
116.41285,39.99309,543,7707
116.41284,39.99309,544,7707
116.42146,39.98731,545,7707
116.43064,39.97881,546,7707
116.41862,39.96659,547,7707
116.41474,39.95597,548,7707
116.41643,39.95793,549,7707
116.42814,39.95584,550,7707
116.43093,39.95332,551,7707
116.44655,39.95574,552,7707
116.4551,39.9484,553,7707
116.46857,39.9375,554,7707
116.47141,39.93242,555,7707
116.45757,39.93251,556,7707
116.44406,39.93256,557,7707
116.42348,39.93237,558,7707
116.41719,39.93244,559,7707
116.4107,39.93903,560,7707
116.39369,39.94778,561,7707
116.35731,39.9446,562,7707
116.34363,39.94426,563,7707
116.34044,39.95673,564,7707
116.35464,39.96504,565,7707
116.35464,39.96504,566,7707
116.35489,39.96325,567,7707
116.36568,39.94814,568,7707
116.36573,39.94781,569,7707
116.37338,39.9562,570,7707
116.37345,39.95834,571,7707
116.40967,39.96779,572,7707
116.43821,39.97529,573,7707
116.44855,39.97892,574,7707
116.46378,39.99104,575,7707
116.46378,39.99104,576,7707
116.48036,40.00388,577,7707
116.48227,40.00826,578,7707
116.46677,40.01267,579,7707
116.46738,40.00662,580,7707
116.46723,40.00657,581,7707
116.46718,40.00672,582,7707
116.46684,40.00655,583,7707
116.46672,40.00648,584,7707
116.46678,40.00595,585,7707
116.46385,39.99128,586,7707
116.44338,39.98329,587,7707
116.41333,39.96794,588,7707
116.38133,39.96689,589,7707
116.33432,39.9664,590,7707
116.31699,39.95623,591,7707
116.3179,39.95236,592,7707
116.31675,39.95908,593,7707
116.32164,39.96567,594,7707
116.33288,39.96602,595,7707
116.34032,39.97528,596,7707
116.35453,39.97512,597,7707
116.36334,39.98523,598,7707
116.36154,39.99431,599,7707
116.36095,39.99474,600,7707
116.36091,39.99475,601,7707
116.36089,39.99477,602,7707
116.35852,39.99746,603,7707
116.35863,39.99534,604,7707
116.33842,39.99183,605,7707
116.32687,39.99147,606,7707
116.32677,39.99024,607,7707
116.34597,39.98563,608,7707
116.33718,39.99161,609,7707
116.33984,39.99181,610,7707
116.35865,39.9924,611,7707
116.35865,39.9924,612,7707
116.3629,39.99053,613,7707
116.35864,39.99429,614,7707
116.35862,39.99475,615,7707
116.35399,40.01361,616,7707
116.40535,40.01999,617,7707
116.40912,40.05428,618,7707
116.41592,40.06174,619,7707
116.41559,40.06052,620,7707
116.39874,40.06645,621,7707
116.39874,40.06645,622,7707
116.35911,40.06137,623,7707
116.32885,40.05709,624,7707
116.32585,40.05618,625,7707
116.33398,40.03862,626,7707
116.34531,40.02103,627,7707
116.34805,40.00647,628,7707
116.3807,39.99794,629,7707
116.34365,39.98564,630,7707
116.34203,39.98565,631,7707
116.36285,39.98563,632,7707
116.38078,39.98143,633,7707
116.38111,39.99132,634,7707
116.38116,39.9873,635,7707
116.37611,39.99633,636,7707
116.3811,39.98934,637,7707
116.36004,39.98063,638,7707
116.35375,39.98024,639,7707
116.35886,39.98542,640,7707
116.3842,39.98633,641,7707
116.41618,39.98718,642,7707
116.4206,39.97899,643,7707
116.42053,39.97893,644,7707
116.4181,39.98159,645,7707
116.45879,39.97283,646,7707
116.50505,40.00779,647,7707
116.5713,40.03913,648,7707
116.58587,40.07685,649,7707
116.58677,40.07783,650,7707
116.58057,40.07652,651,7707
116.582,40.06496,652,7707
116.56424,40.0614,653,7707
116.55646,40.05187,654,7707
116.5642,40.03197,655,7707
116.53498,40.02153,656,7707
116.5205,40.02395,657,7707
116.5093,40.01299,658,7707
116.5093,40.01299,659,7707
116.50574,40.0104,660,7707
116.50574,40.0104,661,7707
116.50012,40.00598,662,7707
116.50012,40.00598,663,7707
116.49223,40.01091,664,7707
116.49233,40.01184,665,7707
116.49237,40.01186,666,7707
116.49237,40.01186,667,7707
116.49238,40.01187,668,7707
116.49239,40.01187,669,7707
116.49238,40.01187,670,7707
116.49238,40.01187,671,7707
116.49239,40.01186,672,7707
116.49238,40.01186,673,7707
116.49239,40.01186,674,7707
116.49239,40.01187,675,7707
116.49952,40.00687,676,7707
116.48453,40.00602,677,7707
116.4699,40.00387,678,7707
116.45176,39.99914,679,7707
116.46152,39.99875,680,7707
116.45054,39.98199,681,7707
116.44539,39.97014,682,7707
116.44795,39.97082,683,7707
116.44094,39.9439,684,7707
116.43064,39.93967,685,7707
116.42776,39.93011,686,7707
116.42141,39.92311,687,7707
116.41247,39.92292,688,7707
116.41167,39.91567,689,7707
116.41011,39.91417,690,7707
116.42033,39.91435,691,7707
116.42081,39.9075,692,7707
116.41341,39.90011,693,7707
116.4058,39.89536,694,7707
116.40597,39.89303,695,7707
116.38547,39.88855,696,7707
116.38456,39.88647,697,7707
116.39383,39.89021,698,7707
116.39928,39.89122,699,7707
116.41404,39.89171,700,7707
116.42647,39.92497,701,7707
116.4898,39.89945,702,7707
116.42518,39.93978,703,7707
116.42264,39.93989,704,7707
116.43583,39.93977,705,7707
116.44969,39.92707,706,7707
116.43387,39.92792,707,7707
116.42816,39.93295,708,7707
116.43358,39.9517,709,7707
116.44232,39.96533,710,7707
116.45293,39.95267,711,7707
116.4574,39.94837,712,7707
116.45465,39.95377,713,7707
116.43046,39.92951,714,7707
116.42952,39.93023,715,7707
116.41898,39.95623,716,7707
116.41725,39.96085,717,7707
116.4119,39.96697,718,7707
116.41111,39.98168,719,7707
116.41083,40.00585,720,7707
116.41152,40.03278,721,7707
116.41605,40.03948,722,7707
116.40158,40.00446,723,7707
116.41812,39.97727,724,7707
116.42233,39.96779,725,7707
116.42992,39.95317,726,7707
116.43979,39.9553,727,7707
116.43491,39.95563,728,7707
116.41922,39.95805,729,7707
116.4018,39.95075,730,7707
116.37866,39.94824,731,7707
116.374,39.96285,732,7707
116.37411,39.9639,733,7707
116.39583,39.9716,734,7707
116.38791,39.96696,735,7707
116.40773,39.96351,736,7707
116.41875,39.96389,737,7707
116.41871,39.965,738,7707
116.3817,39.96706,739,7707
116.32775,39.97231,740,7707
116.3279,39.98142,741,7707
116.32817,39.98085,742,7707
116.34671,39.97504,743,7707
116.34833,39.93946,744,7707
116.34833,39.93946,745,7707
116.14983,39.65672,746,7707
116.34251,39.94845,747,7707
116.34846,39.96619,748,7707
116.34938,39.99969,749,7707
116.35009,39.99969,750,7707
116.34688,39.98834,751,7707
116.34749,39.97694,752,7707
116.36352,39.97621,753,7707
116.35944,39.97679,754,7707
116.35938,39.97997,755,7707
116.35937,39.97998,756,7707
116.35936,39.97999,757,7707
116.35945,39.97786,758,7707
116.35945,39.97786,759,7707
116.36869,39.99425,760,7707
116.36419,40.01263,761,7707
116.32888,40.03953,762,7707
116.34491,39.96669,763,7707
116.34423,39.96657,764,7707
116.33532,39.96645,765,7707
116.34314,39.96608,766,7707
116.41148,39.96732,767,7707
116.42058,39.98201,768,7707
116.43217,39.98224,769,7707
116.41825,39.9749,770,7707
116.4114,39.97255,771,7707
116.40326,39.94783,772,7707
116.3496,39.9326,773,7707
116.32903,39.89595,774,7707
116.31538,39.89597,775,7707
116.32926,39.90601,776,7707
116.34694,39.92176,777,7707
116.37408,39.96422,778,7707
116.41148,39.97504,779,7707
116.40735,40.04266,780,7707
116.41098,40.07286,781,7707
116.41098,40.07286,782,7707
116.41264,40.07677,783,7707
116.40717,40.06043,784,7707
116.41152,40.02551,785,7707
116.40148,40.00389,786,7707
116.40164,39.99774,787,7707
116.40252,40.02054,788,7707
116.40252,40.02054,789,7707
116.4086,40.02702,790,7707
116.40821,40.02751,791,7707
116.40855,40.02701,792,7707
116.40218,39.99751,793,7707
116.41086,39.98288,794,7707
116.4208,39.96769,795,7707
116.43828,39.9566,796,7707
116.45257,39.95475,797,7707
116.45241,39.95485,798,7707
116.45245,39.95483,799,7707
116.45419,39.95516,800,7707
116.45419,39.95516,801,7707
116.45326,39.94815,802,7707
116.45293,39.95451,803,7707
116.45292,39.95452,804,7707
116.45292,39.95451,805,7707
116.45291,39.95451,806,7707
116.4529,39.95452,807,7707
116.45288,39.95452,808,7707
116.48386,39.9652,809,7707
116.48189,39.95698,810,7707
116.48043,39.93251,811,7707
116.47183,39.90742,812,7707
116.47196,39.90733,813,7707
116.45867,39.90745,814,7707
116.40274,39.92814,815,7707
116.4027,39.929,816,7707
116.40473,39.91738,817,7707
116.4124,39.91278,818,7707
116.41265,39.88789,819,7707
116.41185,39.85591,820,7707
116.40381,39.8559,821,7707
116.40335,39.85553,822,7707
116.42203,39.85673,823,7707
116.44693,39.85983,824,7707
116.45526,39.88148,825,7707
116.45644,39.88332,826,7707
116.42487,39.88614,827,7707
116.42483,39.88652,828,7707
116.48336,39.88969,829,7707
116.47137,39.88527,830,7707
116.50328,39.89015,831,7707
116.48515,39.89199,832,7707
116.45633,39.89243,833,7707
116.43765,39.89664,834,7707
116.42787,39.93299,835,7707
116.40173,39.95417,836,7707
116.40173,39.95417,837,7707
116.39614,39.96518,838,7707
116.39618,39.96522,839,7707
116.40134,39.96892,840,7707
116.40554,39.97386,841,7707
116.41701,39.974,842,7707
116.41913,39.98226,843,7707
116.4269,39.97291,844,7707
116.42286,39.97146,845,7707
116.4148,39.95792,846,7707
116.41408,39.95773,847,7707
116.42802,39.95577,848,7707
116.42826,39.9543,849,7707
116.44328,39.95161,850,7707
116.49628,39.99975,851,7707
116.56833,40.03623,852,7707
116.58623,40.05356,853,7707
116.58194,40.05981,854,7707
116.57076,40.03559,855,7707
116.54868,40.02644,856,7707
116.5102,40.01147,857,7707
116.48867,39.99204,858,7707
116.47756,39.99204,859,7707
116.46692,40.00664,860,7707
116.46684,40.00654,861,7707
116.46682,40.00653,862,7707
116.46682,40.00653,863,7707
116.46687,40.00641,864,7707
116.46687,40.00641,865,7707
116.46692,40.0064,866,7707
116.46691,40.0064,867,7707
116.46698,40.005,868,7707
116.46924,39.98782,869,7707
116.4672,39.98138,870,7707
116.46183,39.97801,871,7707
116.46848,39.9951,872,7707
116.47224,40.00879,873,7707
116.46688,40.0117,874,7707
116.47227,40.00315,875,7707
116.47227,40.00314,876,7707
116.47229,40.00276,877,7707
116.46727,40.00666,878,7707
116.46681,40.00649,879,7707
116.46695,40.00662,880,7707
116.46673,40.00633,881,7707
116.46639,40.00617,882,7707
116.46738,40.0059,883,7707
116.46693,40.00454,884,7707
116.46693,40.00454,885,7707
116.44642,39.9953,886,7707
116.43128,39.98873,887,7707
116.43123,39.9899,888,7707
116.41694,39.99226,889,7707
116.39096,39.98717,890,7707
116.38109,39.98684,891,7707
116.40644,39.98718,892,7707
116.44915,39.97981,893,7707
116.45674,39.99832,894,7707
116.45765,39.99976,895,7707
116.45765,39.99976,896,7707
116.46708,40.00427,897,7707
116.46672,39.98323,898,7707
116.45543,39.96394,899,7707
116.45553,39.93957,900,7707
116.45502,39.90821,901,7707
116.45677,39.90576,902,7707
116.45687,39.90604,903,7707
116.43285,39.89228,904,7707
116.41263,39.89439,905,7707
116.41311,39.8961,906,7707
116.41275,39.89269,907,7707
116.41517,39.86612,908,7707
116.40666,39.85603,909,7707
116.40398,39.85608,910,7707
116.40136,39.85556,911,7707
116.40136,39.85556,912,7707
116.44218,39.85766,913,7707
116.45515,39.86965,914,7707
116.4553,39.89006,915,7707
116.4595,39.90635,916,7707
116.47526,39.9141,917,7707
116.49556,39.91441,918,7707
116.49606,39.91437,919,7707
116.48419,39.91904,920,7707
116.48418,39.93211,921,7707
116.47311,39.96388,922,7707
116.4716,39.96552,923,7707
116.49502,40.00043,924,7707
116.49371,40.00931,925,7707
116.49232,40.01198,926,7707
116.49232,40.01198,927,7707
116.49233,40.01197,928,7707
116.49878,40.00704,929,7707
116.49954,40.00671,930,7707
116.49986,40.00627,931,7707
116.49985,40.0063,932,7707
116.49436,40.00888,933,7707
116.49247,40.01191,934,7707
116.49248,40.0119,935,7707
116.49248,40.0119,936,7707
116.49249,40.01189,937,7707
116.4925,40.01188,938,7707
116.49248,40.01188,939,7707
116.49248,40.01188,940,7707
116.49248,40.01188,941,7707
116.49248,40.01188,942,7707
116.49243,40.01188,943,7707
116.49247,40.0119,944,7707
116.49246,40.01189,945,7707
116.4919,40.01169,946,7707
116.49277,40.01198,947,7707
116.49276,40.01198,948,7707
116.49274,40.01197,949,7707
116.49268,40.01197,950,7707
116.49265,40.01196,951,7707
116.49263,40.01196,952,7707
116.49262,40.01196,953,7707
116.4926,40.01196,954,7707
116.4926,40.01196,955,7707
116.4926,40.01195,956,7707
116.4926,40.01195,957,7707
116.4926,40.01195,958,7707
116.49259,40.01195,959,7707
116.49259,40.01195,960,7707
116.49259,40.01194,961,7707
116.4926,40.01191,962,7707
116.49264,40.01191,963,7707
116.49266,40.0119,964,7707
116.49252,40.01188,965,7707
116.49183,40.01204,966,7707
116.49187,40.012,967,7707
116.49188,40.01197,968,7707
116.49194,40.01194,969,7707
116.49198,40.01192,970,7707
116.4927,40.01194,971,7707
116.49261,40.01191,972,7707
116.4922,40.01189,973,7707
116.4926,40.0119,974,7707
116.49253,40.01191,975,7707
116.49249,40.0119,976,7707
116.49248,40.01188,977,7707
116.49247,40.01188,978,7707
116.49247,40.01187,979,7707
116.49247,40.01187,980,7707
116.49249,40.01188,981,7707
116.49249,40.01188,982,7707
116.49249,40.01188,983,7707
116.49249,40.01188,984,7707
116.49249,40.01188,985,7707
116.49249,40.01188,986,7707
116.49249,40.01188,987,7707
116.49249,40.01188,988,7707
116.426,39.92706,989,7707
116.49246,40.01185,990,7707
116.49246,40.01186,991,7707
116.49242,40.01179,992,7707
116.49241,40.01179,993,7707
116.49241,40.01179,994,7707
116.49225,40.0118,995,7707
116.4923,40.01181,996,7707
116.49231,40.01182,997,7707
116.49233,40.01183,998,7707
116.49235,40.01184,999,7707
116.49236,40.01184,1000,7707
116.49238,40.01185,1001,7707
116.49241,40.01186,1002,7707
116.49245,40.01187,1003,7707
116.49246,40.01188,1004,7707
116.4927,40.01212,1005,7707
116.49269,40.0121,1006,7707
116.49265,40.0121,1007,7707
116.49262,40.01209,1008,7707
116.49259,40.01208,1009,7707
116.49247,40.01189,1010,7707
116.4925,40.01194,1011,7707
116.49252,40.01195,1012,7707
116.49252,40.01195,1013,7707
116.49253,40.01195,1014,7707
116.49252,40.01195,1015,7707
116.49252,40.01195,1016,7707
116.49252,40.01194,1017,7707
116.49252,40.01194,1018,7707
116.49252,40.01193,1019,7707
116.49251,40.01192,1020,7707
116.49251,40.01192,1021,7707
116.49252,40.01192,1022,7707
116.49251,40.01193,1023,7707
116.49251,40.01192,1024,7707
116.4925,40.01192,1025,7707
116.4925,40.01192,1026,7707
116.4925,40.01192,1027,7707
116.49249,40.01192,1028,7707
116.49218,40.01177,1029,7707
116.49222,40.01179,1030,7707
116.49224,40.0118,1031,7707
116.49225,40.0118,1032,7707
116.49225,40.01181,1033,7707
116.49225,40.01181,1034,7707
116.49241,40.0118,1035,7707
116.49211,40.01181,1036,7707
116.4923,40.01181,1037,7707
116.4923,40.01181,1038,7707
116.49229,40.01181,1039,7707
116.49229,40.01181,1040,7707
116.49225,40.01173,1041,7707
116.49226,40.01174,1042,7707
116.49226,40.01175,1043,7707
116.49227,40.01175,1044,7707
116.49227,40.01175,1045,7707
116.49232,40.01194,1046,7707
116.49231,40.01194,1047,7707
116.4923,40.01197,1048,7707
116.49222,40.0118,1049,7707
116.49224,40.01183,1050,7707
116.49221,40.01192,1051,7707
116.49228,40.01189,1052,7707
116.49229,40.01189,1053,7707
116.4923,40.01189,1054,7707
116.4923,40.01189,1055,7707
116.49231,40.01189,1056,7707
116.4923,40.01189,1057,7707
116.4923,40.01189,1058,7707
116.49231,40.01189,1059,7707
116.49231,40.01189,1060,7707
116.49248,40.01186,1061,7707
116.49247,40.01185,1062,7707
116.49249,40.01187,1063,7707
116.49249,40.01187,1064,7707
116.49248,40.01188,1065,7707
116.49247,40.0119,1066,7707
116.49246,40.0119,1067,7707
116.49245,40.01191,1068,7707
116.49244,40.0119,1069,7707
116.49244,40.0119,1070,7707
116.49244,40.01191,1071,7707
116.49243,40.01192,1072,7707
116.49244,40.01193,1073,7707
116.49245,40.01193,1074,7707
116.49246,40.01194,1075,7707
116.49246,40.01194,1076,7707
116.49246,40.01194,1077,7707
116.49246,40.01194,1078,7707
116.49234,40.01182,1079,7707
116.4919,40.0116,1080,7707
116.49216,40.01177,1081,7707
116.49224,40.01181,1082,7707
116.49226,40.01183,1083,7707
116.49227,40.01184,1084,7707
116.49228,40.01185,1085,7707
116.49229,40.01186,1086,7707
116.4923,40.01186,1087,7707
116.49231,40.01187,1088,7707
116.49232,40.01187,1089,7707
116.49233,40.01187,1090,7707
116.49233,40.01188,1091,7707
116.49234,40.01188,1092,7707
116.49235,40.01189,1093,7707
116.49235,40.01189,1094,7707
116.49235,40.01189,1095,7707
116.49235,40.01189,1096,7707
116.49235,40.0119,1097,7707
116.49235,40.0119,1098,7707
116.49234,40.01191,1099,7707
116.49269,40.01202,1100,7707
116.49261,40.01204,1101,7707
116.49258,40.01201,1102,7707
116.49257,40.01202,1103,7707
116.49249,40.01202,1104,7707
116.49245,40.01201,1105,7707
116.49244,40.01201,1106,7707
116.49242,40.01201,1107,7707
116.49241,40.012,1108,7707
116.49241,40.01199,1109,7707
116.49241,40.01199,1110,7707
116.49241,40.012,1111,7707
116.4924,40.012,1112,7707
116.4924,40.01201,1113,7707
116.49202,40.01192,1114,7707
116.49215,40.01193,1115,7707
116.49224,40.01193,1116,7707
116.49227,40.01192,1117,7707
116.49227,40.01191,1118,7707
116.49229,40.0119,1119,7707
116.4923,40.0119,1120,7707
116.49233,40.0119,1121,7707
116.49233,40.01189,1122,7707
116.49234,40.01189,1123,7707
116.49235,40.01189,1124,7707
116.49245,40.0119,1125,7707
116.49245,40.0119,1126,7707
116.49247,40.01189,1127,7707
116.49255,40.01191,1128,7707
116.49227,40.01184,1129,7707
116.49297,40.012,1130,7707
116.4928,40.01198,1131,7707
116.49254,40.01191,1132,7707
116.49267,40.01203,1133,7707
116.49261,40.01199,1134,7707
116.49258,40.01199,1135,7707
116.49252,40.01196,1136,7707
116.49249,40.01195,1137,7707
116.49205,40.01182,1138,7707
116.49252,40.0119,1139,7707
116.49245,40.0119,1140,7707
116.49241,40.0119,1141,7707
116.49241,40.01191,1142,7707
116.49242,40.01193,1143,7707
116.49243,40.01194,1144,7707
116.49244,40.01194,1145,7707
116.49244,40.01194,1146,7707
116.49239,40.01166,1147,7707
116.49239,40.01184,1148,7707
116.49237,40.01185,1149,7707
116.49144,40.01153,1150,7707
116.492,40.01172,1151,7707
116.49196,40.01171,1152,7707
116.49246,40.0119,1153,7707
116.49246,40.0119,1154,7707
116.49244,40.01189,1155,7707
116.49304,40.01217,1156,7707
116.49305,40.01215,1157,7707
116.49242,40.012,1158,7707
116.49246,40.01199,1159,7707
116.49247,40.012,1160,7707
116.49254,40.01203,1161,7707
116.49257,40.01204,1162,7707
116.4926,40.01204,1163,7707
116.49262,40.01205,1164,7707
116.49262,40.01203,1165,7707
116.49255,40.01202,1166,7707
116.49252,40.01199,1167,7707
116.49247,40.01196,1168,7707
116.49244,40.01195,1169,7707
116.49246,40.01194,1170,7707
116.49246,40.01193,1171,7707
116.49247,40.01193,1172,7707
116.49248,40.01193,1173,7707
116.49289,40.01151,1174,7707
116.49291,40.01141,1175,7707
116.4929,40.01144,1176,7707
116.4929,40.01144,1177,7707
116.49196,40.01109,1178,7707
116.49221,40.01143,1179,7707
116.49222,40.01152,1180,7707
116.49213,40.01113,1181,7707
116.49213,40.01113,1182,7707
116.49249,40.01206,1183,7707
116.49247,40.01197,1184,7707
116.49246,40.01192,1185,7707
116.49248,40.01193,1186,7707
116.49249,40.01192,1187,7707
116.49249,40.01192,1188,7707
116.49248,40.01191,1189,7707
116.49246,40.01189,1190,7707
116.49246,40.01188,1191,7707
116.49246,40.01189,1192,7707
116.49246,40.01188,1193,7707
116.49245,40.01188,1194,7707
116.49238,40.01187,1195,7707
116.49244,40.0119,1196,7707
116.49246,40.01194,1197,7707
116.49248,40.01194,1198,7707
116.49249,40.01196,1199,7707
116.49247,40.01197,1200,7707
116.49245,40.01198,1201,7707
116.49246,40.01199,1202,7707
116.49246,40.01198,1203,7707
116.49247,40.01197,1204,7707
116.49248,40.0119,1205,7707
116.49246,40.01192,1206,7707
116.49247,40.01191,1207,7707
116.49247,40.01191,1208,7707
116.49217,40.01198,1209,7707
116.49154,40.01227,1210,7707
116.49154,40.01227,1211,7707
116.49174,40.01221,1212,7707
116.49185,40.01217,1213,7707
116.49222,40.01206,1214,7707
116.49225,40.01206,1215,7707
116.49227,40.01205,1216,7707
116.4923,40.01202,1217,7707
116.49237,40.01197,1218,7707
116.49238,40.01196,1219,7707
116.4924,40.01196,1220,7707
116.49242,40.01196,1221,7707
116.49242,40.01195,1222,7707
116.49243,40.01195,1223,7707
116.49249,40.01198,1224,7707
116.49257,40.012,1225,7707
116.49223,40.01184,1226,7707
116.49239,40.0119,1227,7707
116.4924,40.01191,1228,7707
116.49245,40.01192,1229,7707
116.49246,40.01192,1230,7707
116.49246,40.01192,1231,7707
116.49247,40.01192,1232,7707
116.49248,40.01191,1233,7707
116.49248,40.01191,1234,7707
116.49248,40.0119,1235,7707
116.49248,40.0119,1236,7707
116.49248,40.0119,1237,7707
116.49248,40.0119,1238,7707
116.49248,40.01191,1239,7707
116.49204,40.01187,1240,7707
116.49205,40.01186,1241,7707
116.49259,40.01191,1242,7707
116.49257,40.01186,1243,7707
116.49254,40.01185,1244,7707
116.49252,40.01184,1245,7707
116.4925,40.01184,1246,7707
116.49303,40.01177,1247,7707
116.49301,40.01177,1248,7707
116.49295,40.0118,1249,7707
116.49289,40.01182,1250,7707
116.49247,40.01188,1251,7707
116.49259,40.01188,1252,7707
116.49263,40.0119,1253,7707
116.49258,40.01191,1254,7707
116.49256,40.01191,1255,7707
116.49254,40.01192,1256,7707
116.49254,40.01192,1257,7707
116.49253,40.01193,1258,7707
116.49252,40.01194,1259,7707
116.49252,40.01194,1260,7707
116.49251,40.01194,1261,7707
116.49251,40.01194,1262,7707
116.49251,40.01194,1263,7707
116.4925,40.01194,1264,7707
116.4925,40.01194,1265,7707
116.4925,40.01194,1266,7707
116.4925,40.01194,1267,7707
116.49163,40.01135,1268,7707
116.49222,40.0119,1269,7707
116.49224,40.01186,1270,7707
116.49215,40.01184,1271,7707
116.49221,40.01183,1272,7707
116.49227,40.01184,1273,7707
116.49229,40.01183,1274,7707
116.4923,40.01182,1275,7707
116.4923,40.01181,1276,7707
116.49229,40.01181,1277,7707
116.49227,40.01181,1278,7707
116.4921,40.01172,1279,7707
116.49213,40.01173,1280,7707
116.49222,40.01176,1281,7707
116.4923,40.01177,1282,7707
116.49236,40.01178,1283,7707
116.49239,40.01179,1284,7707
116.49239,40.01179,1285,7707
116.49238,40.01179,1286,7707
116.49238,40.01178,1287,7707
116.49238,40.01178,1288,7707
116.49238,40.01177,1289,7707
116.49239,40.01179,1290,7707
116.4924,40.0118,1291,7707
116.49248,40.01204,1292,7707
116.49248,40.01198,1293,7707
116.49248,40.01195,1294,7707
116.49248,40.0119,1295,7707
116.49203,40.01164,1296,7707
116.49203,40.01164,1297,7707
116.4925,40.01194,1298,7707
116.49242,40.01185,1299,7707
116.49237,40.01182,1300,7707
116.49238,40.01179,1301,7707
116.49238,40.01177,1302,7707
116.49239,40.01178,1303,7707
116.49239,40.01179,1304,7707
116.49259,40.01189,1305,7707
116.49254,40.0119,1306,7707
116.4925,40.01187,1307,7707
116.49249,40.01187,1308,7707
116.49249,40.01187,1309,7707
116.49242,40.01194,1310,7707
116.49227,40.01188,1311,7707
116.49232,40.01185,1312,7707
116.49215,40.01175,1313,7707
116.4922,40.01176,1314,7707
116.49225,40.01177,1315,7707
116.49241,40.01189,1316,7707
116.49243,40.01183,1317,7707
116.49248,40.01184,1318,7707
116.4925,40.01185,1319,7707
116.49251,40.01186,1320,7707
116.49252,40.01186,1321,7707
116.49253,40.01187,1322,7707
116.49209,40.01135,1323,7707
116.4923,40.01136,1324,7707
116.4925,40.01157,1325,7707
116.49234,40.01155,1326,7707
116.49234,40.01155,1327,7707
116.4922,40.01153,1328,7707
116.4927,40.01201,1329,7707
116.49225,40.01186,1330,7707
116.49226,40.01187,1331,7707
116.49274,40.01207,1332,7707
116.49265,40.01202,1333,7707
116.49261,40.01199,1334,7707
116.49258,40.01197,1335,7707
116.49256,40.01196,1336,7707
116.49254,40.01195,1337,7707
116.49255,40.01195,1338,7707
116.49255,40.01194,1339,7707
116.49267,40.01177,1340,7707
116.4923,40.01194,1341,7707
116.49269,40.01177,1342,7707
116.4926,40.0117,1343,7707
116.49271,40.01196,1344,7707
116.4927,40.01188,1345,7707
116.49268,40.01184,1346,7707
116.49268,40.01182,1347,7707
116.49246,40.0118,1348,7707
116.49247,40.01179,1349,7707
116.49246,40.0118,1350,7707
116.49252,40.01183,1351,7707
116.49253,40.01184,1352,7707
116.49253,40.01184,1353,7707
116.49226,40.01181,1354,7707
116.49275,40.01202,1355,7707
116.49242,40.01183,1356,7707
116.49243,40.01184,1357,7707
116.49246,40.01186,1358,7707
116.49246,40.01187,1359,7707
116.49246,40.01188,1360,7707
116.49246,40.01189,1361,7707
116.49249,40.0119,1362,7707
116.49249,40.0119,1363,7707
116.49249,40.0119,1364,7707
116.4925,40.0119,1365,7707
116.4925,40.01191,1366,7707
116.4925,40.01191,1367,7707
116.4925,40.01191,1368,7707
116.49249,40.01191,1369,7707
116.49249,40.01191,1370,7707
116.49248,40.01191,1371,7707
116.49248,40.01191,1372,7707
116.49248,40.01191,1373,7707
116.49248,40.01192,1374,7707
116.49248,40.01191,1375,7707
116.49247,40.01191,1376,7707
116.49248,40.01191,1377,7707
116.4928,40.0119,1378,7707
116.49272,40.01188,1379,7707
116.49246,40.01187,1380,7707
116.49246,40.01187,1381,7707
116.49255,40.01187,1382,7707
116.49258,40.01186,1383,7707
116.49251,40.01185,1384,7707
116.49246,40.01183,1385,7707
116.49247,40.01183,1386,7707
116.49248,40.01184,1387,7707
116.49247,40.01185,1388,7707
116.49246,40.01185,1389,7707
116.49246,40.01185,1390,7707
116.49245,40.01185,1391,7707
116.49245,40.01185,1392,7707
116.49222,40.01164,1393,7707
116.49227,40.01169,1394,7707
116.49231,40.01176,1395,7707
116.49237,40.01181,1396,7707
116.49239,40.01183,1397,7707
116.49241,40.01184,1398,7707
116.49243,40.01186,1399,7707
116.49244,40.01187,1400,7707
116.49244,40.01187,1401,7707
116.49245,40.01188,1402,7707
116.49245,40.01188,1403,7707
116.49246,40.01188,1404,7707
116.49247,40.01189,1405,7707
116.49249,40.01189,1406,7707
116.49248,40.01189,1407,7707
116.49247,40.01189,1408,7707
116.49247,40.01189,1409,7707
116.48983,40.01107,1410,7707
116.49223,40.01178,1411,7707
116.49224,40.01178,1412,7707
116.49224,40.01178,1413,7707
116.49224,40.01179,1414,7707
116.49225,40.01179,1415,7707
116.49225,40.01179,1416,7707
116.49226,40.01179,1417,7707
116.49226,40.01179,1418,7707
116.49268,40.01189,1419,7707
116.49258,40.01187,1420,7707
116.49253,40.01186,1421,7707
116.4925,40.01185,1422,7707
116.49249,40.01185,1423,7707
116.49249,40.01185,1424,7707
116.49246,40.01185,1425,7707
116.49251,40.01178,1426,7707
116.49248,40.01176,1427,7707
116.4925,40.0118,1428,7707
116.49238,40.01177,1429,7707
116.49243,40.01181,1430,7707
116.49241,40.01177,1431,7707
116.49269,40.01185,1432,7707
116.49218,40.01176,1433,7707
116.49225,40.0118,1434,7707
116.49238,40.01194,1435,7707
116.49208,40.01177,1436,7707
116.49208,40.01177,1437,7707
116.49236,40.01187,1438,7707
116.49255,40.01182,1439,7707
116.49252,40.01183,1440,7707
116.4925,40.01184,1441,7707
116.49248,40.01184,1442,7707
116.49286,40.01218,1443,7707
116.49278,40.0121,1444,7707
116.4924,40.01184,1445,7707
116.4924,40.01184,1446,7707
116.49239,40.01183,1447,7707
116.4924,40.01183,1448,7707
116.49688,40.00231,1449,7707
116.43225,40.02018,1450,7707
116.41132,40.0301,1451,7707
116.41254,40.02863,1452,7707
116.41408,40.02617,1453,7707
116.41403,40.02592,1454,7707
116.41403,40.02562,1455,7707
116.41401,40.02554,1456,7707
116.41401,40.02554,1457,7707
116.41401,40.02554,1458,7707
116.41407,40.02602,1459,7707
116.41387,40.02783,1460,7707
116.41379,40.02735,1461,7707
116.41376,40.02728,1462,7707
116.41353,40.02679,1463,7707
116.41375,40.02726,1464,7707
116.41375,40.02726,1465,7707
116.4133,40.02675,1466,7707
116.41345,40.02674,1467,7707
116.41335,40.02665,1468,7707
116.41358,40.0266,1469,7707
116.4137,40.02673,1470,7707
116.41365,40.02674,1471,7707
116.41366,40.02674,1472,7707
116.41365,40.02673,1473,7707
116.41364,40.02674,1474,7707
116.41365,40.02674,1475,7707
116.41365,40.02674,1476,7707
116.41365,40.02675,1477,7707
116.41366,40.02675,1478,7707
116.41366,40.02676,1479,7707
116.41385,40.02751,1480,7707
116.41389,40.02747,1481,7707
116.414,40.02771,1482,7707
116.41365,40.02712,1483,7707
116.41361,40.02739,1484,7707
116.41363,40.0274,1485,7707
116.41392,40.02737,1486,7707
116.41121,39.99912,1487,7707
116.41801,39.99625,1488,7707
116.40125,39.98677,1489,7707
116.40718,39.98178,1490,7707
116.41791,39.96772,1491,7707
116.4556,39.93957,1492,7707
116.4556,39.93957,1493,7707
116.44449,39.90793,1494,7707
116.44456,39.90791,1495,7707
116.45471,39.91817,1496,7707
116.46678,39.9337,1497,7707
116.46591,39.94869,1498,7707
116.47313,39.97052,1499,7707
116.47607,39.97383,1500,7707
116.48905,39.97054,1501,7707
116.49043,39.97057,1502,7707
116.49313,39.97506,1503,7707
116.48382,39.97775,1504,7707
116.47356,39.97804,1505,7707
116.46616,39.98256,1506,7707
116.48144,39.98026,1507,7707
116.47696,39.96093,1508,7707
116.48357,39.92122,1509,7707
116.51275,39.92184,1510,7707
116.55876,39.92282,1511,7707
116.58537,39.91497,1512,7707
116.58528,39.91374,1513,7707
116.57178,39.9137,1514,7707
116.54047,39.90937,1515,7707
116.49282,39.90685,1516,7707
116.45509,39.8886,1517,7707
116.45622,39.87096,1518,7707
116.45553,39.88196,1519,7707
116.45558,39.89163,1520,7707
116.45533,39.89584,1521,7707
116.45282,39.90732,1522,7707
116.45763,39.92744,1523,7707
116.45879,39.9276,1524,7707
116.47151,39.92154,1525,7707
116.49578,39.92588,1526,7707
116.49578,39.92588,1527,7707
116.48879,39.93507,1528,7707
116.47653,39.9325,1529,7707
116.45658,39.93247,1530,7707
116.44422,39.93205,1531,7707
116.44393,39.92378,1532,7707
116.42787,39.93159,1533,7707
116.43835,39.93959,1534,7707
116.4336,39.94995,1535,7707
116.43422,39.95549,1536,7707
116.44981,39.9578,1537,7707
116.51538,40.01607,1538,7707
116.58366,40.0521,1539,7707
116.58677,40.0776,1540,7707
116.5814,40.06973,1541,7707
116.56185,40.07268,1542,7707
116.5634,40.07063,1543,7707
116.58029,40.07407,1544,7707
116.58136,40.07657,1545,7707
116.58138,40.07658,1546,7707
116.5837,40.07906,1547,7707
116.5837,40.07906,1548,7707
116.58267,40.07946,1549,7707
116.58265,40.07949,1550,7707
116.58145,40.07928,1551,7707
116.56443,40.03419,1552,7707
116.48037,39.98546,1553,7707
116.45552,39.94365,1554,7707
116.45518,39.88684,1555,7707
116.426,39.85922,1556,7707
116.42531,39.86108,1557,7707
116.42527,39.86088,1558,7707
116.36953,39.85583,1559,7707
116.32492,39.84577,1560,7707
116.32716,39.84799,1561,7707
116.49211,40.01134,1562,7707
116.30864,39.86506,1563,7707
116.3045,39.88689,1564,7707
116.30448,39.91417,1565,7707
116.30439,39.93109,1566,7707
116.30761,39.95001,1567,7707
116.30767,39.95,1568,7707
116.31101,39.95368,1569,7707
116.31901,39.96862,1570,7707
116.31938,39.96917,1571,7707
116.32921,39.96611,1572,7707
116.35559,39.96622,1573,7707
116.40148,39.96152,1574,7707
116.3966,39.9501,1575,7707
116.40189,39.94906,1576,7707
116.4272,39.94773,1577,7707
116.45721,39.97412,1578,7707
116.45634,39.97691,1579,7707
116.44046,39.97056,1580,7707
116.44046,39.97056,1581,7707
116.4431,39.95371,1582,7707
116.43329,39.94004,1583,7707
116.42842,39.91524,1584,7707
116.43716,39.86986,1585,7707
116.37563,39.86949,1586,7707
116.35928,39.87257,1587,7707
116.3579,39.87206,1588,7707
116.40703,39.87071,1589,7707
116.42553,39.88269,1590,7707
116.42553,39.88269,1591,7707
116.43015,39.8867,1592,7707
116.43769,39.88313,1593,7707
116.43769,39.88313,1594,7707
116.45533,39.88842,1595,7707
116.45529,39.88936,1596,7707
116.45645,39.91991,1597,7707
116.44353,39.95424,1598,7707
116.43969,39.95561,1599,7707
116.43967,39.95096,1600,7707
116.44013,39.96096,1601,7707
116.41708,39.97411,1602,7707
116.40982,39.96801,1603,7707
116.34616,39.96635,1604,7707
116.3038,39.94313,1605,7707
116.30379,39.94238,1606,7707
116.31953,39.93604,1607,7707
116.32853,39.91928,1608,7707
116.33234,39.9032,1609,7707
116.34989,39.94043,1610,7707
116.34933,39.95659,1611,7707
116.37106,39.96644,1612,7707
116.41188,39.96761,1613,7707
116.41145,39.97707,1614,7707
116.42826,39.98374,1615,7707
116.45094,39.9843,1616,7707
116.45399,39.98775,1617,7707
116.44772,39.98045,1618,7707
116.43914,40.01817,1619,7707
116.41504,40.02739,1620,7707
116.41513,40.02728,1621,7707
116.41514,40.02734,1622,7707
116.41514,40.02739,1623,7707
116.41513,40.02739,1624,7707
116.41126,40.0333,1625,7707
116.41126,40.0333,1626,7707
116.41064,40.06974,1627,7707
116.4228,40.07626,1628,7707
116.4228,40.07629,1629,7707
116.42283,40.07637,1630,7707
116.42282,40.07638,1631,7707
116.42281,40.07638,1632,7707
116.42281,40.07638,1633,7707
116.4228,40.07636,1634,7707
116.42279,40.07636,1635,7707
116.42278,40.07636,1636,7707
116.42278,40.07636,1637,7707
116.42278,40.07635,1638,7707
116.42278,40.07635,1639,7707
116.42278,40.0764,1640,7707
116.42288,40.07622,1641,7707
116.42286,40.07624,1642,7707
116.42261,40.07637,1643,7707
116.42269,40.07625,1644,7707
116.42273,40.07599,1645,7707
116.42273,40.07612,1646,7707
116.42276,40.07624,1647,7707
116.42276,40.07624,1648,7707
116.4228,40.07626,1649,7707
116.42282,40.07628,1650,7707
116.42278,39.85602,1651,7707
116.42278,39.85602,1652,7707
116.42283,40.07646,1653,7707
116.42286,40.07648,1654,7707
116.42297,40.07657,1655,7707
116.42294,40.07648,1656,7707
116.42294,40.07646,1657,7707
116.42299,40.07622,1658,7707
116.42301,40.07641,1659,7707
116.42317,40.07598,1660,7707
116.42274,40.0761,1661,7707
116.42298,40.07618,1662,7707
116.42263,40.07612,1663,7707
116.42271,40.07627,1664,7707
116.4226,40.07628,1665,7707
116.42262,40.07631,1666,7707
116.42275,40.07621,1667,7707
116.42254,40.07637,1668,7707
116.4223,40.07656,1669,7707
116.42296,40.07615,1670,7707
116.42256,40.07643,1671,7707
116.42283,40.07625,1672,7707
116.4228,40.07627,1673,7707
116.42276,40.07652,1674,7707
116.42281,40.07634,1675,7707
116.42276,40.07637,1676,7707
116.42275,40.07637,1677,7707
116.42275,40.07637,1678,7707
116.42275,40.07636,1679,7707
116.42276,40.07636,1680,7707
116.42279,40.07625,1681,7707
116.42281,40.07628,1682,7707
116.4228,40.07626,1683,7707
116.4228,40.07625,1684,7707
116.4228,40.07625,1685,7707
116.4228,40.07624,1686,7707
116.4228,40.07624,1687,7707
116.4228,40.07624,1688,7707
116.4228,40.07623,1689,7707
116.4228,40.07624,1690,7707
116.42292,40.07625,1691,7707
116.42276,40.07633,1692,7707
116.42283,40.07635,1693,7707
116.42283,40.07639,1694,7707
116.42284,40.0764,1695,7707
116.42286,40.07635,1696,7707
116.42278,40.07641,1697,7707
116.42281,40.07604,1698,7707
116.42275,40.07623,1699,7707
116.42271,40.07631,1700,7707
116.42272,40.07634,1701,7707
116.42271,40.07635,1702,7707
116.42269,40.07636,1703,7707
116.42268,40.07636,1704,7707
116.42259,40.07614,1705,7707
116.4226,40.07629,1706,7707
116.42274,40.07636,1707,7707
116.42274,40.07636,1708,7707
116.42278,40.07644,1709,7707
116.42278,40.07639,1710,7707
116.42271,40.07638,1711,7707
116.42273,40.07637,1712,7707
116.42278,40.07611,1713,7707
116.4228,40.07615,1714,7707
116.42278,40.07623,1715,7707
116.42275,40.07626,1716,7707
116.42272,40.07629,1717,7707
116.41108,40.07216,1718,7707
116.40862,40.03964,1719,7707
116.41513,40.02722,1720,7707
116.41509,40.02723,1721,7707
116.4151,40.02717,1722,7707
116.4151,40.02717,1723,7707
116.4151,40.02716,1724,7707
116.4151,40.02716,1725,7707
116.415,40.02709,1726,7707
116.41498,40.02705,1727,7707
116.41491,40.02683,1728,7707
116.41123,40.02083,1729,7707
116.39534,40.00379,1730,7707
116.40124,39.98941,1731,7707
116.40625,39.98579,1732,7707
116.40103,39.96816,1733,7707
116.4018,39.9518,1734,7707
116.39099,39.95028,1735,7707
116.40785,39.96749,1736,7707
116.43237,39.96075,1737,7707
116.44261,39.95384,1738,7707
116.45528,39.94873,1739,7707
116.4553,39.94263,1740,7707
116.43327,39.93982,1741,7707
116.4293,39.91032,1742,7707
116.41893,39.89595,1743,7707
116.41207,39.89597,1744,7707
116.41109,39.89589,1745,7707
116.41109,39.89589,1746,7707
116.39567,39.89923,1747,7707
116.3884,39.89492,1748,7707
116.38842,39.89305,1749,7707
116.40584,39.89126,1750,7707
116.43269,39.89207,1751,7707
116.44853,39.89215,1752,7707
116.45412,39.89191,1753,7707
116.45488,39.8921,1754,7707
116.43668,39.96404,1755,7707
116.38833,39.96895,1756,7707
116.37433,39.96657,1757,7707
116.40178,39.98675,1758,7707
116.40157,39.9918,1759,7707
116.40149,39.99719,1760,7707
116.39831,40.00687,1761,7707
116.39831,40.00687,1762,7707
116.39843,40.00685,1763,7707
116.39839,40.00588,1764,7707
116.40118,39.9932,1765,7707
116.40123,39.99229,1766,7707
116.40137,39.97226,1767,7707
116.40157,39.95904,1768,7707
116.41865,39.95801,1769,7707
116.43196,39.95844,1770,7707
116.44461,39.95496,1771,7707
116.45564,39.9099,1772,7707
116.45493,39.86931,1773,7707
116.46901,39.8698,1774,7707
116.47649,39.84427,1775,7707
116.44504,39.82487,1776,7707
116.44511,39.82477,1777,7707
116.44511,39.82477,1778,7707
116.4451,39.82475,1779,7707
116.4451,39.82474,1780,7707
116.44423,39.82465,1781,7707
116.44423,39.82465,1782,7707
116.44923,39.82496,1783,7707
116.46403,39.83521,1784,7707
116.46449,39.83531,1785,7707
116.46449,39.8353,1786,7707
116.47588,39.84253,1787,7707
116.47529,39.85059,1788,7707
116.45304,39.86469,1789,7707
116.45576,39.91367,1790,7707
116.44926,39.94454,1791,7707
116.43984,39.94926,1792,7707
116.43763,39.95382,1793,7707
116.42966,39.96526,1794,7707
116.43418,39.96031,1795,7707
116.44936,39.93953,1796,7707
116.44935,39.94566,1797,7707
116.45531,39.93519,1798,7707
116.45544,39.93387,1799,7707
116.4657,39.96471,1800,7707
116.4657,39.96471,1801,7707
116.4741,39.97035,1802,7707
116.46969,39.96621,1803,7707
116.46969,39.96621,1804,7707
116.42496,39.98778,1805,7707
116.38792,39.97537,1806,7707
116.40184,39.96016,1807,7707
116.40182,39.95293,1808,7707
116.40182,39.95293,1809,7707
116.40179,39.95049,1810,7707
116.42801,39.93944,1811,7707
116.44833,39.9357,1812,7707
116.44789,39.93447,1813,7707
116.44645,39.93976,1814,7707
116.44934,39.9442,1815,7707
116.45507,39.94764,1816,7707
116.45565,39.94849,1817,7707
116.45571,39.9496,1818,7707
116.44015,39.96214,1819,7707
116.41832,39.97549,1820,7707
116.41704,39.98776,1821,7707
116.34621,39.98559,1822,7707
116.34621,39.98559,1823,7707
