x,y,k,tid
116.55733,40.10989,0,7721
116.63515,40.17068,1,7721
116.63822,40.24224,2,7721
116.64919,40.31478,3,7721
116.75487,40.33703,4,7721
116.82945,40.36744,5,7721
116.84149,40.38093,6,7721
116.84025,40.38092,7,7721
116.77991,40.3491,8,7721
116.66465,40.32358,9,7721
116.63141,40.16469,10,7721
116.34927,39.95672,11,7721
116.34938,39.93335,12,7721
116.44466,39.94639,13,7721
116.41975,39.9581,14,7721
116.41975,39.9581,15,7721
116.39045,39.9501,16,7721
116.36465,39.95874,17,7721
116.33909,39.97546,18,7721
116.38839,39.96377,19,7721
116.41427,39.94799,20,7721
116.39857,39.93214,21,7721
116.33917,39.93124,22,7721
116.33072,39.96078,23,7721
116.32901,39.96274,24,7721
116.30227,39.96209,25,7721
116.29083,39.96647,26,7721
116.31488,39.966,27,7721
116.38848,39.96185,28,7721
116.43103,39.91194,29,7721
116.43436,39.92156,30,7721
116.43754,39.92071,31,7721
116.44431,39.93944,32,7721
116.43064,39.95818,33,7721
116.39722,39.95581,34,7721
116.40993,39.94848,35,7721
116.39391,39.94838,36,7721
116.39026,39.94739,37,7721
116.39554,39.93947,38,7721
116.38779,39.94151,39,7721
116.37328,39.95571,40,7721
116.34145,39.95682,41,7721
116.32864,39.96265,42,7721
116.32876,39.95095,43,7721
116.32876,39.95095,44,7721
116.32642,39.95609,45,7721
116.32845,39.96481,46,7721
116.3315,39.98839,47,7721
116.32382,40.05318,48,7721
116.3427,40.0275,49,7721
116.34262,39.99948,50,7721
116.39845,39.98675,51,7721
116.3888,39.9674,52,7721
116.35491,39.96641,53,7721
116.34883,39.95355,54,7721
116.34953,39.92864,55,7721
116.33943,39.89659,56,7721
116.31513,39.90524,57,7721
116.32936,39.91266,58,7721
116.33835,39.91707,59,7721
116.33836,39.92564,60,7721
116.34728,39.93027,61,7721
116.35611,39.94857,62,7721
116.35528,39.95563,63,7721
116.34715,39.99009,64,7721
116.33401,39.99248,65,7721
116.3672,39.98582,66,7721
116.41239,39.98715,67,7721
116.41239,39.98715,68,7721
116.46113,40.01759,69,7721
116.48686,40.02262,70,7721
116.48768,40.03498,71,7721
116.46095,40.01297,72,7721
116.41773,39.98765,73,7721
116.58088,40.07255,74,7721
116.54229,40.05774,75,7721
116.50011,40.02225,76,7721
116.45795,40.00361,77,7721
116.39661,39.98701,78,7721
116.32659,39.9911,79,7721
116.33288,39.97505,80,7721
116.33288,39.97505,81,7721
116.34838,39.97533,82,7721
116.32717,39.98321,83,7721
116.29673,39.98425,84,7721
116.30876,39.9746,85,7721
116.34694,39.97517,86,7721
116.36305,39.98671,87,7721
116.36431,39.96663,88,7721
116.40915,39.96092,89,7721
116.40915,39.96092,90,7721
116.40602,39.97574,91,7721
116.44441,39.98233,92,7721
116.48841,39.92161,93,7721
116.56284,39.92285,94,7721
116.5845,39.92254,95,7721
116.56094,39.91478,96,7721
116.52494,39.91574,97,7721
116.48271,39.90693,98,7721
116.47516,39.90709,99,7721
116.45791,39.90724,100,7721
116.43722,39.85785,101,7721
116.42705,39.8578,102,7721
116.37774,39.85584,103,7721
116.35782,39.87144,104,7721
116.35722,39.88712,105,7721
116.34942,39.9401,106,7721
116.42838,39.91922,107,7721
116.44512,39.90261,108,7721
116.43483,39.90591,109,7721
116.42045,39.92301,110,7721
116.39221,39.94745,111,7721
116.40451,39.92513,112,7721
116.40535,39.91406,113,7721
116.39005,39.93199,114,7721
116.39005,39.93199,115,7721
116.353,39.93589,116,7721
116.34126,39.95292,117,7721
116.36211,39.96644,118,7721
116.40163,40.00424,119,7721
116.40232,40.00802,120,7721
116.40391,39.98183,121,7721
116.43111,39.98231,122,7721
116.42778,39.98216,123,7721
116.39659,39.98701,124,7721
116.31334,39.9845,125,7721
116.31127,39.97517,126,7721
116.30849,39.96354,127,7721
116.28685,39.95833,128,7721
116.29602,39.90882,129,7721
116.3028,39.92681,130,7721
116.3028,39.92681,131,7721
116.32789,39.92691,132,7721
116.3497,39.94105,133,7721
116.37084,39.95943,134,7721
116.38857,39.96288,135,7721
116.40145,39.96655,136,7721
116.45394,40.01378,137,7721
116.48313,40.02089,138,7721
116.4613,40.00418,139,7721
116.38793,39.9719,140,7721
116.34096,39.95687,141,7721
116.32726,39.97517,142,7721
116.41421,39.98737,143,7721
116.47659,40.04881,144,7721
116.54344,40.06592,145,7721
116.55264,40.08507,146,7721
116.5982,40.147,147,7721
116.63638,40.2107,148,7721
116.63662,40.28839,149,7721
116.7187,40.3272,150,7721
116.8191,40.36632,151,7721
116.84247,40.38118,152,7721
116.8416,40.38086,153,7721
