x,y,k,tid
116.44363,39.82547,0,7815
116.44363,39.82547,1,7815
116.44363,39.82547,2,7815
116.44363,39.82547,3,7815
116.44363,39.82547,4,7815
116.44363,39.82547,5,7815
116.44363,39.82547,6,7815
116.44368,39.82538,7,7815
116.44365,39.82544,8,7815
116.44386,39.82596,9,7815
116.43597,39.84461,10,7815
116.42761,39.84717,11,7815
116.42758,39.84808,12,7815
116.42454,39.86385,13,7815
116.42712,39.86454,14,7815
116.43183,39.86457,15,7815
116.4333,39.87024,16,7815
116.43351,39.87424,17,7815
116.41463,39.88303,18,7815
116.41243,39.89735,19,7815
116.41201,39.90652,20,7815
116.41168,39.91092,21,7815
116.39338,39.92447,22,7815
116.36754,39.91495,23,7815
116.35447,39.92231,24,7815
116.36697,39.92264,25,7815
116.37269,39.93144,26,7815
116.39645,39.93946,27,7815
116.39768,39.93938,28,7815
116.41158,39.97345,29,7815
116.41121,39.98124,30,7815
116.61141,40.11639,31,7815
116.61516,40.11635,32,7815
116.65318,40.11027,33,7815
116.66148,40.10734,34,7815
116.66148,40.10734,35,7815
116.66148,40.10733,36,7815
116.66149,40.10734,37,7815
116.66149,40.10734,38,7815
116.66149,40.10733,39,7815
116.66326,40.11418,40,7815
116.6637,40.11501,41,7815
116.5834,40.1169,42,7815
116.56637,40.07125,43,7815
116.56634,40.0712,44,7815
116.56633,40.07119,45,7815
116.56633,40.07119,46,7815
116.56632,40.07119,47,7815
116.56632,40.07119,48,7815
116.56631,40.07118,49,7815
116.56631,40.07118,50,7815
116.56414,40.0707,51,7815
116.56642,40.06404,52,7815
116.57294,40.06322,53,7815
116.57294,40.06322,54,7815
116.57822,40.06268,55,7815
116.57821,40.06269,56,7815
116.5782,40.06268,57,7815
116.57818,40.06268,58,7815
116.57819,40.06272,59,7815
116.58258,40.06248,60,7815
116.58176,40.06779,61,7815
116.58137,40.07038,62,7815
116.58137,40.07036,63,7815
116.58134,40.07098,64,7815
116.58233,40.07455,65,7815
116.5845,40.07649,66,7815
116.58478,40.07652,67,7815
116.58214,40.07423,68,7815
116.56988,40.03749,69,7815
116.50113,40.00407,70,7815
116.42692,39.97272,71,7815
116.42263,39.96832,72,7815
116.40589,39.9677,73,7815
116.30383,39.94367,74,7815
116.30396,39.93285,75,7815
116.30409,39.92218,76,7815
116.30414,39.91348,77,7815
116.33753,39.96632,78,7815
116.26532,39.88099,79,7815
116.26945,39.87913,80,7815
116.27037,39.89657,81,7815
116.29414,39.92243,82,7815
116.29529,39.92246,83,7815
116.31463,39.92693,84,7815
116.32524,39.92689,85,7815
116.36559,39.94819,86,7815
116.37001,39.94719,87,7815
116.38991,39.9501,88,7815
116.39077,39.95002,89,7815
116.34681,39.99914,90,7815
116.34603,40.01421,91,7815
116.34679,40.01455,92,7815
116.34584,40.01128,93,7815
116.34694,39.9897,94,7815
116.30023,39.98409,95,7815
116.29999,39.97457,96,7815
116.30086,39.96959,97,7815
116.301,39.96953,98,7815
116.30091,39.97087,99,7815
116.30342,39.98374,100,7815
116.34658,39.98519,101,7815
116.34678,39.9993,102,7815
116.34604,40.0117,103,7815
116.34584,40.01087,104,7815
116.3471,39.98733,105,7815
116.34735,39.98412,106,7815
116.35864,39.97524,107,7815
116.36368,39.97541,108,7815
116.3743,39.96557,109,7815
116.37454,39.96728,110,7815
116.33133,39.96633,111,7815
116.29621,39.96311,112,7815
116.29026,39.96245,113,7815
116.29621,39.96496,114,7815
116.62533,40.31014,115,7815
116.62506,40.31093,116,7815
116.63624,40.29965,117,7815
116.55543,40.07044,118,7815
116.55655,40.07041,119,7815
116.58327,40.05725,120,7815
116.58524,40.05497,121,7815
116.5818,40.05896,122,7815
116.58053,40.05963,123,7815
116.58214,40.06511,124,7815
116.58042,40.07591,125,7815
116.58641,40.07719,126,7815
116.57999,40.07883,127,7815
116.58192,40.09211,128,7815
116.61048,40.11655,129,7815
116.65715,40.11587,130,7815
116.60866,40.11664,131,7815
116.5926,40.11692,132,7815
116.5809,40.07212,133,7815
116.58109,40.07096,134,7815
116.58046,40.05964,135,7815
116.56675,40.07069,136,7815
116.56239,40.07001,137,7815
116.56732,40.06371,138,7815
116.58285,40.06009,139,7815
116.58289,40.06009,140,7815
116.58268,40.0627,141,7815
116.58268,40.0627,142,7815
116.58268,40.0627,143,7815
116.58269,40.0627,144,7815
116.5827,40.06264,145,7815
116.5827,40.06262,146,7815
116.58258,40.06276,147,7815
116.58258,40.06276,148,7815
116.5827,40.06316,149,7815
116.58267,40.06318,150,7815
116.58265,40.0632,151,7815
116.58263,40.0632,152,7815
116.58262,40.0632,153,7815
116.5824,40.06422,154,7815
116.58238,40.06418,155,7815
116.58242,40.06408,156,7815
116.58225,40.06528,157,7815
116.58341,40.07571,158,7815
116.58339,40.07581,159,7815
116.58342,40.0758,160,7815
116.58342,40.0758,161,7815
116.58532,40.07676,162,7815
116.40429,39.98712,163,7815
116.34577,39.97527,164,7815
116.33873,39.9756,165,7815
116.3469,39.96894,166,7815
116.34892,39.95089,167,7815
116.38656,39.94993,168,7815
116.39712,39.9501,169,7815
116.38913,39.95135,170,7815
116.38913,39.95135,171,7815
116.42749,39.943,172,7815
116.42064,39.91429,173,7815
116.4184,39.90377,174,7815
116.42104,39.90696,175,7815
116.44372,39.93988,176,7815
116.45456,39.96207,177,7815
116.57113,40.03896,178,7815
116.58665,40.07858,179,7815
116.58667,40.0786,180,7815
116.5816,40.06796,181,7815
116.56995,40.06356,182,7815
116.56286,40.06822,183,7815
116.56502,40.07097,184,7815
116.56498,40.07096,185,7815
116.56498,40.07097,186,7815
116.56498,40.07097,187,7815
116.565,40.07094,188,7815
116.56508,40.07088,189,7815
116.56494,40.07095,190,7815
116.56492,40.07088,191,7815
116.56494,40.0709,192,7815
116.56494,40.07091,193,7815
116.56495,40.07092,194,7815
116.56496,40.07093,195,7815
116.56496,40.07094,196,7815
116.56496,40.07095,197,7815
116.56497,40.07096,198,7815
116.56497,40.07096,199,7815
116.56497,40.07096,200,7815
116.56497,40.07096,201,7815
116.56497,40.07096,202,7815
116.56497,40.07097,203,7815
116.56497,40.07097,204,7815
116.56497,40.07097,205,7815
116.56497,40.07097,206,7815
116.56497,40.07097,207,7815
116.56497,40.07097,208,7815
116.56497,40.07098,209,7815
116.56497,40.07098,210,7815
116.56497,40.07098,211,7815
116.56497,40.07098,212,7815
116.56227,40.06976,213,7815
116.57658,40.06275,214,7815
116.58163,40.06876,215,7815
116.58125,40.0713,216,7815
116.58185,40.07574,217,7815
116.58543,40.07665,218,7815
116.58732,40.07727,219,7815
116.58014,40.07928,220,7815
116.57998,40.07861,221,7815
116.57011,40.06342,222,7815
116.56316,40.06995,223,7815
116.58111,40.06227,224,7815
116.58734,40.0772,225,7815
116.5667,40.07126,226,7815
116.57807,40.04607,227,7815
116.57406,40.04235,228,7815
116.50459,40.00731,229,7815
116.4575,39.97403,230,7815
116.40059,39.98713,231,7815
116.33063,39.99716,232,7815
116.33171,39.99873,233,7815
116.33171,39.99873,234,7815
116.33374,39.99955,235,7815
116.34731,39.98607,236,7815
116.35882,39.98579,237,7815
116.41809,39.98745,238,7815
116.45375,40.01378,239,7815
116.62297,40.11638,240,7815
116.72646,40.19792,241,7815
116.72646,40.19793,242,7815
116.72193,40.19877,243,7815
116.72383,40.19811,244,7815
116.72378,40.19817,245,7815
116.61484,40.11697,246,7815
116.61474,40.11708,247,7815
116.5825,40.11699,248,7815
116.5825,40.11699,249,7815
116.5412,40.05716,250,7815
116.50538,40.00964,251,7815
116.50103,40.00582,252,7815
116.48356,39.97896,253,7815
116.49021,39.97064,254,7815
116.48262,39.97005,255,7815
116.4791,39.96995,256,7815
116.46152,39.95713,257,7815
116.45521,39.94809,258,7815
116.44429,39.9445,259,7815
116.45544,39.92413,260,7815
116.47163,39.90606,261,7815
116.47147,39.90256,262,7815
116.47189,39.9076,263,7815
116.4349,39.91337,264,7815
116.43267,39.91926,265,7815
116.42926,39.92323,266,7815
116.41942,39.94633,267,7815
116.41485,39.94808,268,7815
116.35394,39.95598,269,7815
116.34305,39.9567,270,7815
116.34497,39.95462,271,7815
116.34628,39.95706,272,7815
116.35412,39.95179,273,7815
116.36578,39.94749,274,7815
116.42388,39.93248,275,7815
116.42388,39.93248,276,7815
116.42703,39.93956,277,7815
116.45594,39.94639,278,7815
116.46997,39.95255,279,7815
116.67247,40.11706,280,7815
116.46022,39.95252,281,7815
116.46314,39.94168,282,7815
116.47201,39.92211,283,7815
116.47302,39.91483,284,7815
116.47353,39.90667,285,7815
116.46119,39.91214,286,7815
116.44087,39.91633,287,7815
116.45736,39.90693,288,7815
116.48871,39.92165,289,7815
116.51149,39.9373,290,7815
116.51982,39.96567,291,7815
116.51594,40.01596,292,7815
116.56674,40.07072,293,7815
116.56503,40.07177,294,7815
116.56501,40.07177,295,7815
116.56498,40.07177,296,7815
116.56498,40.07177,297,7815
116.56498,40.07178,298,7815
116.56499,40.07179,299,7815
116.565,40.0718,300,7815
116.565,40.07181,301,7815
116.565,40.07181,302,7815
116.565,40.07181,303,7815
116.56495,40.07187,304,7815
116.56498,40.0718,305,7815
116.56501,40.0718,306,7815
116.5636,40.06448,307,7815
116.5762,40.0628,308,7815
116.5762,40.06275,309,7815
116.57618,40.06272,310,7815
116.57606,40.06243,311,7815
116.58247,40.06211,312,7815
116.58181,40.06797,313,7815
116.58131,40.07112,314,7815
116.58051,40.0762,315,7815
116.5805,40.07622,316,7815
116.58205,40.07498,317,7815
116.58206,40.07496,318,7815
116.58206,40.07494,319,7815
116.5875,40.07734,320,7815
116.58228,40.0752,321,7815
116.5823,40.04992,322,7815
116.52338,40.01879,323,7815
116.52338,40.01879,324,7815
116.46705,39.97361,325,7815
116.46583,39.95123,326,7815
116.46726,39.95069,327,7815
116.45576,39.95027,328,7815
116.41168,39.96778,329,7815
116.37285,39.98442,330,7815
116.36598,40.01219,331,7815
116.37423,39.99922,332,7815
116.3625,39.98602,333,7815
116.2038,39.99202,334,7815
116.19683,39.98992,335,7815
116.20087,39.98067,336,7815
116.20093,39.97954,337,7815
116.20753,39.95435,338,7815
116.19488,39.94274,339,7815
116.17482,39.93915,340,7815
116.16297,39.92925,341,7815
116.17311,39.92465,342,7815
116.19181,39.92405,343,7815
116.19181,39.92405,344,7815
116.23279,39.92447,345,7815
116.30466,39.92268,346,7815
116.30282,39.95717,347,7815
116.34703,39.96615,348,7815
116.3638,39.97492,349,7815
116.38761,39.98655,350,7815
116.42338,39.98744,351,7815
116.46919,39.97622,352,7815
116.55499,40.0988,353,7815
116.55547,40.10183,354,7815
116.59468,40.11673,355,7815
116.628,40.11633,356,7815
116.6131,40.11655,357,7815
116.55911,40.11315,358,7815
116.52064,40.09657,359,7815
116.46813,40.08647,360,7815
116.43167,40.07454,361,7815
116.41483,40.06029,362,7815
116.41483,40.06029,363,7815
116.41176,40.0263,364,7815
116.41135,40.01912,365,7815
116.4115,39.9999,366,7815
116.43505,39.96491,367,7815
116.44992,39.95512,368,7815
116.45364,39.95261,369,7815
116.46279,39.94415,370,7815
116.46285,39.94366,371,7815
116.46803,39.93141,372,7815
116.49799,39.9306,373,7815
116.49603,39.9356,374,7815
116.47249,39.90715,375,7815
116.45497,39.878,376,7815
116.4089,39.85596,377,7815
116.41596,39.84451,378,7815
116.41636,39.84246,379,7815
116.45543,39.88902,380,7815
116.4556,39.89125,381,7815
116.47121,39.89134,382,7815
116.47112,39.88882,383,7815
116.50857,39.86877,384,7815
116.51307,39.86937,385,7815
116.51306,39.86938,386,7815
116.49058,39.87805,387,7815
116.48376,39.89709,388,7815
116.47517,39.95394,389,7815
116.48519,39.95805,390,7815
116.51242,39.9748,391,7815
116.49361,39.97065,392,7815
116.45422,39.95337,393,7815
116.45422,39.95337,394,7815
116.45401,39.95425,395,7815
116.4278,39.94444,396,7815
116.42454,39.94913,397,7815
116.41865,39.94808,398,7815
116.39164,39.95012,399,7815
116.39017,39.94978,400,7815
116.40445,39.94782,401,7815
116.40211,39.96074,402,7815
116.42685,39.94793,403,7815
116.4135,39.94854,404,7815
116.40076,39.94733,405,7815
116.40125,39.98094,406,7815
116.40125,39.98094,407,7815
116.40515,39.99027,408,7815
116.40744,39.98981,409,7815
116.40251,39.99061,410,7815
116.41805,39.97959,411,7815
116.41834,39.97119,412,7815
116.42076,39.95818,413,7815
116.44315,39.95298,414,7815
116.45636,39.96466,415,7815
116.48823,39.9935,416,7815
116.58108,40.07184,417,7815
116.58014,40.07748,418,7815
116.58086,40.10258,419,7815
116.6238,40.11644,420,7815
116.66756,40.11465,421,7815
116.69541,40.13815,422,7815
116.71727,40.18005,423,7815
116.6631,40.11545,424,7815
116.63567,40.11626,425,7815
116.6145,40.11645,426,7815
116.52014,40.02854,427,7815
116.51041,40.02311,428,7815
116.48512,40.02106,429,7815
116.46066,40.02032,430,7815
116.45663,39.99909,431,7815
116.45908,39.98354,432,7815
116.44572,39.9726,433,7815
116.41168,39.97359,434,7815
116.44661,39.98069,435,7815
116.45662,39.9885,436,7815
116.45662,39.9885,437,7815
116.45748,39.99971,438,7815
116.45761,39.99977,439,7815
116.46199,40.00079,440,7815
116.45656,39.99417,441,7815
116.44918,39.98,442,7815
116.41117,39.94986,443,7815
116.41246,39.94778,444,7815
116.43785,39.93953,445,7815
116.45607,39.93244,446,7815
116.45526,39.91852,447,7815
116.45526,39.91852,448,7815
116.43055,39.90742,449,7815
116.42121,39.90495,450,7815
116.42055,39.90393,451,7815
116.40595,39.89973,452,7815
116.38413,39.89899,453,7815
116.37631,39.89869,454,7815
116.35353,39.8986,455,7815
116.35001,39.92568,456,7815
116.34884,39.96001,457,7815
116.30369,39.96199,458,7815
116.2867,39.99908,459,7815
116.27445,39.98954,460,7815
116.27445,39.98954,461,7815
116.27445,39.98954,462,7815
116.27445,39.98954,463,7815
116.29348,39.98536,464,7815
116.29982,39.9795,465,7815
116.30161,39.96103,466,7815
116.30411,39.92865,467,7815
116.31389,39.90608,468,7815
116.32488,39.90314,469,7815
116.33389,39.91271,470,7815
116.34727,39.91722,471,7815
116.36697,39.92257,472,7815
116.38644,39.93209,473,7815
116.38849,39.93197,474,7815
116.40037,39.91857,475,7815
116.41169,39.91151,476,7815
116.42027,39.92159,477,7815
116.42719,39.93287,478,7815
116.41955,39.94058,479,7815
116.41912,39.95543,480,7815
116.43837,39.95944,481,7815
116.44255,39.97081,482,7815
116.44167,39.97146,483,7815
116.42979,39.95832,484,7815
116.42607,39.95193,485,7815
116.4266,39.94119,486,7815
116.45522,39.92286,487,7815
116.45522,39.92286,488,7815
116.45782,39.92194,489,7815
116.47196,39.91016,490,7815
116.47169,39.91007,491,7815
116.45554,39.91772,492,7815
116.44407,39.92567,493,7815
116.43524,39.92656,494,7815
116.3961,39.96861,495,7815
116.39513,39.96812,496,7815
116.39954,39.97122,497,7815
116.40168,39.95781,498,7815
116.40168,39.95781,499,7815
