x,y,k,tid
116.36816,39.89682,0,8121
116.36331,39.88812,1,8121
116.36621,39.8875,2,8121
116.36805,39.88134,3,8121
116.36785,39.87519,4,8121
116.36549,39.86935,5,8121
116.33079,39.86684,6,8121
116.31278,39.86673,7,8121
116.31335,39.86631,8,8121
116.3304,39.86657,9,8121
116.35822,39.86591,10,8121
116.34447,39.87526,11,8121
116.34143,39.85893,12,8121
116.28543,39.83048,13,8121
116.27556,39.82401,14,8121
116.27568,39.82361,15,8121
116.2769,39.82987,16,8121
116.28914,39.83576,17,8121
116.27794,39.8457,18,8121
116.27749,39.86003,19,8121
116.27749,39.86003,20,8121
116.294,39.86508,21,8121
116.32944,39.86673,22,8121
116.36746,39.86868,23,8121
116.36822,39.87701,24,8121
116.35759,39.88164,25,8121
116.34498,39.88209,26,8121
116.34301,39.89597,27,8121
116.35043,39.91425,28,8121
116.34994,39.92799,29,8121
116.36206,39.94594,30,8121
116.36548,39.94673,31,8121
116.39037,39.94753,32,8121
116.4093,39.94772,33,8121
116.40195,39.95297,34,8121
116.40189,39.9566,35,8121
116.38576,39.98112,36,8121
116.37566,39.98103,37,8121
116.38157,39.97706,38,8121
116.36729,39.97545,39,8121
116.36425,39.97546,40,8121
116.35565,39.95683,41,8121
116.35565,39.95683,42,8121
116.33987,39.97274,43,8121
116.33542,39.96656,44,8121
116.34789,39.97515,45,8121
116.35494,39.98027,46,8121
116.36362,39.97435,47,8121
116.37291,39.95089,48,8121
116.38556,39.95007,49,8121
116.40198,39.95184,50,8121
116.40346,39.95563,51,8121
116.40335,39.95565,52,8121
116.40328,39.95568,53,8121
116.40323,39.9557,54,8121
116.40308,39.95571,55,8121
116.40185,39.95049,56,8121
116.38809,39.9477,57,8121
116.37918,39.94769,58,8121
116.37284,39.94723,59,8121
116.37376,39.93192,60,8121
116.37195,39.9212,61,8121
116.36921,39.91331,62,8121
116.36921,39.91331,63,8121
116.35775,39.91268,64,8121
116.35703,39.90337,65,8121
116.35706,39.9005,66,8121
116.35717,39.89927,67,8121
116.35734,39.89213,68,8121
116.36152,39.8928,69,8121
116.36809,39.88264,70,8121
116.36805,39.86985,71,8121
116.38016,39.86348,72,8121
116.37757,39.85903,73,8121
116.33725,39.84791,74,8121
116.32019,39.84642,75,8121
116.31001,39.85044,76,8121
116.31054,39.84885,77,8121
116.32016,39.8473,78,8121
116.313,39.85457,79,8121
116.30769,39.86756,80,8121
116.30742,39.89563,81,8121
116.35072,39.89891,82,8121
116.35486,39.91222,83,8121
116.35688,39.90639,84,8121
116.34109,39.90602,85,8121
116.31919,39.90619,86,8121
116.30013,39.90626,87,8121
116.30013,39.90626,88,8121
116.29625,39.90642,89,8121
116.27832,39.90636,90,8121
116.27897,39.92254,91,8121
116.28329,39.93077,92,8121
116.29519,39.92736,93,8121
116.30381,39.92559,94,8121
116.28942,39.91744,95,8121
116.29223,39.92256,96,8121
116.30388,39.91467,97,8121
116.30337,39.90767,98,8121
116.28503,39.90643,99,8121
116.26936,39.92029,100,8121
116.26003,39.9233,101,8121
116.24784,39.92449,102,8121
116.24644,39.92848,103,8121
116.25084,39.94561,104,8121
116.27411,39.95031,105,8121
116.29246,39.95775,106,8121
116.30181,39.95249,107,8121
116.30295,39.95252,108,8121
116.30401,39.92749,109,8121
116.30401,39.89571,110,8121
116.34214,39.88995,111,8121
116.32838,39.89122,112,8121
116.32193,39.88871,113,8121
116.32193,39.88871,114,8121
116.32083,39.88869,115,8121
116.32039,39.8857,116,8121
116.32611,39.88259,117,8121
116.35197,39.888,118,8121
116.40908,39.89146,119,8121
116.39649,39.91946,120,8121
116.41389,39.92304,121,8121
116.37565,39.94778,122,8121
116.37098,39.96146,123,8121
116.35,39.94325,124,8121
116.33913,39.91707,125,8121
116.33913,39.91707,126,8121
116.32901,39.90863,127,8121
116.3185,39.8831,128,8121
116.32032,39.88839,129,8121
116.30514,39.87508,130,8121
116.33121,39.87433,131,8121
116.32075,39.87608,132,8121
116.33027,39.88376,133,8121
116.32972,39.88814,134,8121
116.32962,39.88808,135,8121
116.30702,39.8846,136,8121
116.31016,39.88591,137,8121
116.30927,39.8857,138,8121
116.25327,39.86525,139,8121
116.2049,39.83989,140,8121
116.18615,39.78469,141,8121
116.13842,39.75583,142,8121
116.13842,39.75583,143,8121
116.13842,39.75583,144,8121
116.02219,39.70599,145,8121
115.99151,39.69847,146,8121
115.9777,39.66793,147,8121
115.98024,39.62072,148,8121
115.98525,39.61982,149,8121
115.98526,39.61979,150,8121
115.98526,39.61979,151,8121
115.98526,39.61979,152,8121
115.98526,39.61979,153,8121
115.98526,39.61979,154,8121
115.98526,39.61979,155,8121
115.98526,39.61979,156,8121
115.98526,39.61979,157,8121
115.98526,39.61979,158,8121
115.98807,39.61984,159,8121
115.9749,39.6544,160,8121
115.98609,39.69664,161,8121
116.03209,39.70841,162,8121
116.1359,39.74603,163,8121
116.15777,39.77387,164,8121
116.20396,39.81458,165,8121
116.23131,39.85119,166,8121
116.3127,39.88753,167,8121
116.31029,39.88662,168,8121
116.31073,39.87622,169,8121
116.31073,39.87622,170,8121
116.31073,39.87622,171,8121
116.32812,39.88674,172,8121
116.31971,39.8832,173,8121
116.30982,39.88115,174,8121
116.31054,39.87615,175,8121
116.31502,39.88377,176,8121
116.32699,39.8957,177,8121
116.36657,39.89829,178,8121
116.37607,39.89842,179,8121
116.41585,39.90685,180,8121
116.428,39.90699,181,8121
116.43464,39.91189,182,8121
116.44788,39.91197,183,8121
116.45533,39.9117,184,8121
116.45501,39.89763,185,8121
116.44812,39.89763,186,8121
116.44816,39.89762,187,8121
116.46822,39.90737,188,8121
116.46326,39.91172,189,8121
116.45918,39.9122,190,8121
116.4591,39.91226,191,8121
116.4591,39.91226,192,8121
116.46786,39.91231,193,8121
116.4595,39.90735,194,8121
116.45553,39.91736,195,8121
116.45591,39.94701,196,8121
116.46244,39.9471,197,8121
116.4659,39.94369,198,8121
116.47325,39.9536,199,8121
116.45002,39.97881,200,8121
116.41142,39.98767,201,8121
116.41159,39.99924,202,8121
116.41047,40.00743,203,8121
116.39755,40.00388,204,8121
116.39794,40.00264,205,8121
116.4011,40.00018,206,8121
116.40146,39.99392,207,8121
116.40114,39.97455,208,8121
116.40172,39.95883,209,8121
116.40118,39.90671,210,8121
116.40682,39.91412,211,8121
116.41989,39.91423,212,8121
116.43258,39.90625,213,8121
116.44968,39.90697,214,8121
116.44968,39.90697,215,8121
116.45484,39.87236,216,8121
116.47008,39.84046,217,8121
116.44274,39.83287,218,8121
116.44237,39.8312,219,8121
116.44895,39.8153,220,8121
116.4471,39.7991,221,8121
116.45361,39.79945,222,8121
116.44517,39.80234,223,8121
116.43979,39.8042,224,8121
116.42021,39.80235,225,8121
116.41233,39.80163,226,8121
116.39643,39.80963,227,8121
116.39587,39.81816,228,8121
116.40174,39.85559,229,8121
116.4154,39.86396,230,8121
116.41164,39.88761,231,8121
116.41149,39.88654,232,8121
116.4058,39.89889,233,8121
116.40525,39.90636,234,8121
116.40538,39.90844,235,8121
116.41157,39.90719,236,8121
116.4121,39.90117,237,8121
116.41244,39.89322,238,8121
116.41244,39.89322,239,8121
116.42501,39.88301,240,8121
116.41455,39.88386,241,8121
116.40911,39.8923,242,8121
116.41254,39.89267,243,8121
116.39424,39.88539,244,8121
116.39436,39.87547,245,8121
116.39436,39.87548,246,8121
116.39436,39.87548,247,8121
116.38015,39.87061,248,8121
116.36823,39.87681,249,8121
116.35506,39.87991,250,8121
116.34725,39.88607,251,8121
116.34348,39.89632,252,8121
116.35048,39.90508,253,8121
116.35365,39.91295,254,8121
116.35535,39.91274,255,8121
116.35112,39.91243,256,8121
116.35032,39.91014,257,8121
116.35052,39.89973,258,8121
116.34258,39.86924,259,8121
116.34258,39.86924,260,8121
116.34258,39.86924,261,8121
116.38663,39.87005,262,8121
116.41677,39.86994,263,8121
116.44197,39.88315,264,8121
116.44197,39.88315,265,8121
116.4482,39.88295,266,8121
116.44985,39.87799,267,8121
116.44464,39.87967,268,8121
116.44475,39.88042,269,8121
116.44466,39.8804,270,8121
116.44466,39.8804,271,8121
116.44466,39.8804,272,8121
116.44466,39.8804,273,8121
116.44468,39.88239,274,8121
116.45571,39.91036,275,8121
116.45559,39.92359,276,8121
116.45843,39.92747,277,8121
116.45843,39.92747,278,8121
116.45603,39.92211,279,8121
116.44528,39.9217,280,8121
116.43668,39.92554,281,8121
116.44345,39.93229,282,8121
116.45484,39.93234,283,8121
116.46082,39.93147,284,8121
116.4588,39.92766,285,8121
116.4588,39.92766,286,8121
116.45881,39.92767,287,8121
116.45579,39.92757,288,8121
116.45536,39.91614,289,8121
116.43407,39.90721,290,8121
116.4206,39.90845,291,8121
116.42054,39.90525,292,8121
116.42049,39.90433,293,8121
116.42042,39.90427,294,8121
116.42042,39.90403,295,8121
116.41429,39.90043,296,8121
116.41377,39.9002,297,8121
116.40622,39.8996,298,8121
116.39289,39.89884,299,8121
116.38085,39.89886,300,8121
116.375,39.89871,301,8121
116.37074,39.89855,302,8121
116.36749,39.89845,303,8121
116.36749,39.89845,304,8121
116.36066,39.89831,305,8121
116.34158,39.89652,306,8121
116.32284,39.89581,307,8121
116.30678,39.89584,308,8121
116.27815,39.89602,309,8121
116.2638,39.90202,310,8121
116.21672,39.90252,311,8121
116.23033,39.91568,312,8121
116.24645,39.92424,313,8121
116.26819,39.93794,314,8121
116.29535,39.98372,315,8121
116.35924,39.98474,316,8121
116.35948,39.97613,317,8121
116.37085,39.97911,318,8121
116.37369,39.97527,319,8121
116.37437,39.94719,320,8121
116.4097,39.94766,321,8121
116.40983,39.94903,322,8121
116.41913,39.94787,323,8121
116.40988,39.9396,324,8121
116.41954,39.93341,325,8121
116.41954,39.93341,326,8121
116.42021,39.91741,327,8121
116.42056,39.90523,328,8121
116.41846,39.90413,329,8121
116.44107,39.90705,330,8121
116.45722,39.92749,331,8121
116.45561,39.93894,332,8121
116.42332,39.96814,333,8121
116.40018,39.96556,334,8121
116.39875,39.96618,335,8121
116.40125,39.96703,336,8121
116.41158,39.97436,337,8121
116.41266,39.98436,338,8121
116.41177,39.98203,339,8121
116.41835,39.9733,340,8121
116.4498,39.95513,341,8121
116.44769,39.95698,342,8121
116.43197,39.96092,343,8121
116.4361,39.96406,344,8121
116.44823,39.95019,345,8121
116.4458,39.95175,346,8121
116.4457,39.95171,347,8121
116.4457,39.95171,348,8121
116.4457,39.95171,349,8121
116.4457,39.95171,350,8121
116.4457,39.95171,351,8121
116.4457,39.95171,352,8121
116.4457,39.95171,353,8121
116.44591,39.95179,354,8121
116.44921,39.94719,355,8121
116.4323,39.93983,356,8121
116.41473,39.93965,357,8121
116.41172,39.93962,358,8121
116.4172,39.93965,359,8121
116.41085,39.93255,360,8121
116.40465,39.91999,361,8121
116.40785,39.90923,362,8121
116.40522,39.90911,363,8121
116.40549,39.89995,364,8121
116.4069,39.89177,365,8121
116.38756,39.88889,366,8121
116.38509,39.88214,367,8121
116.36644,39.87715,368,8121
116.35788,39.87453,369,8121
116.34741,39.88241,370,8121
116.34491,39.88846,371,8121
116.32031,39.88582,372,8121
116.32031,39.88582,373,8121
116.32035,39.88578,374,8121
116.32603,39.8832,375,8121
116.32037,39.88588,376,8121
116.32011,39.88582,377,8121
116.31497,39.89203,378,8121
116.34262,39.88005,379,8121
116.33748,39.82859,380,8121
116.32034,39.82706,381,8121
116.34013,39.8468,382,8121
116.33523,39.87201,383,8121
116.32191,39.88677,384,8121
116.32974,39.88811,385,8121
116.32017,39.88865,386,8121
116.31284,39.88763,387,8121
116.31289,39.88768,388,8121
116.31289,39.88768,389,8121
116.31289,39.88768,390,8121
116.31289,39.88768,391,8121
116.31289,39.88768,392,8121
116.31289,39.88768,393,8121
116.31289,39.88768,394,8121
116.31289,39.88768,395,8121
116.31289,39.88768,396,8121
116.31289,39.88768,397,8121
116.31289,39.88768,398,8121
116.31289,39.88768,399,8121
116.31289,39.88768,400,8121
116.31289,39.88768,401,8121
116.31289,39.88768,402,8121
116.31289,39.88768,403,8121
116.31289,39.88768,404,8121
116.31289,39.88768,405,8121
116.31289,39.88768,406,8121
116.31289,39.88768,407,8121
116.31289,39.88768,408,8121
116.31289,39.88768,409,8121
116.31289,39.88768,410,8121
116.31289,39.88768,411,8121
116.31289,39.88768,412,8121
116.31289,39.88768,413,8121
116.31289,39.88768,414,8121
116.31289,39.88768,415,8121
116.31289,39.88768,416,8121
116.31289,39.88768,417,8121
116.31289,39.88768,418,8121
116.31289,39.88768,419,8121
116.31289,39.88768,420,8121
116.31289,39.88768,421,8121
116.31289,39.88768,422,8121
116.31289,39.88768,423,8121
116.31289,39.88768,424,8121
116.31289,39.88768,425,8121
116.31289,39.88768,426,8121
116.31289,39.88768,427,8121
116.31289,39.88768,428,8121
116.31289,39.88768,429,8121
116.31289,39.88768,430,8121
116.31289,39.88768,431,8121
116.31289,39.88768,432,8121
116.31289,39.88768,433,8121
116.31289,39.88768,434,8121
116.31283,39.88772,435,8121
116.31283,39.88772,436,8121
116.31284,39.88772,437,8121
116.30457,39.88628,438,8121
116.30509,39.89644,439,8121
116.29603,39.89723,440,8121
116.29603,39.89723,441,8121
116.29601,39.89724,442,8121
116.29607,39.8973,443,8121
116.29606,39.90567,444,8121
116.31552,39.89902,445,8121
116.32769,39.89726,446,8121
116.35374,39.89788,447,8121
116.38354,39.89882,448,8121
116.40531,39.89944,449,8121
116.43154,39.89951,450,8121
116.47148,39.9031,451,8121
116.46831,39.89581,452,8121
116.4521,39.89314,453,8121
116.45592,39.9029,454,8121
116.4466,39.91028,455,8121
116.44556,39.91197,456,8121
116.45511,39.89891,457,8121
116.44919,39.87023,458,8121
116.44466,39.87433,459,8121
116.44001,39.88333,460,8121
116.43336,39.87137,461,8121
116.3701,39.86912,462,8121
116.34957,39.86835,463,8121
116.34224,39.86631,464,8121
116.32458,39.8294,465,8121
116.28374,39.82643,466,8121
116.28693,39.80709,467,8121
116.28082,39.79198,468,8121
116.28229,39.79929,469,8121
116.28422,39.8187,470,8121
116.27777,39.84512,471,8121
116.26802,39.89507,472,8121
116.26851,39.94397,473,8121
116.29217,39.98269,474,8121
116.28289,40.00233,475,8121
116.26866,40.02886,476,8121
116.25221,40.0459,477,8121
116.25221,40.0459,478,8121
116.23859,40.07156,479,8121
116.24092,40.08096,480,8121
116.2589,40.07998,481,8121
116.26414,40.07324,482,8121
116.29169,40.06476,483,8121
116.3077,40.03746,484,8121
116.30678,40.02835,485,8121
116.30678,40.02835,486,8121
116.33103,39.99784,487,8121
116.42598,39.95629,488,8121
116.42598,39.95629,489,8121
116.42598,39.95629,490,8121
116.32673,39.97521,491,8121
116.31207,39.97472,492,8121
116.31637,39.96132,493,8121
116.31148,39.9469,494,8121
116.31821,39.94675,495,8121
116.31666,39.94513,496,8121
116.31666,39.94513,497,8121
116.3165,39.94519,498,8121
116.31142,39.94481,499,8121
116.31118,39.94681,500,8121
116.30317,39.95115,501,8121
116.30404,39.92948,502,8121
116.30413,39.90978,503,8121
116.30417,39.89144,504,8121
116.30691,39.86424,505,8121
116.33245,39.867,506,8121
116.32201,39.8713,507,8121
116.32218,39.86844,508,8121
116.29558,39.86553,509,8121
116.28288,39.86471,510,8121
116.27662,39.85459,511,8121
116.27662,39.85459,512,8121
116.28702,39.84039,513,8121
116.29191,39.84081,514,8121
116.28529,39.84229,515,8121
116.28184,39.83984,516,8121
116.27722,39.85769,517,8121
116.28064,39.8682,518,8121
116.29916,39.88084,519,8121
116.31962,39.88865,520,8121
116.35282,39.888,521,8121
116.37738,39.88799,522,8121
116.40269,39.89128,523,8121
116.41254,39.89884,524,8121
116.41825,39.90546,525,8121
116.41616,39.90201,526,8121
116.41944,39.90697,527,8121
116.45504,39.91433,528,8121
116.4522,39.91361,529,8121
116.45181,39.91846,530,8121
116.44047,39.92191,531,8121
116.44413,39.91236,532,8121
116.45478,39.90541,533,8121
116.44938,39.89239,534,8121
116.42122,39.8976,535,8121
116.41596,39.90012,536,8121
116.42117,39.90541,537,8121
116.42758,39.94101,538,8121
116.38834,39.94761,539,8121
116.36478,39.94712,540,8121
116.35135,39.94294,541,8121
116.31561,39.93782,542,8121
116.27587,39.94533,543,8121
116.25046,39.9458,544,8121
116.22661,39.94677,545,8121
116.22533,39.9436,546,8121
116.222,39.94474,547,8121
116.22542,39.93378,548,8121
116.22711,39.93322,549,8121
116.22711,39.93322,550,8121
116.22711,39.93322,551,8121
116.22711,39.93322,552,8121
116.23209,39.93248,553,8121
116.24336,39.92848,554,8121
116.24688,39.92202,555,8121
116.23093,39.91576,556,8121
116.23295,39.92364,557,8121
116.22171,39.92374,558,8121
116.20543,39.94002,559,8121
116.1942,39.94121,560,8121
116.17722,39.93401,561,8121
116.17473,39.93315,562,8121
116.16303,39.9312,563,8121
116.14248,39.93725,564,8121
116.13285,39.93617,565,8121
116.13152,39.93527,566,8121
116.13148,39.93521,567,8121
116.13148,39.93521,568,8121
116.13148,39.93521,569,8121
116.13148,39.93521,570,8121
116.13148,39.93521,571,8121
116.13148,39.93521,572,8121
116.13148,39.93521,573,8121
116.13148,39.93521,574,8121
116.13148,39.93521,575,8121
116.13148,39.93521,576,8121
116.13148,39.93521,577,8121
116.13148,39.93521,578,8121
116.13121,39.93519,579,8121
116.15286,39.92872,580,8121
116.16672,39.90575,581,8121
116.19274,39.90615,582,8121
116.20878,39.89865,583,8121
116.22344,39.89891,584,8121
116.2586,39.89966,585,8121
116.26764,39.89024,586,8121
116.2779,39.88828,587,8121
116.29983,39.88861,588,8121
116.28395,39.87762,589,8121
116.27748,39.84615,590,8121
116.28588,39.83547,591,8121
116.28592,39.84031,592,8121
116.30528,39.84539,593,8121
116.32062,39.8465,594,8121
116.36113,39.85408,595,8121
116.37455,39.83891,596,8121
116.36714,39.84936,597,8121
116.36195,39.88201,598,8121
116.35515,39.88518,599,8121
116.36018,39.88188,600,8121
116.37561,39.88178,601,8121
116.37853,39.89207,602,8121
116.36815,39.90251,603,8121
116.36754,39.91725,604,8121
116.36754,39.91725,605,8121
116.36694,39.93022,606,8121
116.38904,39.93203,607,8121
116.39177,39.93938,608,8121
116.39581,39.93212,609,8121
116.37354,39.93073,610,8121
116.30397,39.91159,611,8121
116.31074,39.89561,612,8121
116.32201,39.89551,613,8121
116.32022,39.88821,614,8121
116.31143,39.88247,615,8121
116.33021,39.88374,616,8121
116.33359,39.88671,617,8121
116.33626,39.8973,618,8121
116.31987,39.89211,619,8121
116.31987,39.89211,620,8121
116.31987,39.89211,621,8121
116.32354,39.88318,622,8121
116.33023,39.88359,623,8121
116.33023,39.88359,624,8121
116.33023,39.88359,625,8121
116.33023,39.88359,626,8121
116.33026,39.88373,627,8121
116.33026,39.88373,628,8121
116.33668,39.89154,629,8121
116.29439,39.89586,630,8121
116.33961,39.8276,631,8121
116.34182,39.7877,632,8121
116.32554,39.76037,633,8121
116.32465,39.78118,634,8121
116.32222,39.79213,635,8121
116.33894,39.81399,636,8121
116.33894,39.81399,637,8121
116.34189,39.86132,638,8121
116.33023,39.88375,639,8121
116.32818,39.88671,640,8121
116.31223,39.88733,641,8121
116.31221,39.88743,642,8121
116.31221,39.88743,643,8121
116.31221,39.88743,644,8121
116.31221,39.88743,645,8121
116.31221,39.88743,646,8121
116.31221,39.88743,647,8121
116.31221,39.88743,648,8121
116.31221,39.88743,649,8121
116.31221,39.88743,650,8121
116.31221,39.88743,651,8121
116.31221,39.88743,652,8121
116.31221,39.88743,653,8121
116.31221,39.88743,654,8121
116.31221,39.88743,655,8121
116.31221,39.88743,656,8121
116.31221,39.88743,657,8121
116.31221,39.88743,658,8121
116.31221,39.88743,659,8121
116.31221,39.88743,660,8121
116.31221,39.88743,661,8121
116.31061,39.87626,662,8121
116.31132,39.88254,663,8121
116.39562,39.81525,664,8121
116.3891,39.80043,665,8121
116.39148,39.78957,666,8121
116.39148,39.78957,667,8121
116.39059,39.8015,668,8121
116.39631,39.81197,669,8121
116.39538,39.82783,670,8121
116.39437,39.84767,671,8121
116.41439,39.8556,672,8121
116.41439,39.8556,673,8121
116.41251,39.85053,674,8121
116.40763,39.86299,675,8121
116.41754,39.86428,676,8121
116.42025,39.86593,677,8121
116.43119,39.867,678,8121
116.43222,39.8611,679,8121
116.42699,39.85227,680,8121
116.4265,39.85487,681,8121
116.42444,39.86291,682,8121
116.40897,39.87079,683,8121
116.34808,39.8671,684,8121
116.31387,39.86676,685,8121
116.30569,39.87519,686,8121
116.31059,39.87622,687,8121
116.30432,39.88974,688,8121
116.31085,39.90223,689,8121
116.31045,39.8956,690,8121
116.3152,39.90531,691,8121
116.30395,39.88832,692,8121
116.2933,39.88867,693,8121
116.2966,39.88879,694,8121
116.29423,39.88847,695,8121
116.29423,39.88847,696,8121
116.28906,39.88932,697,8121
116.27823,39.89904,698,8121
116.27754,39.92014,699,8121
116.29627,39.9225,700,8121
116.28236,39.92386,701,8121
116.28011,39.92646,702,8121
116.27841,39.92151,703,8121
116.2904,39.94676,704,8121
116.27849,39.95553,705,8121
116.29171,39.95761,706,8121
116.29626,39.96444,707,8121
116.2809,39.9713,708,8121
116.26673,39.97319,709,8121
116.26834,39.96819,710,8121
116.26781,39.93838,711,8121
116.26413,39.92537,712,8121
116.26406,39.92535,713,8121
116.26406,39.92535,714,8121
116.26656,39.92675,715,8121
116.26863,39.94507,716,8121
116.26909,39.92368,717,8121
116.28809,39.89569,718,8121
116.31399,39.8955,719,8121
116.32296,39.90046,720,8121
116.34486,39.90592,721,8121
116.36925,39.90576,722,8121
116.3914,39.90619,723,8121
116.41296,39.90683,724,8121
116.42954,39.9092,725,8121
116.43823,39.93839,726,8121
116.43822,39.93829,727,8121
116.43814,39.93826,728,8121
116.43815,39.93828,729,8121
116.43817,39.93836,730,8121
116.43817,39.93836,731,8121
116.44396,39.93942,732,8121
116.44403,39.93945,733,8121
116.43931,39.93245,734,8121
116.41954,39.93968,735,8121
116.41911,39.95327,736,8121
116.41854,39.97006,737,8121
116.42126,39.98164,738,8121
116.4183,39.97518,739,8121
116.4204,39.96781,740,8121
116.45555,39.91109,741,8121
116.46793,39.90682,742,8121
116.46804,39.91225,743,8121
116.44675,39.91228,744,8121
116.43941,39.91637,745,8121
116.43475,39.92032,746,8121
116.43765,39.93039,747,8121
116.43947,39.93523,748,8121
116.43945,39.93523,749,8121
116.44419,39.93299,750,8121
116.45477,39.93229,751,8121
116.47163,39.93227,752,8121
116.48564,39.93238,753,8121
116.51815,39.94029,754,8121
116.54128,39.94226,755,8121
116.54858,39.94945,756,8121
116.54124,39.94475,757,8121
116.51188,39.93934,758,8121
116.51126,39.92263,759,8121
116.5126,39.91563,760,8121
116.5126,39.91563,761,8121
116.51172,39.92123,762,8121
116.49583,39.92599,763,8121
116.48741,39.92175,764,8121
116.47344,39.92202,765,8121
116.47176,39.91346,766,8121
116.47153,39.90718,767,8121
116.45994,39.90675,768,8121
116.47136,39.90419,769,8121
116.47101,39.8865,770,8121
116.46638,39.87495,771,8121
116.4671,39.87567,772,8121
116.46595,39.87277,773,8121
116.46619,39.87286,774,8121
116.46619,39.87285,775,8121
116.46915,39.86993,776,8121
116.48375,39.88115,777,8121
116.4841,39.93147,778,8121
116.47314,39.92989,779,8121
116.46859,39.92963,780,8121
116.46859,39.92963,781,8121
116.4618,39.93244,782,8121
116.44586,39.93239,783,8121
116.44409,39.92395,784,8121
116.44329,39.9164,785,8121
116.44329,39.9164,786,8121
116.44329,39.9164,787,8121
116.44329,39.9164,788,8121
116.44475,39.92107,789,8121
116.45546,39.90862,790,8121
116.48487,39.90686,791,8121
116.54006,39.90663,792,8121
116.56125,39.90197,793,8121
116.55932,39.90139,794,8121
116.54939,39.90769,795,8121
116.57044,39.90878,796,8121
116.56011,39.91488,797,8121
116.52239,39.91597,798,8121
116.50388,39.91487,799,8121
116.49699,39.91478,800,8121
116.48443,39.91441,801,8121
116.48363,39.93243,802,8121
116.46081,39.93244,803,8121
116.45514,39.93075,804,8121
116.45163,39.93109,805,8121
116.45137,39.93099,806,8121
116.45441,39.93224,807,8121
116.46002,39.91218,808,8121
116.47169,39.9076,809,8121
116.47169,39.9076,810,8121
116.46798,39.89209,811,8121
116.46652,39.89217,812,8121
116.46011,39.89222,813,8121
116.4549,39.88817,814,8121
116.45562,39.88986,815,8121
116.45558,39.89748,816,8121
116.45176,39.90772,817,8121
116.45198,39.91029,818,8121
116.42709,39.90724,819,8121
116.40539,39.90727,820,8121
116.40542,39.90732,821,8121
116.4054,39.90767,822,8121
116.41335,39.9142,823,8121
116.42048,39.90475,824,8121
116.42042,39.90451,825,8121
116.42042,39.9045,826,8121
116.42044,39.9045,827,8121
116.42041,39.90439,828,8121
116.42045,39.90433,829,8121
116.42045,39.90433,830,8121
116.42047,39.90431,831,8121
116.42057,39.90403,832,8121
116.42057,39.90403,833,8121
116.42057,39.90403,834,8121
116.41955,39.90378,835,8121
116.46083,39.907,836,8121
116.47893,39.8983,837,8121
116.47893,39.89831,838,8121
116.47893,39.89831,839,8121
116.4701,39.9041,840,8121
116.42298,39.90401,841,8121
116.42786,39.93383,842,8121
116.42347,39.94975,843,8121
116.41985,39.94995,844,8121
116.42939,39.9594,845,8121
116.43562,39.96487,846,8121
116.36826,39.96672,847,8121
116.34925,39.94195,848,8121
116.33536,39.92567,849,8121
116.33536,39.92567,850,8121
116.33536,39.92567,851,8121
116.32827,39.92412,852,8121
116.33718,39.93707,853,8121
116.39302,39.9476,854,8121
116.48362,39.98415,855,8121
116.49392,39.98669,856,8121
116.49774,39.98672,857,8121
116.49774,39.98672,858,8121
116.4781,39.9752,859,8121
116.45365,39.95334,860,8121
116.43346,39.95399,861,8121
116.4188,39.96404,862,8121
116.40654,39.96793,863,8121
116.37502,39.97272,864,8121
116.33896,40.03361,865,8121
116.32338,40.05362,866,8121
116.31147,40.07327,867,8121
116.30835,40.06375,868,8121
116.31767,40.05987,869,8121
116.34539,40.04439,870,8121
116.34635,40.00004,871,8121
116.34716,39.98593,872,8121
116.32844,39.96644,873,8121
116.31934,39.96612,874,8121
116.31934,39.96612,875,8121
116.31948,39.96606,876,8121
116.3161,39.96248,877,8121
116.3194,39.93782,878,8121
116.34108,39.93103,879,8121
116.34912,39.89725,880,8121
116.37058,39.86901,881,8121
116.42598,39.84624,882,8121
116.42657,39.85446,883,8121
116.34212,39.86305,884,8121
116.34441,39.88779,885,8121
116.32978,39.88797,886,8121
116.32043,39.88773,887,8121
116.28026,39.8768,888,8121
116.21942,39.84452,889,8121
116.19412,39.79623,890,8121
116.13936,39.75628,891,8121
116.07413,39.71584,892,8121
116.01169,39.70467,893,8121
116.00028,39.70114,894,8121
115.99039,39.69812,895,8121
115.97866,39.68982,896,8121
115.97498,39.63743,897,8121
115.98533,39.61989,898,8121
115.97975,39.62275,899,8121
115.98041,39.69161,900,8121
116.01413,39.70531,901,8121
116.07495,39.71582,902,8121
116.10829,39.72389,903,8121
116.12925,39.73767,904,8121
116.14868,39.74953,905,8121
116.16306,39.76854,906,8121
116.21069,39.76301,907,8121
116.26042,39.76846,908,8121
116.27781,39.78717,909,8121
116.28643,39.80844,910,8121
116.27955,39.82524,911,8121
116.28409,39.83386,912,8121
116.28492,39.83258,913,8121
116.28492,39.83258,914,8121
116.28464,39.83257,915,8121
116.28479,39.8326,916,8121
116.28479,39.8326,917,8121
116.28479,39.8326,918,8121
116.28473,39.8326,919,8121
116.28473,39.8326,920,8121
116.28475,39.83262,921,8121
116.28632,39.83371,922,8121
116.28828,39.84337,923,8121
116.28909,39.84534,924,8121
116.27783,39.84721,925,8121
116.2826,39.83508,926,8121
116.28374,39.83539,927,8121
116.27737,39.85233,928,8121
116.26809,39.90322,929,8121
116.27081,39.96019,930,8121
116.28213,39.97633,931,8121
116.34806,39.98552,932,8121
116.41376,39.98739,933,8121
116.46347,39.96997,934,8121
116.51747,40.01664,935,8121
116.5798,40.04752,936,8121
116.58208,40.07939,937,8121
116.57326,40.06315,938,8121
116.56665,40.07061,939,8121
116.56581,40.07128,940,8121
116.56583,40.0713,941,8121
116.56583,40.0713,942,8121
116.56588,40.07128,943,8121
116.56588,40.07128,944,8121
116.56587,40.07125,945,8121
116.56587,40.07125,946,8121
116.56481,40.07128,947,8121
116.56415,40.07079,948,8121
116.56295,40.07007,949,8121
116.56295,40.07007,950,8121
116.56344,40.06466,951,8121
116.56344,40.06466,952,8121
116.56723,40.06382,953,8121
116.56754,40.06379,954,8121
116.56754,40.06379,955,8121
116.57859,40.06256,956,8121
116.57859,40.06256,957,8121
116.57859,40.06256,958,8121
116.57859,40.06256,959,8121
116.57859,40.06256,960,8121
116.58223,40.06221,961,8121
116.58223,40.06221,962,8121
116.58284,40.06151,963,8121
116.58281,40.06163,964,8121
116.58281,40.06163,965,8121
116.58173,40.0683,966,8121
116.58163,40.06901,967,8121
116.58137,40.07062,968,8121
116.58095,40.07269,969,8121
116.58095,40.07269,970,8121
116.58054,40.07641,971,8121
116.58133,40.07647,972,8121
116.58328,40.07543,973,8121
116.58455,40.07661,974,8121
116.58694,40.07989,975,8121
116.57115,40.03908,976,8121
116.49753,40.00098,977,8121
116.44707,39.95619,978,8121
116.45547,39.91304,979,8121
116.42952,39.90579,980,8121
116.4219,39.89209,981,8121
116.41154,39.89567,982,8121
116.41253,39.89632,983,8121
116.41468,39.8797,984,8121
116.41468,39.8797,985,8121
116.43188,39.87596,986,8121
116.39452,39.87047,987,8121
116.38805,39.8578,988,8121
116.38149,39.87365,989,8121
116.37858,39.88681,990,8121
116.36841,39.88851,991,8121
116.37832,39.89339,992,8121
116.3651,39.88802,993,8121
116.35248,39.88812,994,8121
116.34455,39.88435,995,8121
116.35711,39.88533,996,8121
116.35783,39.86969,997,8121
116.36216,39.86305,998,8121
116.36226,39.8638,999,8121
116.38909,39.87011,1000,8121
116.42786,39.86883,1001,8121
116.42143,39.86442,1002,8121
116.43199,39.86107,1003,8121
116.44952,39.87014,1004,8121
116.45351,39.87678,1005,8121
116.44747,39.86077,1006,8121
116.42657,39.86002,1007,8121
116.42657,39.86002,1008,8121
116.4187,39.86011,1009,8121
116.42442,39.86281,1010,8121
116.37978,39.88326,1011,8121
116.38467,39.87933,1012,8121
116.3816,39.86747,1013,8121
116.37726,39.85675,1014,8121
116.37722,39.85687,1015,8121
116.40656,39.86067,1016,8121
116.39741,39.85592,1017,8121
116.38199,39.85587,1018,8121
116.37925,39.84811,1019,8121
116.36716,39.86434,1020,8121
116.38097,39.85936,1021,8121
116.38217,39.85944,1022,8121
116.38217,39.85944,1023,8121
116.38123,39.88132,1024,8121
116.36223,39.88794,1025,8121
116.34286,39.87756,1026,8121
116.32705,39.84804,1027,8121
116.30838,39.85993,1028,8121
116.30629,39.87599,1029,8121
116.31054,39.88558,1030,8121
116.30106,39.8885,1031,8121
116.30469,39.88346,1032,8121
116.30596,39.8809,1033,8121
116.31006,39.88658,1034,8121
116.2965,39.88031,1035,8121
116.269,39.89691,1036,8121
116.2704,39.90566,1037,8121
116.27728,39.9009,1038,8121
116.27725,39.9009,1039,8121
116.26862,39.90072,1040,8121
116.26835,39.90084,1041,8121
116.26835,39.90084,1042,8121
116.28168,39.89905,1043,8121
116.26827,39.90782,1044,8121
116.25121,39.91657,1045,8121
116.25839,39.91651,1046,8121
116.2683,39.93858,1047,8121
116.28946,39.9825,1048,8121
116.3148,39.98638,1049,8121
116.32082,39.98671,1050,8121
116.31204,39.97967,1051,8121
116.30791,39.97465,1052,8121
116.32528,39.99142,1053,8121
116.35931,39.98582,1054,8121
116.42548,39.9877,1055,8121
116.47225,39.97797,1056,8121
116.53439,40.02264,1057,8121
116.5834,40.06147,1058,8121
116.5805,40.07646,1059,8121
116.56376,40.06438,1060,8121
116.57651,40.06002,1061,8121
116.49279,39.99671,1062,8121
116.44065,39.94972,1063,8121
116.41982,39.93234,1064,8121
116.41982,39.93234,1065,8121
116.39074,39.93213,1066,8121
116.37415,39.93161,1067,8121
116.37151,39.91357,1068,8121
116.36795,39.89891,1069,8121
116.36811,39.88226,1070,8121
116.36784,39.86473,1071,8121
116.36506,39.84548,1072,8121
116.36129,39.84452,1073,8121
116.34723,39.82998,1074,8121
116.35862,39.81311,1075,8121
116.35357,39.792,1076,8121
116.35963,39.8102,1077,8121
116.37974,39.83025,1078,8121
116.44094,39.83057,1079,8121
116.44094,39.83057,1080,8121
116.43996,39.84722,1081,8121
116.43912,39.85265,1082,8121
116.45401,39.8659,1083,8121
116.47582,39.86904,1084,8121
116.47574,39.86805,1085,8121
116.47134,39.86529,1086,8121
116.47134,39.86529,1087,8121
116.47126,39.86591,1088,8121
116.47129,39.87673,1089,8121
116.45579,39.88317,1090,8121
116.45097,39.86389,1091,8121
116.4466,39.86135,1092,8121
116.45405,39.86599,1093,8121
116.45563,39.91395,1094,8121
116.44492,39.95877,1095,8121
116.4125,39.96806,1096,8121
116.41124,39.98421,1097,8121
116.40106,39.97998,1098,8121
116.39551,39.96757,1099,8121
116.38908,39.94834,1100,8121
116.38973,39.93768,1101,8121
116.36686,39.92934,1102,8121
116.36751,39.91111,1103,8121
116.368,39.89891,1104,8121
116.36812,39.88214,1105,8121
116.36662,39.86032,1106,8121
116.36959,39.84924,1107,8121
116.37496,39.83881,1108,8121
116.37256,39.84011,1109,8121
116.36543,39.85215,1110,8121
116.37013,39.86884,1111,8121
116.43412,39.95363,1112,8121
116.38924,39.94768,1113,8121
116.3736,39.98192,1114,8121
116.35933,40.0,1115,8121
116.37102,39.97541,1116,8121
116.34575,39.9753,1117,8121
116.34892,39.95259,1118,8121
116.35017,39.90651,1119,8121
116.34219,39.86651,1120,8121
116.42236,39.85638,1121,8121
116.41914,39.85657,1122,8121
116.43365,39.86892,1123,8121
116.43974,39.8808,1124,8121
116.40709,39.887,1125,8121
116.34457,39.88828,1126,8121
116.32966,39.88814,1127,8121
116.31431,39.88779,1128,8121
116.26351,39.86995,1129,8121
116.26351,39.86995,1130,8121
116.20854,39.84225,1131,8121
116.18809,39.78566,1132,8121
116.13564,39.75216,1133,8121
116.12256,39.73392,1134,8121
116.0911,39.71908,1135,8121
116.04094,39.71147,1136,8121
116.00022,39.7012,1137,8121
115.98339,39.69506,1138,8121
115.98526,39.61985,1139,8121
115.98525,39.61992,1140,8121
115.98525,39.61992,1141,8121
115.98525,39.61992,1142,8121
115.98525,39.61992,1143,8121
115.98525,39.61992,1144,8121
115.98525,39.61992,1145,8121
115.98525,39.61992,1146,8121
115.98525,39.61992,1147,8121
115.98525,39.61992,1148,8121
115.98525,39.61992,1149,8121
115.98525,39.61992,1150,8121
115.98525,39.61992,1151,8121
115.98525,39.61992,1152,8121
115.98525,39.61992,1153,8121
115.98525,39.61992,1154,8121
115.98525,39.61992,1155,8121
115.98525,39.61992,1156,8121
115.98525,39.61992,1157,8121
115.98525,39.61992,1158,8121
115.98525,39.61992,1159,8121
115.98525,39.61992,1160,8121
115.98525,39.61992,1161,8121
115.98525,39.61992,1162,8121
115.98519,39.61997,1163,8121
115.98519,39.61997,1164,8121
115.97818,39.62742,1165,8121
115.97847,39.66072,1166,8121
115.98619,39.69665,1167,8121
116.02596,39.70609,1168,8121
116.0763,39.71606,1169,8121
116.12965,39.73799,1170,8121
116.13762,39.75432,1171,8121
116.19167,39.78998,1172,8121
116.20575,39.84052,1173,8121
116.25152,39.86441,1174,8121
116.25866,39.88686,1175,8121
116.25499,39.88799,1176,8121
116.25499,39.88799,1177,8121
116.25866,39.8985,1178,8121
116.28172,39.92285,1179,8121
116.32594,39.93021,1180,8121
116.32703,39.92902,1181,8121
116.30505,39.92684,1182,8121
116.30074,39.96872,1183,8121
116.28383,39.99259,1184,8121
116.28637,39.99196,1185,8121
116.27576,39.97746,1186,8121
116.28263,39.9584,1187,8121
116.29647,39.95854,1188,8121
116.32238,39.96598,1189,8121
116.38166,39.9667,1190,8121
116.39745,39.96718,1191,8121
116.39915,39.9479,1192,8121
116.34648,39.93898,1193,8121
116.28858,39.94639,1194,8121
116.26967,39.94553,1195,8121
116.25382,39.91587,1196,8121
116.26837,39.91538,1197,8121
116.26837,39.91538,1198,8121
116.27943,39.90619,1199,8121
116.31505,39.90459,1200,8121
116.31294,39.90986,1201,8121
116.29605,39.91409,1202,8121
116.29539,39.91473,1203,8121
116.29554,39.91431,1204,8121
116.29563,39.91426,1205,8121
116.29563,39.91426,1206,8121
116.29563,39.91426,1207,8121
116.29563,39.91426,1208,8121
116.29563,39.91426,1209,8121
116.29563,39.91426,1210,8121
116.29563,39.91426,1211,8121
116.29563,39.91426,1212,8121
116.29588,39.91414,1213,8121
116.29594,39.91413,1214,8121
116.31159,39.90987,1215,8121
116.3043,39.91074,1216,8121
116.3023,39.95944,1217,8121
116.36756,39.96663,1218,8121
116.42792,39.96802,1219,8121
116.43794,39.96354,1220,8121
116.37925,39.96694,1221,8121
116.31914,39.96596,1222,8121
116.29375,39.95789,1223,8121
116.27884,39.95607,1224,8121
116.26781,39.94574,1225,8121
116.26781,39.94574,1226,8121
116.26767,39.94167,1227,8121
116.26879,39.9278,1228,8121
116.2754,39.97196,1229,8121
116.31525,39.99102,1230,8121
116.32002,39.98817,1231,8121
116.36385,39.98594,1232,8121
116.40105,39.97569,1233,8121
116.40152,39.95752,1234,8121
116.3904,39.95018,1235,8121
116.33685,39.93744,1236,8121
116.3175,39.95404,1237,8121
116.32808,39.96434,1238,8121
116.33728,39.96081,1239,8121
116.34857,39.95486,1240,8121
116.35887,39.95112,1241,8121
116.37019,39.94716,1242,8121
116.38937,39.94756,1243,8121
116.39795,39.96093,1244,8121
116.39877,39.94783,1245,8121
116.34702,39.93907,1246,8121
116.3278,39.93508,1247,8121
116.32382,39.92684,1248,8121
116.33486,39.92169,1249,8121
116.34677,39.9218,1250,8121
116.34677,39.9218,1251,8121
116.34634,39.90527,1252,8121
116.33786,39.90661,1253,8121
116.32856,39.9168,1254,8121
116.33716,39.92684,1255,8121
116.34695,39.92311,1256,8121
116.34808,39.91253,1257,8121
116.36776,39.9114,1258,8121
116.35065,39.91243,1259,8121
116.347,39.92102,1260,8121
116.34648,39.90964,1261,8121
116.3157,39.9062,1262,8121
116.29806,39.90656,1263,8121
116.28912,39.9143,1264,8121
116.27962,39.92308,1265,8121
116.26554,39.9234,1266,8121
116.24728,39.92842,1267,8121
116.24422,39.93001,1268,8121
116.24422,39.93001,1269,8121
116.2442,39.92844,1270,8121
116.2689,39.92667,1271,8121
116.27367,39.89566,1272,8121
116.30608,39.86834,1273,8121
116.42486,39.85709,1274,8121
116.43991,39.84663,1275,8121
116.43991,39.84663,1276,8121
116.43936,39.85591,1277,8121
116.45535,39.88263,1278,8121
116.43797,39.893,1279,8121
116.4189,39.90341,1280,8121
116.42137,39.90344,1281,8121
116.42143,39.90344,1282,8121
116.42323,39.90357,1283,8121
116.4256,39.89226,1284,8121
116.40375,39.89139,1285,8121
116.39981,39.88942,1286,8121
116.40604,39.89519,1287,8121
116.42031,39.90687,1288,8121
116.42053,39.90414,1289,8121
116.42053,39.90414,1290,8121
116.42049,39.90404,1291,8121
116.42049,39.90399,1292,8121
116.41873,39.90689,1293,8121
116.42867,39.92249,1294,8121
116.41093,39.92312,1295,8121
116.40623,39.91741,1296,8121
116.40884,39.90727,1297,8121
116.4113,39.90921,1298,8121
116.41544,39.92293,1299,8121
116.42813,39.92934,1300,8121
116.42813,39.92934,1301,8121
116.43359,39.93964,1302,8121
116.43359,39.93964,1303,8121
116.43359,39.93964,1304,8121
116.42884,39.93233,1305,8121
116.42968,39.90439,1306,8121
116.43097,39.86941,1307,8121
116.41704,39.85607,1308,8121
116.41307,39.84799,1309,8121
116.41749,39.84916,1310,8121
116.42887,39.84357,1311,8121
116.42725,39.85115,1312,8121
116.44227,39.85527,1313,8121
116.44354,39.85802,1314,8121
116.42805,39.86149,1315,8121
116.42861,39.84531,1316,8121
116.42775,39.84446,1317,8121
116.42905,39.8613,1318,8121
116.42905,39.8613,1319,8121
116.41694,39.86434,1320,8121
116.4325,39.85545,1321,8121
116.44061,39.83802,1322,8121
116.4585,39.81465,1323,8121
116.47924,39.79981,1324,8121
116.4781,39.79968,1325,8121
116.45446,39.81798,1326,8121
116.44037,39.84429,1327,8121
116.44037,39.84429,1328,8121
116.43255,39.85715,1329,8121
116.42858,39.86708,1330,8121
116.4384,39.89378,1331,8121
116.41317,39.89184,1332,8121
116.3871,39.88884,1333,8121
116.38149,39.87149,1334,8121
116.38059,39.8481,1335,8121
116.38024,39.84368,1336,8121
116.38171,39.87008,1337,8121
116.34359,39.87621,1338,8121
116.34707,39.88766,1339,8121
116.33086,39.87512,1340,8121
116.32048,39.88299,1341,8121
116.14089,39.75729,1342,8121
116.12543,39.73556,1343,8121
116.12543,39.73556,1344,8121
116.09019,39.71896,1345,8121
116.03026,39.70787,1346,8121
115.98692,39.69697,1347,8121
115.9788,39.66148,1348,8121
115.97983,39.62246,1349,8121
115.98532,39.61984,1350,8121
115.98535,39.61978,1351,8121
115.98535,39.61978,1352,8121
115.98535,39.61978,1353,8121
115.98535,39.61978,1354,8121
115.98535,39.61978,1355,8121
115.98535,39.61978,1356,8121
115.98535,39.61978,1357,8121
115.98535,39.61978,1358,8121
115.98535,39.61978,1359,8121
115.98535,39.61978,1360,8121
115.98535,39.61978,1361,8121
115.98535,39.61978,1362,8121
115.98535,39.61978,1363,8121
115.98535,39.61978,1364,8121
115.98535,39.61978,1365,8121
115.98535,39.61978,1366,8121
115.98535,39.61978,1367,8121
115.98535,39.61978,1368,8121
115.98535,39.61978,1369,8121
115.98535,39.61978,1370,8121
115.98535,39.61978,1371,8121
115.98535,39.61978,1372,8121
115.98535,39.61978,1373,8121
115.98535,39.61978,1374,8121
