x,y,k,tid
116.32773,39.79395,0,8282
116.32775,39.79392,1,8282
116.32777,39.79388,2,8282
116.32778,39.79386,3,8282
116.32779,39.79383,4,8282
116.32781,39.79381,5,8282
116.32781,39.7938,6,8282
116.32782,39.79379,7,8282
116.32783,39.79378,8,8282
116.328,39.79372,9,8282
116.32799,39.79376,10,8282
116.32796,39.79372,11,8282
116.32796,39.79371,12,8282
116.32794,39.79369,13,8282
116.32793,39.79368,14,8282
116.32794,39.79369,15,8282
116.32794,39.79369,16,8282
116.32794,39.79369,17,8282
116.32794,39.79369,18,8282
116.32794,39.79369,19,8282
116.32793,39.79368,20,8282
116.32793,39.79367,21,8282
116.32793,39.79367,22,8282
116.32793,39.79366,23,8282
116.32792,39.79365,24,8282
116.32792,39.79365,25,8282
116.32792,39.79364,26,8282
116.32792,39.79364,27,8282
116.32791,39.79363,28,8282
116.32793,39.7936,29,8282
116.32793,39.7936,30,8282
116.32793,39.79359,31,8282
116.32793,39.79359,32,8282
116.32793,39.79359,33,8282
116.32793,39.79359,34,8282
116.32793,39.79359,35,8282
116.32793,39.79358,36,8282
116.32793,39.79358,37,8282
116.32809,39.794,38,8282
116.32804,39.79381,39,8282
116.328,39.79377,40,8282
116.32803,39.79382,41,8282
116.32803,39.7938,42,8282
116.32803,39.79378,43,8282
116.32803,39.79377,44,8282
116.32802,39.79375,45,8282
116.32801,39.79373,46,8282
116.328,39.79372,47,8282
116.328,39.79373,48,8282
116.328,39.79372,49,8282
116.32799,39.79371,50,8282
116.32799,39.79371,51,8282
116.32799,39.79371,52,8282
116.32799,39.7937,53,8282
116.32798,39.7937,54,8282
116.32798,39.79369,55,8282
116.32798,39.79368,56,8282
116.32798,39.79368,57,8282
116.32797,39.79367,58,8282
116.32797,39.79366,59,8282
116.32797,39.79366,60,8282
116.32797,39.79365,61,8282
116.32796,39.79364,62,8282
116.32796,39.79364,63,8282
116.32795,39.79362,64,8282
116.32795,39.79361,65,8282
116.32795,39.79361,66,8282
116.32794,39.79361,67,8282
116.32794,39.79361,68,8282
116.32794,39.79361,69,8282
116.32794,39.79361,70,8282
116.32794,39.79361,71,8282
116.32794,39.79361,72,8282
116.32794,39.79362,73,8282
116.32794,39.79362,74,8282
116.32795,39.79362,75,8282
116.32795,39.79362,76,8282
116.32795,39.79362,77,8282
116.32795,39.79362,78,8282
116.32795,39.79362,79,8282
116.32796,39.79363,80,8282
116.3278,39.79367,81,8282
116.32799,39.79369,82,8282
116.32796,39.79367,83,8282
116.32795,39.79366,84,8282
116.32795,39.79366,85,8282
116.32795,39.79366,86,8282
116.32795,39.79365,87,8282
116.32795,39.79364,88,8282
116.32795,39.79364,89,8282
116.32796,39.79363,90,8282
116.32796,39.79363,91,8282
116.32796,39.7937,92,8282
116.32795,39.79367,93,8282
116.32793,39.79367,94,8282
116.32799,39.79363,95,8282
116.32793,39.79367,96,8282
116.32793,39.79367,97,8282
116.32793,39.79375,98,8282
116.32793,39.79375,99,8282
116.32801,39.79375,100,8282
116.328,39.79374,101,8282
116.32798,39.79374,102,8282
116.32798,39.79374,103,8282
116.32798,39.79374,104,8282
116.32798,39.79374,105,8282
116.32798,39.79374,106,8282
116.32797,39.79373,107,8282
116.32797,39.79373,108,8282
116.32796,39.79372,109,8282
116.32795,39.79372,110,8282
116.32793,39.79379,111,8282
116.32792,39.79374,112,8282
116.32792,39.79374,113,8282
116.32792,39.79373,114,8282
116.32792,39.79373,115,8282
116.32792,39.79372,116,8282
116.32793,39.79372,117,8282
116.32792,39.7937,118,8282
116.32793,39.7937,119,8282
116.32792,39.79369,120,8282
116.32792,39.79368,121,8282
116.32792,39.79368,122,8282
116.32792,39.79367,123,8282
116.32792,39.79366,124,8282
116.32792,39.79365,125,8282
116.32792,39.79365,126,8282
116.32792,39.79365,127,8282
116.32792,39.79364,128,8282
116.32791,39.79362,129,8282
116.32791,39.79362,130,8282
116.32787,39.79364,131,8282
116.32787,39.79364,132,8282
116.32787,39.79364,133,8282
116.32787,39.79366,134,8282
116.32787,39.79366,135,8282
116.32787,39.79367,136,8282
116.32787,39.79367,137,8282
116.32787,39.79369,138,8282
116.32788,39.79369,139,8282
116.32783,39.79374,140,8282
116.32799,39.79385,141,8282
116.32734,39.79359,142,8282
116.3273,39.79361,143,8282
116.32795,39.79375,144,8282
116.32796,39.7937,145,8282
116.32793,39.79368,146,8282
116.32791,39.79367,147,8282
116.3279,39.79367,148,8282
116.32789,39.79367,149,8282
116.32789,39.79366,150,8282
116.3279,39.79364,151,8282
116.3279,39.79364,152,8282
116.32791,39.79362,153,8282
116.3279,39.79361,154,8282
116.3279,39.7936,155,8282
116.3279,39.7936,156,8282
116.3279,39.7936,157,8282
116.32791,39.7936,158,8282
116.32785,39.79354,159,8282
116.32786,39.79353,160,8282
116.32786,39.79353,161,8282
116.32787,39.79354,162,8282
116.32787,39.79354,163,8282
116.32787,39.79354,164,8282
116.32792,39.79336,165,8282
116.32794,39.79343,166,8282
116.32789,39.7935,167,8282
116.32788,39.79353,168,8282
116.32791,39.79353,169,8282
116.32847,39.79362,170,8282
116.32823,39.7937,171,8282
116.32816,39.79371,172,8282
116.32811,39.7937,173,8282
116.32808,39.79369,174,8282
116.32808,39.79369,175,8282
116.32805,39.79367,176,8282
116.32803,39.79365,177,8282
116.32801,39.79364,178,8282
116.32801,39.79364,179,8282
116.328,39.79363,180,8282
116.32799,39.79362,181,8282
116.32797,39.79361,182,8282
116.32797,39.79361,183,8282
116.32796,39.79361,184,8282
116.32796,39.79361,185,8282
116.32795,39.79361,186,8282
116.32788,39.79357,187,8282
116.32783,39.79365,188,8282
116.32784,39.79363,189,8282
116.32785,39.79362,190,8282
116.32986,39.80091,191,8282
116.33179,39.80263,192,8282
116.33344,39.81245,193,8282
116.33298,39.82172,194,8282
116.36203,39.85428,195,8282
116.35721,39.85339,196,8282
116.35721,39.85339,197,8282
116.34457,39.84984,198,8282
116.31731,39.85012,199,8282
116.3061,39.8663,200,8282
116.29535,39.86817,201,8282
116.29889,39.87065,202,8282
116.30835,39.86536,203,8282
116.32899,39.86664,204,8282
116.36527,39.85554,205,8282
116.3244,39.84781,206,8282
116.32027,39.84791,207,8282
116.34454,39.86658,208,8282
116.40566,39.87068,209,8282
116.41482,39.88165,210,8282
116.41677,39.90647,211,8282
116.41283,39.89987,212,8282
116.40611,39.89195,213,8282
116.39297,39.88515,214,8282
116.39332,39.85833,215,8282
116.35528,39.85288,216,8282
116.31887,39.8493,217,8282
116.31607,39.84676,218,8282
116.32733,39.84751,219,8282
116.32733,39.84751,220,8282
116.30883,39.86523,221,8282
116.30448,39.88698,222,8282
116.30412,39.89132,223,8282
116.30541,39.86918,224,8282
116.28849,39.86518,225,8282
116.28598,39.86504,226,8282
116.26826,39.86724,227,8282
116.27846,39.8419,228,8282
116.28768,39.84321,229,8282
116.27446,39.86978,230,8282
116.27432,39.90603,231,8282
116.26738,39.90373,232,8282
116.26808,39.88414,233,8282
116.27504,39.86423,234,8282
116.27667,39.85809,235,8282
116.2868,39.82942,236,8282
116.33886,39.82248,237,8282
116.34602,39.81232,238,8282
116.33257,39.82979,239,8282
116.2809,39.83581,240,8282
116.27737,39.85689,241,8282
116.27731,39.84671,242,8282
116.28173,39.84094,243,8282
116.2704,39.87906,244,8282
116.26835,39.89884,245,8282
116.26778,39.89879,246,8282
116.27001,39.87951,247,8282
116.27001,39.87951,248,8282
116.28664,39.82932,249,8282
116.33858,39.81702,250,8282
116.32845,39.79305,251,8282
116.32737,39.79391,252,8282
116.32748,39.79385,253,8282
116.32756,39.7938,254,8282
116.32761,39.79377,255,8282
116.32765,39.79375,256,8282
116.32767,39.79375,257,8282
116.32769,39.79375,258,8282
116.32771,39.79374,259,8282
116.32774,39.79372,260,8282
116.32776,39.79372,261,8282
116.32777,39.79371,262,8282
116.32778,39.79371,263,8282
116.32794,39.79367,264,8282
116.32794,39.79367,265,8282
116.32794,39.79367,266,8282
116.32793,39.79367,267,8282
116.32793,39.79367,268,8282
116.32793,39.79367,269,8282
116.32793,39.79367,270,8282
116.32793,39.79367,271,8282
116.32792,39.79367,272,8282
116.32792,39.79367,273,8282
116.32792,39.79367,274,8282
116.32792,39.79367,275,8282
116.32792,39.79367,276,8282
116.32791,39.79367,277,8282
116.32791,39.79367,278,8282
116.32791,39.79367,279,8282
116.32791,39.79367,280,8282
116.32791,39.79367,281,8282
116.32791,39.79366,282,8282
116.3279,39.79366,283,8282
116.3279,39.79366,284,8282
116.32768,39.79401,285,8282
116.32779,39.79379,286,8282
116.32783,39.79373,287,8282
116.32785,39.79369,288,8282
116.32786,39.79367,289,8282
116.32786,39.79367,290,8282
116.32786,39.79367,291,8282
116.32786,39.79367,292,8282
116.32787,39.79367,293,8282
116.32787,39.79366,294,8282
116.32787,39.79366,295,8282
116.32797,39.79365,296,8282
116.32797,39.79366,297,8282
116.32798,39.79367,298,8282
116.32798,39.79367,299,8282
116.32799,39.79368,300,8282
116.32801,39.79368,301,8282
116.32797,39.79382,302,8282
116.47237,39.7428,303,8282
116.56355,39.72372,304,8282
116.32789,39.7937,305,8282
116.32789,39.7937,306,8282
116.32789,39.79368,307,8282
116.3279,39.79368,308,8282
116.3279,39.79369,309,8282
116.3279,39.79368,310,8282
116.32789,39.79368,311,8282
116.32789,39.79367,312,8282
116.32788,39.79367,313,8282
116.32788,39.79367,314,8282
116.32788,39.79366,315,8282
116.32788,39.79366,316,8282
116.32787,39.79366,317,8282
116.32787,39.79365,318,8282
116.32787,39.79365,319,8282
116.32787,39.79364,320,8282
116.32787,39.79364,321,8282
116.32787,39.79364,322,8282
116.32787,39.79364,323,8282
116.32787,39.79364,324,8282
116.32787,39.79364,325,8282
116.32787,39.79365,326,8282
116.32788,39.79365,327,8282
116.32788,39.79365,328,8282
116.32788,39.79365,329,8282
116.32788,39.79365,330,8282
116.32788,39.79365,331,8282
116.32788,39.79365,332,8282
116.32788,39.79365,333,8282
116.32788,39.79365,334,8282
116.32788,39.79365,335,8282
116.32788,39.79365,336,8282
116.32788,39.79365,337,8282
116.32788,39.79365,338,8282
116.32788,39.79365,339,8282
116.32789,39.79365,340,8282
116.32789,39.79365,341,8282
116.32789,39.79365,342,8282
116.32789,39.79365,343,8282
116.32789,39.79365,344,8282
116.32789,39.79365,345,8282
116.32789,39.79365,346,8282
116.32789,39.79365,347,8282
116.32789,39.79365,348,8282
116.32789,39.79365,349,8282
116.3279,39.79365,350,8282
116.32789,39.79365,351,8282
116.32789,39.79365,352,8282
116.32789,39.79365,353,8282
116.32789,39.79365,354,8282
116.32789,39.79365,355,8282
116.32789,39.79365,356,8282
116.32789,39.79365,357,8282
116.32789,39.79365,358,8282
116.32789,39.79365,359,8282
116.32789,39.79365,360,8282
116.32789,39.79365,361,8282
116.32789,39.79366,362,8282
116.32784,39.79367,363,8282
116.32795,39.79391,364,8282
116.3279,39.79382,365,8282
116.3279,39.79382,366,8282
116.32786,39.79371,367,8282
116.32787,39.79371,368,8282
116.32786,39.7937,369,8282
116.32786,39.79369,370,8282
116.32786,39.79369,371,8282
116.32786,39.79368,372,8282
116.32797,39.79389,373,8282
116.32792,39.79381,374,8282
116.32789,39.79377,375,8282
116.32788,39.79374,376,8282
116.32789,39.79373,377,8282
116.32791,39.79371,378,8282
116.3279,39.7937,379,8282
116.3279,39.7937,380,8282
116.3279,39.7937,381,8282
116.3279,39.7937,382,8282
116.3279,39.79369,383,8282
116.3279,39.79369,384,8282
116.3279,39.79369,385,8282
116.32789,39.79369,386,8282
116.32789,39.79369,387,8282
116.32789,39.79368,388,8282
116.32789,39.79368,389,8282
116.32789,39.79368,390,8282
116.32788,39.79368,391,8282
116.32788,39.79368,392,8282
116.32788,39.79368,393,8282
116.32788,39.79368,394,8282
116.32788,39.79368,395,8282
116.32788,39.79368,396,8282
116.32788,39.79368,397,8282
116.32788,39.79368,398,8282
116.32788,39.79368,399,8282
116.32788,39.79368,400,8282
116.32788,39.79368,401,8282
116.32788,39.79368,402,8282
116.32788,39.79368,403,8282
116.32788,39.79368,404,8282
116.32788,39.79368,405,8282
116.32788,39.79369,406,8282
116.32845,39.79374,407,8282
116.32791,39.79367,408,8282
116.32795,39.79368,409,8282
116.32797,39.79367,410,8282
116.32798,39.79368,411,8282
116.32799,39.79367,412,8282
116.32799,39.79367,413,8282
116.328,39.79367,414,8282
116.32799,39.79367,415,8282
116.32802,39.79369,416,8282
116.328,39.79367,417,8282
116.328,39.79367,418,8282
116.32802,39.79368,419,8282
116.32799,39.79367,420,8282
116.32798,39.79366,421,8282
116.32797,39.79366,422,8282
116.32796,39.79365,423,8282
116.32795,39.79365,424,8282
116.32795,39.79365,425,8282
116.32795,39.79365,426,8282
116.32794,39.79365,427,8282
116.32794,39.79365,428,8282
116.32782,39.79365,429,8282
116.32787,39.79369,430,8282
116.32788,39.79368,431,8282
116.32787,39.79368,432,8282
116.32787,39.7937,433,8282
116.32787,39.7937,434,8282
116.32788,39.7937,435,8282
116.32789,39.7937,436,8282
116.32806,39.79381,437,8282
116.32802,39.79373,438,8282
116.32806,39.79372,439,8282
116.32805,39.79371,440,8282
116.32803,39.79371,441,8282
116.32802,39.79371,442,8282
116.32801,39.7937,443,8282
116.32799,39.7937,444,8282
116.32902,39.79419,445,8282
116.32801,39.79369,446,8282
116.32799,39.79367,447,8282
116.32798,39.79366,448,8282
116.32798,39.79366,449,8282
116.32797,39.79365,450,8282
116.32797,39.79365,451,8282
116.32797,39.79365,452,8282
116.32797,39.79365,453,8282
116.32796,39.79365,454,8282
116.32796,39.79365,455,8282
116.32795,39.79364,456,8282
116.32795,39.79364,457,8282
116.32795,39.79364,458,8282
116.32795,39.79364,459,8282
116.32795,39.79364,460,8282
116.32795,39.79364,461,8282
116.32794,39.79364,462,8282
116.32794,39.79363,463,8282
116.32794,39.79363,464,8282
116.32793,39.79363,465,8282
116.32792,39.79364,466,8282
116.32792,39.79365,467,8282
116.32792,39.79365,468,8282
116.32792,39.79366,469,8282
116.33259,39.79288,470,8282
116.32866,39.80439,471,8282
116.32994,39.81717,472,8282
116.34001,39.83346,473,8282
116.35308,39.84441,474,8282
116.37943,39.85585,475,8282
116.35976,39.85436,476,8282
116.32294,39.84808,477,8282
116.31752,39.84658,478,8282
116.3165,39.84655,479,8282
116.3165,39.84655,480,8282
116.30915,39.85847,481,8282
116.30433,39.90385,482,8282
116.33792,39.89622,483,8282
116.34248,39.87201,484,8282
116.33258,39.84777,485,8282
116.31423,39.85267,486,8282
116.31456,39.84683,487,8282
116.34265,39.84901,488,8282
116.38126,39.85569,489,8282
116.41497,39.85569,490,8282
116.41491,39.87846,491,8282
116.41274,39.89051,492,8282
116.4204,39.89255,493,8282
116.40663,39.88691,494,8282
116.39254,39.87948,495,8282
116.38152,39.85575,496,8282
116.33857,39.84898,497,8282
116.31129,39.85635,498,8282
116.32683,39.84745,499,8282
116.30573,39.8724,500,8282
116.30426,39.91093,501,8282
116.3044,39.93823,502,8282
116.3425,39.93811,503,8282
116.34939,39.93295,504,8282
116.34995,39.91991,505,8282
116.35032,39.91219,506,8282
116.34145,39.88845,507,8282
116.34094,39.88723,508,8282
116.34094,39.88723,509,8282
116.34117,39.88762,510,8282
116.34115,39.88768,511,8282
116.34115,39.88768,512,8282
116.34115,39.88768,513,8282
116.34135,39.88777,514,8282
116.34141,39.8879,515,8282
116.34281,39.87652,516,8282
116.34189,39.86561,517,8282
116.32794,39.84798,518,8282
116.31785,39.84933,519,8282
116.34331,39.87379,520,8282
116.34647,39.89689,521,8282
116.35044,39.91428,522,8282
116.35283,39.94321,523,8282
116.3646,39.94695,524,8282
116.36504,39.95412,525,8282
116.35329,39.9436,526,8282
116.34938,39.93143,527,8282
116.35021,39.91757,528,8282
116.35041,39.90133,529,8282
116.34212,39.86869,530,8282
116.35088,39.85135,531,8282
116.35306,39.8438,532,8282
116.37242,39.85556,533,8282
116.34965,39.85139,534,8282
116.31711,39.85028,535,8282
116.30564,39.87556,536,8282
116.29859,39.88091,537,8282
116.28102,39.87398,538,8282
116.28134,39.86462,539,8282
116.28134,39.86462,540,8282
116.2656,39.86436,541,8282
116.28126,39.8396,542,8282
116.29483,39.84221,543,8282
116.31284,39.84688,544,8282
116.33588,39.84754,545,8282
116.33113,39.82552,546,8282
116.32788,39.81587,547,8282
116.32991,39.81885,548,8282
116.33772,39.82958,549,8282
116.34281,39.86908,550,8282
116.34183,39.86306,551,8282
116.31607,39.82937,552,8282
116.29006,39.83219,553,8282
116.28341,39.84158,554,8282
116.27772,39.84649,555,8282
116.28833,39.86724,556,8282
116.28254,39.87555,557,8282
116.26636,39.86435,558,8282
116.31025,39.86631,559,8282
116.34321,39.87188,560,8282
116.35565,39.88819,561,8282
116.3572,39.88817,562,8282
116.3572,39.89703,563,8282
116.37707,39.90582,564,8282
116.43662,39.90708,565,8282
116.46875,39.90672,566,8282
116.48361,39.88448,567,8282
116.48361,39.88448,568,8282
116.46728,39.83771,569,8282
116.40913,39.83124,570,8282
116.36655,39.83028,571,8282
116.33719,39.83013,572,8282
116.31415,39.83807,573,8282
116.31476,39.84573,574,8282
116.34905,39.89682,575,8282
116.36683,39.89833,576,8282
116.36752,39.9034,577,8282
116.36787,39.90526,578,8282
116.36568,39.90738,579,8282
116.36777,39.90137,580,8282
116.3679,39.89932,581,8282
116.35323,39.89799,582,8282
116.34255,39.88478,583,8282
116.3425,39.86956,584,8282
116.33897,39.82216,585,8282
116.33424,39.7978,586,8282
116.33182,39.79287,587,8282
116.32831,39.79308,588,8282
116.32793,39.7937,589,8282
116.32792,39.79369,590,8282
116.32793,39.79369,591,8282
116.32793,39.7937,592,8282
116.32793,39.79369,593,8282
116.32792,39.7937,594,8282
116.32792,39.7937,595,8282
116.32791,39.7937,596,8282
116.3279,39.79368,597,8282
116.3279,39.79367,598,8282
116.32789,39.79367,599,8282
116.32789,39.79366,600,8282
116.32789,39.79365,601,8282
116.32789,39.79365,602,8282
116.32789,39.79365,603,8282
116.32788,39.79365,604,8282
116.32788,39.79364,605,8282
116.32788,39.79364,606,8282
116.32788,39.79364,607,8282
116.32788,39.79364,608,8282
116.32788,39.79364,609,8282
116.32788,39.79364,610,8282
116.32788,39.79364,611,8282
116.32788,39.79364,612,8282
116.32788,39.79364,613,8282
116.32787,39.79364,614,8282
116.32787,39.79365,615,8282
116.32787,39.79364,616,8282
116.32788,39.79364,617,8282
116.32788,39.79364,618,8282
116.32788,39.79364,619,8282
116.32788,39.79364,620,8282
116.32788,39.79364,621,8282
116.32788,39.79364,622,8282
116.32788,39.79364,623,8282
116.32788,39.79364,624,8282
116.32788,39.79364,625,8282
116.32788,39.79364,626,8282
116.32788,39.79364,627,8282
116.32788,39.79364,628,8282
116.32788,39.79364,629,8282
116.32788,39.79364,630,8282
116.32789,39.79364,631,8282
116.32789,39.79364,632,8282
116.32789,39.79364,633,8282
116.32788,39.79364,634,8282
116.32782,39.79356,635,8282
116.32779,39.79386,636,8282
116.3278,39.79385,637,8282
116.32781,39.79383,638,8282
116.32783,39.79381,639,8282
116.32784,39.7938,640,8282
116.32784,39.7938,641,8282
116.32785,39.79379,642,8282
116.32785,39.79378,643,8282
116.32786,39.79377,644,8282
116.32787,39.79376,645,8282
116.32787,39.79376,646,8282
116.32787,39.79376,647,8282
116.32787,39.79375,648,8282
116.32787,39.79375,649,8282
116.32787,39.79375,650,8282
116.32782,39.79365,651,8282
116.32783,39.79363,652,8282
116.32782,39.79362,653,8282
116.32782,39.7936,654,8282
116.32782,39.79359,655,8282
116.32783,39.7936,656,8282
116.32783,39.7936,657,8282
116.32784,39.7936,658,8282
116.32784,39.7936,659,8282
116.32784,39.79361,660,8282
116.32785,39.79361,661,8282
116.32791,39.7936,662,8282
116.3279,39.79361,663,8282
116.32789,39.79361,664,8282
116.32789,39.79361,665,8282
116.32788,39.79361,666,8282
116.32788,39.79361,667,8282
116.32788,39.79361,668,8282
116.32788,39.7936,669,8282
116.32788,39.7936,670,8282
116.32787,39.7936,671,8282
116.32782,39.79363,672,8282
116.32783,39.79363,673,8282
116.32812,39.79349,674,8282
116.32807,39.794,675,8282
116.32781,39.79375,676,8282
116.32781,39.79375,677,8282
116.32781,39.79374,678,8282
116.32783,39.79373,679,8282
116.32785,39.7937,680,8282
116.32786,39.7937,681,8282
116.32788,39.7937,682,8282
116.3279,39.79369,683,8282
116.32792,39.79369,684,8282
116.32799,39.79385,685,8282
116.32795,39.7937,686,8282
116.32796,39.79367,687,8282
116.32798,39.79367,688,8282
116.32797,39.79367,689,8282
116.32797,39.79367,690,8282
116.32797,39.79367,691,8282
116.32796,39.79367,692,8282
116.32795,39.79367,693,8282
116.32795,39.79367,694,8282
116.32794,39.79366,695,8282
116.32794,39.79366,696,8282
116.32794,39.79365,697,8282
116.32794,39.79365,698,8282
116.32793,39.79365,699,8282
116.32793,39.79365,700,8282
116.32793,39.79365,701,8282
116.32793,39.79366,702,8282
116.32792,39.79366,703,8282
116.32792,39.79366,704,8282
116.32792,39.79366,705,8282
116.32792,39.79367,706,8282
116.32791,39.79367,707,8282
116.32791,39.79367,708,8282
116.32791,39.79367,709,8282
116.32791,39.79367,710,8282
116.32788,39.79373,711,8282
116.32791,39.79372,712,8282
116.32822,39.7941,713,8282
116.32807,39.79382,714,8282
116.32802,39.79375,715,8282
116.32791,39.79361,716,8282
116.32793,39.79364,717,8282
116.32791,39.79364,718,8282
116.32794,39.79364,719,8282
116.32795,39.79366,720,8282
116.32794,39.79365,721,8282
116.32793,39.79366,722,8282
116.32793,39.79367,723,8282
116.32792,39.79367,724,8282
116.32791,39.79367,725,8282
116.32791,39.79367,726,8282
116.32791,39.79367,727,8282
116.3279,39.79367,728,8282
116.3279,39.79367,729,8282
116.3279,39.79367,730,8282
116.3279,39.79367,731,8282
116.3279,39.79367,732,8282
116.3279,39.79367,733,8282
116.32789,39.79368,734,8282
116.32789,39.79368,735,8282
116.32788,39.79369,736,8282
116.32788,39.7937,737,8282
116.32788,39.7937,738,8282
116.32997,39.80106,739,8282
116.33333,39.79409,740,8282
116.33857,39.8135,741,8282
116.36208,39.85444,742,8282
116.40718,39.85581,743,8282
116.33666,39.84751,744,8282
116.33901,39.8079,745,8282
116.33516,39.77519,746,8282
116.33814,39.74373,747,8282
116.33216,39.74831,748,8282
116.32485,39.77111,749,8282
116.3286,39.79307,750,8282
116.31974,39.82741,751,8282
116.31358,39.82956,752,8282
116.31358,39.82956,753,8282
116.29102,39.84169,754,8282
116.27706,39.85428,755,8282
116.27305,39.84735,756,8282
116.26094,39.85352,757,8282
116.27647,39.84515,758,8282
116.28728,39.83924,759,8282
116.28372,39.83531,760,8282
116.28029,39.84058,761,8282
116.28744,39.85797,762,8282
116.30121,39.86559,763,8282
116.3053,39.87767,764,8282
116.30447,39.89441,765,8282
116.31232,39.89562,766,8282
116.30515,39.89646,767,8282
116.30536,39.87263,768,8282
116.27552,39.86838,769,8282
116.27234,39.86368,770,8282
116.27709,39.84994,771,8282
116.28084,39.83956,772,8282
116.26484,39.82584,773,8282
116.26494,39.8292,774,8282
116.28675,39.83354,775,8282
116.29107,39.84109,776,8282
116.30744,39.84651,777,8282
116.32052,39.84641,778,8282
116.31416,39.84683,779,8282
116.30211,39.83808,780,8282
116.28164,39.84127,781,8282
116.28147,39.84118,782,8282
116.2685,39.88439,783,8282
116.2685,39.88439,784,8282
116.26841,39.90594,785,8282
116.27221,39.89906,786,8282
116.26917,39.88129,787,8282
116.27323,39.86696,788,8282
116.2769,39.86092,789,8282
116.27854,39.84182,790,8282
116.29181,39.8414,791,8282
116.28731,39.84299,792,8282
116.2873,39.8403,793,8282
116.27695,39.85699,794,8282
116.27885,39.89566,795,8282
116.31461,39.89483,796,8282
116.3035,39.89642,797,8282
116.32783,39.79361,798,8282
116.32782,39.79359,799,8282
116.32782,39.79359,800,8282
116.32782,39.79359,801,8282
116.3279,39.79359,802,8282
116.32785,39.79359,803,8282
116.32785,39.79358,804,8282
116.32786,39.79358,805,8282
116.32784,39.7937,806,8282
116.32782,39.79374,807,8282
116.3278,39.79375,808,8282
116.3278,39.79376,809,8282
116.32782,39.79371,810,8282
116.32784,39.79366,811,8282
116.32782,39.79371,812,8282
116.32784,39.79368,813,8282
116.3278,39.79379,814,8282
116.32781,39.79377,815,8282
116.32781,39.79376,816,8282
116.32782,39.79375,817,8282
116.32782,39.79375,818,8282
116.32812,39.79384,819,8282
116.32809,39.79384,820,8282
116.32807,39.79382,821,8282
116.32806,39.79381,822,8282
116.32805,39.7938,823,8282
116.32804,39.79379,824,8282
116.32804,39.79379,825,8282
116.32803,39.79378,826,8282
116.32803,39.79378,827,8282
116.32802,39.79377,828,8282
116.32802,39.79376,829,8282
116.32801,39.79376,830,8282
116.328,39.79375,831,8282
116.328,39.79374,832,8282
116.32799,39.79374,833,8282
116.32798,39.79373,834,8282
116.32798,39.79372,835,8282
116.32797,39.79371,836,8282
116.32797,39.7937,837,8282
116.32797,39.7937,838,8282
116.32796,39.79369,839,8282
116.32796,39.79369,840,8282
116.32796,39.79368,841,8282
116.32796,39.79368,842,8282
116.32796,39.79368,843,8282
116.32795,39.79367,844,8282
116.32795,39.79367,845,8282
116.32795,39.79367,846,8282
116.32795,39.79367,847,8282
116.32795,39.79367,848,8282
116.32795,39.79367,849,8282
116.32794,39.79367,850,8282
116.32794,39.79368,851,8282
116.32794,39.79368,852,8282
116.32794,39.79367,853,8282
116.32794,39.79367,854,8282
116.32794,39.79367,855,8282
116.32794,39.79367,856,8282
116.32793,39.79367,857,8282
116.32793,39.79367,858,8282
116.32793,39.79366,859,8282
116.32793,39.79366,860,8282
116.32792,39.79366,861,8282
116.32792,39.79365,862,8282
116.32792,39.79365,863,8282
116.32791,39.79365,864,8282
116.32791,39.79365,865,8282
116.32791,39.79365,866,8282
116.3279,39.79365,867,8282
116.3279,39.79365,868,8282
116.3279,39.79365,869,8282
116.32792,39.7936,870,8282
116.32792,39.79352,871,8282
116.32789,39.79356,872,8282
116.32789,39.79358,873,8282
116.32788,39.79359,874,8282
116.32789,39.79359,875,8282
116.32789,39.79358,876,8282
116.32789,39.79359,877,8282
116.32789,39.79359,878,8282
116.32789,39.79359,879,8282
116.32789,39.79359,880,8282
116.32788,39.7936,881,8282
116.32788,39.79361,882,8282
116.32788,39.79362,883,8282
116.32788,39.79363,884,8282
116.32789,39.79364,885,8282
116.32789,39.79364,886,8282
116.32789,39.79365,887,8282
116.32789,39.79365,888,8282
116.32789,39.79365,889,8282
116.32789,39.79365,890,8282
116.32799,39.79369,891,8282
116.32799,39.79368,892,8282
116.32797,39.79368,893,8282
116.32796,39.79368,894,8282
116.32795,39.79366,895,8282
116.32794,39.79365,896,8282
116.32798,39.79376,897,8282
116.32793,39.7937,898,8282
116.32792,39.79367,899,8282
116.32792,39.79366,900,8282
116.32792,39.79366,901,8282
116.32792,39.79365,902,8282
116.32792,39.79365,903,8282
116.32792,39.79365,904,8282
116.32792,39.79365,905,8282
116.32792,39.79365,906,8282
116.32792,39.79365,907,8282
116.32791,39.79365,908,8282
116.32791,39.79365,909,8282
116.32791,39.79365,910,8282
116.32791,39.79365,911,8282
116.32791,39.79365,912,8282
116.3279,39.79364,913,8282
116.3279,39.79364,914,8282
116.3279,39.79364,915,8282
116.32789,39.79364,916,8282
116.32786,39.79398,917,8282
116.32784,39.79367,918,8282
116.32781,39.79366,919,8282
116.32786,39.79361,920,8282
116.32784,39.79363,921,8282
116.32783,39.79379,922,8282
116.32784,39.79375,923,8282
116.32789,39.79373,924,8282
116.32789,39.79373,925,8282
116.32789,39.79373,926,8282
116.32789,39.79373,927,8282
116.32789,39.79373,928,8282
116.32789,39.79373,929,8282
116.32789,39.79372,930,8282
116.32788,39.79372,931,8282
116.32788,39.79372,932,8282
116.32789,39.79372,933,8282
116.32796,39.79375,934,8282
116.32795,39.79362,935,8282
116.32798,39.7936,936,8282
116.32799,39.79361,937,8282
116.32799,39.79361,938,8282
116.32801,39.79362,939,8282
116.32801,39.79362,940,8282
116.328,39.79362,941,8282
116.32799,39.79362,942,8282
116.32798,39.79362,943,8282
116.32798,39.79361,944,8282
116.32797,39.79361,945,8282
116.32797,39.79361,946,8282
116.32796,39.7936,947,8282
116.32796,39.7936,948,8282
116.32795,39.7936,949,8282
116.32795,39.7936,950,8282
116.32794,39.7936,951,8282
116.32794,39.7936,952,8282
116.32794,39.7936,953,8282
116.32793,39.79361,954,8282
116.32793,39.79361,955,8282
116.32792,39.79362,956,8282
116.32792,39.79362,957,8282
116.32792,39.79363,958,8282
116.32792,39.79363,959,8282
116.32792,39.79363,960,8282
116.32791,39.79363,961,8282
116.32807,39.7942,962,8282
116.32795,39.79372,963,8282
116.32793,39.79367,964,8282
116.32789,39.79377,965,8282
116.32789,39.79368,966,8282
116.32789,39.79368,967,8282
116.32882,39.7942,968,8282
116.3279,39.79364,969,8282
116.32789,39.79364,970,8282
116.3279,39.79366,971,8282
116.32791,39.79367,972,8282
116.32792,39.79368,973,8282
116.32792,39.79369,974,8282
116.32792,39.79369,975,8282
116.32792,39.79369,976,8282
116.32792,39.79368,977,8282
116.32792,39.79368,978,8282
116.32792,39.79367,979,8282
116.32791,39.79367,980,8282
116.32791,39.79367,981,8282
116.32791,39.79367,982,8282
116.32791,39.79368,983,8282
116.32791,39.79368,984,8282
116.32791,39.79368,985,8282
116.32791,39.79369,986,8282
116.32791,39.79369,987,8282
116.32791,39.79369,988,8282
116.32791,39.79369,989,8282
116.32791,39.7937,990,8282
116.32791,39.7937,991,8282
116.32791,39.79371,992,8282
116.33381,39.7978,993,8282
116.33381,39.7978,994,8282
116.33274,39.79033,995,8282
116.32869,39.80559,996,8282
116.33833,39.82125,997,8282
116.34699,39.8445,998,8282
116.3845,39.85565,999,8282
116.40548,39.85584,1000,8282
116.30567,39.87562,1001,8282
116.30501,39.87671,1002,8282
116.27518,39.86907,1003,8282
116.32314,39.82958,1004,8282
116.32102,39.84637,1005,8282
116.32682,39.84747,1006,8282
116.301,39.88064,1007,8282
116.29756,39.86621,1008,8282
116.297,39.86614,1009,8282
116.3279,39.79358,1010,8282
116.32788,39.7936,1011,8282
116.32787,39.7936,1012,8282
116.32788,39.7936,1013,8282
116.32789,39.79361,1014,8282
116.32789,39.79362,1015,8282
116.32791,39.79363,1016,8282
116.32793,39.79361,1017,8282
116.32794,39.7936,1018,8282
116.32794,39.7936,1019,8282
116.32794,39.79362,1020,8282
116.32794,39.79362,1021,8282
116.32794,39.79362,1022,8282
116.32794,39.79363,1023,8282
116.32794,39.79362,1024,8282
116.32794,39.79362,1025,8282
116.32804,39.79367,1026,8282
116.32808,39.79366,1027,8282
116.32814,39.79379,1028,8282
116.32807,39.79376,1029,8282
116.32805,39.79374,1030,8282
116.32804,39.79375,1031,8282
116.32803,39.79374,1032,8282
116.32803,39.79374,1033,8282
116.32803,39.79374,1034,8282
116.32803,39.79374,1035,8282
116.32803,39.79374,1036,8282
116.32803,39.79374,1037,8282
116.32802,39.79373,1038,8282
116.32802,39.79373,1039,8282
116.32801,39.79372,1040,8282
116.32801,39.79371,1041,8282
116.328,39.7937,1042,8282
116.32799,39.79369,1043,8282
116.32799,39.79369,1044,8282
116.32798,39.79368,1045,8282
116.32798,39.79368,1046,8282
116.32786,39.79346,1047,8282
116.32786,39.79349,1048,8282
116.32786,39.79352,1049,8282
116.32785,39.79353,1050,8282
116.32785,39.79355,1051,8282
116.32784,39.79356,1052,8282
116.32784,39.79357,1053,8282
116.32783,39.79358,1054,8282
116.32783,39.79359,1055,8282
116.32784,39.79358,1056,8282
116.32785,39.79358,1057,8282
116.32786,39.79357,1058,8282
116.32787,39.79358,1059,8282
116.32787,39.79358,1060,8282
116.32788,39.79359,1061,8282
116.32788,39.79359,1062,8282
116.32789,39.79359,1063,8282
116.32789,39.79359,1064,8282
116.32789,39.79359,1065,8282
116.32789,39.79359,1066,8282
116.3279,39.79359,1067,8282
116.3279,39.7936,1068,8282
116.3279,39.7936,1069,8282
116.3279,39.7936,1070,8282
116.32791,39.7936,1071,8282
116.32791,39.7936,1072,8282
116.32791,39.7936,1073,8282
116.32791,39.7936,1074,8282
116.32792,39.79364,1075,8282
116.32792,39.79361,1076,8282
116.32783,39.79362,1077,8282
116.32789,39.79362,1078,8282
116.32794,39.79359,1079,8282
116.32795,39.79358,1080,8282
116.32795,39.79359,1081,8282
116.32794,39.79359,1082,8282
116.32792,39.7936,1083,8282
116.32778,39.79382,1084,8282
116.32781,39.79378,1085,8282
116.32784,39.79377,1086,8282
116.32787,39.79375,1087,8282
116.32788,39.79373,1088,8282
116.32789,39.79371,1089,8282
116.32789,39.79369,1090,8282
116.32789,39.79369,1091,8282
116.32789,39.79368,1092,8282
116.32798,39.79372,1093,8282
116.32795,39.79365,1094,8282
116.32794,39.79362,1095,8282
116.32793,39.79361,1096,8282
116.32801,39.79389,1097,8282
116.32798,39.79384,1098,8282
116.32795,39.79379,1099,8282
116.32793,39.79376,1100,8282
116.32792,39.79374,1101,8282
116.32792,39.79373,1102,8282
116.32792,39.79372,1103,8282
116.32792,39.79372,1104,8282
116.32793,39.79371,1105,8282
116.32793,39.79371,1106,8282
116.32793,39.7937,1107,8282
116.32794,39.7937,1108,8282
116.32794,39.7937,1109,8282
116.32794,39.7937,1110,8282
116.32794,39.79369,1111,8282
116.32795,39.79369,1112,8282
116.32794,39.79368,1113,8282
116.32794,39.79367,1114,8282
116.32794,39.79367,1115,8282
116.32794,39.79366,1116,8282
116.32794,39.79366,1117,8282
116.32794,39.79366,1118,8282
116.32794,39.79366,1119,8282
116.32794,39.79366,1120,8282
116.32794,39.79366,1121,8282
116.32793,39.79377,1122,8282
116.32794,39.79374,1123,8282
116.32793,39.79376,1124,8282
116.32793,39.79375,1125,8282
116.32794,39.79374,1126,8282
116.32794,39.79373,1127,8282
116.32795,39.79371,1128,8282
116.32796,39.7937,1129,8282
116.32797,39.79369,1130,8282
116.32798,39.79368,1131,8282
116.32797,39.79364,1132,8282
116.32802,39.79372,1133,8282
116.328,39.79372,1134,8282
116.32813,39.79374,1135,8282
116.32811,39.79373,1136,8282
116.32809,39.79372,1137,8282
116.32809,39.79372,1138,8282
116.32762,39.79354,1139,8282
116.32807,39.79367,1140,8282
116.32797,39.79363,1141,8282
116.32796,39.79362,1142,8282
116.32796,39.7936,1143,8282
116.32795,39.7936,1144,8282
116.32795,39.7936,1145,8282
116.32794,39.7936,1146,8282
116.32793,39.7936,1147,8282
116.32793,39.7936,1148,8282
116.32793,39.7936,1149,8282
116.32793,39.7936,1150,8282
116.32793,39.7936,1151,8282
104.17073,30.82958,1152,8282
104.17073,30.82958,1153,8282
116.32793,39.7936,1154,8282
116.32793,39.7936,1155,8282
116.32793,39.7936,1156,8282
116.32793,39.7936,1157,8282
116.32793,39.79361,1158,8282
116.32796,39.79369,1159,8282
116.32797,39.79368,1160,8282
116.32798,39.79368,1161,8282
116.32799,39.79367,1162,8282
116.32797,39.79365,1163,8282
116.32798,39.79364,1164,8282
116.32798,39.79364,1165,8282
116.32797,39.79363,1166,8282
116.32798,39.79363,1167,8282
116.32797,39.79364,1168,8282
116.32797,39.79364,1169,8282
116.32796,39.79364,1170,8282
116.32796,39.79363,1171,8282
116.32796,39.79363,1172,8282
116.32795,39.79364,1173,8282
116.32795,39.79364,1174,8282
116.32795,39.79364,1175,8282
116.32794,39.79364,1176,8282
116.32794,39.79364,1177,8282
116.32794,39.79364,1178,8282
116.32794,39.79364,1179,8282
116.32794,39.79364,1180,8282
116.32794,39.79364,1181,8282
116.32794,39.79364,1182,8282
116.32793,39.79364,1183,8282
116.32793,39.79364,1184,8282
116.32793,39.79365,1185,8282
116.32793,39.79365,1186,8282
116.32793,39.79365,1187,8282
116.32793,39.79365,1188,8282
116.32792,39.79372,1189,8282
116.32792,39.79367,1190,8282
116.32791,39.79364,1191,8282
116.3279,39.79363,1192,8282
116.3279,39.79364,1193,8282
116.3279,39.79366,1194,8282
116.3279,39.79368,1195,8282
116.3279,39.79369,1196,8282
116.32791,39.79369,1197,8282
116.32791,39.79369,1198,8282
116.32792,39.7937,1199,8282
116.32792,39.7937,1200,8282
116.32792,39.79369,1201,8282
116.32792,39.79369,1202,8282
116.32792,39.79369,1203,8282
116.32797,39.7934,1204,8282
116.32797,39.79342,1205,8282
116.32797,39.79343,1206,8282
116.32796,39.79345,1207,8282
116.32796,39.79345,1208,8282
116.32797,39.79356,1209,8282
116.32795,39.79358,1210,8282
116.32796,39.79369,1211,8282
116.32794,39.79366,1212,8282
116.32793,39.79365,1213,8282
116.32792,39.79365,1214,8282
116.32792,39.79364,1215,8282
116.3279,39.79363,1216,8282
116.3279,39.79364,1217,8282
116.3279,39.79364,1218,8282
116.32784,39.79384,1219,8282
116.32787,39.7938,1220,8282
116.3279,39.79375,1221,8282
116.32791,39.79372,1222,8282
116.32791,39.7937,1223,8282
116.32791,39.79369,1224,8282
116.32791,39.79368,1225,8282
116.32791,39.79368,1226,8282
116.32791,39.79368,1227,8282
116.32791,39.79368,1228,8282
116.32791,39.79368,1229,8282
116.32791,39.79369,1230,8282
116.32791,39.79369,1231,8282
116.32791,39.79369,1232,8282
116.32808,39.794,1233,8282
116.32794,39.79368,1234,8282
116.32794,39.79368,1235,8282
116.32793,39.79369,1236,8282
116.32791,39.79371,1237,8282
116.3279,39.79371,1238,8282
116.32791,39.79372,1239,8282
116.32791,39.79373,1240,8282
116.32797,39.79384,1241,8282
116.33883,39.78797,1242,8282
116.33903,39.78791,1243,8282
116.33901,39.78788,1244,8282
116.33904,39.7879,1245,8282
116.33901,39.78788,1246,8282
116.33903,39.7879,1247,8282
116.33905,39.78791,1248,8282
116.33906,39.78792,1249,8282
116.33908,39.78795,1250,8282
116.33907,39.78795,1251,8282
116.33906,39.78795,1252,8282
116.33946,39.78673,1253,8282
116.33914,39.78749,1254,8282
116.33897,39.78763,1255,8282
116.33907,39.78757,1256,8282
116.33914,39.78758,1257,8282
116.34038,39.7875,1258,8282
116.34038,39.7875,1259,8282
116.33993,39.78768,1260,8282
116.33908,39.78809,1261,8282
116.33901,39.78808,1262,8282
116.33901,39.78813,1263,8282
116.33901,39.78801,1264,8282
116.33902,39.78824,1265,8282
116.33903,39.78819,1266,8282
116.33904,39.78812,1267,8282
116.33908,39.78801,1268,8282
116.33909,39.78796,1269,8282
116.33907,39.78789,1270,8282
116.33906,39.78785,1271,8282
116.33905,39.78783,1272,8282
116.33903,39.78783,1273,8282
116.33789,39.78799,1274,8282
116.32882,39.78081,1275,8282
116.32883,39.78086,1276,8282
116.32882,39.78084,1277,8282
116.32881,39.78082,1278,8282
116.32881,39.78081,1279,8282
116.32882,39.78078,1280,8282
116.32881,39.78076,1281,8282
116.32881,39.78076,1282,8282
116.32884,39.78076,1283,8282
116.32888,39.78077,1284,8282
116.32886,39.78078,1285,8282
116.32888,39.78076,1286,8282
116.32888,39.78076,1287,8282
116.32889,39.78076,1288,8282
116.329,39.78056,1289,8282
116.32899,39.78061,1290,8282
116.32876,39.78097,1291,8282
116.32887,39.78062,1292,8282
116.32881,39.78086,1293,8282
116.32884,39.78086,1294,8282
116.32886,39.78087,1295,8282
116.32886,39.78087,1296,8282
116.32886,39.78088,1297,8282
116.32886,39.78088,1298,8282
116.335,39.78066,1299,8282
116.33906,39.78772,1300,8282
116.33905,39.7877,1301,8282
116.33817,39.79108,1302,8282
116.33017,39.79425,1303,8282
116.33063,39.79543,1304,8282
116.33064,39.79529,1305,8282
116.33061,39.79561,1306,8282
116.33132,39.79689,1307,8282
116.34875,39.79124,1308,8282
116.38383,39.80221,1309,8282
116.3873,39.80158,1310,8282
116.38733,39.80158,1311,8282
116.38759,39.80166,1312,8282
116.38753,39.80165,1313,8282
116.3875,39.80164,1314,8282
116.38748,39.80166,1315,8282
116.38744,39.80163,1316,8282
116.38744,39.80163,1317,8282
116.3874,39.80163,1318,8282
116.38739,39.80163,1319,8282
116.38737,39.80163,1320,8282
116.38736,39.80163,1321,8282
116.36486,39.79385,1322,8282
116.33555,39.78926,1323,8282
116.32787,39.79352,1324,8282
116.32786,39.79354,1325,8282
116.32786,39.79356,1326,8282
116.32785,39.79356,1327,8282
116.32787,39.79351,1328,8282
116.32782,39.7936,1329,8282
116.32781,39.79361,1330,8282
116.32781,39.79363,1331,8282
116.3278,39.79363,1332,8282
116.3278,39.79365,1333,8282
116.32781,39.79364,1334,8282
116.32782,39.79363,1335,8282
116.32783,39.79362,1336,8282
116.32783,39.79362,1337,8282
116.32784,39.79362,1338,8282
116.32785,39.79362,1339,8282
116.32786,39.79363,1340,8282
116.32787,39.79363,1341,8282
116.32803,39.79355,1342,8282
116.32804,39.79369,1343,8282
116.32802,39.79369,1344,8282
116.328,39.79368,1345,8282
116.32799,39.79369,1346,8282
116.32799,39.79369,1347,8282
116.32798,39.79369,1348,8282
116.32798,39.79369,1349,8282
116.32799,39.79368,1350,8282
116.328,39.79367,1351,8282
116.32801,39.79367,1352,8282
116.32801,39.79367,1353,8282
116.32801,39.79367,1354,8282
116.32798,39.79364,1355,8282
116.328,39.79367,1356,8282
116.32783,39.79349,1357,8282
116.32795,39.79357,1358,8282
116.32791,39.79356,1359,8282
116.32794,39.79356,1360,8282
116.32796,39.79357,1361,8282
116.32795,39.79359,1362,8282
116.32794,39.7936,1363,8282
116.32793,39.79361,1364,8282
116.32793,39.79361,1365,8282
116.32792,39.79361,1366,8282
116.32792,39.79362,1367,8282
116.32792,39.79363,1368,8282
116.32792,39.79363,1369,8282
116.32792,39.79363,1370,8282
116.32792,39.79363,1371,8282
116.32792,39.79364,1372,8282
116.32795,39.7937,1373,8282
116.32788,39.79374,1374,8282
116.3279,39.79373,1375,8282
116.3279,39.79373,1376,8282
116.3279,39.79373,1377,8282
116.32789,39.79371,1378,8282
116.32788,39.7937,1379,8282
116.32817,39.79383,1380,8282
116.32785,39.79375,1381,8282
116.32784,39.79372,1382,8282
116.32786,39.79369,1383,8282
116.32788,39.79373,1384,8282
116.32787,39.79371,1385,8282
116.32787,39.7937,1386,8282
116.32787,39.79369,1387,8282
116.32788,39.79367,1388,8282
116.32788,39.79366,1389,8282
116.32788,39.79365,1390,8282
116.32788,39.79365,1391,8282
116.32788,39.79365,1392,8282
116.32788,39.79365,1393,8282
116.32788,39.79364,1394,8282
116.32788,39.79364,1395,8282
116.32788,39.79363,1396,8282
116.32788,39.79363,1397,8282
116.32788,39.79362,1398,8282
116.32788,39.79362,1399,8282
116.32788,39.79362,1400,8282
116.32789,39.79362,1401,8282
116.32789,39.79362,1402,8282
116.32789,39.79362,1403,8282
116.32789,39.79362,1404,8282
116.32789,39.79363,1405,8282
116.32802,39.79402,1406,8282
116.32802,39.79402,1407,8282
116.32793,39.79353,1408,8282
116.32793,39.79351,1409,8282
116.32792,39.79374,1410,8282
116.32795,39.79367,1411,8282
116.32795,39.79344,1412,8282
116.32802,39.79373,1413,8282
116.32807,39.79364,1414,8282
116.32804,39.79362,1415,8282
116.32803,39.79362,1416,8282
116.32809,39.79366,1417,8282
116.32813,39.79378,1418,8282
116.32809,39.79376,1419,8282
116.32806,39.79374,1420,8282
116.32804,39.79371,1421,8282
116.32802,39.79369,1422,8282
116.32801,39.79367,1423,8282
116.328,39.79366,1424,8282
116.32799,39.79364,1425,8282
116.32784,39.79376,1426,8282
116.32794,39.79357,1427,8282
116.32791,39.79362,1428,8282
116.32791,39.79362,1429,8282
116.3279,39.79363,1430,8282
116.3279,39.79364,1431,8282
116.3279,39.79364,1432,8282
116.32791,39.79364,1433,8282
116.32791,39.79364,1434,8282
116.32791,39.79363,1435,8282
116.32792,39.79363,1436,8282
116.32792,39.79363,1437,8282
116.32792,39.79362,1438,8282
116.32793,39.79362,1439,8282
116.32794,39.79362,1440,8282
116.32794,39.79361,1441,8282
116.32816,39.79371,1442,8282
116.32812,39.79372,1443,8282
116.3281,39.79371,1444,8282
116.32808,39.79372,1445,8282
116.32807,39.7937,1446,8282
116.32806,39.79369,1447,8282
116.32807,39.79369,1448,8282
116.32808,39.79367,1449,8282
116.32808,39.79367,1450,8282
116.32808,39.79367,1451,8282
116.32807,39.79367,1452,8282
116.32806,39.79368,1453,8282
116.32805,39.79368,1454,8282
116.32804,39.79368,1455,8282
116.32803,39.79367,1456,8282
116.32803,39.79367,1457,8282
116.32802,39.79367,1458,8282
116.32802,39.79367,1459,8282
116.32802,39.79367,1460,8282
116.32801,39.79366,1461,8282
116.328,39.79366,1462,8282
116.328,39.79366,1463,8282
116.328,39.79366,1464,8282
116.328,39.79366,1465,8282
116.32799,39.79366,1466,8282
116.32799,39.79366,1467,8282
116.32799,39.79366,1468,8282
116.32799,39.79366,1469,8282
116.32799,39.79366,1470,8282
116.32799,39.79366,1471,8282
116.32798,39.79366,1472,8282
116.32798,39.79366,1473,8282
116.32798,39.79366,1474,8282
116.32798,39.79366,1475,8282
116.32798,39.79366,1476,8282
116.32797,39.79366,1477,8282
116.32797,39.79366,1478,8282
116.32797,39.79367,1479,8282
116.32796,39.79367,1480,8282
116.32796,39.79368,1481,8282
116.32796,39.79368,1482,8282
116.32796,39.79368,1483,8282
116.32796,39.79368,1484,8282
116.32796,39.79368,1485,8282
116.32796,39.79368,1486,8282
116.32796,39.79368,1487,8282
116.32795,39.79368,1488,8282
116.32795,39.79368,1489,8282
116.32773,39.79376,1490,8282
116.32784,39.7938,1491,8282
116.32786,39.79373,1492,8282
116.32784,39.7937,1493,8282
116.32784,39.79368,1494,8282
116.32784,39.79366,1495,8282
116.32815,39.79394,1496,8282
116.32815,39.79394,1497,8282
116.32788,39.79356,1498,8282
116.3279,39.79358,1499,8282
116.32791,39.79358,1500,8282
116.3279,39.79358,1501,8282
116.32811,39.79367,1502,8282
116.32786,39.7933,1503,8282
116.32795,39.79354,1504,8282
116.3279,39.794,1505,8282
116.32791,39.79364,1506,8282
116.32798,39.79361,1507,8282
116.32797,39.79362,1508,8282
116.32794,39.7936,1509,8282
116.32792,39.7936,1510,8282
116.32791,39.79359,1511,8282
116.32789,39.79361,1512,8282
116.32789,39.79361,1513,8282
116.32788,39.79362,1514,8282
116.32787,39.79373,1515,8282
116.32787,39.79372,1516,8282
116.328,39.79341,1517,8282
116.3465,39.78854,1518,8282
116.34453,39.78876,1519,8282
116.34453,39.78876,1520,8282
116.33357,39.79583,1521,8282
116.35205,39.79183,1522,8282
116.38479,39.80198,1523,8282
116.41084,39.8024,1524,8282
116.41102,39.80163,1525,8282
116.43493,39.80233,1526,8282
116.41467,39.80174,1527,8282
116.39485,39.8016,1528,8282
116.37681,39.80188,1529,8282
116.36637,39.8135,1530,8282
116.36365,39.80926,1531,8282
116.411,39.80219,1532,8282
116.42848,39.80298,1533,8282
116.44947,39.79937,1534,8282
116.47048,39.78747,1535,8282
116.45869,39.79639,1536,8282
116.4369,39.80139,1537,8282
116.4218,39.80241,1538,8282
116.40528,39.80395,1539,8282
116.39612,39.81506,1540,8282
116.39538,39.82594,1541,8282
116.39711,39.83484,1542,8282
116.40456,39.84086,1543,8282
116.3902,39.8558,1544,8282
116.38169,39.86559,1545,8282
116.42037,39.86275,1546,8282
116.40911,39.85593,1547,8282
116.40843,39.8459,1548,8282
116.40843,39.8459,1549,8282
116.40882,39.84122,1550,8282
116.39674,39.85112,1551,8282
116.396,39.87251,1552,8282
116.39158,39.87309,1553,8282
116.37267,39.85599,1554,8282
116.34807,39.851,1555,8282
116.33404,39.84785,1556,8282
116.31761,39.84936,1557,8282
116.31345,39.84662,1558,8282
116.33992,39.84682,1559,8282
116.35814,39.86855,1560,8282
116.35759,39.88068,1561,8282
116.35795,39.87258,1562,8282
116.35803,39.85922,1563,8282
116.33207,39.84789,1564,8282
116.31963,39.84653,1565,8282
116.29021,39.84194,1566,8282
116.28831,39.8433,1567,8282
116.29766,39.8397,1568,8282
116.27769,39.84886,1569,8282
116.29147,39.86487,1570,8282
116.28777,39.86496,1571,8282
116.26242,39.86454,1572,8282
116.27704,39.84958,1573,8282
116.27744,39.85309,1574,8282
116.28761,39.86017,1575,8282
116.2792,39.84106,1576,8282
116.29825,39.83954,1577,8282
116.28696,39.84295,1578,8282
116.28696,39.84295,1579,8282
116.29887,39.83953,1580,8282
116.31479,39.84643,1581,8282
116.34086,39.84872,1582,8282
116.38075,39.85916,1583,8282
116.35276,39.85208,1584,8282
116.35772,39.86752,1585,8282
116.35768,39.87699,1586,8282
116.3629,39.87714,1587,8282
116.35756,39.87057,1588,8282
116.34201,39.86353,1589,8282
116.33699,39.84767,1590,8282
116.34267,39.88882,1591,8282
116.35005,39.92386,1592,8282
116.37372,39.94754,1593,8282
116.34263,39.87116,1594,8282
116.33949,39.84448,1595,8282
116.33873,39.81155,1596,8282
116.33271,39.79308,1597,8282
116.32795,39.79377,1598,8282
116.32798,39.79376,1599,8282
116.32799,39.79376,1600,8282
