x,y,k,tid
116.33725,39.88874,0,8288
116.34665,39.89673,1,8288
116.35834,39.91256,2,8288
116.36818,39.91058,3,8288
116.34783,39.90594,4,8288
116.33193,39.91287,5,8288
116.34918,39.91661,6,8288
116.33611,40.03685,7,8288
116.3037,40.03501,8,8288
116.30114,40.03483,9,8288
116.30906,39.99888,10,8288
116.32675,39.98518,11,8288
116.31394,39.97943,12,8288
116.33138,39.99156,13,8288
116.33091,39.98519,14,8288
116.29758,39.99631,15,8288
116.29758,39.99631,16,8288
116.30024,39.97497,17,8288
116.29977,39.98323,18,8288
116.29922,39.98548,19,8288
116.26899,39.92882,20,8288
116.25871,39.90583,21,8288
116.26767,39.89973,22,8288
116.27617,39.86055,23,8288
116.28636,39.85812,24,8288
116.298,39.88027,25,8288
116.30455,39.89415,26,8288
116.32826,39.90136,27,8288
116.33692,39.91259,28,8288
116.34748,39.91629,29,8288
116.34828,39.91712,30,8288
116.34987,39.91264,31,8288
116.34997,39.90724,32,8288
116.34129,39.85777,33,8288
116.30395,39.93653,34,8288
116.40251,39.85532,35,8288
116.40729,39.85726,36,8288
116.42238,39.88253,37,8288
116.42865,39.89724,38,8288
116.41298,39.89208,39,8288
116.4304,39.9001,40,8288
116.42865,39.93234,41,8288
116.41944,39.94692,42,8288
116.43221,39.9582,43,8288
116.43666,39.97131,44,8288
116.4113,39.97407,45,8288
116.41132,39.97407,46,8288
116.41119,39.97403,47,8288
116.40529,39.96794,48,8288
116.329,39.96624,49,8288
116.30371,39.91941,50,8288
116.3044,39.89879,51,8288
116.29878,39.87076,52,8288
116.30271,39.87341,53,8288
116.30445,39.88948,54,8288
116.33637,39.89338,55,8288
116.35038,39.89934,56,8288
116.35019,39.94714,57,8288
116.32851,39.96236,58,8288
116.34018,39.96608,59,8288
116.34993,39.92462,60,8288
116.35121,39.901,61,8288
116.41534,39.86591,62,8288
116.43252,39.85403,63,8288
116.43239,39.85781,64,8288
116.37341,39.84929,65,8288
116.38079,39.84813,66,8288
116.38181,39.86651,67,8288
116.3683,39.90062,68,8288
116.36731,39.92336,69,8288
116.34969,39.92563,70,8288
116.31656,39.86675,71,8288
116.31031,39.84713,72,8288
116.3042,39.92007,73,8288
116.32939,39.95329,74,8288
116.33675,39.94706,75,8288
116.33682,39.94723,76,8288
116.33653,39.94704,77,8288
116.33639,39.94703,78,8288
116.33639,39.94684,79,8288
116.3364,39.94713,80,8288
116.3364,39.94706,81,8288
116.33643,39.94704,82,8288
116.33652,39.94702,83,8288
116.3361,39.94772,84,8288
116.3361,39.94772,85,8288
116.33531,39.94616,86,8288
116.33632,39.94716,87,8288
116.3367,39.94797,88,8288
116.33652,39.94655,89,8288
116.33657,39.94728,90,8288
116.33623,39.947,91,8288
116.33607,39.94656,92,8288
116.33646,39.94725,93,8288
116.33647,39.9472,94,8288
116.33645,39.94689,95,8288
116.33627,39.94698,96,8288
116.33654,39.94679,97,8288
116.33649,39.94678,98,8288
116.33649,39.94678,99,8288
116.33631,39.94715,100,8288
116.33607,39.94685,101,8288
116.34045,39.91086,102,8288
116.34955,39.96624,103,8288
116.38485,39.91848,104,8288
116.36103,39.88793,105,8288
116.33952,39.83663,106,8288
116.33952,39.83663,107,8288
116.44355,39.82589,108,8288
116.44371,39.82549,109,8288
116.44356,39.82545,110,8288
116.44354,39.82551,111,8288
116.44354,39.82551,112,8288
116.44354,39.82551,113,8288
116.44354,39.82553,114,8288
116.44352,39.82561,115,8288
116.44352,39.8257,116,8288
116.4477,39.82294,117,8288
116.53334,39.84102,118,8288
116.51951,39.96634,119,8288
116.51022,40.01085,120,8288
116.50824,40.00981,121,8288
116.47692,39.99595,122,8288
116.46162,40.00425,123,8288
116.45653,39.99663,124,8288
116.44882,39.96606,125,8288
116.43475,39.95954,126,8288
116.44189,39.96085,127,8288
116.44907,39.9664,128,8288
116.44907,39.9664,129,8288
116.41853,39.9709,130,8288
116.41288,39.96728,131,8288
116.43886,39.96216,132,8288
116.4578,39.97325,133,8288
116.44476,39.95803,134,8288
116.44479,39.95799,135,8288
116.44516,39.9221,136,8288
116.4348,39.91182,137,8288
116.43731,39.90326,138,8288
116.43234,39.93955,139,8288
116.47216,39.92995,140,8288
116.47107,39.91205,141,8288
116.47171,39.91526,142,8288
116.45447,39.90668,143,8288
116.45526,39.87505,144,8288
116.43664,39.89743,145,8288
116.42227,39.89921,146,8288
116.41142,39.89616,147,8288
116.42894,39.89294,148,8288
116.46288,39.89593,149,8288
116.46112,39.89681,150,8288
116.45477,39.90547,151,8288
116.45669,39.93278,152,8288
116.45591,39.94706,153,8288
116.44157,39.96116,154,8288
116.44321,39.96388,155,8288
116.44764,39.96654,156,8288
116.50501,40.00681,157,8288
116.44514,39.95917,158,8288
116.44514,39.95917,159,8288
116.42804,39.94651,160,8288
116.36748,39.94748,161,8288
116.34894,39.93908,162,8288
116.34955,39.93167,163,8288
116.35018,39.92074,164,8288
116.35031,39.90266,165,8288
116.33918,39.88788,166,8288
116.35633,39.88775,167,8288
116.38787,39.88874,168,8288
116.43554,39.89227,169,8288
116.45557,39.8916,170,8288
116.46596,39.89602,171,8288
116.4611,39.8968,172,8288
116.46133,39.89701,173,8288
116.45535,39.92253,174,8288
116.46814,39.94288,175,8288
116.47959,39.90473,176,8288
116.39543,39.89103,177,8288
116.33996,39.8885,178,8288
116.32608,39.87608,179,8288
116.30912,39.88541,180,8288
116.3034,39.92263,181,8288
116.31725,39.95567,182,8288
116.37145,39.96644,183,8288
116.40708,39.96762,184,8288
116.41237,39.97872,185,8288
116.41237,39.97872,186,8288
116.37339,39.96676,187,8288
116.33085,39.99133,188,8288
116.37485,39.97601,189,8288
116.32724,40.04914,190,8288
116.33185,40.04127,191,8288
116.3341,39.99939,192,8288
116.34214,39.99174,193,8288
116.43007,39.98748,194,8288
116.4779,39.99415,195,8288
116.53887,40.05583,196,8288
116.56271,40.06831,197,8288
116.57159,40.06318,198,8288
116.57933,40.06245,199,8288
116.57937,40.0625,200,8288
116.58174,40.06287,201,8288
116.58156,40.0691,202,8288
116.58102,40.07198,203,8288
116.58102,40.07199,204,8288
116.58041,40.07572,205,8288
116.58047,40.076,206,8288
116.58047,40.07604,207,8288
116.58282,40.07945,208,8288
116.58263,40.07947,209,8288
116.58257,40.07947,210,8288
116.58814,40.07799,211,8288
116.58814,40.07799,212,8288
116.58814,40.07799,213,8288
116.58814,40.07799,214,8288
116.58814,40.07799,215,8288
116.58814,40.07799,216,8288
116.58814,40.07799,217,8288
116.49011,39.9944,218,8288
116.36617,39.98632,219,8288
116.3638,39.98573,220,8288
116.41799,39.97809,221,8288
116.41802,39.97807,222,8288
116.41798,39.97808,223,8288
116.41828,39.97144,224,8288
116.42943,39.96576,225,8288
116.42962,39.96565,226,8288
116.42937,39.96571,227,8288
116.43352,39.96028,228,8288
116.45047,39.95062,229,8288
116.45052,39.9506,230,8288
116.45066,39.95051,231,8288
116.46343,39.92073,232,8288
116.45659,39.89715,233,8288
116.48086,39.89783,234,8288
116.48081,39.89778,235,8288
116.42963,39.90448,236,8288
116.44281,39.90676,237,8288
116.4611,39.89663,238,8288
116.46106,39.89679,239,8288
116.4742,39.9037,240,8288
116.48821,39.99211,241,8288
116.58381,40.05981,242,8288
116.58381,40.05981,243,8288
116.58301,40.06315,244,8288
116.48581,39.99054,245,8288
116.4686,40.00043,246,8288
116.46875,40.00018,247,8288
116.46917,40.00044,248,8288
116.43826,39.98707,249,8288
116.42456,39.99327,250,8288
116.41793,39.98226,251,8288
116.43788,39.98606,252,8288
116.50695,40.01069,253,8288
116.50593,40.01083,254,8288
116.50498,40.01026,255,8288
116.50502,40.01027,256,8288
116.50498,40.01023,257,8288
116.50496,40.01021,258,8288
116.50495,40.01021,259,8288
116.50494,40.0102,260,8288
116.50473,40.01014,261,8288
116.47894,40.00099,262,8288
116.48313,39.98678,263,8288
116.4999,39.99967,264,8288
116.47607,39.9916,265,8288
116.43971,39.99039,266,8288
116.41418,39.99239,267,8288
116.41364,39.99116,268,8288
116.39437,39.96719,269,8288
116.38193,39.96641,270,8288
116.38835,39.95022,271,8288
116.38835,39.95022,272,8288
116.4206,39.93965,273,8288
116.41512,39.91437,274,8288
116.427,39.92199,275,8288
116.45745,39.95651,276,8288
116.44469,39.94651,277,8288
116.41976,39.95807,278,8288
116.38812,39.97554,279,8288
116.40993,39.94829,280,8288
116.38984,39.93831,281,8288
116.3716,39.91371,282,8288
116.37028,39.90929,283,8288
116.37338,39.91304,284,8288
116.39913,39.92282,285,8288
116.41181,39.91162,286,8288
116.42021,39.90698,287,8288
116.43048,39.92887,288,8288
116.44582,39.92553,289,8288
116.47135,39.92149,290,8288
116.52359,39.92075,291,8288
116.51225,39.91605,292,8288
116.51222,39.91594,293,8288
116.51246,39.916,294,8288
116.48425,39.91901,295,8288
116.47552,39.92708,296,8288
116.50494,40.0102,297,8288
116.45556,39.93158,298,8288
116.43743,39.93063,299,8288
116.43743,39.93063,300,8288
116.39635,39.9478,301,8288
116.37041,39.94751,302,8288
116.35008,39.94264,303,8288
116.31105,39.95173,304,8288
116.33194,39.94611,305,8288
116.34525,39.9418,306,8288
116.35622,39.93916,307,8288
116.36256,39.91628,308,8288
116.36789,39.902,309,8288
116.34233,39.89213,310,8288
116.34959,39.93616,311,8288
116.33349,39.93724,312,8288
116.27869,39.92834,313,8288
116.28481,39.92288,314,8288
116.32211,39.92693,315,8288
116.37362,39.98555,316,8288
116.40968,39.99375,317,8288
116.40618,40.04432,318,8288
116.40735,40.06663,319,8288
116.40588,40.04396,320,8288
116.39958,40.00411,321,8288
116.40297,40.04334,322,8288
116.4108,40.0256,323,8288
116.4108,40.0256,324,8288
116.41781,39.98798,325,8288
116.48486,39.93223,326,8288
116.4723,39.92741,327,8288
116.45519,39.92247,328,8288
116.45501,39.91741,329,8288
116.4493,39.94029,330,8288
116.43331,39.95824,331,8288
116.42596,39.9359,332,8288
116.44675,39.92715,333,8288
116.42359,39.93506,334,8288
116.42346,39.93504,335,8288
116.42397,39.93574,336,8288
116.42355,39.93516,337,8288
116.42355,39.93516,338,8288
116.42347,39.93517,339,8288
116.42366,39.93503,340,8288
116.42376,39.93489,341,8288
116.42335,39.93479,342,8288
116.42334,39.93508,343,8288
116.42358,39.93505,344,8288
116.42353,39.9351,345,8288
116.4235,39.93497,346,8288
116.42353,39.93503,347,8288
116.42358,39.93505,348,8288
116.42348,39.93508,349,8288
116.42364,39.93498,350,8288
116.42333,39.93485,351,8288
116.42346,39.9348,352,8288
116.42343,39.93512,353,8288
116.42348,39.93491,354,8288
116.42346,39.93498,355,8288
116.42351,39.93509,356,8288
116.42324,39.93527,357,8288
116.42349,39.93513,358,8288
116.42344,39.93527,359,8288
116.42344,39.93522,360,8288
116.41083,39.91782,361,8288
116.36836,39.90976,362,8288
116.36836,39.90976,363,8288
116.36476,39.90973,364,8288
116.42772,39.90708,365,8288
116.47235,40.00331,366,8288
116.46729,40.00231,367,8288
116.46726,40.00237,368,8288
116.46748,40.00234,369,8288
116.42834,39.98802,370,8288
116.46197,39.98553,371,8288
116.43816,39.96851,372,8288
116.37398,39.94754,373,8288
116.3448,39.91603,374,8288
116.30403,39.89938,375,8288
116.28144,39.83277,376,8288
116.2828,39.83511,377,8288
116.30468,39.88265,378,8288
116.43551,39.94819,379,8288
116.46762,39.97474,380,8288
116.48983,39.9954,381,8288
116.51012,40.01103,382,8288
116.50823,40.00977,383,8288
116.48228,39.9876,384,8288
116.48228,39.9876,385,8288
116.46121,39.98883,386,8288
116.45911,39.9768,387,8288
116.45826,39.97744,388,8288
116.45874,39.97673,389,8288
116.45895,39.97659,390,8288
116.44201,39.98413,391,8288
116.40171,39.99567,392,8288
116.41141,39.97037,393,8288
116.44797,39.95656,394,8288
116.47144,39.90342,395,8288
116.46714,39.89965,396,8288
116.45493,39.90718,397,8288
116.42214,39.90717,398,8288
116.38268,39.90615,399,8288
116.33124,39.89637,400,8288
116.33401,39.91297,401,8288
116.35371,39.91258,402,8288
116.36701,39.92631,403,8288
116.36701,39.92631,404,8288
116.4013,39.96863,405,8288
116.42481,39.97976,406,8288
116.42447,39.97997,407,8288
116.41132,39.99598,408,8288
116.41371,40.03641,409,8288
116.41073,40.03211,410,8288
116.40186,39.99589,411,8288
116.34753,39.97553,412,8288
116.35257,39.93539,413,8288
116.35257,39.93539,414,8288
116.34583,39.94024,415,8288
116.35343,39.95769,416,8288
116.36889,39.95658,417,8288
116.36533,39.95105,418,8288
116.34964,39.92803,419,8288
116.32934,39.91009,420,8288
116.3531,39.9125,421,8288
116.37058,39.9132,422,8288
116.39008,39.90617,423,8288
116.32864,39.89625,424,8288
116.45522,39.90073,425,8288
116.46122,39.89675,426,8288
116.4612,39.89896,427,8288
116.46597,39.93249,428,8288
116.4563,39.93257,429,8288
116.43447,39.92899,430,8288
116.46646,39.96514,431,8288
116.47562,39.96972,432,8288
116.47798,39.90439,433,8288
116.43272,39.86639,434,8288
116.42406,39.85996,435,8288
116.4319,39.86454,436,8288
116.45547,39.88337,437,8288
116.46122,39.8969,438,8288
116.46139,39.897,439,8288
116.46113,39.89696,440,8288
116.47004,39.91002,441,8288
116.47004,39.91002,442,8288
116.46729,39.89938,443,8288
116.46729,39.89938,444,8288
116.46728,39.89938,445,8288
116.46113,39.89699,446,8288
116.45627,39.90289,447,8288
116.41366,39.8959,448,8288
116.42797,39.9323,449,8288
116.41146,39.97805,450,8288
116.41197,40.0262,451,8288
116.41979,40.0584,452,8288
116.40718,40.06659,453,8288
116.41048,39.99068,454,8288
116.45145,39.95435,455,8288
116.45688,39.88297,456,8288
116.45557,39.89249,457,8288
116.48417,39.90263,458,8288
116.47992,39.89766,459,8288
116.42137,39.90707,460,8288
116.45505,39.9209,461,8288
116.45533,39.89477,462,8288
116.46631,39.92938,463,8288
116.52178,39.91579,464,8288
116.51137,39.94209,465,8288
116.51137,39.94209,466,8288
116.50392,39.93714,467,8288
116.46679,39.94741,468,8288
116.46679,39.94741,469,8288
116.46446,39.92211,470,8288
116.43756,39.92978,471,8288
116.46687,39.92337,472,8288
116.48406,39.92144,473,8288
116.48074,39.89813,474,8288
116.48072,39.89811,475,8288
116.48093,39.89794,476,8288
116.48064,39.89797,477,8288
116.48067,39.89801,478,8288
116.48086,39.89769,479,8288
116.4807,39.89924,480,8288
116.48403,39.89967,481,8288
116.49215,39.99612,482,8288
116.58268,40.06647,483,8288
116.58653,40.07693,484,8288
116.57035,40.06309,485,8288
116.55523,40.10098,486,8288
116.65248,40.1161,487,8288
116.76112,40.13937,488,8288
116.90362,40.15235,489,8288
117.03639,40.1437,490,8288
117.10987,40.13878,491,8288
117.14905,40.13017,492,8288
117.14901,40.13015,493,8288
117.14899,40.13015,494,8288
117.14899,40.13015,495,8288
117.14059,40.13521,496,8288
117.14899,40.13015,497,8288
117.149,40.13014,498,8288
117.14899,40.13013,499,8288
117.149,40.13011,500,8288
117.14899,40.13009,501,8288
117.14877,40.12978,502,8288
117.14883,40.12989,503,8288
117.14895,40.13018,504,8288
117.14047,40.136,505,8288
117.14046,40.13607,506,8288
117.14068,40.13611,507,8288
117.13876,40.13519,508,8288
117.11979,40.14456,509,8288
117.11974,40.14457,510,8288
117.11797,40.14447,511,8288
117.10545,40.14426,512,8288
117.10933,40.13409,513,8288
117.10919,40.1348,514,8288
117.10922,40.13464,515,8288
117.10923,40.13458,516,8288
117.10923,40.13454,517,8288
117.10918,40.13441,518,8288
117.10828,40.13564,519,8288
117.15231,40.13062,520,8288
117.15228,40.13055,521,8288
117.15228,40.13052,522,8288
117.15228,40.13052,523,8288
117.15229,40.13053,524,8288
117.15229,40.13054,525,8288
117.1523,40.13054,526,8288
117.1523,40.13055,527,8288
117.1523,40.13056,528,8288
117.1523,40.13056,529,8288
117.15231,40.13056,530,8288
117.15236,40.13068,531,8288
117.15235,40.13071,532,8288
117.15229,40.13033,533,8288
117.15229,40.13038,534,8288
117.1523,40.13043,535,8288
117.15228,40.13065,536,8288
117.15226,40.1306,537,8288
117.15228,40.13061,538,8288
117.15229,40.13062,539,8288
117.15228,40.13062,540,8288
117.15228,40.13062,541,8288
117.15228,40.13061,542,8288
117.15227,40.13061,543,8288
117.14052,40.13571,544,8288
117.10723,40.13875,545,8288
117.10922,40.13463,546,8288
117.11437,40.14199,547,8288
117.13778,40.1443,548,8288
117.15231,40.13056,549,8288
117.15231,40.13056,550,8288
117.1523,40.13053,551,8288
117.15231,40.13051,552,8288
117.15232,40.13054,553,8288
117.15233,40.13056,554,8288
117.15231,40.13056,555,8288
117.15231,40.13057,556,8288
117.15225,40.13054,557,8288
117.15223,40.13056,558,8288
117.15222,40.13056,559,8288
117.15224,40.13056,560,8288
117.15227,40.13053,561,8288
117.15229,40.13051,562,8288
117.1523,40.13052,563,8288
117.1523,40.13051,564,8288
117.1523,40.13051,565,8288
117.1523,40.13052,566,8288
117.15214,40.13042,567,8288
117.15223,40.13053,568,8288
117.15226,40.13056,569,8288
117.15226,40.13059,570,8288
117.15228,40.1306,571,8288
117.1523,40.1306,572,8288
117.1523,40.1306,573,8288
117.1523,40.1306,574,8288
117.1523,40.13059,575,8288
117.1523,40.13059,576,8288
117.1523,40.13059,577,8288
117.15231,40.13059,578,8288
117.15231,40.13059,579,8288
117.1523,40.13059,580,8288
117.1523,40.13059,581,8288
117.1523,40.13059,582,8288
117.1523,40.13059,583,8288
117.15236,40.13045,584,8288
117.15238,40.13058,585,8288
117.15235,40.1306,586,8288
117.15234,40.1306,587,8288
117.15233,40.13061,588,8288
117.15232,40.1306,589,8288
117.15232,40.1306,590,8288
117.15232,40.1306,591,8288
117.15231,40.1306,592,8288
117.15231,40.13059,593,8288
117.15231,40.13059,594,8288
117.15231,40.13059,595,8288
117.15232,40.13059,596,8288
117.15232,40.13059,597,8288
117.15233,40.13059,598,8288
117.15233,40.13059,599,8288
117.15233,40.1306,600,8288
117.15233,40.1306,601,8288
117.15233,40.1306,602,8288
117.15233,40.1306,603,8288
117.15233,40.1306,604,8288
117.15233,40.1306,605,8288
117.15232,40.13059,606,8288
117.15232,40.13059,607,8288
117.15231,40.13059,608,8288
117.15231,40.13058,609,8288
117.15231,40.13058,610,8288
117.15231,40.13058,611,8288
117.15231,40.13058,612,8288
117.15231,40.13058,613,8288
117.1523,40.13057,614,8288
117.1523,40.13057,615,8288
117.1523,40.13057,616,8288
117.15237,40.1306,617,8288
117.15232,40.13062,618,8288
117.15231,40.13064,619,8288
117.15229,40.13065,620,8288
117.15222,40.13061,621,8288
117.15221,40.13064,622,8288
117.15222,40.13064,623,8288
117.15223,40.13062,624,8288
117.15223,40.1306,625,8288
117.15223,40.13057,626,8288
117.15224,40.13056,627,8288
117.15224,40.13056,628,8288
117.15224,40.13056,629,8288
117.15225,40.13056,630,8288
117.15225,40.13055,631,8288
117.15225,40.13055,632,8288
117.15224,40.13055,633,8288
117.15224,40.13055,634,8288
117.15224,40.13055,635,8288
117.15224,40.13056,636,8288
117.15236,40.13079,637,8288
117.15233,40.13081,638,8288
117.1523,40.13074,639,8288
117.15224,40.13062,640,8288
117.15228,40.13077,641,8288
117.15224,40.13071,642,8288
117.15225,40.13066,643,8288
117.15208,40.13095,644,8288
117.15221,40.13053,645,8288
117.15221,40.13053,646,8288
117.15243,40.1305,647,8288
117.15236,40.13053,648,8288
117.15235,40.13057,649,8288
117.15234,40.13057,650,8288
117.15233,40.13058,651,8288
117.15233,40.13057,652,8288
117.15232,40.13057,653,8288
117.15231,40.13057,654,8288
117.15223,40.13053,655,8288
117.15223,40.13053,656,8288
117.15228,40.13058,657,8288
117.14751,40.12887,658,8288
117.15205,40.12746,659,8288
117.14891,40.13013,660,8288
117.1406,40.13527,661,8288
117.14437,40.13231,662,8288
117.14717,40.12975,663,8288
117.15353,40.12683,664,8288
117.18906,40.13532,665,8288
117.18868,40.13544,666,8288
117.18876,40.13541,667,8288
117.18898,40.13514,668,8288
117.18902,40.13557,669,8288
117.18894,40.1354,670,8288
117.18892,40.1353,671,8288
117.1889,40.13539,672,8288
117.18889,40.13538,673,8288
117.1889,40.13535,674,8288
117.18892,40.13537,675,8288
117.18894,40.13537,676,8288
117.18894,40.13538,677,8288
117.18895,40.13537,678,8288
117.14876,40.12998,679,8288
117.14872,40.12959,680,8288
117.15224,40.13056,681,8288
117.14908,40.1296,682,8288
117.14922,40.12973,683,8288
117.14906,40.12964,684,8288
117.14907,40.12965,685,8288
117.14907,40.12965,686,8288
117.14907,40.12965,687,8288
117.14884,40.12966,688,8288
117.14895,40.1297,689,8288
117.14893,40.1297,690,8288
117.14893,40.12972,691,8288
117.14895,40.1297,692,8288
117.14922,40.12983,693,8288
117.14915,40.12981,694,8288
117.1486,40.12941,695,8288
117.14893,40.12942,696,8288
117.14885,40.12956,697,8288
117.1487,40.12953,698,8288
117.14865,40.12951,699,8288
117.14862,40.1295,700,8288
117.14864,40.12948,701,8288
117.14864,40.12948,702,8288
117.14866,40.12948,703,8288
117.14869,40.12948,704,8288
117.1487,40.12947,705,8288
117.14891,40.12965,706,8288
117.14891,40.12964,707,8288
117.14885,40.12957,708,8288
117.14887,40.12964,709,8288
117.14884,40.12958,710,8288
117.14885,40.12958,711,8288
117.14885,40.12959,712,8288
117.14887,40.12959,713,8288
117.14893,40.12993,714,8288
117.14891,40.12963,715,8288
117.14871,40.12953,716,8288
117.14871,40.12953,717,8288
117.14892,40.12948,718,8288
117.14894,40.12953,719,8288
117.149,40.12956,720,8288
117.14899,40.12952,721,8288
117.14897,40.12949,722,8288
117.14915,40.12949,723,8288
117.14874,40.12958,724,8288
117.14896,40.1297,725,8288
117.1488,40.12967,726,8288
117.14897,40.12971,727,8288
117.14921,40.12969,728,8288
117.14921,40.12969,729,8288
117.14915,40.12967,730,8288
117.14906,40.12966,731,8288
117.14892,40.12948,732,8288
117.14892,40.12946,733,8288
117.14895,40.12949,734,8288
117.14893,40.12954,735,8288
117.14898,40.12958,736,8288
117.14896,40.12963,737,8288
117.14896,40.12963,738,8288
117.149,40.1297,739,8288
117.14911,40.12968,740,8288
117.14911,40.12967,741,8288
117.14848,40.1296,742,8288
117.149,40.12974,743,8288
117.149,40.12974,744,8288
117.14904,40.12975,745,8288
117.14904,40.12975,746,8288
117.1489,40.12972,747,8288
117.14882,40.12968,748,8288
117.14906,40.12958,749,8288
117.1491,40.1296,750,8288
117.14933,40.12965,751,8288
117.14922,40.12966,752,8288
117.14919,40.12964,753,8288
117.14884,40.12967,754,8288
117.14883,40.12969,755,8288
117.14884,40.1297,756,8288
117.14884,40.1297,757,8288
117.14885,40.12968,758,8288
117.14886,40.12967,759,8288
117.14886,40.12967,760,8288
117.14886,40.12966,761,8288
117.14887,40.12966,762,8288
117.14889,40.12966,763,8288
117.14737,40.12919,764,8288
117.1481,40.12928,765,8288
117.14844,40.12938,766,8288
117.14888,40.12956,767,8288
117.14886,40.12949,768,8288
117.14884,40.12948,769,8288
117.1489,40.1295,770,8288
117.14889,40.1295,771,8288
117.14899,40.12967,772,8288
117.14892,40.12964,773,8288
117.14888,40.12961,774,8288
117.14873,40.12991,775,8288
117.16506,40.12411,776,8288
117.18885,40.13516,777,8288
117.20389,40.14088,778,8288
117.2708,40.13564,779,8288
117.25652,40.13858,780,8288
117.1887,40.13513,781,8288
117.18909,40.13556,782,8288
117.18907,40.13554,783,8288
117.18905,40.13552,784,8288
117.18904,40.13549,785,8288
117.18905,40.13546,786,8288
117.17277,40.12753,787,8288
117.17277,40.12753,788,8288
117.11367,40.13231,789,8288
117.11367,40.13231,790,8288
117.08305,40.12777,791,8288
117.10012,40.13223,792,8288
117.08724,40.1299,793,8288
117.08306,40.12744,794,8288
117.08306,40.12746,795,8288
117.08307,40.12746,796,8288
117.08312,40.12752,797,8288
117.08304,40.12736,798,8288
117.08303,40.12737,799,8288
117.08304,40.12738,800,8288
117.08303,40.12738,801,8288
117.08303,40.12928,802,8288
117.136,40.13246,803,8288
117.18913,40.13553,804,8288
117.18913,40.13554,805,8288
117.18905,40.13554,806,8288
117.18905,40.13556,807,8288
117.18907,40.13555,808,8288
117.1891,40.13552,809,8288
117.1891,40.13551,810,8288
117.18909,40.13552,811,8288
117.18908,40.13553,812,8288
117.18909,40.13552,813,8288
117.18909,40.13552,814,8288
117.1891,40.13551,815,8288
117.1891,40.13551,816,8288
117.14899,40.13015,817,8288
117.149,40.13013,818,8288
117.149,40.13013,819,8288
