x,y,k,tid
116.30907,40.03543,0,8371
116.30903,40.03549,1,8371
116.30903,40.03549,2,8371
116.30898,40.03549,3,8371
116.30895,40.03531,4,8371
116.30892,40.03548,5,8371
116.3089,40.03552,6,8371
116.30889,40.03553,7,8371
116.30895,40.03553,8,8371
116.3089,40.03555,9,8371
116.30894,40.03555,10,8371
116.30902,40.03558,11,8371
116.30891,40.03549,12,8371
116.30891,40.03551,13,8371
116.30896,40.0355,14,8371
116.30894,40.0356,15,8371
116.30803,40.0354,16,8371
116.29421,40.02374,17,8371
116.29494,40.0139,18,8371
116.33915,40.02174,19,8371
116.37527,40.02134,20,8371
116.45625,40.01379,21,8371
116.51243,40.01397,22,8371
116.57945,40.04676,23,8371
116.58115,40.07088,24,8371
116.57864,40.06264,25,8371
116.56325,40.06571,26,8371
116.56258,40.06858,27,8371
116.56543,40.07038,28,8371
116.56699,40.07081,29,8371
116.56573,40.07097,30,8371
116.56573,40.07097,31,8371
116.56573,40.07099,32,8371
116.56572,40.07099,33,8371
116.56572,40.07101,34,8371
116.56569,40.07101,35,8371
116.56571,40.07099,36,8371
116.56569,40.07099,37,8371
116.56568,40.071,38,8371
116.56569,40.07097,39,8371
116.56569,40.07095,40,8371
116.5657,40.07096,41,8371
116.56571,40.07096,42,8371
116.56569,40.07096,43,8371
116.5657,40.07097,44,8371
116.56572,40.07095,45,8371
116.5657,40.07095,46,8371
116.5657,40.07095,47,8371
116.5657,40.07096,48,8371
116.56568,40.07093,49,8371
116.56568,40.07095,50,8371
116.56568,40.07094,51,8371
116.56568,40.07095,52,8371
116.56567,40.07094,53,8371
116.56419,40.07061,54,8371
116.56887,40.06352,55,8371
116.58087,40.073,56,8371
116.58181,40.07624,57,8371
116.58181,40.07624,58,8371
116.58768,40.07753,59,8371
116.58768,40.07753,60,8371
116.58213,40.07453,61,8371
116.57798,40.04615,62,8371
116.48307,39.98689,63,8371
116.48438,39.97879,64,8371
116.48428,39.97877,65,8371
116.4837,39.98455,66,8371
116.48355,39.98603,67,8371
116.50861,40.01082,68,8371
116.57489,40.04316,69,8371
116.58137,40.07725,70,8371
116.7023,40.11574,71,8371
116.5868,40.07854,72,8371
116.58706,40.07967,73,8371
116.57375,40.04215,74,8371
116.57375,40.04215,75,8371
116.51126,40.01326,76,8371
116.47777,39.98316,77,8371
116.44566,39.98167,78,8371
116.41352,39.98752,79,8371
116.40156,39.99137,80,8371
116.40166,39.99325,81,8371
116.40968,39.99377,82,8371
116.41775,39.99212,83,8371
116.4177,39.9886,84,8371
116.40324,39.98731,85,8371
116.36745,39.98639,86,8371
116.3532,39.986,87,8371
116.3464,40.00574,88,8371
116.34566,40.01917,89,8371
116.34889,40.02147,90,8371
116.35185,40.02908,91,8371
116.36121,40.03458,92,8371
116.3491,40.03466,93,8371
116.33568,40.03797,94,8371
116.31659,40.03492,95,8371
116.30483,40.03402,96,8371
116.31236,40.0115,97,8371
116.33175,39.9988,98,8371
116.34148,40.00629,99,8371
116.32923,39.99606,100,8371
116.30991,39.98757,101,8371
116.31003,39.98502,102,8371
116.29887,39.96982,103,8371
116.29949,39.96,104,8371
116.28793,39.95775,105,8371
116.28617,39.93233,106,8371
116.27879,39.92675,107,8371
116.2602,39.92328,108,8371
116.24711,39.92735,109,8371
116.2471,39.92734,110,8371
116.22708,39.92374,111,8371
116.19168,39.92356,112,8371
116.19168,39.92356,113,8371
116.16602,39.92333,114,8371
116.12604,39.93586,115,8371
116.12099,39.93774,116,8371
116.09409,39.94257,117,8371
116.08354,39.94106,118,8371
116.08972,39.95186,119,8371
116.0867,39.95302,120,8371
116.08672,39.95304,121,8371
116.08673,39.95304,122,8371
116.08674,39.95301,123,8371
116.08673,39.95302,124,8371
116.0867,39.95303,125,8371
116.0867,39.95296,126,8371
116.0867,39.953,127,8371
116.08671,39.95301,128,8371
116.0867,39.95301,129,8371
116.08672,39.95301,130,8371
116.08672,39.95301,131,8371
116.08671,39.95299,132,8371
116.08671,39.95299,133,8371
116.08671,39.95298,134,8371
116.08672,39.95296,135,8371
116.08672,39.95298,136,8371
116.08671,39.95298,137,8371
116.08672,39.95298,138,8371
116.0867,39.95295,139,8371
116.08673,39.95297,140,8371
116.08672,39.953,141,8371
116.08672,39.95298,142,8371
116.08676,39.95299,143,8371
116.08678,39.95294,144,8371
116.08677,39.95298,145,8371
116.08674,39.95296,146,8371
116.08679,39.95296,147,8371
116.08677,39.95293,148,8371
116.08676,39.95294,149,8371
116.08675,39.95293,150,8371
116.08676,39.95295,151,8371
116.08673,39.95295,152,8371
116.08672,39.953,153,8371
116.0867,39.95299,154,8371
116.08671,39.95299,155,8371
116.08672,39.95306,156,8371
116.0867,39.95307,157,8371
116.0867,39.95307,158,8371
116.08672,39.95299,159,8371
116.08669,39.953,160,8371
116.08676,39.95309,161,8371
116.08671,39.95305,162,8371
116.08662,39.95309,163,8371
116.08669,39.95304,164,8371
116.0867,39.95306,165,8371
116.08671,39.95303,166,8371
116.08672,39.95302,167,8371
116.08673,39.95304,168,8371
116.08676,39.95308,169,8371
116.08675,39.95304,170,8371
116.08673,39.95302,171,8371
116.08674,39.95299,172,8371
116.08674,39.95305,173,8371
116.08672,39.95307,174,8371
116.0867,39.95307,175,8371
116.0867,39.95302,176,8371
116.08672,39.95302,177,8371
116.08668,39.95299,178,8371
116.08669,39.95298,179,8371
116.0867,39.953,180,8371
116.08669,39.953,181,8371
116.08672,39.95304,182,8371
116.08671,39.95302,183,8371
116.08671,39.95302,184,8371
116.08672,39.953,185,8371
116.08673,39.953,186,8371
116.08675,39.953,187,8371
116.08668,39.95301,188,8371
116.08667,39.95299,189,8371
116.08664,39.953,190,8371
116.08668,39.95306,191,8371
116.08671,39.95299,192,8371
116.08671,39.95301,193,8371
116.08673,39.95302,194,8371
116.0867,39.953,195,8371
116.08675,39.95304,196,8371
116.08673,39.95299,197,8371
116.08674,39.95298,198,8371
116.08675,39.95301,199,8371
116.08673,39.95301,200,8371
116.08672,39.95301,201,8371
116.08674,39.95301,202,8371
116.08672,39.95301,203,8371
116.08675,39.95299,204,8371
116.08672,39.95303,205,8371
116.08669,39.95302,206,8371
116.08675,39.95302,207,8371
116.08675,39.953,208,8371
116.08677,39.95299,209,8371
116.08679,39.95301,210,8371
116.08671,39.95298,211,8371
116.08674,39.95299,212,8371
116.08675,39.95301,213,8371
116.08675,39.95301,214,8371
116.08672,39.95299,215,8371
116.08673,39.95301,216,8371
116.08675,39.95301,217,8371
116.08675,39.953,218,8371
116.08675,39.95304,219,8371
116.08675,39.953,220,8371
116.08674,39.953,221,8371
116.08674,39.953,222,8371
116.08676,39.95298,223,8371
116.08671,39.95299,224,8371
116.08673,39.95302,225,8371
116.08672,39.95299,226,8371
116.08672,39.95297,227,8371
116.08677,39.95298,228,8371
116.08675,39.95296,229,8371
116.08672,39.95298,230,8371
116.08672,39.95297,231,8371
116.08673,39.95301,232,8371
116.08671,39.953,233,8371
116.08677,39.95299,234,8371
116.08675,39.95301,235,8371
116.08672,39.95301,236,8371
116.08677,39.953,237,8371
116.08677,39.953,238,8371
116.08675,39.95301,239,8371
116.08675,39.95299,240,8371
116.08682,39.95298,241,8371
116.0868,39.95298,242,8371
116.08676,39.95298,243,8371
116.08676,39.95302,244,8371
116.08671,39.95304,245,8371
116.08673,39.95303,246,8371
116.08672,39.95302,247,8371
116.08674,39.95302,248,8371
116.08672,39.95302,249,8371
116.08673,39.95302,250,8371
116.08674,39.95307,251,8371
116.08678,39.95305,252,8371
116.08672,39.95304,253,8371
116.08672,39.95306,254,8371
116.08672,39.95306,255,8371
116.08669,39.95305,256,8371
116.08674,39.95307,257,8371
116.09337,39.94333,258,8371
116.09337,39.94333,259,8371
116.10612,39.93447,260,8371
116.17767,39.92589,261,8371
116.21867,39.93177,262,8371
116.22649,39.92371,263,8371
116.23911,39.92003,264,8371
116.24692,39.90756,265,8371
116.25667,39.89571,266,8371
116.25667,39.89571,267,8371
116.3041,39.89339,268,8371
116.30426,39.88484,269,8371
116.32685,39.84763,270,8371
116.3994,39.85552,271,8371
116.41741,39.85428,272,8371
116.42068,39.85288,273,8371
116.42239,39.85632,274,8371
116.42453,39.8621,275,8371
116.42067,39.86437,276,8371
116.40425,39.87083,277,8371
116.36832,39.88561,278,8371
116.36828,39.89354,279,8371
116.36794,39.90528,280,8371
116.36475,39.90859,281,8371
116.36026,39.92556,282,8371
116.32848,39.93704,283,8371
116.31745,39.95407,284,8371
116.31619,39.95684,285,8371
116.31683,39.95978,286,8371
116.31665,39.96053,287,8371
116.31997,39.96577,288,8371
116.3443,39.95678,289,8371
116.34343,39.9568,290,8371
116.31633,39.96227,291,8371
116.31781,39.95023,292,8371
116.31881,39.94335,293,8371
116.33288,39.93672,294,8371
116.33685,39.93561,295,8371
116.3268,39.93132,296,8371
116.32678,39.9313,297,8371
116.32521,39.93125,298,8371
116.31967,39.93717,299,8371
116.31737,39.9551,300,8371
116.29967,39.98043,301,8371
116.29953,39.98062,302,8371
116.31015,39.98433,303,8371
116.31067,40.00469,304,8371
116.30735,40.02752,305,8371
116.31602,40.04302,306,8371
116.31534,40.04381,307,8371
116.30889,40.0352,308,8371
116.30903,40.03531,309,8371
116.30891,40.03537,310,8371
116.30893,40.03534,311,8371
116.30902,40.03538,312,8371
116.30907,40.03548,313,8371
116.30906,40.03546,314,8371
116.30903,40.03537,315,8371
116.30903,40.0354,316,8371
116.30893,40.03537,317,8371
116.31081,40.03388,318,8371
116.3109,40.03389,319,8371
116.31088,40.03388,320,8371
116.31088,40.03385,321,8371
116.31087,40.03384,322,8371
116.31091,40.03388,323,8371
116.30894,40.03541,324,8371
116.30894,40.03551,325,8371
116.30894,40.03543,326,8371
116.30896,40.03544,327,8371
116.30902,40.03545,328,8371
116.30896,40.03545,329,8371
116.30895,40.03542,330,8371
116.30894,40.03545,331,8371
116.30899,40.03548,332,8371
116.30903,40.03545,333,8371
116.30895,40.03544,334,8371
116.30896,40.03539,335,8371
116.30904,40.03543,336,8371
116.30891,40.03546,337,8371
116.30892,40.03551,338,8371
116.30892,40.03551,339,8371
116.30886,40.03545,340,8371
116.3089,40.03552,341,8371
116.30891,40.03547,342,8371
116.30891,40.03547,343,8371
116.30886,40.03542,344,8371
116.30886,40.03542,345,8371
116.30892,40.03544,346,8371
116.30898,40.03547,347,8371
116.30893,40.03545,348,8371
116.30891,40.03546,349,8371
116.30901,40.03547,350,8371
116.30901,40.03547,351,8371
116.30824,40.03512,352,8371
116.31344,40.03152,353,8371
116.31242,40.03246,354,8371
116.32152,40.03452,355,8371
116.30896,40.03571,356,8371
116.31393,40.03093,357,8371
116.30709,40.02729,358,8371
116.27732,40.02018,359,8371
116.28275,40.001,360,8371
116.26796,40.00164,361,8371
116.28591,39.99657,362,8371
116.2934,39.98747,363,8371
116.30151,39.96301,364,8371
116.30156,39.96458,365,8371
116.35234,39.98562,366,8371
116.39381,39.98679,367,8371
116.4457,39.98153,368,8371
116.49101,39.99504,369,8371
116.56069,40.03227,370,8371
116.58342,40.07707,371,8371
116.58247,40.07946,372,8371
116.58211,40.07946,373,8371
116.58192,40.07939,374,8371
116.58402,40.05849,375,8371
116.58659,40.07882,376,8371
116.58663,40.07879,377,8371
116.58661,40.07883,378,8371
116.58661,40.07883,379,8371
116.58664,40.07884,380,8371
116.58662,40.07882,381,8371
116.58661,40.07884,382,8371
116.58658,40.07882,383,8371
116.58662,40.07884,384,8371
116.58662,40.07884,385,8371
116.58662,40.07884,386,8371
116.58665,40.07881,387,8371
116.58662,40.07881,388,8371
116.58659,40.0788,389,8371
116.58659,40.07882,390,8371
116.5826,40.0794,391,8371
116.57525,40.06292,392,8371
116.56259,40.06778,393,8371
116.56175,40.07557,394,8371
116.56546,40.07115,395,8371
116.56545,40.07115,396,8371
116.56545,40.07114,397,8371
116.56545,40.07114,398,8371
116.56546,40.07117,399,8371
116.56544,40.07116,400,8371
116.56546,40.07115,401,8371
116.56546,40.07115,402,8371
116.56546,40.07115,403,8371
116.56423,40.07073,404,8371
116.55248,40.06345,405,8371
116.52385,40.0842,406,8371
116.47682,40.09299,407,8371
116.4499,40.08376,408,8371
116.44982,40.08369,409,8371
116.44986,40.08373,410,8371
116.44993,40.08374,411,8371
116.44987,40.08373,412,8371
116.44986,40.08373,413,8371
116.44987,40.08374,414,8371
116.44985,40.08371,415,8371
116.44985,40.08371,416,8371
116.44989,40.08372,417,8371
116.44984,40.08375,418,8371
116.44992,40.08369,419,8371
116.45004,40.08369,420,8371
116.44983,40.08374,421,8371
116.44989,40.08375,422,8371
116.44984,40.08371,423,8371
116.44984,40.08378,424,8371
116.4498,40.08378,425,8371
116.44985,40.08376,426,8371
116.44987,40.08377,427,8371
116.43944,40.08486,428,8371
116.44305,40.08063,429,8371
116.43269,40.07504,430,8371
116.46216,40.08255,431,8371
116.49796,40.09018,432,8371
116.53876,40.06754,433,8371
116.56749,40.06375,434,8371
116.56913,40.06388,435,8371
116.56919,40.06386,436,8371
116.58174,40.05938,437,8371
116.58034,40.05883,438,8371
116.58295,40.07503,439,8371
116.58407,40.07915,440,8371
116.58381,40.0795,441,8371
116.58361,40.07952,442,8371
116.58361,40.07952,443,8371
116.58361,40.07952,444,8371
116.58407,40.07962,445,8371
116.58407,40.07962,446,8371
116.58375,40.07977,447,8371
116.58399,40.07937,448,8371
116.58319,40.07923,449,8371
116.58356,40.07933,450,8371
116.5837,40.07964,451,8371
116.58373,40.07941,452,8371
116.58357,40.0795,453,8371
116.5841,40.07953,454,8371
116.58349,40.08009,455,8371
116.58362,40.07941,456,8371
116.58362,40.07941,457,8371
116.58393,40.07948,458,8371
116.58447,40.07947,459,8371
116.58384,40.07937,460,8371
116.58331,40.07942,461,8371
116.58307,40.07953,462,8371
116.58418,40.07953,463,8371
116.58374,40.07947,464,8371
116.58384,40.07934,465,8371
116.58377,40.07952,466,8371
116.58777,40.07716,467,8371
116.58777,40.07716,468,8371
116.58777,40.07716,469,8371
116.58777,40.07716,470,8371
116.58592,40.07991,471,8371
116.58601,40.07983,472,8371
116.58601,40.07983,473,8371
116.58419,40.0554,474,8371
116.51305,40.01451,475,8371
116.43896,40.01811,476,8371
116.26451,40.00571,477,8371
116.21202,39.96302,478,8371
116.18009,39.92349,479,8371
116.13795,39.92476,480,8371
116.10259,39.93964,481,8371
116.08666,39.95299,482,8371
116.08675,39.95298,483,8371
116.09203,39.95019,484,8371
116.11316,39.93578,485,8371
116.14932,39.9228,486,8371
116.18594,39.92784,487,8371
116.19205,39.9201,488,8371
116.20898,39.90608,489,8371
116.24685,39.90623,490,8371
116.24694,39.90906,491,8371
116.26184,39.89567,492,8371
116.31378,39.89541,493,8371
116.31065,39.90887,494,8371
116.30243,39.91146,495,8371
116.34907,39.90573,496,8371
116.35248,39.9057,497,8371
116.35019,39.92089,498,8371
116.34807,39.97283,499,8371
116.33128,39.99421,500,8371
116.34194,40.00814,501,8371
116.3372,40.02384,502,8371
116.31929,40.02983,503,8371
116.30894,40.03543,504,8371
116.30891,40.03547,505,8371
116.30889,40.03554,506,8371
116.30882,40.03551,507,8371
116.30892,40.03555,508,8371
116.30888,40.03553,509,8371
116.30896,40.03562,510,8371
116.30897,40.03546,511,8371
116.30891,40.03562,512,8371
116.30888,40.03558,513,8371
116.30886,40.03571,514,8371
116.30891,40.0356,515,8371
116.30887,40.03571,516,8371
116.30887,40.03571,517,8371
116.30892,40.03558,518,8371
116.3089,40.03554,519,8371
116.30893,40.03555,520,8371
116.30898,40.03554,521,8371
116.30889,40.03559,522,8371
116.30887,40.03543,523,8371
116.30882,40.03546,524,8371
116.30886,40.03561,525,8371
116.3089,40.03556,526,8371
116.30891,40.03554,527,8371
116.30891,40.03553,528,8371
116.30887,40.03553,529,8371
116.30886,40.03547,530,8371
116.30902,40.03551,531,8371
116.30813,40.03525,532,8371
116.28301,40.02216,533,8371
116.2803,40.01183,534,8371
116.36582,40.02144,535,8371
116.44806,40.01523,536,8371
116.44806,40.01523,537,8371
116.50164,40.00448,538,8371
116.57302,40.04095,539,8371
116.58664,40.07893,540,8371
116.58665,40.07891,541,8371
116.57998,40.07822,542,8371
116.48769,40.11409,543,8371
116.42768,40.11707,544,8371
116.40432,40.10292,545,8371
116.35902,40.09311,546,8371
116.33211,40.08487,547,8371
116.32873,40.06956,548,8371
116.34403,40.05953,549,8371
116.37053,40.06039,550,8371
116.36189,40.0597,551,8371
116.3234,40.05431,552,8371
116.32422,40.0429,553,8371
116.30915,40.03545,554,8371
116.30898,40.02813,555,8371
116.31107,40.01552,556,8371
116.30985,39.99091,557,8371
116.31012,39.99075,558,8371
116.3091,39.99959,559,8371
116.30756,40.02478,560,8371
116.30893,40.03551,561,8371
116.30893,40.0355,562,8371
116.30897,40.03552,563,8371
116.30897,40.03545,564,8371
116.30898,40.03553,565,8371
116.30894,40.03543,566,8371
116.30901,40.03549,567,8371
116.30902,40.03547,568,8371
116.30885,40.03549,569,8371
116.30897,40.03549,570,8371
116.30888,40.03547,571,8371
116.30901,40.03553,572,8371
116.30889,40.03545,573,8371
116.30892,40.03545,574,8371
116.30895,40.03553,575,8371
116.30895,40.03544,576,8371
116.30896,40.03553,577,8371
116.30898,40.03549,578,8371
116.309,40.03549,579,8371
116.30893,40.03552,580,8371
116.30897,40.03551,581,8371
116.30891,40.03547,582,8371
116.30896,40.03547,583,8371
116.30892,40.03542,584,8371
116.30893,40.03546,585,8371
116.30894,40.0355,586,8371
116.30894,40.0355,587,8371
116.30894,40.0355,588,8371
116.30891,40.03549,589,8371
116.30894,40.03546,590,8371
116.30893,40.03549,591,8371
116.309,40.03549,592,8371
116.30893,40.03544,593,8371
116.30896,40.03551,594,8371
116.309,40.03555,595,8371
116.30898,40.03549,596,8371
116.309,40.03548,597,8371
116.3089,40.03548,598,8371
116.30896,40.0355,599,8371
116.3089,40.03545,600,8371
116.30897,40.03552,601,8371
116.30897,40.03552,602,8371
116.30894,40.03566,603,8371
116.3089,40.03553,604,8371
116.30891,40.03554,605,8371
116.30896,40.03557,606,8371
116.30897,40.03546,607,8371
116.30899,40.03545,608,8371
116.30896,40.0355,609,8371
116.30894,40.03557,610,8371
116.30897,40.03549,611,8371
116.30898,40.03551,612,8371
116.30899,40.03548,613,8371
116.30896,40.03549,614,8371
116.30896,40.03549,615,8371
116.30893,40.03545,616,8371
116.30893,40.03545,617,8371
116.30903,40.03552,618,8371
116.30892,40.03545,619,8371
116.309,40.03549,620,8371
116.30893,40.03544,621,8371
116.30895,40.03549,622,8371
116.30897,40.03546,623,8371
116.30897,40.03545,624,8371
116.30891,40.03548,625,8371
116.30896,40.03544,626,8371
116.30903,40.03546,627,8371
116.30894,40.03548,628,8371
116.30895,40.03543,629,8371
116.30892,40.03542,630,8371
116.30895,40.03543,631,8371
116.30898,40.03547,632,8371
116.3089,40.03543,633,8371
116.30895,40.03545,634,8371
116.30891,40.03545,635,8371
116.30886,40.03541,636,8371
116.30891,40.03541,637,8371
116.30891,40.03545,638,8371
116.30894,40.03541,639,8371
116.30894,40.0355,640,8371
116.3089,40.03547,641,8371
116.30892,40.03544,642,8371
116.309,40.03549,643,8371
116.309,40.03549,644,8371
116.30893,40.0355,645,8371
116.30897,40.03553,646,8371
116.30896,40.0355,647,8371
116.30896,40.03551,648,8371
116.30895,40.03549,649,8371
116.30898,40.0355,650,8371
116.30892,40.03549,651,8371
116.30902,40.0355,652,8371
116.30902,40.03552,653,8371
116.30894,40.03551,654,8371
116.309,40.03548,655,8371
116.30893,40.03549,656,8371
116.30896,40.0355,657,8371
116.30896,40.03553,658,8371
116.30895,40.03559,659,8371
116.30893,40.03551,660,8371
116.30897,40.03553,661,8371
116.30894,40.03557,662,8371
116.30889,40.03554,663,8371
116.309,40.0356,664,8371
116.30892,40.03551,665,8371
116.30897,40.0355,666,8371
116.309,40.03546,667,8371
116.30893,40.03552,668,8371
116.30893,40.03552,669,8371
116.30905,40.03551,670,8371
116.30899,40.03547,671,8371
116.30905,40.03545,672,8371
116.30907,40.0355,673,8371
116.30892,40.03545,674,8371
116.309,40.0355,675,8371
116.30889,40.03544,676,8371
116.30891,40.03546,677,8371
116.30888,40.03548,678,8371
116.3089,40.03548,679,8371
116.30895,40.03546,680,8371
116.30895,40.03542,681,8371
116.30885,40.03548,682,8371
116.30894,40.03546,683,8371
116.30896,40.0355,684,8371
116.30899,40.03546,685,8371
116.30886,40.03539,686,8371
116.30893,40.03542,687,8371
116.30897,40.03547,688,8371
116.30894,40.03548,689,8371
116.30902,40.03551,690,8371
116.30885,40.0354,691,8371
116.3089,40.03545,692,8371
116.30896,40.03547,693,8371
116.30894,40.03545,694,8371
116.3089,40.03544,695,8371
116.30896,40.03543,696,8371
116.30896,40.03543,697,8371
116.30898,40.03545,698,8371
116.30906,40.03542,699,8371
116.30916,40.0354,700,8371
116.30902,40.03546,701,8371
116.30898,40.03545,702,8371
116.30893,40.03549,703,8371
116.30903,40.03549,704,8371
116.30895,40.03553,705,8371
116.30889,40.03549,706,8371
116.30896,40.0354,707,8371
116.30889,40.03548,708,8371
116.30896,40.03547,709,8371
116.30887,40.03548,710,8371
116.30908,40.03548,711,8371
116.30901,40.03551,712,8371
116.30894,40.03547,713,8371
116.30876,40.03543,714,8371
116.30896,40.03552,715,8371
116.30884,40.03547,716,8371
116.30893,40.03554,717,8371
116.30893,40.03548,718,8371
116.30893,40.03548,719,8371
116.3089,40.03548,720,8371
116.30893,40.03551,721,8371
116.30891,40.03547,722,8371
116.30892,40.03553,723,8371
116.30874,40.03552,724,8371
116.30888,40.03548,725,8371
116.30902,40.03552,726,8371
116.30891,40.0355,727,8371
116.30893,40.0355,728,8371
116.30891,40.03551,729,8371
116.30895,40.03551,730,8371
116.30895,40.03553,731,8371
116.30895,40.0355,732,8371
116.30893,40.03547,733,8371
116.30884,40.03542,734,8371
116.30901,40.03548,735,8371
116.30895,40.03546,736,8371
116.30895,40.03546,737,8371
116.30895,40.03546,738,8371
116.30891,40.03549,739,8371
116.30893,40.03548,740,8371
116.30884,40.03545,741,8371
116.30892,40.03549,742,8371
116.30894,40.0355,743,8371
116.30896,40.03549,744,8371
116.30892,40.03549,745,8371
116.30897,40.0355,746,8371
116.30894,40.03547,747,8371
116.30894,40.03547,748,8371
116.30893,40.0354,749,8371
116.30896,40.03544,750,8371
116.30894,40.03547,751,8371
116.30894,40.03549,752,8371
116.30891,40.03549,753,8371
116.30893,40.03551,754,8371
116.30897,40.03552,755,8371
116.30894,40.03546,756,8371
116.30892,40.03556,757,8371
116.3089,40.03552,758,8371
116.30894,40.0355,759,8371
116.30901,40.03551,760,8371
116.30898,40.03545,761,8371
116.30893,40.03543,762,8371
116.30891,40.03546,763,8371
116.30891,40.0354,764,8371
116.30887,40.03545,765,8371
116.30894,40.03538,766,8371
116.30892,40.03539,767,8371
116.30888,40.03545,768,8371
116.30895,40.0355,769,8371
116.30895,40.0355,770,8371
116.30894,40.03549,771,8371
116.30895,40.03553,772,8371
116.30895,40.03553,773,8371
116.30901,40.03556,774,8371
116.3089,40.03552,775,8371
116.30896,40.03552,776,8371
116.309,40.03554,777,8371
116.30896,40.03546,778,8371
116.30895,40.03555,779,8371
116.30896,40.03549,780,8371
116.309,40.03558,781,8371
116.30899,40.03547,782,8371
116.30896,40.03546,783,8371
116.30896,40.03541,784,8371
116.30894,40.03548,785,8371
116.30897,40.03546,786,8371
116.30898,40.03546,787,8371
116.30893,40.03545,788,8371
116.309,40.03547,789,8371
116.30902,40.03551,790,8371
116.30904,40.03547,791,8371
116.3096,40.03551,792,8371
116.30901,40.03546,793,8371
116.30902,40.03545,794,8371
116.3091,40.0355,795,8371
116.30892,40.03548,796,8371
116.309,40.03549,797,8371
116.309,40.03549,798,8371
116.30904,40.0355,799,8371
116.30908,40.03551,800,8371
116.30899,40.0355,801,8371
116.30897,40.03558,802,8371
116.30898,40.03557,803,8371
116.30893,40.03548,804,8371
116.30892,40.03548,805,8371
116.309,40.03552,806,8371
116.30898,40.03555,807,8371
116.30902,40.03553,808,8371
116.30902,40.03551,809,8371
116.30893,40.03557,810,8371
116.30901,40.0355,811,8371
116.30907,40.03551,812,8371
116.30914,40.0355,813,8371
116.30904,40.03557,814,8371
116.30918,40.03557,815,8371
116.30916,40.03562,816,8371
116.3091,40.03556,817,8371
116.3089,40.03552,818,8371
116.3089,40.03552,819,8371
116.30897,40.03546,820,8371
116.3086,40.0355,821,8371
116.30896,40.03546,822,8371
116.30891,40.03548,823,8371
116.30876,40.03555,824,8371
116.3088,40.03552,825,8371
116.30877,40.03552,826,8371
116.30877,40.03552,827,8371
116.30895,40.03554,828,8371
116.30897,40.03549,829,8371
116.30896,40.03543,830,8371
116.30895,40.03552,831,8371
116.30894,40.03553,832,8371
116.309,40.0355,833,8371
116.30895,40.03549,834,8371
116.30887,40.03551,835,8371
116.30899,40.0355,836,8371
116.3089,40.03545,837,8371
116.30902,40.03544,838,8371
116.30893,40.03548,839,8371
116.30887,40.03543,840,8371
116.30894,40.03548,841,8371
116.30897,40.03554,842,8371
116.30895,40.03551,843,8371
116.30898,40.0355,844,8371
116.30896,40.0355,845,8371
116.30896,40.03553,846,8371
116.30894,40.03547,847,8371
116.30897,40.0355,848,8371
116.30895,40.0355,849,8371
116.30894,40.03549,850,8371
116.30894,40.03544,851,8371
116.30895,40.03552,852,8371
116.30897,40.03547,853,8371
116.30896,40.03547,854,8371
116.30898,40.03549,855,8371
116.30897,40.03549,856,8371
116.30891,40.03547,857,8371
116.30891,40.03547,858,8371
116.30893,40.03547,859,8371
116.30892,40.03542,860,8371
116.30891,40.03546,861,8371
116.309,40.03549,862,8371
116.30896,40.0355,863,8371
116.30894,40.0355,864,8371
116.30894,40.03553,865,8371
116.30892,40.03545,866,8371
116.30897,40.03546,867,8371
116.30874,40.03549,868,8371
116.30833,40.03564,869,8371
116.30904,40.03566,870,8371
116.30893,40.03562,871,8371
116.30897,40.03553,872,8371
116.30891,40.03553,873,8371
116.309,40.03558,874,8371
116.30894,40.03546,875,8371
116.309,40.03544,876,8371
116.30898,40.03549,877,8371
116.30894,40.03545,878,8371
116.30897,40.0356,879,8371
116.30898,40.03552,880,8371
116.30901,40.03554,881,8371
116.30899,40.0355,882,8371
116.30893,40.03542,883,8371
116.309,40.03549,884,8371
116.30893,40.03545,885,8371
116.309,40.03553,886,8371
116.309,40.03553,887,8371
116.30897,40.03553,888,8371
116.30894,40.03541,889,8371
116.30895,40.03544,890,8371
116.30896,40.03547,891,8371
116.30893,40.03544,892,8371
116.30893,40.03547,893,8371
116.30899,40.0355,894,8371
116.30897,40.0355,895,8371
116.30898,40.0355,896,8371
116.30897,40.03543,897,8371
116.30896,40.03548,898,8371
116.30897,40.03546,899,8371
116.30893,40.03547,900,8371
116.30896,40.03545,901,8371
116.30893,40.03545,902,8371
116.30891,40.03542,903,8371
116.30892,40.03545,904,8371
116.30892,40.03545,905,8371
116.30893,40.03545,906,8371
116.30888,40.0354,907,8371
116.30891,40.03546,908,8371
116.30899,40.03544,909,8371
116.30893,40.03549,910,8371
116.30896,40.03546,911,8371
116.30898,40.03546,912,8371
116.30892,40.03551,913,8371
116.30897,40.03551,914,8371
116.30897,40.03551,915,8371
116.30902,40.0355,916,8371
116.30895,40.03549,917,8371
116.30894,40.03546,918,8371
116.30895,40.03548,919,8371
116.30889,40.03546,920,8371
116.30894,40.03546,921,8371
116.30892,40.03548,922,8371
116.30899,40.03547,923,8371
116.30897,40.03548,924,8371
116.30896,40.03549,925,8371
116.30895,40.0355,926,8371
116.30892,40.03547,927,8371
116.30893,40.03548,928,8371
116.30894,40.03546,929,8371
116.30899,40.03549,930,8371
116.30892,40.03557,931,8371
116.30895,40.03551,932,8371
116.30893,40.03551,933,8371
116.30899,40.03556,934,8371
116.30891,40.03547,935,8371
116.30897,40.03557,936,8371
116.30903,40.03551,937,8371
116.30895,40.03553,938,8371
116.30898,40.03551,939,8371
116.30893,40.03554,940,8371
116.30895,40.0355,941,8371
116.30905,40.03545,942,8371
116.30903,40.03549,943,8371
116.30903,40.03549,944,8371
116.30898,40.03549,945,8371
116.30907,40.03547,946,8371
116.30898,40.03548,947,8371
116.30895,40.03547,948,8371
116.30892,40.03549,949,8371
116.30893,40.03546,950,8371
116.30893,40.03545,951,8371
116.30204,40.03446,952,8371
116.29267,40.03133,953,8371
116.29266,40.03128,954,8371
116.29264,40.03127,955,8371
116.29378,40.02367,956,8371
116.27374,40.01143,957,8371
116.20397,39.92407,958,8371
116.14117,39.92346,959,8371
116.09116,39.9514,960,8371
116.08656,39.95296,961,8371
116.08655,39.95298,962,8371
116.08657,39.953,963,8371
116.08658,39.95296,964,8371
116.08656,39.95298,965,8371
116.08655,39.95298,966,8371
116.08654,39.95296,967,8371
116.08655,39.95295,968,8371
116.08655,39.95295,969,8371
116.08658,39.95298,970,8371
116.08657,39.95296,971,8371
116.08656,39.95295,972,8371
116.08654,39.95295,973,8371
116.08655,39.95294,974,8371
116.08652,39.95294,975,8371
116.08651,39.95294,976,8371
116.08653,39.95297,977,8371
116.0865,39.95296,978,8371
116.08654,39.95296,979,8371
116.08657,39.95296,980,8371
116.08654,39.95303,981,8371
116.08654,39.95308,982,8371
116.08651,39.95306,983,8371
116.08654,39.95304,984,8371
116.08649,39.95304,985,8371
116.08654,39.95299,986,8371
116.08651,39.95302,987,8371
116.08657,39.953,988,8371
116.08656,39.95301,989,8371
116.08661,39.95304,990,8371
116.08657,39.953,991,8371
116.08656,39.95299,992,8371
116.08656,39.95304,993,8371
116.08657,39.95301,994,8371
116.08657,39.95301,995,8371
116.08656,39.95306,996,8371
116.08658,39.95305,997,8371
116.08664,39.95302,998,8371
116.08656,39.95298,999,8371
116.08657,39.95302,1000,8371
116.08657,39.95299,1001,8371
116.08657,39.953,1002,8371
116.08655,39.95299,1003,8371
116.08656,39.953,1004,8371
116.0866,39.95299,1005,8371
116.08657,39.95302,1006,8371
116.08657,39.95299,1007,8371
116.08657,39.95298,1008,8371
116.08658,39.953,1009,8371
116.08657,39.953,1010,8371
116.08657,39.953,1011,8371
116.08657,39.95301,1012,8371
116.08654,39.953,1013,8371
116.08653,39.95299,1014,8371
116.08655,39.95302,1015,8371
116.08652,39.95299,1016,8371
116.08651,39.95297,1017,8371
116.08652,39.95297,1018,8371
116.08649,39.95297,1019,8371
116.08652,39.95301,1020,8371
116.08653,39.95296,1021,8371
116.08655,39.95297,1022,8371
116.08659,39.95297,1023,8371
116.08658,39.95297,1024,8371
116.08652,39.953,1025,8371
116.08658,39.95302,1026,8371
116.08654,39.953,1027,8371
116.08657,39.95301,1028,8371
116.08654,39.95299,1029,8371
116.08658,39.95298,1030,8371
116.08661,39.95294,1031,8371
116.08658,39.95296,1032,8371
116.08661,39.95294,1033,8371
116.08659,39.95296,1034,8371
116.08661,39.95292,1035,8371
116.08658,39.95296,1036,8371
116.08659,39.95296,1037,8371
116.08659,39.95295,1038,8371
116.08658,39.95298,1039,8371
116.08656,39.95296,1040,8371
116.08657,39.95296,1041,8371
116.08659,39.95297,1042,8371
116.08658,39.953,1043,8371
116.08654,39.95299,1044,8371
116.08655,39.95297,1045,8371
116.08664,39.95299,1046,8371
116.08655,39.95293,1047,8371
116.08654,39.95296,1048,8371
116.0866,39.95298,1049,8371
116.0866,39.95298,1050,8371
116.08659,39.953,1051,8371
116.08655,39.95295,1052,8371
116.08656,39.95297,1053,8371
116.08658,39.95296,1054,8371
116.08661,39.95298,1055,8371
116.08661,39.95299,1056,8371
116.08658,39.95299,1057,8371
116.08654,39.953,1058,8371
116.08654,39.953,1059,8371
116.08666,39.95299,1060,8371
116.0866,39.95297,1061,8371
116.08658,39.95299,1062,8371
116.08664,39.95302,1063,8371
116.08657,39.95301,1064,8371
116.08678,39.95307,1065,8371
116.0867,39.95303,1066,8371
116.08669,39.95301,1067,8371
116.08669,39.95304,1068,8371
116.08656,39.95298,1069,8371
116.08659,39.953,1070,8371
116.0866,39.95302,1071,8371
116.0867,39.95305,1072,8371
116.08657,39.953,1073,8371
116.08661,39.95309,1074,8371
116.08659,39.95302,1075,8371
116.08659,39.95303,1076,8371
116.08656,39.95302,1077,8371
116.08656,39.95302,1078,8371
116.08655,39.95303,1079,8371
116.08657,39.95302,1080,8371
116.08657,39.95301,1081,8371
116.08658,39.95303,1082,8371
116.08651,39.95296,1083,8371
116.08653,39.95301,1084,8371
116.08652,39.95305,1085,8371
116.08652,39.95303,1086,8371
116.08654,39.95298,1087,8371
116.08651,39.95304,1088,8371
116.08651,39.95304,1089,8371
116.08654,39.953,1090,8371
116.08657,39.95304,1091,8371
116.08656,39.95301,1092,8371
116.08654,39.95301,1093,8371
116.08644,39.95293,1094,8371
116.08656,39.95285,1095,8371
116.08653,39.953,1096,8371
116.08656,39.95302,1097,8371
116.08659,39.953,1098,8371
116.08657,39.95301,1099,8371
116.0866,39.95299,1100,8371
116.08656,39.95299,1101,8371
116.08654,39.95299,1102,8371
116.08654,39.95299,1103,8371
116.08657,39.95299,1104,8371
116.08657,39.95299,1105,8371
116.08647,39.95295,1106,8371
116.08663,39.95296,1107,8371
116.08663,39.95296,1108,8371
116.08657,39.95297,1109,8371
116.08657,39.953,1110,8371
116.08661,39.95298,1111,8371
116.08659,39.95302,1112,8371
116.08657,39.95303,1113,8371
116.08658,39.95305,1114,8371
116.08659,39.95301,1115,8371
116.08658,39.95301,1116,8371
116.08661,39.95301,1117,8371
116.08663,39.95298,1118,8371
116.08659,39.95301,1119,8371
116.08652,39.95296,1120,8371
116.08656,39.95303,1121,8371
116.0865,39.95295,1122,8371
116.08655,39.95301,1123,8371
116.08659,39.95305,1124,8371
116.08658,39.95302,1125,8371
116.08657,39.95301,1126,8371
116.08658,39.95301,1127,8371
116.08658,39.953,1128,8371
116.08656,39.95299,1129,8371
116.08657,39.953,1130,8371
116.08658,39.953,1131,8371
116.08658,39.95302,1132,8371
116.08656,39.953,1133,8371
116.08655,39.95305,1134,8371
116.08655,39.95305,1135,8371
116.08656,39.95304,1136,8371
116.0866,39.953,1137,8371
116.08656,39.95309,1138,8371
116.08657,39.95305,1139,8371
116.0866,39.95303,1140,8371
116.08658,39.95307,1141,8371
116.08657,39.95307,1142,8371
116.08657,39.95303,1143,8371
116.08944,39.95198,1144,8371
116.09275,39.95433,1145,8371
116.08067,39.98919,1146,8371
116.04656,40.00289,1147,8371
116.03864,40.04028,1148,8371
116.03225,40.0481,1149,8371
116.03246,40.06187,1150,8371
116.03513,40.0634,1151,8371
116.03506,40.06342,1152,8371
116.03502,40.0633,1153,8371
116.035,40.0633,1154,8371
116.03506,40.06333,1155,8371
116.03507,40.06333,1156,8371
116.03502,40.06332,1157,8371
116.03502,40.0633,1158,8371
116.03502,40.06332,1159,8371
116.03502,40.06332,1160,8371
116.03499,40.06332,1161,8371
116.035,40.0633,1162,8371
116.03503,40.06329,1163,8371
116.03499,40.06328,1164,8371
116.03496,40.06328,1165,8371
116.03498,40.06324,1166,8371
116.035,40.06324,1167,8371
116.03497,40.06325,1168,8371
116.03507,40.06324,1169,8371
116.03496,40.06328,1170,8371
116.03497,40.06327,1171,8371
116.03497,40.06331,1172,8371
116.03496,40.06333,1173,8371
116.03501,40.06333,1174,8371
116.035,40.06333,1175,8371
116.035,40.06331,1176,8371
116.035,40.06331,1177,8371
116.03489,40.06331,1178,8371
116.03499,40.0633,1179,8371
116.03498,40.06332,1180,8371
116.03499,40.06332,1181,8371
116.03506,40.06329,1182,8371
116.03497,40.06328,1183,8371
116.03499,40.06332,1184,8371
116.03499,40.06333,1185,8371
116.03504,40.06335,1186,8371
116.03498,40.06331,1187,8371
116.03497,40.0633,1188,8371
116.03496,40.0633,1189,8371
116.03493,40.06327,1190,8371
116.03499,40.06328,1191,8371
116.035,40.06332,1192,8371
116.03494,40.0633,1193,8371
116.03498,40.0633,1194,8371
116.03491,40.06327,1195,8371
116.03495,40.0633,1196,8371
116.03492,40.06327,1197,8371
116.03495,40.06328,1198,8371
116.035,40.06329,1199,8371
116.03495,40.06326,1200,8371
116.03496,40.06327,1201,8371
116.03498,40.0633,1202,8371
116.03496,40.0633,1203,8371
116.03494,40.06335,1204,8371
116.03495,40.06338,1205,8371
116.03494,40.06339,1206,8371
116.035,40.06331,1207,8371
116.03491,40.06337,1208,8371
116.03499,40.06335,1209,8371
116.035,40.06332,1210,8371
116.03501,40.06329,1211,8371
116.03501,40.06337,1212,8371
116.03502,40.06328,1213,8371
116.03503,40.06331,1214,8371
116.03499,40.06334,1215,8371
116.03501,40.06343,1216,8371
116.03493,40.06323,1217,8371
116.03493,40.06323,1218,8371
116.03492,40.06328,1219,8371
116.03499,40.0633,1220,8371
116.03496,40.06332,1221,8371
116.03489,40.06327,1222,8371
116.03497,40.06331,1223,8371
116.03498,40.06329,1224,8371
116.03492,40.06323,1225,8371
116.03496,40.06327,1226,8371
116.03503,40.06329,1227,8371
116.03499,40.06326,1228,8371
116.03501,40.0633,1229,8371
116.03497,40.0633,1230,8371
116.03501,40.06331,1231,8371
116.03305,40.06236,1232,8371
116.03303,40.06238,1233,8371
116.03307,40.06234,1234,8371
116.03305,40.06235,1235,8371
116.03304,40.06234,1236,8371
116.03308,40.06232,1237,8371
116.03306,40.06235,1238,8371
116.03505,40.06328,1239,8371
116.03506,40.06331,1240,8371
116.03509,40.06329,1241,8371
116.03507,40.06328,1242,8371
116.03506,40.06326,1243,8371
116.03507,40.06327,1244,8371
116.03504,40.0633,1245,8371
116.03504,40.0633,1246,8371
116.03501,40.06331,1247,8371
116.03504,40.0633,1248,8371
116.03504,40.0633,1249,8371
116.03505,40.06325,1250,8371
116.03503,40.06332,1251,8371
116.03506,40.06324,1252,8371
116.03504,40.0631,1253,8371
116.03503,40.06325,1254,8371
116.03504,40.06318,1255,8371
116.03501,40.06311,1256,8371
116.03506,40.06331,1257,8371
116.03506,40.06332,1258,8371
116.03503,40.06332,1259,8371
116.035,40.06332,1260,8371
116.03507,40.06338,1261,8371
116.03509,40.06343,1262,8371
116.03509,40.06333,1263,8371
116.03509,40.0634,1264,8371
116.03513,40.06338,1265,8371
116.03507,40.06336,1266,8371
116.03505,40.06333,1267,8371
116.03505,40.06333,1268,8371
116.03506,40.06332,1269,8371
116.03505,40.06338,1270,8371
116.03504,40.06339,1271,8371
116.03507,40.06341,1272,8371
116.03504,40.06338,1273,8371
116.03504,40.06339,1274,8371
116.03504,40.06339,1275,8371
116.03504,40.0634,1276,8371
116.03504,40.0634,1277,8371
116.03503,40.06339,1278,8371
116.035,40.0634,1279,8371
116.03504,40.06338,1280,8371
116.03502,40.06338,1281,8371
116.03501,40.06337,1282,8371
116.03501,40.06333,1283,8371
116.03503,40.06334,1284,8371
116.03503,40.06334,1285,8371
116.03504,40.06335,1286,8371
116.0351,40.06338,1287,8371
116.03506,40.06329,1288,8371
116.03505,40.06327,1289,8371
116.035,40.06334,1290,8371
116.03501,40.06331,1291,8371
116.03504,40.06332,1292,8371
116.03501,40.06327,1293,8371
116.03499,40.06332,1294,8371
116.03497,40.06333,1295,8371
116.03498,40.06336,1296,8371
116.03502,40.06332,1297,8371
116.03503,40.06329,1298,8371
116.03503,40.06334,1299,8371
116.03501,40.06329,1300,8371
116.03504,40.06329,1301,8371
116.03504,40.0633,1302,8371
116.03506,40.06333,1303,8371
116.03512,40.06331,1304,8371
116.03507,40.06329,1305,8371
116.03509,40.0633,1306,8371
116.03509,40.0633,1307,8371
116.03503,40.06331,1308,8371
116.03501,40.06332,1309,8371
116.03503,40.06334,1310,8371
116.03502,40.06333,1311,8371
116.03504,40.06337,1312,8371
116.03503,40.06329,1313,8371
116.03504,40.06329,1314,8371
116.03504,40.06329,1315,8371
116.03505,40.06327,1316,8371
116.03505,40.06328,1317,8371
116.03503,40.06326,1318,8371
116.03505,40.06328,1319,8371
116.03502,40.06325,1320,8371
116.035,40.06319,1321,8371
116.03505,40.06332,1322,8371
116.03505,40.06328,1323,8371
116.03506,40.06325,1324,8371
116.03505,40.06326,1325,8371
116.03503,40.0632,1326,8371
116.035,40.06325,1327,8371
116.03501,40.06318,1328,8371
116.03504,40.06319,1329,8371
116.03505,40.06323,1330,8371
116.03505,40.06327,1331,8371
116.03504,40.06331,1332,8371
116.03505,40.0633,1333,8371
116.03508,40.06332,1334,8371
116.03508,40.06332,1335,8371
116.03509,40.06328,1336,8371
116.03506,40.06331,1337,8371
116.03508,40.06327,1338,8371
116.03509,40.06326,1339,8371
116.03505,40.06325,1340,8371
116.03507,40.06328,1341,8371
116.03504,40.06331,1342,8371
116.03506,40.06331,1343,8371
116.03506,40.0633,1344,8371
116.03506,40.0633,1345,8371
116.03506,40.06333,1346,8371
116.03505,40.0633,1347,8371
116.03508,40.06328,1348,8371
116.03511,40.06331,1349,8371
116.03508,40.06332,1350,8371
116.03505,40.06332,1351,8371
116.03505,40.06331,1352,8371
116.03508,40.06332,1353,8371
116.03505,40.06332,1354,8371
116.03506,40.06332,1355,8371
116.03506,40.06334,1356,8371
116.03508,40.06333,1357,8371
116.03509,40.06337,1358,8371
116.03508,40.06337,1359,8371
116.0351,40.06338,1360,8371
116.03505,40.06339,1361,8371
116.03505,40.06345,1362,8371
116.03505,40.06345,1363,8371
116.03504,40.06336,1364,8371
116.03505,40.06334,1365,8371
116.03505,40.06336,1366,8371
116.03506,40.06334,1367,8371
116.03506,40.06331,1368,8371
116.03508,40.06332,1369,8371
116.03506,40.06337,1370,8371
116.03504,40.06334,1371,8371
116.03505,40.06331,1372,8371
116.03506,40.06334,1373,8371
116.0351,40.06332,1374,8371
116.03509,40.06332,1375,8371
116.03505,40.06332,1376,8371
116.03501,40.06334,1377,8371
116.0351,40.06332,1378,8371
116.03509,40.06333,1379,8371
116.03507,40.06338,1380,8371
116.03509,40.06331,1381,8371
116.035,40.0635,1382,8371
116.03499,40.06348,1383,8371
116.03508,40.06329,1384,8371
116.03509,40.06329,1385,8371
116.03506,40.06335,1386,8371
116.03507,40.0633,1387,8371
116.03506,40.06334,1388,8371
116.03503,40.06336,1389,8371
116.03507,40.06318,1390,8371
116.03507,40.06325,1391,8371
116.03508,40.06329,1392,8371
116.03504,40.06326,1393,8371
116.03505,40.06329,1394,8371
116.03502,40.06324,1395,8371
116.03504,40.06325,1396,8371
116.03506,40.0633,1397,8371
116.03509,40.06332,1398,8371
116.03504,40.06325,1399,8371
116.03505,40.06321,1400,8371
116.03507,40.06333,1401,8371
116.03503,40.06329,1402,8371
116.03507,40.06323,1403,8371
116.0351,40.06322,1404,8371
116.03509,40.06329,1405,8371
116.03505,40.06329,1406,8371
116.03505,40.06333,1407,8371
116.03505,40.06331,1408,8371
116.03504,40.06333,1409,8371
116.03503,40.06319,1410,8371
116.03504,40.06328,1411,8371
116.03509,40.06335,1412,8371
116.03506,40.06332,1413,8371
116.03506,40.06333,1414,8371
116.03504,40.06332,1415,8371
116.03504,40.0634,1416,8371
116.03506,40.0634,1417,8371
116.03503,40.06343,1418,8371
116.03508,40.06342,1419,8371
116.03508,40.06342,1420,8371
116.03506,40.06339,1421,8371
116.03505,40.06341,1422,8371
116.03507,40.06342,1423,8371
116.03505,40.06336,1424,8371
116.03505,40.06337,1425,8371
116.03505,40.06336,1426,8371
116.03505,40.06336,1427,8371
116.03507,40.06334,1428,8371
116.03503,40.06334,1429,8371
116.03503,40.0633,1430,8371
116.03503,40.0633,1431,8371
116.03507,40.06332,1432,8371
116.03512,40.06349,1433,8371
116.03512,40.06354,1434,8371
116.03513,40.06347,1435,8371
116.03511,40.06345,1436,8371
116.03507,40.0633,1437,8371
116.03507,40.06333,1438,8371
116.03507,40.0633,1439,8371
116.03504,40.06326,1440,8371
116.03504,40.0633,1441,8371
116.03502,40.06327,1442,8371
116.03503,40.06329,1443,8371
116.03507,40.06329,1444,8371
116.03506,40.0633,1445,8371
116.03506,40.06326,1446,8371
116.03506,40.06329,1447,8371
116.03504,40.06328,1448,8371
116.03507,40.0633,1449,8371
116.03507,40.0633,1450,8371
116.03505,40.0633,1451,8371
116.03505,40.06327,1452,8371
116.03504,40.06328,1453,8371
116.03504,40.06326,1454,8371
116.03504,40.06326,1455,8371
116.03505,40.06328,1456,8371
116.03501,40.06337,1457,8371
116.03508,40.06328,1458,8371
116.03506,40.06326,1459,8371
116.03506,40.06331,1460,8371
116.03505,40.06328,1461,8371
116.03506,40.06333,1462,8371
116.03504,40.06334,1463,8371
116.03504,40.06338,1464,8371
116.03504,40.06332,1465,8371
116.03506,40.06333,1466,8371
116.03505,40.06331,1467,8371
116.03509,40.0633,1468,8371
116.03503,40.06333,1469,8371
116.03506,40.06335,1470,8371
116.03505,40.06334,1471,8371
116.03505,40.06329,1472,8371
116.03507,40.06328,1473,8371
116.03504,40.06332,1474,8371
116.03505,40.06335,1475,8371
116.03503,40.06333,1476,8371
116.035,40.06334,1477,8371
116.03503,40.06336,1478,8371
116.03503,40.06332,1479,8371
116.03503,40.06332,1480,8371
116.035,40.06334,1481,8371
116.03506,40.06331,1482,8371
116.03504,40.06329,1483,8371
116.03506,40.06332,1484,8371
116.03501,40.06333,1485,8371
116.03504,40.0633,1486,8371
116.035,40.06334,1487,8371
116.035,40.06333,1488,8371
116.03508,40.06327,1489,8371
116.03505,40.0634,1490,8371
116.03504,40.06341,1491,8371
116.03506,40.06336,1492,8371
116.03504,40.06334,1493,8371
116.03505,40.06334,1494,8371
116.03503,40.06332,1495,8371
116.03504,40.06332,1496,8371
116.03502,40.06332,1497,8371
116.03502,40.06332,1498,8371
116.03505,40.0633,1499,8371
116.03505,40.0633,1500,8371
116.03505,40.06328,1501,8371
116.03505,40.06333,1502,8371
116.03506,40.06335,1503,8371
116.0351,40.06338,1504,8371
116.03503,40.06336,1505,8371
116.03506,40.06334,1506,8371
116.03502,40.06328,1507,8371
116.03504,40.06326,1508,8371
116.03505,40.06326,1509,8371
116.03505,40.06326,1510,8371
116.03499,40.06342,1511,8371
116.035,40.06328,1512,8371
116.03504,40.06327,1513,8371
116.03502,40.06322,1514,8371
116.03506,40.06323,1515,8371
116.03501,40.06327,1516,8371
116.03502,40.0633,1517,8371
116.03505,40.06328,1518,8371
116.03505,40.06332,1519,8371
116.03507,40.06325,1520,8371
116.03505,40.06326,1521,8371
116.03507,40.06326,1522,8371
116.03507,40.06333,1523,8371
116.03503,40.06333,1524,8371
116.03506,40.06329,1525,8371
116.03504,40.06332,1526,8371
116.03503,40.06328,1527,8371
116.03501,40.06331,1528,8371
116.03505,40.06332,1529,8371
116.03503,40.0633,1530,8371
116.03506,40.06329,1531,8371
116.03505,40.06328,1532,8371
116.03502,40.06334,1533,8371
116.03501,40.06333,1534,8371
116.03502,40.0633,1535,8371
116.035,40.06332,1536,8371
116.03499,40.06335,1537,8371
116.03503,40.06335,1538,8371
116.03504,40.06336,1539,8371
116.03504,40.06336,1540,8371
116.035,40.06319,1541,8371
116.03502,40.0633,1542,8371
116.03503,40.06325,1543,8371
116.03501,40.06323,1544,8371
116.03502,40.0633,1545,8371
116.03506,40.06334,1546,8371
116.03502,40.06323,1547,8371
116.03502,40.06327,1548,8371
116.03504,40.06329,1549,8371
116.03504,40.06329,1550,8371
116.03506,40.06334,1551,8371
116.03506,40.06332,1552,8371
116.03505,40.06335,1553,8371
116.03505,40.06339,1554,8371
116.03506,40.0634,1555,8371
116.03507,40.06337,1556,8371
116.03506,40.0634,1557,8371
116.03503,40.06336,1558,8371
116.03502,40.06338,1559,8371
116.03503,40.0634,1560,8371
116.03503,40.06339,1561,8371
116.03503,40.06339,1562,8371
116.03502,40.06338,1563,8371
116.03501,40.06342,1564,8371
116.03501,40.06332,1565,8371
116.03504,40.06334,1566,8371
116.03506,40.06338,1567,8371
116.03509,40.06338,1568,8371
116.03507,40.06332,1569,8371
116.03501,40.06333,1570,8371
116.03499,40.06326,1571,8371
116.03501,40.06332,1572,8371
116.03497,40.06335,1573,8371
116.03498,40.0633,1574,8371
116.035,40.06335,1575,8371
116.03501,40.06333,1576,8371
116.03499,40.06337,1577,8371
116.03499,40.06333,1578,8371
116.03503,40.06331,1579,8371
116.03502,40.06334,1580,8371
116.03504,40.06331,1581,8371
116.03503,40.06333,1582,8371
116.03503,40.06331,1583,8371
116.03507,40.06332,1584,8371
116.03512,40.0633,1585,8371
116.03508,40.06331,1586,8371
116.0351,40.06331,1587,8371
116.03506,40.06331,1588,8371
116.03503,40.0633,1589,8371
116.03503,40.06331,1590,8371
116.03503,40.06331,1591,8371
116.03504,40.06331,1592,8371
116.03505,40.06334,1593,8371
116.03504,40.0633,1594,8371
116.03505,40.06328,1595,8371
116.03504,40.06327,1596,8371
116.03505,40.06324,1597,8371
116.03505,40.06327,1598,8371
116.03501,40.06329,1599,8371
116.03504,40.06327,1600,8371
116.03503,40.06327,1601,8371
116.03502,40.06321,1602,8371
116.03506,40.06334,1603,8371
116.03504,40.06329,1604,8371
116.03507,40.06332,1605,8371
116.03507,40.06331,1606,8371
116.03506,40.0633,1607,8371
116.03502,40.06326,1608,8371
116.03501,40.06327,1609,8371
116.03505,40.06331,1610,8371
116.03503,40.0632,1611,8371
116.03502,40.06319,1612,8371
116.03505,40.06325,1613,8371
116.03507,40.06325,1614,8371
116.03505,40.0633,1615,8371
116.03504,40.06329,1616,8371
116.03508,40.06333,1617,8371
116.03506,40.0633,1618,8371
116.03505,40.06333,1619,8371
116.03507,40.06328,1620,8371
116.03507,40.06328,1621,8371
116.03506,40.06329,1622,8371
116.03506,40.06327,1623,8371
116.03506,40.06328,1624,8371
116.03502,40.06332,1625,8371
116.03505,40.06332,1626,8371
116.03507,40.06329,1627,8371
116.03508,40.06329,1628,8371
116.03505,40.06331,1629,8371
116.03508,40.0633,1630,8371
116.03505,40.06331,1631,8371
116.03505,40.0633,1632,8371
116.03509,40.06328,1633,8371
116.03504,40.06331,1634,8371
116.03505,40.06326,1635,8371
116.03506,40.06331,1636,8371
116.03505,40.06333,1637,8371
116.03506,40.06332,1638,8371
116.03504,40.06332,1639,8371
116.03506,40.06332,1640,8371
116.03505,40.06334,1641,8371
116.03508,40.06334,1642,8371
116.03507,40.06333,1643,8371
116.03508,40.06335,1644,8371
116.03505,40.06343,1645,8371
116.03504,40.06343,1646,8371
116.03501,40.06343,1647,8371
116.03504,40.06338,1648,8371
116.03502,40.06334,1649,8371
116.03504,40.06338,1650,8371
116.03504,40.06338,1651,8371
116.03504,40.06335,1652,8371
116.03506,40.06334,1653,8371
116.03503,40.06333,1654,8371
116.03507,40.06332,1655,8371
116.03504,40.06334,1656,8371
116.03508,40.06337,1657,8371
116.0351,40.06337,1658,8371
116.03509,40.06335,1659,8371
116.03502,40.06332,1660,8371
116.03506,40.06335,1661,8371
116.03509,40.06335,1662,8371
116.03504,40.06336,1663,8371
116.03506,40.0633,1664,8371
116.03501,40.06334,1665,8371
116.03505,40.06332,1666,8371
116.03508,40.0633,1667,8371
116.03506,40.06339,1668,8371
116.0351,40.06332,1669,8371
116.03504,40.0634,1670,8371
116.03501,40.06344,1671,8371
116.03509,40.06327,1672,8371
116.03508,40.0633,1673,8371
116.03506,40.06332,1674,8371
116.03504,40.06334,1675,8371
116.03508,40.06329,1676,8371
116.03503,40.06333,1677,8371
116.03506,40.06324,1678,8371
116.03507,40.06324,1679,8371
116.03507,40.06326,1680,8371
116.03507,40.06326,1681,8371
116.03507,40.06329,1682,8371
116.03505,40.06325,1683,8371
116.03502,40.06322,1684,8371
116.03504,40.06325,1685,8371
116.03507,40.06329,1686,8371
116.03508,40.0633,1687,8371
116.03504,40.06327,1688,8371
116.03501,40.06326,1689,8371
116.03505,40.06331,1690,8371
116.03504,40.06333,1691,8371
116.03504,40.06332,1692,8371
116.03508,40.0632,1693,8371
116.0351,40.06334,1694,8371
116.03506,40.06332,1695,8371
116.03505,40.06335,1696,8371
116.03503,40.06336,1697,8371
116.03505,40.06332,1698,8371
116.03509,40.06324,1699,8371
116.03509,40.06334,1700,8371
116.03509,40.06335,1701,8371
116.03508,40.06337,1702,8371
116.03507,40.06334,1703,8371
116.03505,40.06337,1704,8371
116.03508,40.06335,1705,8371
116.03505,40.06344,1706,8371
116.03505,40.06341,1707,8371
116.03507,40.06338,1708,8371
116.03508,40.06337,1709,8371
116.03508,40.0634,1710,8371
116.03506,40.06342,1711,8371
116.03506,40.06342,1712,8371
116.03504,40.06339,1713,8371
116.03508,40.06338,1714,8371
116.03505,40.06335,1715,8371
116.03506,40.06333,1716,8371
116.03507,40.06331,1717,8371
116.03507,40.06338,1718,8371
116.03505,40.06331,1719,8371
116.03504,40.06332,1720,8371
116.03507,40.06333,1721,8371
116.03512,40.06349,1722,8371
116.03514,40.06352,1723,8371
116.03517,40.06349,1724,8371
116.03518,40.06348,1725,8371
116.0351,40.06335,1726,8371
116.03504,40.06323,1727,8371
116.03504,40.06328,1728,8371
116.03503,40.06328,1729,8371
116.03503,40.06328,1730,8371
116.03505,40.06328,1731,8371
116.03501,40.06329,1732,8371
116.03503,40.0633,1733,8371
