x,y,k,tid
117.14277,40.18265,0,8492
117.14277,40.18266,1,8492
117.14276,40.18267,2,8492
117.14276,40.18264,3,8492
117.14277,40.18266,4,8492
117.14276,40.18267,5,8492
117.14276,40.18264,6,8492
117.14278,40.18263,7,8492
117.1428,40.18263,8,8492
117.14272,40.18266,9,8492
117.14275,40.18262,10,8492
117.14272,40.18261,11,8492
117.14274,40.18263,12,8492
117.14275,40.18269,13,8492
117.14275,40.18264,14,8492
117.14275,40.18264,15,8492
117.1427,40.18266,16,8492
117.14276,40.18267,17,8492
117.14275,40.18268,18,8492
117.14277,40.18269,19,8492
117.14279,40.18266,20,8492
117.14277,40.18268,21,8492
117.14276,40.18266,22,8492
117.14277,40.1827,23,8492
117.14276,40.18269,24,8492
117.14277,40.18266,25,8492
117.14275,40.18272,26,8492
117.14277,40.18269,27,8492
117.14279,40.18266,28,8492
117.14274,40.1827,29,8492
117.14277,40.18268,30,8492
117.14274,40.18271,31,8492
117.14277,40.18268,32,8492
117.14278,40.18264,33,8492
117.14276,40.18266,34,8492
117.14281,40.18264,35,8492
117.14277,40.18267,36,8492
117.14275,40.18265,37,8492
117.14277,40.18267,38,8492
117.14276,40.18263,39,8492
117.14274,40.18268,40,8492
117.14275,40.18266,41,8492
117.14278,40.18269,42,8492
117.14278,40.18269,43,8492
117.14276,40.18264,44,8492
117.14278,40.18263,45,8492
117.14275,40.18261,46,8492
117.1428,40.18264,47,8492
117.14275,40.18263,48,8492
117.14277,40.18262,49,8492
117.14276,40.18263,50,8492
117.14274,40.18263,51,8492
117.14277,40.18266,52,8492
117.13987,40.17762,53,8492
117.13461,40.15079,54,8492
117.13272,40.15021,55,8492
117.04758,40.14537,56,8492
116.98787,40.14145,57,8492
116.92077,40.1518,58,8492
116.84728,40.15181,59,8492
116.80883,40.14681,60,8492
116.79711,40.08305,61,8492
116.7512,40.06296,62,8492
116.67043,40.03072,63,8492
116.67217,39.98684,64,8492
116.63061,39.98702,65,8492
116.58766,39.97746,66,8492
116.56529,39.97578,67,8492
116.53401,39.97086,68,8492
116.52743,39.96646,69,8492
116.52765,39.96674,70,8492
116.52765,39.96674,71,8492
116.52767,39.96672,72,8492
116.52765,39.96672,73,8492
116.52766,39.96675,74,8492
116.52767,39.96675,75,8492
116.52766,39.96682,76,8492
116.52771,39.96649,77,8492
116.52236,39.96332,78,8492
116.50561,39.95695,79,8492
116.49338,39.97713,80,8492
116.47409,39.98485,81,8492
116.47424,39.98451,82,8492
116.47844,39.9755,83,8492
116.49117,39.97046,84,8492
116.49117,39.9705,85,8492
116.49113,39.97048,86,8492
116.49113,39.97047,87,8492
116.49116,39.97048,88,8492
116.49114,39.97051,89,8492
116.48796,39.97916,90,8492
116.4787,39.97453,91,8492
116.4594,39.97299,92,8492
116.39915,39.98711,93,8492
116.34426,40.02599,94,8492
116.33589,40.03705,95,8492
116.32604,40.03524,96,8492
116.30802,40.02808,97,8492
116.31715,40.03732,98,8492
116.32485,40.03613,99,8492
116.32485,40.03613,100,8492
116.3309,40.02986,101,8492
116.3309,40.02986,102,8492
116.34358,40.03433,103,8492
116.35127,40.02913,104,8492
116.3458,40.01426,105,8492
116.34945,39.99972,106,8492
116.35999,39.99247,107,8492
116.3657,40.01218,108,8492
116.36421,40.01254,109,8492
116.36975,40.00058,110,8492
116.37422,39.9992,111,8492
116.36839,40.01477,112,8492
116.37818,39.98088,113,8492
116.3811,39.98107,114,8492
116.38342,40.00847,115,8492
116.41009,39.98693,116,8492
116.41866,39.9985,117,8492
116.41779,39.99317,118,8492
116.45677,39.98474,119,8492
116.4569,39.98997,120,8492
116.46193,39.9894,121,8492
116.45885,39.9864,122,8492
116.46188,39.9992,123,8492
116.477,39.99091,124,8492
116.46793,39.97439,125,8492
116.4656,39.95116,126,8492
116.46358,39.94212,127,8492
116.46358,39.94212,128,8492
116.46365,39.94214,129,8492
116.46365,39.94214,130,8492
116.4415,39.88028,131,8492
116.45105,39.87481,132,8492
116.45805,39.87482,133,8492
116.47583,39.86941,134,8492
116.5083,39.8595,135,8492
116.50232,39.87212,136,8492
116.48383,39.89661,137,8492
116.49556,39.92176,138,8492
116.49,39.92752,139,8492
116.51271,39.92184,140,8492
116.5136,39.91001,141,8492
116.51896,39.92255,142,8492
116.5175,39.92611,143,8492
116.48984,39.92172,144,8492
116.4654,39.94977,145,8492
116.46286,39.94313,146,8492
116.46332,39.94328,147,8492
116.45619,39.94578,148,8492
116.46611,39.94144,149,8492
116.47197,39.93232,150,8492
116.47197,39.9252,151,8492
116.46712,39.92592,152,8492
116.46152,39.88106,153,8492
116.46924,39.87855,154,8492
116.48022,39.8563,155,8492
116.43111,39.87673,156,8492
116.43395,39.88305,157,8492
116.44475,39.88127,158,8492
116.44474,39.88114,159,8492
116.44467,39.87741,160,8492
116.44995,39.87767,161,8492
116.45553,39.90288,162,8492
116.4489,39.95604,163,8492
116.42402,39.98779,164,8492
116.39656,39.99514,165,8492
116.40159,40.00271,166,8492
116.4103,39.9876,167,8492
116.37391,39.97987,168,8492
116.32357,39.96617,169,8492
116.32338,39.96382,170,8492
116.32985,39.95185,171,8492
116.32991,39.95188,172,8492
116.34221,39.94919,173,8492
116.36105,39.93704,174,8492
116.3667,39.93127,175,8492
116.36521,39.9566,176,8492
116.36521,39.9566,177,8492
116.37406,39.94847,178,8492
116.37406,39.94847,179,8492
116.36494,39.95644,180,8492
116.371,39.96038,181,8492
116.36561,39.94761,182,8492
116.36696,39.92776,183,8492
116.35023,39.91484,184,8492
116.41141,39.90681,185,8492
116.43742,39.90706,186,8492
116.47923,39.90671,187,8492
116.50203,39.90925,188,8492
116.48716,39.90734,189,8492
116.4713,39.89489,190,8492
116.4608,39.87483,191,8492
116.45511,39.87005,192,8492
116.40827,39.85587,193,8492
116.40822,39.85231,194,8492
116.45896,39.87483,195,8492
116.4546,39.87182,196,8492
116.45533,39.88076,197,8492
116.47173,39.90144,198,8492
116.49586,39.91903,199,8492
116.496,39.92597,200,8492
116.51087,39.93904,201,8492
116.52583,39.96332,202,8492
116.52798,39.96598,203,8492
116.52804,39.96593,204,8492
116.52727,39.96643,205,8492
116.52765,39.96691,206,8492
116.52759,39.96689,207,8492
116.46936,39.95736,208,8492
116.45129,39.955,209,8492
116.41824,39.97875,210,8492
116.42472,39.98252,211,8492
116.40398,39.98168,212,8492
116.40193,39.9491,213,8492
116.4275,39.93918,214,8492
116.42592,39.90374,215,8492
116.41837,39.90515,216,8492
116.42068,39.91176,217,8492
116.42006,39.92238,218,8492
116.40731,39.94868,219,8492
116.38938,39.94841,220,8492
116.38812,39.9747,221,8492
116.37064,39.9867,222,8492
116.37416,39.98589,223,8492
116.37416,39.98589,224,8492
116.4084,39.987,225,8492
116.39054,39.96763,226,8492
116.39495,39.9866,227,8492
116.3957,39.97387,228,8492
116.4107,39.98479,229,8492
116.40413,39.98223,230,8492
116.40355,39.98094,231,8492
116.39507,39.98849,232,8492
116.3353,39.98523,233,8492
116.27373,39.97142,234,8492
116.27188,39.95212,235,8492
116.2683,39.94408,236,8492
116.26762,39.90643,237,8492
116.24736,39.90637,238,8492
116.23044,39.90625,239,8492
116.22786,39.90528,240,8492
116.22452,39.89052,241,8492
116.22352,39.89804,242,8492
116.24674,39.88515,243,8492
116.25843,39.86606,244,8492
116.26069,39.8543,245,8492
116.2586,39.87444,246,8492
116.2586,39.87444,247,8492
116.25866,39.89491,248,8492
116.26626,39.90623,249,8492
116.2685,39.93702,250,8492
116.28525,39.94095,251,8492
116.30377,39.93996,252,8492
116.30632,39.94992,253,8492
116.3167,39.95932,254,8492
116.3131,39.97105,255,8492
116.31642,39.96602,256,8492
116.29772,39.95907,257,8492
116.28229,39.95659,258,8492
116.28213,39.96318,259,8492
116.28858,39.95659,260,8492
116.30877,39.93897,261,8492
116.3273,39.93214,262,8492
116.31965,39.93682,263,8492
116.34311,39.94301,264,8492
116.34432,39.94278,265,8492
116.32902,39.95761,266,8492
116.33644,39.97504,267,8492
116.36377,39.97634,268,8492
116.37955,39.98609,269,8492
116.39572,39.9756,270,8492
116.43455,39.96522,271,8492
116.43221,39.96069,272,8492
116.41503,39.96073,273,8492
116.41145,39.97337,274,8492
116.40262,39.97939,275,8492
116.41102,39.97863,276,8492
116.40284,39.97987,277,8492
116.40888,39.9869,278,8492
116.40129,39.98192,279,8492
116.33637,39.98548,280,8492
116.35937,39.98221,281,8492
116.34256,39.9856,282,8492
116.3347,39.98478,283,8492
116.36219,39.98576,284,8492
116.36332,39.98268,285,8492
116.40685,39.98695,286,8492
116.40865,39.9742,287,8492
116.40314,39.98047,288,8492
116.32835,39.98507,289,8492
116.31272,39.98451,290,8492
116.31018,39.98284,291,8492
116.31082,39.9821,292,8492
116.34187,39.98528,293,8492
116.36561,39.98809,294,8492
116.36584,39.98579,295,8492
116.40096,39.98628,296,8492
116.41089,39.98222,297,8492
116.41118,39.97469,298,8492
116.41117,39.97469,299,8492
116.41117,39.97466,300,8492
116.4112,39.97468,301,8492
116.40172,39.97405,302,8492
116.40947,39.98187,303,8492
116.4179,39.98535,304,8492
116.41781,39.99203,305,8492
116.40208,39.98758,306,8492
116.40334,39.98738,307,8492
116.41067,39.9851,308,8492
116.40468,39.98686,309,8492
116.40411,39.982,310,8492
116.40122,39.98292,311,8492
116.40044,40.00402,312,8492
116.39831,40.00336,313,8492
116.40129,39.98898,314,8492
116.41065,39.98547,315,8492
116.41117,39.98199,316,8492
116.41895,39.98205,317,8492
116.44713,39.98026,318,8492
116.47294,39.97039,319,8492
116.49649,39.97062,320,8492
116.52554,39.97674,321,8492
116.52731,39.96638,322,8492
116.5272,39.9667,323,8492
116.52716,39.96669,324,8492
116.52718,39.96672,325,8492
116.52722,39.96669,326,8492
116.52719,39.96668,327,8492
116.52719,39.96668,328,8492
116.5272,39.96668,329,8492
116.52715,39.9667,330,8492
116.52717,39.96665,331,8492
116.52657,39.967,332,8492
116.50415,39.95449,333,8492
116.50097,39.93635,334,8492
116.48377,39.93251,335,8492
116.4612,39.93256,336,8492
116.45578,39.93921,337,8492
116.43636,39.93987,338,8492
116.42372,39.93964,339,8492
116.42563,39.93639,340,8492
116.43829,39.92196,341,8492
116.4467,39.9213,342,8492
116.44633,39.95791,343,8492
116.44579,39.95718,344,8492
116.43361,39.95206,345,8492
116.4489,39.95585,346,8492
116.46972,39.98534,347,8492
116.47354,39.98503,348,8492
116.48001,39.97364,349,8492
116.48997,39.97909,350,8492
116.4973,39.96332,351,8492
116.48316,39.95748,352,8492
116.46231,39.94811,353,8492
116.46846,39.93797,354,8492
116.46607,39.93949,355,8492
116.46607,39.93949,356,8492
116.45588,39.93461,357,8492
116.43665,39.93985,358,8492
116.42498,39.94837,359,8492
116.40105,39.95767,360,8492
116.39011,39.98651,361,8492
116.41882,39.98212,362,8492
116.40565,39.98447,363,8492
116.41135,39.97333,364,8492
116.4062,39.96746,365,8492
116.40161,39.9588,366,8492
116.39695,39.95015,367,8492
116.37858,39.94761,368,8492
116.36646,39.9392,369,8492
116.36582,39.94734,370,8492
116.37294,39.95443,371,8492
116.38337,39.95011,372,8492
116.37553,39.95257,373,8492
116.3755,39.95255,374,8492
116.38491,39.9523,375,8492
116.41525,39.94879,376,8492
116.419,39.9549,377,8492
116.41773,39.95598,378,8492
116.41932,39.93985,379,8492
116.41997,39.92333,380,8492
116.42057,39.90452,381,8492
116.41203,39.9021,382,8492
116.4213,39.89241,383,8492
116.4213,39.89241,384,8492
116.4333,39.87255,385,8492
116.42586,39.86192,386,8492
116.43891,39.8654,387,8492
116.46485,39.85809,388,8492
116.47359,39.84787,389,8492
116.4618,39.85907,390,8492
116.43887,39.86633,391,8492
116.42576,39.85821,392,8492
116.41305,39.864,393,8492
116.3973,39.86162,394,8492
116.38917,39.87957,395,8492
116.37785,39.88812,396,8492
116.34255,39.88828,397,8492
116.33415,39.8868,398,8492
116.31496,39.88655,399,8492
116.3117,39.87601,400,8492
116.30524,39.89681,401,8492
116.30381,39.89937,402,8492
116.25706,39.8958,403,8492
116.21515,39.9025,404,8492
116.27735,39.90065,405,8492
116.31367,39.92702,406,8492
116.3178,39.92685,407,8492
116.33686,39.91705,408,8492
116.33648,39.92193,409,8492
116.33648,39.92193,410,8492
116.41224,39.90684,411,8492
116.44727,39.907,412,8492
116.4692,39.90672,413,8492
116.48361,39.89895,414,8492
116.47145,39.88928,415,8492
116.47149,39.88924,416,8492
116.46159,39.87958,417,8492
116.46446,39.86664,418,8492
116.47188,39.86998,419,8492
116.49619,39.89181,420,8492
116.49785,39.89964,421,8492
116.47174,39.89204,422,8492
116.43852,39.89376,423,8492
116.41272,39.89982,424,8492
116.41983,39.90699,425,8492
116.46369,39.90694,426,8492
116.50664,39.90798,427,8492
116.49672,39.90688,428,8492
116.49022,39.90659,429,8492
116.60422,39.90544,430,8492
116.63848,39.90203,431,8492
116.63189,39.90502,432,8492
116.5865,39.91095,433,8492
116.5519,39.91486,434,8492
116.51487,39.91676,435,8492
116.51136,39.92436,436,8492
116.51133,39.92227,437,8492
116.51133,39.92227,438,8492
116.4718,39.91604,439,8492
116.47149,39.9042,440,8492
116.46609,39.87339,441,8492
116.44802,39.88024,442,8492
116.46235,39.87483,443,8492
116.46635,39.87473,444,8492
116.46634,39.87474,445,8492
116.46636,39.87473,446,8492
116.47029,39.87004,447,8492
116.39352,39.85569,448,8492
116.39496,39.85511,449,8492
116.42031,39.85675,450,8492
116.45535,39.89272,451,8492
116.45568,39.94828,452,8492
116.50182,40.00472,453,8492
116.57654,40.04458,454,8492
116.58638,40.0792,455,8492
116.57008,40.03781,456,8492
116.49133,39.99534,457,8492
116.52425,39.97665,458,8492
116.52445,39.97657,459,8492
116.52733,39.96647,460,8492
116.52753,39.96678,461,8492
116.52728,39.96713,462,8492
116.5273,39.96709,463,8492
116.5273,39.96709,464,8492
116.52732,39.96709,465,8492
116.52733,39.96709,466,8492
116.52731,39.96708,467,8492
116.52731,39.9671,468,8492
116.51114,39.94304,469,8492
116.48564,39.93585,470,8492
116.48202,39.95636,471,8492
116.46976,39.95822,472,8492
116.48648,39.95928,473,8492
116.49834,39.9633,474,8492
116.48453,39.97078,475,8492
116.48747,39.98669,476,8492
116.48368,39.9716,477,8492
116.46896,39.96694,478,8492
116.45573,39.95477,479,8492
116.44649,39.95669,480,8492
116.43167,39.95831,481,8492
116.4119,39.96708,482,8492
116.40461,39.98186,483,8492
116.4085,39.98951,484,8492
116.39718,39.99134,485,8492
116.40224,39.99078,486,8492
116.40177,39.99078,487,8492
116.40168,39.99076,488,8492
116.40188,39.99348,489,8492
116.39796,39.98708,490,8492
116.34028,39.98535,491,8492
116.28857,39.98208,492,8492
116.30563,40.0323,493,8492
116.30199,40.03966,494,8492
116.30062,40.04193,495,8492
116.3037,40.03645,496,8492
116.3078,40.02193,497,8492
116.31977,40.01202,498,8492
116.32701,39.98543,499,8492
116.32732,39.98,500,8492
116.36386,39.96711,501,8492
116.36539,39.95017,502,8492
116.37239,39.94719,503,8492
116.3756,39.97513,504,8492
116.36997,39.97903,505,8492
116.37324,39.97574,506,8492
116.3637,39.97366,507,8492
116.36542,39.94992,508,8492
116.3665,39.93908,509,8492
116.371,39.92335,510,8492
116.36669,39.93501,511,8492
116.36609,39.94651,512,8492
116.39103,39.94744,513,8492
116.41379,39.94797,514,8492
116.42786,39.9242,515,8492
116.43306,39.92273,516,8492
116.43306,39.92273,517,8492
116.439,39.92565,518,8492
116.44427,39.93053,519,8492
116.44436,39.93264,520,8492
116.46243,39.94292,521,8492
116.46415,39.94345,522,8492
116.46184,39.9553,523,8492
116.46998,39.96398,524,8492
116.46195,39.95455,525,8492
116.45562,39.95495,526,8492
116.45545,39.92845,527,8492
116.45542,39.90472,528,8492
116.46096,39.88301,529,8492
116.45526,39.87863,530,8492
116.45528,39.89081,531,8492
116.46519,39.90677,532,8492
116.45598,39.90805,533,8492
116.47055,39.91226,534,8492
116.47217,39.92596,535,8492
116.4683,39.94149,536,8492
116.4621,39.95262,537,8492
116.46025,39.95844,538,8492
116.44168,39.95482,539,8492
116.42812,39.95826,540,8492
116.41101,39.96072,541,8492
116.40139,39.97025,542,8492
116.40385,39.98169,543,8492
116.38887,39.96727,544,8492
116.33549,39.96649,545,8492
116.33546,39.96103,546,8492
116.33546,39.96103,547,8492
116.32707,39.98454,548,8492
116.30959,39.98445,549,8492
116.30263,39.98497,550,8492
116.31849,39.98476,551,8492
116.32676,39.98452,552,8492
116.32676,39.98452,553,8492
116.33572,39.98484,554,8492
116.36164,39.98054,555,8492
116.38977,39.98657,556,8492
116.41054,39.98637,557,8492
116.40163,39.97681,558,8492
116.40252,39.97925,559,8492
116.40359,39.98104,560,8492
116.39393,39.98698,561,8492
116.29856,39.9892,562,8492
116.31004,39.98467,563,8492
116.3205,39.98429,564,8492
116.34839,39.98533,565,8492
116.37081,39.98574,566,8492
116.41054,39.98698,567,8492
116.40933,39.9819,568,8492
116.41123,39.9743,569,8492
116.4033,39.98059,570,8492
116.411,39.97845,571,8492
116.4116,40.00123,572,8492
116.4065,39.99886,573,8492
116.40712,39.98992,574,8492
116.40624,39.9869,575,8492
116.40624,39.9869,576,8492
116.40996,39.98197,577,8492
116.41119,39.9744,578,8492
116.4112,39.97442,579,8492
116.41121,39.97433,580,8492
116.40469,39.97398,581,8492
116.38771,39.98675,582,8492
116.35817,40.00813,583,8492
116.34639,40.02103,584,8492
116.35955,40.00002,585,8492
116.36307,39.98801,586,8492
116.39969,39.9867,587,8492
116.40462,39.98274,588,8492
116.41065,39.97418,589,8492
116.41118,39.98178,590,8492
116.44237,39.98337,591,8492
116.4681,39.96648,592,8492
116.48383,39.97037,593,8492
116.5049,39.97225,594,8492
116.5338,39.97252,595,8492
116.53371,39.97035,596,8492
116.52729,39.96673,597,8492
116.5273,39.96675,598,8492
116.52731,39.96674,599,8492
116.5273,39.96672,600,8492
116.52731,39.96675,601,8492
116.51304,39.95922,602,8492
116.51849,39.92271,603,8492
116.51508,39.91602,604,8492
116.51508,39.91602,605,8492
116.49142,39.90711,606,8492
116.49142,39.90711,607,8492
116.48408,39.9138,608,8492
116.48967,39.91437,609,8492
116.49264,39.91446,610,8492
116.49435,39.91451,611,8492
116.49666,39.91458,612,8492
116.49973,39.91465,613,8492
116.49158,39.91463,614,8492
116.45176,39.90795,615,8492
116.44782,39.90735,616,8492
116.45565,39.90636,617,8492
116.45279,39.95353,618,8492
116.44495,39.97505,619,8492
116.44491,39.97505,620,8492
116.44845,39.97898,621,8492
116.46017,39.97941,622,8492
116.46203,39.99303,623,8492
116.46591,39.99034,624,8492
116.46144,40.00796,625,8492
116.46117,40.00886,626,8492
116.46251,40.00379,627,8492
116.46826,39.98131,628,8492
116.48473,39.97069,629,8492
116.50034,39.95782,630,8492
116.50034,39.95782,631,8492
116.51114,39.93285,632,8492
116.51141,39.92617,633,8492
116.51097,39.93885,634,8492
116.51098,39.93887,635,8492
116.51112,39.93073,636,8492
116.49629,39.93502,637,8492
116.44462,39.93242,638,8492
116.44101,39.93226,639,8492
116.44841,39.92207,640,8492
116.42845,39.9257,641,8492
116.43979,39.9256,642,8492
116.45501,39.91805,643,8492
116.46344,39.91569,644,8492
116.48349,39.91385,645,8492
116.48348,39.8972,646,8492
116.48344,39.89147,647,8492
116.47136,39.88442,648,8492
116.46744,39.87831,649,8492
116.46863,39.86654,650,8492
116.46159,39.87199,651,8492
116.45482,39.86684,652,8492
116.44822,39.86133,653,8492
116.40833,39.85592,654,8492
116.39961,39.81228,655,8492
116.3946,39.84621,656,8492
116.3946,39.84621,657,8492
116.40213,39.85586,658,8492
116.37899,39.85482,659,8492
116.34086,39.85054,660,8492
116.32587,39.86693,661,8492
116.32037,39.87277,662,8492
116.32026,39.88831,663,8492
116.30765,39.88629,664,8492
116.3046,39.88635,665,8492
116.30463,39.88633,666,8492
116.3045,39.89927,667,8492
116.30396,39.89942,668,8492
116.28671,39.90875,669,8492
116.30391,39.89963,670,8492
116.29663,39.90617,671,8492
116.30386,39.89942,672,8492
116.3037,39.89944,673,8492
116.30382,39.89943,674,8492
116.30947,39.88561,675,8492
116.33656,39.89071,676,8492
116.34235,39.88394,677,8492
116.34711,39.88661,678,8492
116.34711,39.88661,679,8492
116.34853,39.87647,680,8492
116.35269,39.88415,681,8492
116.34267,39.89267,682,8492
116.31516,39.89633,683,8492
116.35658,39.88784,684,8492
116.35973,39.88191,685,8492
116.36062,39.88192,686,8492
116.34592,39.88829,687,8492
116.34755,39.87939,688,8492
116.35701,39.88792,689,8492
116.36911,39.89819,690,8492
116.3784,39.88791,691,8492
116.39226,39.8822,692,8492
116.42464,39.89206,693,8492
116.42466,39.89203,694,8492
116.43255,39.89203,695,8492
116.43325,39.87052,696,8492
116.42036,39.86223,697,8492
116.43558,39.86902,698,8492
116.45457,39.88304,699,8492
116.48409,39.92798,700,8492
116.51115,39.93916,701,8492
116.52224,39.95739,702,8492
116.52776,39.9663,703,8492
116.52776,39.9663,704,8492
116.52772,39.96629,705,8492
116.5277,39.96629,706,8492
116.52764,39.96633,707,8492
116.52771,39.96631,708,8492
116.5277,39.96629,709,8492
116.52771,39.96629,710,8492
116.52774,39.9663,711,8492
116.52773,39.96629,712,8492
116.52775,39.96627,713,8492
116.52773,39.96628,714,8492
116.52773,39.96628,715,8492
116.52772,39.9663,716,8492
116.52773,39.96628,717,8492
116.52774,39.96627,718,8492
116.52773,39.9663,719,8492
116.52773,39.9663,720,8492
116.52774,39.96623,721,8492
116.52771,39.96631,722,8492
116.52727,39.96646,723,8492
116.52732,39.96708,724,8492
116.52732,39.96708,725,8492
116.52727,39.96711,726,8492
116.5273,39.96709,727,8492
116.5273,39.96703,728,8492
116.52728,39.9671,729,8492
116.52727,39.96713,730,8492
116.5273,39.96713,731,8492
116.5273,39.96713,732,8492
116.52731,39.96713,733,8492
116.50986,39.95657,734,8492
116.49569,39.93489,735,8492
116.47004,39.96569,736,8492
116.41262,39.98759,737,8492
116.41035,40.00773,738,8492
116.41149,40.03346,739,8492
116.40642,39.99888,740,8492
116.4106,39.99439,741,8492
116.39383,39.98699,742,8492
116.37198,39.96713,743,8492
116.31244,39.96486,744,8492
116.30401,39.92935,745,8492
116.30375,39.89567,746,8492
116.31352,39.89556,747,8492
116.31573,39.89493,748,8492
116.31515,39.90347,749,8492
116.30445,39.90876,750,8492
116.30629,39.93107,751,8492
116.32823,39.93128,752,8492
116.33703,39.93105,753,8492
116.34985,39.92417,754,8492
116.36013,39.90579,755,8492
116.39165,39.90618,756,8492
116.40984,39.90603,757,8492
116.41184,39.9087,758,8492
116.42007,39.9227,759,8492
116.42007,39.9227,760,8492
116.4196,39.93935,761,8492
116.44405,39.93993,762,8492
116.45118,39.95489,763,8492
116.44641,39.95666,764,8492
116.43339,39.95817,765,8492
116.41284,39.96067,766,8492
116.40288,39.96376,767,8492
116.40378,39.98144,768,8492
116.40709,39.98983,769,8492
116.40114,39.97572,770,8492
116.43197,39.96713,771,8492
116.45523,39.93292,772,8492
116.44358,39.93246,773,8492
116.43266,39.93979,774,8492
116.45972,39.94261,775,8492
116.46176,39.95653,776,8492
116.46997,39.96396,777,8492
116.46768,39.94516,778,8492
116.46172,39.95701,779,8492
116.44695,39.95713,780,8492
116.43604,39.95363,781,8492
116.41887,39.96047,782,8492
116.41333,39.96068,783,8492
116.40782,39.96176,784,8492
116.40145,39.97384,785,8492
116.40612,39.9817,786,8492
116.41166,39.96821,787,8492
116.42964,39.9628,788,8492
116.43346,39.95897,789,8492
116.43346,39.95897,790,8492
116.43422,39.94831,791,8492
116.44412,39.94051,792,8492
116.44008,39.92211,793,8492
116.43888,39.92596,794,8492
116.4381,39.92215,795,8492
116.43007,39.92323,796,8492
116.42937,39.90951,797,8492
116.43807,39.87242,798,8492
116.38707,39.8702,799,8492
116.36816,39.86956,800,8492
116.37881,39.86945,801,8492
116.43651,39.86927,802,8492
116.44915,39.87488,803,8492
116.45,39.88166,804,8492
116.45539,39.88948,805,8492
116.4559,39.91032,806,8492
116.4634,39.92037,807,8492
116.46083,39.9311,808,8492
116.42598,39.95455,809,8492
116.41042,39.94801,810,8492
116.41047,39.94289,811,8492
116.41047,39.94131,812,8492
116.41089,39.933,813,8492
116.43033,39.93228,814,8492
116.43033,39.93228,815,8492
116.45681,39.93222,816,8492
116.46091,39.92822,817,8492
116.46085,39.92229,818,8492
116.466,39.91457,819,8492
116.47241,39.9057,820,8492
116.47201,39.92128,821,8492
116.45606,39.92211,822,8492
116.43991,39.92381,823,8492
116.43765,39.93576,824,8492
116.43377,39.93985,825,8492
116.42043,39.9323,826,8492
116.41927,39.9322,827,8492
116.4303,39.93228,828,8492
116.44439,39.93411,829,8492
116.4571,39.94258,830,8492
116.46657,39.9328,831,8492
116.47822,39.9269,832,8492
116.47237,39.93212,833,8492
116.46269,39.94524,834,8492
116.45782,39.94878,835,8492
116.45134,39.95477,836,8492
116.43382,39.95352,837,8492
116.41914,39.95811,838,8492
116.41407,39.96073,839,8492
116.41203,39.96321,840,8492
116.39286,39.96747,841,8492
116.39863,39.97559,842,8492
116.40425,39.98171,843,8492
116.40136,39.99309,844,8492
116.40136,39.99309,845,8492
116.40649,39.99777,846,8492
116.40722,39.98999,847,8492
116.40154,39.99528,848,8492
116.4046,40.00125,849,8492
116.40618,39.99356,850,8492
116.39769,39.98711,851,8492
116.33653,39.98536,852,8492
116.3193,39.97495,853,8492
116.30939,39.9747,854,8492
116.31084,39.97457,855,8492
116.32707,39.97514,856,8492
116.34789,39.97982,857,8492
116.36898,39.98579,858,8492
116.41191,39.98711,859,8492
116.41744,39.98725,860,8492
116.428,39.98731,861,8492
116.45035,39.97825,862,8492
116.4833,39.9699,863,8492
116.50709,39.97352,864,8492
116.53382,39.97248,865,8492
116.52768,39.96648,866,8492
116.52739,39.96673,867,8492
116.52741,39.96673,868,8492
116.5274,39.96672,869,8492
116.52741,39.96674,870,8492
116.52741,39.96674,871,8492
116.52741,39.96672,872,8492
116.52742,39.96673,873,8492
116.50559,39.95583,874,8492
116.49453,39.93457,875,8492
116.49453,39.93457,876,8492
116.47123,39.96497,877,8492
116.47715,39.98623,878,8492
116.48027,39.98872,879,8492
116.48115,39.98812,880,8492
116.47819,39.97533,881,8492
116.48174,39.96981,882,8492
116.5057,39.97274,883,8492
116.48261,39.9699,884,8492
116.48558,39.96597,885,8492
116.49241,39.9672,886,8492
116.48378,39.96552,887,8492
116.48365,39.94557,888,8492
116.46424,39.90706,889,8492
116.42931,39.90859,890,8492
116.42949,39.89962,891,8492
116.43307,39.89458,892,8492
116.43183,39.88309,893,8492
116.43264,39.86496,894,8492
116.43734,39.86895,895,8492
116.42976,39.90418,896,8492
116.44583,39.92077,897,8492
116.43971,39.91653,898,8492
116.45195,39.91853,899,8492
116.51144,39.91536,900,8492
116.51144,39.91536,901,8492
116.51138,39.93343,902,8492
116.49874,39.93559,903,8492
116.49874,39.93559,904,8492
116.51123,39.92476,905,8492
116.52784,39.9155,906,8492
116.53216,39.91583,907,8492
116.53213,39.91589,908,8492
116.5268,39.91567,909,8492
116.51689,39.92468,910,8492
116.51139,39.93011,911,8492
116.49663,39.93387,912,8492
116.49118,39.92695,913,8492
116.48694,39.93263,914,8492
116.47304,39.97054,915,8492
116.48377,39.97881,916,8492
116.49238,39.98998,917,8492
116.4835,39.98362,918,8492
116.48968,39.95424,919,8492
116.46538,39.95117,920,8492
116.44805,39.95841,921,8492
116.48779,39.99197,922,8492
116.56691,40.0353,923,8492
116.58644,40.07922,924,8492
116.58447,40.06641,925,8492
116.56563,40.06102,926,8492
116.55117,40.06198,927,8492
116.55116,40.06201,928,8492
116.58661,40.06358,929,8492
116.58794,40.05374,930,8492
116.56836,40.03344,931,8492
116.56836,40.03344,932,8492
116.54473,40.00772,933,8492
116.50801,39.99329,934,8492
116.48352,39.97763,935,8492
116.46939,39.98799,936,8492
116.47171,39.97905,937,8492
116.45538,39.93443,938,8492
116.45549,39.90657,939,8492
116.43867,39.85751,940,8492
116.40894,39.8384,941,8492
116.42177,39.83847,942,8492
116.41598,39.8445,943,8492
116.41323,39.85549,944,8492
116.37467,39.83885,945,8492
116.38068,39.85512,946,8492
116.40291,39.89142,947,8492
116.37853,39.88808,948,8492
116.36432,39.88201,949,8492
116.34718,39.8857,950,8492
116.35808,39.86633,951,8492
116.35853,39.85827,952,8492
116.3578,39.87496,953,8492
116.3806,39.86373,954,8492
116.3807,39.85578,955,8492
116.43251,39.8579,956,8492
116.43984,39.87949,957,8492
116.44193,39.89694,958,8492
116.44193,39.89694,959,8492
116.45498,39.89059,960,8492
116.43803,39.89288,961,8492
116.42975,39.89626,962,8492
116.44471,39.87943,963,8492
116.44046,39.87496,964,8492
116.44537,39.87489,965,8492
116.46181,39.8749,966,8492
116.42805,39.88293,967,8492
116.38691,39.88135,968,8492
116.37846,39.88701,969,8492
116.3804,39.888,970,8492
116.38122,39.87884,971,8492
116.43712,39.85731,972,8492
116.47108,39.86657,973,8492
116.46088,39.88063,974,8492
116.45553,39.90193,975,8492
116.46078,39.93052,976,8492
116.47208,39.92914,977,8492
116.48358,39.90792,978,8492
116.50126,39.86941,979,8492
116.55275,39.86465,980,8492
116.55102,39.86772,981,8492
116.50521,39.87067,982,8492
116.47138,39.88712,983,8492
116.47109,39.88888,984,8492
116.46973,39.88296,985,8492
116.47114,39.86932,986,8492
116.47114,39.86932,987,8492
116.4497,39.87063,988,8492
116.44439,39.88031,989,8492
116.45474,39.89196,990,8492
116.47357,39.87012,991,8492
116.46161,39.88114,992,8492
116.48314,39.89188,993,8492
116.48477,39.91026,994,8492
116.493,39.93392,995,8492
116.51129,39.94695,996,8492
116.52752,39.96654,997,8492
116.52719,39.96649,998,8492
116.52727,39.96654,999,8492
116.52742,39.96667,1000,8492
116.52743,39.96668,1001,8492
116.52741,39.96671,1002,8492
116.5274,39.96669,1003,8492
116.52744,39.96668,1004,8492
116.5274,39.96668,1005,8492
116.52744,39.96669,1006,8492
116.52743,39.96668,1007,8492
116.5274,39.96671,1008,8492
116.5274,39.96669,1009,8492
116.52745,39.96673,1010,8492
116.52742,39.96676,1011,8492
116.52744,39.96676,1012,8492
116.52742,39.96673,1013,8492
116.52741,39.9667,1014,8492
116.52741,39.9667,1015,8492
116.52745,39.9667,1016,8492
116.52627,39.96412,1017,8492
116.51108,39.94441,1018,8492
116.48696,39.9393,1019,8492
116.48383,39.96612,1020,8492
116.48665,39.96322,1021,8492
116.47731,39.9325,1022,8492
116.46092,39.92967,1023,8492
116.48398,39.93704,1024,8492
116.48096,39.98579,1025,8492
116.55182,40.02844,1026,8492
116.58423,40.05337,1027,8492
116.58297,40.06417,1028,8492
116.58467,40.07859,1029,8492
116.56564,40.03476,1030,8492
116.48357,39.97291,1031,8492
116.47006,39.96111,1032,8492
116.46355,39.94329,1033,8492
116.45373,39.95347,1034,8492
116.41889,39.95977,1035,8492
116.41177,39.96739,1036,8492
116.36033,39.9665,1037,8492
116.33038,39.97516,1038,8492
116.32078,39.97486,1039,8492
116.34652,39.97511,1040,8492
116.36542,39.98059,1041,8492
116.38411,39.98639,1042,8492
116.38411,39.98639,1043,8492
116.40662,39.98198,1044,8492
116.40662,39.98198,1045,8492
116.40576,39.98748,1046,8492
116.40504,39.99753,1047,8492
116.41112,40.01565,1048,8492
116.41112,40.01565,1049,8492
116.43077,40.03102,1050,8492
116.41165,40.03121,1051,8492
116.41019,40.00472,1052,8492
116.403,39.99081,1053,8492
116.40859,39.987,1054,8492
116.41158,39.96997,1055,8492
116.42692,39.96821,1056,8492
116.45544,39.92869,1057,8492
116.45423,39.88651,1058,8492
116.44841,39.88496,1059,8492
116.44995,39.88058,1060,8492
116.44997,39.8824,1061,8492
116.45552,39.89147,1062,8492
116.45607,39.90829,1063,8492
116.47368,39.91417,1064,8492
116.48392,39.93269,1065,8492
116.47582,39.98107,1066,8492
116.54322,40.02578,1067,8492
116.58368,40.07957,1068,8492
116.58225,40.05933,1069,8492
116.58225,40.05933,1070,8492
116.57063,40.03544,1071,8492
116.57063,40.03544,1072,8492
116.54888,40.02645,1073,8492
116.5601,40.0011,1074,8492
116.55227,39.97001,1075,8492
116.52815,39.96611,1076,8492
116.52819,39.96608,1077,8492
116.52817,39.96612,1078,8492
116.52819,39.96609,1079,8492
116.5282,39.96611,1080,8492
116.51044,39.97569,1081,8492
116.48068,39.97314,1082,8492
116.47927,39.97404,1083,8492
116.4912,39.97044,1084,8492
116.48905,39.97064,1085,8492
116.47308,39.97567,1086,8492
116.47038,39.95297,1087,8492
116.46546,39.97021,1088,8492
116.52881,40.02063,1089,8492
116.58391,40.05228,1090,8492
116.5822,40.07934,1091,8492
116.56413,40.03192,1092,8492
116.55751,40.01042,1093,8492
116.56501,39.976,1094,8492
116.58498,39.91875,1095,8492
116.58498,39.91875,1096,8492
116.59477,39.9085,1097,8492
116.59477,39.9085,1098,8492
116.59826,39.88992,1099,8492
116.57363,39.89221,1100,8492
116.59177,39.90127,1101,8492
116.62429,39.90535,1102,8492
116.65186,39.90571,1103,8492
116.63869,39.90581,1104,8492
116.60274,39.90776,1105,8492
116.57784,39.91298,1106,8492
116.55467,39.91509,1107,8492
116.53854,39.91502,1108,8492
116.55691,39.91505,1109,8492
116.53285,39.91531,1110,8492
116.51501,39.92071,1111,8492
116.51135,39.93876,1112,8492
116.4892,39.93933,1113,8492
116.47202,39.90725,1114,8492
116.47213,39.92061,1115,8492
116.47075,39.93251,1116,8492
116.44169,39.93992,1117,8492
116.41709,39.94822,1118,8492
116.41891,39.95553,1119,8492
116.41159,39.97107,1120,8492
116.41162,39.96869,1121,8492
116.40754,39.97406,1122,8492
116.41174,39.96065,1123,8492
116.38755,39.96716,1124,8492
116.38755,39.96716,1125,8492
116.35966,39.96664,1126,8492
116.36341,39.98441,1127,8492
116.4128,39.98758,1128,8492
116.38225,39.98659,1129,8492
116.31476,39.97243,1130,8492
116.37675,39.98604,1131,8492
116.42482,39.98747,1132,8492
116.41792,39.9821,1133,8492
116.40917,39.98698,1134,8492
116.41807,39.97972,1135,8492
116.41527,39.96701,1136,8492
116.45294,39.95306,1137,8492
116.47346,39.97053,1138,8492
116.50753,39.97377,1139,8492
116.53468,39.9722,1140,8492
116.52636,39.96456,1141,8492
116.52768,39.96658,1142,8492
116.52767,39.96658,1143,8492
116.52772,39.96661,1144,8492
116.52769,39.96661,1145,8492
116.52766,39.96664,1146,8492
116.52763,39.96665,1147,8492
116.53065,39.96443,1148,8492
116.54344,39.96977,1149,8492
116.53084,39.97516,1150,8492
116.52874,39.96433,1151,8492
116.52874,39.96433,1152,8492
116.48459,39.95268,1153,8492
116.46563,39.95124,1154,8492
116.44422,39.94633,1155,8492
116.42357,39.93975,1156,8492
116.43286,39.93813,1157,8492
116.42003,39.93223,1158,8492
116.42357,39.92614,1159,8492
116.42563,39.92731,1160,8492
116.42801,39.92472,1161,8492
116.44526,39.90511,1162,8492
116.44959,39.89269,1163,8492
116.44951,39.88719,1164,8492
116.43327,39.88,1165,8492
116.43332,39.87996,1166,8492
116.42491,39.88368,1167,8492
116.4221,39.88268,1168,8492
116.43287,39.84512,1169,8492
116.44422,39.82556,1170,8492
116.44302,39.80471,1171,8492
116.43765,39.80361,1172,8492
116.45048,39.80573,1173,8492
116.41197,39.80535,1174,8492
116.39118,39.79039,1175,8492
116.39313,39.80155,1176,8492
116.3957,39.82245,1177,8492
116.3957,39.82245,1178,8492
116.38017,39.84248,1179,8492
116.38053,39.84631,1180,8492
116.40227,39.85546,1181,8492
116.39602,39.86299,1182,8492
116.40756,39.86429,1183,8492
116.40752,39.86426,1184,8492
116.4076,39.86427,1185,8492
116.40757,39.86431,1186,8492
116.40757,39.8643,1187,8492
116.40732,39.87175,1188,8492
116.40793,39.85617,1189,8492
116.40837,39.84448,1190,8492
116.43828,39.85745,1191,8492
116.45562,39.90636,1192,8492
116.46085,39.93043,1193,8492
116.46654,39.92168,1194,8492
116.47644,39.91414,1195,8492
116.48392,39.94916,1196,8492
116.45367,39.98386,1197,8492
116.45799,39.99579,1198,8492
116.46023,39.97972,1199,8492
116.46172,39.95623,1200,8492
116.45578,39.94546,1201,8492
116.43357,39.93436,1202,8492
116.4368,39.93505,1203,8492
116.42773,39.94201,1204,8492
116.37323,39.9518,1205,8492
116.35787,40.00828,1206,8492
116.32529,40.05068,1207,8492
116.32529,40.05068,1208,8492
116.33355,40.07189,1209,8492
116.32346,40.07238,1210,8492
116.31792,40.08919,1211,8492
116.32304,40.07442,1212,8492
116.3285,40.07195,1213,8492
116.32281,40.07629,1214,8492
116.30462,40.0759,1215,8492
116.32826,40.07397,1216,8492
116.33345,40.07374,1217,8492
116.33344,40.07378,1218,8492
116.33339,40.07376,1219,8492
116.32859,40.07067,1220,8492
116.32589,40.05608,1221,8492
116.42758,39.93942,1222,8492
116.44929,39.93492,1223,8492
116.45589,39.90698,1224,8492
116.4871,39.89949,1225,8492
116.5011,39.89966,1226,8492
116.47831,39.89933,1227,8492
116.47919,39.89782,1228,8492
116.47176,39.90362,1229,8492
116.45557,39.92677,1230,8492
116.42508,39.96826,1231,8492
116.42508,39.96826,1232,8492
116.35387,39.96654,1233,8492
116.33517,39.98553,1234,8492
116.33518,39.99164,1235,8492
116.34185,39.99184,1236,8492
116.37501,39.97508,1237,8492
116.37761,39.94494,1238,8492
116.37761,39.94494,1239,8492
116.38756,39.94719,1240,8492
116.33926,39.93754,1241,8492
116.33855,39.91812,1242,8492
116.33639,39.89673,1243,8492
116.34835,39.90896,1244,8492
116.33886,39.91659,1245,8492
116.35948,39.9239,1246,8492
116.3614,39.9225,1247,8492
116.35854,39.91689,1248,8492
116.37377,39.93161,1249,8492
116.38419,39.94113,1250,8492
116.38976,39.93804,1251,8492
116.40237,39.93859,1252,8492
116.42745,39.93566,1253,8492
116.45511,39.93238,1254,8492
116.45586,39.93605,1255,8492
116.39733,39.96743,1256,8492
116.35508,39.96647,1257,8492
116.36403,39.96392,1258,8492
116.36403,39.96392,1259,8492
116.37568,39.95243,1260,8492
116.38592,39.95239,1261,8492
116.38775,39.93957,1262,8492
116.40203,39.94872,1263,8492
116.4249,39.96773,1264,8492
116.45627,39.98455,1265,8492
116.46492,39.98105,1266,8492
116.44564,39.95596,1267,8492
116.41204,39.94809,1268,8492
116.42604,39.9396,1269,8492
116.44925,39.93327,1270,8492
116.42794,39.9327,1271,8492
116.41189,39.9068,1272,8492
116.41908,39.90351,1273,8492
116.47187,39.90741,1274,8492
116.48365,39.89956,1275,8492
116.48387,39.90063,1276,8492
116.48789,39.93239,1277,8492
116.49131,39.93345,1278,8492
116.51181,39.94934,1279,8492
116.52732,39.96666,1280,8492
116.52734,39.96668,1281,8492
116.52734,39.96665,1282,8492
116.52735,39.96665,1283,8492
116.52731,39.96667,1284,8492
116.52728,39.96666,1285,8492
116.52733,39.96667,1286,8492
116.52732,39.96666,1287,8492
116.52732,39.96666,1288,8492
116.52729,39.96668,1289,8492
116.5273,39.96665,1290,8492
116.52734,39.96666,1291,8492
116.52734,39.96665,1292,8492
116.52734,39.96665,1293,8492
116.52732,39.96667,1294,8492
116.51772,39.9622,1295,8492
116.50718,39.93809,1296,8492
116.44455,39.9324,1297,8492
116.42136,39.94836,1298,8492
116.36923,39.94763,1299,8492
116.35117,39.95779,1300,8492
116.36546,39.9498,1301,8492
116.36505,39.95501,1302,8492
116.40862,39.95787,1303,8492
116.40196,39.99746,1304,8492
116.40187,39.98691,1305,8492
116.42834,39.98217,1306,8492
116.41611,39.9821,1307,8492
116.4116,39.96825,1308,8492
116.40384,39.95774,1309,8492
116.40386,39.97404,1310,8492
116.40156,39.99725,1311,8492
116.41006,39.99488,1312,8492
116.40116,39.98312,1313,8492
116.40116,39.98312,1314,8492
116.40176,39.95388,1315,8492
116.40259,39.93188,1316,8492
116.40259,39.93188,1317,8492
116.40259,39.93188,1318,8492
116.39212,39.93219,1319,8492
116.36659,39.93714,1320,8492
116.36941,39.96668,1321,8492
116.41239,39.96777,1322,8492
116.43681,39.94899,1323,8492
116.43349,39.95816,1324,8492
116.42795,39.95829,1325,8492
116.41286,39.95592,1326,8492
116.40779,39.96087,1327,8492
116.40196,39.94559,1328,8492
116.39019,39.93913,1329,8492
116.35513,39.95102,1330,8492
116.36391,39.97096,1331,8492
116.36975,39.97913,1332,8492
116.37618,39.96678,1333,8492
116.39726,39.94783,1334,8492
116.38975,39.97389,1335,8492
116.4009,39.97195,1336,8492
116.40108,39.97509,1337,8492
116.41183,39.96453,1338,8492
116.41894,39.95504,1339,8492
116.41898,39.9529,1340,8492
116.41909,39.95039,1341,8492
116.41909,39.95039,1342,8492
116.42746,39.94444,1343,8492
116.43079,39.89873,1344,8492
116.43329,39.87009,1345,8492
116.4335,39.87353,1346,8492
116.43252,39.87542,1347,8492
116.42823,39.87944,1348,8492
116.41515,39.87947,1349,8492
116.41499,39.87543,1350,8492
116.43201,39.88292,1351,8492
116.45473,39.87751,1352,8492
116.45568,39.90142,1353,8492
116.45174,39.90738,1354,8492
116.44426,39.91508,1355,8492
116.46069,39.92195,1356,8492
116.46632,39.93234,1357,8492
116.46258,39.94639,1358,8492
116.4389,39.94979,1359,8492
116.41222,39.94805,1360,8492
116.37462,39.94764,1361,8492
116.35967,39.96665,1362,8492
116.35706,39.9804,1363,8492
116.36359,39.9713,1364,8492
116.36359,39.96747,1365,8492
116.36364,39.96741,1366,8492
116.3636,39.96744,1367,8492
116.36359,39.96745,1368,8492
116.34724,39.9672,1369,8492
116.35502,39.95099,1370,8492
116.36686,39.99624,1371,8492
116.35731,40.00937,1372,8492
116.33581,40.03718,1373,8492
116.3287,40.03745,1374,8492
116.32153,40.03449,1375,8492
116.30746,40.02791,1376,8492
116.32529,40.0118,1377,8492
116.32675,39.99155,1378,8492
116.35513,39.98557,1379,8492
116.37745,39.98606,1380,8492
116.42867,39.98774,1381,8492
116.477,39.98224,1382,8492
116.52069,39.96331,1383,8492
116.53574,39.96484,1384,8492
116.51198,39.9587,1385,8492
116.50135,39.93646,1386,8492
116.4857,39.93658,1387,8492
116.48237,39.95612,1388,8492
116.4969,39.96922,1389,8492
116.50254,39.9712,1390,8492
116.47657,39.96958,1391,8492
116.46434,39.97642,1392,8492
116.47115,39.97292,1393,8492
116.4701,39.96099,1394,8492
116.46283,39.94337,1395,8492
116.46254,39.9465,1396,8492
116.45494,39.95423,1397,8492
116.44992,39.95507,1398,8492
116.45276,39.95342,1399,8492
116.43344,39.95661,1400,8492
116.43344,39.95661,1401,8492
116.41286,39.96068,1402,8492
116.40182,39.95214,1403,8492
116.40249,39.93243,1404,8492
116.39439,39.93192,1405,8492
116.39757,39.92295,1406,8492
116.41939,39.92286,1407,8492
116.43761,39.9321,1408,8492
116.45595,39.94248,1409,8492
116.46794,39.94469,1410,8492
116.4647,39.96363,1411,8492
116.49333,39.97063,1412,8492
116.52815,39.97648,1413,8492
116.52635,39.96464,1414,8492
116.52771,39.96667,1415,8492
116.52768,39.9666,1416,8492
116.52765,39.96662,1417,8492
116.52766,39.96665,1418,8492
116.5277,39.96663,1419,8492
116.52151,39.95743,1420,8492
116.51119,39.92815,1421,8492
116.5001,39.91481,1422,8492
116.48231,39.90769,1423,8492
116.48652,39.91069,1424,8492
116.48816,39.91449,1425,8492
116.46329,39.91535,1426,8492
116.4364,39.92256,1427,8492
116.42642,39.9478,1428,8492
116.41962,39.9434,1429,8492
116.41957,39.93252,1430,8492
116.41957,39.93252,1431,8492
116.42013,39.91819,1432,8492
116.40526,39.90673,1433,8492
116.37719,39.90589,1434,8492
116.34769,39.89708,1435,8492
116.31515,39.89744,1436,8492
116.30036,39.896,1437,8492
116.30557,39.9071,1438,8492
116.28685,39.91602,1439,8492
116.30389,39.90505,1440,8492
116.31294,39.85424,1441,8492
116.35305,39.84404,1442,8492
116.36183,39.83448,1443,8492
116.3778,39.85573,1444,8492
116.42111,39.85715,1445,8492
116.42027,39.86509,1446,8492
116.43968,39.88624,1447,8492
116.45545,39.89425,1448,8492
116.45566,39.94052,1449,8492
116.44939,39.95161,1450,8492
116.45552,39.948,1451,8492
116.4047,39.99475,1452,8492
116.41148,40.01815,1453,8492
116.41602,40.03933,1454,8492
116.42016,40.04252,1455,8492
116.41128,40.02083,1456,8492
116.41099,39.99738,1457,8492
116.47434,39.96272,1458,8492
116.48352,39.94865,1459,8492
116.48352,39.94865,1460,8492
116.49722,39.93035,1461,8492
116.51319,39.93968,1462,8492
116.54471,39.94565,1463,8492
116.52445,39.94036,1464,8492
116.52005,39.92464,1465,8492
116.52009,39.92463,1466,8492
116.52011,39.92465,1467,8492
116.51479,39.92218,1468,8492
116.4967,39.91476,1469,8492
116.48362,39.91221,1470,8492
116.44502,39.90712,1471,8492
116.42752,39.94277,1472,8492
116.36578,39.94734,1473,8492
116.33923,39.94446,1474,8492
116.32533,39.95067,1475,8492
116.31641,39.96211,1476,8492
116.33626,39.9566,1477,8492
116.35053,39.95073,1478,8492
116.36564,39.9476,1479,8492
116.42205,39.94824,1480,8492
116.42796,39.90376,1481,8492
116.41208,39.89988,1482,8492
116.41268,39.88738,1483,8492
116.4004,39.8716,1484,8492
116.41484,39.87929,1485,8492
116.41274,39.89435,1486,8492
116.43283,39.89176,1487,8492
116.43391,39.88301,1488,8492
116.44496,39.88033,1489,8492
116.44496,39.88033,1490,8492
116.42178,39.87739,1491,8492
116.43875,39.88313,1492,8492
116.44294,39.88033,1493,8492
116.43978,39.8805,1494,8492
116.42468,39.89621,1495,8492
116.41264,39.89217,1496,8492
116.40376,39.98144,1497,8492
116.41181,39.97414,1498,8492
116.40736,39.96057,1499,8492
116.41875,39.95605,1500,8492
116.41898,39.95087,1501,8492
116.41861,39.93962,1502,8492
116.41454,39.93234,1503,8492
116.36665,39.9314,1504,8492
116.35013,39.91495,1505,8492
116.33976,39.91265,1506,8492
116.34646,39.90539,1507,8492
116.36387,39.90754,1508,8492
116.37661,39.90552,1509,8492
116.41151,39.9068,1510,8492
116.41151,39.9068,1511,8492
116.45625,39.90636,1512,8492
116.45813,39.94872,1513,8492
116.45813,39.94872,1514,8492
116.45813,39.94872,1515,8492
116.47542,39.96983,1516,8492
116.47545,39.96989,1517,8492
116.47546,39.96995,1518,8492
116.47474,39.97006,1519,8492
116.47474,39.97006,1520,8492
116.45348,39.95296,1521,8492
116.4492,39.92956,1522,8492
116.45568,39.94069,1523,8492
116.47074,39.97766,1524,8492
116.46191,39.98183,1525,8492
116.46747,39.98182,1526,8492
116.48157,39.9698,1527,8492
116.48541,39.964,1528,8492
116.46232,39.95005,1529,8492
116.4552,39.94067,1530,8492
116.42785,39.93999,1531,8492
116.39734,39.9231,1532,8492
116.42275,39.92691,1533,8492
116.44105,39.93223,1534,8492
116.4555,39.90838,1535,8492
116.46161,39.86871,1536,8492
116.4661,39.87197,1537,8492
116.45545,39.89186,1538,8492
116.42257,39.89934,1539,8492
116.42838,39.907,1540,8492
116.4284,39.92619,1541,8492
116.43552,39.93236,1542,8492
116.4211,39.9071,1543,8492
116.4211,39.9071,1544,8492
116.37831,39.90596,1545,8492
116.37734,39.90398,1546,8492
116.37363,39.93383,1547,8492
116.37346,39.9601,1548,8492
116.38292,39.98107,1549,8492
116.41691,39.98729,1550,8492
116.4181,39.98099,1551,8492
116.42998,39.98757,1552,8492
116.43052,39.9875,1553,8492
116.43053,39.98757,1554,8492
116.43055,39.98754,1555,8492
116.43054,39.98729,1556,8492
116.43283,39.98323,1557,8492
116.43277,39.98322,1558,8492
116.43279,39.98346,1559,8492
116.46125,39.97124,1560,8492
116.48364,39.92355,1561,8492
116.47158,39.89933,1562,8492
116.4839,39.91553,1563,8492
116.48799,39.93235,1564,8492
116.4956,39.93464,1565,8492
116.51271,39.94988,1566,8492
116.52735,39.9667,1567,8492
116.52733,39.96672,1568,8492
116.51142,39.95837,1569,8492
116.49696,39.93519,1570,8492
116.48362,39.90641,1571,8492
116.479,39.8483,1572,8492
116.41446,39.83101,1573,8492
116.41446,39.83101,1574,8492
116.39559,39.81569,1575,8492
116.41112,39.80142,1576,8492
116.41448,39.78545,1577,8492
116.44515,39.78987,1578,8492
116.4479,39.81945,1579,8492
116.47833,39.84621,1580,8492
116.48381,39.9045,1581,8492
116.47556,39.9621,1582,8492
116.5152,40.01559,1583,8492
116.5831,40.05065,1584,8492
116.58091,40.07789,1585,8492
116.5849,40.05532,1586,8492
116.56047,40.03061,1587,8492
116.55504,40.01758,1588,8492
116.55809,40.00831,1589,8492
116.55424,39.97067,1590,8492
116.5274,39.96899,1591,8492
116.51115,39.95081,1592,8492
116.48532,39.9325,1593,8492
116.45614,39.93252,1594,8492
116.42789,39.93506,1595,8492
116.3764,39.94756,1596,8492
116.35381,39.9224,1597,8492
116.35014,39.91892,1598,8492
116.31796,39.89598,1599,8492
116.31618,39.89524,1600,8492
116.31093,39.90632,1601,8492
116.26975,39.90627,1602,8492
116.25863,39.90026,1603,8492
116.25793,39.89147,1604,8492
116.26203,39.9062,1605,8492
116.27844,39.9062,1606,8492
116.30552,39.90519,1607,8492
116.31307,39.93105,1608,8492
116.31825,39.95035,1609,8492
116.32825,39.96588,1610,8492
116.34671,39.97516,1611,8492
116.36307,39.98057,1612,8492
116.39863,39.98691,1613,8492
116.41289,39.97415,1614,8492
116.41196,39.97866,1615,8492
116.3898,39.9673,1616,8492
116.37304,39.95587,1617,8492
116.37308,39.95059,1618,8492
116.37454,39.93801,1619,8492
116.37384,39.9465,1620,8492
116.3883,39.95012,1621,8492
116.39605,39.97559,1622,8492
116.40161,39.99693,1623,8492
116.40389,40.00608,1624,8492
116.40448,39.99743,1625,8492
116.40131,39.99248,1626,8492
116.39998,39.97192,1627,8492
116.39613,39.9756,1628,8492
116.40171,40.00078,1629,8492
116.40435,40.03078,1630,8492
116.40602,40.04578,1631,8492
116.40602,40.04578,1632,8492
116.40721,40.06213,1633,8492
116.40721,40.06213,1634,8492
116.40689,40.06589,1635,8492
116.4078,40.07782,1636,8492
116.40191,40.07454,1637,8492
116.40607,40.07267,1638,8492
116.4064,40.07277,1639,8492
116.40667,40.06691,1640,8492
116.40543,40.04895,1641,8492
116.41178,40.0288,1642,8492
116.40626,40.00031,1643,8492
116.40243,39.9974,1644,8492
116.40837,39.98952,1645,8492
116.4012,39.97408,1646,8492
116.40156,39.95642,1647,8492
116.38877,39.9617,1648,8492
116.39881,39.97392,1649,8492
116.38633,39.96731,1650,8492
116.37323,39.97555,1651,8492
116.37228,39.96032,1652,8492
116.35951,39.96687,1653,8492
116.36368,39.97388,1654,8492
116.36362,39.9674,1655,8492
116.3636,39.96733,1656,8492
116.36364,39.96745,1657,8492
116.36349,39.96758,1658,8492
116.36368,39.96739,1659,8492
116.35953,39.9693,1660,8492
116.36296,39.99202,1661,8492
116.36365,39.99998,1662,8492
116.36365,39.99998,1663,8492
116.36623,39.98585,1664,8492
116.40512,39.98689,1665,8492
116.41827,39.97664,1666,8492
116.41887,39.95665,1667,8492
116.419,39.95513,1668,8492
116.41898,39.95339,1669,8492
116.41936,39.95014,1670,8492
116.42421,39.94816,1671,8492
116.4177,39.92315,1672,8492
116.42285,39.93228,1673,8492
116.45124,39.93236,1674,8492
116.47155,39.9324,1675,8492
116.4723,39.93195,1676,8492
116.46255,39.94698,1677,8492
116.45375,39.94253,1678,8492
116.45497,39.94776,1679,8492
116.4628,39.94414,1680,8492
116.44993,39.95548,1681,8492
116.44685,39.96695,1682,8492
116.42969,39.96839,1683,8492
