x,y,k,tid
116.35109,39.88829,0,8788
116.36779,39.88774,1,8788
116.37652,39.88801,2,8788
116.37727,39.88805,3,8788
116.37759,39.88807,4,8788
116.37859,39.89108,5,8788
116.37723,39.89852,6,8788
116.37219,39.89863,7,8788
116.36885,39.89844,8,8788
116.36501,39.88791,9,8788
116.35766,39.88794,10,8788
116.34587,39.86019,11,8788
116.34853,39.86514,12,8788
116.458,39.96514,13,8788
116.45881,39.96586,14,8788
116.44914,39.97972,15,8788
116.44925,39.97998,16,8788
116.45722,39.98847,17,8788
116.46996,39.98013,18,8788
116.47008,39.98006,19,8788
116.46118,39.98348,20,8788
116.46109,39.98349,21,8788
116.45904,39.96723,22,8788
116.45848,39.96671,23,8788
116.44357,39.95421,24,8788
116.44315,39.95384,25,8788
116.44422,39.94347,26,8788
116.44423,39.94343,27,8788
116.43395,39.93997,28,8788
116.43349,39.93997,29,8788
116.42347,39.94344,30,8788
116.42348,39.94344,31,8788
116.41966,39.93525,32,8788
116.41938,39.94808,33,8788
116.41939,39.94808,34,8788
116.40148,39.94769,35,8788
116.40113,39.94773,36,8788
116.38435,39.94768,37,8788
116.38424,39.94768,38,8788
116.42004,39.9681,39,8788
116.45022,39.95342,40,8788
116.44874,39.95213,41,8788
116.4496,39.94957,42,8788
116.44959,39.94956,43,8788
116.44414,39.93581,44,8788
116.4441,39.91958,45,8788
116.44401,39.91631,46,8788
116.43763,39.9078,47,8788
116.43763,39.9078,48,8788
116.40523,39.90725,49,8788
116.40153,39.90688,50,8788
116.38187,39.90607,51,8788
116.38179,39.90608,52,8788
116.36681,39.90596,53,8788
116.36573,39.90599,54,8788
116.35327,39.90717,55,8788
116.35341,39.91029,56,8788
116.35428,39.9201,57,8788
116.35431,39.92006,58,8788
116.34803,39.91267,59,8788
116.34372,39.91267,60,8788
116.32836,39.91209,61,8788
116.32839,39.90993,62,8788
116.31786,39.90976,63,8788
116.31935,39.90973,64,8788
116.32852,39.9178,65,8788
116.32855,39.91972,66,8788
116.34393,39.92212,67,8788
116.34809,39.92227,68,8788
116.34891,39.94144,69,8788
116.3496,39.92725,70,8788
116.35359,39.91319,71,8788
116.35377,39.91163,72,8788
116.35693,39.90298,73,8788
116.35695,39.90233,74,8788
116.35695,39.90233,75,8788
116.35706,39.89887,76,8788
116.35737,39.88863,77,8788
116.35738,39.88846,78,8788
116.35833,39.86518,79,8788
116.35833,39.86752,80,8788
116.36829,39.88509,81,8788
116.36842,39.8983,82,8788
116.32011,39.92709,83,8788
116.31949,39.92234,84,8788
116.30151,39.92285,85,8788
116.28928,39.9229,86,8788
116.2624,39.92319,87,8788
116.255,39.9233,88,8788
116.25923,39.91632,89,8788
116.25923,39.91632,90,8788
116.26421,39.91633,91,8788
116.27172,39.89561,92,8788
116.2843,39.89577,93,8788
116.3043,39.91069,94,8788
116.30341,39.95434,95,8788
116.30129,39.96669,96,8788
116.31844,39.95081,97,8788
116.31836,39.9507,98,8788
116.42164,39.94822,99,8788
116.42761,39.94297,100,8788
116.51724,39.91127,101,8788
116.51471,39.90694,102,8788
116.48118,39.90699,103,8788
116.48118,39.90699,104,8788
116.46277,39.90726,105,8788
116.44214,39.9072,106,8788
116.42564,39.90713,107,8788
116.40986,39.90724,108,8788
116.38912,39.8892,109,8788
116.36267,39.88799,110,8788
116.34435,39.88833,111,8788
116.34267,39.88026,112,8788
116.33955,39.83536,113,8788
116.33894,39.80667,114,8788
116.33948,39.8021,115,8788
116.34197,39.78919,116,8788
116.33531,39.77858,117,8788
116.33437,39.75785,118,8788
116.33437,39.75785,119,8788
116.332,39.7491,120,8788
116.33331,39.7286,121,8788
116.41503,39.93957,122,8788
116.41503,39.93957,123,8788
116.33302,39.73858,124,8788
116.33198,39.74833,125,8788
116.33198,39.74833,126,8788
116.32579,39.76015,127,8788
116.32501,39.77059,128,8788
116.30996,39.77858,129,8788
116.29891,39.78056,130,8788
116.29437,39.77091,131,8788
116.30979,39.78904,132,8788
116.32534,39.7991,133,8788
116.3296,39.80132,134,8788
116.33781,39.80642,135,8788
116.34201,39.82862,136,8788
116.35288,39.83053,137,8788
116.35405,39.84449,138,8788
116.36081,39.84451,139,8788
116.37171,39.8492,140,8788
116.37802,39.84834,141,8788
116.38501,39.85549,142,8788
116.38791,39.85223,143,8788
116.38791,39.85223,144,8788
116.39092,39.85414,145,8788
116.38883,39.85567,146,8788
116.44648,39.8598,147,8788
116.46138,39.88316,148,8788
116.46146,39.8861,149,8788
116.46117,39.88459,150,8788
116.45558,39.89759,151,8788
116.45584,39.90217,152,8788
116.45203,39.9115,153,8788
116.44411,39.91042,154,8788
116.44398,39.90927,155,8788
116.45892,39.90717,156,8788
116.46481,39.90697,157,8788
116.47175,39.90008,158,8788
116.47277,39.89914,159,8788
116.48051,39.89937,160,8788
116.48349,39.87792,161,8788
116.47851,39.86243,162,8788
116.45835,39.83398,163,8788
116.42408,39.82342,164,8788
116.42408,39.82342,165,8788
116.41313,39.82341,166,8788
116.38026,39.82696,167,8788
116.38227,39.8281,168,8788
116.46864,39.89205,169,8788
116.45595,39.89226,170,8788
116.45496,39.90999,171,8788
116.44863,39.91271,172,8788
116.45205,39.91185,173,8788
116.44456,39.91408,174,8788
116.44436,39.92084,175,8788
116.44477,39.92428,176,8788
116.4485,39.92561,177,8788
116.44943,39.93049,178,8788
116.44981,39.93185,179,8788
116.45311,39.93216,180,8788
116.45527,39.9321,181,8788
116.45505,39.92304,182,8788
116.45215,39.91888,183,8788
116.45196,39.91834,184,8788
116.45413,39.91815,185,8788
116.45546,39.90916,186,8788
116.45494,39.90674,187,8788
116.48359,39.89951,188,8788
116.48359,39.89248,189,8788
116.48338,39.87878,190,8788
116.48329,39.87735,191,8788
116.47126,39.87086,192,8788
116.4713,39.87635,193,8788
116.47134,39.88321,194,8788
116.47152,39.88798,195,8788
116.47765,39.89925,196,8788
116.48354,39.89944,197,8788
116.48432,39.90348,198,8788
116.48405,39.91484,199,8788
116.49298,39.93406,200,8788
116.50202,39.93661,201,8788
116.51869,39.94035,202,8788
116.52509,39.94034,203,8788
116.54121,39.94292,204,8788
116.54123,39.94934,205,8788
116.54078,39.96474,206,8788
116.53951,39.96474,207,8788
116.55167,39.96979,208,8788
116.55919,39.97078,209,8788
116.56293,39.99141,210,8788
116.5602,40.00099,211,8788
116.54865,40.02502,212,8788
116.54545,40.03115,213,8788
116.52665,40.03876,214,8788
116.52953,40.0446,215,8788
116.55016,40.06402,216,8788
116.56634,40.07039,217,8788
116.56453,40.07211,218,8788
116.5646,40.07214,219,8788
116.5646,40.07214,220,8788
116.5646,40.07214,221,8788
116.56463,40.07209,222,8788
116.56474,40.07209,223,8788
116.56474,40.07209,224,8788
116.56474,40.07209,225,8788
116.56474,40.07209,226,8788
116.56474,40.07209,227,8788
116.56474,40.07209,228,8788
116.56474,40.07209,229,8788
116.56474,40.07209,230,8788
116.56448,40.07251,231,8788
116.56448,40.07251,232,8788
116.56451,40.07237,233,8788
116.56451,40.07237,234,8788
116.56451,40.07237,235,8788
116.56454,40.07201,236,8788
116.56454,40.07201,237,8788
116.56454,40.07201,238,8788
116.56455,40.07203,239,8788
116.5645,40.07201,240,8788
116.5645,40.07201,241,8788
116.5645,40.07201,242,8788
116.5645,40.07201,243,8788
116.56458,40.07217,244,8788
116.56458,40.07217,245,8788
116.56458,40.07217,246,8788
116.56255,40.06878,247,8788
116.56314,40.0664,248,8788
116.5807,40.06231,249,8788
116.58252,40.06373,250,8788
116.58185,40.0681,251,8788
116.58056,40.07582,252,8788
116.58058,40.0757,253,8788
116.58458,40.07656,254,8788
116.58381,40.05231,255,8788
116.54162,40.02533,256,8788
116.54012,40.0248,257,8788
116.4877,39.99209,258,8788
116.48642,39.99094,259,8788
116.4422,39.98391,260,8788
116.44086,39.98459,261,8788
116.37683,39.98642,262,8788
116.37683,39.98642,263,8788
116.37511,39.98635,264,8788
116.37511,39.98635,265,8788
116.30629,39.98414,266,8788
116.30458,39.98408,267,8788
116.26903,39.94824,268,8788
116.26882,39.94686,269,8788
116.26773,39.90681,270,8788
116.26773,39.90681,271,8788
116.26769,39.89081,272,8788
116.26767,39.88992,273,8788
116.26033,39.89279,274,8788
116.26033,39.89279,275,8788
116.25034,39.8884,276,8788
116.24736,39.88841,277,8788
116.22416,39.89215,278,8788
116.2239,39.8946,279,8788
116.21922,39.90017,280,8788
116.21924,39.9002,281,8788
116.22752,39.89132,282,8788
116.22415,39.89165,283,8788
116.24777,39.88823,284,8788
116.25456,39.88826,285,8788
116.26828,39.88746,286,8788
116.26834,39.89396,287,8788
116.30683,39.89526,288,8788
116.30387,39.94622,289,8788
116.32319,39.96591,290,8788
116.33975,39.97529,291,8788
116.33917,39.97501,292,8788
116.34675,39.97148,293,8788
116.34839,39.95697,294,8788
116.33818,39.8478,295,8788
116.33923,39.82268,296,8788
116.334,39.77606,297,8788
116.33783,39.75048,298,8788
116.33811,39.74687,299,8788
116.30845,39.74121,300,8788
116.30835,39.74132,301,8788
116.30835,39.74132,302,8788
116.33336,39.73057,303,8788
116.33299,39.72854,304,8788
116.33283,39.73022,305,8788
116.33329,39.73093,306,8788
116.34043,39.74129,307,8788
116.33717,39.7607,308,8788
116.33696,39.7621,309,8788
116.33872,39.78063,310,8788
116.34395,39.78757,311,8788
116.35937,39.79285,312,8788
116.3613,39.79912,313,8788
116.36332,39.82856,314,8788
116.3722,39.82994,315,8788
116.37288,39.83425,316,8788
116.37266,39.83883,317,8788
116.37138,39.8441,318,8788
116.36584,39.84273,319,8788
116.36584,39.84273,320,8788
116.35778,39.84452,321,8788
116.35461,39.84455,322,8788
116.34425,39.84445,323,8788
116.34227,39.84836,324,8788
116.34291,39.8675,325,8788
116.33569,39.86684,326,8788
116.32535,39.87151,327,8788
116.31984,39.87377,328,8788
116.32144,39.88111,329,8788
116.32139,39.88239,330,8788
116.33039,39.88831,331,8788
116.33039,39.88831,332,8788
116.3428,39.88803,333,8788
116.36169,39.8878,334,8788
116.37861,39.88737,335,8788
116.38923,39.88214,336,8788
116.39132,39.88214,337,8788
116.39189,39.86954,338,8788
116.41701,39.8637,339,8788
116.42638,39.86425,340,8788
116.4267,39.86401,341,8788
116.42777,39.86417,342,8788
116.4286,39.86423,343,8788
116.43887,39.86458,344,8788
116.43871,39.8653,345,8788
116.43459,39.86432,346,8788
116.42984,39.86386,347,8788
116.42851,39.86327,348,8788
116.42092,39.86452,349,8788
116.41776,39.86445,350,8788
116.40915,39.85616,351,8788
116.40907,39.85612,352,8788
116.39689,39.85632,353,8788
116.39428,39.8621,354,8788
116.393,39.85878,355,8788
116.39354,39.85477,356,8788
116.39459,39.83702,357,8788
116.39542,39.82201,358,8788
116.39676,39.82165,359,8788
116.4109,39.81941,360,8788
116.4178,39.81896,361,8788
116.4178,39.81896,362,8788
116.42346,39.81852,363,8788
116.42246,39.81895,364,8788
116.41795,39.819,365,8788
116.39981,39.8211,366,8788
116.40109,39.82086,367,8788
116.39791,39.83071,368,8788
116.44258,39.82734,369,8788
116.43565,39.81256,370,8788
116.44329,39.8256,371,8788
116.44547,39.82464,372,8788
116.44547,39.82464,373,8788
116.44543,39.81178,374,8788
116.44138,39.81139,375,8788
116.43753,39.80734,376,8788
116.43539,39.80378,377,8788
116.42111,39.80246,378,8788
116.41656,39.80225,379,8788
116.41297,39.80161,380,8788
116.40518,39.80395,381,8788
116.3965,39.80751,382,8788
116.39613,39.81538,383,8788
116.39591,39.82151,384,8788
116.39504,39.8352,385,8788
116.39467,39.85241,386,8788
116.40512,39.84102,387,8788
116.4138,39.89159,388,8788
116.4101,39.89133,389,8788
116.3973,39.89066,390,8788
116.38372,39.8878,391,8788
116.37888,39.8919,392,8788
116.36962,39.89794,393,8788
116.36537,39.89822,394,8788
116.35091,39.90542,395,8788
116.37311,39.95082,396,8788
116.37486,39.97207,397,8788
116.3798,39.98103,398,8788
116.38108,39.99019,399,8788
116.38097,39.99411,400,8788
116.37147,39.99589,401,8788
116.36775,39.9947,402,8788
116.35931,39.99234,403,8788
116.35909,39.99153,404,8788
116.35797,39.99181,405,8788
116.35797,39.99181,406,8788
116.35797,39.99181,407,8788
116.35797,39.99181,408,8788
116.35797,39.99181,409,8788
116.34168,39.99196,410,8788
116.34168,39.99196,411,8788
116.34168,39.99196,412,8788
116.35294,39.99215,413,8788
116.35984,39.99233,414,8788
116.36125,39.9922,415,8788
116.36121,39.99232,416,8788
116.36121,39.99232,417,8788
116.36121,39.99232,418,8788
116.36121,39.99232,419,8788
116.36121,39.99232,420,8788
116.36121,39.99232,421,8788
116.36121,39.99232,422,8788
116.36121,39.99232,423,8788
116.36121,39.99232,424,8788
116.36121,39.99232,425,8788
116.36121,39.99232,426,8788
116.36293,39.99217,427,8788
116.35923,39.99243,428,8788
116.34768,39.99206,429,8788
116.34212,39.99236,430,8788
116.34196,39.99357,431,8788
116.33456,39.99168,432,8788
116.33789,39.98485,433,8788
116.33871,39.98031,434,8788
116.33794,39.98466,435,8788
116.3473,39.98176,436,8788
116.33846,39.97518,437,8788
116.32787,39.97529,438,8788
116.31871,39.97553,439,8788
116.31352,39.97961,440,8788
116.31102,39.97476,441,8788
116.32644,39.97501,442,8788
116.33831,39.97499,443,8788
116.33831,39.97499,444,8788
116.34752,39.97505,445,8788
116.35868,39.97519,446,8788
116.36612,39.97771,447,8788
116.36927,39.97903,448,8788
116.37376,39.97987,449,8788
116.36498,39.99783,450,8788
116.34874,40.01936,451,8788
116.31242,40.06753,452,8788
116.30883,40.07638,453,8788
116.30921,40.0771,454,8788
116.31271,40.07381,455,8788
116.31336,40.05845,456,8788
116.29408,40.0542,457,8788
116.2931,40.0476,458,8788
116.30414,40.03556,459,8788
116.30689,40.02814,460,8788
116.30885,40.00325,461,8788
116.30995,39.98659,462,8788
116.30995,39.98659,463,8788
116.3101,39.98471,464,8788
116.31034,39.97741,465,8788
116.31001,39.98966,466,8788
116.3113,40.00477,467,8788
116.31047,40.01656,468,8788
116.31313,40.02909,469,8788
116.31103,40.03374,470,8788
116.31103,40.03374,471,8788
116.30739,40.02541,472,8788
116.30808,40.01913,473,8788
116.30895,39.99954,474,8788
116.31002,39.98626,475,8788
116.28708,39.98156,476,8788
116.30006,39.97652,477,8788
116.30184,39.96182,478,8788
116.31445,39.96514,479,8788
116.31949,39.93858,480,8788
116.32838,39.92428,481,8788
116.31363,39.92247,482,8788
116.29539,39.92272,483,8788
116.2814,39.92249,484,8788
116.2814,39.92249,485,8788
116.26306,39.92302,486,8788
116.24338,39.926,487,8788
116.23267,39.92453,488,8788
116.21509,39.9237,489,8788
116.2003,39.92345,490,8788
116.17007,39.92252,491,8788
116.16298,39.92473,492,8788
116.16574,39.93505,493,8788
116.25855,39.92212,494,8788
116.26551,39.9276,495,8788
116.28216,39.95017,496,8788
116.2824,39.95222,497,8788
116.29785,39.95292,498,8788
116.30339,39.95,499,8788
116.30421,39.92067,500,8788
116.3056,39.89536,501,8788
116.34161,39.88829,502,8788
116.34233,39.86926,503,8788
116.34123,39.85888,504,8788
116.33859,39.84679,505,8788
116.33957,39.83762,506,8788
116.33874,39.81396,507,8788
116.34197,39.78965,508,8788
116.33516,39.77521,509,8788
116.33633,39.76205,510,8788
116.33578,39.73567,511,8788
116.33625,39.73552,512,8788
116.33185,39.72862,513,8788
116.33101,39.7284,514,8788
116.32641,39.74103,515,8788
116.33316,39.7435,516,8788
116.33316,39.7435,517,8788
116.33653,39.74116,518,8788
116.33733,39.75952,519,8788
116.33709,39.76156,520,8788
116.33632,39.77504,521,8788
116.33629,39.77509,522,8788
116.35114,39.79172,523,8788
116.35945,39.81245,524,8788
116.3594,39.81287,525,8788
116.36716,39.82975,526,8788
116.37408,39.82991,527,8788
116.37265,39.83889,528,8788
116.37274,39.84228,529,8788
116.36937,39.84817,530,8788
116.36938,39.8481,531,8788
116.39141,39.84333,532,8788
116.39119,39.84457,533,8788
116.4,39.85117,534,8788
116.39762,39.85441,535,8788
116.4102,39.86935,536,8788
116.40635,39.87418,537,8788
116.4934,39.83928,538,8788
116.4934,39.83928,539,8788
116.35742,39.88475,540,8788
116.35718,39.88926,541,8788
116.35732,39.88864,542,8788
116.35733,39.88751,543,8788
116.34755,39.88187,544,8788
116.34761,39.88103,545,8788
116.35169,39.88778,546,8788
116.35234,39.88795,547,8788
116.34753,39.88473,548,8788
116.34996,39.891,549,8788
116.34258,39.87578,550,8788
116.34228,39.86591,551,8788
116.37206,39.8557,552,8788
116.40387,39.8555,553,8788
116.40634,39.85559,554,8788
116.39436,39.86044,555,8788
116.39414,39.87425,556,8788
116.39415,39.87467,557,8788
116.38904,39.88203,558,8788
116.3887,39.88219,559,8788
116.37865,39.8862,560,8788
116.37865,39.8862,561,8788
116.37853,39.89092,562,8788
116.37853,39.89092,563,8788
116.38552,39.89891,564,8788
116.38669,39.89893,565,8788
116.40503,39.89972,566,8788
116.43832,39.88304,567,8788
116.43832,39.88304,568,8788
116.43943,39.88313,569,8788
116.45353,39.88323,570,8788
116.45353,39.88323,571,8788
116.47319,39.88295,572,8788
116.48978,39.86953,573,8788
116.49169,39.86949,574,8788
116.53365,39.86814,575,8788
116.53579,39.86806,576,8788
116.56513,39.88097,577,8788
116.56551,39.88172,578,8788
116.57167,39.90244,579,8788
116.57167,39.90244,580,8788
116.56614,39.90894,581,8788
116.49355,39.90693,582,8788
116.4912,39.90693,583,8788
116.32906,39.95091,584,8788
116.32905,39.95082,585,8788
116.3391,39.94793,586,8788
116.3391,39.94793,587,8788
116.34098,39.94851,588,8788
116.28903,39.90709,589,8788
116.29344,39.88984,590,8788
116.30336,39.88383,591,8788
116.30729,39.8955,592,8788
116.3332,39.89618,593,8788
116.34362,39.89614,594,8788
116.3519,39.90969,595,8788
116.35207,39.90942,596,8788
116.35034,39.92069,597,8788
116.35034,39.92069,598,8788
116.35029,39.92137,599,8788
116.35029,39.92137,600,8788
116.34879,39.92238,601,8788
116.34846,39.92248,602,8788
116.34846,39.92248,603,8788
116.28366,39.92304,604,8788
116.28008,39.92308,605,8788
116.24896,39.92397,606,8788
116.25825,39.92788,607,8788
116.26907,39.93162,608,8788
116.26851,39.93835,609,8788
116.26787,39.94087,610,8788
116.25957,39.9387,611,8788
116.26215,39.93951,612,8788
116.26854,39.92197,613,8788
116.31775,39.92223,614,8788
116.32822,39.92165,615,8788
116.34897,39.92223,616,8788
116.35671,39.92241,617,8788
116.35752,39.91296,618,8788
116.35958,39.91292,619,8788
116.37162,39.91137,620,8788
116.36927,39.90957,621,8788
116.36757,39.91665,622,8788
116.36754,39.91694,623,8788
116.36692,39.9307,624,8788
116.36692,39.93085,625,8788
116.37553,39.94733,626,8788
116.37739,39.94733,627,8788
116.42807,39.94797,628,8788
116.4303,39.94805,629,8788
116.48267,39.96988,630,8788
116.48267,39.96988,631,8788
116.47681,39.96961,632,8788
116.48317,39.96991,633,8788
116.49647,39.96432,634,8788
116.49512,39.96495,635,8788
116.49228,39.96256,636,8788
116.49228,39.96256,637,8788
116.48907,39.96164,638,8788
116.47486,39.977,639,8788
116.4724,39.9786,640,8788
116.45867,39.97654,641,8788
116.45757,39.97484,642,8788
116.4086,39.98748,643,8788
116.34441,39.97201,644,8788
116.34689,39.9695,645,8788
116.32835,39.9665,646,8788
116.29386,39.95819,647,8788
116.28155,39.96036,648,8788
116.28146,39.96021,649,8788
116.29562,39.95837,650,8788
116.30192,39.96024,651,8788
116.31783,39.95024,652,8788
116.31793,39.9496,653,8788
116.30447,39.94495,654,8788
116.30381,39.94958,655,8788
116.29453,39.94457,656,8788
116.29066,39.94603,657,8788
116.30166,39.96069,658,8788
116.30166,39.96069,659,8788
116.34292,39.9663,660,8788
116.35979,39.94541,661,8788
116.35234,39.94327,662,8788
116.31267,39.93816,663,8788
116.27855,39.95051,664,8788
116.27849,39.95508,665,8788
116.27451,39.96515,666,8788
116.27107,39.96527,667,8788
116.25498,39.94567,668,8788
116.23613,39.94658,669,8788
116.23611,39.94659,670,8788
116.23573,39.9466,671,8788
116.26263,39.94563,672,8788
116.26788,39.94323,673,8788
116.2679,39.90695,674,8788
116.26789,39.89796,675,8788
116.27682,39.85928,676,8788
116.27735,39.85011,677,8788
116.30741,39.82917,678,8788
116.31955,39.82918,679,8788
116.33892,39.80848,680,8788
116.33892,39.80848,681,8788
116.33961,39.8018,682,8788
116.33507,39.77851,683,8788
116.33523,39.77511,684,8788
116.33792,39.74907,685,8788
116.3384,39.74233,686,8788
116.33114,39.72843,687,8788
116.33106,39.72827,688,8788
116.33104,39.7287,689,8788
116.32944,39.72863,690,8788
116.33294,39.73045,691,8788
116.33619,39.73053,692,8788
116.33884,39.72114,693,8788
116.33726,39.71523,694,8788
116.31745,39.63711,695,8788
116.31898,39.62324,696,8788
116.32104,39.60172,697,8788
116.31783,39.50953,698,8788
116.31628,39.49584,699,8788
116.31358,39.47418,700,8788
116.32405,39.46809,701,8788
116.32405,39.46809,702,8788
116.32278,39.4688,703,8788
116.32276,39.46878,704,8788
116.32276,39.46878,705,8788
116.32276,39.46878,706,8788
116.32276,39.46878,707,8788
116.32276,39.46878,708,8788
116.32276,39.46878,709,8788
116.32276,39.46878,710,8788
116.32276,39.46878,711,8788
116.32276,39.46878,712,8788
116.32276,39.46878,713,8788
116.32276,39.46878,714,8788
116.32276,39.46878,715,8788
116.32276,39.46878,716,8788
116.32276,39.46878,717,8788
116.32276,39.46878,718,8788
116.32276,39.46878,719,8788
116.32276,39.46878,720,8788
116.32276,39.46878,721,8788
116.32276,39.46878,722,8788
116.32276,39.46878,723,8788
116.32276,39.46878,724,8788
116.32276,39.46878,725,8788
116.32276,39.46878,726,8788
116.29626,39.43687,727,8788
116.29626,39.43687,728,8788
116.29626,39.43687,729,8788
116.29626,39.43687,730,8788
116.29626,39.43687,731,8788
116.29626,39.43687,732,8788
116.29626,39.43687,733,8788
116.29626,39.43687,734,8788
116.32299,39.46797,735,8788
116.32332,39.46839,736,8788
116.32332,39.46839,737,8788
116.32813,39.46829,738,8788
116.32872,39.46368,739,8788
116.3286,39.46368,740,8788
116.32861,39.46369,741,8788
116.32876,39.46375,742,8788
116.32876,39.46375,743,8788
116.32876,39.46375,744,8788
116.32876,39.46375,745,8788
116.32876,39.46375,746,8788
116.32876,39.46375,747,8788
116.32876,39.46375,748,8788
116.32876,39.46375,749,8788
116.32876,39.46375,750,8788
116.32876,39.46375,751,8788
116.32876,39.46375,752,8788
116.32876,39.46375,753,8788
116.32406,39.46843,754,8788
116.32406,39.46843,755,8788
116.32406,39.46843,756,8788
116.32406,39.46843,757,8788
116.32406,39.46843,758,8788
116.32406,39.46843,759,8788
116.32406,39.46843,760,8788
116.32406,39.46843,761,8788
116.32406,39.46843,762,8788
116.32406,39.46843,763,8788
116.32406,39.46843,764,8788
116.32406,39.46843,765,8788
116.32406,39.46843,766,8788
116.32406,39.46843,767,8788
116.32406,39.46843,768,8788
116.32406,39.46843,769,8788
116.32406,39.46843,770,8788
116.32406,39.46843,771,8788
116.32406,39.46843,772,8788
116.32406,39.46843,773,8788
116.32406,39.46843,774,8788
116.32406,39.46843,775,8788
116.32406,39.46843,776,8788
116.32304,39.46866,777,8788
116.3231,39.46862,778,8788
116.32297,39.46857,779,8788
116.32326,39.46853,780,8788
116.32319,39.46856,781,8788
116.32318,39.46854,782,8788
116.32325,39.46854,783,8788
116.32327,39.46842,784,8788
116.32323,39.46848,785,8788
116.31443,39.47281,786,8788
116.3075,40.0258,787,8788
116.30739,40.02692,788,8788
116.30901,40.04352,789,8788
116.31016,40.04426,790,8788
116.34577,40.01734,791,8788
116.34578,40.01698,792,8788
116.34699,39.99625,793,8788
116.34706,39.99463,794,8788
116.34608,39.99189,795,8788
116.34624,39.99169,796,8788
116.34624,39.99169,797,8788
116.34745,39.98635,798,8788
116.34745,39.98635,799,8788
116.38172,39.98654,800,8788
116.44488,39.98221,801,8788
