x,y,k,tid
116.56642,40.07189,0,888
116.56642,40.07189,1,888
116.56643,40.07188,2,888
116.56643,40.07188,3,888
116.56643,40.07187,4,888
116.56643,40.07187,5,888
116.56429,40.0702,6,888
116.56353,40.06469,7,888
116.57528,40.06294,8,888
116.58255,40.06209,9,888
116.58266,40.06211,10,888
116.5827,40.06215,11,888
116.58215,40.06628,12,888
116.58159,40.06944,13,888
116.58118,40.07152,14,888
116.58076,40.07314,15,888
116.58053,40.07542,16,888
116.58471,40.07679,17,888
116.58758,40.07724,18,888
116.58758,40.07724,19,888
116.58765,40.07836,20,888
116.57929,40.04742,21,888
116.50919,40.01153,22,888
116.45367,39.96129,23,888
116.4278,39.93244,24,888
116.42885,39.91219,25,888
116.41906,39.89943,26,888
116.38874,39.89883,27,888
116.37482,39.89716,28,888
116.37779,39.89734,29,888
116.39168,39.89868,30,888
116.43034,39.90132,31,888
116.42869,39.92546,32,888
116.42869,39.92546,33,888
116.42785,39.94119,34,888
116.46187,39.96858,35,888
116.5109,40.01297,36,888
116.57504,40.04308,37,888
116.58673,40.07692,38,888
116.58681,40.07741,39,888
116.5805,40.07635,40,888
116.58156,40.06857,41,888
116.58284,40.06021,42,888
116.56353,40.0652,43,888
116.56306,40.0673,44,888
116.56629,40.07042,45,888
116.56604,40.07163,46,888
116.56606,40.07163,47,888
116.56608,40.07164,48,888
116.56607,40.07164,49,888
116.56607,40.07164,50,888
116.56607,40.07164,51,888
116.56606,40.07163,52,888
116.56606,40.07163,53,888
116.56605,40.07163,54,888
116.56605,40.07163,55,888
116.56605,40.07163,56,888
116.56604,40.07162,57,888
116.56604,40.07162,58,888
116.56603,40.07162,59,888
116.56603,40.07161,60,888
116.56603,40.07161,61,888
116.56603,40.07161,62,888
116.56603,40.07161,63,888
116.56602,40.07161,64,888
116.56602,40.0716,65,888
116.56602,40.0716,66,888
116.56602,40.0716,67,888
116.5642,40.07029,68,888
116.55657,40.06692,69,888
116.58308,40.06007,70,888
116.58159,40.06943,71,888
116.5813,40.07121,72,888
116.58131,40.07123,73,888
116.58184,40.07633,74,888
116.5818,40.07641,75,888
116.58765,40.07712,76,888
116.58765,40.07712,77,888
116.57987,40.04777,78,888
116.5559,40.03019,79,888
116.5559,40.03019,80,888
116.49401,40.00074,81,888
116.44193,40.01728,82,888
116.4044,40.0213,83,888
116.40844,40.00763,84,888
116.41048,39.99374,85,888
116.38113,39.98668,86,888
116.31435,39.98446,87,888
116.29938,39.98491,88,888
116.29535,39.97242,89,888
116.29193,39.9635,90,888
116.29265,39.96076,91,888
116.29832,39.95901,92,888
116.33879,39.96617,93,888
116.34822,39.97466,94,888
116.33877,39.97535,95,888
116.32745,39.98086,96,888
116.32701,39.991,97,888
116.31004,39.98529,98,888
116.31004,39.98529,99,888
116.31114,39.97503,100,888
116.31436,39.96733,101,888
116.33879,39.9662,102,888
116.36762,39.97366,103,888
116.36956,39.96975,104,888
116.3639,39.97053,105,888
116.33318,39.96655,106,888
116.33194,39.97473,107,888
116.34759,39.98234,108,888
116.33426,39.99199,109,888
116.3325,39.99915,110,888
116.31244,40.0116,111,888
116.30493,40.03454,112,888
116.2861,40.05496,113,888
116.28413,40.06176,114,888
116.29251,40.04944,115,888
116.30389,40.03589,116,888
116.30653,40.02913,117,888
116.30693,40.0278,118,888
116.32658,40.01091,119,888
116.33085,39.99104,120,888
116.33402,39.99182,121,888
116.3286,39.99558,122,888
116.31008,39.98527,123,888
116.31364,39.9693,124,888
116.31733,39.9542,125,888
116.3177,39.92445,126,888
116.30811,39.92296,127,888
116.30381,39.91945,128,888
116.29055,39.90639,129,888
116.28892,39.90775,130,888
116.29602,39.90632,131,888
116.2774,39.90605,132,888
116.28796,39.90595,133,888
116.29809,39.90598,134,888
116.29808,39.90595,135,888
116.30356,39.90483,136,888
116.30399,39.90413,137,888
116.2969,39.85669,138,888
116.27688,39.84694,139,888
116.27808,39.83889,140,888
116.28364,39.82613,141,888
116.2814,39.80092,142,888
116.28261,39.77892,143,888
116.25462,39.77369,144,888
116.25462,39.77369,145,888
116.25458,39.776,146,888
116.25459,39.77599,147,888
116.25462,39.77597,148,888
116.25463,39.77598,149,888
116.25462,39.77599,150,888
116.2546,39.776,151,888
116.2546,39.77601,152,888
116.25457,39.77602,153,888
116.25458,39.77603,154,888
116.25459,39.77603,155,888
116.25459,39.77604,156,888
116.25502,39.77626,157,888
116.25497,39.77624,158,888
116.25494,39.77623,159,888
116.25491,39.77621,160,888
116.25489,39.7762,161,888
116.25486,39.77618,162,888
116.25482,39.77616,163,888
116.2548,39.77614,164,888
116.25456,39.77584,165,888
116.25458,39.7759,166,888
116.25458,39.77592,167,888
116.25458,39.77593,168,888
116.25456,39.77595,169,888
116.25456,39.77595,170,888
116.25456,39.77596,171,888
116.25456,39.77597,172,888
116.25456,39.77596,173,888
116.25456,39.77596,174,888
116.25456,39.77597,175,888
116.25455,39.77597,176,888
116.25456,39.77597,177,888
116.2546,39.77606,178,888
116.25466,39.7759,179,888
116.25468,39.77601,180,888
116.25466,39.77603,181,888
116.25466,39.77603,182,888
116.25465,39.77602,183,888
116.25465,39.77602,184,888
116.25466,39.77603,185,888
116.25465,39.77603,186,888
116.25464,39.77602,187,888
116.25464,39.77603,188,888
116.25465,39.77602,189,888
116.25466,39.77602,190,888
116.25467,39.77602,191,888
116.25466,39.77602,192,888
116.25467,39.77602,193,888
116.25468,39.77602,194,888
116.25467,39.77603,195,888
116.25467,39.77603,196,888
116.25467,39.77603,197,888
116.25466,39.77603,198,888
116.25466,39.77603,199,888
116.25466,39.77603,200,888
116.25465,39.77603,201,888
116.25464,39.77604,202,888
116.25464,39.77604,203,888
116.25464,39.77604,204,888
116.25464,39.77604,205,888
116.25464,39.77604,206,888
116.25464,39.77604,207,888
116.25464,39.77604,208,888
116.25463,39.77604,209,888
116.25463,39.77603,210,888
116.25462,39.77603,211,888
116.25462,39.77604,212,888
116.25461,39.77604,213,888
116.25461,39.77605,214,888
116.25461,39.77606,215,888
116.25461,39.77604,216,888
116.25462,39.77609,217,888
116.2546,39.77609,218,888
116.25455,39.77614,219,888
116.25456,39.77613,220,888
116.25456,39.77613,221,888
116.25456,39.77613,222,888
116.25456,39.77611,223,888
116.25456,39.77611,224,888
116.25455,39.7761,225,888
116.25456,39.77609,226,888
116.25456,39.77607,227,888
116.25456,39.77607,228,888
116.25456,39.77606,229,888
116.25457,39.77605,230,888
116.25457,39.77605,231,888
116.25458,39.77604,232,888
116.25453,39.77591,233,888
116.25456,39.77594,234,888
116.25435,39.776,235,888
116.25817,39.77457,236,888
116.2824,39.77854,237,888
116.28481,39.81273,238,888
116.2838,39.82993,239,888
116.29112,39.83302,240,888
116.29099,39.83275,241,888
116.29132,39.83239,242,888
116.29123,39.83205,243,888
116.33092,39.82989,244,888
116.34019,39.83632,245,888
116.34584,39.84468,246,888
116.36994,39.85573,247,888
116.39473,39.85538,248,888
116.40451,39.8555,249,888
116.36091,39.85429,250,888
116.31202,39.85537,251,888
116.30343,39.88395,252,888
116.30144,39.87964,253,888
116.30679,39.88421,254,888
116.30667,39.876,255,888
116.30412,39.89477,256,888
116.30458,39.90398,257,888
116.29123,39.90632,258,888
116.29395,39.91544,259,888
116.29468,39.91517,260,888
116.2967,39.94347,261,888
116.31108,39.95167,262,888
116.31604,39.95207,263,888
116.3175,39.95129,264,888
116.31747,39.95113,265,888
116.3196,39.93192,266,888
116.32839,39.92244,267,888
116.32839,39.92244,268,888
116.32837,39.91363,269,888
116.31858,39.90651,270,888
116.31856,39.90652,271,888
116.31856,39.90652,272,888
116.31779,39.90638,273,888
116.30445,39.92381,274,888
116.27921,39.94847,275,888
116.28595,39.95656,276,888
116.3,39.96054,277,888
116.31169,39.96426,278,888
116.31832,39.96729,279,888
116.31873,39.96734,280,888
116.31338,39.97001,281,888
116.31007,39.98061,282,888
116.3185,39.98207,283,888
116.31866,39.98086,284,888
116.31928,39.96894,285,888
116.31657,39.95939,286,888
116.31934,39.93789,287,888
116.31939,39.92504,288,888
116.30339,39.92248,289,888
116.304,39.91219,290,888
116.30304,39.89521,291,888
116.3117,39.89558,292,888
116.31397,39.89498,293,888
116.31487,39.8951,294,888
116.31596,39.89461,295,888
116.34224,39.89504,296,888
116.36249,39.86827,297,888
116.3768,39.86913,298,888
116.38176,39.87024,299,888
116.34324,39.87467,300,888
116.35048,39.91007,301,888
116.34944,39.94005,302,888
116.36053,39.94475,303,888
116.35957,39.94408,304,888
116.35291,39.93263,305,888
116.34986,39.92055,306,888
116.34908,39.91713,307,888
116.34861,39.92212,308,888
116.34979,39.93798,309,888
116.34333,39.94589,310,888
116.33678,39.94715,311,888
116.32787,39.92892,312,888
116.32787,39.92891,313,888
116.32787,39.92891,314,888
116.3331,39.93567,315,888
116.33126,39.9353,316,888
116.35103,39.94252,317,888
116.37053,39.94716,318,888
116.3828,39.94221,319,888
116.37016,39.94116,320,888
116.37383,39.93226,321,888
116.37381,39.93225,322,888
116.37158,39.92639,323,888
116.38896,39.932,324,888
116.40713,39.93201,325,888
116.42601,39.9318,326,888
116.44329,39.93219,327,888
116.45446,39.93231,328,888
116.47534,39.9323,329,888
116.49571,39.93464,330,888
116.51109,39.92514,331,888
116.51234,39.91573,332,888
116.51236,39.91468,333,888
116.50225,39.91485,334,888
116.49714,39.91481,335,888
116.47192,39.92116,336,888
116.46686,39.92477,337,888
116.46687,39.92475,338,888
116.46689,39.92473,339,888
116.4669,39.92472,340,888
116.46699,39.92458,341,888
116.4707,39.92984,342,888
116.47775,39.92273,343,888
116.47819,39.92243,344,888
116.47027,39.93246,345,888
116.45565,39.94598,346,888
116.41921,39.96825,347,888
116.41845,39.968,348,888
116.42652,39.96809,349,888
116.4323,39.96074,350,888
116.43345,39.96005,351,888
116.42446,39.96836,352,888
116.41532,39.96816,353,888
116.42023,39.95794,354,888
116.42609,39.95133,355,888
116.42628,39.95041,356,888
116.42792,39.93342,357,888
116.4282,39.92615,358,888
116.42889,39.91182,359,888
116.42061,39.90442,360,888
116.42062,39.90443,361,888
116.41449,39.90049,362,888
116.41389,39.90022,363,888
116.41089,39.90005,364,888
116.41089,39.90005,365,888
116.40669,39.89951,366,888
116.40583,39.89698,367,888
116.40598,39.89274,368,888
116.38938,39.88919,369,888
116.37382,39.88803,370,888
116.36885,39.88799,371,888
116.36097,39.88522,372,888
116.35775,39.88518,373,888
116.35674,39.88708,374,888
116.35674,39.88708,375,888
116.36108,39.88255,376,888
116.36777,39.87702,377,888
116.36514,39.85329,378,888
116.36506,39.84963,379,888
116.37329,39.84603,380,888
116.37085,39.83695,381,888
116.37249,39.841,382,888
116.37641,39.84871,383,888
116.38075,39.84913,384,888
116.41489,39.85577,385,888
116.41868,39.86122,386,888
116.42438,39.86236,387,888
116.42493,39.8543,388,888
116.40839,39.85312,389,888
116.4079,39.8577,390,888
116.40516,39.86387,391,888
116.39925,39.86396,392,888
116.3937,39.85315,393,888
116.39467,39.83239,394,888
116.4116,39.82445,395,888
116.41159,39.82446,396,888
116.43717,39.8104,397,888
116.43676,39.80369,398,888
116.45527,39.8047,399,888
116.47392,39.79911,400,888
116.49954,39.77641,401,888
116.5333,39.76198,402,888
116.55054,39.75613,403,888
116.55004,39.75713,404,888
116.54109,39.76722,405,888
116.53228,39.77156,406,888
116.51855,39.78565,407,888
116.50138,39.79481,408,888
116.50051,39.79441,409,888
116.48686,39.81293,410,888
116.46088,39.81297,411,888
116.43973,39.8311,412,888
116.39466,39.83133,413,888
116.33884,39.82285,414,888
116.33462,39.82169,415,888
116.30957,39.81812,416,888
116.30959,39.81817,417,888
116.30767,39.79192,418,888
116.28788,39.77804,419,888
116.26721,39.76987,420,888
116.25279,39.77526,421,888
116.25282,39.77525,422,888
116.2528,39.77525,423,888
116.25277,39.77525,424,888
116.25277,39.77526,425,888
116.25277,39.77526,426,888
116.25327,39.77539,427,888
116.25266,39.7753,428,888
116.25267,39.77526,429,888
116.25268,39.77527,430,888
116.25269,39.77527,431,888
116.25271,39.77527,432,888
116.25272,39.77527,433,888
116.25272,39.77527,434,888
116.25273,39.77526,435,888
116.25251,39.77515,436,888
116.25258,39.77519,437,888
116.25263,39.77522,438,888
116.25265,39.77523,439,888
116.25266,39.77523,440,888
116.25268,39.77524,441,888
116.25269,39.77524,442,888
116.25269,39.77525,443,888
116.2527,39.77526,444,888
116.25271,39.77527,445,888
116.25272,39.77528,446,888
116.25272,39.77528,447,888
116.25272,39.77528,448,888
116.25272,39.77529,449,888
116.25272,39.77529,450,888
116.25272,39.7753,451,888
116.25272,39.7753,452,888
116.25272,39.7753,453,888
116.25272,39.77529,454,888
116.25272,39.77529,455,888
116.25235,39.77499,456,888
116.25284,39.7753,457,888
116.25284,39.77529,458,888
116.25285,39.77529,459,888
116.25286,39.77529,460,888
116.25285,39.7753,461,888
116.25284,39.77531,462,888
116.25284,39.77532,463,888
116.25283,39.77532,464,888
116.25283,39.77533,465,888
116.25282,39.77533,466,888
116.25282,39.77533,467,888
116.25282,39.77533,468,888
116.25282,39.77533,469,888
116.25282,39.77533,470,888
116.25282,39.77533,471,888
116.25282,39.77533,472,888
116.25282,39.77533,473,888
116.25282,39.77533,474,888
116.25282,39.77533,475,888
116.25282,39.77533,476,888
116.25282,39.77533,477,888
116.25281,39.77533,478,888
116.25281,39.77533,479,888
116.25281,39.77533,480,888
116.25281,39.77533,481,888
116.25281,39.77533,482,888
116.25281,39.77533,483,888
116.25281,39.77532,484,888
116.25281,39.77532,485,888
116.25281,39.77532,486,888
116.25281,39.77532,487,888
116.25281,39.77532,488,888
116.25281,39.77532,489,888
116.25281,39.77532,490,888
116.25281,39.77532,491,888
116.25281,39.77532,492,888
116.25281,39.77532,493,888
116.25281,39.77532,494,888
116.25281,39.77532,495,888
116.2528,39.77533,496,888
116.2528,39.77533,497,888
116.2528,39.77533,498,888
116.2528,39.77533,499,888
116.2528,39.77532,500,888
116.25279,39.77532,501,888
116.25279,39.77532,502,888
116.25276,39.77533,503,888
116.25275,39.77534,504,888
116.25275,39.77534,505,888
116.25275,39.77534,506,888
116.25275,39.77534,507,888
116.25275,39.77534,508,888
116.25275,39.77534,509,888
116.25275,39.77534,510,888
116.25275,39.77534,511,888
116.25275,39.77534,512,888
116.25275,39.77534,513,888
116.25275,39.77534,514,888
116.25275,39.77534,515,888
116.25275,39.77534,516,888
116.25275,39.77533,517,888
116.25275,39.77533,518,888
116.25275,39.77532,519,888
116.25275,39.77532,520,888
116.25275,39.77532,521,888
116.25275,39.77532,522,888
116.25276,39.77532,523,888
116.25282,39.77502,524,888
116.25282,39.77505,525,888
116.25277,39.77531,526,888
116.25277,39.77533,527,888
116.25277,39.77533,528,888
116.25276,39.77534,529,888
116.25276,39.77534,530,888
116.25276,39.77534,531,888
116.25276,39.77533,532,888
116.25275,39.77533,533,888
116.25276,39.77532,534,888
116.25276,39.77532,535,888
116.25276,39.77531,536,888
116.25277,39.77531,537,888
116.25277,39.7753,538,888
116.25295,39.7748,539,888
116.27114,39.76978,540,888
116.27114,39.76978,541,888
116.28224,39.7862,542,888
116.28625,39.80651,543,888
116.28433,39.81691,544,888
116.25435,39.77602,545,888
116.31369,39.82925,546,888
116.38728,39.83056,547,888
116.44039,39.83052,548,888
116.44116,39.83028,549,888
116.44116,39.83028,550,888
116.44834,39.82331,551,888
116.44083,39.8424,552,888
116.44018,39.84467,553,888
116.42223,39.84532,554,888
116.42214,39.84513,555,888
116.41454,39.83629,556,888
116.41454,39.83695,557,888
116.40858,39.84401,558,888
116.40817,39.85547,559,888
116.41156,39.86078,560,888
116.40983,39.85595,561,888
116.4259,39.85756,562,888
116.42516,39.86084,563,888
116.30623,39.82925,564,888
116.39624,39.87149,565,888
116.39437,39.8753,566,888
116.39164,39.87519,567,888
116.38063,39.86051,568,888
116.38057,39.8482,569,888
116.38059,39.84631,570,888
116.37343,39.84925,571,888
116.37457,39.8491,572,888
116.38065,39.83561,573,888
116.41329,39.8309,574,888
116.47572,39.8432,575,888
116.48383,39.8967,576,888
116.48378,39.95022,577,888
116.44229,39.98381,578,888
116.40231,39.98711,579,888
116.39156,39.98684,580,888
116.36593,39.99741,581,888
116.33648,40.036,582,888
116.31006,40.07104,583,888
116.28287,40.09125,584,888
116.28444,40.08509,585,888
116.28348,40.09,586,888
116.30777,40.07301,587,888
116.32066,40.05598,588,888
116.30538,40.04208,589,888
116.30494,40.03475,590,888
116.30916,40.03767,591,888
116.30915,40.03767,592,888
116.30648,40.02917,593,888
116.30653,40.02912,594,888
116.3069,40.02817,595,888
116.31266,40.00774,596,888
116.31011,39.98539,597,888
116.33323,39.9849,598,888
116.34877,39.95509,599,888
116.34939,39.94152,600,888
116.34974,39.92772,601,888
116.35032,39.90936,602,888
116.34267,39.88285,603,888
116.38713,39.87006,604,888
116.40761,39.86172,605,888
116.40591,39.85594,606,888
116.40315,39.85515,607,888
116.38825,39.85871,608,888
116.39512,39.82478,609,888
116.39512,39.82478,610,888
116.37633,39.8561,611,888
116.33582,39.84799,612,888
116.32829,39.84793,613,888
116.30564,39.87398,614,888
116.30542,39.877,615,888
116.30523,39.87912,616,888
116.30437,39.895,617,888
116.30443,39.9027,618,888
116.30196,39.89039,619,888
116.29454,39.88344,620,888
116.2943,39.88319,621,888
116.29443,39.88332,622,888
116.29445,39.88312,623,888
116.29446,39.88335,624,888
116.29451,39.88328,625,888
116.29631,39.88331,626,888
116.29675,39.88552,627,888
116.29675,39.88552,628,888
116.29991,39.8886,629,888
116.29997,39.88863,630,888
116.29031,39.88416,631,888
116.2789,39.88841,632,888
116.26638,39.89712,633,888
116.26986,39.87905,634,888
116.27326,39.8671,635,888
116.274,39.86919,636,888
116.27664,39.85605,637,888
116.27856,39.84198,638,888
116.28286,39.83515,639,888
116.28286,39.83515,640,888
116.28323,39.83514,641,888
116.28564,39.84322,642,888
116.28566,39.84314,643,888
116.28295,39.83513,644,888
116.2834,39.83511,645,888
116.31432,39.82918,646,888
116.33813,39.82284,647,888
116.34214,39.82896,648,888
116.31153,39.8296,649,888
116.29105,39.83246,650,888
116.29105,39.83247,651,888
116.28738,39.83266,652,888
116.28012,39.8403,653,888
116.27292,39.84742,654,888
116.27292,39.84742,655,888
116.28217,39.83508,656,888
116.28613,39.83556,657,888
116.294,39.84093,658,888
116.30269,39.8405,659,888
116.28846,39.8405,660,888
116.28601,39.84029,661,888
116.28824,39.84924,662,888
116.28822,39.8493,663,888
116.28779,39.85446,664,888
116.29453,39.86035,665,888
116.2898,39.85635,666,888
116.27958,39.84628,667,888
116.28023,39.83691,668,888
116.28338,39.83514,669,888
116.28658,39.83316,670,888
116.29416,39.84196,671,888
116.30337,39.84821,672,888
116.30289,39.84909,673,888
116.2938,39.84182,674,888
116.28398,39.83534,675,888
116.28135,39.83523,676,888
116.28746,39.8431,677,888
116.292,39.84413,678,888
116.28391,39.84173,679,888
116.27732,39.86476,680,888
116.27388,39.86931,681,888
116.27388,39.8693,682,888
116.27388,39.86929,683,888
116.27389,39.86929,684,888
116.27393,39.86934,685,888
116.27388,39.86933,686,888
116.27385,39.86934,687,888
116.27391,39.86909,688,888
116.27385,39.8693,689,888
116.27387,39.86926,690,888
116.27387,39.86926,691,888
116.27389,39.86925,692,888
116.27389,39.86925,693,888
116.27379,39.86947,694,888
116.27393,39.86933,695,888
116.27398,39.86932,696,888
116.27397,39.86933,697,888
116.2739,39.86935,698,888
116.2739,39.86936,699,888
116.2739,39.86936,700,888
116.27391,39.86936,701,888
116.27391,39.86937,702,888
116.27391,39.86937,703,888
116.27378,39.86942,704,888
116.27401,39.86943,705,888
116.2598,39.86474,706,888
116.23235,39.83248,707,888
116.25854,39.80486,708,888
116.25201,39.77427,709,888
116.25203,39.77423,710,888
116.25199,39.77425,711,888
116.25198,39.77425,712,888
116.25199,39.77426,713,888
116.25198,39.77426,714,888
116.25198,39.77426,715,888
116.25198,39.77426,716,888
116.25198,39.77426,717,888
116.25198,39.77426,718,888
116.25198,39.77427,719,888
116.25198,39.77428,720,888
116.25198,39.77428,721,888
116.25198,39.77428,722,888
116.25199,39.77428,723,888
116.25199,39.77428,724,888
116.25199,39.77428,725,888
116.25199,39.77427,726,888
116.25199,39.77427,727,888
116.25199,39.77427,728,888
116.25198,39.77427,729,888
116.25198,39.77427,730,888
116.25198,39.77427,731,888
116.25198,39.77427,732,888
116.25198,39.77427,733,888
116.25225,39.77443,734,888
116.25217,39.77438,735,888
116.25213,39.77435,736,888
116.25211,39.77433,737,888
116.25209,39.77432,738,888
116.25206,39.7743,739,888
116.25205,39.77429,740,888
116.25204,39.77428,741,888
116.25204,39.77428,742,888
116.25204,39.77428,743,888
116.25203,39.77429,744,888
116.25203,39.77429,745,888
116.25203,39.77429,746,888
116.25203,39.77429,747,888
116.25203,39.77428,748,888
116.25202,39.77428,749,888
116.25202,39.77428,750,888
116.25202,39.77428,751,888
116.25202,39.77428,752,888
116.25202,39.77428,753,888
116.25202,39.77427,754,888
116.25202,39.77427,755,888
116.2529,39.77532,756,888
116.25288,39.77535,757,888
116.25288,39.77534,758,888
116.25287,39.77534,759,888
116.25286,39.77534,760,888
116.25286,39.77534,761,888
116.25285,39.77534,762,888
116.25284,39.77533,763,888
116.25284,39.77533,764,888
116.25284,39.77533,765,888
116.25284,39.77533,766,888
116.25284,39.77533,767,888
116.25284,39.77533,768,888
116.25284,39.77533,769,888
116.25284,39.77533,770,888
116.25284,39.77533,771,888
116.25284,39.77533,772,888
116.25284,39.77533,773,888
116.25283,39.77533,774,888
116.25283,39.77533,775,888
116.25282,39.77533,776,888
116.25282,39.77533,777,888
116.25282,39.77533,778,888
116.25282,39.77533,779,888
116.25282,39.77533,780,888
116.25282,39.77533,781,888
116.25281,39.77533,782,888
116.25282,39.77533,783,888
116.25281,39.77533,784,888
116.25281,39.77533,785,888
116.25281,39.77533,786,888
116.25281,39.77532,787,888
116.25281,39.77532,788,888
116.25281,39.77533,789,888
116.25281,39.77533,790,888
116.2528,39.77533,791,888
116.2528,39.77533,792,888
116.25278,39.77534,793,888
116.25278,39.77535,794,888
116.25273,39.77535,795,888
116.25269,39.7754,796,888
116.25269,39.77542,797,888
116.25269,39.77541,798,888
116.25268,39.77538,799,888
116.25268,39.77537,800,888
116.25267,39.77537,801,888
116.25267,39.77537,802,888
116.25267,39.77536,803,888
116.25268,39.77536,804,888
116.25268,39.77535,805,888
116.25268,39.77535,806,888
116.25269,39.77536,807,888
116.25272,39.7754,808,888
116.25272,39.7754,809,888
116.25272,39.7754,810,888
116.25273,39.7754,811,888
116.25282,39.77505,812,888
116.25282,39.77505,813,888
116.2528,39.77509,814,888
116.2528,39.77509,815,888
116.2528,39.77509,816,888
116.2528,39.7751,817,888
116.25279,39.77512,818,888
116.25279,39.77513,819,888
116.25279,39.77515,820,888
116.25278,39.77516,821,888
116.25278,39.77517,822,888
116.25278,39.77518,823,888
116.25277,39.77519,824,888
116.25277,39.77519,825,888
116.25277,39.7752,826,888
116.25277,39.7752,827,888
116.25276,39.77521,828,888
116.25276,39.77522,829,888
116.25276,39.77522,830,888
116.25275,39.77523,831,888
116.25275,39.77523,832,888
116.25275,39.77523,833,888
116.25276,39.77523,834,888
116.25284,39.77529,835,888
116.25282,39.7753,836,888
116.25281,39.7753,837,888
116.25281,39.7753,838,888
116.25281,39.7753,839,888
116.25281,39.7753,840,888
116.25281,39.7753,841,888
116.25281,39.7753,842,888
116.25792,39.77372,843,888
116.28583,39.77599,844,888
116.28792,39.77875,845,888
116.28359,39.79691,846,888
116.28461,39.81311,847,888
116.28543,39.83127,848,888
116.27449,39.86957,849,888
116.2684,39.90515,850,888
116.26897,39.90616,851,888
116.28685,39.90601,852,888
116.296,39.90604,853,888
116.30083,39.90639,854,888
116.29596,39.91397,855,888
116.29497,39.91503,856,888
116.30384,39.91957,857,888
116.30518,39.87719,858,888
116.31524,39.84785,859,888
116.30902,39.85038,860,888
116.30901,39.85039,861,888
116.30533,39.85029,862,888
116.30537,39.85038,863,888
116.30087,39.84374,864,888
116.29008,39.8397,865,888
116.28962,39.83858,866,888
116.29006,39.83993,867,888
116.28989,39.84059,868,888
116.3028,39.8456,869,888
116.30653,39.85034,870,888
116.31554,39.85159,871,888
116.30431,39.89623,872,888
116.30359,39.92299,873,888
116.29632,39.93024,874,888
116.29634,39.93024,875,888
116.29949,39.92296,876,888
116.29785,39.92413,877,888
116.29657,39.92275,878,888
116.27752,39.92145,879,888
116.27752,39.92145,880,888
116.27517,39.9223,881,888
116.2757,39.91309,882,888
116.27503,39.92302,883,888
116.26778,39.94207,884,888
116.26242,39.94426,885,888
116.2741,39.94517,886,888
116.29845,39.94312,887,888
116.29938,39.94354,888,888
116.29912,39.9428,889,888
116.30091,39.94194,890,888
116.33732,39.93478,891,888
116.34817,39.93101,892,888
116.37187,39.93143,893,888
116.40078,39.93203,894,888
116.40501,39.91728,895,888
116.40859,39.90744,896,888
116.40859,39.90744,897,888
116.40835,39.90758,898,888
116.40821,39.9076,899,888
116.40792,39.90758,900,888
116.40763,39.90744,901,888
116.38426,39.90618,902,888
116.35804,39.90589,903,888
116.3465,39.91123,904,888
116.34664,39.91106,905,888
116.34654,39.91106,906,888
116.34663,39.91157,907,888
116.34988,39.91261,908,888
116.34962,39.93397,909,888
116.39494,39.9475,910,888
116.40337,39.96141,911,888
116.40337,39.96141,912,888
116.40134,39.97065,913,888
116.40918,39.98703,914,888
116.41094,39.98215,915,888
116.4156,39.99257,916,888
116.41916,39.99756,917,888
116.41967,39.99728,918,888
116.41967,39.9973,919,888
116.41967,39.99732,920,888
116.41789,39.99334,921,888
116.41865,39.99292,922,888
116.40762,39.99756,923,888
116.39682,39.99707,924,888
116.39542,39.99727,925,888
116.39842,40.00379,926,888
116.4014,40.00286,927,888
116.40119,39.98204,928,888
116.41157,39.96984,929,888
116.41187,39.96146,930,888
116.41084,39.9336,931,888
116.41108,39.92691,932,888
116.41121,39.92354,933,888
116.41195,39.91134,934,888
116.41192,39.90328,935,888
116.41211,39.90093,936,888
116.41205,39.89567,937,888
116.41012,39.89788,938,888
116.41215,39.89774,939,888
116.41284,39.88615,940,888
116.42402,39.86945,941,888
116.42422,39.8672,942,888
116.42435,39.86419,943,888
116.42438,39.86525,944,888
116.42425,39.86692,945,888
116.42425,39.86692,946,888
116.43364,39.87282,947,888
116.42492,39.88456,948,888
116.41268,39.89066,949,888
116.41062,39.89577,950,888
116.41062,39.89577,951,888
116.41154,39.89575,952,888
116.43212,39.8996,953,888
116.428,39.93202,954,888
116.44423,39.94625,955,888
116.44419,39.93389,956,888
116.44416,39.93324,957,888
116.43789,39.93237,958,888
116.41141,39.93227,959,888
116.39141,39.93205,960,888
116.40269,39.93231,961,888
116.37359,39.92671,962,888
116.37345,39.92643,963,888
116.37145,39.9167,964,888
116.3716,39.91139,965,888
116.37644,39.90666,966,888
116.37783,39.89933,967,888
116.37838,39.88984,968,888
116.37861,39.88248,969,888
116.3793,39.88182,970,888
116.37126,39.87748,971,888
116.37008,39.87733,972,888
116.35768,39.87449,973,888
116.35774,39.87445,974,888
116.35797,39.86994,975,888
116.36292,39.86824,976,888
116.39324,39.86247,977,888
116.38201,39.85591,978,888
116.37945,39.84803,979,888
116.38676,39.84591,980,888
116.3866,39.84601,981,888
116.38054,39.8476,982,888
116.37402,39.84917,983,888
116.35895,39.85026,984,888
116.35811,39.86757,985,888
116.33046,39.87025,986,888
116.33017,39.88001,987,888
116.32031,39.88213,988,888
116.27571,39.86442,989,888
116.2795,39.84016,990,888
116.28113,39.82719,991,888
116.2812,39.80122,992,888
116.28793,39.77703,993,888
116.25437,39.77586,994,888
116.25455,39.77604,995,888
116.25452,39.77608,996,888
116.25452,39.77608,997,888
116.25454,39.77606,998,888
116.25446,39.77608,999,888
116.25446,39.77607,1000,888
116.25422,39.77575,1001,888
116.25444,39.77604,1002,888
116.25447,39.77606,1003,888
116.25448,39.77608,1004,888
116.25452,39.77611,1005,888
116.25453,39.77611,1006,888
116.25455,39.77613,1007,888
116.25455,39.77612,1008,888
116.25456,39.77612,1009,888
116.25457,39.77612,1010,888
116.25458,39.77613,1011,888
116.25458,39.77613,1012,888
116.25457,39.77612,1013,888
116.25457,39.77612,1014,888
116.25355,39.77558,1015,888
116.26601,39.77397,1016,888
116.26895,39.7636,1017,888
116.28463,39.7425,1018,888
116.3329,39.74044,1019,888
116.33292,39.74042,1020,888
116.33292,39.74042,1021,888
116.33292,39.74042,1022,888
116.33291,39.74042,1023,888
116.3329,39.74041,1024,888
116.3329,39.74041,1025,888
116.3329,39.74042,1026,888
116.33289,39.74042,1027,888
116.33288,39.74042,1028,888
116.33288,39.74042,1029,888
116.33287,39.74042,1030,888
116.33287,39.74042,1031,888
116.33287,39.74043,1032,888
116.33287,39.74043,1033,888
116.33286,39.74043,1034,888
116.33285,39.74044,1035,888
116.33285,39.74044,1036,888
116.33285,39.74044,1037,888
116.33284,39.74044,1038,888
116.33284,39.74044,1039,888
116.33284,39.74045,1040,888
116.33284,39.74045,1041,888
116.33283,39.74045,1042,888
116.33251,39.74061,1043,888
116.33271,39.74057,1044,888
116.33276,39.7405,1045,888
116.33279,39.74049,1046,888
116.33282,39.74048,1047,888
116.33284,39.74048,1048,888
116.33289,39.74051,1049,888
116.33289,39.74051,1050,888
116.33289,39.7405,1051,888
116.33289,39.7405,1052,888
116.33288,39.74049,1053,888
116.33289,39.74049,1054,888
116.33289,39.74048,1055,888
116.33289,39.74047,1056,888
116.33289,39.74047,1057,888
116.33289,39.74048,1058,888
116.33289,39.74048,1059,888
116.33288,39.74048,1060,888
116.33289,39.74048,1061,888
116.33288,39.74048,1062,888
116.33289,39.74048,1063,888
116.33289,39.74047,1064,888
116.33289,39.74047,1065,888
116.33289,39.74047,1066,888
116.33289,39.74047,1067,888
116.33289,39.74047,1068,888
116.33289,39.74047,1069,888
116.33289,39.74047,1070,888
116.32814,39.74141,1071,888
116.27345,39.74741,1072,888
116.26657,39.77224,1073,888
116.25444,39.77602,1074,888
116.25457,39.77598,1075,888
116.25464,39.77595,1076,888
116.25466,39.77594,1077,888
116.25456,39.77573,1078,888
116.25459,39.77575,1079,888
116.25462,39.77577,1080,888
116.25463,39.77577,1081,888
116.25464,39.77579,1082,888
116.25464,39.77581,1083,888
116.25448,39.77615,1084,888
116.2545,39.77616,1085,888
116.25451,39.77616,1086,888
116.25451,39.77616,1087,888
116.25454,39.77614,1088,888
116.25457,39.77612,1089,888
116.2546,39.77611,1090,888
116.2546,39.7761,1091,888
116.25461,39.77609,1092,888
116.25461,39.77608,1093,888
116.25461,39.77608,1094,888
116.25461,39.77608,1095,888
116.25461,39.77608,1096,888
116.25461,39.77608,1097,888
116.25461,39.77608,1098,888
116.25461,39.77608,1099,888
116.2546,39.77608,1100,888
116.2546,39.77608,1101,888
116.2546,39.77609,1102,888
116.2546,39.77609,1103,888
116.25459,39.7761,1104,888
116.25432,39.77607,1105,888
116.25434,39.77607,1106,888
116.25434,39.77607,1107,888
116.25434,39.77607,1108,888
116.25469,39.77617,1109,888
116.25467,39.77609,1110,888
116.25464,39.77605,1111,888
116.25461,39.77608,1112,888
116.25459,39.7761,1113,888
116.25459,39.7761,1114,888
116.25459,39.77609,1115,888
116.25459,39.77609,1116,888
116.25459,39.77608,1117,888
116.37056,39.81248,1118,888
116.25459,39.77608,1119,888
116.2546,39.77607,1120,888
116.2546,39.77606,1121,888
116.25461,39.77606,1122,888
116.25461,39.77606,1123,888
116.25462,39.77606,1124,888
116.25462,39.77605,1125,888
116.25462,39.77605,1126,888
116.25462,39.77605,1127,888
116.25462,39.77605,1128,888
116.25462,39.77605,1129,888
116.25461,39.77602,1130,888
116.25462,39.77602,1131,888
116.25462,39.77602,1132,888
116.25462,39.77602,1133,888
116.25462,39.77603,1134,888
116.25462,39.77603,1135,888
116.25462,39.77603,1136,888
116.25461,39.77603,1137,888
116.25461,39.77604,1138,888
116.25461,39.77604,1139,888
116.25285,39.77524,1140,888
116.25444,39.77608,1141,888
116.25447,39.77609,1142,888
116.25449,39.77609,1143,888
116.25449,39.77608,1144,888
116.25452,39.77609,1145,888
116.25453,39.77609,1146,888
116.25454,39.77608,1147,888
116.2544,39.7758,1148,888
116.25445,39.77582,1149,888
116.25449,39.77587,1150,888
116.25452,39.77591,1151,888
116.25453,39.77592,1152,888
116.25453,39.77593,1153,888
116.25453,39.77593,1154,888
116.25454,39.77594,1155,888
116.25455,39.77595,1156,888
116.25455,39.77596,1157,888
116.25457,39.77597,1158,888
116.25457,39.77597,1159,888
116.25458,39.77597,1160,888
116.25458,39.77598,1161,888
116.25361,39.77566,1162,888
116.25362,39.77565,1163,888
116.25361,39.77565,1164,888
116.25456,39.77506,1165,888
116.25288,39.77515,1166,888
116.25472,39.7745,1167,888
116.25524,39.7736,1168,888
116.28862,39.77727,1169,888
116.28448,39.79325,1170,888
116.28427,39.81609,1171,888
116.28147,39.83437,1172,888
116.28048,39.83902,1173,888
116.27973,39.84148,1174,888
116.2798,39.84153,1175,888
116.27988,39.84158,1176,888
116.27967,39.84165,1177,888
116.2797,39.84164,1178,888
116.2797,39.84162,1179,888
116.27972,39.84161,1180,888
116.27972,39.84161,1181,888
116.27971,39.84162,1182,888
116.27972,39.84162,1183,888
116.27972,39.84162,1184,888
116.28164,39.83556,1185,888
116.28249,39.8342,1186,888
116.28249,39.8342,1187,888
116.28652,39.83156,1188,888
116.2845,39.80587,1189,888
116.28195,39.7867,1190,888
116.2789,39.78168,1191,888
116.25527,39.77364,1192,888
116.25507,39.77448,1193,888
116.25515,39.77455,1194,888
116.25509,39.77457,1195,888
116.25509,39.77457,1196,888
116.25502,39.77459,1197,888
116.25498,39.77459,1198,888
116.25497,39.7746,1199,888
116.25498,39.77459,1200,888
116.255,39.77456,1201,888
116.255,39.77455,1202,888
116.255,39.77455,1203,888
116.255,39.77454,1204,888
116.255,39.77454,1205,888
116.255,39.77454,1206,888
116.255,39.77454,1207,888
116.25458,39.7745,1208,888
116.25352,39.7757,1209,888
116.25452,39.77603,1210,888
116.2545,39.77603,1211,888
116.25446,39.77603,1212,888
116.25444,39.77603,1213,888
116.25443,39.77602,1214,888
116.25443,39.77602,1215,888
116.25443,39.77602,1216,888
116.25444,39.77602,1217,888
116.25444,39.77602,1218,888
116.25444,39.77602,1219,888
116.25445,39.77601,1220,888
116.25446,39.776,1221,888
116.25446,39.776,1222,888
116.25446,39.77599,1223,888
116.25447,39.77598,1224,888
116.25448,39.77597,1225,888
116.25448,39.77597,1226,888
116.25449,39.77596,1227,888
116.25449,39.77596,1228,888
116.25449,39.77596,1229,888
116.25449,39.77596,1230,888
116.25449,39.77596,1231,888
116.25449,39.77596,1232,888
116.25449,39.77596,1233,888
116.2545,39.77596,1234,888
116.2545,39.77596,1235,888
116.2545,39.77596,1236,888
116.2545,39.77596,1237,888
116.2545,39.77596,1238,888
116.25449,39.77596,1239,888
116.25449,39.77596,1240,888
116.25449,39.77596,1241,888
116.25449,39.77596,1242,888
116.25449,39.77596,1243,888
116.25449,39.77596,1244,888
116.25449,39.77596,1245,888
116.25449,39.77596,1246,888
116.25449,39.77596,1247,888
116.25449,39.77596,1248,888
116.25449,39.77596,1249,888
116.25449,39.77596,1250,888
116.25449,39.77596,1251,888
116.2535,39.77554,1252,888
116.2535,39.77557,1253,888
116.25324,39.77479,1254,888
116.25279,39.77527,1255,888
116.25279,39.77527,1256,888
116.2528,39.77528,1257,888
116.25281,39.77527,1258,888
116.25281,39.77526,1259,888
116.25281,39.77526,1260,888
116.25281,39.77525,1261,888
116.25282,39.77525,1262,888
116.25282,39.77525,1263,888
116.25283,39.77525,1264,888
116.25283,39.77524,1265,888
116.25283,39.77524,1266,888
116.25282,39.77524,1267,888
116.25281,39.77524,1268,888
116.25283,39.77517,1269,888
116.25282,39.77518,1270,888
116.25279,39.77519,1271,888
116.2528,39.77519,1272,888
116.2528,39.7752,1273,888
116.25279,39.7752,1274,888
116.2528,39.77521,1275,888
116.2528,39.77522,1276,888
116.2528,39.77523,1277,888
116.25281,39.77524,1278,888
116.25281,39.77525,1279,888
116.25281,39.77526,1280,888
116.25281,39.77526,1281,888
116.25282,39.77526,1282,888
116.25282,39.77527,1283,888
116.25282,39.77527,1284,888
116.25282,39.77527,1285,888
116.25282,39.77527,1286,888
116.2528,39.77528,1287,888
116.2528,39.77534,1288,888
116.25282,39.77534,1289,888
116.25283,39.77534,1290,888
116.25281,39.77532,1291,888
116.2528,39.7753,1292,888
116.25279,39.7753,1293,888
116.25279,39.77529,1294,888
116.25279,39.7753,1295,888
116.25279,39.77531,1296,888
116.25279,39.77531,1297,888
116.2528,39.77531,1298,888
116.2528,39.7753,1299,888
116.2528,39.7753,1300,888
116.2528,39.7753,1301,888
116.2528,39.7753,1302,888
116.2528,39.7753,1303,888
116.25279,39.7753,1304,888
116.25279,39.7753,1305,888
116.25279,39.7753,1306,888
116.25246,39.77482,1307,888
116.25256,39.77511,1308,888
116.25273,39.77524,1309,888
116.25274,39.77525,1310,888
116.25275,39.77525,1311,888
116.25277,39.77525,1312,888
116.25279,39.77526,1313,888
116.25281,39.77527,1314,888
116.25281,39.77527,1315,888
116.25281,39.77527,1316,888
116.25282,39.77526,1317,888
116.25283,39.77526,1318,888
116.25283,39.77525,1319,888
116.25283,39.77525,1320,888
116.25284,39.77525,1321,888
116.25284,39.77524,1322,888
116.25285,39.77524,1323,888
116.25285,39.77523,1324,888
116.25285,39.77523,1325,888
116.25285,39.77523,1326,888
116.25285,39.77523,1327,888
116.25285,39.77523,1328,888
116.25285,39.77523,1329,888
116.25285,39.77523,1330,888
116.25286,39.77523,1331,888
116.25286,39.77523,1332,888
116.25286,39.77523,1333,888
116.25286,39.77523,1334,888
116.25286,39.77523,1335,888
116.25286,39.77523,1336,888
116.25287,39.77523,1337,888
116.25287,39.77524,1338,888
116.25287,39.77524,1339,888
116.25286,39.77524,1340,888
116.25286,39.77524,1341,888
116.25286,39.77525,1342,888
116.25286,39.77525,1343,888
116.25286,39.77525,1344,888
116.25286,39.77525,1345,888
116.25286,39.77525,1346,888
116.25286,39.77525,1347,888
116.25286,39.77525,1348,888
116.25285,39.77525,1349,888
116.25285,39.77525,1350,888
116.25284,39.77526,1351,888
116.25284,39.77527,1352,888
116.25283,39.77527,1353,888
116.25283,39.77527,1354,888
116.25283,39.77527,1355,888
116.25283,39.77527,1356,888
116.25284,39.77527,1357,888
116.25284,39.77527,1358,888
116.25283,39.77527,1359,888
116.25283,39.77527,1360,888
116.25284,39.77527,1361,888
116.25284,39.77527,1362,888
116.25284,39.77527,1363,888
116.25284,39.77527,1364,888
116.25284,39.77527,1365,888
116.25284,39.77527,1366,888
116.25284,39.77527,1367,888
116.25284,39.77528,1368,888
116.25284,39.77528,1369,888
116.25285,39.77528,1370,888
116.25284,39.77528,1371,888
116.25284,39.77528,1372,888
116.25284,39.77528,1373,888
116.25283,39.77528,1374,888
116.25283,39.77528,1375,888
116.25283,39.77528,1376,888
116.25283,39.77528,1377,888
116.25283,39.77528,1378,888
116.25284,39.77528,1379,888
116.25284,39.77528,1380,888
116.25284,39.77528,1381,888
116.25284,39.77528,1382,888
116.25285,39.77528,1383,888
116.2528,39.77538,1384,888
116.25287,39.77531,1385,888
116.25283,39.77534,1386,888
116.25285,39.77533,1387,888
116.25285,39.77532,1388,888
116.25264,39.7754,1389,888
116.25282,39.77538,1390,888
116.25281,39.77536,1391,888
116.25281,39.77536,1392,888
116.25279,39.77536,1393,888
116.2528,39.77535,1394,888
116.2528,39.77533,1395,888
116.2528,39.77531,1396,888
116.25279,39.77529,1397,888
116.25279,39.77529,1398,888
116.25279,39.77529,1399,888
116.25279,39.77529,1400,888
116.25286,39.77531,1401,888
116.25283,39.77529,1402,888
116.25281,39.77527,1403,888
116.25281,39.77526,1404,888
116.25281,39.77524,1405,888
116.25282,39.77522,1406,888
116.25282,39.77522,1407,888
116.25281,39.77522,1408,888
116.25279,39.77523,1409,888
116.25279,39.77523,1410,888
116.25279,39.77523,1411,888
116.25278,39.77523,1412,888
116.25278,39.77524,1413,888
116.25278,39.77524,1414,888
116.25278,39.77524,1415,888
116.25278,39.77525,1416,888
116.25278,39.77526,1417,888
116.25278,39.77527,1418,888
116.25279,39.77528,1419,888
116.2528,39.77529,1420,888
116.25281,39.7753,1421,888
116.25281,39.77531,1422,888
116.25281,39.77531,1423,888
116.25281,39.77531,1424,888
116.2528,39.77531,1425,888
116.25303,39.77536,1426,888
116.25294,39.77536,1427,888
116.25291,39.77535,1428,888
116.2529,39.77534,1429,888
116.2529,39.77532,1430,888
116.2529,39.77532,1431,888
116.2529,39.77531,1432,888
116.25291,39.77529,1433,888
116.25291,39.77529,1434,888
116.25289,39.77529,1435,888
116.25289,39.77529,1436,888
116.25288,39.77529,1437,888
116.25287,39.77529,1438,888
116.25286,39.7753,1439,888
116.25285,39.7753,1440,888
116.25284,39.7753,1441,888
116.25284,39.7753,1442,888
116.25284,39.77529,1443,888
116.25277,39.77515,1444,888
116.25282,39.77513,1445,888
116.25282,39.77512,1446,888
116.2528,39.77512,1447,888
116.2528,39.77512,1448,888
116.2528,39.77512,1449,888
116.25281,39.77512,1450,888
116.2528,39.77513,1451,888
116.2528,39.77513,1452,888
116.25279,39.77513,1453,888
116.25279,39.77513,1454,888
116.25278,39.77513,1455,888
116.25276,39.77512,1456,888
116.25276,39.77512,1457,888
116.25275,39.77512,1458,888
116.25275,39.77512,1459,888
116.25276,39.77512,1460,888
116.25283,39.77518,1461,888
116.25283,39.77518,1462,888
116.25284,39.77517,1463,888
116.25283,39.77518,1464,888
116.25282,39.7752,1465,888
116.25281,39.77521,1466,888
116.2528,39.77522,1467,888
116.2528,39.77524,1468,888
116.25279,39.77525,1469,888
116.25278,39.77527,1470,888
116.25276,39.77528,1471,888
116.25277,39.77528,1472,888
116.25277,39.77528,1473,888
116.25276,39.77528,1474,888
116.25276,39.77528,1475,888
116.25275,39.77527,1476,888
116.25287,39.77507,1477,888
116.25287,39.77507,1478,888
116.25286,39.77505,1479,888
116.25284,39.77508,1480,888
116.25281,39.77511,1481,888
116.2528,39.77514,1482,888
116.25279,39.77515,1483,888
116.25279,39.77516,1484,888
116.25279,39.77517,1485,888
116.25302,39.77575,1486,888
116.25299,39.77564,1487,888
116.25291,39.77551,1488,888
116.2529,39.77546,1489,888
116.2529,39.77544,1490,888
116.25289,39.77543,1491,888
116.25289,39.77541,1492,888
116.25289,39.7754,1493,888
116.25288,39.77539,1494,888
116.25288,39.77539,1495,888
116.25288,39.77539,1496,888
116.25289,39.77539,1497,888
116.25289,39.77538,1498,888
116.25289,39.77538,1499,888
116.25289,39.77537,1500,888
116.25288,39.77537,1501,888
116.25288,39.77537,1502,888
116.25288,39.77536,1503,888
116.25288,39.77536,1504,888
116.25288,39.77535,1505,888
116.25289,39.77534,1506,888
116.2529,39.77533,1507,888
116.2529,39.77533,1508,888
116.25291,39.77533,1509,888
116.2529,39.77533,1510,888
116.25291,39.77533,1511,888
116.25575,39.77507,1512,888
116.25213,39.76884,1513,888
116.27059,39.75784,1514,888
116.28137,39.74237,1515,888
116.32771,39.74127,1516,888
116.33817,39.73328,1517,888
116.33815,39.73329,1518,888
116.33814,39.73328,1519,888
116.33815,39.73329,1520,888
116.33816,39.73331,1521,888
116.33817,39.73332,1522,888
116.33817,39.73333,1523,888
116.32528,39.72617,1524,888
116.29105,39.724,1525,888
116.27378,39.72141,1526,888
116.28031,39.72156,1527,888
116.26262,39.75031,1528,888
116.25762,39.74781,1529,888
116.25278,39.74898,1530,888
116.25196,39.7747,1531,888
116.25192,39.77469,1532,888
116.25191,39.7747,1533,888
116.2527,39.77538,1534,888
116.2527,39.77538,1535,888
116.25275,39.77535,1536,888
116.25279,39.77532,1537,888
116.25282,39.77531,1538,888
116.25282,39.77531,1539,888
116.25283,39.7753,1540,888
116.25282,39.7753,1541,888
116.25276,39.77529,1542,888
116.25289,39.77583,1543,888
116.25275,39.77523,1544,888
116.25276,39.77522,1545,888
116.25277,39.77521,1546,888
116.25278,39.77521,1547,888
116.25279,39.77522,1548,888
116.25281,39.77523,1549,888
116.25281,39.77522,1550,888
116.2528,39.77522,1551,888
116.2528,39.77522,1552,888
116.25278,39.77524,1553,888
116.25276,39.77524,1554,888
116.25274,39.77524,1555,888
116.25275,39.77524,1556,888
116.25276,39.77524,1557,888
116.25276,39.77525,1558,888
116.25276,39.77525,1559,888
116.25276,39.77525,1560,888
116.25286,39.7753,1561,888
116.25288,39.77532,1562,888
116.2529,39.77534,1563,888
116.25291,39.77534,1564,888
116.25293,39.77536,1565,888
116.25291,39.77536,1566,888
116.25273,39.77527,1567,888
116.25275,39.77527,1568,888
116.25275,39.77527,1569,888
116.25278,39.77527,1570,888
116.25279,39.77527,1571,888
116.25279,39.77527,1572,888
116.25278,39.77527,1573,888
116.25278,39.77526,1574,888
116.25278,39.77525,1575,888
116.25278,39.77525,1576,888
116.25278,39.77524,1577,888
116.25277,39.77523,1578,888
116.25278,39.77523,1579,888
116.25278,39.77523,1580,888
116.25278,39.77523,1581,888
116.25279,39.77523,1582,888
116.25279,39.77523,1583,888
116.25279,39.77524,1584,888
116.25279,39.77524,1585,888
116.25279,39.77524,1586,888
116.2528,39.77525,1587,888
116.2528,39.77525,1588,888
116.2528,39.77525,1589,888
116.2528,39.77524,1590,888
116.2528,39.77524,1591,888
116.2528,39.77524,1592,888
116.2528,39.77524,1593,888
116.2528,39.77524,1594,888
116.2528,39.77524,1595,888
116.2529,39.77558,1596,888
116.25275,39.77533,1597,888
116.25281,39.77529,1598,888
116.25281,39.77529,1599,888
116.25281,39.7753,1600,888
116.25282,39.7753,1601,888
116.25282,39.77529,1602,888
116.25282,39.77529,1603,888
116.25283,39.77528,1604,888
116.25283,39.77528,1605,888
116.25284,39.77527,1606,888
116.25284,39.77527,1607,888
116.25284,39.77527,1608,888
116.25284,39.77528,1609,888
116.25284,39.77528,1610,888
116.25285,39.77528,1611,888
116.25285,39.77528,1612,888
116.25285,39.77528,1613,888
116.25285,39.77528,1614,888
116.25286,39.77527,1615,888
116.25286,39.77527,1616,888
116.25286,39.77527,1617,888
116.25286,39.77527,1618,888
116.25286,39.77528,1619,888
116.25292,39.77538,1620,888
116.25292,39.77538,1621,888
116.25292,39.77539,1622,888
116.25293,39.77538,1623,888
116.25292,39.77537,1624,888
116.25289,39.77534,1625,888
116.25287,39.77533,1626,888
116.25286,39.77532,1627,888
116.25288,39.77532,1628,888
116.25288,39.77532,1629,888
116.25288,39.77532,1630,888
116.25288,39.77532,1631,888
116.25287,39.77532,1632,888
116.25286,39.77532,1633,888
116.25286,39.77532,1634,888
116.25285,39.77532,1635,888
116.25284,39.77532,1636,888
116.25284,39.77532,1637,888
116.25278,39.77535,1638,888
116.25277,39.77536,1639,888
116.25277,39.77536,1640,888
116.25277,39.77535,1641,888
116.25277,39.77535,1642,888
116.25278,39.7753,1643,888
116.25278,39.7753,1644,888
116.25278,39.7753,1645,888
116.25278,39.7753,1646,888
116.25279,39.7753,1647,888
116.25279,39.7753,1648,888
116.25279,39.77529,1649,888
116.2528,39.77529,1650,888
116.2528,39.77529,1651,888
116.2528,39.77529,1652,888
116.2528,39.77529,1653,888
116.2528,39.77529,1654,888
116.25281,39.77529,1655,888
116.25281,39.77529,1656,888
116.25281,39.77528,1657,888
116.2528,39.77528,1658,888
116.2528,39.77528,1659,888
116.2528,39.77528,1660,888
116.2528,39.77528,1661,888
116.2528,39.77528,1662,888
116.2528,39.77528,1663,888
116.25281,39.77528,1664,888
116.25281,39.77528,1665,888
116.25281,39.77528,1666,888
116.25281,39.77528,1667,888
116.25281,39.77528,1668,888
116.25281,39.77529,1669,888
116.25281,39.77529,1670,888
116.25281,39.77529,1671,888
116.25281,39.77529,1672,888
116.25281,39.77529,1673,888
116.25281,39.77529,1674,888
116.25281,39.77529,1675,888
116.25273,39.77536,1676,888
116.25272,39.77535,1677,888
116.25271,39.77535,1678,888
116.25271,39.77535,1679,888
116.25272,39.77534,1680,888
116.25272,39.77534,1681,888
116.25275,39.77532,1682,888
116.25276,39.7753,1683,888
116.25277,39.77528,1684,888
116.25278,39.77527,1685,888
116.25278,39.77527,1686,888
116.25279,39.77527,1687,888
116.25289,39.77523,1688,888
116.2528,39.77519,1689,888
116.2528,39.77518,1690,888
116.25281,39.77519,1691,888
116.25281,39.7752,1692,888
116.25281,39.7752,1693,888
116.2528,39.77521,1694,888
116.25274,39.77491,1695,888
116.25275,39.77487,1696,888
116.25266,39.77518,1697,888
116.25275,39.77508,1698,888
116.25276,39.77509,1699,888
116.25271,39.77536,1700,888
116.25278,39.77533,1701,888
116.25278,39.77535,1702,888
116.25278,39.77538,1703,888
116.25278,39.77538,1704,888
116.25297,39.77552,1705,888
116.25294,39.77553,1706,888
116.25296,39.77551,1707,888
116.25324,39.77573,1708,888
116.25327,39.7757,1709,888
116.25287,39.77537,1710,888
116.25288,39.77534,1711,888
116.25288,39.77534,1712,888
116.25289,39.77532,1713,888
116.25289,39.77531,1714,888
116.2583,39.77389,1715,888
116.28256,39.77619,1716,888
116.2808,39.77775,1717,888
116.27052,39.75822,1718,888
116.27967,39.72527,1719,888
116.27376,39.72135,1720,888
116.27377,39.72132,1721,888
116.27377,39.72131,1722,888
116.27405,39.72126,1723,888
116.2739,39.7213,1724,888
116.27384,39.72131,1725,888
116.27383,39.72133,1726,888
116.27382,39.72132,1727,888
116.27383,39.72131,1728,888
116.27383,39.7213,1729,888
116.27384,39.7213,1730,888
116.27384,39.72129,1731,888
116.27384,39.72129,1732,888
116.27385,39.72129,1733,888
116.27385,39.72129,1734,888
116.27385,39.72129,1735,888
116.27386,39.72129,1736,888
116.27385,39.72128,1737,888
116.27385,39.72127,1738,888
116.27385,39.72128,1739,888
116.27385,39.72128,1740,888
116.27385,39.72128,1741,888
116.27385,39.72128,1742,888
116.27385,39.72129,1743,888
116.27385,39.72129,1744,888
116.27385,39.72129,1745,888
116.27385,39.72128,1746,888
116.27385,39.72128,1747,888
116.27384,39.72128,1748,888
116.27384,39.72128,1749,888
116.27384,39.72128,1750,888
116.27384,39.72128,1751,888
116.27384,39.72128,1752,888
116.27384,39.72128,1753,888
116.27384,39.72128,1754,888
116.27384,39.72129,1755,888
116.27383,39.72129,1756,888
116.27383,39.7213,1757,888
116.27383,39.72131,1758,888
116.27382,39.72131,1759,888
116.27382,39.72132,1760,888
116.27382,39.72132,1761,888
116.27382,39.72132,1762,888
116.27382,39.72132,1763,888
116.27382,39.72132,1764,888
116.27382,39.72132,1765,888
116.27382,39.72132,1766,888
116.27382,39.72132,1767,888
116.27349,39.72182,1768,888
116.28213,39.70101,1769,888
116.27276,39.6954,1770,888
116.27276,39.69539,1771,888
116.27276,39.69539,1772,888
116.27276,39.69539,1773,888
116.27276,39.69539,1774,888
116.27364,39.69472,1775,888
116.27364,39.69472,1776,888
116.27017,39.69395,1777,888
116.27017,39.69398,1778,888
116.27018,39.694,1779,888
116.27019,39.694,1780,888
116.2702,39.69401,1781,888
116.27315,39.69554,1782,888
116.27271,39.69552,1783,888
