x,y,k,tid
116.1546,39.92661,0,8958
116.15467,39.92681,1,8958
116.15448,39.92674,2,8958
116.15445,39.92672,3,8958
116.15798,39.92891,4,8958
116.15798,39.92891,5,8958
116.158,39.92896,6,8958
116.15799,39.92895,7,8958
116.15798,39.92893,8,8958
116.15802,39.92887,9,8958
116.15795,39.92878,10,8958
116.15813,39.92894,11,8958
116.15787,39.92865,12,8958
116.15772,39.92854,13,8958
116.15809,39.92906,14,8958
116.15797,39.92889,15,8958
116.15806,39.92932,16,8958
116.15777,39.92874,17,8958
116.15792,39.92906,18,8958
116.15792,39.92906,19,8958
116.15785,39.92881,20,8958
116.15811,39.92831,21,8958
116.15789,39.92906,22,8958
116.15799,39.92795,23,8958
116.15799,39.92903,24,8958
116.15796,39.92814,25,8958
116.15786,39.92859,26,8958
116.15766,39.92807,27,8958
116.15792,39.92866,28,8958
116.15809,39.92867,29,8958
116.15808,39.92866,30,8958
116.60269,39.91795,31,8958
116.15815,39.92861,32,8958
116.15815,39.92865,33,8958
116.15958,39.92862,34,8958
116.16961,39.92394,35,8958
116.19141,39.92676,36,8958
116.19223,39.91928,37,8958
116.19301,39.90573,38,8958
116.22412,39.90244,39,8958
116.25607,39.90249,40,8958
116.26735,39.89889,41,8958
116.27567,39.8996,42,8958
116.28619,39.89878,43,8958
116.28925,39.9033,44,8958
116.30635,39.90841,45,8958
116.31176,39.92247,46,8958
116.29547,39.93072,47,8958
116.29821,39.93691,48,8958
116.29305,39.93639,49,8958
116.28731,39.99266,50,8958
116.2874,39.99264,51,8958
116.33363,39.98496,52,8958
116.56115,40.11572,53,8958
116.34988,39.97517,54,8958
116.34988,39.97517,55,8958
116.3637,39.96959,56,8958
116.35101,39.96655,57,8958
116.33621,39.98544,58,8958
116.31691,39.99117,59,8958
116.31262,40.01124,60,8958
116.30499,40.03428,61,8958
116.30119,40.04117,62,8958
116.3041,40.03557,63,8958
116.31348,40.03152,64,8958
116.3073,40.03827,65,8958
116.30781,40.03764,66,8958
116.31889,40.03352,67,8958
116.31882,40.03417,68,8958
116.3016,40.04493,69,8958
116.30091,40.04741,70,8958
116.30087,40.04516,71,8958
116.30177,40.03639,72,8958
116.30318,40.03713,73,8958
116.30126,40.03423,74,8958
116.2875,40.02263,75,8958
116.28985,40.02295,76,8958
116.30903,39.99693,77,8958
116.30823,39.98428,78,8958
116.30146,39.9629,79,8958
116.30102,39.96135,80,8958
116.30238,39.95829,81,8958
116.30338,39.95149,82,8958
116.30381,39.94509,83,8958
116.30386,39.94149,84,8958
116.3039,39.9378,85,8958
116.30399,39.9318,86,8958
116.30406,39.92807,87,8958
116.30201,39.92309,88,8958
116.29743,39.92289,89,8958
116.30415,39.91023,90,8958
116.30419,39.89941,91,8958
116.30419,39.89941,92,8958
116.30312,39.89256,93,8958
116.29056,39.88838,94,8958
116.30758,39.89546,95,8958
116.30758,39.89546,96,8958
116.30758,39.89546,97,8958
116.30758,39.89546,98,8958
116.30758,39.89546,99,8958
116.30786,39.89602,100,8958
116.30786,39.89602,101,8958
116.30438,39.90863,102,8958
116.31368,39.93765,103,8958
116.31505,39.93753,104,8958
116.31775,39.95069,105,8958
116.33383,39.98473,106,8958
116.34309,39.98533,107,8958
116.4041,39.9871,108,8958
116.46428,39.96926,109,8958
116.46428,39.96926,110,8958
116.46909,39.96661,111,8958
116.46232,39.97773,112,8958
116.45885,39.9771,113,8958
116.45864,39.97693,114,8958
116.45854,39.97663,115,8958
116.45853,39.97661,116,8958
116.45824,39.97632,117,8958
116.45766,39.97514,118,8958
116.44976,39.95893,119,8958
116.45549,39.93034,120,8958
116.45512,39.88522,121,8958
116.46154,39.86886,122,8958
116.46212,39.88176,123,8958
116.45631,39.88483,124,8958
116.45564,39.90574,125,8958
116.45162,39.95445,126,8958
116.4396,39.96586,127,8958
116.4396,39.96586,128,8958
116.44255,39.96348,129,8958
116.4464,39.9575,130,8958
116.40406,39.96761,131,8958
116.39296,39.97062,132,8958
116.39113,39.96744,133,8958
116.3226,39.96607,134,8958
116.30415,39.92343,135,8958
116.29598,39.89729,136,8958
116.29598,39.89729,137,8958
116.30445,39.91261,138,8958
116.31347,39.9372,139,8958
116.31966,39.93718,140,8958
116.32404,39.93696,141,8958
116.38134,39.94735,142,8958
116.42799,39.93064,143,8958
116.43326,39.89238,144,8958
116.38561,39.88839,145,8958
116.3925,39.88116,146,8958
116.3892,39.88206,147,8958
116.40639,39.88678,148,8958
116.40255,39.8912,149,8958
116.47834,39.91405,150,8958
116.51175,39.91534,151,8958
116.54738,39.91483,152,8958
116.57686,39.91287,153,8958
116.59953,39.9162,154,8958
116.60306,39.91802,155,8958
116.60299,39.91803,156,8958
116.60299,39.91803,157,8958
116.60174,39.91585,158,8958
116.60274,39.91792,159,8958
116.60278,39.91789,160,8958
116.60272,39.91796,161,8958
116.60281,39.91784,162,8958
116.60284,39.91776,163,8958
116.60284,39.91776,164,8958
116.60283,39.91789,165,8958
116.60284,39.91788,166,8958
116.60283,39.91791,167,8958
116.60284,39.91792,168,8958
116.60279,39.918,169,8958
116.60268,39.918,170,8958
116.60275,39.91797,171,8958
116.60279,39.91795,172,8958
116.60279,39.91797,173,8958
116.60263,39.91816,174,8958
116.60269,39.91815,175,8958
116.60268,39.91817,176,8958
116.60293,39.91785,177,8958
116.60268,39.9181,178,8958
116.6024,39.91842,179,8958
116.60285,39.91787,180,8958
116.60286,39.91811,181,8958
116.60281,39.9181,182,8958
116.60281,39.9181,183,8958
116.60284,39.91809,184,8958
116.60305,39.91765,185,8958
116.60331,39.91741,186,8958
116.60268,39.9184,187,8958
116.60263,39.91827,188,8958
116.60265,39.91831,189,8958
116.60266,39.91831,190,8958
116.60283,39.91864,191,8958
116.60263,39.91829,192,8958
116.60262,39.91859,193,8958
116.6026,39.91853,194,8958
116.60259,39.91852,195,8958
116.60257,39.91851,196,8958
116.60257,39.91847,197,8958
116.60255,39.91849,198,8958
116.60224,39.91846,199,8958
116.60224,39.91846,200,8958
116.60224,39.91846,201,8958
116.60277,39.918,202,8958
116.60268,39.91806,203,8958
116.60267,39.91807,204,8958
116.60266,39.91807,205,8958
116.60265,39.91808,206,8958
116.60255,39.91826,207,8958
116.60282,39.91791,208,8958
116.6024,39.91843,209,8958
116.60243,39.91833,210,8958
116.60243,39.91833,211,8958
116.60247,39.91856,212,8958
116.60205,39.91889,213,8958
116.60224,39.91858,214,8958
116.60297,39.91804,215,8958
116.60306,39.91787,216,8958
116.60285,39.91811,217,8958
116.60304,39.91793,218,8958
116.60298,39.91796,219,8958
116.60298,39.91798,220,8958
116.60298,39.91798,221,8958
116.60298,39.91798,222,8958
116.60298,39.91798,223,8958
116.60206,39.91758,224,8958
116.60194,39.91753,225,8958
116.60195,39.91759,226,8958
116.60205,39.91772,227,8958
116.60209,39.9177,228,8958
116.60212,39.91767,229,8958
116.60211,39.91786,230,8958
116.60212,39.91783,231,8958
116.60247,39.9177,232,8958
116.60247,39.91763,233,8958
116.60251,39.91753,234,8958
116.60251,39.91753,235,8958
116.60261,39.91784,236,8958
116.60262,39.91785,237,8958
116.60265,39.91785,238,8958
116.60275,39.91767,239,8958
116.60273,39.91769,240,8958
116.60007,39.91907,241,8958
116.59102,39.91111,242,8958
116.57681,39.91447,243,8958
116.57706,39.91567,244,8958
116.5771,39.91566,245,8958
116.57736,39.9158,246,8958
116.5664,39.91431,247,8958
116.54606,39.9149,248,8958
116.5329,39.91536,249,8958
116.52909,39.91562,250,8958
116.51609,39.91141,251,8958
116.56664,40.07124,252,8958
116.56662,40.07125,253,8958
116.56663,40.07125,254,8958
116.56663,40.07125,255,8958
116.56663,40.07125,256,8958
116.56663,40.07125,257,8958
116.56663,40.07125,258,8958
116.56663,40.07125,259,8958
116.56663,40.07126,260,8958
116.56663,40.07126,261,8958
116.56663,40.07126,262,8958
116.56663,40.07126,263,8958
116.56663,40.07126,264,8958
116.56662,40.07127,265,8958
116.56652,40.07062,266,8958
116.5667,40.07124,267,8958
116.56665,40.07129,268,8958
116.56665,40.07127,269,8958
116.56665,40.07129,270,8958
116.56665,40.07128,271,8958
116.56665,40.07127,272,8958
116.56665,40.07127,273,8958
116.56666,40.07127,274,8958
116.56666,40.07127,275,8958
116.56666,40.07127,276,8958
116.56232,40.06959,277,8958
116.56671,40.06383,278,8958
116.56671,40.06383,279,8958
116.57117,40.06333,280,8958
116.58273,40.06221,281,8958
116.58234,40.0647,282,8958
116.5822,40.06538,283,8958
116.58213,40.06525,284,8958
116.58163,40.06914,285,8958
116.58093,40.07266,286,8958
116.58073,40.07483,287,8958
116.58294,40.0793,288,8958
116.58276,40.07953,289,8958
116.58285,40.07928,290,8958
116.58122,40.07919,291,8958
116.58247,40.06232,292,8958
116.58437,40.05585,293,8958
116.58774,40.05352,294,8958
116.59578,40.04478,295,8958
116.59587,40.04463,296,8958
116.59587,40.0446,297,8958
116.5953,40.04477,298,8958
116.58328,40.04658,299,8958
116.58211,40.04607,300,8958
116.58431,40.04258,301,8958
116.59619,40.04476,302,8958
116.59657,40.0448,303,8958
116.60671,40.0351,304,8958
116.62299,40.02593,305,8958
116.62307,40.02583,306,8958
116.60627,40.03424,307,8958
116.56588,40.03254,308,8958
116.55607,40.01557,309,8958
116.56513,39.97722,310,8958
116.55094,39.96446,311,8958
116.5412,39.95032,312,8958
116.5412,39.95032,313,8958
116.52073,39.94039,314,8958
116.51114,39.9249,315,8958
116.496,39.92286,316,8958
116.49825,39.92813,317,8958
116.49853,39.93046,318,8958
116.48645,39.92197,319,8958
116.48335,39.91355,320,8958
116.4816,39.9107,321,8958
116.45571,39.9138,322,8958
116.45557,39.94843,323,8958
116.44198,39.96065,324,8958
116.41253,39.9681,325,8958
116.41212,39.95728,326,8958
116.41011,39.94894,327,8958
116.41032,39.94602,328,8958
116.4157,39.94877,329,8958
116.4157,39.94877,330,8958
116.41583,39.94878,331,8958
116.41585,39.94875,332,8958
116.42694,39.94009,333,8958
116.42974,39.93926,334,8958
116.43293,39.93586,335,8958
116.43454,39.9352,336,8958
116.44408,39.92973,337,8958
116.43788,39.92225,338,8958
116.44668,39.93221,339,8958
116.46103,39.92821,340,8958
116.46132,39.92424,341,8958
116.46137,39.92424,342,8958
116.46136,39.92428,343,8958
116.46545,39.92441,344,8958
116.4673,39.92355,345,8958
116.46098,39.92908,346,8958
116.46637,39.93246,347,8958
116.46595,39.9338,348,8958
116.46274,39.94642,349,8958
116.46274,39.94642,350,8958
116.45713,39.95143,351,8958
116.45795,39.95423,352,8958
116.47309,39.9068,353,8958
116.60258,39.91814,354,8958
116.60294,39.91797,355,8958
116.60289,39.91801,356,8958
116.60288,39.91803,357,8958
116.60291,39.91808,358,8958
116.60289,39.91808,359,8958
116.60285,39.91809,360,8958
116.60284,39.91809,361,8958
116.60283,39.9181,362,8958
116.60283,39.9181,363,8958
116.60286,39.91809,364,8958
116.60286,39.91809,365,8958
116.60281,39.91812,366,8958
116.6028,39.91814,367,8958
116.60256,39.91829,368,8958
116.60256,39.91823,369,8958
116.60268,39.91843,370,8958
116.60268,39.91845,371,8958
116.60286,39.91842,372,8958
116.60284,39.91867,373,8958
116.6027,39.91811,374,8958
116.6027,39.91805,375,8958
116.6027,39.91796,376,8958
116.60274,39.9181,377,8958
116.60274,39.9181,378,8958
116.60276,39.91812,379,8958
116.60288,39.91806,380,8958
116.60287,39.91806,381,8958
116.60285,39.91806,382,8958
116.60285,39.91806,383,8958
116.60286,39.91806,384,8958
116.60281,39.91807,385,8958
116.60279,39.91806,386,8958
116.60238,39.91773,387,8958
116.60217,39.91775,388,8958
116.60259,39.9182,389,8958
116.60263,39.9182,390,8958
116.60263,39.91819,391,8958
116.60321,39.91865,392,8958
116.60332,39.91858,393,8958
116.60295,39.91819,394,8958
116.6029,39.91817,395,8958
116.6029,39.9181,396,8958
116.60275,39.91802,397,8958
116.60274,39.91803,398,8958
116.60276,39.91806,399,8958
116.60276,39.91807,400,8958
116.60276,39.91808,401,8958
116.60282,39.91831,402,8958
116.60279,39.9183,403,8958
116.60277,39.91827,404,8958
116.60267,39.91826,405,8958
116.60265,39.91825,406,8958
116.60265,39.91825,407,8958
116.60265,39.91813,408,8958
116.60268,39.9181,409,8958
116.60269,39.9181,410,8958
116.60269,39.91812,411,8958
116.6027,39.91816,412,8958
116.60286,39.91803,413,8958
116.60283,39.91807,414,8958
116.6028,39.91809,415,8958
116.60281,39.91809,416,8958
116.60247,39.91797,417,8958
116.6019,39.91805,418,8958
116.60252,39.91819,419,8958
116.6025,39.91803,420,8958
116.60249,39.91794,421,8958
116.6028,39.91804,422,8958
116.60274,39.91822,423,8958
116.60311,39.91819,424,8958
116.60287,39.91817,425,8958
116.60284,39.91816,426,8958
116.60284,39.91816,427,8958
116.60285,39.91816,428,8958
116.60283,39.91816,429,8958
116.60297,39.91803,430,8958
116.60276,39.91814,431,8958
116.60278,39.91814,432,8958
116.60263,39.91777,433,8958
116.60263,39.91777,434,8958
116.60263,39.91777,435,8958
116.60273,39.91795,436,8958
116.60274,39.91795,437,8958
116.60277,39.91801,438,8958
116.60279,39.91802,439,8958
116.60279,39.91804,440,8958
116.60305,39.91805,441,8958
116.60308,39.91807,442,8958
116.60299,39.91808,443,8958
116.60295,39.91808,444,8958
116.60295,39.91809,445,8958
116.60275,39.91779,446,8958
116.60296,39.91786,447,8958
116.60293,39.91789,448,8958
116.60271,39.91812,449,8958
116.60277,39.91812,450,8958
116.60278,39.91948,451,8958
116.60286,39.9182,452,8958
116.60309,39.91814,453,8958
116.60284,39.91808,454,8958
116.60273,39.918,455,8958
116.60275,39.91801,456,8958
116.59919,39.91733,457,8958
116.58601,39.91103,458,8958
116.57706,39.91456,459,8958
116.57677,39.91433,460,8958
116.57137,39.91376,461,8958
116.54844,39.91485,462,8958
116.54758,39.91744,463,8958
116.53906,39.91492,464,8958
116.51815,39.91588,465,8958
116.41264,39.89343,466,8958
116.41264,39.89343,467,8958
116.40576,39.90436,468,8958
116.40576,39.90436,469,8958
116.40639,39.90941,470,8958
116.41342,39.91592,471,8958
116.41329,39.91538,472,8958
116.41356,39.91512,473,8958
116.40599,39.9142,474,8958
116.40264,39.93376,475,8958
116.40187,39.95686,476,8958
116.41553,39.96765,477,8958
116.42424,39.97147,478,8958
116.42468,39.98632,479,8958
116.42468,39.98632,480,8958
116.4111,39.97957,481,8958
116.4111,39.97957,482,8958
116.41133,39.97482,483,8958
116.41812,39.9678,484,8958
116.45395,39.95251,485,8958
116.45549,39.92131,486,8958
116.46918,39.90664,487,8958
116.48963,39.90649,488,8958
116.35713,39.9016,489,8958
116.35707,39.90437,490,8958
116.35722,39.91118,491,8958
116.35864,39.92208,492,8958
116.34738,39.92768,493,8958
116.34729,39.92788,494,8958
116.34961,39.92804,495,8958
116.35012,39.92101,496,8958
116.35027,39.90817,497,8958
116.34664,39.89701,498,8958
116.34284,39.87851,499,8958
116.34684,39.85029,500,8958
116.38013,39.85548,501,8958
116.38013,39.85548,502,8958
116.40632,39.85565,503,8958
116.40632,39.85565,504,8958
116.455,39.87015,505,8958
116.4555,39.91772,506,8958
116.45731,39.95623,507,8958
116.4623,39.96006,508,8958
116.47297,39.97052,509,8958
116.47615,39.98259,510,8958
116.52151,40.03013,511,8958
116.54547,40.06026,512,8958
116.58706,40.13781,513,8958
116.61963,40.15782,514,8958
116.63626,40.20578,515,8958
116.63587,40.24728,516,8958
116.63668,40.28854,517,8958
116.65098,40.31818,518,8958
116.71588,40.32722,519,8958
116.77158,40.34499,520,8958
116.82371,40.36689,521,8958
116.86039,40.37591,522,8958
116.8625,40.38014,523,8958
116.8625,40.38014,524,8958
116.8625,40.38015,525,8958
116.86249,40.38019,526,8958
116.86248,40.38022,527,8958
116.86247,40.38023,528,8958
116.86246,40.38024,529,8958
116.86246,40.38024,530,8958
116.86246,40.38025,531,8958
116.86242,40.38032,532,8958
116.86239,40.38028,533,8958
116.86237,40.38025,534,8958
116.86233,40.38025,535,8958
116.86257,40.38051,536,8958
116.86236,40.38029,537,8958
116.86237,40.38029,538,8958
116.86238,40.38024,539,8958
116.8596,40.37857,540,8958
116.85444,40.38155,541,8958
116.86249,40.38033,542,8958
116.86247,40.38031,543,8958
116.86246,40.38031,544,8958
116.86247,40.38028,545,8958
116.86246,40.38027,546,8958
116.86246,40.38026,547,8958
116.86246,40.38026,548,8958
116.86245,40.38026,549,8958
116.8624,40.38023,550,8958
116.86241,40.38023,551,8958
116.86242,40.38023,552,8958
116.86242,40.38024,553,8958
116.86243,40.38024,554,8958
116.86243,40.38024,555,8958
116.86243,40.38024,556,8958
116.86243,40.38024,557,8958
116.86243,40.38025,558,8958
116.86243,40.38026,559,8958
116.86243,40.38026,560,8958
116.86243,40.38025,561,8958
116.86243,40.38025,562,8958
116.86255,40.38003,563,8958
116.86252,40.38027,564,8958
116.86254,40.37997,565,8958
116.86256,40.38023,566,8958
116.86263,40.38019,567,8958
116.86258,40.38019,568,8958
116.86259,40.38016,569,8958
116.86278,40.38022,570,8958
116.86261,40.38006,571,8958
116.86234,40.38017,572,8958
116.8624,40.38018,573,8958
116.8624,40.38019,574,8958
116.86244,40.38027,575,8958
116.86253,40.38014,576,8958
116.8625,40.38018,577,8958
116.86249,40.3802,578,8958
116.86244,40.38027,579,8958
116.86238,40.38024,580,8958
116.86239,40.38021,581,8958
116.86246,40.37992,582,8958
116.86287,40.37911,583,8958
116.86239,40.38012,584,8958
116.86239,40.38012,585,8958
116.8624,40.38024,586,8958
116.86247,40.3804,587,8958
116.86245,40.38036,588,8958
116.86243,40.38038,589,8958
116.86245,40.38,590,8958
116.86244,40.3803,591,8958
116.86243,40.3803,592,8958
116.86228,40.38045,593,8958
116.86251,40.38019,594,8958
116.86238,40.37993,595,8958
116.86228,40.38051,596,8958
116.86273,40.38034,597,8958
116.8627,40.38032,598,8958
116.86268,40.3803,599,8958
116.86249,40.38012,600,8958
116.86252,40.38015,601,8958
116.86252,40.38015,602,8958
116.8625,40.38015,603,8958
116.86248,40.38014,604,8958
116.86254,40.38014,605,8958
116.86255,40.38018,606,8958
116.86255,40.38018,607,8958
116.86254,40.38017,608,8958
116.86243,40.38013,609,8958
116.86244,40.38014,610,8958
116.86245,40.38016,611,8958
116.86246,40.38017,612,8958
116.86246,40.38018,613,8958
116.86246,40.38019,614,8958
116.86246,40.3802,615,8958
116.86245,40.3802,616,8958
116.86245,40.38021,617,8958
116.86245,40.38022,618,8958
116.86245,40.38022,619,8958
116.86246,40.38021,620,8958
116.86224,40.38098,621,8958
116.86242,40.3804,622,8958
116.86246,40.38027,623,8958
116.86246,40.38026,624,8958
116.86248,40.38023,625,8958
116.86249,40.3802,626,8958
116.86249,40.38021,627,8958
116.86249,40.38021,628,8958
116.86249,40.38021,629,8958
116.86249,40.38021,630,8958
116.86249,40.38022,631,8958
116.86249,40.38022,632,8958
116.86249,40.38022,633,8958
116.86253,40.38028,634,8958
116.86253,40.38027,635,8958
116.8625,40.38027,636,8958
116.86241,40.38015,637,8958
116.86239,40.38032,638,8958
116.8624,40.3803,639,8958
116.8624,40.3803,640,8958
116.8624,40.38029,641,8958
116.86237,40.38023,642,8958
116.86246,40.3802,643,8958
116.86246,40.3802,644,8958
116.86247,40.3802,645,8958
116.86246,40.38019,646,8958
116.86247,40.38019,647,8958
116.86247,40.38019,648,8958
116.86247,40.38019,649,8958
116.86246,40.38019,650,8958
116.86246,40.3802,651,8958
116.86249,40.38018,652,8958
116.86243,40.38043,653,8958
116.86245,40.3804,654,8958
116.86245,40.38039,655,8958
116.86238,40.38037,656,8958
116.86055,40.38013,657,8958
116.86055,40.38013,658,8958
116.86057,40.38014,659,8958
116.86066,40.3802,660,8958
116.85184,40.36677,661,8958
116.85295,40.36495,662,8958
116.86116,40.37077,663,8958
116.89278,40.39284,664,8958
116.95166,40.40518,665,8958
116.99947,40.43687,666,8958
117.03139,40.47521,667,8958
117.07512,40.51153,668,8958
117.11623,40.5368,669,8958
117.11864,40.53592,670,8958
117.12449,40.53585,671,8958
117.13735,40.56805,672,8958
117.11913,40.59784,673,8958
117.04456,40.58024,674,8958
117.00814,40.56225,675,8958
116.99979,40.55662,676,8958
116.99983,40.55661,677,8958
116.99982,40.55664,678,8958
116.99981,40.55664,679,8958
116.99382,40.56341,680,8958
117.02237,40.5913,681,8958
117.02454,40.59057,682,8958
117.0185,40.59617,683,8958
117.00417,40.58269,684,8958
117.00417,40.58271,685,8958
117.00417,40.58268,686,8958
117.00416,40.58266,687,8958
117.00412,40.58271,688,8958
117.02148,40.59271,689,8958
