x,y,k,tid
116.34926,39.93672,0,9061
116.34997,39.92017,1,9061
116.35314,39.90574,2,9061
116.35314,39.90574,3,9061
116.38533,39.90591,4,9061
116.4098,39.9065,5,9061
116.42043,39.90401,6,9061
116.41139,39.91893,7,9061
116.41095,39.93048,8,9061
116.41307,39.93953,9,9061
116.43008,39.9393,10,9061
116.43114,39.92556,11,9061
116.43736,39.92019,12,9061
116.43103,39.91625,13,9061
116.4406,39.92536,14,9061
116.44438,39.94556,15,9061
116.43407,39.9494,16,9061
116.42873,39.95324,17,9061
116.43458,39.94759,18,9061
116.44646,39.93249,19,9061
116.45394,39.93255,20,9061
116.46231,39.94282,21,9061
116.4624,39.95043,22,9061
116.4619,39.95568,23,9061
116.47373,39.96286,24,9061
116.46564,39.95134,25,9061
116.4477,39.95682,26,9061
116.42952,39.96832,27,9061
116.40809,39.96774,28,9061
116.36372,39.96673,29,9061
116.34099,39.96648,30,9061
116.3231,39.96598,31,9061
116.30329,39.95217,32,9061
116.30398,39.93971,33,9061
116.30396,39.92841,34,9061
116.30904,39.91937,35,9061
116.31428,39.92668,36,9061
116.32335,39.92683,37,9061
116.32594,39.92675,38,9061
116.32784,39.93663,39,9061
116.35214,39.93894,40,9061
116.34976,39.93731,41,9061
116.34982,39.96672,42,9061
116.32503,39.96647,43,9061
116.31424,39.97984,44,9061
116.30584,39.97468,45,9061
116.30804,39.9838,46,9061
116.29882,39.9839,47,9061
116.29882,39.9839,48,9061
116.26793,39.93978,49,9061
116.26757,39.90651,50,9061
116.25866,39.90923,51,9061
116.27228,39.91641,52,9061
116.2889,39.90946,53,9061
116.28456,39.91818,54,9061
116.29007,39.95551,55,9061
116.32427,39.9846,56,9061
116.36344,39.98595,57,9061
116.4134,39.98727,58,9061
116.44783,40.00842,59,9061
116.48525,40.00625,60,9061
116.49587,40.00874,61,9061
116.49587,40.00874,62,9061
116.49589,40.00877,63,9061
116.48473,40.00604,64,9061
116.46575,40.00737,65,9061
116.46247,39.99217,66,9061
116.46614,39.98255,67,9061
116.477,39.97544,68,9061
116.48404,39.97787,69,9061
116.46411,39.9631,70,9061
116.47542,39.97282,71,9061
116.45949,39.95857,72,9061
116.45178,39.95171,73,9061
116.44946,39.94967,74,9061
116.4374,39.94217,75,9061
116.42697,39.93986,76,9061
116.42829,39.91756,77,9061
116.42925,39.90976,78,9061
116.42239,39.89617,79,9061
116.42239,39.89617,80,9061
116.41874,39.89616,81,9061
116.41251,39.89953,82,9061
116.43455,39.91188,83,9061
116.43694,39.90726,84,9061
116.43043,39.90719,85,9061
116.42677,39.90751,86,9061
116.4121,39.90704,87,9061
116.40545,39.90694,88,9061
116.41972,39.91412,89,9061
116.42871,39.92358,90,9061
116.44281,39.93971,91,9061
116.4612,39.94259,92,9061
116.45739,39.93252,93,9061
116.4551,39.91832,94,9061
116.4551,39.89203,95,9061
116.4555,39.89125,96,9061
116.45601,39.90655,97,9061
116.44421,39.91626,98,9061
116.46163,39.91561,99,9061
116.4821,39.91411,100,9061
116.50372,39.91543,101,9061
116.48957,39.91467,102,9061
116.47195,39.91119,103,9061
116.46972,39.91689,104,9061
116.46972,39.91689,105,9061
116.47169,39.91017,106,9061
116.45314,39.90735,107,9061
116.44438,39.92518,108,9061
116.4492,39.92812,109,9061
116.45461,39.9186,110,9061
116.47843,39.91408,111,9061
116.48718,39.90931,112,9061
116.47625,39.91452,113,9061
116.46357,39.92096,114,9061
116.46122,39.92825,115,9061
116.45365,39.90739,116,9061
116.45569,39.92065,117,9061
116.44975,39.92712,118,9061
116.43745,39.92568,119,9061
116.42026,39.92308,120,9061
116.40538,39.91421,121,9061
116.40711,39.92306,122,9061
116.41204,39.90023,123,9061
116.41442,39.88278,124,9061
116.42016,39.85651,125,9061
116.43138,39.85732,126,9061
116.4427,39.87482,127,9061
116.4427,39.87482,128,9061
116.46172,39.88248,129,9061
116.45576,39.89752,130,9061
116.44438,39.91132,131,9061
116.44001,39.92209,132,9061
116.44935,39.93369,133,9061
116.44793,39.9357,134,9061
116.44793,39.9357,135,9061
116.44483,39.93236,136,9061
116.43335,39.92105,137,9061
116.42867,39.91312,138,9061
116.39613,39.93944,139,9061
116.41945,39.93962,140,9061
116.43022,39.93302,141,9061
116.43022,39.93292,142,9061
116.43028,39.93281,143,9061
116.43035,39.93275,144,9061
116.43035,39.93275,145,9061
116.43035,39.93275,146,9061
116.44417,39.92809,147,9061
116.44437,39.91275,148,9061
116.44794,39.9358,149,9061
116.4108,39.92312,150,9061
116.40323,39.91393,151,9061
116.40323,39.91393,152,9061
116.42364,39.93216,153,9061
116.43025,39.93307,154,9061
116.43027,39.93302,155,9061
116.44089,39.93973,156,9061
116.45844,39.93611,157,9061
116.4557,39.94665,158,9061
116.49255,39.99627,159,9061
116.55337,40.02891,160,9061
116.58267,40.07562,161,9061
116.58222,40.07936,162,9061
116.58626,40.05369,163,9061
116.55511,40.0287,164,9061
116.52135,40.02337,165,9061
116.50576,40.01048,166,9061
116.49585,40.00876,167,9061
116.49585,40.00876,168,9061
116.49585,40.00876,169,9061
116.49585,40.00876,170,9061
116.49585,40.00876,171,9061
116.49585,40.00876,172,9061
116.49585,40.00876,173,9061
116.49585,40.00876,174,9061
116.49585,40.00876,175,9061
116.49585,40.00876,176,9061
116.49585,40.00876,177,9061
116.49864,40.00375,178,9061
116.43846,39.95044,179,9061
116.43686,39.95371,180,9061
116.4189,39.95304,181,9061
116.42803,39.92567,182,9061
116.42084,39.90945,183,9061
116.41099,39.93045,184,9061
116.43173,39.94439,185,9061
116.41217,39.95999,186,9061
116.40396,39.96794,187,9061
116.41887,39.95508,188,9061
116.42844,39.91779,189,9061
116.40471,39.92237,190,9061
116.38879,39.96168,191,9061
116.38199,39.97077,192,9061
116.38173,39.97144,193,9061
116.33475,40.03834,194,9061
116.32118,40.06369,195,9061
116.31965,40.0631,196,9061
116.32391,40.0516,197,9061
116.34229,40.01381,198,9061
116.36843,40.00836,199,9061
116.37784,40.0,200,9061
116.3606,39.96649,201,9061
116.30614,39.96278,202,9061
116.2891,39.95708,203,9061
116.33888,39.98556,204,9061
116.33395,39.99422,205,9061
116.33395,39.99422,206,9061
116.35852,39.99684,207,9061
116.33465,39.99179,208,9061
116.31919,40.01206,209,9061
116.30537,40.03343,210,9061
116.30398,40.03574,211,9061
116.30781,40.02079,212,9061
116.30885,39.99979,213,9061
116.30995,39.98525,214,9061
116.31667,39.98415,215,9061
116.32672,39.98842,216,9061
116.32125,39.9816,217,9061
116.32719,39.97958,218,9061
116.33053,39.96609,219,9061
116.36326,39.96628,220,9061
116.39223,39.96718,221,9061
116.42144,39.96814,222,9061
116.49592,40.00862,223,9061
116.49591,40.00865,224,9061
116.49591,40.00865,225,9061
116.49591,40.00865,226,9061
116.49591,40.00865,227,9061
116.49591,40.00865,228,9061
116.49591,40.00865,229,9061
116.49591,40.00865,230,9061
116.49591,40.00865,231,9061
116.49591,40.00865,232,9061
116.49591,40.00865,233,9061
116.49591,40.00865,234,9061
116.49591,40.00865,235,9061
116.49591,40.00865,236,9061
116.49591,40.00865,237,9061
116.49591,40.00865,238,9061
116.49576,40.00891,239,9061
116.49576,40.00891,240,9061
116.49576,40.00891,241,9061
116.49701,40.00776,242,9061
116.50541,40.00638,243,9061
116.51757,40.01526,244,9061
116.48531,39.98896,245,9061
116.47327,39.98247,246,9061
116.45372,39.96284,247,9061
116.43672,39.96435,248,9061
116.38794,39.96725,249,9061
116.36424,39.96045,250,9061
116.36391,39.97211,251,9061
116.37107,39.97556,252,9061
116.37089,39.97554,253,9061
116.37082,39.97553,254,9061
116.36362,39.98024,255,9061
116.2795,40.00039,256,9061
116.29401,39.98318,257,9061
116.30567,39.94032,258,9061
116.31919,39.93133,259,9061
116.33534,39.92179,260,9061
116.3579,39.92245,261,9061
116.35889,39.92236,262,9061
116.34742,39.93115,263,9061
116.3512,39.93884,264,9061
116.35198,39.931,265,9061
116.34993,39.92323,266,9061
116.35046,39.90975,267,9061
116.34256,39.87908,268,9061
116.34824,39.86611,269,9061
116.34424,39.87731,270,9061
116.34631,39.88775,271,9061
116.3468,39.89588,272,9061
116.34355,39.8996,273,9061
116.3464,39.9054,274,9061
116.36865,39.90559,275,9061
116.39204,39.90613,276,9061
116.4058,39.9066,277,9061
116.42329,39.90692,278,9061
116.48347,39.9068,279,9061
116.55628,39.90796,280,9061
116.55628,39.90796,281,9061
116.62929,39.9163,282,9061
116.64921,39.92111,283,9061
116.63351,39.91965,284,9061
116.58766,39.91083,285,9061
116.5708,39.91324,286,9061
116.54619,39.90841,287,9061
116.51095,39.91622,288,9061
116.49665,39.91209,289,9061
116.48159,39.90806,290,9061
116.46855,39.90866,291,9061
116.47149,39.90404,292,9061
116.47117,39.88759,293,9061
116.46621,39.87501,294,9061
116.46158,39.88322,295,9061
116.45589,39.89974,296,9061
116.44954,39.90323,297,9061
116.43388,39.89245,298,9061
116.41401,39.89187,299,9061
116.39033,39.88957,300,9061
116.37159,39.88828,301,9061
116.36844,39.89342,302,9061
116.36144,39.89835,303,9061
116.34801,39.89697,304,9061
116.34255,39.88585,305,9061
116.34255,39.88585,306,9061
116.33663,39.8479,307,9061
116.32013,39.8465,308,9061
116.30658,39.85053,309,9061
116.31571,39.84669,310,9061
116.30432,39.89712,311,9061
116.30446,39.92398,312,9061
116.30453,39.94214,313,9061
116.31099,39.95065,314,9061
116.31614,39.964,315,9061
116.3079,39.96324,316,9061
116.28705,39.9976,317,9061
116.26884,40.02879,318,9061
116.27034,40.03176,319,9061
116.27973,40.01573,320,9061
116.28602,39.99553,321,9061
116.29909,39.98572,322,9061
116.31405,39.98404,323,9061
116.32651,39.99115,324,9061
116.32681,39.98661,325,9061
116.32729,39.97565,326,9061
116.32877,39.95648,327,9061
116.3179,39.94998,328,9061
116.31503,39.93125,329,9061
116.31503,39.93125,330,9061
116.31503,39.93125,331,9061
116.31503,39.93125,332,9061
116.31851,39.94697,333,9061
116.3291,39.95083,334,9061
116.40219,39.94005,335,9061
116.41789,39.93952,336,9061
116.44387,39.93512,337,9061
116.44437,39.93127,338,9061
116.454,39.93245,339,9061
116.46542,39.95333,340,9061
116.46218,39.96003,341,9061
116.46917,39.96698,342,9061
116.47392,39.97771,343,9061
116.49533,40.00063,344,9061
116.49588,40.00872,345,9061
116.49588,40.00872,346,9061
116.49592,40.00879,347,9061
116.49592,40.00879,348,9061
116.49592,40.00879,349,9061
116.49592,40.00879,350,9061
116.49592,40.00879,351,9061
116.49592,40.00879,352,9061
116.49592,40.00879,353,9061
116.49592,40.00879,354,9061
116.49592,40.00879,355,9061
116.49592,40.00879,356,9061
116.49592,40.00879,357,9061
116.49592,40.00879,358,9061
116.49592,40.00879,359,9061
116.49592,40.00879,360,9061
116.49592,40.00879,361,9061
116.49592,40.00879,362,9061
116.49592,40.00879,363,9061
116.49592,40.00879,364,9061
116.49592,40.00879,365,9061
116.49592,40.00879,366,9061
116.49592,40.00879,367,9061
116.49592,40.00879,368,9061
116.4959,40.00883,369,9061
116.4959,40.00883,370,9061
116.4959,40.00883,371,9061
116.4959,40.00883,372,9061
116.49439,40.00727,373,9061
116.47652,40.00531,374,9061
116.47254,40.0075,375,9061
116.46357,39.99152,376,9061
116.47356,39.97774,377,9061
116.48679,39.99098,378,9061
116.56011,40.03194,379,9061
116.56011,40.03194,380,9061
116.57916,40.04651,381,9061
116.58642,40.0769,382,9061
116.5803,40.07596,383,9061
116.56499,40.06421,384,9061
116.56687,40.07216,385,9061
116.56687,40.07216,386,9061
116.56687,40.07216,387,9061
116.56693,40.07208,388,9061
116.56386,40.06431,389,9061
116.58231,40.06466,390,9061
116.58163,40.06892,391,9061
116.58163,40.06892,392,9061
116.58163,40.06892,393,9061
116.58163,40.06892,394,9061
116.58163,40.06892,395,9061
116.58085,40.07316,396,9061
116.58085,40.07316,397,9061
116.58085,40.07316,398,9061
116.58046,40.07576,399,9061
116.58126,40.07644,400,9061
116.58126,40.07644,401,9061
116.58254,40.07454,402,9061
116.58254,40.07454,403,9061
116.58254,40.07454,404,9061
116.58254,40.07454,405,9061
116.58254,40.07454,406,9061
116.58367,40.07628,407,9061
116.58367,40.07628,408,9061
116.58575,40.07669,409,9061
116.58583,40.07669,410,9061
116.58583,40.07669,411,9061
116.58583,40.07669,412,9061
116.58583,40.07669,413,9061
116.58583,40.07669,414,9061
116.5826,40.0503,415,9061
116.51913,40.01734,416,9061
116.46177,39.96865,417,9061
116.42711,39.96826,418,9061
116.31983,39.96617,419,9061
116.31778,39.95068,420,9061
116.31821,39.94615,421,9061
116.31821,39.94615,422,9061
116.31574,39.96532,423,9061
116.3631,39.96623,424,9061
116.3733,39.97531,425,9061
116.37652,39.96663,426,9061
116.39255,39.9619,427,9061
116.41055,39.96747,428,9061
116.40755,39.95781,429,9061
116.40174,39.96507,430,9061
116.40148,39.98649,431,9061
116.36343,39.98599,432,9061
116.31796,39.98464,433,9061
116.31027,39.9816,434,9061
116.3177,39.97969,435,9061
116.32267,39.97496,436,9061
116.34686,39.96295,437,9061
116.34731,39.95773,438,9061
116.3448,39.95681,439,9061
116.33031,39.9565,440,9061
116.32154,39.95879,441,9061
116.32875,39.95667,442,9061
116.34269,39.94322,443,9061
116.35556,39.93897,444,9061
116.36546,39.93923,445,9061
116.3708,39.92823,446,9061
116.3708,39.92823,447,9061
116.38471,39.93197,448,9061
116.40251,39.93407,449,9061
116.42671,39.93946,450,9061
116.42935,39.90762,451,9061
116.45241,39.90742,452,9061
116.44408,39.90889,453,9061
116.43485,39.91352,454,9061
116.43962,39.92177,455,9061
116.44433,39.93112,456,9061
116.44899,39.9262,457,9061
116.45099,39.91885,458,9061
116.46987,39.91206,459,9061
116.46439,39.90742,460,9061
116.44942,39.90762,461,9061
116.45483,39.91212,462,9061
116.45565,39.9356,463,9061
116.45807,39.954,464,9061
116.45265,39.95318,465,9061
116.4508,39.95088,466,9061
116.4492,39.94074,467,9061
116.44916,39.93273,468,9061
116.44121,39.92564,469,9061
116.44121,39.92564,470,9061
116.43017,39.93725,471,9061
116.43451,39.93963,472,9061
116.43017,39.93283,473,9061
116.43017,39.93283,474,9061
116.43724,39.93958,475,9061
116.44415,39.94622,476,9061
116.44144,39.95648,477,9061
116.43201,39.95333,478,9061
116.42694,39.95818,479,9061
116.41563,39.94829,480,9061
116.37634,39.94762,481,9061
116.36715,39.94758,482,9061
116.3658,39.94557,483,9061
116.35993,39.94506,484,9061
116.37862,39.94462,485,9061
116.37341,39.95297,486,9061
116.35051,39.95669,487,9061
116.34706,39.95677,488,9061
116.34353,39.95678,489,9061
116.33877,39.95563,490,9061
116.36421,39.95652,491,9061
116.37911,39.9616,492,9061
116.3876,39.96177,493,9061
116.40021,39.96061,494,9061
116.4109,39.96063,495,9061
116.4109,39.96063,496,9061
116.4155,39.96762,497,9061
116.44185,39.96254,498,9061
116.44125,39.97116,499,9061
116.44843,39.97889,500,9061
116.46382,39.99106,501,9061
116.46662,40.00006,502,9061
116.48225,40.00438,503,9061
116.4959,40.00876,504,9061
116.49599,40.00883,505,9061
116.48842,39.99406,506,9061
116.46731,40.00038,507,9061
116.44287,40.017,508,9061
116.43102,40.03483,509,9061
116.40657,40.04408,510,9061
116.40771,40.0566,511,9061
116.40571,40.04752,512,9061
116.41132,40.02803,513,9061
116.40982,40.00844,514,9061
116.40113,39.99121,515,9061
116.40157,39.94764,516,9061
116.40227,39.93975,517,9061
116.40227,39.93975,518,9061
116.41985,39.93958,519,9061
116.4336,39.9325,520,9061
116.42741,39.94757,521,9061
116.38946,39.94845,522,9061
116.39158,39.94784,523,9061
116.39158,39.94784,524,9061
116.38848,39.97023,525,9061
116.40136,39.98639,526,9061
116.40192,40.00379,527,9061
116.40109,39.99423,528,9061
116.40097,39.98311,529,9061
116.39413,39.96771,530,9061
116.36897,39.95654,531,9061
116.34939,39.95173,532,9061
116.34933,39.92881,533,9061
116.36491,39.90833,534,9061
116.35014,39.90531,535,9061
116.34261,39.87926,536,9061
116.36295,39.86604,537,9061
116.36093,39.86852,538,9061
116.35004,39.89765,539,9061
116.35018,39.91052,540,9061
116.34917,39.91706,541,9061
116.35287,39.91991,542,9061
116.35329,39.92063,543,9061
116.35994,39.92247,544,9061
116.38154,39.92109,545,9061
116.4039,39.92297,546,9061
116.4222,39.92306,547,9061
116.43808,39.93235,548,9061
116.4411,39.93514,549,9061
116.42976,39.93257,550,9061
116.43369,39.95263,551,9061
116.43983,39.9606,552,9061
116.41146,39.97451,553,9061
116.40897,39.96798,554,9061
116.37598,39.97117,555,9061
116.36442,39.96714,556,9061
116.3647,39.95788,557,9061
116.35531,39.9524,558,9061
116.34988,39.95,559,9061
116.34947,39.95181,560,9061
116.34214,39.93845,561,9061
116.31889,39.94358,562,9061
116.29784,39.94345,563,9061
116.28394,39.93527,564,9061
116.28952,39.93118,565,9061
116.30944,39.93839,566,9061
116.33493,39.93692,567,9061
116.34992,39.92283,568,9061
116.40644,39.90685,569,9061
116.40073,39.91897,570,9061
116.37562,39.91586,571,9061
116.35854,39.91645,572,9061
116.35987,39.92246,573,9061
116.38914,39.93193,574,9061
116.42547,39.93583,575,9061
116.43028,39.93269,576,9061
116.43029,39.93268,577,9061
116.43029,39.93269,578,9061
116.43029,39.93271,579,9061
116.46207,39.95416,580,9061
116.45704,39.9549,581,9061
116.45707,39.95493,582,9061
116.45725,39.955,583,9061
116.4573,39.95502,584,9061
116.45733,39.95496,585,9061
116.4754,40.00316,586,9061
116.47251,40.00034,587,9061
116.46883,39.96699,588,9061
116.44376,39.94546,589,9061
116.44871,39.92566,590,9061
116.45565,39.94394,591,9061
116.48805,39.9922,592,9061
116.5799,40.04744,593,9061
116.5799,40.04744,594,9061
116.58247,40.06747,595,9061
116.5836,40.07645,596,9061
116.58315,40.07953,597,9061
116.58621,40.05349,598,9061
116.56421,40.03195,599,9061
116.53203,40.02049,600,9061
116.49843,40.00085,601,9061
116.48395,39.98672,602,9061
116.4534,39.97654,603,9061
116.37466,39.97517,604,9061
116.37149,39.96712,605,9061
116.36341,39.98322,606,9061
116.36365,39.96972,607,9061
116.36523,39.94987,608,9061
116.36528,39.93924,609,9061
116.34572,39.94143,610,9061
116.33686,39.95685,611,9061
116.32934,39.96067,612,9061
116.31654,39.9622,613,9061
116.30622,39.96253,614,9061
116.26767,39.91025,615,9061
116.26767,39.91025,616,9061
116.27119,39.90594,617,9061
116.27119,39.90594,618,9061
116.29087,39.90597,619,9061
116.30266,39.90705,620,9061
116.30178,39.87739,621,9061
116.31154,39.88285,622,9061
116.31926,39.88305,623,9061
116.33265,39.88843,624,9061
116.34675,39.88789,625,9061
116.35714,39.89734,626,9061
116.36551,39.8982,627,9061
116.36815,39.8881,628,9061
116.38798,39.88487,629,9061
116.40118,39.88668,630,9061
116.42481,39.89221,631,9061
116.44199,39.90367,632,9061
116.44506,39.90485,633,9061
116.45026,39.91189,634,9061
116.44439,39.91342,635,9061
116.43931,39.92098,636,9061
116.4428,39.92555,637,9061
116.45569,39.94058,638,9061
116.50284,39.94161,639,9061
116.48358,39.96716,640,9061
116.47576,39.95453,641,9061
116.47576,39.95453,642,9061
116.45877,39.95778,643,9061
116.44638,39.94678,644,9061
116.45527,39.93939,645,9061
116.45211,39.91033,646,9061
116.44488,39.91208,647,9061
116.43484,39.91922,648,9061
116.43473,39.91305,649,9061
116.43075,39.9072,650,9061
116.41998,39.90879,651,9061
116.4118,39.9125,652,9061
116.42333,39.91421,653,9061
116.43271,39.9044,654,9061
116.46084,39.90686,655,9061
116.4839,39.90925,656,9061
116.49848,39.91436,657,9061
116.48456,39.91555,658,9061
116.47144,39.90782,659,9061
116.43518,39.91045,660,9061
116.43472,39.91716,661,9061
116.43439,39.92206,662,9061
116.43652,39.93243,663,9061
116.43363,39.93419,664,9061
116.43363,39.93419,665,9061
116.43828,39.93897,666,9061
116.43642,39.93983,667,9061
116.41691,39.9482,668,9061
116.41648,39.94795,669,9061
116.42908,39.93957,670,9061
116.45525,39.93284,671,9061
116.48151,39.93227,672,9061
116.49544,39.93466,673,9061
116.48421,39.93257,674,9061
116.47168,39.92172,675,9061
116.46691,39.92877,676,9061
116.46139,39.92827,677,9061
116.44792,39.92541,678,9061
116.43776,39.9272,679,9061
116.43258,39.93958,680,9061
116.43748,39.9283,681,9061
116.4365,39.92102,682,9061
116.44355,39.92149,683,9061
116.45517,39.90271,684,9061
116.46498,39.89204,685,9061
116.46145,39.89226,686,9061
116.45564,39.90281,687,9061
116.44802,39.9027,688,9061
116.42401,39.89209,689,9061
116.42401,39.89209,690,9061
116.40426,39.89144,691,9061
116.37876,39.88829,692,9061
116.36853,39.89405,693,9061
116.36826,39.8992,694,9061
116.36823,39.90283,695,9061
116.36828,39.90385,696,9061
116.36797,39.90715,697,9061
116.36747,39.90874,698,9061
116.361,39.92701,699,9061
116.35997,39.93705,700,9061
116.36359,39.93915,701,9061
116.36564,39.93918,702,9061
116.36753,39.94028,703,9061
116.37353,39.95037,704,9061
116.37738,39.96834,705,9061
116.37542,39.9666,706,9061
116.3878,39.96176,707,9061
116.39051,39.94738,708,9061
116.44408,39.93985,709,9061
116.46213,39.96008,710,9061
116.48045,39.97715,711,9061
116.44263,39.97288,712,9061
116.43718,39.98585,713,9061
116.55868,40.03122,714,9061
116.58362,40.07652,715,9061
116.58213,40.06822,716,9061
116.54983,40.02798,717,9061
116.48266,39.98756,718,9061
116.4402,39.96238,719,9061
116.41114,39.96784,720,9061
116.35204,39.96656,721,9061
116.34234,39.97421,722,9061
116.32854,39.9798,723,9061
116.32707,39.96637,724,9061
116.30361,39.94275,725,9061
116.30361,39.94275,726,9061
116.31261,39.93833,727,9061
116.31794,39.95195,728,9061
116.31398,39.96873,729,9061
116.3095,39.99396,730,9061
116.30751,40.02563,731,9061
116.31466,40.04481,732,9061
116.31009,40.05181,733,9061
116.30591,40.03099,734,9061
116.31109,40.00491,735,9061
116.33892,39.9851,736,9061
116.37288,39.96658,737,9061
116.44061,39.96142,738,9061
116.45151,39.92713,739,9061
116.44497,39.93238,740,9061
116.42819,39.92009,741,9061
116.40906,39.90711,742,9061
116.41168,39.91159,743,9061
116.41123,39.92454,744,9061
116.42253,39.94057,745,9061
116.42722,39.94147,746,9061
116.42725,39.94132,747,9061
116.42715,39.94133,748,9061
116.42753,39.94118,749,9061
116.42753,39.94118,750,9061
116.43005,39.90155,751,9061
116.44506,39.89619,752,9061
116.45163,39.89612,753,9061
116.45553,39.90292,754,9061
116.42148,39.89449,755,9061
116.42983,39.905,756,9061
116.4157,39.91154,757,9061
116.4176,39.92296,758,9061
116.4194,39.94539,759,9061
116.40197,39.95713,760,9061
116.40361,39.96785,761,9061
116.38915,39.94922,762,9061
116.4279,39.92975,763,9061
116.43888,39.90254,764,9061
116.44734,39.90695,765,9061
116.52062,39.90788,766,9061
116.56688,39.9083,767,9061
116.56827,39.90913,768,9061
116.5243,39.9086,769,9061
116.4845,39.90677,770,9061
116.48153,39.95668,771,9061
116.47025,39.97258,772,9061
116.46905,39.96703,773,9061
116.45528,39.94681,774,9061
116.44948,39.91204,775,9061
116.44526,39.90471,776,9061
116.45072,39.90657,777,9061
116.45052,39.9066,778,9061
116.45054,39.90661,779,9061
116.45152,39.91153,780,9061
116.45401,39.90391,781,9061
116.45114,39.90495,782,9061
116.44861,39.89763,783,9061
116.45117,39.90664,784,9061
116.45158,39.86408,785,9061
116.38347,39.85578,786,9061
116.32695,39.84748,787,9061
116.31669,39.84648,788,9061
116.31818,39.84404,789,9061
116.32019,39.84761,790,9061
116.3429,39.87927,791,9061
116.37166,39.89842,792,9061
116.41195,39.8996,793,9061
116.41759,39.90296,794,9061
116.38168,39.89891,795,9061
116.33883,39.89652,796,9061
116.31736,39.8964,797,9061
116.32012,39.90379,798,9061
116.32989,39.9127,799,9061
116.3507,39.91971,800,9061
116.36645,39.93123,801,9061
116.37627,39.94997,802,9061
116.40206,39.94317,803,9061
116.39633,39.92108,804,9061
116.38976,39.89897,805,9061
116.40316,39.89135,806,9061
116.40531,39.90723,807,9061
116.42028,39.91881,808,9061
116.42028,39.91881,809,9061
116.44375,39.92556,810,9061
116.44375,39.92556,811,9061
116.4485,39.93589,812,9061
116.42722,39.93256,813,9061
116.42466,39.9279,814,9061
116.43614,39.92222,815,9061
116.45047,39.92193,816,9061
116.46611,39.92663,817,9061
116.4721,39.92772,818,9061
116.46868,39.92973,819,9061
116.48629,39.93236,820,9061
116.50752,39.93153,821,9061
116.50362,39.92218,822,9061
116.4662,39.92947,823,9061
116.44811,39.93583,824,9061
116.45589,39.94546,825,9061
116.46192,39.95501,826,9061
116.46192,39.95501,827,9061
116.46226,39.95993,828,9061
116.47249,39.97918,829,9061
116.50009,40.00611,830,9061
116.49588,40.00873,831,9061
116.49602,40.00874,832,9061
116.49602,40.00874,833,9061
116.49602,40.00874,834,9061
116.49602,40.00874,835,9061
116.4902,40.00341,836,9061
116.46534,40.00738,837,9061
116.46299,39.98463,838,9061
116.4482,39.95833,839,9061
116.4277,39.92942,840,9061
116.42047,39.90416,841,9061
116.4118,39.91025,842,9061
116.42899,39.9232,843,9061
116.4484,39.95141,844,9061
116.44772,39.95049,845,9061
116.42008,39.93976,846,9061
116.41504,39.93904,847,9061
116.42782,39.9458,848,9061
116.58172,40.05928,849,9061
116.56408,40.03193,850,9061
116.51938,40.01597,851,9061
116.49049,39.99042,852,9061
116.47156,39.97164,853,9061
116.46216,39.95018,854,9061
116.47026,39.93236,855,9061
116.51103,39.93353,856,9061
116.49342,39.93426,857,9061
116.45566,39.95108,858,9061
116.46235,39.9489,859,9061
116.46324,39.9287,860,9061
116.44913,39.9223,861,9061
116.43773,39.93571,862,9061
116.43665,39.96291,863,9061
116.43491,39.94739,864,9061
116.43098,39.93252,865,9061
116.43015,39.93278,866,9061
116.43011,39.93374,867,9061
116.43581,39.93505,868,9061
116.45478,39.93232,869,9061
116.45646,39.9555,870,9061
116.45646,39.9555,871,9061
116.47068,39.97241,872,9061
116.47269,39.97443,873,9061
116.46324,39.9503,874,9061
116.44914,39.941,875,9061
116.42896,39.93251,876,9061
116.41991,39.92345,877,9061
116.41347,39.93953,878,9061
116.43028,39.93601,879,9061
116.43057,39.93944,880,9061
116.43007,39.93975,881,9061
116.44416,39.93267,882,9061
116.43427,39.92854,883,9061
116.42902,39.92366,884,9061
116.438,39.93973,885,9061
116.45073,39.95069,886,9061
116.4626,39.94538,887,9061
116.4721,39.93072,888,9061
116.47168,39.9124,889,9061
116.45191,39.90737,890,9061
116.44443,39.90817,891,9061
116.45413,39.91198,892,9061
116.45581,39.94385,893,9061
116.46618,39.94781,894,9061
116.46618,39.94781,895,9061
116.46649,39.94751,896,9061
116.45509,39.92915,897,9061
116.45487,39.88088,898,9061
116.45051,39.86222,899,9061
116.4617,39.87814,900,9061
116.47485,39.88301,901,9061
116.48396,39.91781,902,9061
116.4664,39.96828,903,9061
116.52104,40.01786,904,9061
116.58414,40.05291,905,9061
116.58435,40.07962,906,9061
116.58088,40.05951,907,9061
116.53994,40.05647,908,9061
116.50574,40.01048,909,9061
116.49592,40.00873,910,9061
116.49585,40.00865,911,9061
116.49585,40.00865,912,9061
116.49595,40.00885,913,9061
116.49595,40.00885,914,9061
116.49595,40.00885,915,9061
116.49595,40.00885,916,9061
116.49585,40.00878,917,9061
116.4958,40.00877,918,9061
116.4958,40.00877,919,9061
116.4958,40.00877,920,9061
116.4958,40.00877,921,9061
116.4958,40.00877,922,9061
116.4958,40.00877,923,9061
116.4958,40.00877,924,9061
116.4958,40.00877,925,9061
116.4958,40.00877,926,9061
116.4958,40.00877,927,9061
116.4958,40.00877,928,9061
116.4958,40.00877,929,9061
116.4958,40.00877,930,9061
116.4958,40.00877,931,9061
116.4958,40.00877,932,9061
116.4958,40.00877,933,9061
116.4958,40.00877,934,9061
116.4958,40.00877,935,9061
116.4958,40.00877,936,9061
116.4958,40.00877,937,9061
116.4958,40.00877,938,9061
116.4958,40.00877,939,9061
116.4958,40.00877,940,9061
116.48547,39.99125,941,9061
116.46821,39.97562,942,9061
116.43949,39.96755,943,9061
116.38373,39.96704,944,9061
116.33621,39.92212,945,9061
116.31059,39.92289,946,9061
116.32969,39.93109,947,9061
116.35032,39.93864,948,9061
116.34785,39.98569,949,9061
116.33272,39.99174,950,9061
116.31856,39.98161,951,9061
116.34747,39.98696,952,9061
116.34615,40.0119,953,9061
116.35159,40.02945,954,9061
116.34416,40.02844,955,9061
116.33125,40.03101,956,9061
116.33087,40.02837,957,9061
116.30756,40.028,958,9061
116.29752,40.02404,959,9061
116.30899,39.99883,960,9061
116.31878,39.9778,961,9061
116.32541,39.96593,962,9061
116.29347,39.98807,963,9061
116.28711,40.02277,964,9061
116.28711,40.02277,965,9061
116.2772,40.02014,966,9061
116.28673,39.99764,967,9061
116.29594,39.96562,968,9061
116.30297,39.95553,969,9061
116.32373,39.96577,970,9061
116.35017,39.97356,971,9061
116.35784,39.97521,972,9061
116.37532,39.97511,973,9061
116.38175,39.97517,974,9061
116.38794,39.97115,975,9061
116.40126,39.98173,976,9061
116.4022,40.01941,977,9061
116.40601,40.04621,978,9061
116.40778,40.07801,979,9061
116.38856,40.08209,980,9061
116.38652,40.08424,981,9061
116.4066,40.07276,982,9061
116.40523,40.03945,983,9061
116.40139,40.00392,984,9061
116.40104,39.97566,985,9061
116.40161,39.95359,986,9061
116.41547,39.94565,987,9061
116.43265,39.93971,988,9061
116.46732,39.93444,989,9061
116.45825,39.9327,990,9061
116.43545,39.93244,991,9061
116.3969,39.93294,992,9061
116.40747,39.93935,993,9061
116.39021,39.92837,994,9061
116.38565,39.90654,995,9061
116.3784,39.88994,996,9061
116.37785,39.88193,997,9061
116.37963,39.89844,998,9061
116.41154,39.90754,999,9061
116.43973,39.91669,1000,9061
116.4393,39.92091,1001,9061
116.45028,39.9219,1002,9061
116.49298,39.92166,1003,9061
116.54424,39.92248,1004,9061
116.58644,39.92417,1005,9061
116.63767,39.92542,1006,9061
116.64259,39.92134,1007,9061
116.59345,39.91155,1008,9061
116.57608,39.92361,1009,9061
116.52273,39.92266,1010,9061
116.4955,39.93037,1011,9061
116.4955,39.93037,1012,9061
116.48415,39.9407,1013,9061
116.48346,39.90932,1014,9061
116.63132,39.90334,1015,9061
116.65475,39.88843,1016,9061
116.67621,39.86134,1017,9061
116.67502,39.86878,1018,9061
116.68137,39.88004,1019,9061
116.65355,39.89132,1020,9061
116.58316,39.90864,1021,9061
116.54611,39.90847,1022,9061
116.51104,39.94489,1023,9061
116.47632,39.93253,1024,9061
116.44939,39.93998,1025,9061
116.4226,39.94295,1026,9061
116.42746,39.93593,1027,9061
116.43311,39.92302,1028,9061
116.4293,39.92327,1029,9061
116.41225,39.91366,1030,9061
116.43428,39.92268,1031,9061
116.4548,39.91815,1032,9061
116.4548,39.91815,1033,9061
116.47505,39.91412,1034,9061
116.51102,39.91519,1035,9061
116.48339,39.91453,1036,9061
116.47204,39.92097,1037,9061
116.44869,39.94001,1038,9061
116.41638,39.93966,1039,9061
116.39573,39.94765,1040,9061
116.34981,39.92563,1041,9061
116.26835,39.90623,1042,9061
116.29611,39.90619,1043,9061
116.3387,39.90583,1044,9061
116.36889,39.90958,1045,9061
116.36675,39.93351,1046,9061
116.37178,39.94712,1047,9061
116.40123,39.93946,1048,9061
116.43962,39.93969,1049,9061
116.44443,39.93747,1050,9061
116.42365,39.94317,1051,9061
116.41893,39.95994,1052,9061
116.41171,39.96757,1053,9061
116.4187,39.9579,1054,9061
116.42472,39.92324,1055,9061
116.42472,39.92324,1056,9061
116.38791,39.92183,1057,9061
116.38846,39.92697,1058,9061
116.40964,39.93932,1059,9061
116.41429,39.93963,1060,9061
116.41098,39.92663,1061,9061
116.39531,39.93219,1062,9061
116.41047,39.9394,1063,9061
116.45529,39.9372,1064,9061
116.48413,39.94374,1065,9061
116.48413,39.95261,1066,9061
116.47699,39.96969,1067,9061
116.48523,39.97517,1068,9061
116.48523,39.97517,1069,9061
116.47678,39.99119,1070,9061
116.44915,39.98011,1071,9061
116.38513,39.96176,1072,9061
116.38075,39.96441,1073,9061
116.3807,39.96443,1074,9061
116.3816,39.96164,1075,9061
116.40229,39.96059,1076,9061
116.42606,39.95133,1077,9061
116.44196,39.96261,1078,9061
116.44538,39.9756,1079,9061
116.46466,39.9655,1080,9061
116.47769,39.97518,1081,9061
116.5003,39.96401,1082,9061
116.51433,39.97661,1083,9061
116.50972,39.97525,1084,9061
116.47186,39.96979,1085,9061
116.45318,39.95357,1086,9061
116.38001,39.96701,1087,9061
116.3407,39.95447,1088,9061
116.35583,39.97523,1089,9061
116.36375,39.97548,1090,9061
116.40287,39.98703,1091,9061
116.46541,39.97175,1092,9061
116.58204,40.07309,1093,9061
116.58158,40.07667,1094,9061
116.56419,40.06169,1095,9061
116.53189,40.04903,1096,9061
116.50283,40.00728,1097,9061
116.49589,40.00874,1098,9061
116.49592,40.00871,1099,9061
116.50021,40.00595,1100,9061
116.47661,39.99123,1101,9061
116.48335,39.98622,1102,9061
116.48335,39.98622,1103,9061
116.47621,39.98789,1104,9061
116.47023,39.98053,1105,9061
116.44898,39.97971,1106,9061
116.44619,39.9677,1107,9061
116.43757,39.96391,1108,9061
116.43756,39.96391,1109,9061
116.43395,39.96608,1110,9061
116.40153,39.96474,1111,9061
116.36454,39.96697,1112,9061
116.36409,39.98461,1113,9061
116.36362,39.96734,1114,9061
116.36509,39.95258,1115,9061
116.35004,39.92076,1116,9061
116.37384,39.93147,1117,9061
116.39917,39.93206,1118,9061
116.41968,39.93534,1119,9061
116.45317,39.9399,1120,9061
116.48068,39.95626,1121,9061
116.49043,39.95849,1122,9061
116.48201,39.957,1123,9061
116.45595,39.94823,1124,9061
116.45446,39.95298,1125,9061
116.439,39.94974,1126,9061
116.42787,39.94452,1127,9061
116.42787,39.94452,1128,9061
116.41265,39.95798,1129,9061
116.39996,39.96784,1130,9061
116.34834,39.97008,1131,9061
116.32688,39.99106,1132,9061
116.32416,39.99129,1133,9061
116.31192,39.98405,1134,9061
116.31863,39.9657,1135,9061
116.32058,39.96571,1136,9061
116.32058,39.96571,1137,9061
116.32049,39.96568,1138,9061
116.32049,39.96568,1139,9061
116.32049,39.96568,1140,9061
116.35527,39.96633,1141,9061
116.3994,39.96558,1142,9061
116.3954,39.96202,1143,9061
116.41707,39.94809,1144,9061
116.43042,39.93325,1145,9061
116.43758,39.93307,1146,9061
116.42855,39.91598,1147,9061
116.41522,39.89586,1148,9061
116.41196,39.90669,1149,9061
116.39863,39.90661,1150,9061
116.4013,39.91407,1151,9061
116.37894,39.90594,1152,9061
116.37894,39.90594,1153,9061
116.35039,39.89888,1154,9061
116.30388,39.88866,1155,9061
116.30338,39.88272,1156,9061
116.30445,39.9118,1157,9061
116.31594,39.93096,1158,9061
116.30469,39.9313,1159,9061
116.30179,39.89556,1160,9061
116.31643,39.8953,1161,9061
116.32252,39.90416,1162,9061
116.32274,39.8997,1163,9061
116.31376,39.8954,1164,9061
116.32275,39.89551,1165,9061
116.33322,39.91269,1166,9061
116.34992,39.92831,1167,9061
116.37341,39.95837,1168,9061
116.38896,39.95049,1169,9061
116.39266,39.96191,1170,9061
116.37543,39.96729,1171,9061
116.36066,40.00498,1172,9061
116.34523,40.02858,1173,9061
116.35055,40.03139,1174,9061
116.34593,40.02206,1175,9061
116.35092,40.03208,1176,9061
116.36267,40.03493,1177,9061
116.35168,40.02921,1178,9061
116.35168,40.02921,1179,9061
116.36078,40.00408,1180,9061
116.36292,40.00095,1181,9061
116.37374,40.0004,1182,9061
116.38079,39.99706,1183,9061
116.32251,39.98472,1184,9061
116.26951,39.95263,1185,9061
116.25855,39.92987,1186,9061
116.27869,39.92657,1187,9061
116.30648,39.92267,1188,9061
116.35124,39.92228,1189,9061
116.35823,39.91671,1190,9061
116.35704,39.89511,1191,9061
116.3625,39.88786,1192,9061
116.36818,39.90016,1193,9061
116.34757,39.90591,1194,9061
116.34699,39.91711,1195,9061
116.36671,39.93433,1196,9061
116.37861,39.94825,1197,9061
116.40167,39.94718,1198,9061
116.41915,39.94909,1199,9061
116.41891,39.95135,1200,9061
116.43738,39.92718,1201,9061
116.4336,39.93084,1202,9061
116.45488,39.93218,1203,9061
116.46091,39.92711,1204,9061
116.46091,39.92711,1205,9061
116.44062,39.93242,1206,9061
116.43033,39.93454,1207,9061
116.4572,39.93222,1208,9061
116.51113,39.93892,1209,9061
116.51111,39.9246,1210,9061
116.54653,39.9185,1211,9061
116.45619,39.94812,1212,9061
116.45025,39.93085,1213,9061
116.4388,39.92199,1214,9061
116.43963,39.92189,1215,9061
116.42224,39.89928,1216,9061
116.40553,39.90044,1217,9061
116.4115,39.91877,1218,9061
116.43431,39.93227,1219,9061
116.46591,39.93234,1220,9061
116.49305,39.9338,1221,9061
116.46142,39.93267,1222,9061
116.46142,39.93267,1223,9061
116.44453,39.92567,1224,9061
116.45183,39.91745,1225,9061
116.44007,39.91644,1226,9061
116.44367,39.92137,1227,9061
116.45565,39.94129,1228,9061
116.44216,39.97204,1229,9061
116.44696,39.96715,1230,9061
116.42189,39.96847,1231,9061
116.41093,39.99139,1232,9061
116.4178,39.98793,1233,9061
116.4178,39.98793,1234,9061
116.45673,39.98465,1235,9061
116.46462,39.99126,1236,9061
116.46274,40.00053,1237,9061
116.45674,39.99756,1238,9061
116.44912,39.97987,1239,9061
116.48365,39.94069,1240,9061
116.51036,39.92182,1241,9061
116.5167,39.91648,1242,9061
116.49793,39.91473,1243,9061
116.47194,39.92027,1244,9061
116.46804,39.94392,1245,9061
116.49002,39.93023,1246,9061
116.49248,39.93458,1247,9061
116.49248,39.93458,1248,9061
116.48305,39.95747,1249,9061
116.4557,39.94809,1250,9061
116.45287,39.95255,1251,9061
116.46794,39.9661,1252,9061
116.48364,39.98177,1253,9061
116.50072,40.0053,1254,9061
116.49592,40.00883,1255,9061
116.4956,40.00907,1256,9061
116.4956,40.00907,1257,9061
116.4956,40.00907,1258,9061
116.4956,40.00907,1259,9061
116.4956,40.00907,1260,9061
116.4956,40.00907,1261,9061
116.4956,40.00907,1262,9061
116.4956,40.00907,1263,9061
116.4956,40.00907,1264,9061
116.4956,40.00907,1265,9061
116.4956,40.00907,1266,9061
116.4956,40.00907,1267,9061
116.4956,40.00907,1268,9061
116.4956,40.00907,1269,9061
116.4956,40.00907,1270,9061
116.4956,40.00907,1271,9061
116.4956,40.00907,1272,9061
116.4956,40.00907,1273,9061
116.4956,40.00907,1274,9061
116.4956,40.00907,1275,9061
116.4956,40.00907,1276,9061
116.4956,40.00907,1277,9061
116.4956,40.00907,1278,9061
116.49683,40.01072,1279,9061
116.47573,40.02027,1280,9061
116.46466,40.0203,1281,9061
116.46135,40.00377,1282,9061
