x,y,k,tid
116.45172,39.90562,0,9182
116.45145,39.91066,1,9182
116.4539,39.91295,2,9182
116.46211,39.90672,3,9182
116.47163,39.90541,4,9182
116.43691,39.89256,5,9182
116.43691,39.89256,6,9182
116.42258,39.89038,7,9182
116.42301,39.88963,8,9182
116.42221,39.89186,9,9182
116.41291,39.89468,10,9182
116.43485,39.8922,11,9182
116.45723,39.8921,12,9182
116.4716,39.89557,13,9182
116.47646,39.89917,14,9182
116.47647,39.89917,15,9182
116.47652,39.89908,16,9182
116.47351,39.89915,17,9182
116.47253,39.90972,18,9182
116.47178,39.9083,19,9182
116.47157,39.90066,20,9182
116.48042,39.89877,21,9182
116.48081,39.89886,22,9182
116.48023,39.89839,23,9182
116.47172,39.90304,24,9182
116.47208,39.9077,25,9182
116.47289,39.90719,26,9182
116.48348,39.90346,27,9182
116.48001,39.89892,28,9182
116.48001,39.89892,29,9182
116.47474,39.89911,30,9182
116.47186,39.89917,31,9182
116.45997,39.90355,32,9182
116.45534,39.91073,33,9182
116.45497,39.9091,34,9182
116.44298,39.90715,35,9182
116.44298,39.90715,36,9182
116.42985,39.90726,37,9182
116.41828,39.907,38,9182
116.40116,39.90665,39,9182
116.38057,39.90586,40,9182
116.36004,39.90809,41,9182
116.35594,39.90411,42,9182
116.35498,39.90398,43,9182
116.36779,39.90072,44,9182
116.36927,39.89351,45,9182
116.36947,39.89145,46,9182
116.36872,39.89391,47,9182
116.36719,39.88178,48,9182
116.37024,39.88762,49,9182
116.38919,39.8889,50,9182
116.3971,39.89067,51,9182
116.42453,39.89193,52,9182
116.43474,39.88758,53,9182
116.45309,39.89163,54,9182
116.46511,39.8918,55,9182
116.48341,39.88844,56,9182
116.48631,39.88193,57,9182
116.48374,39.89564,58,9182
116.49048,39.90651,59,9182
116.48818,39.91414,60,9182
116.49797,39.91447,61,9182
116.51452,39.91547,62,9182
116.54453,39.91473,63,9182
116.56805,39.91388,64,9182
116.58243,39.91161,65,9182
116.604,39.91172,66,9182
116.67977,39.91261,67,9182
116.67832,39.9144,68,9182
116.67832,39.9144,69,9182
116.67831,39.9144,70,9182
116.6783,39.91439,71,9182
116.67826,39.91435,72,9182
116.67824,39.91433,73,9182
116.67825,39.91434,74,9182
116.67826,39.91435,75,9182
116.67826,39.91435,76,9182
116.67826,39.91436,77,9182
116.67826,39.91435,78,9182
116.67826,39.91435,79,9182
116.67843,39.91446,80,9182
116.67841,39.91448,81,9182
116.67836,39.91449,82,9182
116.6782,39.91442,83,9182
116.67819,39.91442,84,9182
116.6786,39.91463,85,9182
116.67828,39.91453,86,9182
116.67769,39.91416,87,9182
116.67818,39.91449,88,9182
116.67772,39.91416,89,9182
116.67764,39.91412,90,9182
116.67796,39.91427,91,9182
116.67793,39.9142,92,9182
116.6778,39.91419,93,9182
116.67782,39.91424,94,9182
116.67804,39.91431,95,9182
116.67834,39.91449,96,9182
116.67745,39.91412,97,9182
116.6788,39.91463,98,9182
116.67775,39.91428,99,9182
116.67867,39.91462,100,9182
116.67778,39.91416,101,9182
116.67866,39.91453,102,9182
116.67864,39.91453,103,9182
116.67864,39.91453,104,9182
116.67863,39.91453,105,9182
116.67861,39.91453,106,9182
116.67864,39.91471,107,9182
116.67866,39.9146,108,9182
116.67824,39.91452,109,9182
116.67823,39.91452,110,9182
116.67823,39.91452,111,9182
116.67827,39.91455,112,9182
116.67814,39.9144,113,9182
116.67797,39.91422,114,9182
116.6781,39.91432,115,9182
116.67813,39.91435,116,9182
116.6781,39.91434,117,9182
116.67784,39.91406,118,9182
116.67769,39.91396,119,9182
116.67787,39.91413,120,9182
116.67787,39.91414,121,9182
116.67767,39.91389,122,9182
116.67767,39.91393,123,9182
116.677,39.91335,124,9182
116.67802,39.91422,125,9182
116.67823,39.91443,126,9182
116.67816,39.91439,127,9182
116.67812,39.91435,128,9182
116.67812,39.91435,129,9182
116.67792,39.91414,130,9182
116.67791,39.91411,131,9182
116.67769,39.91401,132,9182
116.67852,39.91463,133,9182
116.67831,39.91448,134,9182
116.67795,39.91422,135,9182
116.67802,39.91426,136,9182
116.67809,39.9143,137,9182
116.67811,39.91431,138,9182
116.67812,39.91431,139,9182
116.67766,39.91422,140,9182
116.67792,39.91428,141,9182
116.67802,39.91429,142,9182
116.6782,39.91431,143,9182
116.67821,39.9143,144,9182
116.67794,39.91422,145,9182
116.67797,39.91415,146,9182
116.67807,39.91416,147,9182
116.6781,39.91416,148,9182
116.67805,39.91414,149,9182
116.67834,39.91434,150,9182
116.67789,39.91404,151,9182
116.67803,39.91389,152,9182
116.67803,39.91424,153,9182
116.678,39.91423,154,9182
116.67665,39.91316,155,9182
116.67665,39.91316,156,9182
116.67802,39.91425,157,9182
116.67813,39.91436,158,9182
116.67811,39.91439,159,9182
116.67803,39.91432,160,9182
116.67802,39.91429,161,9182
116.67801,39.91427,162,9182
116.67854,39.91466,163,9182
116.67755,39.91397,164,9182
116.678,39.91421,165,9182
116.67806,39.91426,166,9182
116.67809,39.9143,167,9182
116.67822,39.91434,168,9182
116.6782,39.91441,169,9182
116.67799,39.91438,170,9182
116.67795,39.91425,171,9182
116.67745,39.91395,172,9182
116.6787,39.91461,173,9182
116.67878,39.91466,174,9182
116.67889,39.91469,175,9182
116.67914,39.91492,176,9182
116.67817,39.91436,177,9182
116.67846,39.91443,178,9182
116.67849,39.91445,179,9182
116.67849,39.91445,180,9182
116.67848,39.91445,181,9182
116.67843,39.91444,182,9182
116.67843,39.91446,183,9182
116.6784,39.91446,184,9182
116.67837,39.91446,185,9182
116.67836,39.91446,186,9182
116.67841,39.91454,187,9182
116.6784,39.91453,188,9182
116.67844,39.91454,189,9182
116.67845,39.91454,190,9182
116.67714,39.91425,191,9182
116.67845,39.91453,192,9182
116.67775,39.91441,193,9182
116.67865,39.91448,194,9182
116.67777,39.9143,195,9182
116.67768,39.91445,196,9182
116.67766,39.91434,197,9182
116.67812,39.91453,198,9182
116.67816,39.91445,199,9182
116.67831,39.91448,200,9182
116.67825,39.91448,201,9182
116.67778,39.9143,202,9182
116.67782,39.91436,203,9182
116.678,39.91475,204,9182
116.67827,39.91455,205,9182
116.67235,39.91148,206,9182
116.67235,39.91148,207,9182
116.67758,39.91405,208,9182
116.67758,39.91405,209,9182
116.6813,39.91594,210,9182
116.67801,39.91445,211,9182
116.67801,39.91443,212,9182
116.67798,39.91442,213,9182
116.67847,39.91453,214,9182
116.68075,39.91501,215,9182
116.67631,39.91394,216,9182
116.67882,39.91469,217,9182
116.67882,39.91468,218,9182
116.67832,39.91451,219,9182
116.67802,39.91445,220,9182
116.67762,39.91427,221,9182
116.67786,39.91432,222,9182
116.67773,39.91431,223,9182
116.6778,39.91434,224,9182
116.63842,39.90575,225,9182
116.61092,39.90509,226,9182
116.59444,39.90992,227,9182
116.57908,39.91265,228,9182
116.55512,39.91501,229,9182
116.53783,39.91505,230,9182
116.53466,39.91707,231,9182
116.67746,39.91402,232,9182
116.67746,39.91402,233,9182
116.48799,39.91435,234,9182
116.48799,39.91435,235,9182
116.47202,39.92122,236,9182
116.44988,39.9324,237,9182
116.4374,39.93526,238,9182
116.43457,39.9353,239,9182
116.43519,39.93493,240,9182
116.44919,39.93232,241,9182
116.45122,39.92995,242,9182
116.42513,39.9485,243,9182
116.38111,39.9477,244,9182
116.37514,39.94788,245,9182
116.40211,39.94842,246,9182
116.39914,39.95782,247,9182
116.39914,39.95782,248,9182
116.39871,39.95674,249,9182
116.38996,39.96192,250,9182
116.38897,39.94997,251,9182
116.37293,39.94985,252,9182
116.373,39.93774,253,9182
116.37374,39.93197,254,9182
116.37369,39.93088,255,9182
116.37291,39.93963,256,9182
116.38695,39.94733,257,9182
116.39029,39.96179,258,9182
116.39029,39.96179,259,9182
116.39092,39.96178,260,9182
116.40117,39.97539,261,9182
116.39546,39.97315,262,9182
116.39586,39.97231,263,9182
116.4007,39.96759,264,9182
116.40199,39.94388,265,9182
116.40222,39.93969,266,9182
116.40251,39.93274,267,9182
116.39997,39.9243,268,9182
116.41396,39.92284,269,9182
116.42761,39.923,270,9182
116.4518,39.9103,271,9182
116.46026,39.90644,272,9182
116.46855,39.90662,273,9182
116.47038,39.91112,274,9182
116.47146,39.90569,275,9182
116.4714,39.90502,276,9182
116.47703,39.89917,277,9182
116.47996,39.8991,278,9182
116.48026,39.89872,279,9182
116.48024,39.89872,280,9182
116.48026,39.8984,281,9182
116.48341,39.88434,282,9182
116.49522,39.85944,283,9182
116.49523,39.85924,284,9182
116.49147,39.86993,285,9182
116.46501,39.87009,286,9182
116.44996,39.87605,287,9182
116.44988,39.87693,288,9182
116.45019,39.88313,289,9182
116.45106,39.88309,290,9182
116.47832,39.88301,291,9182
116.50505,39.87078,292,9182
116.52249,39.87964,293,9182
116.52249,39.87964,294,9182
116.54035,39.87986,295,9182
116.52161,39.88337,296,9182
116.52149,39.88645,297,9182
116.52337,39.90042,298,9182
116.51538,39.91513,299,9182
116.49607,39.91488,300,9182
116.48962,39.91459,301,9182
116.48306,39.90413,302,9182
116.48163,39.89937,303,9182
116.48,39.89926,304,9182
116.47987,39.89879,305,9182
116.48004,39.89916,306,9182
116.47996,39.89895,307,9182
116.47997,39.89874,308,9182
116.48007,39.89816,309,9182
116.48007,39.89816,310,9182
116.47176,39.90415,311,9182
116.46313,39.90711,312,9182
116.43025,39.9072,313,9182
116.4119,39.91062,314,9182
116.42037,39.91712,315,9182
116.42914,39.92292,316,9182
116.44096,39.92167,317,9182
116.46286,39.91513,318,9182
116.48134,39.91391,319,9182
116.51549,39.91402,320,9182
116.52728,39.91541,321,9182
116.54624,39.91464,322,9182
116.57057,39.91284,323,9182
116.5807,39.90465,324,9182
116.59819,39.90764,325,9182
116.62944,39.90492,326,9182
116.6515,39.9067,327,9182
116.66359,39.90731,328,9182
116.66359,39.90731,329,9182
116.68419,39.91366,330,9182
116.67848,39.91444,331,9182
116.67872,39.91471,332,9182
116.67861,39.91459,333,9182
116.67859,39.91443,334,9182
116.6785,39.91401,335,9182
116.67849,39.91408,336,9182
116.67849,39.91411,337,9182
116.6785,39.91411,338,9182
116.6785,39.91412,339,9182
116.66629,39.91316,340,9182
116.65278,39.92978,341,9182
116.66231,39.96111,342,9182
116.67918,39.98529,343,9182
116.68464,39.98532,344,9182
116.68433,39.98538,345,9182
116.69639,39.98572,346,9182
116.69987,39.98537,347,9182
116.69987,39.98538,348,9182
116.69987,39.98537,349,9182
116.69987,39.98536,350,9182
116.69987,39.98536,351,9182
116.69987,39.98536,352,9182
116.69987,39.98536,353,9182
116.69987,39.98536,354,9182
116.69988,39.98535,355,9182
116.69988,39.98535,356,9182
116.69987,39.98535,357,9182
116.69987,39.98535,358,9182
116.69987,39.98536,359,9182
116.69987,39.98536,360,9182
116.69987,39.98538,361,9182
116.69986,39.98538,362,9182
116.69986,39.98539,363,9182
116.69986,39.98539,364,9182
116.69986,39.98539,365,9182
116.69986,39.98539,366,9182
116.69986,39.98539,367,9182
116.69986,39.98539,368,9182
116.69986,39.98539,369,9182
116.69986,39.98539,370,9182
116.69986,39.98539,371,9182
116.69986,39.98539,372,9182
116.69986,39.98539,373,9182
116.69986,39.98539,374,9182
116.69986,39.98538,375,9182
116.69987,39.98538,376,9182
116.70007,39.9853,377,9182
116.69977,39.98533,378,9182
116.69972,39.98536,379,9182
116.69996,39.98537,380,9182
116.69974,39.98528,381,9182
116.69974,39.98529,382,9182
116.69972,39.98529,383,9182
116.69973,39.98528,384,9182
116.69974,39.98528,385,9182
116.69975,39.98529,386,9182
116.69976,39.9853,387,9182
116.69976,39.9853,388,9182
116.69981,39.98526,389,9182
116.7001,39.98526,390,9182
116.69969,39.98554,391,9182
116.69973,39.9855,392,9182
116.69977,39.98549,393,9182
116.69978,39.98548,394,9182
116.69957,39.98529,395,9182
116.69992,39.98543,396,9182
116.69991,39.98537,397,9182
116.69621,39.98305,398,9182
116.69722,39.95597,399,9182
116.6845,39.93999,400,9182
116.68125,39.92161,401,9182
116.6783,39.91444,402,9182
116.6783,39.91444,403,9182
116.67814,39.91479,404,9182
116.67815,39.91472,405,9182
116.67834,39.91413,406,9182
116.6783,39.91426,407,9182
116.67831,39.91435,408,9182
116.67822,39.91439,409,9182
116.67823,39.9144,410,9182
116.6782,39.91442,411,9182
116.67819,39.91444,412,9182
116.67818,39.91447,413,9182
116.67818,39.91447,414,9182
116.67818,39.91448,415,9182
116.67818,39.91448,416,9182
116.67817,39.91449,417,9182
116.67817,39.91449,418,9182
116.67816,39.9145,419,9182
116.67816,39.9145,420,9182
116.67815,39.91451,421,9182
116.67815,39.91448,422,9182
116.67814,39.91456,423,9182
116.6781,39.91457,424,9182
116.67807,39.91457,425,9182
116.67806,39.91457,426,9182
116.67807,39.91458,427,9182
116.67806,39.91458,428,9182
116.67806,39.91459,429,9182
116.67806,39.91459,430,9182
116.67806,39.9146,431,9182
116.67806,39.9146,432,9182
116.67805,39.9146,433,9182
116.67836,39.91446,434,9182
116.67809,39.91468,435,9182
116.67812,39.9147,436,9182
116.67811,39.91469,437,9182
116.67811,39.9147,438,9182
116.67811,39.91471,439,9182
116.67818,39.9148,440,9182
116.67815,39.91461,441,9182
116.67815,39.91466,442,9182
116.67805,39.91462,443,9182
116.6782,39.91436,444,9182
116.6782,39.91436,445,9182
116.67836,39.91415,446,9182
116.67757,39.91567,447,9182
116.6782,39.91452,448,9182
116.67817,39.91452,449,9182
116.6783,39.91372,450,9182
116.67824,39.91456,451,9182
116.67809,39.91501,452,9182
116.67792,39.91564,453,9182
116.6782,39.91447,454,9182
116.67823,39.91439,455,9182
116.67834,39.91437,456,9182
116.67819,39.9146,457,9182
116.67815,39.91466,458,9182
116.67811,39.91463,459,9182
116.67812,39.91456,460,9182
116.67817,39.9145,461,9182
116.67814,39.91447,462,9182
116.67807,39.91449,463,9182
116.67773,39.91525,464,9182
116.67798,39.91476,465,9182
116.67797,39.91476,466,9182
116.67801,39.91471,467,9182
116.67802,39.91469,468,9182
116.67803,39.91468,469,9182
116.67805,39.91467,470,9182
116.67806,39.91466,471,9182
116.67827,39.91455,472,9182
116.67826,39.91456,473,9182
116.67826,39.91456,474,9182
116.67825,39.91456,475,9182
116.67823,39.91456,476,9182
116.67822,39.91456,477,9182
116.6782,39.91456,478,9182
116.6782,39.91456,479,9182
116.6782,39.91456,480,9182
116.6782,39.91457,481,9182
116.67819,39.91457,482,9182
116.67819,39.91457,483,9182
116.67819,39.91456,484,9182
116.6782,39.91456,485,9182
116.67812,39.91457,486,9182
116.67816,39.91457,487,9182
116.67821,39.91455,488,9182
116.67819,39.9146,489,9182
116.6782,39.91416,490,9182
116.67832,39.91426,491,9182
116.67829,39.91431,492,9182
116.67577,39.91084,493,9182
116.57347,39.90961,494,9182
116.55033,39.90849,495,9182
116.51533,39.90721,496,9182
116.45027,39.90707,497,9182
116.42107,39.90711,498,9182
116.42067,39.90452,499,9182
116.43667,39.89256,500,9182
116.43923,39.89537,501,9182
116.42128,39.90715,502,9182
116.36574,39.90738,503,9182
116.36826,39.89432,504,9182
116.37503,39.88789,505,9182
116.38355,39.88293,506,9182
116.38355,39.88293,507,9182
116.38355,39.88293,508,9182
116.38433,39.88481,509,9182
116.4107,39.88668,510,9182
116.42386,39.88533,511,9182
116.41567,39.85751,512,9182
116.40796,39.85366,513,9182
116.40801,39.85356,514,9182
116.40629,39.85246,515,9182
116.41529,39.85582,516,9182
116.42203,39.867,517,9182
116.43762,39.87002,518,9182
116.42817,39.88287,519,9182
116.40666,39.88689,520,9182
116.38665,39.88324,521,9182
116.38665,39.88316,522,9182
116.4221,39.8858,523,9182
116.41799,39.89919,524,9182
116.41746,39.90236,525,9182
116.4332,39.89803,526,9182
116.4396,39.89907,527,9182
116.45206,39.89485,528,9182
116.45424,39.89353,529,9182
116.45223,39.89464,530,9182
116.5167,39.91602,531,9182
116.45918,39.89595,532,9182
116.46121,39.89704,533,9182
116.46121,39.89704,534,9182
116.45614,39.90767,535,9182
116.43213,39.90716,536,9182
116.43121,39.90694,537,9182
116.46528,39.90693,538,9182
116.48395,39.93501,539,9182
116.47494,39.96446,540,9182
116.48543,39.96309,541,9182
116.48341,39.93865,542,9182
116.47408,39.93243,543,9182
116.45762,39.93207,544,9182
116.45592,39.94485,545,9182
116.45361,39.94552,546,9182
116.46084,39.92224,547,9182
116.46594,39.91415,548,9182
116.47174,39.90757,549,9182
116.4834,39.90329,550,9182
116.47184,39.84101,551,9182
116.46659,39.84004,552,9182
116.465,39.83727,553,9182
116.45538,39.88794,554,9182
116.45579,39.90187,555,9182
116.45603,39.90673,556,9182
116.45603,39.90673,557,9182
116.44975,39.91078,558,9182
116.47069,39.90783,559,9182
116.47157,39.90662,560,9182
116.47155,39.90101,561,9182
116.47161,39.89932,562,9182
116.47806,39.89922,563,9182
116.48151,39.89891,564,9182
116.47376,39.89921,565,9182
116.47009,39.90715,566,9182
116.45868,39.90686,567,9182
116.45751,39.90715,568,9182
116.45674,39.90708,569,9182
116.45554,39.90726,570,9182
116.43236,39.89245,571,9182
116.42202,39.89262,572,9182
116.40854,39.89972,573,9182
116.39873,39.89936,574,9182
116.36959,39.89851,575,9182
116.35477,39.89814,576,9182
116.35569,39.90406,577,9182
116.35698,39.90298,578,9182
116.35721,39.91175,579,9182
116.35363,39.91518,580,9182
116.35411,39.91568,581,9182
116.35411,39.91568,582,9182
116.35442,39.91632,583,9182
116.35454,39.91637,584,9182
116.35343,39.91547,585,9182
116.34865,39.90788,586,9182
116.35372,39.91568,587,9182
116.35369,39.91552,588,9182
116.35252,39.91523,589,9182
116.35151,39.91447,590,9182
116.3523,39.91465,591,9182
116.3523,39.91465,592,9182
116.35405,39.91637,593,9182
116.35312,39.9159,594,9182
116.35351,39.91606,595,9182
116.35337,39.9157,596,9182
116.35368,39.91626,597,9182
116.3537,39.9161,598,9182
116.35404,39.91618,599,9182
116.35308,39.91564,600,9182
116.35201,39.916,601,9182
116.35318,39.91462,602,9182
116.37098,39.92409,603,9182
116.37357,39.92946,604,9182
116.3759,39.93159,605,9182
116.3759,39.93159,606,9182
116.39938,39.93206,607,9182
116.42578,39.93232,608,9182
116.44357,39.93226,609,9182
116.45516,39.92251,610,9182
116.45456,39.9136,611,9182
116.4591,39.91192,612,9182
116.46236,39.91233,613,9182
116.4443,39.91707,614,9182
116.44417,39.92474,615,9182
116.43493,39.92769,616,9182
116.43994,39.92394,617,9182
116.45124,39.92172,618,9182
116.45427,39.92058,619,9182
116.46658,39.91433,620,9182
116.47906,39.91402,621,9182
116.4984,39.91445,622,9182
116.52097,39.91551,623,9182
116.54013,39.91485,624,9182
116.55755,39.91491,625,9182
116.57788,39.91273,626,9182
116.58003,39.91223,627,9182
116.58003,39.91223,628,9182
116.59441,39.91069,629,9182
116.62124,39.91126,630,9182
116.62173,39.91046,631,9182
116.66041,39.92192,632,9182
116.68393,39.91522,633,9182
116.68393,39.91522,634,9182
116.67835,39.91418,635,9182
116.67836,39.91421,636,9182
116.6785,39.91423,637,9182
116.67833,39.91409,638,9182
116.67837,39.91427,639,9182
116.67835,39.91426,640,9182
116.67835,39.91425,641,9182
116.67835,39.91425,642,9182
116.67834,39.91423,643,9182
116.67833,39.91423,644,9182
116.67832,39.91422,645,9182
116.67832,39.91421,646,9182
116.67981,39.91251,647,9182
116.67981,39.91251,648,9182
116.67981,39.91251,649,9182
116.67981,39.91251,650,9182
116.67268,39.90884,651,9182
116.65633,39.9073,652,9182
116.64239,39.90612,653,9182
116.63992,39.90586,654,9182
116.61746,39.90552,655,9182
116.59479,39.90806,656,9182
116.59637,39.88987,657,9182
116.57837,39.89244,658,9182
116.57836,39.89245,659,9182
116.57835,39.89246,660,9182
116.57835,39.89246,661,9182
116.57834,39.89247,662,9182
116.57834,39.89247,663,9182
116.57835,39.89247,664,9182
116.57834,39.89247,665,9182
116.57834,39.89247,666,9182
116.57834,39.89247,667,9182
116.57834,39.89247,668,9182
116.57833,39.89247,669,9182
116.57828,39.89247,670,9182
116.57829,39.89247,671,9182
116.57829,39.89248,672,9182
116.5783,39.89249,673,9182
116.57831,39.89249,674,9182
116.57831,39.89249,675,9182
116.57833,39.89249,676,9182
116.57833,39.89249,677,9182
116.57843,39.89249,678,9182
116.57835,39.89248,679,9182
116.57835,39.89246,680,9182
116.57835,39.89247,681,9182
116.57835,39.89247,682,9182
116.57835,39.89247,683,9182
116.57836,39.89249,684,9182
116.57836,39.89249,685,9182
116.57835,39.89249,686,9182
116.57835,39.89249,687,9182
116.57835,39.89249,688,9182
116.57836,39.89249,689,9182
116.57836,39.89248,690,9182
116.57836,39.89249,691,9182
116.57836,39.89249,692,9182
116.57836,39.8925,693,9182
116.57836,39.8925,694,9182
116.57836,39.89251,695,9182
116.59309,39.88981,696,9182
116.60572,39.90014,697,9182
116.63109,39.9049,698,9182
116.65882,39.90727,699,9182
116.67862,39.91184,700,9182
116.67785,39.91418,701,9182
116.67782,39.91423,702,9182
116.67827,39.9147,703,9182
116.67779,39.91419,704,9182
116.67774,39.91422,705,9182
116.67793,39.91438,706,9182
116.67744,39.91393,707,9182
116.6779,39.91431,708,9182
116.67784,39.91431,709,9182
116.6779,39.91435,710,9182
116.67788,39.91434,711,9182
116.67788,39.91433,712,9182
116.67789,39.91432,713,9182
116.67788,39.91431,714,9182
116.67789,39.91432,715,9182
116.67788,39.91432,716,9182
116.67788,39.91433,717,9182
116.6779,39.91433,718,9182
116.67779,39.91443,719,9182
116.67779,39.91443,720,9182
116.67776,39.91439,721,9182
116.67776,39.91439,722,9182
116.67783,39.9144,723,9182
116.67775,39.91415,724,9182
116.67784,39.91428,725,9182
116.67789,39.9143,726,9182
116.67789,39.91429,727,9182
116.67788,39.91428,728,9182
116.67785,39.91429,729,9182
116.67783,39.91429,730,9182
116.67825,39.91442,731,9182
116.67802,39.91444,732,9182
116.67758,39.91429,733,9182
116.67758,39.91429,734,9182
116.67746,39.91398,735,9182
116.67741,39.91379,736,9182
116.67759,39.91471,737,9182
116.67769,39.91512,738,9182
116.67769,39.91511,739,9182
116.67779,39.91503,740,9182
116.67787,39.91483,741,9182
116.67777,39.91422,742,9182
116.67795,39.91437,743,9182
116.67796,39.91438,744,9182
116.67798,39.91439,745,9182
116.67795,39.91436,746,9182
116.67796,39.9144,747,9182
116.67856,39.91478,748,9182
116.67765,39.91424,749,9182
116.67792,39.91441,750,9182
116.67791,39.9144,751,9182
116.6779,39.91439,752,9182
116.67787,39.9144,753,9182
116.67788,39.91441,754,9182
116.67782,39.91436,755,9182
116.67787,39.91439,756,9182
116.67789,39.9144,757,9182
116.67791,39.91441,758,9182
116.67793,39.91442,759,9182
116.67796,39.91443,760,9182
116.67796,39.91443,761,9182
116.67796,39.91445,762,9182
116.67799,39.91445,763,9182
116.678,39.91446,764,9182
116.67925,39.91488,765,9182
116.67843,39.91462,766,9182
116.67821,39.91454,767,9182
116.67829,39.91457,768,9182
116.6778,39.91435,769,9182
116.67855,39.91466,770,9182
116.67802,39.9145,771,9182
116.67761,39.9143,772,9182
116.6779,39.91444,773,9182
116.67854,39.91492,774,9182
116.67788,39.91406,775,9182
116.67769,39.91418,776,9182
116.67749,39.9149,777,9182
116.67796,39.91484,778,9182
116.67786,39.91478,779,9182
116.67811,39.9146,780,9182
116.67788,39.91469,781,9182
116.67772,39.91467,782,9182
116.67813,39.91449,783,9182
116.67804,39.91447,784,9182
116.67804,39.91447,785,9182
116.67774,39.91436,786,9182
116.6778,39.91438,787,9182
116.67781,39.91437,788,9182
116.67781,39.91437,789,9182
116.67782,39.91433,790,9182
116.67788,39.91438,791,9182
116.67768,39.9143,792,9182
116.67747,39.9143,793,9182
116.68059,39.91507,794,9182
116.67845,39.91459,795,9182
116.67839,39.91458,796,9182
116.67839,39.91458,797,9182
116.67836,39.91458,798,9182
116.68013,39.91513,799,9182
116.68013,39.91513,800,9182
116.68013,39.91513,801,9182
116.67753,39.91431,802,9182
116.6788,39.91475,803,9182
116.6707,39.90807,804,9182
116.63876,39.90581,805,9182
116.61625,39.90565,806,9182
116.59555,39.90829,807,9182
116.56597,39.90887,808,9182
116.55159,39.90852,809,9182
116.55161,39.9085,810,9182
116.55154,39.90849,811,9182
116.55073,39.90842,812,9182
116.52493,39.90861,813,9182
116.56269,40.07011,814,9182
116.56446,40.07148,815,9182
116.5645,40.07142,816,9182
116.56451,40.07139,817,9182
116.56452,40.07137,818,9182
116.56452,40.07135,819,9182
116.56451,40.07133,820,9182
116.56451,40.07132,821,9182
116.56452,40.07132,822,9182
116.56452,40.07132,823,9182
116.56452,40.07132,824,9182
116.56453,40.07132,825,9182
116.56453,40.07132,826,9182
116.56453,40.07132,827,9182
116.56453,40.07132,828,9182
116.56453,40.07132,829,9182
116.56453,40.07132,830,9182
116.56453,40.07132,831,9182
116.56453,40.07132,832,9182
116.56453,40.07133,833,9182
116.56454,40.07133,834,9182
116.56429,40.07112,835,9182
116.56432,40.07116,836,9182
116.56456,40.07145,837,9182
116.56455,40.07142,838,9182
116.56455,40.07141,839,9182
116.56455,40.07139,840,9182
116.56454,40.07139,841,9182
116.56454,40.07139,842,9182
116.56454,40.07139,843,9182
116.56454,40.07139,844,9182
116.56454,40.07138,845,9182
116.56454,40.07137,846,9182
116.56454,40.07137,847,9182
116.56453,40.07136,848,9182
116.56453,40.07136,849,9182
116.56444,40.07129,850,9182
116.5628,40.06722,851,9182
116.56298,40.0667,852,9182
116.56298,40.06673,853,9182
116.56366,40.06436,854,9182
116.56667,40.06391,855,9182
116.56677,40.06389,856,9182
116.57345,40.06304,857,9182
116.57343,40.06301,858,9182
116.57343,40.06302,859,9182
116.57343,40.06302,860,9182
116.58213,40.06609,861,9182
116.58213,40.06605,862,9182
116.58153,40.0698,863,9182
116.5813,40.07088,864,9182
116.5813,40.07088,865,9182
116.58095,40.07247,866,9182
116.58231,40.07454,867,9182
116.58748,40.07727,868,9182
116.58748,40.07727,869,9182
116.58748,40.07727,870,9182
116.58748,40.07727,871,9182
116.57919,40.04716,872,9182
116.51172,40.01365,873,9182
116.46573,39.97262,874,9182
116.48367,39.92873,875,9182
116.44676,39.90254,876,9182
116.43748,39.87026,877,9182
116.41529,39.86606,878,9182
116.41529,39.86606,879,9182
116.41486,39.85789,880,9182
116.4155,39.85758,881,9182
116.38834,39.85575,882,9182
116.33974,39.84508,883,9182
116.33906,39.80602,884,9182
116.34034,39.80128,885,9182
116.33971,39.8237,886,9182
116.34109,39.82775,887,9182
116.38048,39.83019,888,9182
116.37822,39.83263,889,9182
116.3782,39.83262,890,9182
116.3782,39.83262,891,9182
116.37788,39.83267,892,9182
116.37809,39.83258,893,9182
116.37791,39.83296,894,9182
116.37806,39.83265,895,9182
116.3781,39.83261,896,9182
116.37811,39.83261,897,9182
116.37791,39.83282,898,9182
116.37797,39.83283,899,9182
116.378,39.83281,900,9182
116.37784,39.83274,901,9182
116.37772,39.83266,902,9182
116.37774,39.83267,903,9182
116.37774,39.83267,904,9182
116.37803,39.83273,905,9182
116.37272,39.84186,906,9182
116.37484,39.84895,907,9182
116.38066,39.85493,908,9182
116.38066,39.85493,909,9182
116.3814,39.87717,910,9182
116.38006,39.88209,911,9182
116.39266,39.88506,912,9182
116.41319,39.88622,913,9182
116.44865,39.89202,914,9182
116.45666,39.90642,915,9182
116.45666,39.90642,916,9182
116.47765,39.90675,917,9182
116.67806,39.91449,918,9182
116.67802,39.91445,919,9182
116.67796,39.91442,920,9182
116.67797,39.91443,921,9182
116.67798,39.91443,922,9182
116.67797,39.91441,923,9182
116.67795,39.91441,924,9182
116.67793,39.91441,925,9182
116.67791,39.91441,926,9182
116.6779,39.9144,927,9182
116.67787,39.91441,928,9182
116.67787,39.91441,929,9182
116.67786,39.9144,930,9182
116.67786,39.9144,931,9182
116.67786,39.9144,932,9182
116.67785,39.9144,933,9182
116.67765,39.91431,934,9182
116.67765,39.91439,935,9182
116.6776,39.91436,936,9182
116.67834,39.91455,937,9182
116.678,39.91444,938,9182
116.67747,39.9143,939,9182
116.67759,39.91433,940,9182
116.67761,39.91434,941,9182
116.67764,39.91417,942,9182
116.6776,39.91398,943,9182
116.67759,39.91406,944,9182
116.67745,39.91368,945,9182
116.67776,39.91366,946,9182
116.67778,39.91411,947,9182
116.67773,39.91433,948,9182
116.67782,39.91415,949,9182
116.67782,39.91406,950,9182
116.67789,39.91425,951,9182
116.67807,39.91444,952,9182
116.67779,39.91415,953,9182
116.6778,39.91413,954,9182
116.67786,39.9142,955,9182
116.67788,39.91425,956,9182
116.67787,39.91427,957,9182
116.67824,39.91455,958,9182
116.67824,39.91455,959,9182
116.67781,39.91435,960,9182
116.67788,39.91434,961,9182
116.67779,39.91434,962,9182
116.67776,39.91442,963,9182
116.6784,39.91474,964,9182
116.67813,39.91451,965,9182
116.67812,39.9145,966,9182
116.67813,39.9145,967,9182
116.67813,39.91449,968,9182
116.67813,39.9145,969,9182
116.67814,39.91451,970,9182
116.67812,39.9145,971,9182
116.67813,39.91451,972,9182
116.67792,39.91447,973,9182
116.67824,39.91454,974,9182
116.67899,39.9148,975,9182
116.67866,39.91494,976,9182
116.67854,39.91488,977,9182
116.67907,39.91529,978,9182
116.67699,39.91407,979,9182
116.6783,39.91493,980,9182
116.67749,39.91405,981,9182
116.67788,39.91402,982,9182
116.67782,39.91407,983,9182
116.67782,39.91407,984,9182
116.67753,39.91489,985,9182
116.67771,39.91437,986,9182
116.67813,39.91475,987,9182
116.67776,39.91473,988,9182
116.67831,39.91449,989,9182
116.67806,39.91448,990,9182
116.67776,39.91464,991,9182
116.67808,39.91446,992,9182
116.67746,39.91467,993,9182
116.67757,39.91463,994,9182
116.67793,39.91462,995,9182
116.67734,39.9147,996,9182
116.6775,39.91437,997,9182
116.67774,39.9143,998,9182
116.67774,39.91434,999,9182
116.67774,39.91435,1000,9182
116.67774,39.91436,1001,9182
116.67596,39.91429,1002,9182
116.67755,39.9143,1003,9182
116.67861,39.91468,1004,9182
116.67212,39.90866,1005,9182
116.63183,39.90499,1006,9182
116.58869,39.90846,1007,9182
116.5714,39.90943,1008,9182
116.5314,39.90864,1009,9182
116.52135,39.90849,1010,9182
116.48387,39.92908,1011,9182
116.47108,39.95307,1012,9182
116.46565,39.95119,1013,9182
116.46595,39.93968,1014,9182
116.48101,39.95647,1015,9182
116.49244,39.99609,1016,9182
116.56147,40.03257,1017,9182
116.58264,40.04997,1018,9182
116.58379,40.0595,1019,9182
116.58213,40.07005,1020,9182
116.58716,40.07703,1021,9182
116.58758,40.07727,1022,9182
116.58255,40.06924,1023,9182
116.58901,40.04584,1024,9182
116.58901,40.04584,1025,9182
116.57106,40.03594,1026,9182
116.54815,40.02623,1027,9182
116.56293,39.98984,1028,9182
116.57387,39.95611,1029,9182
116.5839,39.93108,1030,9182
116.6783,39.9146,1031,9182
116.58024,39.91863,1032,9182
116.55104,39.91489,1033,9182
116.54485,39.90848,1034,9182
116.54485,39.90848,1035,9182
116.50803,39.9068,1036,9182
116.67802,39.91437,1037,9182
116.67793,39.91445,1038,9182
116.67797,39.91452,1039,9182
116.67803,39.91448,1040,9182
116.67792,39.91452,1041,9182
116.67792,39.91451,1042,9182
116.67793,39.91451,1043,9182
116.67794,39.9145,1044,9182
116.67794,39.91451,1045,9182
116.67865,39.91455,1046,9182
116.67804,39.9144,1047,9182
116.67805,39.91439,1048,9182
116.67804,39.91439,1049,9182
116.67803,39.91439,1050,9182
116.67803,39.91438,1051,9182
116.67802,39.91438,1052,9182
116.67801,39.91438,1053,9182
116.67801,39.91437,1054,9182
116.678,39.91437,1055,9182
116.67799,39.91438,1056,9182
116.67799,39.91438,1057,9182
116.67799,39.91438,1058,9182
116.67799,39.91438,1059,9182
116.67781,39.9146,1060,9182
116.67786,39.91449,1061,9182
116.67751,39.9152,1062,9182
116.67781,39.9147,1063,9182
116.67793,39.91453,1064,9182
116.67745,39.91516,1065,9182
116.67846,39.91384,1066,9182
116.67883,39.91344,1067,9182
116.67801,39.91448,1068,9182
116.67787,39.91447,1069,9182
116.67771,39.91471,1070,9182
116.67776,39.9145,1071,9182
116.67793,39.91451,1072,9182
116.67749,39.91418,1073,9182
116.67805,39.91454,1074,9182
116.67789,39.91474,1075,9182
116.67797,39.91468,1076,9182
116.67802,39.91468,1077,9182
116.67802,39.91469,1078,9182
116.67802,39.9147,1079,9182
116.67826,39.91432,1080,9182
116.67791,39.91462,1081,9182
116.67791,39.91462,1082,9182
116.67805,39.91433,1083,9182
116.67804,39.91441,1084,9182
116.67802,39.91444,1085,9182
116.67801,39.91446,1086,9182
116.67801,39.91446,1087,9182
116.67801,39.91448,1088,9182
116.678,39.91448,1089,9182
116.678,39.91448,1090,9182
116.67799,39.91449,1091,9182
116.67798,39.91448,1092,9182
116.67798,39.91449,1093,9182
116.67797,39.91449,1094,9182
116.67797,39.91449,1095,9182
116.67796,39.91449,1096,9182
116.67796,39.91448,1097,9182
116.67796,39.91449,1098,9182
116.67795,39.91448,1099,9182
116.67792,39.91444,1100,9182
116.67778,39.91444,1101,9182
116.67781,39.91445,1102,9182
116.67783,39.91442,1103,9182
116.67842,39.91368,1104,9182
116.6777,39.91455,1105,9182
116.67776,39.91449,1106,9182
116.67782,39.91442,1107,9182
116.67786,39.91438,1108,9182
116.67804,39.91424,1109,9182
116.67803,39.91427,1110,9182
116.67792,39.9143,1111,9182
116.67807,39.91458,1112,9182
116.67789,39.91452,1113,9182
116.67789,39.91452,1114,9182
116.67789,39.91442,1115,9182
116.67789,39.91442,1116,9182
116.6781,39.91426,1117,9182
116.6781,39.91426,1118,9182
116.67794,39.91443,1119,9182
116.67797,39.91444,1120,9182
116.67797,39.91442,1121,9182
116.67797,39.91438,1122,9182
116.67787,39.91456,1123,9182
116.67795,39.9145,1124,9182
116.6781,39.91442,1125,9182
116.67773,39.91447,1126,9182
116.6779,39.91458,1127,9182
116.67789,39.91451,1128,9182
116.67815,39.9145,1129,9182
116.6781,39.91454,1130,9182
116.67797,39.91454,1131,9182
116.67825,39.91467,1132,9182
116.67825,39.91467,1133,9182
116.67798,39.91422,1134,9182
116.67799,39.91422,1135,9182
116.67799,39.91422,1136,9182
116.67798,39.91423,1137,9182
116.67796,39.91423,1138,9182
116.67806,39.91451,1139,9182
116.67809,39.91465,1140,9182
116.67798,39.91451,1141,9182
116.67799,39.91454,1142,9182
116.67789,39.91476,1143,9182
116.67794,39.91468,1144,9182
116.67795,39.91464,1145,9182
116.6778,39.91443,1146,9182
116.6778,39.91443,1147,9182
116.67794,39.91454,1148,9182
116.67793,39.91451,1149,9182
116.67794,39.91451,1150,9182
116.67796,39.91451,1151,9182
116.67798,39.91451,1152,9182
116.67801,39.91452,1153,9182
116.67802,39.91452,1154,9182
116.67801,39.91452,1155,9182
116.678,39.91452,1156,9182
116.67774,39.91431,1157,9182
116.67781,39.91435,1158,9182
116.67787,39.91437,1159,9182
116.67789,39.91439,1160,9182
116.6779,39.91441,1161,9182
116.67792,39.91442,1162,9182
116.67783,39.91447,1163,9182
116.67796,39.9145,1164,9182
116.67795,39.9145,1165,9182
116.67794,39.91448,1166,9182
116.67792,39.91448,1167,9182
116.67791,39.91448,1168,9182
116.67791,39.91449,1169,9182
116.67791,39.9145,1170,9182
116.67791,39.9145,1171,9182
116.67791,39.9145,1172,9182
116.67791,39.91451,1173,9182
116.67791,39.91452,1174,9182
116.67791,39.91452,1175,9182
116.67791,39.91453,1176,9182
116.67791,39.91453,1177,9182
116.67789,39.9142,1178,9182
116.67794,39.91424,1179,9182
116.6784,39.91409,1180,9182
116.67804,39.91448,1181,9182
116.67803,39.91447,1182,9182
116.67794,39.91438,1183,9182
116.67796,39.91438,1184,9182
116.67817,39.91454,1185,9182
116.67816,39.91454,1186,9182
116.67816,39.91455,1187,9182
116.67844,39.91465,1188,9182
116.67794,39.91452,1189,9182
116.67905,39.9147,1190,9182
116.67796,39.91449,1191,9182
116.67807,39.91444,1192,9182
116.67914,39.91455,1193,9182
116.67832,39.91453,1194,9182
116.6782,39.9145,1195,9182
116.67817,39.91447,1196,9182
116.67812,39.91445,1197,9182
116.6781,39.91444,1198,9182
116.67768,39.9145,1199,9182
116.67779,39.91459,1200,9182
116.67785,39.91456,1201,9182
116.67785,39.91456,1202,9182
116.67807,39.91415,1203,9182
116.67796,39.9144,1204,9182
116.67796,39.9144,1205,9182
116.67795,39.91439,1206,9182
116.67792,39.9145,1207,9182
116.6779,39.91453,1208,9182
116.67794,39.9145,1209,9182
116.67795,39.91447,1210,9182
116.67796,39.91446,1211,9182
116.67797,39.91445,1212,9182
116.67797,39.91445,1213,9182
116.67791,39.91459,1214,9182
116.67821,39.91429,1215,9182
116.6773,39.91446,1216,9182
116.67775,39.91474,1217,9182
116.67768,39.91474,1218,9182
116.67773,39.91471,1219,9182
116.6778,39.91454,1220,9182
116.67782,39.91454,1221,9182
116.67782,39.91451,1222,9182
116.67784,39.91455,1223,9182
116.67786,39.91456,1224,9182
116.67781,39.91454,1225,9182
116.67797,39.91435,1226,9182
116.67794,39.91445,1227,9182
116.67799,39.91408,1228,9182
116.67799,39.91408,1229,9182
116.67798,39.91457,1230,9182
116.67797,39.91461,1231,9182
116.67803,39.91408,1232,9182
116.67805,39.91418,1233,9182
116.67808,39.91448,1234,9182
116.67788,39.91471,1235,9182
116.67772,39.91474,1236,9182
116.67785,39.91439,1237,9182
116.67784,39.91443,1238,9182
116.67772,39.91464,1239,9182
116.67773,39.91444,1240,9182
116.67813,39.91444,1241,9182
116.67806,39.9144,1242,9182
116.67805,39.91439,1243,9182
116.67808,39.91418,1244,9182
116.67803,39.91427,1245,9182
116.67771,39.91438,1246,9182
116.67784,39.91438,1247,9182
116.67781,39.91446,1248,9182
116.67797,39.91451,1249,9182
116.67788,39.91457,1250,9182
116.67787,39.9146,1251,9182
116.67796,39.91429,1252,9182
116.67803,39.91415,1253,9182
116.67806,39.91416,1254,9182
116.6781,39.91447,1255,9182
116.67795,39.91489,1256,9182
116.6779,39.91483,1257,9182
116.6779,39.91483,1258,9182
116.6781,39.9144,1259,9182
116.67808,39.91446,1260,9182
116.67789,39.91469,1261,9182
116.67794,39.91448,1262,9182
116.67794,39.91453,1263,9182
116.67797,39.91458,1264,9182
116.67776,39.91479,1265,9182
116.6782,39.91452,1266,9182
116.67789,39.91464,1267,9182
116.67796,39.9146,1268,9182
116.67814,39.9142,1269,9182
116.67796,39.91437,1270,9182
116.67796,39.91437,1271,9182
116.67797,39.91436,1272,9182
116.66982,39.90774,1273,9182
116.65008,39.90687,1274,9182
116.60792,39.90536,1275,9182
116.67808,39.91428,1276,9182
116.58121,39.91233,1277,9182
116.54706,39.91477,1278,9182
116.51534,39.91412,1279,9182
116.50603,39.907,1280,9182
116.37521,39.92125,1281,9182
116.37435,39.92194,1282,9182
116.38442,39.93186,1283,9182
116.38527,39.9319,1284,9182
116.42431,39.93226,1285,9182
116.44824,39.93232,1286,9182
116.4508,39.92696,1287,9182
116.44436,39.94154,1288,9182
116.43831,39.95097,1289,9182
116.43828,39.95109,1290,9182
116.44377,39.94636,1291,9182
116.43069,39.93983,1292,9182
116.42899,39.90766,1293,9182
116.39217,39.90635,1294,9182
116.36321,39.90586,1295,9182
116.30847,39.90629,1296,9182
116.2755,39.90636,1297,9182
116.24769,39.9064,1298,9182
116.21534,39.9062,1299,9182
116.20668,39.90624,1300,9182
116.2193,39.90609,1301,9182
116.23816,39.9062,1302,9182
116.26743,39.90602,1303,9182
116.28452,39.90607,1304,9182
116.3114,39.90493,1305,9182
116.3131,39.9084,1306,9182
116.3473,39.90589,1307,9182
116.37999,39.90592,1308,9182
116.37999,39.90592,1309,9182
116.40074,39.89941,1310,9182
116.40074,39.89941,1311,9182
116.41874,39.89596,1312,9182
116.4328,39.89282,1313,9182
116.45022,39.88508,1314,9182
116.45232,39.89587,1315,9182
116.45326,39.89586,1316,9182
116.47059,39.90651,1317,9182
116.46723,39.90779,1318,9182
116.48324,39.914,1319,9182
116.49743,39.91445,1320,9182
116.52015,39.91149,1321,9182
116.5148,39.9039,1322,9182
116.5148,39.9039,1323,9182
116.51374,39.90382,1324,9182
116.54194,39.90767,1325,9182
116.54517,39.90786,1326,9182
116.52335,39.89964,1327,9182
116.48688,39.89209,1328,9182
116.48339,39.89066,1329,9182
116.48484,39.90472,1330,9182
116.7,39.98527,1331,9182
116.69999,39.98525,1332,9182
116.69996,39.98528,1333,9182
116.69996,39.98529,1334,9182
116.69996,39.9853,1335,9182
116.69995,39.98531,1336,9182
116.69994,39.98532,1337,9182
116.69994,39.98532,1338,9182
116.69993,39.98532,1339,9182
116.69993,39.98533,1340,9182
116.69993,39.98533,1341,9182
116.69993,39.98533,1342,9182
116.69993,39.98533,1343,9182
116.69993,39.98533,1344,9182
116.69998,39.98534,1345,9182
116.69994,39.98535,1346,9182
116.69967,39.98537,1347,9182
116.69969,39.98533,1348,9182
116.6997,39.98532,1349,9182
116.69971,39.98532,1350,9182
116.69972,39.98531,1351,9182
116.69973,39.98531,1352,9182
116.69974,39.98531,1353,9182
116.69975,39.98531,1354,9182
116.69976,39.98531,1355,9182
116.69666,39.97677,1356,9182
116.69485,39.94812,1357,9182
116.68336,39.92992,1358,9182
116.67999,39.91227,1359,9182
116.67999,39.91227,1360,9182
116.67818,39.91456,1361,9182
116.67814,39.91451,1362,9182
116.67817,39.91454,1363,9182
116.6782,39.91454,1364,9182
116.6782,39.91456,1365,9182
116.6782,39.91456,1366,9182
116.67842,39.91468,1367,9182
116.67842,39.91468,1368,9182
116.67842,39.91468,1369,9182
116.67842,39.91468,1370,9182
116.67855,39.91404,1371,9182
116.67826,39.91489,1372,9182
116.67843,39.91448,1373,9182
116.67854,39.91377,1374,9182
116.67829,39.91462,1375,9182
116.67839,39.91431,1376,9182
116.67846,39.91433,1377,9182
116.67846,39.91437,1378,9182
116.67845,39.91442,1379,9182
116.67845,39.91444,1380,9182
116.67844,39.91447,1381,9182
116.67843,39.91467,1382,9182
116.67835,39.91472,1383,9182
116.67835,39.91471,1384,9182
116.67838,39.91462,1385,9182
116.67837,39.91463,1386,9182
116.67836,39.91463,1387,9182
116.67837,39.91462,1388,9182
116.67837,39.91462,1389,9182
116.67837,39.91462,1390,9182
116.67835,39.91459,1391,9182
116.67831,39.91469,1392,9182
116.67837,39.91466,1393,9182
116.67838,39.91463,1394,9182
116.67838,39.91462,1395,9182
116.67842,39.91446,1396,9182
116.67831,39.91458,1397,9182
116.67841,39.91463,1398,9182
116.67822,39.91507,1399,9182
116.6783,39.91447,1400,9182
116.6789,39.91333,1401,9182
116.67914,39.91311,1402,9182
116.67873,39.91396,1403,9182
116.67925,39.91294,1404,9182
116.67925,39.91294,1405,9182
116.67811,39.91538,1406,9182
116.67855,39.91502,1407,9182
116.67909,39.91342,1408,9182
116.67867,39.91493,1409,9182
116.67837,39.91483,1410,9182
116.67831,39.91475,1411,9182
116.67831,39.91475,1412,9182
116.67823,39.91458,1413,9182
116.67823,39.91458,1414,9182
116.67825,39.91458,1415,9182
116.67835,39.91432,1416,9182
116.67843,39.91396,1417,9182
116.67868,39.91354,1418,9182
116.67836,39.91436,1419,9182
116.67838,39.91468,1420,9182
116.6783,39.91485,1421,9182
116.67848,39.91431,1422,9182
116.67851,39.91416,1423,9182
116.67841,39.91452,1424,9182
116.67841,39.9145,1425,9182
116.67841,39.9145,1426,9182
116.67841,39.91452,1427,9182
116.67841,39.91451,1428,9182
116.67842,39.91462,1429,9182
116.67841,39.91462,1430,9182
116.67845,39.91451,1431,9182
116.67842,39.91457,1432,9182
116.67843,39.91456,1433,9182
116.67842,39.91452,1434,9182
116.67843,39.91454,1435,9182
116.67851,39.91437,1436,9182
116.67833,39.91471,1437,9182
116.67834,39.91467,1438,9182
116.67828,39.91462,1439,9182
116.67822,39.91471,1440,9182
116.6782,39.91476,1441,9182
116.67821,39.91476,1442,9182
116.67821,39.91476,1443,9182
116.67825,39.91475,1444,9182
116.6785,39.91451,1445,9182
116.67828,39.91466,1446,9182
116.67828,39.91466,1447,9182
116.67834,39.91462,1448,9182
116.67833,39.91463,1449,9182
116.67832,39.91465,1450,9182
116.67833,39.91464,1451,9182
116.67837,39.91485,1452,9182
116.67837,39.91485,1453,9182
116.67847,39.91438,1454,9182
116.67845,39.91452,1455,9182
116.67845,39.91454,1456,9182
116.67844,39.91459,1457,9182
116.67843,39.91462,1458,9182
116.67842,39.91463,1459,9182
116.67842,39.91465,1460,9182
116.67843,39.91479,1461,9182
116.67844,39.91481,1462,9182
116.67842,39.91487,1463,9182
116.67842,39.91487,1464,9182
116.67842,39.91487,1465,9182
116.67834,39.9145,1466,9182
116.67837,39.91455,1467,9182
116.6785,39.9145,1468,9182
116.67849,39.9145,1469,9182
116.6785,39.91447,1470,9182
116.67839,39.91492,1471,9182
116.67836,39.91484,1472,9182
116.67826,39.91474,1473,9182
116.67826,39.91474,1474,9182
116.67848,39.91453,1475,9182
116.67848,39.91453,1476,9182
116.67843,39.91453,1477,9182
116.67839,39.91457,1478,9182
116.67836,39.91458,1479,9182
116.67838,39.91457,1480,9182
116.6784,39.91455,1481,9182
116.67852,39.91463,1482,9182
116.67834,39.91457,1483,9182
116.66307,39.90748,1484,9182
116.64126,39.90591,1485,9182
116.59534,39.90831,1486,9182
116.58105,39.90897,1487,9182
116.55856,39.90859,1488,9182
116.52797,39.90863,1489,9182
116.5106,39.9153,1490,9182
116.5102,39.91527,1491,9182
116.48348,39.91387,1492,9182
116.45544,39.90447,1493,9182
116.44992,39.87968,1494,9182
116.45878,39.87499,1495,9182
116.43714,39.89705,1496,9182
116.42771,39.93957,1497,9182
116.40627,39.941,1498,9182
116.40629,39.94099,1499,9182
116.41015,39.9476,1500,9182
116.43191,39.93958,1501,9182
116.44486,39.93221,1502,9182
116.69991,39.98528,1503,9182
116.69991,39.98528,1504,9182
116.45568,39.94843,1505,9182
116.43429,39.98232,1506,9182
116.40177,39.99725,1507,9182
116.40825,39.99904,1508,9182
116.40189,39.99726,1509,9182
116.40105,39.96634,1510,9182
116.40105,39.96634,1511,9182
116.40182,39.948,1512,9182
116.42848,39.92204,1513,9182
116.4231,39.90404,1514,9182
116.43921,39.90353,1515,9182
116.45516,39.90001,1516,9182
116.46111,39.89676,1517,9182
116.47169,39.9065,1518,9182
116.46963,39.91244,1519,9182
116.46783,39.91452,1520,9182
116.48316,39.9035,1521,9182
116.48133,39.89832,1522,9182
116.4891,39.89958,1523,9182
116.50707,39.89804,1524,9182
116.5047,39.89913,1525,9182
116.48434,39.89963,1526,9182
116.48325,39.87611,1527,9182
116.47131,39.88034,1528,9182
116.4557,39.88316,1529,9182
116.43982,39.88344,1530,9182
116.42872,39.91477,1531,9182
116.42649,39.9497,1532,9182
116.42524,39.95292,1533,9182
116.42532,39.95288,1534,9182
116.42593,39.9529,1535,9182
116.44517,39.95327,1536,9182
116.45513,39.92621,1537,9182
116.4694,39.92156,1538,9182
116.4694,39.92156,1539,9182
116.4694,39.92156,1540,9182
116.77233,40.22609,1541,9182
116.77233,40.22609,1542,9182
116.50934,39.91518,1543,9182
116.50565,39.91712,1544,9182
116.50426,39.91483,1545,9182
116.47256,39.91413,1546,9182
116.45523,39.91601,1547,9182
116.45335,39.90618,1548,9182
116.45517,39.9042,1549,9182
116.45202,39.89476,1550,9182
116.45566,39.89405,1551,9182
116.45579,39.91733,1552,9182
116.45732,39.92139,1553,9182
116.45565,39.92578,1554,9182
116.44105,39.96139,1555,9182
116.43884,39.96006,1556,9182
116.44327,39.95875,1557,9182
116.47116,39.97811,1558,9182
116.47315,39.99752,1559,9182
116.47375,40.00741,1560,9182
116.4729,39.99647,1561,9182
116.46946,39.97661,1562,9182
116.43909,39.95051,1563,9182
116.43334,39.93977,1564,9182
116.42872,39.9123,1565,9182
116.40609,39.9083,1566,9182
116.41243,39.90028,1567,9182
116.42953,39.8993,1568,9182
116.45469,39.89199,1569,9182
116.46722,39.8992,1570,9182
116.46793,39.89916,1571,9182
116.47126,39.89902,1572,9182
116.48149,39.89873,1573,9182
116.49867,39.89953,1574,9182
116.50476,39.89888,1575,9182
116.50476,39.89888,1576,9182
116.48404,39.89972,1577,9182
116.45904,39.90707,1578,9182
116.44429,39.92093,1579,9182
116.44262,39.92178,1580,9182
116.44415,39.91806,1581,9182
116.44401,39.9076,1582,9182
116.45521,39.90554,1583,9182
116.46005,39.89203,1584,9182
116.47088,39.88855,1585,9182
116.48013,39.89783,1586,9182
116.48318,39.89942,1587,9182
116.48431,39.89948,1588,9182
116.48353,39.89205,1589,9182
116.49192,39.87751,1590,9182
116.49217,39.87222,1591,9182
116.49178,39.87714,1592,9182
116.4621,39.88299,1593,9182
116.44097,39.88335,1594,9182
116.42172,39.89213,1595,9182
116.42172,39.89213,1596,9182
116.41257,39.89535,1597,9182
116.41237,39.89777,1598,9182
116.41472,39.87814,1599,9182
116.38445,39.87005,1600,9182
116.35835,39.86079,1601,9182
116.3618,39.85978,1602,9182
116.3586,39.85792,1603,9182
116.35832,39.86393,1604,9182
116.35806,39.86509,1605,9182
116.35838,39.8597,1606,9182
116.3581,39.86985,1607,9182
116.35764,39.87809,1608,9182
116.35759,39.88762,1609,9182
116.37459,39.88784,1610,9182
116.38087,39.88799,1611,9182
116.37868,39.88602,1612,9182
116.38037,39.88806,1613,9182
116.40746,39.89149,1614,9182
