x,y,k,tid
116.37286,39.95831,0,9262
116.3864,39.95171,1,9262
116.3864,39.95171,2,9262
116.38832,39.9501,3,9262
116.40298,39.9394,4,9262
116.42741,39.9395,5,9262
116.42741,39.9395,6,9262
116.41782,39.95277,7,9262
116.41782,39.95277,8,9262
116.41048,39.94287,9,9262
116.4026,39.93955,10,9262
116.39511,39.93944,11,9262
116.38595,39.9401,12,9262
116.36715,39.98649,13,9262
116.34936,39.99224,14,9262
116.34724,39.9862,15,9262
116.3234,39.96613,16,9262
116.31205,39.97318,17,9262
116.32128,39.98085,18,9262
116.32817,39.99141,19,9262
116.32376,39.98812,20,9262
116.32383,39.9885,21,9262
116.32345,39.98826,22,9262
116.32373,39.9887,23,9262
116.32374,39.98903,24,9262
116.32359,39.98829,25,9262
116.32333,39.98816,26,9262
116.32361,39.98825,27,9262
116.32368,39.98822,28,9262
116.32371,39.98818,29,9262
116.32397,39.98796,30,9262
116.32393,39.988,31,9262
116.32381,39.9881,32,9262
116.32379,39.98809,33,9262
116.32379,39.98809,34,9262
116.32375,39.98809,35,9262
116.32375,39.98809,36,9262
116.32374,39.98809,37,9262
116.32375,39.98809,38,9262
116.32388,39.98825,39,9262
116.32387,39.98826,40,9262
116.32343,39.98846,41,9262
116.32345,39.98821,42,9262
116.32363,39.98832,43,9262
116.3234,39.98808,44,9262
116.32322,39.988,45,9262
116.3236,39.9883,46,9262
116.32362,39.98831,47,9262
116.32409,39.98885,48,9262
116.32387,39.98881,49,9262
116.32351,39.98827,50,9262
116.3237,39.98813,51,9262
116.32386,39.98829,52,9262
116.32386,39.98825,53,9262
116.32386,39.98825,54,9262
116.32366,39.98818,55,9262
116.32372,39.98819,56,9262
116.32372,39.98818,57,9262
116.32371,39.98822,58,9262
116.32371,39.98822,59,9262
116.32369,39.98805,60,9262
116.32368,39.98808,61,9262
116.32336,39.98841,62,9262
116.32345,39.98836,63,9262
116.32349,39.98833,64,9262
116.32366,39.98825,65,9262
116.32336,39.98861,66,9262
116.32377,39.9883,67,9262
116.32378,39.98827,68,9262
116.32346,39.98827,69,9262
116.32365,39.98833,70,9262
116.32358,39.98813,71,9262
116.32362,39.9879,72,9262
116.32378,39.98836,73,9262
116.32374,39.9883,74,9262
116.32375,39.9883,75,9262
116.32374,39.98829,76,9262
116.32375,39.98828,77,9262
116.32376,39.98827,78,9262
116.32378,39.98827,79,9262
116.3238,39.98828,80,9262
116.32381,39.98829,81,9262
116.32382,39.98829,82,9262
116.32382,39.98829,83,9262
116.32383,39.98829,84,9262
116.32383,39.98829,85,9262
116.32384,39.98829,86,9262
116.32384,39.98829,87,9262
116.32384,39.98828,88,9262
116.32644,39.98924,89,9262
116.32844,39.99141,90,9262
116.32844,39.99141,91,9262
116.34712,39.99229,92,9262
116.34283,39.99513,93,9262
116.34726,39.98605,94,9262
116.32493,39.96622,95,9262
116.304,39.94108,96,9262
116.30407,39.91931,97,9262
116.30197,39.90704,98,9262
116.29063,39.90626,99,9262
116.27906,39.90621,100,9262
116.279,39.92403,101,9262
116.29424,39.92247,102,9262
116.30465,39.92891,103,9262
116.3037,39.95234,104,9262
116.30134,39.96674,105,9262
116.31923,39.97387,106,9262
116.32452,39.97497,107,9262
116.34054,39.96614,108,9262
116.34932,39.93786,109,9262
116.34978,39.92806,110,9262
116.36231,39.9226,111,9262
116.36811,39.92109,112,9262
116.37409,39.93157,113,9262
116.37322,39.94239,114,9262
116.40228,39.94771,115,9262
116.4192,39.95333,116,9262
116.41217,39.96055,117,9262
116.41196,39.96661,118,9262
116.4105,39.96801,119,9262
116.37354,39.98226,120,9262
116.37354,39.98226,121,9262
116.35449,40.01325,122,9262
116.34099,40.03073,123,9262
116.34832,40.03279,124,9262
116.3483,40.03279,125,9262
116.34829,40.03279,126,9262
116.34829,40.03279,127,9262
116.3483,40.03279,128,9262
116.3483,40.03278,129,9262
116.34829,40.03276,130,9262
116.3483,40.03276,131,9262
116.3483,40.03275,132,9262
116.3483,40.03274,133,9262
116.34838,40.03262,134,9262
116.34839,40.03264,135,9262
116.34839,40.03266,136,9262
116.34839,40.03267,137,9262
116.34838,40.03265,138,9262
116.34838,40.03265,139,9262
116.34836,40.03262,140,9262
116.34835,40.03262,141,9262
116.34834,40.03262,142,9262
116.34835,40.03261,143,9262
116.34834,40.0329,144,9262
116.34835,40.03292,145,9262
116.34838,40.03292,146,9262
116.34838,40.03292,147,9262
116.34809,40.03293,148,9262
116.3485,40.03311,149,9262
116.34841,40.03292,150,9262
116.34839,40.03292,151,9262
116.34839,40.03291,152,9262
116.34838,40.03289,153,9262
116.3483,40.03278,154,9262
116.3483,40.03275,155,9262
116.34829,40.03277,156,9262
116.34829,40.03277,157,9262
116.3483,40.03277,158,9262
116.3483,40.03276,159,9262
116.3483,40.03275,160,9262
116.3483,40.03274,161,9262
116.3483,40.03273,162,9262
116.34829,40.03273,163,9262
116.34828,40.03274,164,9262
116.34829,40.03274,165,9262
116.3483,40.03275,166,9262
116.34843,40.03305,167,9262
116.34843,40.03305,168,9262
116.34833,40.03267,169,9262
116.34851,40.03323,170,9262
116.34828,40.03271,171,9262
116.34834,40.03276,172,9262
116.34834,40.03277,173,9262
116.34836,40.03279,174,9262
116.34837,40.03278,175,9262
116.3481,40.03255,176,9262
116.34845,40.03284,177,9262
116.34845,40.03286,178,9262
116.34844,40.03286,179,9262
116.34842,40.03286,180,9262
116.34816,40.03278,181,9262
116.3481,40.03273,182,9262
116.34813,40.03266,183,9262
116.34815,40.03265,184,9262
116.34838,40.03278,185,9262
116.34835,40.03275,186,9262
116.34853,40.0334,187,9262
116.34827,40.03263,188,9262
116.3483,40.03262,189,9262
116.34831,40.03262,190,9262
116.34832,40.03261,191,9262
116.34834,40.03262,192,9262
116.34834,40.03261,193,9262
116.3484,40.03236,194,9262
116.34828,40.03282,195,9262
116.34836,40.03274,196,9262
116.34838,40.03274,197,9262
116.34838,40.03274,198,9262
116.34836,40.03275,199,9262
116.34835,40.03275,200,9262
116.34834,40.03274,201,9262
116.34834,40.03273,202,9262
116.34834,40.03274,203,9262
116.34833,40.03274,204,9262
116.34832,40.03275,205,9262
116.34814,40.03271,206,9262
116.34825,40.03279,207,9262
116.34833,40.03259,208,9262
116.34833,40.03259,209,9262
116.34824,40.0327,210,9262
116.34823,40.03274,211,9262
116.34827,40.03268,212,9262
116.34846,40.03213,213,9262
116.34836,40.03274,214,9262
116.34832,40.03259,215,9262
116.34842,40.03281,216,9262
116.34833,40.03279,217,9262
116.34831,40.03274,218,9262
116.34812,40.03273,219,9262
116.34831,40.03254,220,9262
116.34805,40.03295,221,9262
116.34826,40.03262,222,9262
116.34829,40.03262,223,9262
116.34831,40.03255,224,9262
116.34835,40.03266,225,9262
116.34837,40.03269,226,9262
116.34836,40.03267,227,9262
116.34834,40.03267,228,9262
116.34832,40.03268,229,9262
116.34733,40.02887,230,9262
116.34325,40.02825,231,9262
116.34593,40.01192,232,9262
116.34622,40.0084,233,9262
116.34675,39.98943,234,9262
116.34258,39.98757,235,9262
116.37223,39.98496,236,9262
116.39024,39.96716,237,9262
116.44867,39.95606,238,9262
116.45533,39.91779,239,9262
116.47153,39.90434,240,9262
116.4604,39.89938,241,9262
116.45577,39.90092,242,9262
116.45578,39.91718,243,9262
116.45485,39.91924,244,9262
116.45508,39.88776,245,9262
116.44518,39.87029,246,9262
116.44773,39.87488,247,9262
116.46164,39.87903,248,9262
116.47105,39.88305,249,9262
116.47151,39.89351,250,9262
116.47159,39.89557,251,9262
116.47148,39.8969,252,9262
116.47149,39.89876,253,9262
116.4597,39.89222,254,9262
116.45815,39.90267,255,9262
116.45567,39.92842,256,9262
116.44915,39.95582,257,9262
116.41317,39.96785,258,9262
116.39589,39.96765,259,9262
116.37496,39.97065,260,9262
116.37373,39.98222,261,9262
116.36373,39.99909,262,9262
116.363,39.99246,263,9262
116.34176,39.98573,264,9262
116.31089,39.98438,265,9262
116.30986,39.98274,266,9262
116.29895,39.98921,267,9262
116.29696,39.99611,268,9262
116.2918,39.99069,269,9262
116.27176,40.02535,270,9262
116.25745,40.03836,271,9262
116.2217,40.04157,272,9262
116.18712,40.03907,273,9262
116.18534,40.04064,274,9262
116.18534,40.04064,275,9262
116.18533,40.04063,276,9262
116.18532,40.04062,277,9262
116.18532,40.04061,278,9262
116.18533,40.0406,279,9262
116.18533,40.04059,280,9262
116.18553,40.04052,281,9262
116.18552,40.04052,282,9262
116.18528,40.04042,283,9262
116.18534,40.04068,284,9262
116.18538,40.0407,285,9262
116.18538,40.04073,286,9262
116.18555,40.04058,287,9262
116.18548,40.04064,288,9262
116.18545,40.04066,289,9262
116.18544,40.04065,290,9262
116.18542,40.0408,291,9262
116.18537,40.04071,292,9262
116.18535,40.04068,293,9262
116.18535,40.04066,294,9262
116.18534,40.04063,295,9262
116.18533,40.04062,296,9262
116.18533,40.04061,297,9262
116.18534,40.04062,298,9262
116.18534,40.04061,299,9262
116.18535,40.04061,300,9262
116.18535,40.04059,301,9262
116.18536,40.0406,302,9262
116.18536,40.0406,303,9262
116.18536,40.0406,304,9262
116.18536,40.0406,305,9262
116.18536,40.0406,306,9262
116.18536,40.0406,307,9262
116.18543,40.04087,308,9262
116.1854,40.04076,309,9262
116.18539,40.04074,310,9262
116.18538,40.04071,311,9262
116.18539,40.04068,312,9262
116.1854,40.04067,313,9262
116.1854,40.04066,314,9262
116.18541,40.04065,315,9262
116.18541,40.04065,316,9262
116.18541,40.04064,317,9262
116.18541,40.04064,318,9262
116.18435,40.04053,319,9262
116.20118,40.03989,320,9262
116.23862,40.04459,321,9262
116.26125,40.03682,322,9262
116.28436,40.03276,323,9262
116.31308,40.03606,324,9262
116.33117,40.02955,325,9262
116.3392,40.02949,326,9262
116.33966,40.01502,327,9262
116.33856,40.00628,328,9262
116.37129,39.98536,329,9262
116.40748,39.9869,330,9262
116.41103,39.9793,331,9262
116.41103,39.9793,332,9262
116.41154,39.96956,333,9262
116.4146,39.96769,334,9262
116.43059,39.96128,335,9262
116.43279,39.95337,336,9262
116.41951,39.95801,337,9262
116.41196,39.96455,338,9262
116.41169,39.96618,339,9262
116.41161,39.97172,340,9262
116.41804,39.98137,341,9262
116.42691,39.97602,342,9262
116.41851,39.98641,343,9262
116.41465,39.98809,344,9262
116.41417,39.98781,345,9262
116.3702,39.98626,346,9262
116.33521,39.98547,347,9262
116.3212,39.98164,348,9262
116.31559,39.97973,349,9262
116.30788,39.98021,350,9262
116.31099,39.97594,351,9262
116.31926,39.96567,352,9262
116.37411,39.96677,353,9262
116.42146,39.96799,354,9262
116.45545,39.94002,355,9262
116.45516,39.90868,356,9262
116.45434,39.90673,357,9262
116.45572,39.93242,358,9262
116.46114,39.95961,359,9262
116.47603,39.97316,360,9262
116.47721,39.98279,361,9262
116.47721,39.98279,362,9262
116.46189,39.9985,363,9262
116.45182,40.00205,364,9262
116.46157,40.00518,365,9262
116.42955,40.02053,366,9262
116.3684,40.02166,367,9262
116.35014,40.02048,368,9262
116.34873,40.03501,369,9262
116.34821,40.03275,370,9262
116.34821,40.03274,371,9262
116.34821,40.03273,372,9262
116.34804,40.0321,373,9262
116.34815,40.03253,374,9262
116.34813,40.03254,375,9262
116.34814,40.03255,376,9262
116.34813,40.0327,377,9262
116.34834,40.03284,378,9262
116.34834,40.03285,379,9262
116.34824,40.03267,380,9262
116.34829,40.03292,381,9262
116.34826,40.03281,382,9262
116.34824,40.03277,383,9262
116.34824,40.03276,384,9262
116.34825,40.03276,385,9262
116.34825,40.03276,386,9262
116.34827,40.03277,387,9262
116.34827,40.03279,388,9262
116.34841,40.03313,389,9262
116.34841,40.03313,390,9262
116.34828,40.03279,391,9262
116.34826,40.03277,392,9262
116.34826,40.03277,393,9262
116.34825,40.03276,394,9262
116.34826,40.03275,395,9262
116.34826,40.03274,396,9262
116.34826,40.03274,397,9262
116.34827,40.03273,398,9262
116.34827,40.03273,399,9262
116.34827,40.03273,400,9262
116.34828,40.03273,401,9262
116.34829,40.03272,402,9262
116.34829,40.03272,403,9262
116.3483,40.03272,404,9262
116.3483,40.03271,405,9262
116.3483,40.03271,406,9262
116.34831,40.03274,407,9262
116.34832,40.03274,408,9262
116.3482,40.03273,409,9262
116.34825,40.03235,410,9262
116.34827,40.0327,411,9262
116.34829,40.03272,412,9262
116.34829,40.03274,413,9262
116.34828,40.03273,414,9262
116.34829,40.03273,415,9262
116.34829,40.03297,416,9262
116.34828,40.03294,417,9262
116.34828,40.03294,418,9262
116.34813,40.0328,419,9262
116.34814,40.03281,420,9262
116.34831,40.03295,421,9262
116.34834,40.03293,422,9262
116.34832,40.03288,423,9262
116.34831,40.03284,424,9262
116.34833,40.03285,425,9262
116.34832,40.03284,426,9262
116.34823,40.03279,427,9262
116.34825,40.03278,428,9262
116.34825,40.03276,429,9262
116.34824,40.03275,430,9262
116.34824,40.03274,431,9262
116.34824,40.03274,432,9262
116.34824,40.03274,433,9262
116.34824,40.03273,434,9262
116.34825,40.03272,435,9262
116.34825,40.03272,436,9262
116.34829,40.03255,437,9262
116.34827,40.03262,438,9262
116.34826,40.03266,439,9262
116.34825,40.0327,440,9262
116.34824,40.03273,441,9262
116.34824,40.03275,442,9262
116.34821,40.03284,443,9262
116.34824,40.03287,444,9262
116.34831,40.03283,445,9262
116.34826,40.03274,446,9262
116.34827,40.03273,447,9262
116.34827,40.03273,448,9262
116.34837,40.03274,449,9262
116.34836,40.03272,450,9262
116.34835,40.03268,451,9262
116.34835,40.03271,452,9262
116.34834,40.03272,453,9262
116.34852,40.03266,454,9262
116.34827,40.03265,455,9262
116.34829,40.03276,456,9262
116.34831,40.0328,457,9262
116.34831,40.03282,458,9262
116.3483,40.03281,459,9262
116.34809,40.03265,460,9262
116.34813,40.03264,461,9262
116.34824,40.03263,462,9262
116.34825,40.03267,463,9262
116.34825,40.03269,464,9262
116.34827,40.03272,465,9262
116.34826,40.03272,466,9262
116.34829,40.03289,467,9262
116.34826,40.03264,468,9262
116.34823,40.03267,469,9262
116.34837,40.03255,470,9262
116.34829,40.03276,471,9262
116.34826,40.03274,472,9262
116.34826,40.03275,473,9262
116.34829,40.03257,474,9262
116.34826,40.03267,475,9262
116.34826,40.03273,476,9262
116.34826,40.03275,477,9262
116.34826,40.03275,478,9262
116.34825,40.03276,479,9262
116.34824,40.03277,480,9262
116.34824,40.03277,481,9262
116.34825,40.03276,482,9262
116.34825,40.03276,483,9262
116.34824,40.03275,484,9262
116.34823,40.03275,485,9262
116.34812,40.03287,486,9262
116.34817,40.03286,487,9262
116.34818,40.03279,488,9262
116.34817,40.03281,489,9262
116.34816,40.03283,490,9262
116.34835,40.03252,491,9262
116.34832,40.03231,492,9262
116.34833,40.03263,493,9262
116.34821,40.03254,494,9262
116.34823,40.03255,495,9262
116.34824,40.03253,496,9262
116.34824,40.03255,497,9262
116.34823,40.03257,498,9262
116.34812,40.03265,499,9262
116.34809,40.03263,500,9262
116.34322,40.0282,501,9262
116.33645,40.00835,502,9262
116.34448,40.00621,503,9262
116.34174,39.98541,504,9262
116.34174,39.98541,505,9262
116.29961,39.97917,506,9262
116.30087,39.96733,507,9262
116.30397,39.92938,508,9262
116.30397,39.92938,509,9262
116.30411,39.89999,510,9262
116.31407,39.89505,511,9262
116.31629,39.89538,512,9262
116.31634,39.8948,513,9262
116.31878,39.89202,514,9262
116.30928,39.88588,515,9262
116.30553,39.8711,516,9262
116.30731,39.86586,517,9262
116.30931,39.86647,518,9262
116.3053,39.8779,519,9262
116.3043,39.89798,520,9262
116.30422,39.90373,521,9262
116.30426,39.90583,522,9262
116.3042,39.93204,523,9262
116.30147,39.96477,524,9262
116.27705,40.00048,525,9262
116.26332,40.00814,526,9262
116.26058,40.02281,527,9262
116.27484,40.02154,528,9262
116.27605,40.02023,529,9262
116.28276,40.00158,530,9262
116.2874,39.9927,531,9262
116.22722,39.98136,532,9262
116.23994,39.97181,533,9262
116.25404,39.97038,534,9262
116.26896,39.9501,535,9262
116.26896,39.9501,536,9262
116.27501,39.94526,537,9262
116.28792,39.94659,538,9262
116.28531,39.94611,539,9262
116.30378,39.93305,540,9262
116.30406,39.89801,541,9262
116.31006,39.89537,542,9262
116.31418,39.89492,543,9262
116.31807,39.89557,544,9262
116.30585,39.9068,545,9262
116.30433,39.92677,546,9262
116.31366,39.92719,547,9262
116.30433,39.93315,548,9262
116.31049,39.95026,549,9262
116.31094,39.95057,550,9262
116.30252,39.9607,551,9262
116.29539,39.97421,552,9262
116.32942,39.9861,553,9262
116.32845,39.99146,554,9262
116.31688,39.98469,555,9262
116.31045,39.98021,556,9262
116.31121,39.9748,557,9262
116.32844,39.96063,558,9262
116.32098,39.98473,559,9262
116.32098,39.98473,560,9262
116.32103,39.99091,561,9262
116.32108,39.99096,562,9262
116.32116,39.99114,563,9262
116.32117,39.99104,564,9262
116.32096,39.98832,565,9262
116.32383,39.98832,566,9262
116.32383,39.98827,567,9262
116.3236,39.98831,568,9262
116.32362,39.98832,569,9262
116.32347,39.98798,570,9262
116.32373,39.98839,571,9262
116.32376,39.98842,572,9262
116.32384,39.98822,573,9262
116.32353,39.9883,574,9262
116.32356,39.98823,575,9262
116.32368,39.98818,576,9262
116.32375,39.98829,577,9262
116.32375,39.9883,578,9262
116.32375,39.98829,579,9262
116.32374,39.98828,580,9262
116.32372,39.98828,581,9262
116.32371,39.98827,582,9262
116.32371,39.98825,583,9262
116.3237,39.98825,584,9262
116.32371,39.98825,585,9262
116.32372,39.98826,586,9262
116.32354,39.98851,587,9262
116.32354,39.98851,588,9262
116.32369,39.98828,589,9262
116.32336,39.98794,590,9262
116.32342,39.98797,591,9262
116.32348,39.98797,592,9262
116.32391,39.98875,593,9262
116.32346,39.98795,594,9262
116.32121,39.98748,595,9262
116.3235,39.98828,596,9262
116.32388,39.98847,597,9262
116.32357,39.98811,598,9262
116.3236,39.98824,599,9262
116.32382,39.98835,600,9262
116.32352,39.98806,601,9262
116.32368,39.98821,602,9262
116.32371,39.98817,603,9262
116.3237,39.98818,604,9262
116.32368,39.98816,605,9262
116.32366,39.98816,606,9262
116.32367,39.98815,607,9262
116.32369,39.98818,608,9262
116.3237,39.98814,609,9262
116.3237,39.98815,610,9262
116.3235,39.98805,611,9262
116.32349,39.98816,612,9262
116.3235,39.98823,613,9262
116.32379,39.98843,614,9262
116.32379,39.98841,615,9262
116.32379,39.98841,616,9262
116.32378,39.9884,617,9262
116.3235,39.98823,618,9262
116.32353,39.98831,619,9262
116.32354,39.98838,620,9262
116.32361,39.98843,621,9262
116.32365,39.98841,622,9262
116.32368,39.98838,623,9262
116.32372,39.9883,624,9262
116.32376,39.98828,625,9262
116.32377,39.9883,626,9262
116.32377,39.98829,627,9262
116.32377,39.98829,628,9262
116.32378,39.98829,629,9262
116.32379,39.98829,630,9262
116.32379,39.98829,631,9262
116.32378,39.98829,632,9262
116.32378,39.98828,633,9262
116.32379,39.98828,634,9262
116.32378,39.98828,635,9262
116.32379,39.98828,636,9262
116.32379,39.98828,637,9262
116.32379,39.98828,638,9262
116.32379,39.98827,639,9262
116.32381,39.98808,640,9262
116.3303,39.99163,641,9262
116.33452,39.98477,642,9262
116.39275,39.97556,643,9262
116.39275,39.97556,644,9262
116.39043,39.96729,645,9262
116.36964,39.99266,646,9262
116.34904,40.02317,647,9262
116.34889,40.03172,648,9262
116.3482,40.03246,649,9262
116.34818,40.03247,650,9262
116.34819,40.03249,651,9262
116.34819,40.03249,652,9262
116.34769,40.03232,653,9262
116.34845,40.03284,654,9262
116.34813,40.0325,655,9262
116.34802,40.0323,656,9262
116.34798,40.03232,657,9262
116.34826,40.03271,658,9262
116.34642,40.03098,659,9262
116.34721,40.03165,660,9262
116.34809,40.03237,661,9262
116.34804,40.03241,662,9262
116.34804,40.03239,663,9262
116.34803,40.03238,664,9262
116.34803,40.03238,665,9262
116.34803,40.03238,666,9262
116.34807,40.03247,667,9262
116.34805,40.03245,668,9262
116.34806,40.03243,669,9262
116.34806,40.03243,670,9262
116.34806,40.03243,671,9262
116.34806,40.03243,672,9262
116.34806,40.03244,673,9262
116.34807,40.03243,674,9262
116.34803,40.03247,675,9262
116.34804,40.03245,676,9262
116.34806,40.03246,677,9262
116.34806,40.03246,678,9262
116.34798,40.03246,679,9262
116.34802,40.03245,680,9262
116.34806,40.03247,681,9262
116.3481,40.03247,682,9262
116.3481,40.03245,683,9262
116.34813,40.03244,684,9262
116.34822,40.03252,685,9262
116.34816,40.03247,686,9262
116.34815,40.03246,687,9262
116.34814,40.03245,688,9262
116.3481,40.03239,689,9262
116.34813,40.03237,690,9262
116.34814,40.03236,691,9262
116.34812,40.03236,692,9262
116.34803,40.03245,693,9262
116.34799,40.03246,694,9262
116.34797,40.03247,695,9262
116.34796,40.03247,696,9262
116.34835,40.03229,697,9262
116.34819,40.03235,698,9262
116.34816,40.03237,699,9262
116.34793,40.03248,700,9262
116.34796,40.0325,701,9262
116.34793,40.03245,702,9262
116.34794,40.03247,703,9262
116.34794,40.0328,704,9262
116.34792,40.03283,705,9262
116.34794,40.03267,706,9262
116.34809,40.0331,707,9262
116.348,40.03249,708,9262
116.34808,40.03262,709,9262
116.34805,40.03257,710,9262
116.34804,40.03255,711,9262
116.34799,40.03253,712,9262
116.34795,40.03254,713,9262
116.34828,40.0326,714,9262
116.34816,40.03254,715,9262
116.34772,40.03205,716,9262
116.34824,40.03252,717,9262
116.34813,40.03249,718,9262
116.34809,40.03249,719,9262
116.34823,40.03274,720,9262
116.34802,40.03248,721,9262
116.34802,40.03248,722,9262
116.34827,40.03259,723,9262
116.34818,40.03256,724,9262
116.34812,40.03254,725,9262
116.34814,40.03253,726,9262
116.34815,40.03253,727,9262
116.34816,40.03253,728,9262
116.34795,40.0325,729,9262
116.34819,40.03254,730,9262
116.34832,40.03248,731,9262
116.34785,40.03238,732,9262
116.34789,40.03232,733,9262
116.34803,40.03259,734,9262
116.34802,40.03258,735,9262
116.34939,40.03272,736,9262
116.34853,40.03261,737,9262
116.34823,40.03255,738,9262
116.34819,40.03256,739,9262
116.34818,40.03258,740,9262
116.34803,40.03261,741,9262
116.34819,40.03267,742,9262
116.34795,40.03253,743,9262
116.34818,40.0326,744,9262
116.34828,40.03259,745,9262
116.348,40.03248,746,9262
116.34808,40.0325,747,9262
116.34809,40.0325,748,9262
116.34785,40.03252,749,9262
116.3482,40.03254,750,9262
116.34818,40.03252,751,9262
116.34819,40.03253,752,9262
116.3482,40.03254,753,9262
116.34798,40.03239,754,9262
116.34798,40.03242,755,9262
116.34793,40.03244,756,9262
116.34976,40.03315,757,9262
116.34752,40.03246,758,9262
116.34703,40.03216,759,9262
116.34797,40.03241,760,9262
116.34796,40.03242,761,9262
116.34794,40.03243,762,9262
116.34791,40.03243,763,9262
116.34796,40.03248,764,9262
116.34791,40.03245,765,9262
116.34796,40.03246,766,9262
116.3485,40.03263,767,9262
116.3482,40.03256,768,9262
116.34815,40.03252,769,9262
116.34813,40.0325,770,9262
116.34813,40.0325,771,9262
116.34786,40.03239,772,9262
116.34796,40.03246,773,9262
116.34797,40.03246,774,9262
116.34797,40.03246,775,9262
116.34797,40.03245,776,9262
116.34796,40.03245,777,9262
116.34839,40.03269,778,9262
116.34891,40.02911,779,9262
116.33833,40.01207,780,9262
116.33589,40.00633,781,9262
116.32867,39.99163,782,9262
116.32118,39.98462,783,9262
116.32537,39.97973,784,9262
116.32787,39.96728,785,9262
116.30359,39.94423,786,9262
116.27783,39.94895,787,9262
116.27852,39.9489,788,9262
116.30036,39.94237,789,9262
116.30646,39.92245,790,9262
116.30511,39.92342,791,9262
116.29598,39.93109,792,9262
116.2784,39.92673,793,9262
116.28219,39.92356,794,9262
116.31755,39.9223,795,9262
116.33989,39.92196,796,9262
116.36617,39.92255,797,9262
116.38367,39.92081,798,9262
116.40456,39.92286,799,9262
116.4306,39.92311,800,9262
116.41973,39.93517,801,9262
116.40871,39.93955,802,9262
116.40871,39.93955,803,9262
116.39007,39.93912,804,9262
116.37373,39.94774,805,9262
116.36427,39.96471,806,9262
116.35953,39.97026,807,9262
116.34849,39.97361,808,9262
116.34852,39.97357,809,9262
116.34818,39.97466,810,9262
116.32899,39.97531,811,9262
116.32133,39.98113,812,9262
116.32185,39.99128,813,9262
116.32679,39.9887,814,9262
116.31571,39.98694,815,9262
116.31869,39.98801,816,9262
116.32373,39.98817,817,9262
116.32376,39.98822,818,9262
116.32405,39.98843,819,9262
116.34047,39.99171,820,9262
116.35746,39.98568,821,9262
116.37278,39.95359,822,9262
116.38178,39.94743,823,9262
116.42749,39.93836,824,9262
116.44614,39.93223,825,9262
116.44929,39.93922,826,9262
116.44048,39.94896,827,9262
116.44048,39.94896,828,9262
116.44048,39.94896,829,9262
116.40178,39.96763,830,9262
116.36408,39.96348,831,9262
116.34872,39.95486,832,9262
116.34872,39.95486,833,9262
116.34978,39.92446,834,9262
116.35038,39.91261,835,9262
116.35008,39.89867,836,9262
116.33686,39.90307,837,9262
116.3386,39.92159,838,9262
116.33779,39.92964,839,9262
116.33626,39.94087,840,9262
116.32824,39.96573,841,9262
116.32731,39.98137,842,9262
116.32483,39.98861,843,9262
116.32357,39.98877,844,9262
116.32384,39.98831,845,9262
116.32382,39.98828,846,9262
116.32382,39.98832,847,9262
116.32383,39.98831,848,9262
116.32385,39.9883,849,9262
116.32385,39.9883,850,9262
116.32385,39.98832,851,9262
116.32391,39.98809,852,9262
116.32397,39.98809,853,9262
116.3238,39.98852,854,9262
116.32391,39.98833,855,9262
116.32375,39.98842,856,9262
116.32383,39.98848,857,9262
116.32361,39.98844,858,9262
116.32381,39.98824,859,9262
116.32368,39.98806,860,9262
116.32364,39.98812,861,9262
116.32343,39.98798,862,9262
116.3236,39.98817,863,9262
116.3236,39.98817,864,9262
116.32363,39.9882,865,9262
116.32366,39.98823,866,9262
116.32367,39.98828,867,9262
116.32337,39.98823,868,9262
116.32395,39.98833,869,9262
116.32393,39.98833,870,9262
116.32359,39.98829,871,9262
116.32382,39.98834,872,9262
116.32383,39.98827,873,9262
116.32372,39.98814,874,9262
116.32374,39.98815,875,9262
116.32383,39.98827,876,9262
116.32385,39.9883,877,9262
116.32387,39.98832,878,9262
116.32385,39.9883,879,9262
116.32386,39.98832,880,9262
116.32413,39.98836,881,9262
116.32358,39.98853,882,9262
116.324,39.98836,883,9262
116.32379,39.98851,884,9262
116.32372,39.98847,885,9262
116.32371,39.98846,886,9262
116.32372,39.9885,887,9262
116.32357,39.98839,888,9262
116.32381,39.98842,889,9262
116.3238,39.98844,890,9262
116.3238,39.98842,891,9262
116.3238,39.98842,892,9262
116.32385,39.9885,893,9262
116.32388,39.98851,894,9262
116.32388,39.9885,895,9262
116.32388,39.98851,896,9262
116.32389,39.98851,897,9262
116.32401,39.98847,898,9262
116.32401,39.98842,899,9262
116.32397,39.98863,900,9262
116.32391,39.98846,901,9262
116.32395,39.98835,902,9262
116.32395,39.98836,903,9262
116.32395,39.98836,904,9262
116.32394,39.98836,905,9262
116.32388,39.98833,906,9262
116.32389,39.98835,907,9262
116.32389,39.98836,908,9262
116.32388,39.98837,909,9262
116.32379,39.98832,910,9262
116.3239,39.98834,911,9262
116.32387,39.98833,912,9262
116.32386,39.98859,913,9262
116.32388,39.98835,914,9262
116.3239,39.98835,915,9262
116.32185,39.9882,916,9262
116.36158,39.98577,917,9262
116.35772,40.00872,918,9262
116.35045,40.02898,919,9262
116.35023,40.03213,920,9262
116.35023,40.03213,921,9262
116.35002,40.03197,922,9262
116.34314,40.03762,923,9262
116.33798,40.03872,924,9262
116.33564,40.03785,925,9262
116.33726,40.02967,926,9262
116.33674,40.02952,927,9262
116.33674,40.02952,928,9262
116.33675,40.02935,929,9262
116.33674,40.02938,930,9262
116.33673,40.02938,931,9262
116.33674,40.02938,932,9262
116.33675,40.02938,933,9262
116.33676,40.02938,934,9262
116.33676,40.02939,935,9262
116.33677,40.02939,936,9262
116.33677,40.02939,937,9262
116.33677,40.02938,938,9262
116.33649,40.0291,939,9262
116.33659,40.02921,940,9262
116.33663,40.02925,941,9262
116.33666,40.02928,942,9262
116.33667,40.0293,943,9262
116.3406,40.02973,944,9262
116.34825,40.0323,945,9262
116.34814,40.03251,946,9262
116.34816,40.03251,947,9262
116.34816,40.03252,948,9262
116.34817,40.03253,949,9262
116.34817,40.03253,950,9262
116.34817,40.03253,951,9262
116.34817,40.03254,952,9262
116.34817,40.03255,953,9262
116.34817,40.03256,954,9262
116.34817,40.03259,955,9262
116.34816,40.03258,956,9262
116.34816,40.03259,957,9262
116.34811,40.03245,958,9262
116.34809,40.03263,959,9262
116.34812,40.03266,960,9262
116.34822,40.03287,961,9262
116.34813,40.03281,962,9262
116.34813,40.03275,963,9262
116.34816,40.03276,964,9262
116.34815,40.0327,965,9262
116.34823,40.03276,966,9262
116.34819,40.03274,967,9262
116.34818,40.03275,968,9262
116.34816,40.03275,969,9262
116.34816,40.03274,970,9262
116.34815,40.03274,971,9262
116.34815,40.03273,972,9262
116.34816,40.03272,973,9262
116.34816,40.03271,974,9262
116.34816,40.03271,975,9262
116.34816,40.0327,976,9262
116.34817,40.0327,977,9262
116.34818,40.03269,978,9262
116.34818,40.03268,979,9262
116.34819,40.03267,980,9262
116.34819,40.03267,981,9262
116.34819,40.03266,982,9262
116.34819,40.03266,983,9262
116.34819,40.03266,984,9262
116.34814,40.03272,985,9262
116.34814,40.03272,986,9262
116.34815,40.03274,987,9262
116.34815,40.03276,988,9262
116.34815,40.03277,989,9262
116.34816,40.03277,990,9262
116.34815,40.03277,991,9262
116.34812,40.03277,992,9262
116.34813,40.03276,993,9262
116.34825,40.03278,994,9262
116.34822,40.03278,995,9262
116.34822,40.03273,996,9262
116.34792,40.03248,997,9262
116.3482,40.03266,998,9262
116.34809,40.03265,999,9262
116.34817,40.03281,1000,9262
116.34817,40.03281,1001,9262
116.34817,40.0329,1002,9262
116.34815,40.03287,1003,9262
116.34814,40.03283,1004,9262
116.34815,40.03282,1005,9262
116.34814,40.0328,1006,9262
116.34801,40.03264,1007,9262
116.34816,40.03271,1008,9262
116.34817,40.03272,1009,9262
116.34818,40.03271,1010,9262
116.34818,40.03271,1011,9262
116.34817,40.03271,1012,9262
116.34817,40.0327,1013,9262
116.34817,40.0327,1014,9262
116.34817,40.0327,1015,9262
116.34817,40.0327,1016,9262
116.34817,40.0327,1017,9262
116.34817,40.03269,1018,9262
116.34817,40.03269,1019,9262
116.34818,40.03269,1020,9262
116.34817,40.03269,1021,9262
116.34817,40.03269,1022,9262
116.34817,40.03269,1023,9262
116.34817,40.03269,1024,9262
116.34818,40.03268,1025,9262
116.34815,40.03289,1026,9262
116.34812,40.03283,1027,9262
116.34812,40.03283,1028,9262
116.34809,40.0328,1029,9262
116.34807,40.03279,1030,9262
116.34806,40.0328,1031,9262
116.34806,40.03282,1032,9262
116.34812,40.0328,1033,9262
116.34813,40.03272,1034,9262
116.3481,40.03276,1035,9262
116.34812,40.03275,1036,9262
116.34812,40.03274,1037,9262
116.34813,40.03274,1038,9262
116.34813,40.03273,1039,9262
116.34825,40.03276,1040,9262
116.34815,40.03258,1041,9262
116.34819,40.03266,1042,9262
116.34817,40.03263,1043,9262
116.34817,40.03261,1044,9262
116.34816,40.03261,1045,9262
116.34821,40.03236,1046,9262
116.34809,40.03269,1047,9262
116.34812,40.03267,1048,9262
116.34823,40.03255,1049,9262
116.34821,40.03264,1050,9262
116.34812,40.03266,1051,9262
116.34814,40.03266,1052,9262
116.34816,40.03268,1053,9262
116.34815,40.03269,1054,9262
116.34815,40.03269,1055,9262
116.34769,40.02881,1056,9262
116.34551,40.02002,1057,9262
116.34146,40.00637,1058,9262
116.33692,40.00901,1059,9262
116.34281,40.00353,1060,9262
116.35882,39.99371,1061,9262
116.35913,39.99031,1062,9262
116.35386,39.98624,1063,9262
116.32125,39.99057,1064,9262
116.34576,39.98529,1065,9262
116.41591,39.98738,1066,9262
116.46604,39.97229,1067,9262
116.46811,39.97414,1068,9262
116.52261,40.0183,1069,9262
116.57992,40.04727,1070,9262
116.58677,40.07788,1071,9262
116.58028,40.07627,1072,9262
116.56386,40.06129,1073,9262
116.53754,40.05545,1074,9262
116.52671,40.03916,1075,9262
116.49235,40.02177,1076,9262
116.46466,40.02126,1077,9262
116.48868,40.0186,1078,9262
116.46472,40.02046,1079,9262
116.4609,40.01528,1080,9262
116.46173,39.99485,1081,9262
116.45178,39.9833,1082,9262
116.46209,39.99711,1083,9262
116.4497,39.99573,1084,9262
116.43382,39.98915,1085,9262
116.43141,39.98761,1086,9262
116.48063,39.98532,1087,9262
116.54111,40.02508,1088,9262
116.58305,40.06382,1089,9262
116.58177,40.07933,1090,9262
116.57518,40.06291,1091,9262
116.54987,40.06414,1092,9262
116.53256,40.05008,1093,9262
116.52745,40.04049,1094,9262
116.50245,40.02247,1095,9262
116.46711,40.02288,1096,9262
116.4619,40.01932,1097,9262
116.46236,40.01206,1098,9262
116.46357,40.01946,1099,9262
116.4969,40.02204,1100,9262
116.50534,40.02477,1101,9262
116.50547,40.02325,1102,9262
116.50543,40.02325,1103,9262
116.50544,40.02325,1104,9262
116.50528,40.02544,1105,9262
116.5144,40.03165,1106,9262
116.51373,40.03115,1107,9262
116.49777,40.03247,1108,9262
116.48788,40.02122,1109,9262
0.0,0.0,1110,9262
116.46157,40.01923,1111,9262
116.42963,40.02072,1112,9262
116.42963,40.02072,1113,9262
116.40246,40.02094,1114,9262
116.39488,40.00244,1115,9262
116.37822,39.98659,1116,9262
116.3469,39.97187,1117,9262
116.33486,39.93708,1118,9262
116.29677,39.94376,1119,9262
116.26781,39.94567,1120,9262
116.25956,39.94615,1121,9262
116.27,39.95591,1122,9262
116.28437,39.9783,1123,9262
116.31141,39.97478,1124,9262
116.31916,39.9842,1125,9262
116.3226,39.9883,1126,9262
116.31051,39.98013,1127,9262
116.3094,39.98393,1128,9262
116.29899,39.9893,1129,9262
116.29862,39.99169,1130,9262
116.27942,40.01702,1131,9262
116.26922,40.02882,1132,9262
116.29951,40.03367,1133,9262
116.30846,40.03597,1134,9262
116.3012,40.03428,1135,9262
116.26803,40.03149,1136,9262
116.24143,40.04528,1137,9262
116.23533,40.0612,1138,9262
116.23694,40.0454,1139,9262
116.20636,40.03898,1140,9262
116.2021,40.03966,1141,9262
116.2021,40.03966,1142,9262
116.20207,40.03965,1143,9262
116.20151,40.03997,1144,9262
116.18535,40.04058,1145,9262
116.18542,40.04066,1146,9262
116.18542,40.04067,1147,9262
116.18543,40.04067,1148,9262
116.18543,40.04068,1149,9262
116.18542,40.04067,1150,9262
116.18542,40.04066,1151,9262
116.18541,40.04066,1152,9262
116.18541,40.04065,1153,9262
116.1943,40.03944,1154,9262
116.20202,40.03952,1155,9262
116.20203,40.03952,1156,9262
116.2018,40.03963,1157,9262
116.19181,40.03896,1158,9262
116.18529,40.04054,1159,9262
116.18528,40.04055,1160,9262
116.18525,40.0406,1161,9262
116.18524,40.04061,1162,9262
116.18524,40.0406,1163,9262
116.18525,40.04059,1164,9262
116.18527,40.04069,1165,9262
116.18525,40.04068,1166,9262
116.18526,40.04066,1167,9262
116.18526,40.04064,1168,9262
116.18529,40.04064,1169,9262
116.18531,40.04063,1170,9262
116.18531,40.04062,1171,9262
116.18531,40.04062,1172,9262
116.18532,40.0406,1173,9262
116.18534,40.04058,1174,9262
116.18535,40.04058,1175,9262
116.18535,40.04058,1176,9262
116.18535,40.04058,1177,9262
116.18536,40.04058,1178,9262
116.18536,40.04058,1179,9262
116.18536,40.04058,1180,9262
116.18536,40.04057,1181,9262
116.18536,40.04057,1182,9262
116.18537,40.04057,1183,9262
116.18537,40.04057,1184,9262
116.18538,40.04059,1185,9262
116.18538,40.04057,1186,9262
116.18537,40.04056,1187,9262
116.18554,40.04056,1188,9262
116.18528,40.04053,1189,9262
116.18529,40.04052,1190,9262
116.18541,40.04051,1191,9262
116.18535,40.04052,1192,9262
116.18549,40.04051,1193,9262
116.18541,40.04043,1194,9262
116.18541,40.04045,1195,9262
116.18539,40.04047,1196,9262
116.18536,40.04049,1197,9262
116.18535,40.04051,1198,9262
116.18535,40.04051,1199,9262
116.18535,40.04051,1200,9262
116.18535,40.04051,1201,9262
116.18535,40.04051,1202,9262
116.18535,40.04052,1203,9262
116.18535,40.04052,1204,9262
116.18535,40.04053,1205,9262
116.18535,40.04053,1206,9262
116.18535,40.04054,1207,9262
116.18535,40.04055,1208,9262
116.18535,40.04055,1209,9262
116.18535,40.04056,1210,9262
116.18535,40.04056,1211,9262
116.18534,40.04056,1212,9262
116.18534,40.04056,1213,9262
116.18534,40.04057,1214,9262
116.18535,40.04056,1215,9262
116.18535,40.04056,1216,9262
116.18535,40.04056,1217,9262
116.18535,40.04056,1218,9262
116.18536,40.04056,1219,9262
116.18536,40.04056,1220,9262
116.18536,40.04056,1221,9262
116.18536,40.04056,1222,9262
116.18536,40.04057,1223,9262
116.18537,40.04057,1224,9262
116.18537,40.04057,1225,9262
116.18537,40.04057,1226,9262
116.18537,40.04057,1227,9262
116.18537,40.04057,1228,9262
116.18537,40.04057,1229,9262
116.18537,40.04056,1230,9262
116.18537,40.04056,1231,9262
116.18537,40.04056,1232,9262
116.18537,40.04056,1233,9262
116.18537,40.04056,1234,9262
116.18537,40.04057,1235,9262
116.18538,40.04034,1236,9262
116.18534,40.04043,1237,9262
116.18536,40.04049,1238,9262
116.18538,40.04052,1239,9262
116.18539,40.04051,1240,9262
116.18538,40.04052,1241,9262
116.18538,40.04052,1242,9262
116.18537,40.04051,1243,9262
116.18538,40.04051,1244,9262
116.18535,40.04049,1245,9262
116.18538,40.04053,1246,9262
116.18525,40.04045,1247,9262
116.18533,40.04048,1248,9262
116.18547,40.04049,1249,9262
116.18551,40.0405,1250,9262
116.18385,40.04119,1251,9262
116.21723,40.04016,1252,9262
116.25203,40.04138,1253,9262
116.26941,40.0316,1254,9262
116.26941,40.0316,1255,9262
116.30376,40.03472,1256,9262
116.32774,40.03469,1257,9262
116.34378,40.0346,1258,9262
116.34814,40.03267,1259,9262
116.34817,40.03266,1260,9262
116.34818,40.03265,1261,9262
116.34819,40.03265,1262,9262
116.34818,40.03265,1263,9262
116.34818,40.03265,1264,9262
116.34818,40.03265,1265,9262
116.34818,40.03266,1266,9262
116.34819,40.03268,1267,9262
116.34834,40.03296,1268,9262
116.34814,40.03246,1269,9262
116.34829,40.03251,1270,9262
116.34833,40.03288,1271,9262
116.34845,40.03292,1272,9262
116.34816,40.03261,1273,9262
116.3482,40.0327,1274,9262
116.34822,40.03271,1275,9262
116.34815,40.03257,1276,9262
116.34819,40.03232,1277,9262
116.34827,40.03258,1278,9262
116.34824,40.03261,1279,9262
116.34791,40.03453,1280,9262
116.34826,40.03273,1281,9262
116.34826,40.03273,1282,9262
116.3482,40.03275,1283,9262
116.3482,40.03275,1284,9262
116.3482,40.03269,1285,9262
116.34818,40.03269,1286,9262
116.3481,40.03274,1287,9262
116.34818,40.03273,1288,9262
116.34817,40.03272,1289,9262
116.34832,40.0326,1290,9262
116.34825,40.03271,1291,9262
116.34822,40.03274,1292,9262
116.34821,40.03273,1293,9262
116.34821,40.0327,1294,9262
116.34822,40.03268,1295,9262
116.34823,40.03267,1296,9262
116.34823,40.03266,1297,9262
116.3483,40.0326,1298,9262
116.34829,40.03259,1299,9262
116.34829,40.03259,1300,9262
116.34829,40.03258,1301,9262
116.34829,40.03258,1302,9262
116.34828,40.03258,1303,9262
116.34827,40.03259,1304,9262
116.34827,40.03261,1305,9262
116.34826,40.03261,1306,9262
116.34826,40.03263,1307,9262
116.34805,40.0328,1308,9262
116.3481,40.03278,1309,9262
116.34807,40.03273,1310,9262
116.34809,40.03272,1311,9262
116.34813,40.03268,1312,9262
116.34815,40.03266,1313,9262
116.34816,40.03267,1314,9262
116.34822,40.03276,1315,9262
116.34806,40.03267,1316,9262
116.34828,40.03251,1317,9262
116.34826,40.03275,1318,9262
116.34826,40.03275,1319,9262
116.3483,40.03256,1320,9262
116.34825,40.03278,1321,9262
116.34831,40.03248,1322,9262
116.34825,40.03249,1323,9262
116.34822,40.0325,1324,9262
116.3482,40.03253,1325,9262
116.34817,40.03254,1326,9262
116.34818,40.03255,1327,9262
116.34813,40.03279,1328,9262
116.3483,40.03261,1329,9262
116.34839,40.03249,1330,9262
116.34836,40.03251,1331,9262
116.34834,40.03252,1332,9262
116.34832,40.03252,1333,9262
116.34829,40.03254,1334,9262
116.3483,40.0325,1335,9262
116.3483,40.03252,1336,9262
116.34829,40.03254,1337,9262
116.34829,40.03264,1338,9262
116.34819,40.03264,1339,9262
116.34814,40.03267,1340,9262
116.34846,40.03262,1341,9262
116.34846,40.03262,1342,9262
116.34808,40.03261,1343,9262
116.34838,40.0326,1344,9262
116.34793,40.03245,1345,9262
116.34842,40.03257,1346,9262
116.34801,40.0326,1347,9262
116.348,40.03249,1348,9262
116.34834,40.0325,1349,9262
116.34827,40.03248,1350,9262
116.34807,40.03248,1351,9262
116.34805,40.03253,1352,9262
116.34806,40.03268,1353,9262
116.34819,40.03263,1354,9262
116.34835,40.03266,1355,9262
116.34978,40.02893,1356,9262
116.30134,40.03425,1357,9262
116.27079,40.02721,1358,9262
116.28,40.01372,1359,9262
116.34557,40.02163,1360,9262
116.42661,40.02035,1361,9262
116.49105,39.99955,1362,9262
116.54986,40.02766,1363,9262
116.5821,40.07237,1364,9262
116.58052,40.07656,1365,9262
116.56274,40.06803,1366,9262
116.56568,40.07121,1367,9262
116.56565,40.07121,1368,9262
116.56563,40.07122,1369,9262
116.56563,40.07122,1370,9262
116.56563,40.07122,1371,9262
116.56012,40.07013,1372,9262
116.54235,40.0578,1373,9262
116.52602,40.03766,1374,9262
116.52097,40.0334,1375,9262
116.49974,40.02222,1376,9262
116.46752,40.02299,1377,9262
116.45663,40.01014,1378,9262
116.43227,40.01545,1379,9262
116.42777,40.03174,1380,9262
116.42014,40.04006,1381,9262
116.40609,40.04686,1382,9262
116.41062,40.06325,1383,9262
116.40724,40.06671,1384,9262
116.35676,40.06016,1385,9262
116.37574,40.06551,1386,9262
116.42631,40.06128,1387,9262
116.41087,40.06019,1388,9262
116.40573,40.04629,1389,9262
116.41752,40.03901,1390,9262
116.40984,40.03615,1391,9262
116.41081,40.00372,1392,9262
116.41112,39.977,1393,9262
116.40647,39.96367,1394,9262
116.39714,39.9677,1395,9262
116.36452,39.96677,1396,9262
116.35511,39.96649,1397,9262
116.35511,39.96649,1398,9262
116.32153,39.9663,1399,9262
116.3211,39.98453,1400,9262
116.32357,39.9883,1401,9262
116.3239,39.98798,1402,9262
116.32379,39.98801,1403,9262
116.32399,39.98785,1404,9262
116.32359,39.98837,1405,9262
116.32387,39.98802,1406,9262
116.32382,39.98811,1407,9262
116.3238,39.98816,1408,9262
116.32378,39.98819,1409,9262
116.32119,39.98919,1410,9262
116.32117,39.98916,1411,9262
116.32262,39.99164,1412,9262
116.34696,39.99205,1413,9262
116.34696,39.99205,1414,9262
116.36073,39.99762,1415,9262
116.3628,40.00005,1416,9262
116.39681,39.98686,1417,9262
116.41785,39.98138,1418,9262
116.41218,39.97195,1419,9262
116.38771,39.96759,1420,9262
116.39359,39.94738,1421,9262
116.39593,39.93952,1422,9262
116.37403,39.94846,1423,9262
116.36929,39.95695,1424,9262
116.36599,39.94621,1425,9262
116.35831,39.93926,1426,9262
116.34203,39.95017,1427,9262
116.33083,39.96045,1428,9262
116.33083,39.96045,1429,9262
116.3295,39.97279,1430,9262
116.3295,39.97279,1431,9262
116.33365,39.96617,1432,9262
116.37311,39.95633,1433,9262
116.3824,39.94247,1434,9262
116.37026,39.95659,1435,9262
116.34939,39.95317,1436,9262
116.34903,39.95642,1437,9262
116.31901,39.9468,1438,9262
116.35835,39.91732,1439,9262
116.3474,39.92224,1440,9262
116.32831,39.9245,1441,9262
116.31984,39.93495,1442,9262
116.30804,39.94803,1443,9262
116.31058,39.96354,1444,9262
116.31462,39.96759,1445,9262
116.31465,39.96762,1446,9262
116.30149,39.96287,1447,9262
116.31267,39.97253,1448,9262
116.3191,39.97157,1449,9262
116.35044,39.98537,1450,9262
116.37143,39.98565,1451,9262
116.34978,40.01936,1452,9262
116.35145,40.02904,1453,9262
116.34825,40.03262,1454,9262
116.34825,40.03259,1455,9262
116.34826,40.03258,1456,9262
116.34827,40.03257,1457,9262
116.34827,40.03256,1458,9262
116.34828,40.03255,1459,9262
116.34827,40.03255,1460,9262
116.34823,40.03283,1461,9262
116.34821,40.03276,1462,9262
116.34826,40.0326,1463,9262
116.34826,40.03258,1464,9262
116.34826,40.03258,1465,9262
116.34826,40.03258,1466,9262
116.34826,40.03258,1467,9262
116.34824,40.03271,1468,9262
116.34822,40.03267,1469,9262
116.34822,40.03267,1470,9262
116.34822,40.03264,1471,9262
116.34823,40.03263,1472,9262
116.34799,40.03257,1473,9262
116.34811,40.03271,1474,9262
116.34834,40.03241,1475,9262
116.34826,40.03244,1476,9262
116.34855,40.0327,1477,9262
116.3483,40.03266,1478,9262
116.3483,40.03266,1479,9262
116.34845,40.03274,1480,9262
116.34798,40.03245,1481,9262
116.34809,40.03251,1482,9262
116.34816,40.0326,1483,9262
116.34809,40.03268,1484,9262
116.34802,40.03277,1485,9262
116.34811,40.03264,1486,9262
116.34809,40.03246,1487,9262
116.34807,40.0326,1488,9262
116.34807,40.03263,1489,9262
116.34809,40.03265,1490,9262
116.3481,40.03267,1491,9262
116.34815,40.03282,1492,9262
116.34819,40.03275,1493,9262
116.34819,40.03275,1494,9262
116.3482,40.03275,1495,9262
116.34821,40.03274,1496,9262
116.34822,40.03273,1497,9262
116.34821,40.03271,1498,9262
116.34826,40.03293,1499,9262
116.34824,40.03274,1500,9262
116.34814,40.03266,1501,9262
116.34814,40.03267,1502,9262
116.34817,40.03265,1503,9262
116.34818,40.03265,1504,9262
116.34819,40.03264,1505,9262
116.34819,40.03264,1506,9262
116.3482,40.03264,1507,9262
116.3482,40.03265,1508,9262
116.3482,40.03265,1509,9262
116.34821,40.03267,1510,9262
116.34821,40.03267,1511,9262
116.34821,40.03267,1512,9262
116.34822,40.03266,1513,9262
116.34822,40.03267,1514,9262
116.34822,40.03267,1515,9262
116.34825,40.03295,1516,9262
116.34823,40.0329,1517,9262
116.34821,40.03287,1518,9262
116.34819,40.03285,1519,9262
116.34819,40.03284,1520,9262
116.34819,40.03283,1521,9262
116.34819,40.03283,1522,9262
116.34807,40.03271,1523,9262
116.34809,40.03272,1524,9262
116.34813,40.0327,1525,9262
116.34814,40.03269,1526,9262
116.34815,40.03269,1527,9262
116.34815,40.03269,1528,9262
116.34815,40.03269,1529,9262
116.34815,40.03269,1530,9262
116.34815,40.03269,1531,9262
116.34816,40.03269,1532,9262
116.34816,40.03268,1533,9262
116.34825,40.0326,1534,9262
116.34831,40.03263,1535,9262
116.34829,40.03263,1536,9262
116.34829,40.03257,1537,9262
116.34827,40.03257,1538,9262
116.34826,40.03258,1539,9262
116.34825,40.03261,1540,9262
116.34826,40.03261,1541,9262
116.34826,40.0326,1542,9262
116.34851,40.03295,1543,9262
116.34825,40.03274,1544,9262
116.34818,40.03254,1545,9262
116.34825,40.03301,1546,9262
116.34821,40.03295,1547,9262
116.34818,40.03256,1548,9262
116.34823,40.03295,1549,9262
116.34823,40.03279,1550,9262
116.34825,40.03275,1551,9262
116.34826,40.0327,1552,9262
116.34829,40.03262,1553,9262
116.3482,40.03248,1554,9262
116.34808,40.03285,1555,9262
116.34816,40.03264,1556,9262
116.34816,40.03259,1557,9262
116.34822,40.03263,1558,9262
116.34821,40.03261,1559,9262
116.34816,40.03264,1560,9262
116.34816,40.03264,1561,9262
116.34816,40.03264,1562,9262
116.34817,40.03267,1563,9262
116.34829,40.03286,1564,9262
116.34837,40.03284,1565,9262
116.34829,40.03283,1566,9262
116.34831,40.03249,1567,9262
116.3482,40.03266,1568,9262
116.34821,40.03263,1569,9262
116.34822,40.03263,1570,9262
116.34823,40.03262,1571,9262
116.34824,40.03262,1572,9262
116.34825,40.03262,1573,9262
116.34825,40.03262,1574,9262
116.34825,40.03262,1575,9262
116.34826,40.03261,1576,9262
116.34826,40.0326,1577,9262
116.34826,40.0326,1578,9262
116.34826,40.0326,1579,9262
116.34826,40.0326,1580,9262
116.34826,40.03261,1581,9262
116.34826,40.03261,1582,9262
116.34825,40.03261,1583,9262
116.3482,40.03291,1584,9262
116.34817,40.03283,1585,9262
116.34815,40.03279,1586,9262
116.34815,40.03282,1587,9262
116.34816,40.03281,1588,9262
116.34818,40.0328,1589,9262
116.34829,40.03255,1590,9262
116.34828,40.03256,1591,9262
116.34828,40.03256,1592,9262
116.34825,40.03265,1593,9262
116.34832,40.03286,1594,9262
116.34824,40.03284,1595,9262
116.34821,40.03278,1596,9262
116.34816,40.03244,1597,9262
116.34837,40.03241,1598,9262
116.34826,40.03256,1599,9262
116.34806,40.03274,1600,9262
116.3482,40.03261,1601,9262
116.34819,40.03257,1602,9262
116.34803,40.03265,1603,9262
116.34805,40.03263,1604,9262
116.34831,40.0325,1605,9262
116.34829,40.03252,1606,9262
116.34829,40.03252,1607,9262
116.3483,40.03252,1608,9262
116.34831,40.03252,1609,9262
116.34829,40.03251,1610,9262
116.34829,40.03251,1611,9262
116.3483,40.03251,1612,9262
116.3483,40.03251,1613,9262
116.34829,40.03252,1614,9262
116.3482,40.03242,1615,9262
116.34805,40.03251,1616,9262
116.34806,40.03253,1617,9262
116.34818,40.03263,1618,9262
116.34817,40.03262,1619,9262
116.34798,40.03229,1620,9262
116.34823,40.0326,1621,9262
116.34823,40.0326,1622,9262
116.34809,40.03271,1623,9262
116.34818,40.0327,1624,9262
116.34785,40.03259,1625,9262
116.34789,40.03257,1626,9262
116.34825,40.03264,1627,9262
116.3481,40.03279,1628,9262
116.34808,40.03268,1629,9262
116.34809,40.03264,1630,9262
116.34809,40.03266,1631,9262
116.34686,40.0288,1632,9262
116.341,40.01842,1633,9262
116.33991,40.01529,1634,9262
116.33599,40.02705,1635,9262
116.3317,40.02957,1636,9262
116.33539,40.02773,1637,9262
116.32363,40.02986,1638,9262
116.31005,40.03206,1639,9262
116.31921,40.02984,1640,9262
116.33406,40.03695,1641,9262
116.34538,40.02101,1642,9262
116.34641,39.99958,1643,9262
116.33452,39.98526,1644,9262
116.34692,39.98539,1645,9262
116.29942,39.98312,1646,9262
116.31096,39.97768,1647,9262
116.29351,39.98874,1648,9262
116.27658,40.01967,1649,9262
116.26493,40.03351,1650,9262
116.25099,40.04652,1651,9262
116.25099,40.04652,1652,9262
116.2521,40.04449,1653,9262
116.27019,40.03165,1654,9262
116.30037,40.03377,1655,9262
116.31232,40.01016,1656,9262
116.30996,39.98735,1657,9262
116.31228,39.97241,1658,9262
116.31454,39.95247,1659,9262
116.38085,39.94764,1660,9262
116.40199,39.94594,1661,9262
116.40246,39.93336,1662,9262
116.40463,39.91888,1663,9262
116.39974,39.92959,1664,9262
116.38262,39.94247,1665,9262
116.3659,39.95666,1666,9262
116.36021,39.97525,1667,9262
116.37347,39.96113,1668,9262
116.39844,39.94759,1669,9262
116.40571,39.94762,1670,9262
116.40625,39.94764,1671,9262
116.41089,39.93067,1672,9262
116.4112,39.92141,1673,9262
116.4027,39.93161,1674,9262
116.40236,39.94817,1675,9262
116.40189,39.95616,1676,9262
116.3969,39.94771,1677,9262
116.34648,39.90843,1678,9262
116.34717,39.90839,1679,9262
116.34717,39.90839,1680,9262
116.39656,39.9477,1681,9262
116.43806,39.94813,1682,9262
116.44949,39.94739,1683,9262
116.46605,39.96494,1684,9262
116.46834,39.98134,1685,9262
116.46122,39.98904,1686,9262
116.44551,39.97613,1687,9262
116.42547,39.96846,1688,9262
116.40788,39.96347,1689,9262
116.40277,39.96792,1690,9262
116.40144,39.98513,1691,9262
116.42421,39.99249,1692,9262
116.41847,39.99163,1693,9262
116.38496,39.98664,1694,9262
116.35213,40.01572,1695,9262
116.31466,40.06459,1696,9262
116.28634,40.10258,1697,9262
116.26359,40.1208,1698,9262
116.26378,40.12082,1699,9262
116.28261,40.10501,1700,9262
116.28259,40.10501,1701,9262
116.27516,40.08891,1702,9262
116.26393,40.07382,1703,9262
116.28416,40.0612,1704,9262
116.31689,40.05988,1705,9262
116.33453,40.03814,1706,9262
116.34542,40.02408,1707,9262
