x,y,k,tid
116.41252,39.89466,0,9532
116.40893,39.89395,1,9532
116.41156,39.89428,2,9532
116.41156,39.89428,3,9532
116.41443,39.88303,4,9532
116.39234,39.87033,5,9532
116.34222,39.866,6,9532
116.31746,39.85013,7,9532
116.33009,39.86553,8,9532
116.39264,39.87028,9,9532
116.42058,39.89203,10,9532
116.42342,39.89582,11,9532
116.42608,39.89204,12,9532
116.43383,39.89,13,9532
116.4185,39.89916,14,9532
116.40366,39.89937,15,9532
116.40924,39.89943,16,9532
116.41214,39.89784,17,9532
116.41454,39.8814,18,9532
116.36513,39.85098,19,9532
116.36458,39.84005,20,9532
116.36379,39.83025,21,9532
116.36997,39.83971,22,9532
116.37049,39.85433,23,9532
116.37049,39.85433,24,9532
116.3711,39.85554,25,9532
116.40058,39.87057,26,9532
116.41291,39.89328,27,9532
116.42682,39.89936,28,9532
116.47214,39.90951,29,9532
116.46698,39.92216,30,9532
116.46711,39.92499,31,9532
116.46699,39.92499,32,9532
116.46699,39.92499,33,9532
116.46699,39.92499,34,9532
116.46699,39.92499,35,9532
116.4672,39.925,36,9532
116.46469,39.92867,37,9532
116.46469,39.92867,38,9532
116.46126,39.92832,39,9532
116.44141,39.96123,40,9532
116.43558,39.96945,41,9532
116.42859,39.96847,42,9532
116.42971,39.96276,43,9532
116.43345,39.95807,44,9532
116.4382,39.94541,45,9532
116.44376,39.9398,46,9532
116.46187,39.94994,47,9532
116.47175,39.95343,48,9532
116.45816,39.9488,49,9532
116.42781,39.92695,50,9532
116.42814,39.92136,51,9532
116.42069,39.90917,52,9532
116.42066,39.90742,53,9532
116.41482,39.90069,54,9532
116.41269,39.89983,55,9532
116.40124,39.89942,56,9532
116.3805,39.89896,57,9532
116.38157,39.90236,58,9532
116.37896,39.89882,59,9532
116.36872,39.89858,60,9532
116.35695,39.90377,61,9532
116.3633,39.90934,62,9532
116.36644,39.90745,63,9532
116.36634,39.9074,64,9532
116.36635,39.90736,65,9532
116.36649,39.90733,66,9532
116.36676,39.90369,67,9532
116.3698,39.90546,68,9532
116.37187,39.90572,69,9532
116.37995,39.90587,70,9532
116.40215,39.9066,71,9532
116.41514,39.9068,72,9532
116.44279,39.90697,73,9532
116.44279,39.90697,74,9532
116.47623,39.90685,75,9532
116.48394,39.93802,76,9532
116.46865,39.97463,77,9532
116.5233,40.01869,78,9532
116.5797,40.04695,79,9532
116.58672,40.07876,80,9532
116.58231,40.0712,81,9532
116.58616,40.05354,82,9532
116.55882,40.03004,83,9532
116.55708,39.97412,84,9532
116.52208,39.95742,85,9532
116.50012,39.93607,86,9532
116.47519,39.9299,87,9532
116.48366,39.91415,88,9532
116.48066,39.85743,89,9532
116.48953,39.81509,90,9532
116.4777,39.79384,91,9532
116.46907,39.76865,92,9532
116.44219,39.76262,93,9532
116.44291,39.76056,94,9532
116.45672,39.72758,95,9532
116.47184,39.70967,96,9532
116.46888,39.70631,97,9532
116.46894,39.70633,98,9532
116.46894,39.70633,99,9532
116.46894,39.70633,100,9532
116.46894,39.70633,101,9532
116.46894,39.70633,102,9532
116.46894,39.70633,103,9532
116.46894,39.70633,104,9532
116.46894,39.70633,105,9532
116.46894,39.70633,106,9532
116.46894,39.70633,107,9532
116.46894,39.70633,108,9532
116.46894,39.70633,109,9532
116.46894,39.70633,110,9532
116.46894,39.70633,111,9532
116.46894,39.70633,112,9532
116.46894,39.70633,113,9532
116.46894,39.70633,114,9532
116.4689,39.70611,115,9532
116.4689,39.70622,116,9532
116.46889,39.70631,117,9532
116.42217,39.7042,118,9532
116.37618,39.74979,119,9532
116.34528,39.77701,120,9532
116.35949,39.85323,121,9532
116.36364,39.86402,122,9532
116.37186,39.85537,123,9532
116.37034,39.84853,124,9532
116.36618,39.84933,125,9532
116.36812,39.867,126,9532
116.36826,39.87632,127,9532
116.36828,39.88508,128,9532
116.36795,39.8864,129,9532
116.36844,39.89764,130,9532
116.36844,39.89764,131,9532
116.37476,39.89727,132,9532
116.3676,39.8984,133,9532
116.34083,39.88246,134,9532
116.343,39.89595,135,9532
116.3508,39.90768,136,9532
116.3536,39.91193,137,9532
116.35846,39.91694,138,9532
116.33823,39.92213,139,9532
116.32221,39.92695,140,9532
116.31949,39.93659,141,9532
116.31949,39.93659,142,9532
116.31705,39.95798,143,9532
116.31824,39.94659,144,9532
116.3184,39.94667,145,9532
116.31819,39.94666,146,9532
116.31807,39.94695,147,9532
116.31813,39.9469,148,9532
116.31825,39.94665,149,9532
116.31936,39.93827,150,9532
116.34641,39.93863,151,9532
116.33928,39.9377,152,9532
116.27509,39.94533,153,9532
116.27191,39.94552,154,9532
116.26789,39.93679,155,9532
116.27679,39.90618,156,9532
116.31065,39.90492,157,9532
116.31415,39.89918,158,9532
116.27798,39.89581,159,9532
116.21597,39.89777,160,9532
116.20915,39.90669,161,9532
116.20918,39.9067,162,9532
116.20918,39.9067,163,9532
116.20918,39.9067,164,9532
116.20918,39.9067,165,9532
116.20916,39.90661,166,9532
116.21387,39.90597,167,9532
116.21525,39.90265,168,9532
116.24705,39.88416,169,9532
116.25855,39.8902,170,9532
116.25575,39.90238,171,9532
116.2673,39.90601,172,9532
116.28867,39.90614,173,9532
116.32654,39.90602,174,9532
116.34558,39.90557,175,9532
116.38391,39.90602,176,9532
116.42027,39.90566,177,9532
116.42955,39.90326,178,9532
116.44416,39.88067,179,9532
116.44458,39.88054,180,9532
116.44484,39.88134,181,9532
116.44452,39.88122,182,9532
116.44473,39.88129,183,9532
116.44391,39.88034,184,9532
116.42604,39.88278,185,9532
116.41278,39.89079,186,9532
116.40481,39.90795,187,9532
116.40923,39.89901,188,9532
116.41266,39.89213,189,9532
116.42058,39.89918,190,9532
116.43041,39.90678,191,9532
116.43469,39.91652,192,9532
116.42621,39.9072,193,9532
116.40655,39.90846,194,9532
116.40942,39.90897,195,9532
116.41168,39.91674,196,9532
116.4188,39.92291,197,9532
116.41978,39.93446,198,9532
116.41434,39.9425,199,9532
116.41366,39.94788,200,9532
116.45362,39.96115,201,9532
116.45362,39.96115,202,9532
116.4751,39.97687,203,9532
116.48367,39.96508,204,9532
116.48822,39.96083,205,9532
116.49545,39.96333,206,9532
116.49876,39.95995,207,9532
116.48843,39.96119,208,9532
116.4837,39.92991,209,9532
116.4837,39.92991,210,9532
116.46376,39.92189,211,9532
116.46077,39.92692,212,9532
116.46465,39.92913,213,9532
116.45926,39.94256,214,9532
116.46611,39.93256,215,9532
116.45512,39.92657,216,9532
116.45451,39.90992,217,9532
116.45581,39.91355,218,9532
116.46649,39.92179,219,9532
116.46484,39.92916,220,9532
116.4721,39.92965,221,9532
116.47961,39.92574,222,9532
116.46511,39.9292,223,9532
116.47857,39.92668,224,9532
116.50728,39.92184,225,9532
116.54121,39.92243,226,9532
116.56434,39.92282,227,9532
116.55758,39.92262,228,9532
116.56613,39.91433,229,9532
116.58871,39.91081,230,9532
116.62033,39.90939,231,9532
116.61749,39.91622,232,9532
116.61754,39.91606,233,9532
116.61754,39.91606,234,9532
116.58951,39.911,235,9532
116.57145,39.91366,236,9532
116.54566,39.90846,237,9532
116.52228,39.90857,238,9532
116.4837,39.89742,239,9532
116.4792,39.84932,240,9532
116.48697,39.81415,241,9532
116.47853,39.79254,242,9532
116.46891,39.77037,243,9532
116.4434,39.75885,244,9532
116.45606,39.72632,245,9532
116.45627,39.72637,246,9532
116.47149,39.71005,247,9532
116.46891,39.70632,248,9532
116.46889,39.70635,249,9532
116.46888,39.70633,250,9532
116.46888,39.7062,251,9532
116.46131,39.72036,252,9532
116.44248,39.76232,253,9532
116.41494,39.78599,254,9532
116.4229,39.80233,255,9532
116.43024,39.81839,256,9532
116.43068,39.83161,257,9532
116.42225,39.84555,258,9532
116.44084,39.85756,259,9532
116.45547,39.89564,260,9532
116.45165,39.90798,261,9532
116.456,39.91186,262,9532
116.47198,39.91509,263,9532
116.47405,39.92714,264,9532
116.46541,39.92925,265,9532
116.46226,39.92852,266,9532
116.45615,39.92201,267,9532
116.45508,39.91939,268,9532
116.45198,39.91836,269,9532
116.45698,39.92738,270,9532
116.46158,39.92834,271,9532
116.45188,39.93246,272,9532
116.43203,39.93245,273,9532
116.43203,39.93245,274,9532
116.40978,39.93218,275,9532
116.39087,39.93206,276,9532
116.3723,39.92641,277,9532
116.36218,39.93485,278,9532
116.3504,39.93927,279,9532
116.32696,39.93518,280,9532
116.32604,39.92709,281,9532
116.32598,39.927,282,9532
116.31388,39.92797,283,9532
116.34105,39.93098,284,9532
116.34214,39.92216,285,9532
116.31414,39.92265,286,9532
116.30415,39.9068,287,9532
116.30164,39.87786,288,9532
116.31811,39.86649,289,9532
116.34644,39.86654,290,9532
116.34775,39.87399,291,9532
116.34797,39.86916,292,9532
116.3721,39.8691,293,9532
116.43804,39.89532,294,9532
116.48602,39.90662,295,9532
116.48602,39.90662,296,9532
116.48312,39.95368,297,9532
116.49462,39.99825,298,9532
116.56251,40.03314,299,9532
116.58235,40.06812,300,9532
116.58118,40.0776,301,9532
116.58433,40.05848,302,9532
116.56361,40.0641,303,9532
116.56244,40.06998,304,9532
116.56595,40.07109,305,9532
116.56587,40.07114,306,9532
116.56583,40.07111,307,9532
116.56589,40.07113,308,9532
116.56588,40.07112,309,9532
116.56584,40.07117,310,9532
116.5659,40.07108,311,9532
116.56592,40.07116,312,9532
116.5659,40.07113,313,9532
116.56583,40.07115,314,9532
116.56585,40.07111,315,9532
116.56586,40.07112,316,9532
116.56589,40.07113,317,9532
116.56588,40.07121,318,9532
116.56588,40.07121,319,9532
116.56588,40.07121,320,9532
116.56588,40.07121,321,9532
116.56591,40.07116,322,9532
116.56588,40.07116,323,9532
116.5659,40.07112,324,9532
116.56591,40.07116,325,9532
116.56591,40.07118,326,9532
116.5659,40.07114,327,9532
116.56591,40.07112,328,9532
116.56591,40.07112,329,9532
116.5659,40.07114,330,9532
116.56317,40.06598,331,9532
116.359,39.94512,332,9532
116.33963,39.93767,333,9532
116.34914,39.9355,334,9532
116.35019,39.95064,335,9532
116.35519,39.95566,336,9532
116.34869,39.95454,337,9532
116.34988,39.94561,338,9532
116.33976,39.93109,339,9532
116.32768,39.92865,340,9532
116.32768,39.92865,341,9532
116.33316,39.91645,342,9532
116.3376,39.91268,343,9532
116.33299,39.90639,344,9532
116.32901,39.90235,345,9532
116.32305,39.90043,346,9532
116.31713,39.89686,347,9532
116.32104,39.8984,348,9532
116.32892,39.8957,349,9532
116.33417,39.89605,350,9532
116.34398,39.89581,351,9532
116.35711,39.89408,352,9532
116.3572,39.89148,353,9532
116.35078,39.88833,354,9532
116.31758,39.88329,355,9532
116.33082,39.8885,356,9532
116.34195,39.86297,357,9532
116.3393,39.77721,358,9532
116.37503,39.76024,359,9532
116.37493,39.76007,360,9532
116.38109,39.74971,361,9532
116.40674,39.71917,362,9532
116.45623,39.72643,363,9532
116.47217,39.70927,364,9532
116.46897,39.70627,365,9532
116.46897,39.70627,366,9532
116.46897,39.70627,367,9532
116.46897,39.70627,368,9532
116.46897,39.70627,369,9532
116.46897,39.70627,370,9532
116.46897,39.70627,371,9532
116.46897,39.70627,372,9532
116.46897,39.70627,373,9532
116.46897,39.70627,374,9532
116.46897,39.70627,375,9532
116.46897,39.70627,376,9532
116.46897,39.70627,377,9532
116.46897,39.70627,378,9532
116.46897,39.70627,379,9532
116.46897,39.70627,380,9532
116.46897,39.70627,381,9532
116.4183,39.97633,382,9532
116.44821,39.93531,383,9532
116.44821,39.93531,384,9532
116.46887,39.7063,385,9532
116.46887,39.70624,386,9532
116.46888,39.7063,387,9532
116.46885,39.70628,388,9532
116.46772,39.70698,389,9532
116.44971,39.73955,390,9532
116.43335,39.77285,391,9532
116.41329,39.79483,392,9532
116.43327,39.80339,393,9532
116.44585,39.81159,394,9532
116.44147,39.83014,395,9532
116.42212,39.84133,396,9532
116.41502,39.85438,397,9532
116.40758,39.86223,398,9532
116.40745,39.86423,399,9532
116.40001,39.85576,400,9532
116.38518,39.86382,401,9532
116.38135,39.87532,402,9532
116.37863,39.88705,403,9532
116.38816,39.89439,404,9532
116.38372,39.88539,405,9532
116.38921,39.87974,406,9532
116.38164,39.88201,407,9532
116.36866,39.88192,408,9532
116.35382,39.87673,409,9532
116.34397,39.88994,410,9532
116.34397,39.88994,411,9532
116.35063,39.90107,412,9532
116.35416,39.91187,413,9532
116.35949,39.9134,414,9532
116.35314,39.91291,415,9532
116.34682,39.9213,416,9532
116.33771,39.92926,417,9532
116.3298,39.95188,418,9532
116.31932,39.93982,419,9532
116.32782,39.92801,420,9532
116.32011,39.9268,421,9532
116.31359,39.92897,422,9532
116.31355,39.92896,423,9532
116.31369,39.92886,424,9532
116.31374,39.92887,425,9532
116.3138,39.92889,426,9532
116.31457,39.92943,427,9532
116.31457,39.92943,428,9532
116.31372,39.92881,429,9532
116.31383,39.92878,430,9532
116.31375,39.9271,431,9532
116.3008,39.92296,432,9532
116.285,39.93107,433,9532
116.28145,39.92613,434,9532
116.29327,39.92242,435,9532
116.29867,39.92248,436,9532
116.31509,39.9224,437,9532
116.30361,39.92024,438,9532
116.30494,39.92202,439,9532
116.33094,39.92153,440,9532
116.34246,39.91713,441,9532
116.34688,39.91276,442,9532
116.34652,39.90306,443,9532
116.34684,39.89199,444,9532
116.32877,39.88872,445,9532
116.32845,39.89241,446,9532
116.32095,39.88892,447,9532
116.33282,39.88304,448,9532
116.33341,39.88336,449,9532
116.3466,39.88784,450,9532
116.35455,39.88798,451,9532
116.36511,39.88752,452,9532
116.36651,39.88777,453,9532
116.36809,39.89358,454,9532
116.36823,39.90351,455,9532
116.36808,39.90562,456,9532
116.36743,39.91006,457,9532
116.3543,39.9127,458,9532
116.35161,39.91274,459,9532
116.35027,39.89831,460,9532
116.323,39.89412,461,9532
116.32497,39.88681,462,9532
116.35517,39.888,463,9532
116.36059,39.88186,464,9532
116.36809,39.88695,465,9532
116.36809,39.88695,466,9532
116.36798,39.86754,467,9532
116.37994,39.85553,468,9532
116.38611,39.85313,469,9532
116.39075,39.85503,470,9532
116.38502,39.84386,471,9532
116.38042,39.83921,472,9532
116.36343,39.83009,473,9532
116.35195,39.84196,474,9532
116.35309,39.84128,475,9532
116.35293,39.84115,476,9532
116.3481,39.84227,477,9532
116.34271,39.86834,478,9532
116.33625,39.89781,479,9532
116.34345,39.90566,480,9532
116.34642,39.89733,481,9532
116.3456,39.88841,482,9532
116.31722,39.89891,483,9532
116.32284,39.8986,484,9532
116.3236,39.89582,485,9532
116.30328,39.88311,486,9532
116.305,39.87667,487,9532
116.305,39.87667,488,9532
116.41416,39.85604,489,9532
116.39026,39.85591,490,9532
116.38165,39.86981,491,9532
116.37871,39.88408,492,9532
116.38741,39.88215,493,9532
116.39319,39.86445,494,9532
116.39319,39.85975,495,9532
116.3938,39.85331,496,9532
116.40156,39.84793,497,9532
116.39327,39.85994,498,9532
116.39322,39.85988,499,9532
116.39322,39.85988,500,9532
116.394,39.8484,501,9532
116.39575,39.81094,502,9532
116.41311,39.79563,503,9532
116.48916,39.80262,504,9532
116.53097,39.84781,505,9532
116.48503,39.78517,506,9532
116.45154,39.73498,507,9532
116.45607,39.72636,508,9532
116.46777,39.70732,509,9532
116.46885,39.70628,510,9532
116.46885,39.70628,511,9532
116.46885,39.70628,512,9532
116.46885,39.70628,513,9532
116.46885,39.70628,514,9532
116.46885,39.70628,515,9532
116.46885,39.70628,516,9532
116.46885,39.70628,517,9532
116.46885,39.70628,518,9532
116.46885,39.70628,519,9532
116.46885,39.70628,520,9532
116.46885,39.70628,521,9532
116.46885,39.70628,522,9532
116.46885,39.70628,523,9532
116.46885,39.70628,524,9532
116.46885,39.70628,525,9532
116.46885,39.70628,526,9532
116.46885,39.70628,527,9532
116.46885,39.70628,528,9532
116.46885,39.70628,529,9532
116.46885,39.70628,530,9532
116.46885,39.70628,531,9532
116.46885,39.70628,532,9532
116.46884,39.70638,533,9532
116.46879,39.70622,534,9532
116.44442,39.70619,535,9532
116.41202,39.70852,536,9532
116.38624,39.72002,537,9532
116.33946,39.72163,538,9532
116.33383,39.73066,539,9532
116.3312,39.72602,540,9532
116.33236,39.72564,541,9532
116.33236,39.72564,542,9532
116.33236,39.72564,543,9532
116.33236,39.72564,544,9532
116.33236,39.72564,545,9532
116.33236,39.72564,546,9532
116.33236,39.72564,547,9532
116.33236,39.72564,548,9532
116.3324,39.72576,549,9532
116.33438,39.7304,550,9532
116.37798,39.72012,551,9532
116.41482,39.70756,552,9532
116.46777,39.70696,553,9532
116.46881,39.70629,554,9532
116.4689,39.70633,555,9532
116.4689,39.70633,556,9532
116.4689,39.70633,557,9532
116.4689,39.70633,558,9532
116.4689,39.70633,559,9532
116.4689,39.70633,560,9532
116.4689,39.70633,561,9532
116.4689,39.70633,562,9532
116.4689,39.70633,563,9532
116.4689,39.70633,564,9532
116.4689,39.70633,565,9532
116.4689,39.70633,566,9532
116.4689,39.70633,567,9532
116.4689,39.70633,568,9532
116.4689,39.70633,569,9532
116.4689,39.70633,570,9532
116.4689,39.70633,571,9532
116.4689,39.70633,572,9532
116.4689,39.70633,573,9532
116.4689,39.70633,574,9532
116.4689,39.70633,575,9532
116.4689,39.70633,576,9532
116.4689,39.70633,577,9532
116.46877,39.70626,578,9532
116.46874,39.70621,579,9532
116.46869,39.70622,580,9532
116.46876,39.70622,581,9532
116.46892,39.70629,582,9532
116.45726,39.72466,583,9532
116.43627,39.76348,584,9532
116.37396,39.76278,585,9532
116.34149,39.79475,586,9532
116.34275,39.8489,587,9532
116.35069,39.86776,588,9532
116.33724,39.89645,589,9532
116.30447,39.91025,590,9532
116.31352,39.93255,591,9532
116.304,39.92134,592,9532
116.3145,39.89522,593,9532
116.32053,39.88872,594,9532
116.32053,39.88872,595,9532
116.32119,39.88679,596,9532
116.32459,39.88663,597,9532
116.36232,39.88803,598,9532
116.3626,39.87699,599,9532
116.36744,39.87696,600,9532
116.36842,39.8947,601,9532
116.40532,39.89944,602,9532
116.43977,39.90209,603,9532
116.48727,39.90746,604,9532
116.48383,39.93978,605,9532
116.44345,39.9832,606,9532
116.4221,39.99474,607,9532
116.40612,39.99383,608,9532
116.39851,40.0039,609,9532
116.33421,40.02195,610,9532
116.26157,40.00305,611,9532
116.20959,39.99232,612,9532
116.1917,39.99496,613,9532
116.20327,39.9914,614,9532
116.2016,39.96929,615,9532
116.20867,39.95315,616,9532
116.20867,39.95315,617,9532
116.20488,39.90623,618,9532
116.21186,39.89881,619,9532
116.20037,39.91085,620,9532
116.19742,39.91472,621,9532
116.19279,39.90703,622,9532
116.21999,39.90613,623,9532
116.24675,39.90621,624,9532
116.25868,39.92254,625,9532
116.25882,39.90808,626,9532
116.26175,39.92306,627,9532
116.29433,39.93098,628,9532
116.30338,39.95267,629,9532
116.30063,39.96958,630,9532
116.30283,39.95358,631,9532
116.30265,39.90753,632,9532
116.30899,39.91001,633,9532
116.32877,39.90909,634,9532
116.35015,39.91887,635,9532
116.35758,39.94103,636,9532
116.35771,39.94105,637,9532
116.35765,39.939,638,9532
116.36891,39.93127,639,9532
116.37549,39.91334,640,9532
116.41471,39.87986,641,9532
116.42822,39.8794,642,9532
116.41479,39.8757,643,9532
116.36493,39.88768,644,9532
116.3674,39.88783,645,9532
116.36849,39.89738,646,9532
116.36782,39.91138,647,9532
116.36679,39.9326,648,9532
116.3732,39.93161,649,9532
116.35799,39.93707,650,9532
116.31463,39.9379,651,9532
116.28273,39.93086,652,9532
116.29191,39.931,653,9532
116.30391,39.9459,654,9532
116.30391,39.9459,655,9532
116.35444,39.9663,656,9532
116.40152,39.96779,657,9532
116.41113,39.9742,658,9532
116.44643,39.97197,659,9532
116.44159,39.97126,660,9532
116.38414,39.96708,661,9532
116.34916,39.95098,662,9532
116.35036,39.90371,663,9532
116.34002,39.88769,664,9532
116.34753,39.88514,665,9532
116.35677,39.8877,666,9532
116.36768,39.88779,667,9532
116.36814,39.89747,668,9532
116.36814,39.89747,669,9532
116.35711,39.90804,670,9532
116.35711,39.90804,671,9532
116.34733,39.92224,672,9532
116.33876,39.91272,673,9532
116.33599,39.89689,674,9532
116.3245,39.88883,675,9532
116.32943,39.88806,676,9532
116.33958,39.88813,677,9532
116.34647,39.88798,678,9532
116.3505,39.88829,679,9532
116.3646,39.88778,680,9532
116.3683,39.898,681,9532
116.38827,39.89882,682,9532
116.39404,39.90626,683,9532
116.42064,39.90481,684,9532
116.41221,39.90048,685,9532
116.44156,39.89213,686,9532
116.45543,39.88554,687,9532
116.45822,39.89227,688,9532
116.4307,39.89911,689,9532
116.40875,39.90734,690,9532
116.40995,39.90494,691,9532
116.42929,39.91176,692,9532
116.4442,39.92045,693,9532
116.44321,39.9256,694,9532
116.43507,39.91647,695,9532
116.43507,39.91647,696,9532
116.44361,39.91638,697,9532
116.4443,39.93896,698,9532
116.44878,39.95676,699,9532
116.44111,39.96092,700,9532
116.44922,39.94444,701,9532
116.45294,39.92717,702,9532
116.45118,39.91595,703,9532
116.44419,39.92105,704,9532
116.44432,39.93896,705,9532
116.44422,39.93283,706,9532
116.45138,39.92706,707,9532
116.44927,39.92919,708,9532
116.42998,39.92317,709,9532
116.43794,39.89205,710,9532
116.40414,39.87078,711,9532
116.3583,39.86323,712,9532
116.35736,39.85864,713,9532
116.35751,39.85836,714,9532
116.35098,39.8517,715,9532
116.33905,39.80959,716,9532
116.35769,39.77619,717,9532
116.3795,39.74955,718,9532
116.40297,39.7194,719,9532
116.47188,39.70961,720,9532
116.46888,39.70632,721,9532
116.46889,39.70631,722,9532
116.4689,39.70636,723,9532
116.46884,39.70631,724,9532
116.46891,39.70631,725,9532
116.4689,39.70629,726,9532
116.4689,39.70629,727,9532
116.43438,39.70529,728,9532
116.40252,39.71046,729,9532
116.38498,39.75005,730,9532
116.35194,39.77657,731,9532
116.33873,39.81835,732,9532
116.3587,39.85508,733,9532
116.36083,39.86842,734,9532
116.33913,39.89649,735,9532
116.31377,39.89509,736,9532
116.32221,39.88892,737,9532
116.32053,39.88338,738,9532
116.32463,39.88665,739,9532
116.32455,39.88693,740,9532
116.3246,39.88678,741,9532
116.34381,39.88652,742,9532
116.35007,39.91973,743,9532
116.38991,39.94755,744,9532
116.44958,39.95683,745,9532
116.44023,39.95596,746,9532
116.44269,39.94395,747,9532
116.42832,39.92118,748,9532
116.42833,39.90696,749,9532
116.43788,39.90675,750,9532
116.43488,39.91866,751,9532
116.43488,39.91866,752,9532
116.44583,39.92494,753,9532
116.4458,39.92493,754,9532
116.44596,39.9249,755,9532
116.44426,39.92662,756,9532
116.44428,39.94606,757,9532
116.46342,39.97079,758,9532
116.47219,39.98488,759,9532
116.46326,39.98457,760,9532
116.45858,39.98777,761,9532
116.45853,39.98776,762,9532
116.45844,39.98798,763,9532
116.4582,39.98786,764,9532
116.45853,40.00364,765,9532
116.44482,40.0164,766,9532
116.41185,40.0314,767,9532
116.40857,40.04044,768,9532
116.40593,40.04479,769,9532
116.41092,40.0596,770,9532
116.42195,40.06306,771,9532
116.41107,40.06026,772,9532
116.40863,40.05688,773,9532
116.40854,40.03984,774,9532
116.42053,40.03994,775,9532
116.4351,40.04966,776,9532
116.4311,40.03049,777,9532
116.40322,40.02121,778,9532
116.38075,40.00857,779,9532
116.36825,39.98619,780,9532
116.33764,39.96638,781,9532
116.30385,39.93627,782,9532
116.28263,39.93097,783,9532
116.26736,39.92394,784,9532
116.25864,39.92259,785,9532
116.25743,39.93027,786,9532
116.25861,39.9178,787,9532
116.25829,39.91622,788,9532
116.25849,39.91634,789,9532
116.25855,39.90489,790,9532
116.25855,39.90489,791,9532
116.25877,39.90492,792,9532
116.25877,39.89604,793,9532
116.23779,39.88843,794,9532
116.22983,39.89916,795,9532
116.22884,39.9027,796,9532
116.26363,39.89575,797,9532
116.33606,39.8963,798,9532
116.35014,39.92568,799,9532
116.35506,39.93535,800,9532
116.347,39.9347,801,9532
116.34986,39.92218,802,9532
116.34656,39.9114,803,9532
116.34643,39.90604,804,9532
116.33041,39.90219,805,9532
116.31302,39.90622,806,9532
116.27129,39.90614,807,9532
116.25934,39.90632,808,9532
116.24707,39.91196,809,9532
116.25212,39.91631,810,9532
116.26765,39.91642,811,9532
116.29249,39.89568,812,9532
116.31061,39.88597,813,9532
116.31147,39.87946,814,9532
116.32312,39.89241,815,9532
116.33217,39.90604,816,9532
116.34635,39.9039,817,9532
116.33539,39.89661,818,9532
116.31469,39.89151,819,9532
116.32004,39.883,820,9532
116.34111,39.88799,821,9532
116.34732,39.88792,822,9532
