x,y,k,tid
116.49186,39.99572,0,9636
116.56131,40.03258,1,9636
116.58222,40.04961,2,9636
116.58384,40.05911,3,9636
116.58282,40.0656,4,9636
116.58222,40.07356,5,9636
116.58653,40.07874,6,9636
116.5812,40.0707,7,9636
116.5374,40.05529,8,9636
116.51456,40.04232,9,9636
116.50522,40.02513,10,9636
116.50296,40.02246,11,9636
116.48465,40.02416,12,9636
116.48796,40.00866,13,9636
116.47667,40.00747,14,9636
116.47667,40.00747,15,9636
116.46063,40.00017,16,9636
116.46068,40.00028,17,9636
116.44536,39.99491,18,9636
116.37451,39.97807,19,9636
116.35358,39.9664,20,9636
116.33907,39.96635,21,9636
116.32253,39.96604,22,9636
116.30396,39.93797,23,9636
116.30405,39.9232,24,9636
116.30408,39.91202,25,9636
116.30789,39.90612,26,9636
116.31062,39.9036,27,9636
116.31074,39.90499,28,9636
116.31066,39.90919,29,9636
116.3227,39.90901,30,9636
116.32611,39.90966,31,9636
116.33668,39.90588,32,9636
116.34244,39.89029,33,9636
116.35251,39.88497,34,9636
116.35273,39.88502,35,9636
116.35269,39.8872,36,9636
116.37549,39.88798,37,9636
116.38365,39.88792,38,9636
116.38359,39.88672,39,9636
116.39402,39.88532,40,9636
116.41283,39.88776,41,9636
116.4126,39.89488,42,9636
116.41176,39.91285,43,9636
116.41991,39.9145,44,9636
116.42883,39.90859,45,9636
116.43562,39.91189,46,9636
116.44396,39.90756,47,9636
116.48357,39.89935,48,9636
116.48428,39.88159,49,9636
116.50695,39.87187,50,9636
116.49355,39.87363,51,9636
116.49357,39.87367,52,9636
116.49357,39.87367,53,9636
116.49358,39.8737,54,9636
116.49355,39.87367,55,9636
116.49353,39.87366,56,9636
116.48397,39.8757,57,9636
116.47152,39.89529,58,9636
116.47163,39.90351,59,9636
116.46968,39.9057,60,9636
116.47058,39.90664,61,9636
116.47141,39.89745,62,9636
116.47107,39.88713,63,9636
116.4713,39.89143,64,9636
116.47131,39.88775,65,9636
116.47159,39.89765,66,9636
116.47171,39.90292,67,9636
116.4624,39.90705,68,9636
116.4556,39.92577,69,9636
116.44929,39.93242,70,9636
116.44929,39.93242,71,9636
116.44038,39.93506,72,9636
116.43824,39.93707,73,9636
116.4095,39.94793,74,9636
116.39902,39.94772,75,9636
116.38407,39.94762,76,9636
116.37417,39.96673,77,9636
116.36715,39.98637,78,9636
116.35869,39.99705,79,9636
116.35657,40.00012,80,9636
116.35816,39.99997,81,9636
116.36787,40.00028,82,9636
116.38061,39.9964,83,9636
116.38061,39.9964,84,9636
116.38807,39.98365,85,9636
116.40089,39.98636,86,9636
116.40833,39.98708,87,9636
116.44288,39.98324,88,9636
116.45033,39.97821,89,9636
116.47377,39.98045,90,9636
116.48158,39.98744,91,9636
116.50224,40.00663,92,9636
116.52341,40.03318,93,9636
116.53996,40.05643,94,9636
116.57145,40.11663,95,9636
116.61227,40.11646,96,9636
116.6681,40.11456,97,9636
116.71824,40.12132,98,9636
116.76619,40.14087,99,9636
116.81125,40.14228,100,9636
116.79203,40.11216,101,9636
116.79243,40.10694,102,9636
116.79243,40.10692,103,9636
116.79239,40.10691,104,9636
116.79242,40.10691,105,9636
116.79242,40.10689,106,9636
116.79243,40.1069,107,9636
116.79243,40.10692,108,9636
116.79245,40.10692,109,9636
116.79243,40.10694,110,9636
116.79242,40.1069,111,9636
116.7924,40.1069,112,9636
116.79244,40.10692,113,9636
116.79243,40.10691,114,9636
116.79238,40.10689,115,9636
116.79239,40.10688,116,9636
116.79239,40.10688,117,9636
116.79244,40.10694,118,9636
116.79242,40.10688,119,9636
116.7924,40.10688,120,9636
116.7924,40.10688,121,9636
116.79243,40.10692,122,9636
116.79238,40.10686,123,9636
116.79238,40.10685,124,9636
116.81771,40.15439,125,9636
116.81771,40.15439,126,9636
116.81773,40.15441,127,9636
116.81773,40.15437,128,9636
116.81775,40.15441,129,9636
116.81775,40.15441,130,9636
116.81775,40.15439,131,9636
116.81773,40.15439,132,9636
116.81776,40.1544,133,9636
116.8177,40.15439,134,9636
116.81769,40.15442,135,9636
116.81773,40.15438,136,9636
116.81773,40.15438,137,9636
116.81775,40.15438,138,9636
116.81775,40.15442,139,9636
116.81768,40.15441,140,9636
116.81765,40.1544,141,9636
116.81771,40.15443,142,9636
116.8177,40.15452,143,9636
116.81771,40.15449,144,9636
116.81773,40.15448,145,9636
116.8177,40.15445,146,9636
116.81769,40.15449,147,9636
116.8177,40.15444,148,9636
116.81773,40.15445,149,9636
116.81773,40.15446,150,9636
116.81773,40.15446,151,9636
116.81769,40.15444,152,9636
116.81772,40.15442,153,9636
116.8177,40.15442,154,9636
116.81766,40.15443,155,9636
116.8177,40.1544,156,9636
116.81772,40.1544,157,9636
116.81769,40.15441,158,9636
116.81766,40.15441,159,9636
116.81772,40.15445,160,9636
116.81776,40.15441,161,9636
116.81776,40.15441,162,9636
116.81772,40.15442,163,9636
116.81772,40.15443,164,9636
116.81775,40.15446,165,9636
116.8177,40.15446,166,9636
116.81766,40.15447,167,9636
116.81768,40.15447,168,9636
116.81774,40.15447,169,9636
116.8177,40.15443,170,9636
116.81775,40.1544,171,9636
116.81768,40.15442,172,9636
116.81769,40.15444,173,9636
116.81771,40.15446,174,9636
116.81773,40.15442,175,9636
116.81771,40.15445,176,9636
116.81771,40.15441,177,9636
116.81768,40.1544,178,9636
116.81774,40.15441,179,9636
116.81774,40.15442,180,9636
116.81774,40.1544,181,9636
116.81774,40.15442,182,9636
116.81775,40.15441,183,9636
116.81772,40.15444,184,9636
116.81772,40.15438,185,9636
116.81774,40.15442,186,9636
116.81772,40.15442,187,9636
116.8177,40.1544,188,9636
116.81767,40.1544,189,9636
116.81774,40.1544,190,9636
116.81773,40.15441,191,9636
116.81774,40.15439,192,9636
116.81775,40.15443,193,9636
116.81768,40.15442,194,9636
116.81777,40.15443,195,9636
116.81777,40.15438,196,9636
116.81771,40.15447,197,9636
116.81773,40.1544,198,9636
116.81773,40.1544,199,9636
116.8178,40.15443,200,9636
116.8178,40.15443,201,9636
116.81778,40.15441,202,9636
116.81776,40.15445,203,9636
116.8178,40.15444,204,9636
116.81778,40.15443,205,9636
116.81719,40.15397,206,9636
116.77923,40.14435,207,9636
116.72253,40.12127,208,9636
116.67401,40.11461,209,9636
116.62935,40.11643,210,9636
116.54567,40.10067,211,9636
116.5499,40.06902,212,9636
116.52384,40.05619,213,9636
116.50613,40.03748,214,9636
116.50675,40.03327,215,9636
116.51551,40.02166,216,9636
116.4864,39.99189,217,9636
116.47971,39.9767,218,9636
116.47971,39.9767,219,9636
116.47338,39.97683,220,9636
116.47102,39.98203,221,9636
116.47243,40.00288,222,9636
116.47706,40.01064,223,9636
116.46193,40.00373,224,9636
116.45698,40.00355,225,9636
116.4422,39.99412,226,9636
116.4422,39.99412,227,9636
116.44606,39.99517,228,9636
116.44606,39.99517,229,9636
116.44606,39.99517,230,9636
116.44852,39.99568,231,9636
116.44971,39.98081,232,9636
116.46047,39.95805,233,9636
116.4627,39.94531,234,9636
116.46273,39.94536,235,9636
116.46256,39.94637,236,9636
116.4468,39.94001,237,9636
116.43026,39.93987,238,9636
116.42612,39.95236,239,9636
116.39881,39.94772,240,9636
116.36548,39.94729,241,9636
116.34993,39.94244,242,9636
116.35675,39.91791,243,9636
116.35684,39.91862,244,9636
116.3502,39.9243,245,9636
116.3502,39.9243,246,9636
116.34978,39.93735,247,9636
116.34343,39.94518,248,9636
116.34322,39.94588,249,9636
116.34193,39.95681,250,9636
116.34885,39.96131,251,9636
116.34788,39.98585,252,9636
116.35569,39.99992,253,9636
116.36547,40.0002,254,9636
116.37423,40.00007,255,9636
116.37423,40.00007,256,9636
116.36769,39.99494,257,9636
116.34899,39.9399,258,9636
116.35855,39.93917,259,9636
116.35293,39.93909,260,9636
116.33436,39.94669,261,9636
116.3268,39.966,262,9636
116.34679,39.97474,263,9636
116.3473,39.98804,264,9636
116.33496,39.99171,265,9636
116.33279,39.99164,266,9636
116.34609,39.99962,267,9636
116.35881,39.99252,268,9636
116.35895,39.99136,269,9636
116.35877,39.99125,270,9636
116.3588,39.99121,271,9636
116.35891,39.99177,272,9636
116.35054,39.99972,273,9636
116.37008,39.99938,274,9636
116.36909,39.99716,275,9636
116.38044,39.98914,276,9636
116.38811,39.97553,277,9636
116.3989,39.97384,278,9636
116.40126,39.97204,279,9636
116.40176,39.97197,280,9636
116.40116,39.96963,281,9636
116.40176,39.94866,282,9636
116.35584,39.94412,283,9636
116.34946,39.93505,284,9636
116.35022,39.917,285,9636
116.34981,39.89771,286,9636
116.34249,39.87091,287,9636
116.34156,39.86803,288,9636
116.34558,39.86849,289,9636
116.34796,39.86828,290,9636
116.37335,39.86907,291,9636
116.41057,39.87001,292,9636
116.41544,39.86502,293,9636
116.42444,39.86284,294,9636
116.42575,39.86005,295,9636
116.44063,39.83642,296,9636
116.44096,39.83533,297,9636
116.44069,39.83323,298,9636
116.42236,39.83816,299,9636
116.41021,39.84095,300,9636
116.40551,39.8375,301,9636
116.40558,39.83747,302,9636
116.41093,39.84096,303,9636
116.41259,39.84098,304,9636
116.42209,39.83821,305,9636
116.44177,39.83263,306,9636
116.44177,39.83263,307,9636
116.44008,39.84627,308,9636
116.43948,39.85133,309,9636
116.45503,39.87588,310,9636
116.44839,39.90768,311,9636
116.44422,39.91776,312,9636
116.44417,39.92016,313,9636
116.44013,39.92185,314,9636
116.44196,39.9323,315,9636
116.44554,39.92084,316,9636
116.46363,39.91224,317,9636
116.46557,39.90998,318,9636
116.46886,39.91228,319,9636
116.47198,39.91769,320,9636
116.47097,39.92587,321,9636
116.47104,39.92588,322,9636
116.46092,39.93003,323,9636
116.46096,39.93104,324,9636
116.45722,39.93246,325,9636
116.43932,39.93237,326,9636
116.43932,39.93237,327,9636
116.42708,39.9322,328,9636
116.42828,39.92118,329,9636
116.42542,39.9142,330,9636
116.4208,39.90743,331,9636
116.42054,39.90509,332,9636
116.41825,39.90669,333,9636
116.42647,39.90697,334,9636
116.42923,39.90688,335,9636
116.43035,39.90713,336,9636
116.42803,39.93044,337,9636
116.43648,39.94812,338,9636
116.45526,39.9545,339,9636
116.47281,39.97036,340,9636
116.48076,39.96693,341,9636
116.49122,39.97063,342,9636
116.49116,39.97063,343,9636
116.49115,39.97061,344,9636
116.49353,39.97135,345,9636
116.4934,39.97497,346,9636
116.49,39.99089,347,9636
116.50758,40.00906,348,9636
116.50942,40.01062,349,9636
116.5297,40.04509,350,9636
116.5519,40.08055,351,9636
116.55655,40.10764,352,9636
116.60599,40.1166,353,9636
116.65475,40.1161,354,9636
116.79263,40.14641,355,9636
116.8177,40.15444,356,9636
116.81766,40.15448,357,9636
116.81615,40.14901,358,9636
116.8088,40.11991,359,9636
116.79243,40.10691,360,9636
116.79243,40.10691,361,9636
116.79243,40.10692,362,9636
116.79242,40.10691,363,9636
116.79244,40.10691,364,9636
116.79241,40.10694,365,9636
116.7924,40.10689,366,9636
116.79243,40.10691,367,9636
116.79243,40.10691,368,9636
116.79242,40.10689,369,9636
116.79241,40.1069,370,9636
116.79244,40.1069,371,9636
116.79241,40.10688,372,9636
116.79241,40.10688,373,9636
116.79243,40.10689,374,9636
116.79241,40.10689,375,9636
116.7924,40.10688,376,9636
116.79241,40.10688,377,9636
116.79242,40.10688,378,9636
116.79291,40.10657,379,9636
116.81352,40.13503,380,9636
116.81772,40.15443,381,9636
116.8177,40.15444,382,9636
116.81769,40.15445,383,9636
116.81774,40.15443,384,9636
116.81767,40.15439,385,9636
116.81761,40.15439,386,9636
116.81771,40.1544,387,9636
116.81778,40.15441,388,9636
116.81773,40.15441,389,9636
116.81774,40.15442,390,9636
116.81776,40.15441,391,9636
116.8177,40.15437,392,9636
116.81773,40.15441,393,9636
116.81772,40.1544,394,9636
116.8177,40.15441,395,9636
116.8177,40.15441,396,9636
116.81771,40.15442,397,9636
116.81773,40.15441,398,9636
116.81773,40.15442,399,9636
116.81771,40.15442,400,9636
116.81771,40.15442,401,9636
116.81771,40.15442,402,9636
116.81769,40.15441,403,9636
116.81772,40.15441,404,9636
116.81774,40.1544,405,9636
116.8177,40.15443,406,9636
116.81771,40.15442,407,9636
116.81773,40.15442,408,9636
116.81775,40.15445,409,9636
116.8177,40.15447,410,9636
116.81773,40.15447,411,9636
116.81768,40.15452,412,9636
116.81767,40.15448,413,9636
116.81773,40.15444,414,9636
116.81771,40.15445,415,9636
116.8177,40.15447,416,9636
116.8177,40.15441,417,9636
116.81772,40.15443,418,9636
116.81774,40.15444,419,9636
116.81774,40.15448,420,9636
116.81771,40.15446,421,9636
116.81771,40.15445,422,9636
116.81772,40.15449,423,9636
116.81771,40.15445,424,9636
116.81774,40.15446,425,9636
116.81776,40.15442,426,9636
116.81773,40.15445,427,9636
116.81775,40.15442,428,9636
116.81775,40.15443,429,9636
116.81774,40.15446,430,9636
116.81776,40.15446,431,9636
116.8177,40.15439,432,9636
116.81776,40.15444,433,9636
116.81773,40.15447,434,9636
116.81771,40.15448,435,9636
116.81779,40.15445,436,9636
116.81772,40.15444,437,9636
116.81774,40.15444,438,9636
116.81776,40.15448,439,9636
116.81772,40.15446,440,9636
116.81771,40.15445,441,9636
116.81773,40.15446,442,9636
116.81772,40.15446,443,9636
116.81774,40.15447,444,9636
116.8177,40.15446,445,9636
116.81769,40.15445,446,9636
116.81768,40.15446,447,9636
116.81781,40.15444,448,9636
116.81772,40.15445,449,9636
116.81772,40.15446,450,9636
116.81763,40.15446,451,9636
116.8177,40.15444,452,9636
116.81778,40.1544,453,9636
116.81774,40.15441,454,9636
116.81774,40.15441,455,9636
116.81776,40.15446,456,9636
116.81774,40.15441,457,9636
116.81777,40.15442,458,9636
116.81773,40.15441,459,9636
116.81771,40.1544,460,9636
116.8177,40.1544,461,9636
116.81774,40.15441,462,9636
116.81776,40.1544,463,9636
116.81777,40.1544,464,9636
116.81772,40.15442,465,9636
116.81776,40.15437,466,9636
116.81776,40.15441,467,9636
116.81775,40.15435,468,9636
116.81776,40.1544,469,9636
116.81776,40.1544,470,9636
116.81776,40.15438,471,9636
116.81778,40.15439,472,9636
116.81776,40.1544,473,9636
116.81775,40.15441,474,9636
116.81775,40.15442,475,9636
116.81771,40.15442,476,9636
116.81774,40.15439,477,9636
116.81775,40.15443,478,9636
116.8178,40.15443,479,9636
116.81775,40.15442,480,9636
116.81773,40.15444,481,9636
116.81773,40.15444,482,9636
116.81775,40.15442,483,9636
116.81776,40.15446,484,9636
116.81776,40.15445,485,9636
116.81764,40.15445,486,9636
116.79906,40.14706,487,9636
116.79542,40.14734,488,9636
116.74961,40.13327,489,9636
116.69499,40.12441,490,9636
116.65507,40.11612,491,9636
116.60584,40.11669,492,9636
116.56343,40.11716,493,9636
116.54563,40.10131,494,9636
116.55049,40.07249,495,9636
116.52426,40.05604,496,9636
116.50585,40.04082,497,9636
116.50669,40.03361,498,9636
116.50145,40.01448,499,9636
116.50628,40.01031,500,9636
116.48225,39.98825,501,9636
116.46695,39.98871,502,9636
116.46575,39.98749,503,9636
116.46303,39.97234,504,9636
116.46184,39.9551,505,9636
116.45863,39.94593,506,9636
116.45863,39.94593,507,9636
116.44548,39.93995,508,9636
116.43283,39.94087,509,9636
116.4442,39.95243,510,9636
116.45801,39.95687,511,9636
116.46195,39.95444,512,9636
116.4562,39.94814,513,9636
116.43881,39.94984,514,9636
116.42332,39.94855,515,9636
116.42468,39.94909,516,9636
116.4213,39.9485,517,9636
116.39241,39.94786,518,9636
116.38748,39.9491,519,9636
116.38051,39.94827,520,9636
116.38117,39.95008,521,9636
116.38919,39.95031,522,9636
116.38823,39.98059,523,9636
116.40152,39.9931,524,9636
116.4018,40.00312,525,9636
116.38826,40.02152,526,9636
116.3869,40.02453,527,9636
116.38683,40.02453,528,9636
116.36826,40.01789,529,9636
116.36787,40.0032,530,9636
116.36788,40.00322,531,9636
116.35496,39.99998,532,9636
116.36588,40.00021,533,9636
116.37416,39.99794,534,9636
116.37416,39.99794,535,9636
116.35916,39.98589,536,9636
116.29479,39.98377,537,9636
116.27207,39.9705,538,9636
116.26862,39.94587,539,9636
116.27783,39.92072,540,9636
116.27629,39.91297,541,9636
116.27729,39.91307,542,9636
116.30309,39.92276,543,9636
116.32782,39.92168,544,9636
116.35541,39.9224,545,9636
116.36624,39.92252,546,9636
116.38249,39.93181,547,9636
116.38372,39.93186,548,9636
116.38999,39.93323,549,9636
116.38989,39.93518,550,9636
116.3761,39.94999,551,9636
116.37963,39.94993,552,9636
116.39019,39.95577,553,9636
116.39614,39.96567,554,9636
116.40598,39.96351,555,9636
116.41192,39.96075,556,9636
116.4241,39.96794,557,9636
116.45303,39.95285,558,9636
116.44714,39.9508,559,9636
116.44622,39.9513,560,9636
116.44625,39.9514,561,9636
116.44621,39.95136,562,9636
116.44621,39.95135,563,9636
116.4462,39.95131,564,9636
116.44955,39.94965,565,9636
116.46311,39.96157,566,9636
116.48439,39.97082,567,9636
116.48966,39.97538,568,9636
116.49189,39.97532,569,9636
116.50446,39.98888,570,9636
116.52418,39.99826,571,9636
116.52622,39.99828,572,9636
116.52622,39.99828,573,9636
116.50968,39.99989,574,9636
116.4635,39.99106,575,9636
116.4635,39.99106,576,9636
116.45663,39.99555,577,9636
116.46118,40.0036,578,9636
116.47315,39.98533,579,9636
116.49054,39.98669,580,9636
116.50608,39.99988,581,9636
116.49769,39.97964,582,9636
116.49273,39.97248,583,9636
116.49203,39.97529,584,9636
116.48982,39.97526,585,9636
116.48356,39.98647,586,9636
116.47237,39.97828,587,9636
116.42456,39.94848,588,9636
116.37974,39.94757,589,9636
116.36011,39.94556,590,9636
116.35237,39.93907,591,9636
116.35237,39.93907,592,9636
116.3528,39.93419,593,9636
116.35286,39.93492,594,9636
116.33731,39.93615,595,9636
116.3329,39.93576,596,9636
116.32743,39.93227,597,9636
116.34291,39.93102,598,9636
116.34968,39.93538,599,9636
116.348,39.97429,600,9636
116.34755,39.98638,601,9636
116.34696,39.99027,602,9636
116.34965,39.93014,603,9636
116.34994,39.92044,604,9636
116.34722,39.91712,605,9636
116.3473,39.92635,606,9636
116.34636,39.93907,607,9636
116.31934,39.94026,608,9636
116.31865,39.9556,609,9636
116.31782,39.95053,610,9636
116.314,39.93112,611,9636
116.30383,39.92409,612,9636
116.27505,39.9233,613,9636
116.27503,39.9233,614,9636
116.29204,39.92254,615,9636
116.29793,39.92246,616,9636
116.30396,39.9109,617,9636
116.30394,39.91072,618,9636
116.30433,39.9211,619,9636
116.31203,39.92677,620,9636
116.31806,39.93739,621,9636
116.3325,39.93669,622,9636
116.33279,39.93654,623,9636
116.33265,39.9366,624,9636
116.33336,39.93668,625,9636
116.34724,39.93876,626,9636
116.34964,39.9397,627,9636
116.33838,39.99186,628,9636
116.33037,39.99161,629,9636
116.32816,39.99168,630,9636
116.32816,39.99168,631,9636
116.32978,39.99156,632,9636
116.33374,39.99872,633,9636
116.34452,40.01125,634,9636
116.34452,40.01123,635,9636
116.34644,40.00008,636,9636
116.35006,39.99976,637,9636
116.37178,39.98541,638,9636
116.38818,39.97055,639,9636
116.38948,39.94759,640,9636
116.42763,39.93821,641,9636
116.428,39.9286,642,9636
116.42826,39.92232,643,9636
116.42839,39.91512,644,9636
116.4207,39.90753,645,9636
116.43014,39.90692,646,9636
116.435,39.91639,647,9636
116.44494,39.92118,648,9636
116.46661,39.9335,649,9636
116.4619,39.95497,650,9636
116.47574,39.97298,651,9636
116.46728,39.90372,652,9636
116.45411,39.90459,653,9636
116.42843,39.91852,654,9636
116.41037,39.94791,655,9636
116.37022,39.94771,656,9636
116.38678,39.94742,657,9636
116.42194,39.94826,658,9636
116.46514,39.96971,659,9636
116.48171,39.98754,660,9636
116.48274,39.98844,661,9636
116.48272,39.98842,662,9636
116.50439,40.00853,663,9636
116.52814,40.04183,664,9636
116.55204,40.0814,665,9636
116.5663,40.11646,666,9636
116.63311,40.1163,667,9636
116.68925,40.12152,668,9636
116.81616,40.15178,669,9636
116.81771,40.15443,670,9636
116.81775,40.15441,671,9636
116.81772,40.15442,672,9636
116.8177,40.15442,673,9636
116.8177,40.15441,674,9636
116.81769,40.15442,675,9636
116.8177,40.15442,676,9636
116.81768,40.15442,677,9636
116.81771,40.15439,678,9636
116.81766,40.15433,679,9636
116.81775,40.15439,680,9636
116.81777,40.1544,681,9636
116.81774,40.15443,682,9636
116.81775,40.15441,683,9636
116.81775,40.15443,684,9636
116.81772,40.15441,685,9636
116.81772,40.15445,686,9636
116.81772,40.1544,687,9636
116.81771,40.15442,688,9636
116.8177,40.15441,689,9636
116.81773,40.15438,690,9636
116.81771,40.15441,691,9636
116.81777,40.15437,692,9636
116.81765,40.15443,693,9636
116.8177,40.15446,694,9636
116.81775,40.15441,695,9636
116.81773,40.15439,696,9636
116.81772,40.15446,697,9636
116.81772,40.15446,698,9636
116.81766,40.15454,699,9636
116.81772,40.15444,700,9636
116.81767,40.15447,701,9636
116.8177,40.1545,702,9636
116.81771,40.15444,703,9636
116.81773,40.15445,704,9636
116.81773,40.15447,705,9636
116.81771,40.1545,706,9636
116.81776,40.15447,707,9636
116.81775,40.15445,708,9636
116.81773,40.1545,709,9636
116.81773,40.15448,710,9636
116.81774,40.15446,711,9636
116.81771,40.15448,712,9636
116.81772,40.15443,713,9636
116.81774,40.15445,714,9636
116.81775,40.15447,715,9636
116.81773,40.15445,716,9636
116.81771,40.15445,717,9636
116.8177,40.15448,718,9636
116.81768,40.15447,719,9636
116.81772,40.15446,720,9636
116.81772,40.15445,721,9636
116.81772,40.15445,722,9636
116.81773,40.15443,723,9636
116.81771,40.15446,724,9636
116.8177,40.15447,725,9636
116.81774,40.15443,726,9636
116.81772,40.15444,727,9636
116.81773,40.15444,728,9636
116.81771,40.15443,729,9636
116.8177,40.15444,730,9636
116.81765,40.15443,731,9636
116.81775,40.15442,732,9636
116.81772,40.15442,733,9636
116.8177,40.15444,734,9636
116.81769,40.15444,735,9636
116.81771,40.15442,736,9636
116.8177,40.15442,737,9636
116.81773,40.15443,738,9636
116.81771,40.15439,739,9636
116.81771,40.15442,740,9636
116.81772,40.15442,741,9636
116.81772,40.15442,742,9636
116.81775,40.15442,743,9636
116.81774,40.15442,744,9636
116.81772,40.15442,745,9636
116.81767,40.15441,746,9636
116.81775,40.15441,747,9636
116.81777,40.15442,748,9636
116.81776,40.1544,749,9636
116.81776,40.1544,750,9636
116.81774,40.15442,751,9636
116.81774,40.15442,752,9636
116.81772,40.15442,753,9636
116.81772,40.15438,754,9636
116.81774,40.15441,755,9636
116.81772,40.15441,756,9636
116.81775,40.1544,757,9636
116.81778,40.1544,758,9636
116.81775,40.1544,759,9636
116.81772,40.15443,760,9636
116.81778,40.15433,761,9636
116.81777,40.1544,762,9636
116.81775,40.15443,763,9636
116.81778,40.15443,764,9636
116.81773,40.15442,765,9636
116.81777,40.15441,766,9636
116.81782,40.15441,767,9636
116.81782,40.15441,768,9636
116.81772,40.15443,769,9636
116.81773,40.15443,770,9636
116.81773,40.15444,771,9636
116.81772,40.15447,772,9636
116.81771,40.15443,773,9636
116.81777,40.15441,774,9636
116.81774,40.15441,775,9636
116.81777,40.15444,776,9636
116.81777,40.15444,777,9636
116.81775,40.15444,778,9636
116.81773,40.15442,779,9636
116.81773,40.15442,780,9636
116.80882,40.14808,781,9636
116.80882,40.14808,782,9636
116.79591,40.11283,783,9636
116.79289,40.10961,784,9636
116.81084,40.14318,785,9636
116.78258,40.14525,786,9636
116.72306,40.13286,787,9636
116.66881,40.12925,788,9636
116.64677,40.12901,789,9636
116.61125,40.12773,790,9636
116.57938,40.11696,791,9636
116.54552,40.10252,792,9636
116.55099,40.0753,793,9636
116.54951,40.06426,794,9636
116.52248,40.05648,795,9636
116.50598,40.03867,796,9636
116.50649,40.03507,797,9636
116.50651,40.03504,798,9636
116.5065,40.03509,799,9636
116.50673,40.03317,800,9636
116.50154,40.01461,801,9636
116.50365,40.00793,802,9636
116.48616,39.99167,803,9636
116.46069,39.96866,804,9636
116.45183,39.95387,805,9636
116.45515,39.95354,806,9636
116.45545,39.95343,807,9636
116.45965,39.95843,808,9636
116.47749,39.96962,809,9636
116.48608,39.96502,810,9636
116.48608,39.96502,811,9636
116.48276,39.95729,812,9636
116.48356,39.91289,813,9636
116.44026,39.90256,814,9636
116.42872,39.90378,815,9636
116.42076,39.90472,816,9636
116.42113,39.90496,817,9636
116.43052,39.90695,818,9636
116.43938,39.91639,819,9636
116.4512,39.91887,820,9636
116.47561,39.91403,821,9636
116.49766,39.9145,822,9636
116.49725,39.91474,823,9636
116.47985,39.90505,824,9636
116.43636,39.89242,825,9636
116.41361,39.89188,826,9636
116.40913,39.89374,827,9636
116.4106,39.89611,828,9636
116.41177,39.89581,829,9636
116.42497,39.89599,830,9636
116.44147,39.89227,831,9636
116.45558,39.89644,832,9636
116.45574,39.89915,833,9636
116.4717,39.90348,834,9636
116.47195,39.91234,835,9636
116.47215,39.92527,836,9636
116.47224,39.92744,837,9636
116.46798,39.94416,838,9636
116.46331,39.94326,839,9636
116.46188,39.95392,840,9636
116.46188,39.95392,841,9636
116.4619,39.9539,842,9636
116.4619,39.95389,843,9636
116.46201,39.9526,844,9636
116.46783,39.94459,845,9636
116.45628,39.93246,846,9636
116.45559,39.90989,847,9636
116.45401,39.8924,848,9636
116.45404,39.89584,849,9636
116.45502,39.89475,850,9636
116.44636,39.90717,851,9636
116.42641,39.91081,852,9636
116.42764,39.91077,853,9636
116.43463,39.91198,854,9636
116.4348,39.91247,855,9636
116.45517,39.9122,856,9636
116.47203,39.91621,857,9636
116.47223,39.91871,858,9636
116.46746,39.9219,859,9636
116.44666,39.92216,860,9636
116.44096,39.92565,861,9636
116.4412,39.93515,862,9636
116.44048,39.93497,863,9636
116.44422,39.93302,864,9636
116.44683,39.93234,865,9636
116.45915,39.93233,866,9636
116.48368,39.92652,867,9636
116.48338,39.88226,868,9636
116.50096,39.87285,869,9636
116.50786,39.86257,870,9636
116.52136,39.84612,871,9636
116.52061,39.84095,872,9636
116.50982,39.85887,873,9636
116.50788,39.86677,874,9636
116.49018,39.87541,875,9636
116.47225,39.8701,876,9636
116.46998,39.87334,877,9636
116.4713,39.87777,878,9636
116.47152,39.89242,879,9636
116.47338,39.90671,880,9636
116.52325,39.908,881,9636
116.51997,39.9156,882,9636
116.52122,39.91588,883,9636
116.5219,39.91586,884,9636
116.54575,39.91477,885,9636
116.56735,39.91391,886,9636
116.58287,39.91144,887,9636
116.59498,39.90732,888,9636
116.60851,39.91209,889,9636
116.64298,39.9211,890,9636
116.65175,39.9414,891,9636
116.67036,39.99272,892,9636
116.68161,40.03835,893,9636
116.729,40.03901,894,9636
116.75605,40.0645,895,9636
116.76995,40.0981,896,9636
116.79335,40.10655,897,9636
116.79279,40.11243,898,9636
116.81904,40.12572,899,9636
116.82193,40.12702,900,9636
116.81634,40.15193,901,9636
116.8175,40.15447,902,9636
116.8175,40.15446,903,9636
116.81752,40.15445,904,9636
116.8174,40.15213,905,9636
116.81868,40.15215,906,9636
116.84777,40.15123,907,9636
116.85224,40.14207,908,9636
116.85224,40.14207,909,9636
116.85235,40.14205,910,9636
116.85229,40.14204,911,9636
116.85234,40.14205,912,9636
116.85229,40.14207,913,9636
116.85233,40.14207,914,9636
116.85234,40.1421,915,9636
116.8523,40.14207,916,9636
116.85222,40.14211,917,9636
116.85226,40.14208,918,9636
116.85223,40.14206,919,9636
116.85223,40.14208,920,9636
116.85226,40.14208,921,9636
116.85227,40.14207,922,9636
116.85226,40.14205,923,9636
116.85226,40.14205,924,9636
116.8523,40.14204,925,9636
116.85226,40.14205,926,9636
116.85227,40.14208,927,9636
116.85226,40.14205,928,9636
116.85227,40.14203,929,9636
116.85226,40.14202,930,9636
116.85226,40.14205,931,9636
116.85227,40.14205,932,9636
116.85229,40.14211,933,9636
116.85228,40.14213,934,9636
116.85228,40.14213,935,9636
116.85229,40.14208,936,9636
116.85229,40.1421,937,9636
116.85262,40.14579,938,9636
116.82197,40.12579,939,9636
116.82205,40.12383,940,9636
116.82005,40.14876,941,9636
116.85053,40.14808,942,9636
116.85235,40.14205,943,9636
116.85226,40.14206,944,9636
116.85228,40.14205,945,9636
116.8523,40.14203,946,9636
116.85233,40.14203,947,9636
116.85228,40.14207,948,9636
116.85228,40.14204,949,9636
116.85228,40.14201,950,9636
116.85229,40.14201,951,9636
116.85224,40.14204,952,9636
116.85226,40.14205,953,9636
116.85225,40.14206,954,9636
116.85224,40.14207,955,9636
116.85227,40.14205,956,9636
116.85229,40.142,957,9636
116.85224,40.14206,958,9636
116.85226,40.14205,959,9636
116.85226,40.1421,960,9636
116.85229,40.14206,961,9636
116.85229,40.14206,962,9636
116.85224,40.14206,963,9636
116.85227,40.14208,964,9636
116.85223,40.1421,965,9636
116.85226,40.14205,966,9636
116.85229,40.14203,967,9636
116.85225,40.14204,968,9636
116.85226,40.14206,969,9636
116.85225,40.14205,970,9636
116.85222,40.14208,971,9636
116.85224,40.14206,972,9636
116.85224,40.14204,973,9636
116.85224,40.14206,974,9636
116.85222,40.14204,975,9636
116.85227,40.14204,976,9636
116.85227,40.14205,977,9636
116.85226,40.14204,978,9636
116.85226,40.14208,979,9636
116.85231,40.14208,980,9636
116.85228,40.14206,981,9636
116.85227,40.14208,982,9636
116.85228,40.14206,983,9636
116.85224,40.1421,984,9636
116.85227,40.14208,985,9636
116.85224,40.1421,986,9636
116.85227,40.14209,987,9636
116.8523,40.14207,988,9636
116.85228,40.14207,989,9636
116.85227,40.14205,990,9636
116.85228,40.14207,991,9636
116.85229,40.14209,992,9636
116.85225,40.1421,993,9636
116.85225,40.14209,994,9636
116.85224,40.14205,995,9636
116.8523,40.14207,996,9636
116.85227,40.14206,997,9636
116.85227,40.14206,998,9636
116.85229,40.14203,999,9636
116.85228,40.14208,1000,9636
116.85224,40.14207,1001,9636
116.85223,40.14203,1002,9636
116.85222,40.14202,1003,9636
116.85223,40.14203,1004,9636
116.85227,40.14205,1005,9636
116.85228,40.14203,1006,9636
116.85226,40.14202,1007,9636
116.85232,40.14207,1008,9636
116.85228,40.14205,1009,9636
116.8523,40.14206,1010,9636
116.85229,40.14205,1011,9636
116.85227,40.14204,1012,9636
116.85225,40.14203,1013,9636
116.85224,40.14203,1014,9636
116.85224,40.14203,1015,9636
116.85226,40.14204,1016,9636
116.85229,40.14202,1017,9636
116.85227,40.14201,1018,9636
116.85226,40.14199,1019,9636
116.85225,40.14203,1020,9636
116.85224,40.14201,1021,9636
116.85224,40.14204,1022,9636
116.85226,40.14201,1023,9636
116.85229,40.14197,1024,9636
116.85227,40.14199,1025,9636
116.85225,40.14201,1026,9636
116.85226,40.14201,1027,9636
116.85227,40.14206,1028,9636
116.85229,40.14207,1029,9636
116.85228,40.14207,1030,9636
116.85232,40.14205,1031,9636
116.8523,40.14207,1032,9636
116.8523,40.14213,1033,9636
116.8523,40.14209,1034,9636
116.8523,40.14206,1035,9636
116.85229,40.14207,1036,9636
116.8523,40.14206,1037,9636
116.85229,40.14212,1038,9636
116.85234,40.14207,1039,9636
116.85228,40.14206,1040,9636
116.8523,40.14206,1041,9636
116.85233,40.142,1042,9636
116.8523,40.14204,1043,9636
116.85228,40.14206,1044,9636
116.85228,40.14206,1045,9636
116.85233,40.14207,1046,9636
116.8523,40.14207,1047,9636
116.85228,40.14205,1048,9636
116.85234,40.14205,1049,9636
116.85228,40.14206,1050,9636
116.85228,40.14204,1051,9636
116.85228,40.14206,1052,9636
116.85229,40.14204,1053,9636
116.85228,40.14206,1054,9636
116.85232,40.14205,1055,9636
116.85229,40.14204,1056,9636
116.8523,40.14202,1057,9636
116.85228,40.14208,1058,9636
116.85229,40.14204,1059,9636
116.85229,40.14204,1060,9636
116.85252,40.1422,1061,9636
116.85255,40.14221,1062,9636
116.85256,40.14219,1063,9636
116.85259,40.14219,1064,9636
116.85253,40.14221,1065,9636
116.85252,40.14221,1066,9636
116.85254,40.1422,1067,9636
116.85254,40.14222,1068,9636
116.85252,40.14223,1069,9636
116.8525,40.14223,1070,9636
116.85252,40.14219,1071,9636
116.85251,40.14219,1072,9636
116.85275,40.14566,1073,9636
116.81714,40.15388,1074,9636
116.81714,40.15388,1075,9636
116.81752,40.15447,1076,9636
116.81754,40.15452,1077,9636
116.81749,40.15445,1078,9636
116.81749,40.15444,1079,9636
116.81743,40.15445,1080,9636
116.81749,40.15447,1081,9636
116.8175,40.15451,1082,9636
116.81747,40.1545,1083,9636
116.81745,40.15449,1084,9636
116.81741,40.15461,1085,9636
116.81746,40.15451,1086,9636
116.81747,40.15449,1087,9636
116.81745,40.15452,1088,9636
116.81747,40.15451,1089,9636
116.81748,40.15445,1090,9636
116.81739,40.15207,1091,9636
116.81737,40.15203,1092,9636
116.83501,40.14926,1093,9636
116.8537,40.12057,1094,9636
116.85795,40.11868,1095,9636
116.85798,40.11868,1096,9636
116.85795,40.11869,1097,9636
116.85795,40.11868,1098,9636
116.85796,40.11869,1099,9636
116.85798,40.11871,1100,9636
116.85799,40.11869,1101,9636
116.85797,40.1187,1102,9636
116.85796,40.11867,1103,9636
116.85796,40.11869,1104,9636
116.85796,40.11869,1105,9636
116.85798,40.11873,1106,9636
116.85797,40.11872,1107,9636
116.85796,40.1187,1108,9636
116.85794,40.1187,1109,9636
116.85794,40.11869,1110,9636
116.8579,40.11865,1111,9636
116.85793,40.11873,1112,9636
116.85796,40.1187,1113,9636
116.85794,40.11868,1114,9636
116.85797,40.11872,1115,9636
116.858,40.11868,1116,9636
116.8579,40.11864,1117,9636
116.85797,40.11868,1118,9636
116.85797,40.11872,1119,9636
116.85796,40.11868,1120,9636
116.85797,40.11869,1121,9636
116.85796,40.1187,1122,9636
116.85797,40.1187,1123,9636
116.85795,40.11873,1124,9636
116.85797,40.11871,1125,9636
116.85797,40.11873,1126,9636
116.8451,40.11725,1127,9636
116.82168,40.11728,1128,9636
116.81597,40.15126,1129,9636
116.81713,40.15446,1130,9636
116.81617,40.15543,1131,9636
116.81617,40.15543,1132,9636
116.77934,40.14446,1133,9636
116.7288,40.12201,1134,9636
116.67989,40.11521,1135,9636
116.65501,40.10777,1136,9636
116.65471,40.10782,1137,9636
116.65471,40.10786,1138,9636
116.65474,40.10791,1139,9636
116.65469,40.10785,1140,9636
116.65474,40.10783,1141,9636
116.6547,40.10775,1142,9636
116.65475,40.10784,1143,9636
116.65478,40.10789,1144,9636
116.65469,40.10777,1145,9636
116.65123,40.12442,1146,9636
116.6453,40.12862,1147,9636
116.64516,40.12854,1148,9636
116.64516,40.12853,1149,9636
116.64517,40.12854,1150,9636
116.64509,40.12845,1151,9636
116.64515,40.1285,1152,9636
116.64515,40.12851,1153,9636
116.64515,40.1285,1154,9636
116.64518,40.12847,1155,9636
116.64513,40.12852,1156,9636
116.64517,40.12846,1157,9636
116.6451,40.12849,1158,9636
116.6451,40.12849,1159,9636
116.64513,40.12842,1160,9636
116.64528,40.12768,1161,9636
116.64381,40.13327,1162,9636
116.64402,40.13331,1163,9636
116.64396,40.13332,1164,9636
116.64454,40.13332,1165,9636
116.65041,40.12879,1166,9636
116.68911,40.13113,1167,9636
116.73789,40.13365,1168,9636
116.81623,40.14855,1169,9636
116.81682,40.1519,1170,9636
116.81684,40.15196,1171,9636
116.81682,40.15196,1172,9636
116.81679,40.15197,1173,9636
116.81686,40.15199,1174,9636
116.81612,40.14886,1175,9636
116.8204,40.12529,1176,9636
116.8173,40.12318,1177,9636
116.83865,40.11275,1178,9636
116.85746,40.11951,1179,9636
116.85795,40.11869,1180,9636
116.85794,40.11866,1181,9636
116.85791,40.11868,1182,9636
116.85796,40.11869,1183,9636
116.85795,40.1187,1184,9636
116.85794,40.11868,1185,9636
116.85794,40.11871,1186,9636
116.85791,40.1187,1187,9636
116.85791,40.11872,1188,9636
116.85791,40.11872,1189,9636
116.85787,40.1187,1190,9636
116.85791,40.11869,1191,9636
116.85789,40.11872,1192,9636
116.85794,40.11871,1193,9636
116.85793,40.11872,1194,9636
116.85789,40.11871,1195,9636
116.85794,40.11865,1196,9636
116.85796,40.1187,1197,9636
116.85797,40.11869,1198,9636
116.85799,40.11874,1199,9636
116.85795,40.11868,1200,9636
116.85793,40.11869,1201,9636
116.85792,40.11873,1202,9636
116.85795,40.11871,1203,9636
116.85796,40.1187,1204,9636
116.85791,40.11868,1205,9636
116.85792,40.11866,1206,9636
116.85797,40.11868,1207,9636
116.85795,40.11871,1208,9636
116.85794,40.11865,1209,9636
116.85792,40.11866,1210,9636
116.85792,40.1187,1211,9636
116.85797,40.11872,1212,9636
116.85796,40.11869,1213,9636
116.85798,40.11871,1214,9636
116.85313,40.11508,1215,9636
116.8171,40.10902,1216,9636
116.8171,40.10902,1217,9636
116.79341,40.10563,1218,9636
116.79241,40.10686,1219,9636
116.79239,40.10686,1220,9636
116.79238,40.10687,1221,9636
116.79244,40.10688,1222,9636
116.79245,40.1069,1223,9636
116.79239,40.10686,1224,9636
116.79242,40.10688,1225,9636
116.79243,40.10687,1226,9636
116.79244,40.10688,1227,9636
116.79244,40.10686,1228,9636
116.79244,40.10686,1229,9636
116.79243,40.10687,1230,9636
116.79241,40.10685,1231,9636
116.79242,40.10684,1232,9636
116.79239,40.10685,1233,9636
116.79243,40.10687,1234,9636
116.79243,40.10687,1235,9636
116.7924,40.10689,1236,9636
116.79243,40.10687,1237,9636
116.79239,40.10689,1238,9636
116.79241,40.10688,1239,9636
116.79243,40.10688,1240,9636
116.79242,40.10691,1241,9636
116.79241,40.10689,1242,9636
116.79239,40.10691,1243,9636
116.79242,40.1069,1244,9636
116.79243,40.10694,1245,9636
116.79243,40.10694,1246,9636
116.79241,40.10688,1247,9636
116.79244,40.10689,1248,9636
116.79241,40.10688,1249,9636
116.79251,40.10697,1250,9636
116.79247,40.10691,1251,9636
116.79253,40.10708,1252,9636
116.79247,40.10696,1253,9636
116.79246,40.10693,1254,9636
116.79244,40.10693,1255,9636
116.79243,40.10691,1256,9636
116.79241,40.10692,1257,9636
116.79244,40.10693,1258,9636
116.79241,40.1069,1259,9636
116.79241,40.10691,1260,9636
116.79241,40.1069,1261,9636
116.7924,40.10692,1262,9636
116.79241,40.10689,1263,9636
116.79244,40.10692,1264,9636
116.79242,40.10694,1265,9636
116.7924,40.10694,1266,9636
116.79238,40.10691,1267,9636
116.79244,40.10693,1268,9636
116.79242,40.10693,1269,9636
116.79242,40.10693,1270,9636
116.79242,40.10693,1271,9636
116.79242,40.10693,1272,9636
116.79242,40.1069,1273,9636
116.79243,40.10691,1274,9636
116.79242,40.1069,1275,9636
116.79242,40.1069,1276,9636
116.79243,40.10689,1277,9636
116.79242,40.10693,1278,9636
116.79242,40.10694,1279,9636
116.79241,40.10694,1280,9636
116.79229,40.10691,1281,9636
116.79241,40.10696,1282,9636
116.79239,40.10692,1283,9636
116.79241,40.10689,1284,9636
116.7924,40.1069,1285,9636
116.79242,40.10691,1286,9636
116.79239,40.10689,1287,9636
116.79239,40.10689,1288,9636
116.79237,40.1069,1289,9636
116.79243,40.1069,1290,9636
116.79243,40.10691,1291,9636
116.79242,40.1069,1292,9636
116.79239,40.10689,1293,9636
116.79238,40.10689,1294,9636
116.79238,40.10693,1295,9636
116.79237,40.10692,1296,9636
116.79239,40.10692,1297,9636
116.79242,40.1069,1298,9636
116.79242,40.1069,1299,9636
116.79245,40.10687,1300,9636
116.79241,40.10686,1301,9636
116.79245,40.10686,1302,9636
116.79243,40.10687,1303,9636
116.7924,40.10689,1304,9636
116.79241,40.10688,1305,9636
116.79244,40.10688,1306,9636
116.79243,40.10685,1307,9636
116.79241,40.1069,1308,9636
116.79242,40.10689,1309,9636
116.79243,40.10689,1310,9636
116.79245,40.10687,1311,9636
116.79239,40.10689,1312,9636
116.79239,40.10685,1313,9636
116.79241,40.10682,1314,9636
116.79243,40.10685,1315,9636
116.79242,40.10689,1316,9636
116.79243,40.10691,1317,9636
116.79246,40.10687,1318,9636
116.79242,40.10687,1319,9636
116.79244,40.10687,1320,9636
116.79245,40.10687,1321,9636
116.79243,40.10687,1322,9636
116.79247,40.10686,1323,9636
116.79243,40.10686,1324,9636
116.79243,40.10687,1325,9636
116.79243,40.10687,1326,9636
116.79245,40.10688,1327,9636
116.79244,40.10687,1328,9636
116.79244,40.10689,1329,9636
116.79245,40.10688,1330,9636
116.79251,40.10692,1331,9636
116.79245,40.10689,1332,9636
116.79246,40.10688,1333,9636
116.79242,40.10686,1334,9636
116.79245,40.10688,1335,9636
116.79242,40.10691,1336,9636
116.79246,40.1069,1337,9636
116.79242,40.1069,1338,9636
116.79244,40.10692,1339,9636
116.79242,40.10689,1340,9636
116.79244,40.1069,1341,9636
116.79243,40.10691,1342,9636
116.79244,40.1069,1343,9636
116.79246,40.10694,1344,9636
116.79246,40.10696,1345,9636
116.79245,40.10695,1346,9636
116.79241,40.10689,1347,9636
116.79245,40.10685,1348,9636
116.79247,40.10687,1349,9636
116.79246,40.10688,1350,9636
116.79241,40.10686,1351,9636
116.79244,40.10691,1352,9636
116.79244,40.10691,1353,9636
116.79245,40.10692,1354,9636
116.79245,40.10692,1355,9636
116.79243,40.10692,1356,9636
116.79246,40.10689,1357,9636
116.79241,40.1069,1358,9636
116.79243,40.10687,1359,9636
116.7924,40.10692,1360,9636
116.79241,40.10688,1361,9636
116.79242,40.10694,1362,9636
116.79242,40.10692,1363,9636
116.79244,40.10688,1364,9636
116.79246,40.1069,1365,9636
116.79243,40.10695,1366,9636
116.79241,40.10691,1367,9636
116.79242,40.10694,1368,9636
116.79243,40.10691,1369,9636
116.79246,40.10689,1370,9636
116.79243,40.10691,1371,9636
116.79245,40.10688,1372,9636
116.79245,40.1069,1373,9636
116.79247,40.10687,1374,9636
116.79247,40.10689,1375,9636
116.79247,40.10689,1376,9636
116.79245,40.10688,1377,9636
116.79244,40.10691,1378,9636
116.79246,40.10687,1379,9636
116.79244,40.10694,1380,9636
116.79243,40.1069,1381,9636
116.79247,40.10693,1382,9636
116.79245,40.10692,1383,9636
116.79245,40.10692,1384,9636
116.79245,40.10692,1385,9636
116.79239,40.1069,1386,9636
116.79241,40.10693,1387,9636
116.79241,40.1069,1388,9636
116.79247,40.10695,1389,9636
116.79244,40.10693,1390,9636
116.79242,40.10688,1391,9636
116.79246,40.10687,1392,9636
116.79245,40.10693,1393,9636
116.79242,40.10689,1394,9636
116.79242,40.1069,1395,9636
116.79244,40.1069,1396,9636
116.79245,40.10689,1397,9636
116.79244,40.1069,1398,9636
116.79245,40.1069,1399,9636
116.79244,40.10693,1400,9636
116.79245,40.10689,1401,9636
116.79244,40.10687,1402,9636
116.79242,40.10689,1403,9636
116.79244,40.10689,1404,9636
116.79244,40.10692,1405,9636
116.79244,40.10691,1406,9636
116.79241,40.10695,1407,9636
116.79243,40.10697,1408,9636
116.79239,40.10691,1409,9636
116.79242,40.10696,1410,9636
116.79243,40.10696,1411,9636
116.79243,40.10696,1412,9636
116.79243,40.10692,1413,9636
116.79243,40.10692,1414,9636
116.79242,40.10695,1415,9636
116.79245,40.10693,1416,9636
116.79245,40.1069,1417,9636
116.79245,40.10691,1418,9636
116.79243,40.10691,1419,9636
116.79243,40.10688,1420,9636
116.79241,40.10686,1421,9636
116.79239,40.10685,1422,9636
116.79243,40.1069,1423,9636
116.79246,40.10687,1424,9636
116.79243,40.10688,1425,9636
116.79244,40.10688,1426,9636
116.80758,40.11819,1427,9636
116.81577,40.14846,1428,9636
116.81749,40.15441,1429,9636
116.81748,40.15437,1430,9636
116.81749,40.15444,1431,9636
116.81748,40.15439,1432,9636
116.81749,40.15441,1433,9636
116.81743,40.15435,1434,9636
116.81749,40.15441,1435,9636
116.81748,40.15444,1436,9636
116.81747,40.15443,1437,9636
116.81749,40.15443,1438,9636
116.81748,40.1544,1439,9636
116.81748,40.15441,1440,9636
116.81749,40.15441,1441,9636
116.8175,40.15442,1442,9636
116.8175,40.15442,1443,9636
116.81754,40.1544,1444,9636
116.81754,40.1544,1445,9636
116.81751,40.15441,1446,9636
116.81749,40.15439,1447,9636
116.81745,40.15447,1448,9636
116.81748,40.15448,1449,9636
116.81747,40.15448,1450,9636
116.8175,40.15445,1451,9636
116.81748,40.15448,1452,9636
116.81751,40.15448,1453,9636
116.81749,40.15448,1454,9636
116.81857,40.15209,1455,9636
116.8249,40.15204,1456,9636
116.84069,40.12986,1457,9636
116.85712,40.11982,1458,9636
116.85797,40.11874,1459,9636
116.85797,40.11873,1460,9636
116.85795,40.11872,1461,9636
116.85796,40.11872,1462,9636
116.85792,40.11871,1463,9636
116.85793,40.11872,1464,9636
116.8579,40.11873,1465,9636
116.85796,40.1187,1466,9636
116.85796,40.11873,1467,9636
116.85797,40.11872,1468,9636
116.85797,40.1187,1469,9636
116.85793,40.11873,1470,9636
116.85795,40.11874,1471,9636
116.85796,40.11872,1472,9636
116.85793,40.11874,1473,9636
116.85793,40.11874,1474,9636
116.85791,40.11871,1475,9636
116.85791,40.11871,1476,9636
116.85792,40.11873,1477,9636
116.85794,40.11873,1478,9636
116.85789,40.11868,1479,9636
116.85793,40.11869,1480,9636
116.85793,40.11871,1481,9636
116.85791,40.11869,1482,9636
116.85793,40.11871,1483,9636
116.85791,40.11868,1484,9636
116.85795,40.11871,1485,9636
116.85792,40.11871,1486,9636
116.85792,40.11871,1487,9636
116.85793,40.11868,1488,9636
116.85793,40.11869,1489,9636
116.85793,40.11871,1490,9636
116.85793,40.11873,1491,9636
116.85796,40.11871,1492,9636
116.85793,40.11869,1493,9636
116.85794,40.11869,1494,9636
116.85791,40.11869,1495,9636
116.85796,40.11874,1496,9636
116.85793,40.1187,1497,9636
116.85791,40.11869,1498,9636
116.85792,40.11869,1499,9636
116.85794,40.11869,1500,9636
116.85795,40.11871,1501,9636
116.85796,40.11872,1502,9636
116.85795,40.1187,1503,9636
116.85797,40.11872,1504,9636
116.85797,40.11872,1505,9636
116.85795,40.11871,1506,9636
116.85795,40.11871,1507,9636
116.85795,40.11871,1508,9636
116.85793,40.11868,1509,9636
116.85791,40.11867,1510,9636
116.85793,40.11868,1511,9636
116.85791,40.11868,1512,9636
116.8579,40.11869,1513,9636
116.85791,40.11869,1514,9636
116.8579,40.11865,1515,9636
116.85792,40.11867,1516,9636
116.85794,40.11867,1517,9636
116.85793,40.11867,1518,9636
116.85789,40.11868,1519,9636
116.85788,40.11868,1520,9636
116.8579,40.1187,1521,9636
116.8579,40.1187,1522,9636
116.8579,40.11867,1523,9636
116.85791,40.11868,1524,9636
116.8579,40.11868,1525,9636
116.8579,40.1187,1526,9636
116.85792,40.11867,1527,9636
116.85792,40.11871,1528,9636
116.85789,40.11869,1529,9636
116.85789,40.1187,1530,9636
116.85789,40.11869,1531,9636
116.85795,40.11864,1532,9636
116.85792,40.11869,1533,9636
116.85796,40.11863,1534,9636
116.85793,40.11868,1535,9636
116.85793,40.11868,1536,9636
116.85791,40.11864,1537,9636
116.85791,40.11864,1538,9636
116.85793,40.1187,1539,9636
116.85794,40.11872,1540,9636
116.8579,40.1187,1541,9636
116.85794,40.11871,1542,9636
116.85795,40.11873,1543,9636
116.85793,40.11869,1544,9636
116.85793,40.11869,1545,9636
116.85793,40.11869,1546,9636
116.85794,40.11871,1547,9636
116.85798,40.11873,1548,9636
116.8579,40.11871,1549,9636
116.85789,40.1187,1550,9636
116.85791,40.11867,1551,9636
116.85794,40.11871,1552,9636
116.85793,40.11868,1553,9636
116.85794,40.1187,1554,9636
116.85799,40.11871,1555,9636
116.85797,40.11868,1556,9636
116.85796,40.11872,1557,9636
116.85794,40.11869,1558,9636
116.85796,40.11869,1559,9636
116.85796,40.11869,1560,9636
116.85795,40.11872,1561,9636
116.85796,40.1187,1562,9636
116.85797,40.11872,1563,9636
116.85794,40.11871,1564,9636
116.85794,40.1187,1565,9636
116.85792,40.11867,1566,9636
116.85794,40.11873,1567,9636
116.85794,40.1187,1568,9636
116.85795,40.11871,1569,9636
116.85796,40.1187,1570,9636
116.85793,40.11869,1571,9636
116.85796,40.11867,1572,9636
116.85796,40.11868,1573,9636
116.85792,40.11869,1574,9636
116.85791,40.1187,1575,9636
116.85792,40.1187,1576,9636
116.85788,40.11868,1577,9636
116.85793,40.11868,1578,9636
116.85793,40.11867,1579,9636
116.85792,40.11868,1580,9636
116.85793,40.11869,1581,9636
116.85792,40.11867,1582,9636
116.85795,40.11867,1583,9636
116.85794,40.11867,1584,9636
116.85796,40.11864,1585,9636
116.85796,40.11863,1586,9636
116.85789,40.11861,1587,9636
116.85795,40.11866,1588,9636
116.85792,40.11868,1589,9636
116.85792,40.11868,1590,9636
116.85795,40.11867,1591,9636
116.85793,40.11869,1592,9636
116.85795,40.11866,1593,9636
116.85793,40.11865,1594,9636
116.85794,40.11867,1595,9636
116.858,40.11865,1596,9636
116.85792,40.11866,1597,9636
116.85792,40.11867,1598,9636
116.8579,40.11867,1599,9636
116.85792,40.11869,1600,9636
116.85795,40.11871,1601,9636
116.85795,40.1187,1602,9636
116.85794,40.11869,1603,9636
116.85794,40.11867,1604,9636
116.85798,40.11866,1605,9636
116.85797,40.11866,1606,9636
116.85797,40.11867,1607,9636
116.85797,40.1187,1608,9636
116.85799,40.1187,1609,9636
116.858,40.11868,1610,9636
116.85794,40.11868,1611,9636
116.85795,40.11867,1612,9636
116.85796,40.11867,1613,9636
116.85796,40.11866,1614,9636
116.85798,40.11865,1615,9636
116.85791,40.1187,1616,9636
116.85793,40.1187,1617,9636
116.85794,40.11869,1618,9636
116.85796,40.11868,1619,9636
116.85796,40.11868,1620,9636
116.85797,40.11868,1621,9636
116.85797,40.11864,1622,9636
116.85793,40.11869,1623,9636
116.85796,40.11869,1624,9636
116.85796,40.11869,1625,9636
116.85793,40.11866,1626,9636
116.85794,40.11865,1627,9636
116.85798,40.1187,1628,9636
116.85796,40.1187,1629,9636
116.85794,40.1187,1630,9636
116.85795,40.11867,1631,9636
116.85791,40.11869,1632,9636
116.8416,40.12327,1633,9636
116.82813,40.14973,1634,9636
116.81769,40.15445,1635,9636
116.81767,40.15445,1636,9636
116.81772,40.15451,1637,9636
116.81771,40.15451,1638,9636
116.81771,40.15447,1639,9636
116.81597,40.14855,1640,9636
116.81022,40.12153,1641,9636
116.79285,40.10657,1642,9636
116.79244,40.10691,1643,9636
116.79245,40.10689,1644,9636
116.79245,40.10689,1645,9636
116.79243,40.1069,1646,9636
116.79241,40.10689,1647,9636
116.79244,40.10692,1648,9636
116.79241,40.10694,1649,9636
116.79245,40.10694,1650,9636
116.79245,40.10694,1651,9636
116.79242,40.10691,1652,9636
116.79241,40.10694,1653,9636
116.79242,40.10692,1654,9636
116.79242,40.10691,1655,9636
116.79239,40.10698,1656,9636
116.79239,40.10693,1657,9636
116.79243,40.10691,1658,9636
116.79246,40.10691,1659,9636
116.79243,40.10693,1660,9636
116.79241,40.10694,1661,9636
116.79241,40.10691,1662,9636
116.79244,40.10689,1663,9636
116.79234,40.10684,1664,9636
116.78967,40.08886,1665,9636
116.78294,40.07971,1666,9636
116.78316,40.07977,1667,9636
116.78316,40.07979,1668,9636
116.78625,40.08405,1669,9636
116.79445,40.09886,1670,9636
116.79237,40.1069,1671,9636
116.79237,40.10686,1672,9636
116.79236,40.10688,1673,9636
116.79238,40.1069,1674,9636
116.79241,40.10691,1675,9636
116.79234,40.10688,1676,9636
116.79239,40.10689,1677,9636
116.79238,40.1069,1678,9636
116.79234,40.10684,1679,9636
116.79234,40.10688,1680,9636
116.79234,40.10688,1681,9636
116.79237,40.10688,1682,9636
116.79237,40.10689,1683,9636
116.79237,40.1069,1684,9636
116.79238,40.10694,1685,9636
116.79237,40.1069,1686,9636
116.79237,40.1069,1687,9636
116.79235,40.10689,1688,9636
116.79236,40.1069,1689,9636
116.79237,40.1069,1690,9636
116.79238,40.10689,1691,9636
116.79239,40.10688,1692,9636
116.79239,40.10689,1693,9636
116.79239,40.10691,1694,9636
116.79242,40.10689,1695,9636
116.79242,40.10691,1696,9636
116.79239,40.10686,1697,9636
116.7924,40.10688,1698,9636
116.79241,40.1069,1699,9636
116.7924,40.10691,1700,9636
116.79236,40.1069,1701,9636
116.79234,40.10697,1702,9636
116.79236,40.10696,1703,9636
116.79236,40.10695,1704,9636
116.79236,40.10693,1705,9636
116.79237,40.10697,1706,9636
116.79236,40.10696,1707,9636
116.79235,40.10695,1708,9636
116.7924,40.10692,1709,9636
116.79236,40.10691,1710,9636
116.79236,40.10691,1711,9636
116.79238,40.10689,1712,9636
116.79239,40.10694,1713,9636
116.79236,40.10686,1714,9636
116.79239,40.10687,1715,9636
116.79235,40.10688,1716,9636
116.7924,40.10693,1717,9636
116.7924,40.1069,1718,9636
116.79238,40.10691,1719,9636
116.79239,40.1069,1720,9636
116.79239,40.10687,1721,9636
116.79236,40.10687,1722,9636
116.79239,40.10689,1723,9636
116.79237,40.10689,1724,9636
116.79238,40.10692,1725,9636
