x,y,k,tid
116.05635,39.81098,0,9658
116.05638,39.81094,1,9658
116.05637,39.81094,2,9658
116.16046,39.80682,3,9658
116.16046,39.80682,4,9658
116.15795,39.81005,5,9658
116.15795,39.81005,6,9658
116.17345,39.90601,7,9658
116.31492,39.88779,8,9658
116.0598,39.82573,9,9658
