x,y,k,tid
116.34735,39.72798,0,9666
116.34735,39.72802,1,9666
116.34736,39.72793,2,9666
116.34735,39.72802,3,9666
116.34736,39.72803,4,9666
116.34751,39.72786,5,9666
116.34797,39.72801,6,9666
116.34797,39.72799,7,9666
116.3428,39.72748,8,9666
116.32598,39.72077,9,9666
116.32792,39.71797,10,9666
116.32747,39.71828,11,9666
116.32751,39.71841,12,9666
116.32751,39.71841,13,9666
116.32751,39.71841,14,9666
116.32751,39.71841,15,9666
116.32751,39.71841,16,9666
116.32751,39.71841,17,9666
116.32751,39.71841,18,9666
116.32751,39.71841,19,9666
116.32751,39.71841,20,9666
116.32751,39.71841,21,9666
116.32751,39.71841,22,9666
116.32751,39.71841,23,9666
116.32751,39.71841,24,9666
116.32751,39.71841,25,9666
116.32751,39.71841,26,9666
116.32751,39.71841,27,9666
116.32751,39.71841,28,9666
116.32751,39.71841,29,9666
116.32751,39.71841,30,9666
116.32751,39.71841,31,9666
116.32751,39.71841,32,9666
116.32754,39.71831,33,9666
116.32669,39.72985,34,9666
116.32637,39.74618,35,9666
116.33446,39.75814,36,9666
116.33999,39.76169,37,9666
116.34006,39.76162,38,9666
116.33597,39.7695,39,9666
116.3426,39.78894,40,9666
116.33893,39.81618,41,9666
116.33935,39.82103,42,9666
116.3395,39.82211,43,9666
116.34242,39.84931,44,9666
116.32635,39.86698,45,9666
116.32088,39.86702,46,9666
116.32096,39.86703,47,9666
116.31889,39.86993,48,9666
116.3199,39.87164,49,9666
116.3199,39.87164,50,9666
116.32029,39.87968,51,9666
116.3206,39.88219,52,9666
116.3203,39.88222,53,9666
116.3204,39.8827,54,9666
116.31591,39.88331,55,9666
116.315,39.88503,56,9666
116.33333,39.88842,57,9666
116.3473,39.88792,58,9666
116.34691,39.89028,59,9666
116.34708,39.89643,60,9666
116.34708,39.89643,61,9666
116.35101,39.90139,62,9666
116.35074,39.90353,63,9666
116.38656,39.90597,64,9666
116.40975,39.90635,65,9666
116.4096,39.90636,66,9666
116.4333,39.89442,67,9666
116.43651,39.89589,68,9666
116.43497,39.8927,69,9666
116.43308,39.89481,70,9666
116.42364,39.89768,71,9666
116.43022,39.89889,72,9666
116.43382,39.88928,73,9666
116.42243,39.88274,74,9666
116.41515,39.88253,75,9666
116.41481,39.873,76,9666
116.39563,39.87145,77,9666
116.39294,39.87918,78,9666
116.38701,39.88232,79,9666
116.39317,39.86461,80,9666
116.39259,39.85758,81,9666
116.40495,39.85552,82,9666
116.41271,39.83724,83,9666
116.41272,39.83724,84,9666
116.40811,39.85365,85,9666
116.38168,39.86993,86,9666
116.34276,39.88557,87,9666
116.31527,39.89206,88,9666
116.31546,39.89085,89,9666
116.28837,39.89583,90,9666
116.26541,39.87979,91,9666
116.26676,39.88095,92,9666
116.26692,39.88095,93,9666
116.26692,39.88095,94,9666
116.27899,39.88823,95,9666
116.28913,39.88826,96,9666
116.29431,39.88823,97,9666
116.30585,39.88378,98,9666
116.31808,39.88841,99,9666
116.32396,39.88863,100,9666
116.34409,39.87624,101,9666
116.36664,39.87478,102,9666
116.36522,39.87503,103,9666
116.358,39.8745,104,9666
116.34762,39.87551,105,9666
116.34752,39.87996,106,9666
116.353,39.88244,107,9666
116.35289,39.88297,108,9666
116.36728,39.88778,109,9666
116.36927,39.88785,110,9666
116.38852,39.88894,111,9666
116.41162,39.89161,112,9666
116.4128,39.89157,113,9666
116.4215,39.89227,114,9666
116.4215,39.89227,115,9666
116.4139,39.89948,116,9666
116.41688,39.90218,117,9666
116.421,39.90445,118,9666
116.4106,39.89998,119,9666
116.40578,39.89977,120,9666
116.40211,39.89992,121,9666
116.38583,39.899,122,9666
116.37334,39.89868,123,9666
116.36845,39.90197,124,9666
116.37839,39.88941,125,9666
116.38395,39.8807,126,9666
116.38453,39.88073,127,9666
116.38531,39.88076,128,9666
116.39178,39.86401,129,9666
116.38689,39.86306,130,9666
116.38685,39.8631,131,9666
116.38605,39.86136,132,9666
116.38047,39.85768,133,9666
116.38046,39.8577,134,9666
116.35519,39.85287,135,9666
116.33945,39.84023,136,9666
116.33955,39.8387,137,9666
116.33875,39.78225,138,9666
116.33879,39.78225,139,9666
116.33635,39.76221,140,9666
116.33873,39.74115,141,9666
116.33873,39.74115,142,9666
116.34291,39.73499,143,9666
116.34291,39.73499,144,9666
116.33347,39.72413,145,9666
116.33349,39.72299,146,9666
116.33684,39.74089,147,9666
116.32628,39.73481,148,9666
116.3276,39.71895,149,9666
116.32752,39.71883,150,9666
116.32768,39.719,151,9666
116.32768,39.719,152,9666
116.32768,39.719,153,9666
116.32768,39.719,154,9666
116.32768,39.719,155,9666
116.32768,39.719,156,9666
116.32768,39.719,157,9666
116.32768,39.719,158,9666
116.32768,39.719,159,9666
116.32768,39.719,160,9666
116.32768,39.719,161,9666
116.32768,39.719,162,9666
116.32768,39.719,163,9666
116.32768,39.719,164,9666
116.32768,39.719,165,9666
116.32768,39.719,166,9666
116.32768,39.719,167,9666
116.32768,39.719,168,9666
116.32768,39.719,169,9666
116.32768,39.719,170,9666
116.32768,39.719,171,9666
116.32768,39.719,172,9666
116.32963,39.72073,173,9666
116.32656,39.73177,174,9666
116.32624,39.75624,175,9666
116.32523,39.76637,176,9666
116.32894,39.7751,177,9666
116.3337,39.79716,178,9666
116.353,39.8369,179,9666
116.35829,39.86533,180,9666
116.35751,39.88212,181,9666
116.35722,39.89502,182,9666
116.35706,39.90459,183,9666
116.35757,39.90802,184,9666
116.37506,39.91302,185,9666
116.41919,39.92294,186,9666
116.44874,39.94685,187,9666
116.44915,39.94596,188,9666
116.44918,39.94595,189,9666
116.44892,39.94587,190,9666
116.44911,39.94596,191,9666
116.44918,39.94596,192,9666
116.42736,39.94015,193,9666
116.4109,39.93975,194,9666
116.37117,39.93156,195,9666
116.36106,39.93541,196,9666
116.35886,39.93122,197,9666
116.35593,39.93532,198,9666
116.35051,39.9311,199,9666
116.3703,39.90479,200,9666
116.37036,39.90479,201,9666
116.36812,39.90755,202,9666
116.37031,39.90951,203,9666
116.37138,39.91652,204,9666
116.36717,39.91343,205,9666
116.35813,39.91433,206,9666
116.3501,39.92612,207,9666
116.35104,39.94224,208,9666
116.36163,39.93922,209,9666
116.37356,39.94477,210,9666
116.36975,39.94758,211,9666
116.32253,39.937,212,9666
116.3223,39.93597,213,9666
116.3275,39.93134,214,9666
116.33776,39.92847,215,9666
116.3378,39.92844,216,9666
116.33697,39.92682,217,9666
116.3386,39.91719,218,9666
116.3334,39.91715,219,9666
116.34077,39.90589,220,9666
116.39175,39.90616,221,9666
116.41001,39.90465,222,9666
116.40139,39.89936,223,9666
116.38219,39.89895,224,9666
116.37837,39.891,225,9666
116.37838,39.89035,226,9666
116.36801,39.88212,227,9666
116.34724,39.87639,228,9666
116.33912,39.87177,229,9666
116.34085,39.85606,230,9666
116.3407,39.85572,231,9666
116.33898,39.80879,232,9666
116.33922,39.80531,233,9666
116.31467,39.77939,234,9666
116.31592,39.76112,235,9666
116.31623,39.7581,236,9666
116.3167,39.74205,237,9666
116.32572,39.72384,238,9666
116.32559,39.72393,239,9666
116.32965,39.72081,240,9666
116.32752,39.71853,241,9666
116.32759,39.71862,242,9666
116.32759,39.71862,243,9666
116.32759,39.71862,244,9666
116.32759,39.71862,245,9666
116.32759,39.71862,246,9666
116.32759,39.71862,247,9666
116.32759,39.71862,248,9666
116.32759,39.71862,249,9666
116.32759,39.71862,250,9666
116.32759,39.71862,251,9666
116.32759,39.71862,252,9666
116.32759,39.71862,253,9666
116.32759,39.71862,254,9666
116.33209,39.72101,255,9666
116.34347,39.7069,256,9666
116.37422,39.67932,257,9666
116.40524,39.66381,258,9666
116.40825,39.66355,259,9666
116.40825,39.66355,260,9666
116.40776,39.65904,261,9666
116.40776,39.65906,262,9666
116.40642,39.68564,263,9666
116.40388,39.69155,264,9666
116.3828,39.69755,265,9666
116.37623,39.70678,266,9666
116.37606,39.7108,267,9666
116.37606,39.7108,268,9666
116.34779,39.72049,269,9666
116.32711,39.72667,270,9666
116.31243,39.72234,271,9666
116.31836,39.73735,272,9666
116.31254,39.7499,273,9666
116.3392,39.8125,274,9666
116.33923,39.82057,275,9666
116.35225,39.82947,276,9666
116.35839,39.84445,277,9666
116.36145,39.8445,278,9666
116.36468,39.84931,279,9666
116.36822,39.86836,280,9666
116.40477,39.89134,281,9666
116.41154,39.89573,282,9666
116.42115,39.89801,283,9666
116.43276,39.89271,284,9666
116.43329,39.87991,285,9666
116.42972,39.87782,286,9666
116.43264,39.86506,287,9666
116.43259,39.86508,288,9666
116.43244,39.85861,289,9666
116.44229,39.85738,290,9666
116.44497,39.85706,291,9666
116.44759,39.85027,292,9666
116.45313,39.86424,293,9666
116.45707,39.86198,294,9666
116.46618,39.86987,295,9666
116.48491,39.87016,296,9666
116.48464,39.90457,297,9666
116.48464,39.90457,298,9666
116.47891,39.92184,299,9666
116.47891,39.92184,300,9666
116.47133,39.90846,301,9666
116.47096,39.90725,302,9666
116.44656,39.90713,303,9666
116.44293,39.90723,304,9666
116.43151,39.90725,305,9666
116.41729,39.87007,306,9666
116.40727,39.86792,307,9666
116.41503,39.86087,308,9666
116.42749,39.84881,309,9666
116.42635,39.85556,310,9666
116.42579,39.85907,311,9666
116.41801,39.86443,312,9666
116.45574,39.90067,313,9666
116.45927,39.90677,314,9666
116.46528,39.90685,315,9666
116.46518,39.90693,316,9666
116.4721,39.917,317,9666
116.47206,39.91736,318,9666
116.46397,39.92885,319,9666
116.45232,39.92735,320,9666
116.45232,39.92735,321,9666
116.45137,39.92723,322,9666
116.43758,39.90691,323,9666
116.44055,39.9053,324,9666
116.43451,39.90732,325,9666
116.42081,39.90834,326,9666
116.42076,39.90833,327,9666
116.42979,39.90265,328,9666
116.43127,39.89837,329,9666
116.42254,39.89031,330,9666
116.4191,39.88266,331,9666
116.41451,39.88164,332,9666
116.33867,39.84871,333,9666
116.33891,39.81091,334,9666
116.33663,39.80583,335,9666
116.33663,39.80583,336,9666
116.32614,39.79812,337,9666
116.32318,39.79744,338,9666
116.32318,39.79744,339,9666
116.32223,39.79688,340,9666
116.326,39.7527,341,9666
116.32595,39.75267,342,9666
116.32486,39.75206,343,9666
116.32482,39.75206,344,9666
116.32482,39.75206,345,9666
116.32482,39.75206,346,9666
116.32482,39.75206,347,9666
116.32482,39.75206,348,9666
116.32482,39.75206,349,9666
116.32482,39.75206,350,9666
116.32482,39.75206,351,9666
116.32482,39.75206,352,9666
116.32482,39.75206,353,9666
116.32482,39.75206,354,9666
116.32482,39.75206,355,9666
116.32482,39.75206,356,9666
116.32482,39.75206,357,9666
116.32482,39.75206,358,9666
116.32482,39.75206,359,9666
116.31652,39.74901,360,9666
116.3125,39.72212,361,9666
116.3125,39.72212,362,9666
116.3125,39.72212,363,9666
116.3125,39.72212,364,9666
116.3125,39.72212,365,9666
116.3125,39.72212,366,9666
116.3125,39.72212,367,9666
116.3125,39.72212,368,9666
116.3125,39.72212,369,9666
116.3125,39.72212,370,9666
116.3125,39.72212,371,9666
116.3125,39.72212,372,9666
116.3125,39.72212,373,9666
116.3125,39.72212,374,9666
116.3125,39.72212,375,9666
116.3125,39.72212,376,9666
116.3125,39.72212,377,9666
116.3125,39.72212,378,9666
116.3125,39.72212,379,9666
116.3125,39.72212,380,9666
116.3125,39.72212,381,9666
116.3125,39.72212,382,9666
116.37868,39.83291,383,9666
116.37868,39.83291,384,9666
116.31244,39.72213,385,9666
116.32401,39.72592,386,9666
116.33144,39.73039,387,9666
116.33272,39.73052,388,9666
116.3333,39.73847,389,9666
116.33817,39.74113,390,9666
116.33817,39.74113,391,9666
116.33873,39.74708,392,9666
116.3366,39.77519,393,9666
116.34672,39.79012,394,9666
116.35417,39.79201,395,9666
116.33276,39.78999,396,9666
116.31177,39.79312,397,9666
116.32331,39.78079,398,9666
116.32418,39.77637,399,9666
116.3172,39.75169,400,9666
116.31245,39.74954,401,9666
116.31613,39.75963,402,9666
116.31623,39.76773,403,9666
116.34258,39.78824,404,9666
116.34226,39.86513,405,9666
116.35041,39.9069,406,9666
116.35079,39.90839,407,9666
116.34979,39.92948,408,9666
116.3808,39.97139,409,9666
116.37986,39.97142,410,9666
116.36492,39.95334,411,9666
116.36344,39.95323,412,9666
116.38686,39.94754,413,9666
116.42951,39.90544,414,9666
116.4647,39.86994,415,9666
116.47892,39.86831,416,9666
116.47063,39.87009,417,9666
116.46579,39.87484,418,9666
116.4617,39.88189,419,9666
116.45112,39.88307,420,9666
116.43702,39.8832,421,9666
116.41805,39.88267,422,9666
116.39933,39.87159,423,9666
116.32487,39.88876,424,9666
116.3104,39.88637,425,9666
116.30881,39.88646,426,9666
116.30875,39.8865,427,9666
116.30396,39.89048,428,9666
116.30396,39.88961,429,9666
116.3011,39.88055,430,9666
116.30513,39.86826,431,9666
116.30476,39.86772,432,9666
116.31804,39.84917,433,9666
116.32002,39.84827,434,9666
116.39656,39.87043,435,9666
116.41661,39.8957,436,9666
116.41832,39.89566,437,9666
116.40662,39.89143,438,9666
116.40662,39.89143,439,9666
116.39699,39.88623,440,9666
116.39552,39.88572,441,9666
116.39255,39.88025,442,9666
116.3749,39.86946,443,9666
116.36647,39.86885,444,9666
116.34031,39.85016,445,9666
116.33919,39.80434,446,9666
116.33961,39.8018,447,9666
116.33851,39.78239,448,9666
116.3334,39.7259,449,9666
116.33924,39.72745,450,9666
116.3316,39.71901,451,9666
116.32762,39.71844,452,9666
116.32767,39.71848,453,9666
116.33501,39.71748,454,9666
116.33843,39.71677,455,9666
116.3388,39.71826,456,9666
116.33927,39.72032,457,9666
116.33958,39.73519,458,9666
116.33885,39.74099,459,9666
116.33775,39.74469,460,9666
116.32976,39.75644,461,9666
116.32477,39.77326,462,9666
116.32269,39.78919,463,9666
116.32868,39.80423,464,9666
116.32924,39.82842,465,9666
116.36198,39.83158,466,9666
116.36209,39.83159,467,9666
116.35881,39.83514,468,9666
116.3608,39.84452,469,9666
116.35935,39.84457,470,9666
116.36772,39.84926,471,9666
116.37441,39.84914,472,9666
116.36834,39.89318,473,9666
116.37182,39.90549,474,9666
116.37322,39.90443,475,9666
116.39855,39.8993,476,9666
116.40598,39.89268,477,9666
116.41449,39.88061,478,9666
116.42412,39.86919,479,9666
116.42905,39.86089,480,9666
116.43158,39.86104,481,9666
116.42543,39.85753,482,9666
116.4036,39.85596,483,9666
116.4036,39.85596,484,9666
116.3954,39.86418,485,9666
116.3954,39.86418,486,9666
116.39296,39.87935,487,9666
116.39297,39.87935,488,9666
116.38378,39.88432,489,9666
116.37871,39.88759,490,9666
116.37859,39.88766,491,9666
116.37826,39.89553,492,9666
116.35015,39.9,493,9666
116.34663,39.90043,494,9666
116.34651,39.9053,495,9666
116.36767,39.86862,496,9666
116.3728,39.86695,497,9666
116.37263,39.86651,498,9666
116.37256,39.86658,499,9666
116.36828,39.8683,500,9666
116.36846,39.88684,501,9666
116.36919,39.89806,502,9666
116.37841,39.89178,503,9666
116.36878,39.88816,504,9666
116.35717,39.89624,505,9666
116.36244,39.89817,506,9666
116.36811,39.8929,507,9666
116.35707,39.89721,508,9666
116.35707,39.89721,509,9666
116.37409,39.92282,510,9666
116.37404,39.92417,511,9666
116.3676,39.92126,512,9666
116.36744,39.91089,513,9666
116.36609,39.91027,514,9666
116.37787,39.90003,515,9666
116.36811,39.90026,516,9666
116.34888,39.88473,517,9666
116.34363,39.87632,518,9666
116.34054,39.85298,519,9666
116.33825,39.84708,520,9666
116.33824,39.84712,521,9666
116.33888,39.80934,522,9666
116.3389,39.80892,523,9666
116.3389,39.80892,524,9666
116.33547,39.77867,525,9666
116.32537,39.76239,526,9666
116.32538,39.7623,527,9666
116.32449,39.74668,528,9666
116.32648,39.72711,529,9666
116.32649,39.72661,530,9666
116.32764,39.71888,531,9666
116.32767,39.71892,532,9666
116.32774,39.71889,533,9666
116.32949,39.72034,534,9666
116.33271,39.72102,535,9666
116.34432,39.73505,536,9666
116.36667,39.74007,537,9666
116.37499,39.74334,538,9666
116.38074,39.74438,539,9666
116.37955,39.74726,540,9666
116.37667,39.74929,541,9666
116.37396,39.7684,542,9666
116.37181,39.79113,543,9666
116.37162,39.79553,544,9666
116.39643,39.8019,545,9666
116.39623,39.81354,546,9666
116.39593,39.81982,547,9666
116.39034,39.83093,548,9666
116.38024,39.84152,549,9666
116.37572,39.84431,550,9666
116.40607,39.85572,551,9666
116.46151,39.88182,552,9666
116.46158,39.87609,553,9666
116.41704,39.85662,554,9666
116.41318,39.84811,555,9666
116.41484,39.84811,556,9666
116.41484,39.84811,557,9666
116.41507,39.84452,558,9666
116.40828,39.84693,559,9666
116.41463,39.84443,560,9666
116.41718,39.84821,561,9666
116.4219,39.85759,562,9666
116.4157,39.86443,563,9666
116.40356,39.85601,564,9666
116.40344,39.86379,565,9666
116.40643,39.8639,566,9666
116.41268,39.89124,567,9666
116.41835,39.90596,568,9666
116.4161,39.90194,569,9666
116.41477,39.90074,570,9666
116.41004,39.90335,571,9666
116.42045,39.90584,572,9666
116.41128,39.90066,573,9666
116.40772,39.90103,574,9666
116.39449,39.89904,575,9666
116.37998,39.89889,576,9666
116.3735,39.9029,577,9666
116.36789,39.90004,578,9666
116.36185,39.90257,579,9666
116.35702,39.89988,580,9666
116.35071,39.89751,581,9666
116.35295,39.89491,582,9666
116.34704,39.89476,583,9666
116.34401,39.89181,584,9666
116.34168,39.88754,585,9666
116.34271,39.87783,586,9666
116.34174,39.86317,587,9666
116.33866,39.8493,588,9666
116.33838,39.84582,589,9666
116.34285,39.88015,590,9666
116.35714,39.90626,591,9666
116.34982,39.93671,592,9666
116.3508,39.94445,593,9666
116.3508,39.94445,594,9666
116.34943,39.92885,595,9666
116.33588,39.92262,596,9666
116.33319,39.91336,597,9666
116.33332,39.91351,598,9666
116.33852,39.91292,599,9666
116.3379,39.9066,600,9666
116.33675,39.90254,601,9666
116.33596,39.89732,602,9666
116.33643,39.89304,603,9666
116.33645,39.89274,604,9666
116.33648,39.89093,605,9666
116.32226,39.88317,606,9666
116.32063,39.88319,607,9666
116.3204,39.88145,608,9666
116.32055,39.88819,609,9666
116.30914,39.89587,610,9666
116.30393,39.8902,611,9666
116.30393,39.8902,612,9666
116.3032,39.88322,613,9666
116.3071,39.86109,614,9666
116.31854,39.84896,615,9666
116.33833,39.81939,616,9666
116.33835,39.81928,617,9666
116.33895,39.80707,618,9666
116.35921,39.81055,619,9666
116.36869,39.80503,620,9666
116.38332,39.80204,621,9666
116.39162,39.78957,622,9666
116.39252,39.79187,623,9666
116.41232,39.7979,624,9666
116.41634,39.79384,625,9666
116.41313,39.79396,626,9666
116.4121,39.80015,627,9666
116.41776,39.80215,628,9666
116.43184,39.80336,629,9666
116.41828,39.80218,630,9666
116.41106,39.80276,631,9666
116.41106,39.80276,632,9666
116.39706,39.8036,633,9666
116.38207,39.80215,634,9666
116.37387,39.79814,635,9666
116.37307,39.77632,636,9666
116.37435,39.76518,637,9666
116.36555,39.76176,638,9666
116.34573,39.75447,639,9666
116.34195,39.75636,640,9666
116.34192,39.75728,641,9666
116.32455,39.77537,642,9666
116.28914,39.77728,643,9666
116.28917,39.77728,644,9666
116.25638,39.76851,645,9666
116.20197,39.76274,646,9666
116.20027,39.76271,647,9666
116.15094,39.77359,648,9666
116.14944,39.7966,649,9666
116.14944,39.7966,650,9666
116.1494,39.7966,651,9666
116.1495,39.8026,652,9666
116.14951,39.80258,653,9666
116.14955,39.80257,654,9666
116.15051,39.79987,655,9666
116.16471,39.76967,656,9666
116.21325,39.76307,657,9666
116.26688,39.76888,658,9666
116.26711,39.76891,659,9666
116.30581,39.78653,660,9666
116.31849,39.7974,661,9666
116.31848,39.7974,662,9666
116.31844,39.79738,663,9666
116.31736,39.7974,664,9666
116.31735,39.79739,665,9666
116.32258,39.79334,666,9666
116.32272,39.79325,667,9666
116.32273,39.79326,668,9666
116.32274,39.79336,669,9666
116.32272,39.79339,670,9666
116.32273,39.79336,671,9666
116.3225,39.79318,672,9666
116.32266,39.79706,673,9666
116.33301,39.79263,674,9666
116.33112,39.79072,675,9666
116.33412,39.77599,676,9666
116.39964,39.76491,677,9666
116.41167,39.80115,678,9666
116.39581,39.8211,679,9666
116.3957,39.82434,680,9666
116.33887,39.82923,681,9666
116.33414,39.76144,682,9666
116.33175,39.75684,683,9666
116.31655,39.74544,684,9666
116.29481,39.7507,685,9666
116.29185,39.74899,686,9666
116.29403,39.74757,687,9666
116.30492,39.74224,688,9666
116.31927,39.73464,689,9666
116.31838,39.73165,690,9666
116.32592,39.72393,691,9666
116.3297,39.72103,692,9666
116.32744,39.71908,693,9666
116.32759,39.71917,694,9666
116.32769,39.71913,695,9666
116.32769,39.71913,696,9666
116.32769,39.71913,697,9666
116.32769,39.71913,698,9666
116.32769,39.71913,699,9666
116.32769,39.71913,700,9666
116.32769,39.71913,701,9666
116.32769,39.71913,702,9666
116.32769,39.71913,703,9666
116.32769,39.71913,704,9666
116.32769,39.71913,705,9666
116.32769,39.71913,706,9666
116.32769,39.71913,707,9666
116.32769,39.71913,708,9666
116.32769,39.71913,709,9666
116.32827,39.72163,710,9666
116.32814,39.72167,711,9666
116.32814,39.72167,712,9666
116.32814,39.72167,713,9666
116.32677,39.72178,714,9666
116.31766,39.7363,715,9666
116.316,39.73535,716,9666
116.31891,39.73577,717,9666
116.32534,39.7279,718,9666
116.32499,39.72614,719,9666
116.31602,39.73531,720,9666
116.32068,39.73055,721,9666
116.32163,39.72782,722,9666
116.32815,39.71909,723,9666
116.32767,39.71902,724,9666
116.32771,39.71894,725,9666
116.32771,39.71894,726,9666
116.32771,39.71894,727,9666
116.32771,39.71894,728,9666
116.32771,39.71894,729,9666
116.32771,39.71894,730,9666
116.32771,39.71894,731,9666
116.32771,39.71894,732,9666
116.32771,39.71894,733,9666
116.32771,39.71894,734,9666
116.32771,39.71894,735,9666
116.32771,39.71894,736,9666
116.32771,39.71894,737,9666
116.32771,39.71894,738,9666
116.32771,39.71894,739,9666
116.32771,39.71894,740,9666
116.32771,39.71894,741,9666
116.32771,39.71894,742,9666
116.32771,39.71894,743,9666
116.32771,39.71894,744,9666
116.32771,39.71894,745,9666
116.32771,39.71894,746,9666
116.32771,39.71894,747,9666
116.32767,39.71904,748,9666
116.32671,39.72185,749,9666
116.3266,39.72946,750,9666
116.34014,39.73077,751,9666
116.33675,39.76359,752,9666
116.33628,39.77495,753,9666
116.35192,39.79172,754,9666
116.3748,39.79918,755,9666
116.38623,39.80163,756,9666
116.39664,39.80553,757,9666
116.39582,39.82241,758,9666
116.39569,39.82867,759,9666
116.38067,39.83426,760,9666
116.38653,39.85557,761,9666
116.38723,39.85561,762,9666
116.36773,39.87717,763,9666
116.36839,39.89796,764,9666
116.37266,39.90973,765,9666
116.37284,39.90969,766,9666
116.40249,39.93467,767,9666
116.40523,39.97397,768,9666
116.40539,39.97393,769,9666
116.41201,39.95882,770,9666
116.39867,39.93948,771,9666
116.38638,39.93219,772,9666
116.36299,39.93117,773,9666
116.32921,39.90589,774,9666
116.316,39.89909,775,9666
116.31395,39.89597,776,9666
116.31573,39.89561,777,9666
116.31296,39.89552,778,9666
116.31301,39.89543,779,9666
116.36724,39.8984,780,9666
116.34679,39.89746,781,9666
116.34679,39.89746,782,9666
116.35296,39.89727,783,9666
116.3572,39.88978,784,9666
116.3572,39.88978,785,9666
116.35735,39.88964,786,9666
116.34466,39.88855,787,9666
116.34152,39.86593,788,9666
116.3425,39.85958,789,9666
116.34255,39.85956,790,9666
116.34252,39.85951,791,9666
116.34252,39.85951,792,9666
116.34252,39.85951,793,9666
116.34252,39.85951,794,9666
116.34826,39.86229,795,9666
116.34824,39.86231,796,9666
116.3484,39.86217,797,9666
116.34815,39.86245,798,9666
116.34841,39.86245,799,9666
116.34838,39.86239,800,9666
116.34817,39.86238,801,9666
116.34831,39.86246,802,9666
116.34826,39.86243,803,9666
116.34814,39.86232,804,9666
116.34811,39.86237,805,9666
116.34831,39.8621,806,9666
116.34822,39.86239,807,9666
116.34813,39.86221,808,9666
116.34826,39.86235,809,9666
116.34833,39.86235,810,9666
116.34823,39.86241,811,9666
116.34836,39.8624,812,9666
116.34819,39.86246,813,9666
116.34838,39.86246,814,9666
116.34844,39.86246,815,9666
116.34851,39.8623,816,9666
116.34842,39.86239,817,9666
116.34825,39.8624,818,9666
116.3483,39.8624,819,9666
116.34835,39.86224,820,9666
116.34839,39.86248,821,9666
116.34821,39.86241,822,9666
116.34805,39.86248,823,9666
116.34813,39.86238,824,9666
116.34832,39.86246,825,9666
116.34822,39.86224,826,9666
116.34808,39.86242,827,9666
116.34838,39.86227,828,9666
116.34809,39.86231,829,9666
116.34809,39.86214,830,9666
116.34823,39.86209,831,9666
116.34858,39.86247,832,9666
116.34819,39.86229,833,9666
116.3486,39.86236,834,9666
116.3486,39.86236,835,9666
116.34842,39.86231,836,9666
116.35803,39.86863,837,9666
116.35763,39.87462,838,9666
116.35753,39.8792,839,9666
116.35714,39.89306,840,9666
116.36526,39.90748,841,9666
116.36076,39.90859,842,9666
116.35951,39.91248,843,9666
116.3456,39.91266,844,9666
116.33036,39.91696,845,9666
116.33595,39.8987,846,9666
116.30478,39.89757,847,9666
116.30102,39.90649,848,9666
116.28888,39.9092,849,9666
116.29821,39.91398,850,9666
116.30047,39.91465,851,9666
116.27774,39.90629,852,9666
116.21675,39.90625,853,9666
116.19758,39.90637,854,9666
116.19615,39.90961,855,9666
116.19631,39.90958,856,9666
116.20464,39.90587,857,9666
116.20465,39.90429,858,9666
116.22719,39.90263,859,9666
116.22965,39.90084,860,9666
116.22024,39.90753,861,9666
116.21646,39.91002,862,9666
116.22229,39.90616,863,9666
116.22958,39.89922,864,9666
116.22983,39.90054,865,9666
116.26925,39.91977,866,9666
116.33914,39.93723,867,9666
116.37755,39.96157,868,9666
116.38877,39.95858,869,9666
116.38805,39.94777,870,9666
116.35237,39.94324,871,9666
116.35022,39.91809,872,9666
116.35052,39.89979,873,9666
116.34092,39.85508,874,9666
116.34021,39.79962,875,9666
116.30959,39.77787,876,9666
116.32408,39.77573,877,9666
116.3274,39.77877,878,9666
116.3274,39.77877,879,9666
116.31623,39.77372,880,9666
116.31633,39.75698,881,9666
116.31614,39.74889,882,9666
116.3218,39.72739,883,9666
116.31249,39.72197,884,9666
116.32675,39.72117,885,9666
116.34419,39.70556,886,9666
116.3623,39.69169,887,9666
116.37852,39.67698,888,9666
116.40778,39.65908,889,9666
116.40777,39.65908,890,9666
116.38076,39.67593,891,9666
116.34335,39.70725,892,9666
116.34146,39.71123,893,9666
116.32754,39.73052,894,9666
116.31226,39.72232,895,9666
116.32036,39.73179,896,9666
116.3125,39.74982,897,9666
116.3123,39.72231,898,9666
116.31224,39.72232,899,9666
116.31224,39.72232,900,9666
116.31224,39.72232,901,9666
116.31224,39.72232,902,9666
116.31224,39.72232,903,9666
116.31224,39.72232,904,9666
116.31224,39.72232,905,9666
116.31224,39.72232,906,9666
116.31224,39.72232,907,9666
116.31224,39.72232,908,9666
116.31224,39.72232,909,9666
116.31224,39.72232,910,9666
116.31224,39.72232,911,9666
116.31224,39.72232,912,9666
116.31224,39.72232,913,9666
116.31224,39.72232,914,9666
116.31224,39.72232,915,9666
116.31224,39.72232,916,9666
116.31224,39.72232,917,9666
116.31224,39.72232,918,9666
116.31224,39.72232,919,9666
116.31224,39.72232,920,9666
116.31224,39.72232,921,9666
116.32465,39.72602,922,9666
116.32603,39.72399,923,9666
116.32603,39.72399,924,9666
116.32598,39.72393,925,9666
116.32931,39.72004,926,9666
116.3275,39.71837,927,9666
116.32757,39.71842,928,9666
116.32765,39.71844,929,9666
116.32762,39.71842,930,9666
116.32765,39.71844,931,9666
116.3257,39.72621,932,9666
116.3174,39.72271,933,9666
116.32199,39.72556,934,9666
116.3264,39.74425,935,9666
116.32543,39.77133,936,9666
116.32906,39.77334,937,9666
116.32499,39.78687,938,9666
116.32538,39.76246,939,9666
116.33179,39.74045,940,9666
116.33087,39.75317,941,9666
116.32626,39.75665,942,9666
116.32399,39.77958,943,9666
116.32981,39.79304,944,9666
116.33319,39.79324,945,9666
116.34037,39.84659,946,9666
116.37805,39.8615,947,9666
116.37588,39.86186,948,9666
116.37489,39.86149,949,9666
116.38093,39.86376,950,9666
116.35067,39.90118,951,9666
116.37467,39.97041,952,9666
116.31863,40.05942,953,9666
116.24485,40.2084,954,9666
116.32224,40.21994,955,9666
116.36393,40.2244,956,9666
116.36394,40.22444,957,9666
116.38763,40.22561,958,9666
116.38258,40.18716,959,9666
116.38213,40.18096,960,9666
116.4096,40.17563,961,9666
116.40231,40.15557,962,9666
116.40533,40.14985,963,9666
116.40527,40.1153,964,9666
116.40642,40.09519,965,9666
116.40689,40.07462,966,9666
116.40662,40.06677,967,9666
116.40646,40.06675,968,9666
116.40646,40.06675,969,9666
116.4054,40.04921,970,9666
116.4025,40.02164,971,9666
116.40261,40.0208,972,9666
116.40108,39.97681,973,9666
116.40108,39.97681,974,9666
116.29948,40.08083,975,9666
116.30359,40.07723,976,9666
116.3033,40.07718,977,9666
116.3033,40.07718,978,9666
116.30336,40.07715,979,9666
116.30333,40.07719,980,9666
116.32825,40.07808,981,9666
116.38226,40.10094,982,9666
116.38222,40.10095,983,9666
116.40616,40.09876,984,9666
116.40746,40.08411,985,9666
116.40775,40.07993,986,9666
116.40957,40.11358,987,9666
116.40955,40.11355,988,9666
116.40872,40.11544,989,9666
116.40873,40.11545,990,9666
116.40867,40.11534,991,9666
116.40871,40.11513,992,9666
116.40871,40.11522,993,9666
116.40876,40.11515,994,9666
116.40875,40.11548,995,9666
116.40881,40.11529,996,9666
116.40891,40.11531,997,9666
116.40884,40.11529,998,9666
116.40884,40.11529,999,9666
116.40872,40.1156,1000,9666
116.40876,40.11529,1001,9666
116.40876,40.11543,1002,9666
116.4088,40.1153,1003,9666
116.40882,40.11539,1004,9666
116.40886,40.11525,1005,9666
116.40875,40.1154,1006,9666
116.40889,40.11524,1007,9666
116.40887,40.11548,1008,9666
116.40876,40.11557,1009,9666
116.40888,40.11549,1010,9666
116.40736,40.1153,1011,9666
116.40752,40.08448,1012,9666
116.40774,40.08022,1013,9666
116.40774,40.08022,1014,9666
116.40673,40.06437,1015,9666
116.40593,40.05046,1016,9666
116.40477,40.04628,1017,9666
116.39174,40.05625,1018,9666
116.3643,40.05133,1019,9666
116.3603,40.0494,1020,9666
116.36236,40.0396,1021,9666
116.34304,40.03316,1022,9666
116.34221,40.0328,1023,9666
116.30537,40.0248,1024,9666
116.30484,40.0246,1025,9666
116.27344,40.01156,1026,9666
116.28025,40.00683,1027,9666
116.28704,39.99535,1028,9666
116.28825,39.99546,1029,9666
116.29934,39.98448,1030,9666
116.29551,39.97152,1031,9666
116.29555,39.97036,1032,9666
116.28728,39.96639,1033,9666
116.2924,39.96166,1034,9666
116.29271,39.96066,1035,9666
116.30352,39.94582,1036,9666
116.31025,39.93843,1037,9666
116.31868,39.9373,1038,9666
116.33838,39.93104,1039,9666
116.34736,39.92475,1040,9666
116.34736,39.92475,1041,9666
116.34693,39.92124,1042,9666
116.34651,39.90755,1043,9666
116.34032,39.9055,1044,9666
116.34021,39.90541,1045,9666
116.34028,39.90557,1046,9666
116.33999,39.90571,1047,9666
116.34025,39.90571,1048,9666
116.34063,39.90531,1049,9666
116.34063,39.90531,1050,9666
116.34019,39.90575,1051,9666
116.34023,39.90556,1052,9666
116.34168,39.90559,1053,9666
116.35449,39.895,1054,9666
116.35158,39.89498,1055,9666
116.3465,39.90687,1056,9666
116.34663,39.90957,1057,9666
116.3466,39.91113,1058,9666
116.34674,39.91179,1059,9666
116.3426,39.92041,1060,9666
116.35032,39.91102,1061,9666
116.39393,39.87083,1062,9666
116.39684,39.87618,1063,9666
116.38923,39.88143,1064,9666
116.38915,39.88334,1065,9666
116.38411,39.88491,1066,9666
116.37852,39.88974,1067,9666
116.37832,39.8984,1068,9666
116.37823,39.89839,1069,9666
116.38943,39.89801,1070,9666
116.4057,39.89135,1071,9666
116.45573,39.90806,1072,9666
116.46906,39.92193,1073,9666
116.46686,39.92484,1074,9666
116.46691,39.92483,1075,9666
116.45628,39.92202,1076,9666
116.40483,39.90678,1077,9666
116.40483,39.90678,1078,9666
116.3191,39.90625,1079,9666
116.30531,39.91066,1080,9666
116.32934,39.91097,1081,9666
116.36307,39.9465,1082,9666
116.37342,39.95383,1083,9666
116.33137,39.93702,1084,9666
116.28005,39.92886,1085,9666
116.28015,39.92887,1086,9666
116.27871,39.92943,1087,9666
116.2822,39.92289,1088,9666
116.32121,39.93244,1089,9666
116.32103,39.93357,1090,9666
116.32832,39.92303,1091,9666
116.32933,39.90606,1092,9666
116.33449,39.90587,1093,9666
116.3398,39.90583,1094,9666
116.33991,39.9048,1095,9666
116.34218,39.89579,1096,9666
116.34421,39.87561,1097,9666
116.34496,39.88195,1098,9666
116.35289,39.88253,1099,9666
116.34472,39.87638,1100,9666
116.34143,39.8609,1101,9666
116.3394,39.84989,1102,9666
116.33822,39.84704,1103,9666
116.33888,39.80866,1104,9666
116.34123,39.79375,1105,9666
116.33845,39.7822,1106,9666
116.33535,39.77453,1107,9666
116.33632,39.76211,1108,9666
116.33849,39.7414,1109,9666
116.33924,39.71587,1110,9666
116.33897,39.72078,1111,9666
116.32767,39.71905,1112,9666
116.32758,39.71896,1113,9666
116.32765,39.719,1114,9666
116.3276,39.71897,1115,9666
116.3276,39.71897,1116,9666
116.3276,39.71897,1117,9666
116.3276,39.71897,1118,9666
116.3276,39.71897,1119,9666
116.3276,39.71897,1120,9666
116.3276,39.71897,1121,9666
116.3276,39.71897,1122,9666
116.3276,39.71897,1123,9666
116.3276,39.71897,1124,9666
116.3276,39.71897,1125,9666
116.3276,39.71897,1126,9666
116.3276,39.71897,1127,9666
116.3276,39.71897,1128,9666
116.3276,39.71897,1129,9666
116.3276,39.71897,1130,9666
116.3276,39.71897,1131,9666
116.3276,39.71897,1132,9666
116.3276,39.71897,1133,9666
116.3276,39.71897,1134,9666
116.3276,39.71897,1135,9666
116.3276,39.71897,1136,9666
116.3276,39.71897,1137,9666
116.32767,39.71902,1138,9666
116.33251,39.72112,1139,9666
116.33251,39.72112,1140,9666
116.33947,39.73609,1141,9666
116.33904,39.74392,1142,9666
116.33878,39.77734,1143,9666
116.36084,39.79309,1144,9666
116.3719,39.79585,1145,9666
116.39649,39.80911,1146,9666
116.39576,39.82433,1147,9666
116.39573,39.8288,1148,9666
116.47179,39.83968,1149,9666
116.48042,39.85365,1150,9666
116.47125,39.86824,1151,9666
116.45585,39.90365,1152,9666
116.44638,39.92494,1153,9666
116.44779,39.92561,1154,9666
116.4469,39.92216,1155,9666
116.44934,39.92695,1156,9666
116.46388,39.92884,1157,9666
116.46671,39.92889,1158,9666
116.46332,39.92584,1159,9666
116.45573,39.92185,1160,9666
116.46781,39.91237,1161,9666
116.47125,39.91229,1162,9666
116.41196,39.90317,1163,9666
116.42926,39.89658,1164,9666
116.42102,39.90521,1165,9666
116.42037,39.91417,1166,9666
116.42034,39.91416,1167,9666
116.41931,39.91434,1168,9666
116.40983,39.9156,1169,9666
116.41165,39.91544,1170,9666
116.40773,39.91424,1171,9666
116.42011,39.92241,1172,9666
116.42819,39.92808,1173,9666
116.42781,39.94592,1174,9666
116.48073,39.98553,1175,9666
116.51824,40.01688,1176,9666
116.55585,40.02992,1177,9666
116.58237,40.07423,1178,9666
116.58606,40.07954,1179,9666
116.58074,40.07651,1180,9666
116.58278,40.04955,1181,9666
116.58221,40.04802,1182,9666
116.58021,40.04657,1183,9666
116.58021,40.04657,1184,9666
116.57033,40.03507,1185,9666
116.55133,40.02738,1186,9666
116.54866,40.0264,1187,9666
116.53957,40.03501,1188,9666
116.55919,40.00424,1189,9666
116.55921,40.00131,1190,9666
116.55657,39.97081,1191,9666
116.54125,39.95688,1192,9666
116.50952,39.93882,1193,9666
116.49191,39.93387,1194,9666
116.48346,39.92953,1195,9666
116.4627,39.90355,1196,9666
116.43145,39.88326,1197,9666
116.43137,39.88324,1198,9666
116.41483,39.87583,1199,9666
116.39661,39.86409,1200,9666
116.38373,39.86393,1201,9666
116.38152,39.85951,1202,9666
116.38152,39.85951,1203,9666
116.38151,39.85952,1204,9666
116.3809,39.84377,1205,9666
116.37259,39.83789,1206,9666
116.37268,39.83655,1207,9666
116.36856,39.83398,1208,9666
116.33883,39.82125,1209,9666
116.33551,39.77853,1210,9666
116.33551,39.77853,1211,9666
116.31993,39.77873,1212,9666
116.31649,39.75534,1213,9666
116.31244,39.74989,1214,9666
