x,y,k,tid
116.58196,40.0495,0,9743
116.53909,40.02443,1,9743
116.52754,40.02031,2,9743
116.47656,39.98198,3,9743
116.47656,39.98198,4,9743
116.4686,39.9748,5,9743
116.42774,39.94873,6,9743
116.42739,39.94517,7,9743
116.42772,39.93034,8,9743
116.42779,39.92924,9,9743
116.41969,39.93197,10,9743
116.41755,39.93229,11,9743
116.41101,39.93225,12,9743
116.41104,39.93225,13,9743
116.41191,39.92588,14,9743
116.41256,39.9259,15,9743
116.41618,39.92586,16,9743
116.41675,39.92593,17,9743
116.41626,39.92302,18,9743
116.41109,39.92585,19,9743
116.41084,39.93095,20,9743
116.4109,39.9314,21,9743
116.41095,39.93169,22,9743
116.40818,39.93213,23,9743
116.39159,39.93214,24,9743
116.38986,39.93608,25,9743
116.38282,39.94217,26,9743
116.37404,39.94673,27,9743
116.36977,39.95661,28,9743
116.36413,39.96261,29,9743
116.36366,39.96643,30,9743
116.35909,39.9666,31,9743
116.35872,39.96669,32,9743
116.35862,39.96667,33,9743
116.35863,39.9666,34,9743
116.3518,39.96655,35,9743
116.35578,39.97533,36,9743
116.36204,39.97528,37,9743
116.36204,39.97528,38,9743
116.37472,39.97319,39,9743
116.37354,39.96224,40,9743
116.37292,39.96296,41,9743
116.37261,39.96278,42,9743
116.37261,39.96278,43,9743
116.37273,39.9568,44,9743
116.36017,39.95662,45,9743
116.35524,39.95547,46,9743
116.35522,39.95261,47,9743
116.35532,39.95279,48,9743
116.35503,39.95283,49,9743
116.35514,39.95263,50,9743
116.35498,39.95263,51,9743
116.35515,39.95664,52,9743
116.34963,39.95667,53,9743
116.34548,39.95671,54,9743
116.34493,39.95672,55,9743
116.34125,39.95679,56,9743
116.33621,39.95667,57,9743
116.3228,39.95055,58,9743
116.32194,39.95034,59,9743
116.32194,39.95034,60,9743
116.31702,39.95819,61,9743
116.31632,39.96265,62,9743
116.31424,39.96845,63,9743
116.31426,39.96856,64,9743
116.31091,39.97714,65,9743
116.31053,39.9794,66,9743
116.31055,39.98359,67,9743
116.31055,39.98359,68,9743
116.31049,39.98357,69,9743
116.31493,39.99501,70,9743
116.31269,40.00107,71,9743
116.31233,40.00399,72,9743
116.30752,40.0245,73,9743
116.29464,40.02383,74,9743
116.29306,40.02359,75,9743
116.27342,40.02368,76,9743
116.27077,40.0262,77,9743
116.27418,40.0221,78,9743
116.27418,40.02209,79,9743
116.27429,40.02243,80,9743
116.27441,40.02238,81,9743
116.27624,40.0201,82,9743
116.2787,40.02052,83,9743
116.29465,40.02375,84,9743
116.29128,40.02328,85,9743
116.28922,40.02304,86,9743
116.28964,40.02306,87,9743
116.30698,40.02482,88,9743
116.30693,40.02476,89,9743
116.30901,40.03561,90,9743
116.30889,40.02814,91,9743
116.30751,40.02792,92,9743
116.29183,40.03281,93,9743
116.28903,40.03167,94,9743
116.30756,40.0238,95,9743
116.30865,40.01784,96,9743
116.32476,40.01188,97,9743
116.32883,40.00866,98,9743
116.33083,39.99173,99,9743
116.34532,39.99193,100,9743
116.34541,39.992,101,9743
116.34541,39.992,102,9743
116.3475,39.98643,103,9743
116.34712,39.9898,104,9743
116.33243,39.98528,105,9743
116.32816,39.98507,106,9743
116.32316,39.98491,107,9743
116.32316,39.98491,108,9743
116.32271,39.98483,109,9743
116.31879,39.97855,110,9743
116.31899,39.9756,111,9743
116.3209,39.97484,112,9743
116.3209,39.97484,113,9743
116.32174,39.975,114,9743
116.3221,39.98823,115,9743
116.3221,39.98819,116,9743
116.31811,39.98657,117,9743
116.31562,39.98646,118,9743
116.32623,39.99136,119,9743
116.32671,39.99134,120,9743
116.33399,39.99161,121,9743
116.33441,39.989,122,9743
116.34753,39.98624,123,9743
116.34731,39.98783,124,9743
116.33448,39.98426,125,9743
116.33497,39.97852,126,9743
116.33143,39.97515,127,9743
116.3314,39.9751,128,9743
116.32837,39.97519,129,9743
116.32831,39.97527,130,9743
116.32785,39.96797,131,9743
116.32791,39.96767,132,9743
116.30282,39.96114,133,9743
116.30316,39.95377,134,9743
116.3033,39.95218,135,9743
116.30363,39.94829,136,9743
116.30371,39.9473,137,9743
116.30393,39.94313,138,9743
116.30372,39.94244,139,9743
116.30389,39.94001,140,9743
116.30392,39.93946,141,9743
116.30372,39.93721,142,9743
116.30396,39.93696,143,9743
116.3039,39.93314,144,9743
116.30382,39.93222,145,9743
116.30374,39.92589,146,9743
116.30387,39.92567,147,9743
116.30281,39.92319,148,9743
116.29894,39.92296,149,9743
116.27979,39.92311,150,9743
116.27898,39.92315,151,9743
116.27825,39.92299,152,9743
116.27835,39.92298,153,9743
116.28367,39.93087,154,9743
116.29385,39.93102,155,9743
116.30436,39.93814,156,9743
116.30436,39.93814,157,9743
116.30436,39.93814,158,9743
116.30434,39.94299,159,9743
116.3033,39.95433,160,9743
116.30195,39.9619,161,9743
116.29498,39.97782,162,9743
116.29498,39.97782,163,9743
116.29934,39.98661,164,9743
116.29889,39.98745,165,9743
116.32383,39.98448,166,9743
116.34702,39.98526,167,9743
116.34703,39.98528,168,9743
116.34582,39.98762,169,9743
116.32684,39.99137,170,9743
116.32088,39.9913,171,9743
116.30947,39.99953,172,9743
116.30943,39.99931,173,9743
116.30284,39.99795,174,9743
116.29864,39.99627,175,9743
116.28134,40.00068,176,9743
116.2804,40.00059,177,9743
116.26168,40.00908,178,9743
116.26119,40.01445,179,9743
116.25914,40.02916,180,9743
116.25894,40.03356,181,9743
116.23883,40.04464,182,9743
116.23502,40.04439,183,9743
116.20501,40.03927,184,9743
116.19904,40.04037,185,9743
116.15934,40.05267,186,9743
116.15547,40.05356,187,9743
116.12932,40.07626,188,9743
116.12818,40.08322,189,9743
116.12478,40.11685,190,9743
116.12504,40.11959,191,9743
116.11198,40.12729,192,9743
116.11266,40.12791,193,9743
116.11292,40.1281,194,9743
116.11291,40.12803,195,9743
116.11288,40.12803,196,9743
116.11286,40.12803,197,9743
116.11292,40.12807,198,9743
116.1129,40.12805,199,9743
116.11292,40.12805,200,9743
116.11283,40.128,201,9743
116.11281,40.12799,202,9743
116.11288,40.12806,203,9743
116.11288,40.12805,204,9743
116.11285,40.12803,205,9743
116.11287,40.12803,206,9743
116.11283,40.12801,207,9743
116.11281,40.12799,208,9743
116.11281,40.12805,209,9743
116.11283,40.12806,210,9743
116.11286,40.12806,211,9743
116.11289,40.12807,212,9743
116.11285,40.12804,213,9743
116.11286,40.12803,214,9743
116.11284,40.12802,215,9743
116.11285,40.12805,216,9743
116.11285,40.12805,217,9743
116.11284,40.12806,218,9743
116.11287,40.12808,219,9743
116.11287,40.12808,220,9743
116.11284,40.12806,221,9743
116.11284,40.12806,222,9743
116.11286,40.12808,223,9743
116.11289,40.12808,224,9743
116.11287,40.12806,225,9743
116.11287,40.12804,226,9743
116.11787,40.12582,227,9743
116.13352,40.13457,228,9743
116.13361,40.13554,229,9743
116.12371,40.16688,230,9743
116.12303,40.16831,231,9743
116.11308,40.1959,232,9743
116.11475,40.19597,233,9743
116.15388,40.19739,234,9743
116.15586,40.19753,235,9743
116.19372,40.19962,236,9743
116.19501,40.19959,237,9743
116.22211,40.1986,238,9743
116.22216,40.19874,239,9743
116.23477,40.20413,240,9743
116.23477,40.20521,241,9743
116.22754,40.21823,242,9743
116.22759,40.21846,243,9743
116.2275,40.21777,244,9743
116.22747,40.21742,245,9743
116.22758,40.21487,246,9743
116.22744,40.21462,247,9743
116.22753,40.2146,248,9743
116.22751,40.21457,249,9743
116.22517,40.21143,250,9743
116.21678,40.21056,251,9743
116.22225,40.19923,252,9743
116.20153,40.19927,253,9743
116.19121,40.1997,254,9743
116.16449,40.19821,255,9743
116.14423,40.19699,256,9743
116.11363,40.19593,257,9743
116.11472,40.18545,258,9743
116.13087,40.15116,259,9743
116.13466,40.13953,260,9743
116.13465,40.13964,261,9743
116.13466,40.13951,262,9743
116.13466,40.13951,263,9743
116.13436,40.1393,264,9743
116.12529,40.12824,265,9743
116.1139,40.12579,266,9743
116.1129,40.12807,267,9743
116.1129,40.12808,268,9743
116.11283,40.12814,269,9743
116.11287,40.12805,270,9743
116.11286,40.128,271,9743
116.11285,40.12806,272,9743
116.11286,40.12804,273,9743
116.11286,40.12804,274,9743
116.11286,40.12804,275,9743
116.11286,40.12804,276,9743
116.11286,40.12804,277,9743
116.11286,40.12804,278,9743
116.11286,40.12804,279,9743
116.11286,40.12804,280,9743
116.11286,40.12804,281,9743
116.11286,40.12804,282,9743
116.11286,40.12804,283,9743
116.11286,40.12804,284,9743
116.11286,40.12804,285,9743
116.11286,40.12804,286,9743
116.11286,40.12804,287,9743
116.11286,40.12804,288,9743
116.11286,40.12804,289,9743
116.11286,40.12804,290,9743
116.11286,40.12804,291,9743
116.11286,40.12804,292,9743
116.11286,40.12804,293,9743
116.11286,40.12804,294,9743
116.11179,40.12573,295,9743
116.1128,40.12573,296,9743
116.12099,40.1197,297,9743
116.12519,40.11872,298,9743
116.12956,40.07422,299,9743
116.13081,40.0677,300,9743
116.16069,40.05225,301,9743
116.16838,40.05037,302,9743
116.20034,40.04003,303,9743
116.20518,40.03914,304,9743
116.23671,40.04442,305,9743
116.24031,40.04471,306,9743
116.25915,40.03083,307,9743
116.25906,40.0307,308,9743
116.27258,40.01975,309,9743
116.27634,40.01984,310,9743
116.29046,39.99152,311,9743
116.29338,39.9865,312,9743
116.29968,39.98094,313,9743
116.30185,39.9811,314,9743
116.30451,39.97589,315,9743
116.30434,39.97582,316,9743
116.30409,39.97559,317,9743
116.30444,39.97575,318,9743
116.30509,39.97486,319,9743
116.30683,39.97453,320,9743
116.31994,39.96573,321,9743
116.32653,39.96618,322,9743
116.37173,39.96673,323,9743
116.37613,39.96677,324,9743
116.40358,39.96745,325,9743
116.40583,39.96738,326,9743
116.39837,39.96757,327,9743
116.39303,39.96752,328,9743
116.38917,39.97385,329,9743
116.39476,39.97383,330,9743
116.39476,39.97383,331,9743
116.39496,39.9676,332,9743
116.39486,39.96765,333,9743
116.39373,39.96757,334,9743
116.39121,39.96744,335,9743
116.39121,39.96744,336,9743
116.37245,39.98557,337,9743
116.37006,39.99215,338,9743
116.35156,40.01696,339,9743
116.35156,40.01696,340,9743
116.34999,40.01886,341,9743
116.36131,40.00336,342,9743
116.36553,39.99764,343,9743
116.3675,39.98078,344,9743
116.36417,39.98064,345,9743
116.35805,39.9861,346,9743
116.3519,39.98594,347,9743
116.34011,39.97526,348,9743
116.33974,39.97518,349,9743
116.34095,39.97532,350,9743
116.347,39.96914,351,9743
116.32821,39.9652,352,9743
116.31972,39.9662,353,9743
116.3118,39.97418,354,9743
116.30448,39.97589,355,9743
116.30448,39.97589,356,9743
116.31106,39.97451,357,9743
116.31488,39.96585,358,9743
116.31847,39.94585,359,9743
116.3185,39.94608,360,9743
116.31799,39.95067,361,9743
116.31687,39.95843,362,9743
116.3142,39.96853,363,9743
116.31841,39.97485,364,9743
116.32732,39.97499,365,9743
116.37429,39.96983,366,9743
116.37284,39.96732,367,9743
116.36033,39.96666,368,9743
116.35895,39.96663,369,9743
116.3588,39.96665,370,9743
116.35881,39.96664,371,9743
116.35876,39.96662,372,9743
116.35876,39.96662,373,9743
116.35881,39.96665,374,9743
116.35883,39.96665,375,9743
116.3587,39.96665,376,9743
116.35868,39.96663,377,9743
116.35871,39.96661,378,9743
116.35858,39.96664,379,9743
116.3586,39.96664,380,9743
116.34867,39.95636,381,9743
116.34892,39.95177,382,9743
116.34717,39.93917,383,9743
116.34228,39.93853,384,9743
116.31981,39.93773,385,9743
116.31978,39.93772,386,9743
116.30898,39.94431,387,9743
116.30762,39.94429,388,9743
116.30315,39.95684,389,9743
116.3023,39.96072,390,9743
116.30097,39.96521,391,9743
116.30097,39.96526,392,9743
116.30132,39.96896,393,9743
116.29183,39.9908,394,9743
116.29017,39.99219,395,9743
116.28698,39.99269,396,9743
116.28658,39.9926,397,9743
116.28405,39.99749,398,9743
116.28258,40.00224,399,9743
116.27711,40.01947,400,9743
116.2802,40.02132,401,9743
116.28955,40.02315,402,9743
116.27894,40.02077,403,9743
116.27894,40.02077,404,9743
116.26909,40.01965,405,9743
116.26863,40.01969,406,9743
116.26858,40.01969,407,9743
116.26861,40.0198,408,9743
116.26857,40.01976,409,9743
116.26861,40.01973,410,9743
116.26849,40.0196,411,9743
116.26887,40.01951,412,9743
116.2618,40.0193,413,9743
116.26313,40.00735,414,9743
116.25156,40.00472,415,9743
116.24725,40.00967,416,9743
116.24706,40.00886,417,9743
116.2787,40.00042,418,9743
116.28593,39.99578,419,9743
116.28593,39.99578,420,9743
116.29374,39.98514,421,9743
116.29476,39.97376,422,9743
116.29078,39.96703,423,9743
116.29101,39.96672,424,9743
116.29627,39.96488,425,9743
116.29642,39.96471,426,9743
116.30191,39.95777,427,9743
116.30267,39.95553,428,9743
116.30398,39.93427,429,9743
116.3041,39.9267,430,9743
116.30412,39.90981,431,9743
116.30413,39.9053,432,9743
116.31311,39.89546,433,9743
116.31429,39.89495,434,9743
116.31036,39.89591,435,9743
116.30451,39.8984,436,9743
116.30451,39.8984,437,9743
116.3059,39.90554,438,9743
116.30526,39.90723,439,9743
116.30471,39.90764,440,9743
116.30462,39.90846,441,9743
116.30451,39.90849,442,9743
116.30454,39.90852,443,9743
116.30458,39.9084,444,9743
116.30416,39.93531,445,9743
116.30401,39.94542,446,9743
116.29759,39.95525,447,9743
116.29759,39.95525,448,9743
116.29642,39.9586,449,9743
116.28229,39.95646,450,9743
116.28399,39.95803,451,9743
116.27403,39.96494,452,9743
116.27392,39.96316,453,9743
116.26903,39.96516,454,9743
116.27068,39.96718,455,9743
116.26685,39.97124,456,9743
116.26856,39.96906,457,9743
116.27384,39.96011,458,9743
116.27246,39.96012,459,9743
116.27694,39.97249,460,9743
116.283,39.97684,461,9743
116.29434,39.97887,462,9743
116.29501,39.97688,463,9743
116.29939,39.98616,464,9743
116.29928,39.98611,465,9743
116.29963,39.98611,466,9743
116.29957,39.98626,467,9743
116.29892,39.98612,468,9743
116.2987,39.98848,469,9743
116.2994,39.98377,470,9743
116.30011,39.97627,471,9743
116.29237,39.97085,472,9743
116.29146,39.96988,473,9743
116.29936,39.9743,474,9743
116.30181,39.97436,475,9743
116.31102,39.97462,476,9743
116.31855,39.97484,477,9743
116.34439,39.97511,478,9743
116.35912,39.9753,479,9743
116.36269,39.97525,480,9743
116.37856,39.97541,481,9743
116.38055,39.97543,482,9743
116.39553,39.97263,483,9743
116.39577,39.97164,484,9743
116.39551,39.97256,485,9743
116.39553,39.97118,486,9743
116.39553,39.97118,487,9743
116.39526,39.96758,488,9743
116.39524,39.9676,489,9743
116.39508,39.96767,490,9743
116.39508,39.96762,491,9743
116.395,39.96761,492,9743
116.39503,39.96763,493,9743
116.39496,39.96761,494,9743
116.39487,39.9677,495,9743
116.37575,39.96685,496,9743
116.32137,39.96611,497,9743
116.32137,39.96611,498,9743
116.31738,39.96604,499,9743
116.31159,39.97438,500,9743
116.31095,39.98095,501,9743
116.31091,39.98112,502,9743
116.31044,39.98339,503,9743
116.31046,39.98335,504,9743
116.28604,40.03538,505,9743
116.2891,40.03127,506,9743
116.28991,40.02698,507,9743
116.2892,40.02308,508,9743
116.28925,40.02301,509,9743
116.289,40.02313,510,9743
116.28901,40.02307,511,9743
116.27745,40.01866,512,9743
116.282,40.00712,513,9743
116.29428,39.9805,514,9743
116.2921,39.9731,515,9743
116.28894,39.96094,516,9743
116.2925,39.96706,517,9743
116.30049,39.97287,518,9743
116.30399,39.9745,519,9743
116.31099,39.97483,520,9743
116.30842,39.97479,521,9743
116.30513,39.9751,522,9743
116.30453,39.97456,523,9743
116.30085,39.96959,524,9743
116.30156,39.96236,525,9743
116.31934,39.96588,526,9743
116.33397,39.96625,527,9743
116.37069,39.96653,528,9743
116.37303,39.95701,529,9743
116.37303,39.95701,530,9743
116.37602,39.94578,531,9743
116.38411,39.94118,532,9743
116.38983,39.93615,533,9743
116.38782,39.93214,534,9743
116.37354,39.93481,535,9743
116.37305,39.93905,536,9743
116.36532,39.9507,537,9743
116.3653,39.94745,538,9743
116.35659,39.94449,539,9743
116.34168,39.94361,540,9743
116.32814,39.96582,541,9743
116.31663,39.9661,542,9743
116.31462,39.96765,543,9743
116.31463,39.96766,544,9743
116.31459,39.96766,545,9743
116.31459,39.96771,546,9743
116.31463,39.9677,547,9743
116.31456,39.96767,548,9743
116.31467,39.96764,549,9743
116.31457,39.96769,550,9743
116.31463,39.96765,551,9743
116.31463,39.96764,552,9743
116.31463,39.9676,553,9743
116.31456,39.96766,554,9743
116.18723,40.04614,555,9743
116.15606,40.05338,556,9743
116.14676,40.05683,557,9743
116.12938,40.07564,558,9743
116.12818,40.08316,559,9743
116.12478,40.11719,560,9743
116.12116,40.11958,561,9743
116.11291,40.12792,562,9743
116.11286,40.12805,563,9743
116.11287,40.12805,564,9743
116.11285,40.12806,565,9743
116.11285,40.12806,566,9743
116.11285,40.12806,567,9743
116.11285,40.12806,568,9743
116.11285,40.12806,569,9743
116.11285,40.12806,570,9743
116.11285,40.12806,571,9743
116.11285,40.12806,572,9743
116.11285,40.12806,573,9743
116.11285,40.12806,574,9743
116.11285,40.12806,575,9743
116.11285,40.12806,576,9743
116.11285,40.12806,577,9743
116.11285,40.12806,578,9743
116.11285,40.12806,579,9743
116.11285,40.12806,580,9743
116.11285,40.12806,581,9743
116.11285,40.12806,582,9743
116.11285,40.12806,583,9743
116.11285,40.12806,584,9743
116.11285,40.12806,585,9743
116.11285,40.12806,586,9743
116.11285,40.12806,587,9743
116.11291,40.12807,588,9743
116.11193,40.12572,589,9743
116.11344,40.12574,590,9743
116.11843,40.12609,591,9743
116.1184,40.12607,592,9743
116.12621,40.10555,593,9743
116.12771,40.08513,594,9743
116.13388,40.06301,595,9743
116.43479,39.9274,596,9743
116.15793,40.05266,597,9743
116.15827,40.05267,598,9743
116.15827,40.05266,599,9743
116.15833,40.05266,600,9743
116.15921,40.05187,601,9743
116.15921,40.05187,602,9743
116.16925,40.0443,603,9743
116.18668,40.03903,604,9743
116.21072,40.03847,605,9743
116.22706,40.04323,606,9743
116.25247,40.04076,607,9743
116.2591,40.03053,608,9743
116.26228,40.03016,609,9743
116.26814,40.02899,610,9743
116.27598,40.02024,611,9743
116.28174,40.00878,612,9743
116.29344,39.9873,613,9743
116.29858,39.97007,614,9743
116.30376,39.94652,615,9743
116.3039,39.92585,616,9743
116.30262,39.92017,617,9743
116.30439,39.92403,618,9743
116.30352,39.95109,619,9743
116.29839,39.97033,620,9743
116.29913,39.98369,621,9743
116.29913,39.98369,622,9743
116.30233,39.98379,623,9743
116.30378,39.98376,624,9743
116.30385,39.98389,625,9743
116.30375,39.98379,626,9743
116.30377,39.98377,627,9743
116.30384,39.98383,628,9743
116.31207,39.98406,629,9743
116.3296,39.98628,630,9743
116.33258,39.99164,631,9743
116.33711,39.99374,632,9743
116.33702,39.99178,633,9743
116.33111,39.99164,634,9743
116.32121,39.99139,635,9743
116.31552,39.99145,636,9743
116.32096,39.98859,637,9743
116.32092,39.98849,638,9743
116.32087,39.98863,639,9743
116.32062,39.9888,640,9743
116.32078,39.98883,641,9743
116.32088,39.98891,642,9743
116.32064,39.98878,643,9743
116.32089,39.98886,644,9743
116.32104,39.98531,645,9743
116.31067,39.98446,646,9743
116.29607,39.98383,647,9743
116.27261,39.97075,648,9743
116.26794,39.94019,649,9743
116.26817,39.92426,650,9743
116.26817,39.92426,651,9743
116.26663,39.9197,652,9743
116.26982,39.92136,653,9743
116.27136,39.93133,654,9743
116.28401,39.93085,655,9743
116.29803,39.93553,656,9743
116.30379,39.93954,657,9743
116.30401,39.92367,658,9743
116.30407,39.91133,659,9743
116.30352,39.90505,660,9743
116.31459,39.90609,661,9743
116.33594,39.90588,662,9743
116.34082,39.9053,663,9743
116.34013,39.90271,664,9743
116.33735,39.90508,665,9743
116.33821,39.90734,666,9743
116.33529,39.91273,667,9743
116.3283,39.91193,668,9743
116.31534,39.90982,669,9743
116.30885,39.90993,670,9743
116.29604,39.91215,671,9743
116.29604,39.91215,672,9743
116.29551,39.91311,673,9743
116.29464,39.91523,674,9743
116.29476,39.91531,675,9743
116.30299,39.92254,676,9743
116.3039,39.92227,677,9743
116.30443,39.92439,678,9743
116.30443,39.9244,679,9743
116.30448,39.92439,680,9743
116.3045,39.92439,681,9743
116.30443,39.92434,682,9743
116.30439,39.9244,683,9743
116.3044,39.92442,684,9743
116.30439,39.92435,685,9743
116.30444,39.92441,686,9743
116.30447,39.92446,687,9743
116.30422,39.92528,688,9743
116.30414,39.92623,689,9743
116.311,39.9514,690,9743
116.31119,39.95176,691,9743
116.32975,39.95087,692,9743
116.33017,39.94998,693,9743
116.34604,39.93916,694,9743
116.34918,39.93095,695,9743
116.34968,39.92436,696,9743
116.34952,39.92395,697,9743
116.33869,39.92206,698,9743
116.33732,39.92198,699,9743
116.33732,39.92198,700,9743
116.30536,39.92275,701,9743
116.30536,39.92275,702,9743
116.30236,39.92284,703,9743
116.28318,39.92921,704,9743
116.28321,39.92922,705,9743
116.29612,39.93105,706,9743
116.29612,39.93105,707,9743
116.29755,39.93107,708,9743
116.29841,39.93141,709,9743
116.29842,39.93121,710,9743
116.30742,39.93112,711,9743
116.32133,39.93125,712,9743
116.33724,39.93098,713,9743
116.34632,39.9313,714,9743
116.3498,39.9327,715,9743
116.35001,39.94906,716,9743
116.35369,39.95116,717,9743
116.35535,39.95262,718,9743
116.35515,39.95421,719,9743
116.35536,39.95539,720,9743
116.35519,39.95527,721,9743
116.35528,39.95538,722,9743
116.35514,39.95548,723,9743
116.34968,39.95658,724,9743
116.34502,39.95666,725,9743
116.33334,39.95636,726,9743
116.32876,39.96045,727,9743
116.33537,39.96553,728,9743
116.33894,39.95905,729,9743
116.34475,39.95667,730,9743
116.34893,39.95676,731,9743
116.34809,39.97446,732,9743
116.34385,39.97206,733,9743
116.33309,39.97515,734,9743
116.33309,39.97515,735,9743
116.33147,39.97693,736,9743
116.32731,39.97958,737,9743
116.32711,39.9843,738,9743
116.32434,39.98494,739,9743
116.32437,39.98494,740,9743
116.32438,39.98495,741,9743
116.3243,39.98491,742,9743
116.32428,39.9849,743,9743
116.32433,39.98486,744,9743
116.3243,39.98486,745,9743
116.32424,39.9849,746,9743
116.32428,39.98485,747,9743
116.32402,39.98492,748,9743
116.32406,39.98481,749,9743
116.32412,39.98493,750,9743
116.32395,39.98481,751,9743
116.32386,39.98471,752,9743
116.32377,39.98471,753,9743
116.32387,39.98485,754,9743
116.32384,39.9848,755,9743
116.32384,39.98486,756,9743
116.32373,39.98488,757,9743
116.32356,39.98479,758,9743
116.32362,39.98483,759,9743
116.32358,39.98483,760,9743
116.32363,39.98489,761,9743
116.32346,39.98483,762,9743
116.32355,39.98485,763,9743
116.32347,39.98485,764,9743
116.32346,39.98486,765,9743
116.32346,39.98486,766,9743
116.3235,39.98489,767,9743
116.32325,39.98486,768,9743
116.32317,39.98486,769,9743
116.32321,39.98481,770,9743
116.32316,39.98485,771,9743
116.32321,39.98485,772,9743
116.30989,39.98726,773,9743
116.30943,39.99349,774,9743
116.3118,40.01468,775,9743
116.30796,40.02113,776,9743
116.28672,40.03124,777,9743
116.28604,40.03266,778,9743
116.29017,40.0265,779,9743
116.28921,40.02309,780,9743
116.2886,40.02289,781,9743
116.30244,40.02446,782,9743
116.31055,40.0161,783,9743
116.30896,39.99948,784,9743
116.30896,39.99948,785,9743
116.30957,39.99199,786,9743
116.30653,39.98907,787,9743
116.30244,39.99123,788,9743
116.29312,39.99149,789,9743
116.29256,39.99168,790,9743
116.29412,39.98231,791,9743
116.3005,39.96877,792,9743
116.43244,39.85728,793,9743
116.30409,39.90465,794,9743
116.30255,39.8951,795,9743
116.31314,39.89553,796,9743
116.31371,39.89512,797,9743
116.31619,39.89484,798,9743
116.31501,39.90259,799,9743
116.31561,39.90697,800,9743
116.31559,39.90692,801,9743
116.31486,39.90735,802,9743
116.31483,39.90655,803,9743
116.3044,39.91934,804,9743
116.30446,39.9221,805,9743
116.30445,39.92433,806,9743
116.30442,39.92435,807,9743
116.30439,39.92439,808,9743
116.30441,39.92439,809,9743
116.30447,39.92446,810,9743
116.30446,39.92454,811,9743
116.30448,39.92458,812,9743
116.30452,39.92446,813,9743
116.30446,39.92454,814,9743
116.30445,39.92452,815,9743
116.30236,39.959,816,9743
116.30929,39.96338,817,9743
116.31253,39.97221,818,9743
116.3115,39.97386,819,9743
116.30601,39.98121,820,9743
116.3053,39.98131,821,9743
116.30986,39.98391,822,9743
116.31025,39.98489,823,9743
116.30961,39.99917,824,9743
116.3098,39.99938,825,9743
116.29881,39.99626,826,9743
116.28908,39.99375,827,9743
116.292,39.99012,828,9743
116.28633,39.99271,829,9743
116.28632,39.99274,830,9743
116.29453,39.98297,831,9743
116.29822,39.98357,832,9743
116.30655,39.97744,833,9743
116.30639,39.97736,834,9743
116.30359,39.97577,835,9743
116.30245,39.9776,836,9743
116.30245,39.9776,837,9743
116.3049,39.98212,838,9743
116.30466,39.98114,839,9743
116.29933,39.98455,840,9743
116.29436,39.9842,841,9743
116.28208,40.00792,842,9743
116.28102,40.01403,843,9743
116.29223,40.02272,844,9743
116.29223,40.02272,845,9743
116.2925,40.02277,846,9743
116.2905,40.02323,847,9743
116.28755,40.02282,848,9743
116.27067,40.01969,849,9743
116.27797,40.02018,850,9743
116.29069,40.02315,851,9743
116.30796,40.0322,852,9743
116.3095,40.03101,853,9743
116.30777,40.02793,854,9743
116.29589,40.03313,855,9743
116.27563,40.03271,856,9743
116.26737,40.03146,857,9743
116.26053,40.03003,858,9743
116.25672,40.03823,859,9743
116.23657,40.04449,860,9743
116.22294,40.04197,861,9743
116.20095,40.04006,862,9743
116.20095,40.04006,863,9743
116.18134,40.04749,864,9743
116.15863,40.05446,865,9743
116.15532,40.06678,866,9743
116.13106,40.06719,867,9743
116.12778,40.08543,868,9743
116.12522,40.11052,869,9743
116.12101,40.12227,870,9743
116.11158,40.12663,871,9743
116.11284,40.12807,872,9743
116.11284,40.12808,873,9743
116.11284,40.12808,874,9743
116.11284,40.12808,875,9743
116.11284,40.12808,876,9743
116.11284,40.12808,877,9743
116.11284,40.12808,878,9743
116.11284,40.12808,879,9743
116.11284,40.12808,880,9743
116.11284,40.12808,881,9743
116.11284,40.12808,882,9743
116.11284,40.12808,883,9743
116.11284,40.12808,884,9743
116.11284,40.12808,885,9743
116.11284,40.12808,886,9743
116.11284,40.12808,887,9743
116.11284,40.12808,888,9743
116.11284,40.12808,889,9743
116.11284,40.12808,890,9743
116.11284,40.12808,891,9743
116.11284,40.12808,892,9743
116.11284,40.12808,893,9743
116.11284,40.12808,894,9743
116.11284,40.12808,895,9743
116.11225,40.1279,896,9743
116.11231,40.12789,897,9743
116.11212,40.12787,898,9743
116.12157,40.12763,899,9743
116.12494,40.11822,900,9743
116.12706,40.08857,901,9743
116.13164,40.06599,902,9743
116.15914,40.05221,903,9743
116.16624,40.04515,904,9743
116.18577,40.03915,905,9743
116.22917,40.04387,906,9743
116.22917,40.04387,907,9743
116.24437,40.04407,908,9743
116.25905,40.03133,909,9743
116.25912,40.03004,910,9743
116.27084,40.02603,911,9743
116.27418,40.02207,912,9743
116.27422,40.02217,913,9743
116.27425,40.02218,914,9743
116.27431,40.02228,915,9743
116.27431,40.02222,916,9743
116.27425,40.02214,917,9743
116.27422,40.02206,918,9743
116.27422,40.02223,919,9743
116.27417,40.02209,920,9743
116.27191,40.01984,921,9743
116.27576,40.02004,922,9743
116.28531,39.9987,923,9743
116.29249,39.98423,924,9743
116.26757,39.96878,925,9743
116.26843,39.96334,926,9743
116.26854,39.94816,927,9743
116.26987,39.95158,928,9743
116.27853,39.95374,929,9743
116.28335,39.95743,930,9743
116.286,39.95708,931,9743
116.30266,39.96106,932,9743
116.32375,39.96601,933,9743
116.32749,39.97687,934,9743
116.32749,39.97687,935,9743
116.32656,39.99267,936,9743
116.32894,39.99586,937,9743
116.329,39.99581,938,9743
116.33453,40.00414,939,9743
116.33913,40.01358,940,9743
116.33911,40.0136,941,9743
116.33564,40.00667,942,9743
116.33068,39.99178,943,9743
116.32795,39.9916,944,9743
116.31283,39.99619,945,9743
116.30927,40.00223,946,9743
116.31233,40.01121,947,9743
116.30884,39.99892,948,9743
116.29479,39.99607,949,9743
116.28617,39.99547,950,9743
116.27646,39.99628,951,9743
116.28333,39.99773,952,9743
116.28451,39.99531,953,9743
116.28655,39.99261,954,9743
116.28655,39.99261,955,9743
116.2877,39.99543,956,9743
116.28834,39.99537,957,9743
116.28365,39.99768,958,9743
116.28169,40.00823,959,9743
116.27966,40.01656,960,9743
116.27215,40.02518,961,9743
116.27271,40.02384,962,9743
116.27613,40.02026,963,9743
116.28449,40.02232,964,9743
116.28927,40.02309,965,9743
116.28916,40.02311,966,9743
116.28923,40.02307,967,9743
116.2893,40.02296,968,9743
116.27764,40.02021,969,9743
116.2814,40.01078,970,9743
116.29675,39.97123,971,9743
116.30376,39.94656,972,9743
116.3041,39.92667,973,9743
116.30415,39.89971,974,9743
116.30461,39.88153,975,9743
116.30461,39.88153,976,9743
116.31277,39.85447,977,9743
116.32245,39.84665,978,9743
116.32762,39.84781,979,9743
116.31157,39.856,980,9743
116.30554,39.87584,981,9743
116.30573,39.88369,982,9743
116.30526,39.89506,983,9743
116.30526,39.89506,984,9743
116.30477,39.90772,985,9743
116.3046,39.90801,986,9743
116.30453,39.90793,987,9743
116.30451,39.90792,988,9743
116.30457,39.90795,989,9743
116.30457,39.90792,990,9743
116.3046,39.90795,991,9743
116.30436,39.91423,992,9743
116.29824,39.93598,993,9743
116.29061,39.94079,994,9743
116.29718,39.94335,995,9743
116.29946,39.94338,996,9743
116.29959,39.94317,997,9743
116.31629,39.93769,998,9743
116.3396,39.93724,999,9743
116.35042,39.93854,1000,9743
116.3467,39.93921,1001,9743
116.34013,39.94399,1002,9743
116.33004,39.9508,1003,9743
116.32887,39.95812,1004,9743
116.32887,39.95812,1005,9743
116.32811,39.96591,1006,9743
116.3024,39.96181,1007,9743
116.29471,39.97776,1008,9743
116.28652,39.99977,1009,9743
116.28063,40.00054,1010,9743
116.27735,39.99708,1011,9743
116.26964,40.00145,1012,9743
116.26532,40.00716,1013,9743
116.26112,40.01574,1014,9743
116.2591,40.0295,1015,9743
116.25868,40.03157,1016,9743
116.25859,40.03161,1017,9743
116.25848,40.03176,1018,9743
116.23756,40.04454,1019,9743
116.20184,40.03986,1020,9743
116.20113,40.04,1021,9743
116.17151,40.0497,1022,9743
116.16393,40.05149,1023,9743
116.16393,40.05149,1024,9743
116.15834,40.0526,1025,9743
116.15831,40.05259,1026,9743
116.15832,40.05261,1027,9743
116.15837,40.05265,1028,9743
116.15844,40.05255,1029,9743
116.15844,40.05255,1030,9743
116.15844,40.05259,1031,9743
116.15844,40.05259,1032,9743
116.15842,40.05254,1033,9743
116.15842,40.05258,1034,9743
116.15844,40.05254,1035,9743
116.15843,40.05261,1036,9743
116.15845,40.05261,1037,9743
116.15842,40.05259,1038,9743
116.15841,40.0526,1039,9743
116.15834,40.05265,1040,9743
116.15831,40.05264,1041,9743
116.1583,40.05261,1042,9743
116.15835,40.0527,1043,9743
116.1583,40.05275,1044,9743
116.15824,40.05272,1045,9743
116.15825,40.05275,1046,9743
116.15828,40.05279,1047,9743
116.15828,40.0527,1048,9743
116.15829,40.05271,1049,9743
116.15278,40.05457,1050,9743
116.14695,40.05673,1051,9743
116.12951,40.07501,1052,9743
116.12873,40.07983,1053,9743
116.12527,40.10819,1054,9743
116.12529,40.11052,1055,9743
116.12104,40.12002,1056,9743
116.12104,40.11998,1057,9743
116.12105,40.11996,1058,9743
116.12106,40.11996,1059,9743
116.12104,40.12001,1060,9743
116.12103,40.12001,1061,9743
116.12101,40.11998,1062,9743
116.12106,40.11997,1063,9743
116.12107,40.11998,1064,9743
116.12103,40.11997,1065,9743
116.11517,40.12585,1066,9743
116.1115,40.12586,1067,9743
116.11281,40.12809,1068,9743
116.11266,40.12793,1069,9743
116.11285,40.12576,1070,9743
116.121,40.12077,1071,9743
116.126,40.10603,1072,9743
116.13105,40.06711,1073,9743
116.18296,40.03955,1074,9743
116.20482,40.03925,1075,9743
116.22045,40.04101,1076,9743
116.24126,40.04464,1077,9743
116.25279,40.04066,1078,9743
116.25956,40.02399,1079,9743
116.26103,40.01507,1080,9743
116.26428,40.00448,1081,9743
116.27289,40.00101,1082,9743
116.28811,39.99537,1083,9743
116.29262,39.98254,1084,9743
116.33047,39.98478,1085,9743
116.36123,39.98576,1086,9743
116.39183,39.98665,1087,9743
116.42308,39.98755,1088,9743
116.42184,39.96839,1089,9743
116.41182,39.96381,1090,9743
116.41215,39.95617,1091,9743
116.41244,39.95456,1092,9743
116.33197,39.89622,1093,9743
116.29175,39.89582,1094,9743
116.26741,39.89586,1095,9743
116.25629,39.88834,1096,9743
116.25463,39.88585,1097,9743
116.25506,39.88584,1098,9743
116.25801,39.88841,1099,9743
116.24503,39.89583,1100,9743
116.21855,39.89587,1101,9743
116.21055,39.90029,1102,9743
116.21044,39.90046,1103,9743
116.21773,39.89775,1104,9743
116.22958,39.89554,1105,9743
116.25329,39.89571,1106,9743
116.25329,39.89571,1107,9743
116.29674,39.8957,1108,9743
116.31266,39.89557,1109,9743
116.31651,39.89513,1110,9743
116.31511,39.89882,1111,9743
116.31536,39.90616,1112,9743
116.31425,39.90983,1113,9743
116.31425,39.90983,1114,9743
116.29015,39.91717,1115,9743
116.29022,39.91717,1116,9743
116.27901,39.92168,1117,9743
116.27896,39.92188,1118,9743
116.26851,39.9358,1119,9743
116.26842,39.93715,1120,9743
116.25587,39.97298,1121,9743
116.25519,39.97379,1122,9743
116.23134,39.99172,1123,9743
116.22982,39.99166,1124,9743
116.22982,39.99166,1125,9743
116.23416,39.9918,1126,9743
116.23416,39.9918,1127,9743
116.23563,39.9919,1128,9743
116.2544,39.97462,1129,9743
116.25512,39.97377,1130,9743
116.2772,39.96522,1131,9743
116.27718,39.96518,1132,9743
116.29466,39.95814,1133,9743
116.29599,39.95839,1134,9743
116.31096,39.96399,1135,9743
116.31259,39.9646,1136,9743
116.32728,39.96607,1137,9743
116.32694,39.96625,1138,9743
116.31461,39.96761,1139,9743
116.31458,39.96767,1140,9743
116.3192,39.9712,1141,9743
116.31904,39.97463,1142,9743
116.31151,39.9749,1143,9743
116.30629,39.97922,1144,9743
116.30652,39.97954,1145,9743
116.30716,39.97978,1146,9743
116.29956,39.98332,1147,9743
116.29486,39.98415,1148,9743
116.28239,40.00552,1149,9743
116.277,40.01937,1150,9743
116.27321,40.02328,1151,9743
116.27578,40.02033,1152,9743
116.27808,40.02021,1153,9743
116.27649,40.0197,1154,9743
116.28309,39.99961,1155,9743
116.28826,39.99545,1156,9743
116.28826,39.99545,1157,9743
116.28684,39.99859,1158,9743
116.28676,39.9985,1159,9743
116.28322,39.99953,1160,9743
116.27655,40.00057,1161,9743
116.26712,40.00399,1162,9743
116.26662,40.00563,1163,9743
116.26057,40.02032,1164,9743
116.25921,40.02961,1165,9743
116.26989,40.02727,1166,9743
116.27322,40.02326,1167,9743
116.26686,40.01943,1168,9743
116.27208,40.01771,1169,9743
116.28873,40.02298,1170,9743
116.27904,40.02079,1171,9743
116.28158,40.00876,1172,9743
116.28215,40.00511,1173,9743
116.26936,40.00147,1174,9743
116.2684,40.00161,1175,9743
116.27269,40.00113,1176,9743
116.27269,40.00113,1177,9743
116.28201,40.00067,1178,9743
116.29331,39.988,1179,9743
116.29489,39.97348,1180,9743
116.32491,39.975,1181,9743
116.32855,39.97523,1182,9743
116.33257,39.96964,1183,9743
116.33208,39.9738,1184,9743
116.33225,39.97378,1185,9743
116.32783,39.96655,1186,9743
116.31933,39.96606,1187,9743
116.31644,39.96019,1188,9743
116.31644,39.96019,1189,9743
116.30984,39.9602,1190,9743
116.31701,39.95615,1191,9743
116.31103,39.95551,1192,9743
116.3061,39.94387,1193,9743
116.30604,39.94257,1194,9743
116.30418,39.94589,1195,9743
116.30414,39.94593,1196,9743
116.30409,39.94593,1197,9743
116.30409,39.94594,1198,9743
116.30412,39.94592,1199,9743
116.30411,39.94594,1200,9743
116.30411,39.94593,1201,9743
116.3041,39.94592,1202,9743
116.30413,39.94592,1203,9743
116.30411,39.94593,1204,9743
116.30417,39.94594,1205,9743
116.30411,39.94594,1206,9743
116.30412,39.94591,1207,9743
116.30417,39.94592,1208,9743
116.30412,39.94597,1209,9743
116.30418,39.94593,1210,9743
116.30415,39.94592,1211,9743
116.30411,39.94596,1212,9743
116.30412,39.94591,1213,9743
116.3041,39.94592,1214,9743
116.30414,39.94593,1215,9743
116.30417,39.9459,1216,9743
116.29597,39.97194,1217,9743
116.29476,39.97741,1218,9743
116.28145,40.0113,1219,9743
116.2811,40.01347,1220,9743
116.30699,40.02487,1221,9743
116.30697,40.02485,1222,9743
116.31424,40.03054,1223,9743
116.31423,40.0305,1224,9743
116.30922,40.03535,1225,9743
116.30922,40.03535,1226,9743
116.3101,40.03635,1227,9743
116.33557,40.03786,1228,9743
116.33558,40.0379,1229,9743
116.32456,40.04264,1230,9743
116.3075,40.04268,1231,9743
116.30628,40.04233,1232,9743
116.30628,40.04233,1233,9743
116.28443,40.06723,1234,9743
116.28312,40.06683,1235,9743
116.26278,40.07533,1236,9743
116.2628,40.07536,1237,9743
116.24459,40.0744,1238,9743
116.24463,40.07443,1239,9743
116.24324,40.06135,1240,9743
116.24396,40.05929,1241,9743
116.25258,40.0431,1242,9743
116.25437,40.04212,1243,9743
116.25908,40.02961,1244,9743
116.25903,40.02803,1245,9743
116.25908,40.03178,1246,9743
116.25898,40.03332,1247,9743
116.22075,40.04117,1248,9743
116.21865,40.04061,1249,9743
116.18798,40.04596,1250,9743
116.18537,40.04655,1251,9743
116.14706,40.05672,1252,9743
116.14441,40.05773,1253,9743
116.12685,40.09344,1254,9743
116.12685,40.09549,1255,9743
116.12007,40.12419,1256,9743
116.11848,40.12435,1257,9743
116.11285,40.12802,1258,9743
116.11286,40.12805,1259,9743
116.11282,40.12805,1260,9743
116.11432,40.12789,1261,9743
116.11648,40.12656,1262,9743
116.12547,40.11936,1263,9743
116.12666,40.10003,1264,9743
116.1298,40.07269,1265,9743
116.13857,40.06685,1266,9743
116.15594,40.06686,1267,9743
116.17798,40.06694,1268,9743
116.21276,40.06674,1269,9743
116.21493,40.0473,1270,9743
116.23961,40.04516,1271,9743
116.23961,40.04516,1272,9743
116.25183,40.04231,1273,9743
116.25994,40.03105,1274,9743
116.26004,40.02925,1275,9743
116.27299,40.01983,1276,9743
116.28209,40.00664,1277,9743
116.29329,39.98783,1278,9743
116.31023,39.98412,1279,9743
116.35104,39.98553,1280,9743
116.36303,39.99024,1281,9743
116.36331,39.98351,1282,9743
116.3636,39.97544,1283,9743
116.35772,39.96662,1284,9743
116.34694,39.96737,1285,9743
116.34996,39.94361,1286,9743
116.34937,39.93209,1287,9743
116.34942,39.93083,1288,9743
116.3501,39.9175,1289,9743
116.35651,39.91251,1290,9743
116.36075,39.90934,1291,9743
116.3581,39.91273,1292,9743
116.35034,39.91563,1293,9743
116.35017,39.91481,1294,9743
116.34998,39.91475,1295,9743
116.33886,39.91659,1296,9743
116.32881,39.92177,1297,9743
116.32865,39.92176,1298,9743
116.32865,39.92176,1299,9743
116.31984,39.93067,1300,9743
116.31994,39.93296,1301,9743
116.31141,39.94565,1302,9743
116.31147,39.94561,1303,9743
116.31108,39.94683,1304,9743
116.30846,39.94637,1305,9743
116.30335,39.94946,1306,9743
116.30398,39.93918,1307,9743
116.30414,39.90375,1308,9743
116.30413,39.89285,1309,9743
116.29927,39.86577,1310,9743
116.29927,39.86577,1311,9743
116.28825,39.86495,1312,9743
116.27727,39.85577,1313,9743
116.27825,39.85593,1314,9743
116.27767,39.86,1315,9743
116.28014,39.86381,1316,9743
116.28909,39.87704,1317,9743
116.28902,39.88344,1318,9743
116.29559,39.89027,1319,9743
116.28906,39.89249,1320,9743
116.30447,39.90285,1321,9743
116.30473,39.90775,1322,9743
116.30461,39.90787,1323,9743
116.3046,39.90786,1324,9743
116.30463,39.90793,1325,9743
116.30459,39.90784,1326,9743
116.30415,39.92858,1327,9743
116.30413,39.93789,1328,9743
116.29525,39.97293,1329,9743
116.29416,39.98361,1330,9743
116.2938,39.99132,1331,9743
116.2917,39.99194,1332,9743
116.28631,39.99265,1333,9743
116.28636,39.99254,1334,9743
116.28734,39.99267,1335,9743
116.28735,39.99267,1336,9743
116.27998,39.98929,1337,9743
116.27858,39.98935,1338,9743
116.28836,39.9954,1339,9743
116.28886,39.99549,1340,9743
116.29674,39.9842,1341,9743
116.29498,39.9842,1342,9743
116.30831,39.99857,1343,9743
116.3089,39.99821,1344,9743
116.32322,39.98494,1345,9743
116.32322,39.98489,1346,9743
116.32199,39.99127,1347,9743
116.32418,39.99137,1348,9743
116.31297,40.00647,1349,9743
116.31273,40.008,1350,9743
116.31273,40.008,1351,9743
116.29747,40.02416,1352,9743
116.29747,40.02416,1353,9743
116.29541,40.02387,1354,9743
116.27392,40.02281,1355,9743
116.27268,40.02423,1356,9743
116.25755,40.03823,1357,9743
116.25611,40.03935,1358,9743
116.23317,40.05092,1359,9743
116.23219,40.05101,1360,9743
116.22806,40.0437,1361,9743
116.22595,40.04298,1362,9743
116.20217,40.03562,1363,9743
116.20264,40.03472,1364,9743
116.21922,40.04066,1365,9743
116.22137,40.04129,1366,9743
116.25139,40.04132,1367,9743
116.25164,40.04119,1368,9743
116.27176,40.01974,1369,9743
116.27192,40.01975,1370,9743
116.29196,39.99042,1371,9743
116.29321,39.98897,1372,9743
116.30813,39.97229,1373,9743
116.30956,39.9724,1374,9743
116.3146,39.96776,1375,9743
116.31465,39.96772,1376,9743
116.31458,39.96768,1377,9743
116.31418,39.96851,1378,9743
116.31409,39.96902,1379,9743
116.3141,39.96895,1380,9743
116.31407,39.96899,1381,9743
116.31064,39.98132,1382,9743
116.3106,39.98324,1383,9743
116.31536,39.99102,1384,9743
116.31854,39.99108,1385,9743
116.32111,39.99098,1386,9743
116.32094,39.98769,1387,9743
116.31971,39.98235,1388,9743
116.32383,39.97503,1389,9743
116.33202,39.97503,1390,9743
116.34653,39.97488,1391,9743
116.34214,39.97402,1392,9743
116.32766,39.97523,1393,9743
116.32717,39.98393,1394,9743
116.32377,39.98485,1395,9743
116.32377,39.98492,1396,9743
116.32377,39.9849,1397,9743
116.32377,39.9849,1398,9743
116.32373,39.98493,1399,9743
116.32361,39.98485,1400,9743
116.32329,39.98491,1401,9743
116.32324,39.98488,1402,9743
116.32326,39.98491,1403,9743
116.32323,39.98495,1404,9743
116.32322,39.98484,1405,9743
116.33371,39.98479,1406,9743
116.34757,39.97801,1407,9743
116.35203,39.98031,1408,9743
116.35936,39.98027,1409,9743
116.35954,39.96917,1410,9743
116.36301,39.97526,1411,9743
116.37393,39.9669,1412,9743
116.39057,39.96712,1413,9743
116.40143,39.96072,1414,9743
116.41138,39.96077,1415,9743
116.42254,39.96084,1416,9743
116.42526,39.96425,1417,9743
