x,y,k,tid
116.33076,40.06989,0,9940
116.33841,40.07445,1,9940
116.33841,40.07445,2,9940
116.33433,40.06696,3,9940
116.34102,40.06094,4,9940
116.34097,40.06149,5,9940
116.34097,40.06149,6,9940
116.34097,40.06149,7,9940
116.34097,40.06149,8,9940
116.34097,40.06149,9,9940
116.34097,40.06149,10,9940
116.34097,40.06149,11,9940
116.34088,40.06159,12,9940
116.34093,40.06153,13,9940
116.34087,40.06162,14,9940
116.34085,40.06166,15,9940
116.34085,40.06166,16,9940
116.34085,40.06166,17,9940
116.34085,40.06166,18,9940
116.34085,40.06166,19,9940
116.34085,40.06166,20,9940
116.34088,40.06158,21,9940
116.34089,40.06157,22,9940
116.34081,40.06158,23,9940
116.34066,40.06157,24,9940
116.3405,40.06156,25,9940
116.34064,40.06159,26,9940
116.34064,40.06159,27,9940
116.34064,40.06159,28,9940
116.34171,40.06046,29,9940
116.32516,40.05566,30,9940
116.33455,40.03802,31,9940
116.34642,40.02069,32,9940
116.36771,39.99469,33,9940
116.37374,39.9928,34,9940
116.36976,39.99198,35,9940
116.36163,39.98621,36,9940
116.33992,39.98558,37,9940
116.33811,39.98484,38,9940
116.35124,39.98546,39,9940
116.37611,39.98616,40,9940
116.40201,39.99367,41,9940
116.37277,39.9863,42,9940
116.3476,39.98583,43,9940
116.34846,39.95696,44,9940
116.34993,39.94468,45,9940
116.34252,39.94837,46,9940
116.33898,39.94782,47,9940
116.34765,39.95668,48,9940
116.37488,39.96678,49,9940
116.40534,39.96734,50,9940
116.40534,39.96734,51,9940
116.40536,39.96735,52,9940
116.40534,39.96733,53,9940
116.42084,39.96778,54,9940
116.44013,39.95565,55,9940
116.42896,39.958,56,9940
116.45019,39.95482,57,9940
116.4475,39.95705,58,9940
116.44231,39.96055,59,9940
116.44273,39.94711,60,9940
116.43342,39.93992,61,9940
116.43342,39.93992,62,9940
116.42777,39.92828,63,9940
116.41735,39.92304,64,9940
116.41122,39.92233,65,9940
116.40974,39.91795,66,9940
116.40036,39.91431,67,9940
116.40056,39.90979,68,9940
116.40045,39.90863,69,9940
116.395,39.90639,70,9940
116.38149,39.90597,71,9940
116.37816,39.90586,72,9940
116.37005,39.90772,73,9940
116.37007,39.90951,74,9940
116.36786,39.91107,75,9940
116.35878,39.91665,76,9940
116.35023,39.9242,77,9940
116.35018,39.94723,78,9940
116.34755,39.97518,79,9940
116.34067,39.97509,80,9940
116.32974,39.97514,81,9940
116.33271,39.96938,82,9940
116.32703,39.96635,83,9940
116.3231,39.96629,84,9940
116.32084,39.96612,85,9940
116.3093,39.96595,86,9940
116.31594,39.96267,87,9940
116.31594,39.96267,88,9940
116.31597,39.9626,89,9940
116.31613,39.96238,90,9940
116.30905,39.95156,91,9940
116.31773,39.94735,92,9940
116.32086,39.93662,93,9940
116.32203,39.9365,94,9940
116.32248,39.9361,95,9940
116.35048,39.9387,96,9940
116.35028,39.94385,97,9940
116.34958,39.96586,98,9940
116.36746,39.9753,99,9940
116.37383,39.96391,100,9940
116.37733,39.96663,101,9940
116.37733,39.96663,102,9940
116.37799,39.96667,103,9940
116.38149,39.96674,104,9940
116.37461,39.96734,105,9940
116.36947,39.94754,106,9940
116.36575,39.93118,107,9940
116.39676,39.93205,108,9940
116.42737,39.93187,109,9940
116.4285,39.91523,110,9940
116.4285,39.91523,111,9940
116.43712,39.9021,112,9940
116.46619,39.89201,113,9940
116.47151,39.89309,114,9940
116.48394,39.92752,115,9940
116.49916,39.93574,116,9940
116.48366,39.92883,117,9940
116.49629,39.91436,118,9940
116.51218,39.91779,119,9940
116.53356,39.939,120,9940
116.53356,39.939,121,9940
116.53356,39.939,122,9940
116.53356,39.939,123,9940
116.53356,39.939,124,9940
116.53356,39.939,125,9940
116.53356,39.939,126,9940
116.53356,39.939,127,9940
116.53356,39.939,128,9940
116.53356,39.939,129,9940
116.53356,39.939,130,9940
116.53356,39.939,131,9940
116.53356,39.939,132,9940
116.53356,39.939,133,9940
116.53356,39.939,134,9940
116.53356,39.939,135,9940
116.53356,39.939,136,9940
116.53356,39.939,137,9940
116.53356,39.939,138,9940
116.53356,39.939,139,9940
116.38545,39.96173,140,9940
116.38545,39.96173,141,9940
116.38545,39.96173,142,9940
116.53356,39.939,143,9940
116.53356,39.939,144,9940
116.53356,39.939,145,9940
116.53356,39.939,146,9940
116.53356,39.939,147,9940
116.53356,39.939,148,9940
116.53356,39.939,149,9940
116.53356,39.939,150,9940
116.53356,39.939,151,9940
116.53356,39.939,152,9940
116.53356,39.939,153,9940
116.53356,39.939,154,9940
116.53356,39.939,155,9940
116.53356,39.939,156,9940
116.53356,39.939,157,9940
116.53356,39.939,158,9940
116.53356,39.939,159,9940
116.53356,39.939,160,9940
116.53356,39.939,161,9940
116.53356,39.939,162,9940
116.53356,39.939,163,9940
116.53356,39.939,164,9940
116.53356,39.939,165,9940
116.53356,39.939,166,9940
116.53356,39.939,167,9940
116.53356,39.939,168,9940
116.53356,39.939,169,9940
116.53356,39.939,170,9940
116.53356,39.939,171,9940
116.53356,39.939,172,9940
116.53356,39.939,173,9940
116.53356,39.939,174,9940
116.53356,39.939,175,9940
116.53356,39.939,176,9940
116.527,39.93811,177,9940
116.49497,39.93473,178,9940
116.48342,39.9095,179,9940
116.45504,39.90187,180,9940
116.45516,39.90152,181,9940
116.42184,39.89229,182,9940
116.37767,39.88817,183,9940
116.32011,39.88901,184,9940
116.32845,39.89402,185,9940
116.32091,39.88857,186,9940
116.34064,39.85243,187,9940
116.38064,39.84861,188,9940
116.37474,39.83288,189,9940
116.35624,39.83803,190,9940
116.35608,39.83872,191,9940
116.35625,39.83794,192,9940
116.35633,39.83784,193,9940
116.35633,39.83784,194,9940
116.35645,39.83778,195,9940
116.35645,39.83778,196,9940
116.35652,39.83783,197,9940
116.35663,39.83787,198,9940
116.35632,39.838,199,9940
116.35667,39.83794,200,9940
116.36056,39.83687,201,9940
116.3562,39.83809,202,9940
116.35917,39.83187,203,9940
116.49074,39.86246,204,9940
116.45229,39.84705,205,9940
116.35642,39.83863,206,9940
116.35632,39.83853,207,9940
116.35625,39.8383,208,9940
116.35625,39.8383,209,9940
116.35625,39.8383,210,9940
116.35625,39.8383,211,9940
116.35625,39.8383,212,9940
116.35625,39.8383,213,9940
116.35625,39.8383,214,9940
116.35625,39.8383,215,9940
116.35625,39.8383,216,9940
116.35625,39.8383,217,9940
116.35625,39.8383,218,9940
116.35625,39.8383,219,9940
116.35625,39.8383,220,9940
116.35625,39.8383,221,9940
116.35623,39.8384,222,9940
116.35623,39.8384,223,9940
116.35623,39.8384,224,9940
116.35623,39.8384,225,9940
116.35623,39.8384,226,9940
116.35623,39.8384,227,9940
116.35623,39.8384,228,9940
116.35623,39.8384,229,9940
116.3562,39.83837,230,9940
116.35615,39.83832,231,9940
116.35626,39.83837,232,9940
116.35626,39.83837,233,9940
116.35626,39.83837,234,9940
116.35626,39.83837,235,9940
116.35626,39.83837,236,9940
116.35626,39.83837,237,9940
116.35626,39.83837,238,9940
116.35626,39.83837,239,9940
116.35626,39.83837,240,9940
116.35626,39.83837,241,9940
116.35626,39.83837,242,9940
116.35626,39.83837,243,9940
116.35626,39.83837,244,9940
116.35288,39.88173,245,9940
116.35636,39.83811,246,9940
116.35636,39.83811,247,9940
116.35636,39.83811,248,9940
116.35636,39.83811,249,9940
116.35636,39.83811,250,9940
116.35636,39.83811,251,9940
116.35636,39.83811,252,9940
116.35636,39.83811,253,9940
116.35639,39.83758,254,9940
116.35639,39.83758,255,9940
116.35639,39.83758,256,9940
116.35639,39.83758,257,9940
116.3555,39.83851,258,9940
116.35925,39.84929,259,9940
116.37056,39.85197,260,9940
116.39145,39.85129,261,9940
116.39161,39.85561,262,9940
116.41494,39.85621,263,9940
116.40006,39.85581,264,9940
116.40479,39.86388,265,9940
116.41397,39.85607,266,9940
116.38816,39.85588,267,9940
116.38165,39.87016,268,9940
116.3683,39.87997,269,9940
116.36833,39.89096,270,9940
116.36805,39.90485,271,9940
116.36771,39.91298,272,9940
116.36695,39.92967,273,9940
116.3667,39.93728,274,9940
116.37083,39.9304,275,9940
116.3501,39.93106,276,9940
116.34997,39.91515,277,9940
116.35023,39.91004,278,9940
116.35035,39.90201,279,9940
116.35035,39.90201,280,9940
116.30334,39.89659,281,9940
116.30236,39.87732,282,9940
116.30326,39.88265,283,9940
116.30888,39.88526,284,9940
116.32722,39.88849,285,9940
116.34399,39.88656,286,9940
116.34259,39.89292,287,9940
116.35087,39.90381,288,9940
116.37339,39.90439,289,9940
116.37828,39.89431,290,9940
116.38501,39.88495,291,9940
116.38371,39.88322,292,9940
116.37854,39.88718,293,9940
116.36837,39.88956,294,9940
116.37346,39.89274,295,9940
116.37759,39.89727,296,9940
116.37836,39.88925,297,9940
116.38132,39.8752,298,9940
116.38049,39.8581,299,9940
116.37573,39.84902,300,9940
116.36426,39.84933,301,9940
116.35494,39.85159,302,9940
116.35494,39.85159,303,9940
116.35494,39.85159,304,9940
116.35494,39.85159,305,9940
116.35639,39.8376,306,9940
116.35639,39.8376,307,9940
116.35639,39.8376,308,9940
116.35639,39.8376,309,9940
116.35639,39.8376,310,9940
116.35639,39.8376,311,9940
116.35639,39.8376,312,9940
116.35639,39.8376,313,9940
116.35639,39.8376,314,9940
116.35639,39.8376,315,9940
116.35639,39.8376,316,9940
116.35639,39.8376,317,9940
116.35639,39.8376,318,9940
116.35639,39.8376,319,9940
116.3532,39.83875,320,9940
116.3532,39.83875,321,9940
116.35699,39.84906,322,9940
116.38643,39.85566,323,9940
116.41567,39.86254,324,9940
116.42743,39.86452,325,9940
116.43104,39.86451,326,9940
116.44089,39.85738,327,9940
116.45688,39.85631,328,9940
116.44493,39.85915,329,9940
116.42788,39.86179,330,9940
116.42604,39.86943,331,9940
116.45402,39.88305,332,9940
116.46655,39.88256,333,9940
116.46643,39.882,334,9940
116.45584,39.88333,335,9940
116.43486,39.8832,336,9940
116.43297,39.89585,337,9940
116.42169,39.89598,338,9940
116.4213,39.89603,339,9940
116.43393,39.88894,340,9940
116.43074,39.87693,341,9940
116.42928,39.86725,342,9940
116.42557,39.86723,343,9940
116.41609,39.86422,344,9940
116.4076,39.86733,345,9940
116.40832,39.86063,346,9940
116.3932,39.86025,347,9940
116.38178,39.86382,348,9940
116.40261,39.86373,349,9940
116.40786,39.85598,350,9940
116.40306,39.85584,351,9940
116.3806,39.8531,352,9940
116.37093,39.84937,353,9940
116.36822,39.86849,354,9940
116.37577,39.87753,355,9940
116.38905,39.88237,356,9940
116.39155,39.87544,357,9940
116.40295,39.85561,358,9940
116.43718,39.85733,359,9940
116.44109,39.83119,360,9940
116.44613,39.81643,361,9940
116.41722,39.80217,362,9940
116.39893,39.78393,363,9940
116.41388,39.79198,364,9940
116.42639,39.80262,365,9940
116.41922,39.80227,366,9940
116.41652,39.78665,367,9940
116.41652,39.78665,368,9940
116.4125,39.79795,369,9940
116.40226,39.8038,370,9940
116.39559,39.82669,371,9940
116.34013,39.83147,372,9940
116.31072,39.85688,373,9940
116.30835,39.8956,374,9940
116.31411,39.89556,375,9940
116.31515,39.88824,376,9940
116.34371,39.88817,377,9940
116.36161,39.87694,378,9940
116.39226,39.87021,379,9940
116.41893,39.85609,380,9940
116.42142,39.85007,381,9940
116.45163,39.86388,382,9940
116.46743,39.87343,383,9940
116.44414,39.88035,384,9940
116.42272,39.86449,385,9940
116.42271,39.86449,386,9940
116.42271,39.86449,387,9940
116.42271,39.86449,388,9940
116.39439,39.8641,389,9940
116.40751,39.86388,390,9940
116.36299,39.84994,391,9940
116.36299,39.84994,392,9940
116.43232,39.86457,393,9940
116.43232,39.86457,394,9940
116.43059,39.86101,395,9940
116.4067,39.8639,396,9940
116.38429,39.87056,397,9940
116.2586,39.89448,398,9940
116.26522,39.87974,399,9940
116.30023,39.88102,400,9940
116.32252,39.84767,401,9940
116.36244,39.84452,402,9940
116.36411,39.83036,403,9940
116.37246,39.83832,404,9940
116.37275,39.83479,405,9940
116.35638,39.83743,406,9940
116.34221,39.86428,407,9940
116.33373,39.8728,408,9940
116.34273,39.87615,409,9940
116.35312,39.8438,410,9940
116.35634,39.83741,411,9940
116.35634,39.83741,412,9940
