x,y,k,tid
116.65129,39.94996,0,9962
116.6513,39.90904,1,9962
116.64331,39.90482,2,9962
116.63636,39.90552,3,9962
116.60117,39.90813,4,9962
116.56622,39.91444,5,9962
116.56622,39.91444,6,9962
116.54824,39.91493,7,9962
116.54778,39.91601,8,9962
116.52824,39.91559,9,9962
116.48752,39.91449,10,9962
116.47627,39.90782,11,9962
116.472,39.90985,12,9962
116.46937,39.92175,13,9962
116.46095,39.92789,14,9962
116.45529,39.93003,15,9962
116.44739,39.92192,16,9962
116.44886,39.92302,17,9962
116.45534,39.91313,18,9962
116.45474,39.9096,19,9962
116.46898,39.90662,20,9962
116.4873,39.90971,21,9962
116.49586,39.9155,22,9962
116.50003,39.91795,23,9962
116.49596,39.91506,24,9962
116.48891,39.90814,25,9962
116.47561,39.92172,26,9962
116.45706,39.92212,27,9962
116.45706,39.92212,28,9962
116.4442,39.92565,29,9962
116.44457,39.92556,30,9962
116.444,39.92161,31,9962
116.42782,39.93438,32,9962
116.38676,39.94756,33,9962
116.36983,39.94747,34,9962
116.35638,39.94433,35,9962
116.35083,39.94285,36,9962
116.33764,39.93159,37,9962
116.32775,39.93117,38,9962
116.31807,39.94993,39,9962
116.31581,39.9644,40,9962
116.31813,39.97,41,9962
116.31944,39.96698,42,9962
116.32483,39.96592,43,9962
116.3254,39.96603,44,9962
116.33996,39.9661,45,9962
116.34818,39.97494,46,9962
116.35826,39.97529,47,9962
116.36132,39.97766,48,9962
116.35943,39.98274,49,9962
116.35896,39.99204,50,9962
116.33811,39.99183,51,9962
116.33811,39.99183,52,9962
116.32278,39.9914,53,9962
116.32652,39.99145,54,9962
116.32723,39.98015,55,9962
116.33495,39.97505,56,9962
116.35792,39.96657,57,9962
116.33114,39.9665,58,9962
116.28873,39.96438,59,9962
116.28879,39.96443,60,9962
116.28886,39.96439,61,9962
116.30261,39.97451,62,9962
116.31354,39.96942,63,9962
116.30355,39.96197,64,9962
116.29377,39.95822,65,9962
116.26946,39.9587,66,9962
116.25349,39.96955,67,9962
116.26858,39.96257,68,9962
116.25085,39.94569,69,9962
116.2329,39.94656,70,9962
116.23057,39.94665,71,9962
116.2549,39.94544,72,9962
116.27864,39.94521,73,9962
116.31096,39.93837,74,9962
116.34583,39.93601,75,9962
116.34929,39.93549,76,9962
116.35326,39.92708,77,9962
116.37628,39.93161,78,9962
116.39205,39.93198,79,9962
116.39205,39.93198,80,9962
116.41274,39.93222,81,9962
116.43673,39.93231,82,9962
116.4442,39.93309,83,9962
116.4493,39.93457,84,9962
116.43547,39.93999,85,9962
116.41449,39.93957,86,9962
116.38999,39.93267,87,9962
116.37629,39.92128,88,9962
116.36775,39.88782,89,9962
116.3692,39.90278,90,9962
116.36859,39.90753,91,9962
116.37558,39.92084,92,9962
116.38345,39.93187,93,9962
116.41402,39.93954,94,9962
116.41962,39.92933,95,9962
116.42039,39.91437,96,9962
116.41839,39.90505,97,9962
116.44995,39.9069,98,9962
116.47196,39.90743,99,9962
116.48883,39.91426,100,9962
116.53983,39.9125,101,9962
116.60296,39.91167,102,9962
116.63378,39.92238,103,9962
116.66318,39.96265,104,9962
116.67457,39.97142,105,9962
116.68525,39.97027,106,9962
116.68527,39.97031,107,9962
116.68345,39.96874,108,9962
116.68345,39.96874,109,9962
116.67384,39.96827,110,9962
116.65949,39.95797,111,9962
116.6511,39.92858,112,9962
116.6504,39.91458,113,9962
116.65163,39.90716,114,9962
116.65665,39.89906,115,9962
116.65665,39.89906,116,9962
116.65891,39.90732,117,9962
116.65354,39.91377,118,9962
116.65038,39.92256,119,9962
116.62535,39.91484,120,9962
116.58513,39.91119,121,9962
116.55951,39.91494,122,9962
116.53904,39.91503,123,9962
116.52808,39.91719,124,9962
116.5281,39.91719,125,9962
116.51986,39.91604,126,9962
116.50733,39.91507,127,9962
116.48479,39.91437,128,9962
116.47371,39.91446,129,9962
116.47151,39.9144,130,9962
116.45502,39.91325,131,9962
116.45131,39.91312,132,9962
116.44567,39.90724,133,9962
116.44763,39.91648,134,9962
116.44411,39.90948,135,9962
116.42491,39.90712,136,9962
116.40323,39.90665,137,9962
116.39301,39.90641,138,9962
116.38073,39.90602,139,9962
116.38073,39.90602,140,9962
116.37014,39.90701,141,9962
116.40465,39.92195,142,9962
116.40264,39.93227,143,9962
116.4137,39.95787,144,9962
116.42848,39.95807,145,9962
116.42857,39.97405,146,9962
116.41091,39.99255,147,9962
116.41018,40.00155,148,9962
116.40138,39.99704,149,9962
116.39684,39.98714,150,9962
116.35253,39.98579,151,9962
116.3272,39.98046,152,9962
116.31946,39.97492,153,9962
116.31623,39.95717,154,9962
116.30533,39.95573,155,9962
116.30404,39.9317,156,9962
116.30404,39.9263,157,9962
116.3041,39.91761,158,9962
116.30416,39.90965,159,9962
116.30416,39.89461,160,9962
116.30393,39.88223,161,9962
116.31477,39.88573,162,9962
116.3155,39.8831,163,9962
116.31998,39.8831,164,9962
116.33466,39.88848,165,9962
116.35102,39.88801,166,9962
116.35298,39.87767,167,9962
116.35298,39.87767,168,9962
116.34288,39.87603,169,9962
116.37722,39.86948,170,9962
116.37722,39.86948,171,9962
116.40924,39.87067,172,9962
116.42023,39.86598,173,9962
116.42145,39.8603,174,9962
116.42576,39.85901,175,9962
116.41117,39.85582,176,9962
116.39418,39.86328,177,9962
116.39255,39.88462,178,9962
116.41446,39.88304,179,9962
116.41506,39.87767,180,9962
116.43205,39.96719,181,9962
116.43103,39.9824,182,9962
116.43241,39.98442,183,9962
116.41115,39.99717,184,9962
116.40636,40.00022,185,9962
116.40152,40.00131,186,9962
116.40103,39.98199,187,9962
116.40146,39.96324,188,9962
116.3876,39.94767,189,9962
116.34958,39.93209,190,9962
116.34941,39.91716,191,9962
116.34276,39.92202,192,9962
116.34999,39.931,193,9962
116.35025,39.93122,194,9962
116.34699,39.93113,195,9962
116.3201,39.93125,196,9962
116.37432,39.9677,197,9962
116.35523,40.00439,198,9962
116.3588,39.99293,199,9962
116.33733,39.99177,200,9962
116.31423,39.99449,201,9962
116.29005,39.99577,202,9962
116.27777,40.00058,203,9962
116.28594,39.99557,204,9962
116.2986,39.9896,205,9962
116.30801,39.98383,206,9962
116.31056,39.97977,207,9962
116.32767,39.97236,208,9962
116.34461,39.96612,209,9962
116.3719,39.96025,210,9962
116.37244,39.94826,211,9962
116.3501,39.92098,212,9962
116.32156,39.89591,213,9962
116.31519,39.90439,214,9962
116.35087,39.90578,215,9962
116.37862,39.90578,216,9962
116.41143,39.90678,217,9962
116.45426,39.90695,218,9962
116.47837,39.91402,219,9962
116.50998,39.91514,220,9962
116.53992,39.91487,221,9962
116.57115,39.91342,222,9962
116.59475,39.9086,223,9962
116.63201,39.90231,224,9962
116.65565,39.89116,225,9962
116.67235,39.89089,226,9962
116.6519,39.90603,227,9962
116.65004,39.92098,228,9962
116.65244,39.9513,229,9962
116.67753,39.98785,230,9962
116.67763,39.98526,231,9962
116.68524,39.97024,232,9962
116.68526,39.97044,233,9962
116.68544,39.97035,234,9962
116.68472,39.96921,235,9962
116.68374,39.97013,236,9962
116.6736,39.97401,237,9962
116.65689,39.95564,238,9962
116.68204,39.97381,239,9962
116.67447,39.9709,240,9962
116.65527,39.95413,241,9962
116.65527,39.95413,242,9962
116.6511,39.92551,243,9962
116.65319,39.91435,244,9962
116.6514,39.92836,245,9962
116.65122,39.92824,246,9962
116.63366,39.92301,247,9962
116.63378,39.92203,248,9962
116.63378,39.92203,249,9962
116.40476,39.98314,250,9962
116.40476,39.98314,251,9962
116.64946,39.92578,252,9962
116.65757,39.95638,253,9962
116.65161,39.93674,254,9962
116.65017,39.91703,255,9962
116.63008,39.90517,256,9962
116.58999,39.91103,257,9962
116.57677,39.91327,258,9962
116.55713,39.91502,259,9962
116.53638,39.91511,260,9962
116.51656,39.91588,261,9962
116.49686,39.91474,262,9962
116.49592,39.92143,263,9962
116.46725,39.9295,264,9962
116.46083,39.92796,265,9962
116.44415,39.92734,266,9962
116.44415,39.92734,267,9962
116.43196,39.92534,268,9962
116.42751,39.9417,269,9962
116.38936,39.94972,270,9962
116.3884,39.97041,271,9962
116.3878,39.97197,272,9962
116.37778,39.9715,273,9962
116.37562,39.9751,274,9962
116.36168,39.97532,275,9962
116.34845,39.97525,276,9962
116.31946,39.975,277,9962
116.3085,39.9747,278,9962
116.30219,39.97982,279,9962
116.30285,39.97464,280,9962
116.30285,39.97464,281,9962
116.31081,39.97836,282,9962
116.31234,39.97478,283,9962
116.31282,39.96515,284,9962
116.29224,39.9579,285,9962
116.28273,39.95337,286,9962
116.29745,39.95651,287,9962
116.30413,39.92739,288,9962
116.30409,39.91591,289,9962
116.35759,39.90574,290,9962
116.36564,39.90488,291,9962
116.37607,39.90577,292,9962
116.39445,39.90624,293,9962
116.40713,39.9067,294,9962
116.42177,39.907,295,9962
116.44287,39.9071,296,9962
116.48527,39.90567,297,9962
116.48413,39.94898,298,9962
116.49158,39.96061,299,9962
116.49076,39.96065,300,9962
116.48035,39.9563,301,9962
116.46387,39.95067,302,9962
116.4555,39.93584,303,9962
116.4443,39.93201,304,9962
116.45826,39.93237,305,9962
116.46104,39.93249,306,9962
116.45165,39.93238,307,9962
116.42915,39.93243,308,9962
116.41603,39.93373,309,9962
116.43224,39.86161,310,9962
116.43026,39.85411,311,9962
116.41746,39.85062,312,9962
116.4085,39.84474,313,9962
116.40822,39.85214,314,9962
116.41561,39.86408,315,9962
116.43135,39.86471,316,9962
116.43258,39.8549,317,9962
116.42861,39.84532,318,9962
116.41625,39.84315,319,9962
116.40869,39.84209,320,9962
116.40801,39.8549,321,9962
116.40757,39.86386,322,9962
116.38042,39.84785,323,9962
116.36776,39.85214,324,9962
116.36521,39.84999,325,9962
116.3683,39.86825,326,9962
116.34325,39.87506,327,9962
116.35059,39.91325,328,9962
116.33911,39.92681,329,9962
116.33642,39.93681,330,9962
116.34942,39.93175,331,9962
116.35053,39.89975,332,9962
116.35498,39.86728,333,9962
116.36286,39.85659,334,9962
116.35838,39.86234,335,9962
116.35777,39.87632,336,9962
116.36838,39.88736,337,9962
116.36855,39.89153,338,9962
116.36808,39.87421,339,9962
116.3806,39.85931,340,9962
116.39733,39.85548,341,9962
116.42628,39.8572,342,9962
116.45528,39.89013,343,9962
116.45528,39.89013,344,9962
116.49459,39.90671,345,9962
116.54754,39.90777,346,9962
116.58993,39.90783,347,9962
116.62626,39.89925,348,9962
116.63783,39.90623,349,9962
116.64484,39.92083,350,9962
116.68526,39.97031,351,9962
116.68509,39.96919,352,9962
116.68441,39.96926,353,9962
116.68537,39.97028,354,9962
116.67428,39.97,355,9962
116.65141,39.95012,356,9962
116.65159,39.92826,357,9962
116.65133,39.92841,358,9962
116.63832,39.92565,359,9962
116.62084,39.91398,360,9962
116.59045,39.91101,361,9962
116.57607,39.91324,362,9962
116.55708,39.91613,363,9962
116.5456,39.92284,364,9962
116.51537,39.92261,365,9962
116.48538,39.92172,366,9962
116.46152,39.92202,367,9962
116.44909,39.9221,368,9962
116.43991,39.92416,369,9962
116.43647,39.93513,370,9962
116.45247,39.93223,371,9962
116.47749,39.92151,372,9962
116.48972,39.91368,373,9962
116.48415,39.91768,374,9962
116.47202,39.92543,375,9962
116.46532,39.91491,376,9962
116.45693,39.91751,377,9962
116.45532,39.91236,378,9962
116.44017,39.90821,379,9962
116.43766,39.9117,380,9962
116.43482,39.91224,381,9962
116.41567,39.90701,382,9962
116.39359,39.90641,383,9962
116.37701,39.90591,384,9962
116.35014,39.90692,385,9962
116.32491,39.8961,386,9962
116.32491,39.8961,387,9962
116.31509,39.88844,388,9962
116.31153,39.87682,389,9962
116.31205,39.8829,390,9962
116.31762,39.88837,391,9962
116.31762,39.88837,392,9962
116.31803,39.8884,393,9962
116.3222,39.8886,394,9962
116.34694,39.88563,395,9962
116.34756,39.87666,396,9962
116.36356,39.877,397,9962
116.35811,39.86957,398,9962
116.35776,39.87654,399,9962
116.34412,39.87799,400,9962
116.33234,39.89618,401,9962
116.32791,39.90132,402,9962
116.31734,39.89779,403,9962
116.3165,39.90606,404,9962
116.3277,39.90778,405,9962
116.33023,39.91697,406,9962
116.34634,39.92232,407,9962
116.34742,39.9247,408,9962
116.33885,39.91496,409,9962
116.33611,39.89992,410,9962
116.32569,39.89603,411,9962
116.32826,39.90579,412,9962
116.29938,39.90632,413,9962
116.29608,39.90754,414,9962
116.2963,39.92258,415,9962
116.30139,39.92253,416,9962
116.3135,39.93103,417,9962
116.33708,39.93102,418,9962
116.3579,39.93098,419,9962
116.36559,39.93136,420,9962
116.36168,39.93031,421,9962
116.35735,39.91299,422,9962
116.35719,39.89686,423,9962
116.35751,39.88184,424,9962
116.36153,39.87542,425,9962
116.36751,39.87705,426,9962
116.37412,39.87761,427,9962
116.36835,39.88176,428,9962
116.36836,39.89659,429,9962
116.3702,39.90784,430,9962
116.3702,39.90784,431,9962
116.37021,39.90804,432,9962
116.3759,39.90886,433,9962
116.38505,39.90604,434,9962
116.41424,39.9069,435,9962
116.45229,39.90698,436,9962
116.45652,39.88307,437,9962
116.46156,39.87431,438,9962
116.46154,39.86668,439,9962
116.47132,39.86969,440,9962
116.50654,39.869,441,9962
116.50791,39.86248,442,9962
116.48769,39.87973,443,9962
116.48385,39.91898,444,9962
116.49937,39.9358,445,9962
116.53644,39.94029,446,9962
116.55267,39.94954,447,9962
116.54474,39.94659,448,9962
116.52385,39.93765,449,9962
116.51211,39.92201,450,9962
116.47867,39.92174,451,9962
116.45978,39.92206,452,9962
116.44458,39.92165,453,9962
116.43765,39.93384,454,9962
116.4278,39.94404,455,9962
116.38986,39.94776,456,9962
116.37994,39.94993,457,9962
116.38749,39.9487,458,9962
116.39294,39.9619,459,9962
116.40093,39.96068,460,9962
116.41159,39.97237,461,9962
116.41947,39.96781,462,9962
116.47165,39.89729,463,9962
116.47181,39.90403,464,9962
116.47517,39.91409,465,9962
116.495,39.90659,466,9962
116.52147,39.89937,467,9962
116.52369,39.90897,468,9962
116.52769,39.91546,469,9962
116.56022,39.91476,470,9962
116.59485,39.91088,471,9962
116.68523,39.97023,472,9962
116.68531,39.97023,473,9962
116.68531,39.97023,474,9962
116.68522,39.97038,475,9962
116.68493,39.97025,476,9962
116.68324,39.98528,477,9962
116.71263,39.98614,478,9962
116.74933,40.00115,479,9962
116.74774,40.00225,480,9962
116.74774,40.00225,481,9962
116.74911,40.00258,482,9962
116.69569,39.97919,483,9962
116.68595,39.97409,484,9962
116.69973,39.95553,485,9962
116.72352,39.93956,486,9962
116.72352,39.93956,487,9962
116.73144,39.90713,488,9962
116.74354,39.88819,489,9962
116.74617,39.88454,490,9962
116.74617,39.88454,491,9962
116.74492,39.89135,492,9962
116.73087,39.91059,493,9962
116.71893,39.91466,494,9962
116.71893,39.91466,495,9962
116.72957,39.91359,496,9962
116.75182,39.91875,497,9962
116.72892,39.92537,498,9962
116.71625,39.94703,499,9962
116.69619,39.97178,500,9962
116.68535,39.9708,501,9962
116.68412,39.97198,502,9962
116.7029,39.98588,503,9962
116.74402,39.99312,504,9962
116.74777,40.00222,505,9962
116.68404,39.97472,506,9962
116.71379,39.98625,507,9962
116.74922,40.00237,508,9962
116.74557,39.99343,509,9962
116.74557,39.99343,510,9962
116.74119,39.98722,511,9962
116.74119,39.98722,512,9962
116.74797,39.99397,513,9962
116.7478,40.00219,514,9962
116.7478,40.00219,515,9962
116.7478,40.00219,516,9962
116.74773,40.00227,517,9962
116.74773,40.00229,518,9962
116.74779,40.00224,519,9962
116.74779,40.00224,520,9962
116.74779,40.00224,521,9962
116.74777,40.00229,522,9962
116.74777,40.00229,523,9962
116.74776,40.00216,524,9962
116.738,39.98712,525,9962
116.68786,39.98534,526,9962
116.68511,39.97025,527,9962
116.6853,39.9703,528,9962
116.6853,39.9703,529,9962
116.6812,39.96763,530,9962
116.66387,39.9652,531,9962
116.65227,39.93348,532,9962
116.64251,39.9282,533,9962
116.62041,39.91366,534,9962
116.59466,39.91142,535,9962
116.57194,39.91366,536,9962
116.5477,39.91614,537,9962
116.54751,39.91799,538,9962
116.53766,39.92332,539,9962
116.53766,39.92332,540,9962
116.53658,39.94025,541,9962
116.5114,39.93022,542,9962
116.51115,39.95146,543,9962
116.51258,39.95249,544,9962
116.51113,39.93932,545,9962
116.49588,39.92348,546,9962
116.48342,39.90887,547,9962
116.45509,39.89156,548,9962
116.44299,39.88478,549,9962
116.44299,39.88478,550,9962
116.42455,39.86976,551,9962
116.4098,39.80388,552,9962
116.41525,39.78521,553,9962
116.43106,39.77979,554,9962
116.43145,39.77987,555,9962
116.42871,39.77663,556,9962
116.4143,39.78875,557,9962
116.40999,39.80407,558,9962
116.39639,39.80954,559,9962
116.39639,39.80954,560,9962
116.40859,39.84418,561,9962
116.40816,39.85421,562,9962
116.41713,39.85608,563,9962
116.43891,39.85382,564,9962
116.4491,39.81396,565,9962
116.44526,39.79967,566,9962
116.44525,39.80099,567,9962
116.44928,39.81281,568,9962
116.44144,39.83033,569,9962
116.43933,39.85575,570,9962
116.46109,39.87492,571,9962
116.46602,39.87762,572,9962
116.46162,39.87262,573,9962
116.44692,39.86039,574,9962
116.44114,39.86393,575,9962
116.44664,39.8611,576,9962
116.43887,39.86728,577,9962
116.45946,39.86994,578,9962
116.46519,39.85954,579,9962
116.46181,39.84549,580,9962
116.4595,39.84632,581,9962
116.45249,39.85641,582,9962
116.44552,39.85698,583,9962
116.45845,39.86077,584,9962
116.48402,39.84176,585,9962
116.51266,39.8209,586,9962
116.5165,39.82118,587,9962
116.50527,39.82206,588,9962
116.48356,39.84114,589,9962
116.4792,39.84777,590,9962
116.47424,39.8664,591,9962
116.45302,39.86451,592,9962
116.41512,39.85603,593,9962
116.40766,39.86365,594,9962
116.41491,39.87824,595,9962
116.41597,39.89569,596,9962
116.43082,39.8922,597,9962
116.42972,39.9054,598,9962
116.43287,39.93967,599,9962
116.44931,39.94674,600,9962
116.45633,39.95548,601,9962
116.47624,39.97346,602,9962
116.49325,39.97819,603,9962
116.49404,39.97279,604,9962
116.49518,39.97049,605,9962
