x y k tid
-13625786.2 4527409.158 0 1059
-13625790.65 4527480.844 1 1059
-13625809.58 4527674.823 2 1059
-13625901.97 4528127.453 3 1059
-13625917.56 4528172.436 4 1059
-13626021.08 4528419.846 5 1059
-13626141.31 4528819.088 6 1059
-13626150.21 4528871.103 7 1059
-13626169.14 4529059.484 8 1059
-13626174.7 4529143.835 9 1059
-13626182.5 4529243.651 10 1059
-13626224.8 4529853.814 11 1059
-13626229.25 4529914.27 12 1059
-13626231.48 4529945.201 13 1059
-13626235.93 4530009.876 14 1059
-13626251.51 4530201.089 15 1059
-13626254.85 4530255.923 16 1059
-13626238.16 4530919.577 17 1059
-13626171.36 4531109.401 18 1059
-13626136.85 4531190.956 19 1059
-13625982.12 4531507.34 20 1059
-13625896.4 4531609.991 21 1059
-13625815.14 4531685.925 22 1059
-13625517.92 4531929.199 23 1059
-13625385.45 4532040.292 24 1059
-13625393.24 4532058.573 25 1059
-13625396.58 4532067.01 26 1059
-13625404.37 4532086.698 27 1059
-13625418.84 4532116.229 28 1059
-13625471.16 4532159.823 29 1059
-13625694.92 4532224.511 30 1059
-13626085.65 4532332.794 31 1059
-13626730.19 4532546.551 32 1059
-13627040.77 4532653.431 33 1059
-13627114.24 4532677.339 34 1059
-13627162.11 4532695.621 35 1059
-13627199.96 4532708.278 36 1059
-13627255.62 4532727.967 37 1059
-13627529.46 4532829.223 38 1059
-13627830.02 4532826.411 39 1059
-13627882.34 4532805.315 40 1059
-13628110.55 4532718.122 41 1059
-13628155.08 4532698.434 42 1059
-13628196.27 4532678.745 43 1059
-13628237.45 4532653.431 44 1059
-13628313.15 4532570.459 45 1059
-13628418.9 4532493.112 46 1059
-13628494.6 4532495.924 47 1059
-13628568.07 4532517.019 48 1059
-13628669.37 4532547.958 49 1059
-13628703.88 4532557.802 50 1059
-13628838.58 4532623.899 51 1059
-13629199.25 4532919.23 52 1059
-13629382.93 4533044.397 53 1059
-13629477.55 4533111.903 54 1059
-13629563.27 4533168.159 55 1059
-13629583.31 4533182.223 56 1059
-13630536.2 4533836.217 57 1059
-13630576.28 4533861.534 58 1059
-13630602.99 4533879.818 59 1059
-13630654.2 4533916.387 60 1059
-13630771.09 4533996.558 61 1059
-13630823.41 4534033.127 62 1059
-13630834.54 4534040.16 63 1059
-13630918.03 4534095.014 64 1059
-13631080.55 4534208.942 65 1059
-13631234.17 4534313.026 66 1059
-13631254.21 4534325.685 67 1059
-13631284.27 4534346.784 68 1059
-13631339.93 4534384.761 69 1059
-13631392.25 4534419.925 70 1059
-13631435.66 4534448.056 71 1059
-13631475.74 4534476.187 72 1059
-13631506.91 4534498.692 73 1059
-13631549.21 4534528.23 74 1059
-13631582.6 4534552.142 75 1059
-13631664.98 4534608.406 76 1059
-13631786.32 4534698.428 77 1059
-13632040.13 4535014.918 78 1059
-13632135.86 4535155.583 79 1059
-13632153.67 4535189.343 80 1059
-13632099.13 4535270.93 81 1059
-13632043.47 4535352.517 82 1059
-13631985.58 4535436.919 83 1059
-13631928.81 4535517.101 84 1059
-13631872.03 4535601.504 85 1059
-13631815.26 4535684.501 86 1059
-13631758.49 4535768.905 87 1059
-13631703.94 4535849.09 88 1059
-13631868.7 4535970.072 89 1059
-13631966.66 4535915.208 90 1059
-13631983.35 4536167.022 91 1059
-13632084.66 4536161.395 92 1059
-13632184.84 4536157.174 93 1059
-13632190.41 4536311.923 94 1059
-13632194.86 4536365.382 95 1059
-13632292.82 4536361.162 96 1059
-13632295.05 4536408.994 97 1059
-13632297.28 4536461.047 98 1059
-13632301.73 4536562.34 99 1059
-13632311.75 4536767.742 100 1059
-13632318.43 4536971.741 101 1059
-13632418.61 4536967.521 102 1059
-13632423.07 4537056.156 103 1059
-13632426.41 4537139.165 104 1059
-13632427.52 4537153.234 105 1059
-13632429.75 4537222.174 106 1059
-13632433.09 4537310.811 107 1059
-13632297.28 4537399.45 108 1059
-13632440.88 4537478.24 109 1059
-13632440.88 4537495.124 110 1059
-13632433.09 4537576.729 111 1059
-13632414.16 4537711.801 112 1059
-13632421.95 4537775.116 113 1059
-13632437.54 4537822.955 114 1059
-13632408.59 4537865.166 115 1059
-13632367.41 4537924.261 116 1059
-13632335.12 4537962.251 117 1059
-13632310.63 4538011.497 118 1059
-13632290.6 4538036.824 119 1059
-13632246.07 4538093.106 120 1059
-13632231.6 4538109.991 121 1059
-13632184.84 4538169.088 122 1059
-13632157.01 4538202.858 123 1059
-13632121.39 4538245.07 124 1059
-13632072.41 4538299.946 125 1059
-13632056.83 4538319.645 126 1059
-13631991.15 4538397.035 127 1059
-13631926.58 4538473.019 128 1059
-13631906.54 4538496.94 129 1059
-13631862.02 4538549.003 130 1059
-13631841.98 4538575.739 131 1059
-13631800.79 4538623.581 132 1059
-13631779.64 4538647.502 133 1059
-13631719.53 4538713.638 134 1059
-13631680.57 4538741.78 135 1059
-13631569.25 4538806.509 136 1059
-13631542.53 4538833.245 137 1059
-13631501.34 4538938.783 138 1059
-13631469.06 4538988.034 139 1059
-13631380 4539044.321 140 1059
-13631326.57 4539099.202 141 1059
-13631312.1 4539118.902 142 1059
-13631284.27 4539158.304 143 1059
-13631116.18 4539405.974 144 1059
-13630924.71 4539715.571 145 1059
-13630885.74 4539747.938 146 1059
-13630874.61 4539759.196 147 1059
-13630805.59 4539873.187 148 1059
-13630696.5 4540049.101 149 1059
-13630656.43 4540109.616 150 1059
-13630609.67 4540177.168 151 1059
-13630513.94 4540324.939 152 1059
-13630493.9 4540358.716 153 1059
-13630441.58 4540437.529 154 1059
-13630301.32 4540647.23 155 1059
-13630255.68 4540716.193 156 1059
-13630225.62 4540759.823 157 1059
-13630138.79 4540890.713 158 1059
-13630119.87 4540928.714 159 1059
-13630080.9 4540997.679 160 1059
-13630046.4 4541063.829 161 1059
-13630028.58 4541099.016 162 1059
-13630010.77 4541134.202 163 1059
-13629969.58 4541205.984 164 1059
-13629911.7 4541251.023 165 1059
-13629847.13 4541300.285 166 1059
-13629890.55 4541352.362 167 1059
-13629925.06 4541395.995 168 1059
-13629926.17 4541456.518 169 1059
-13629928.4 4541580.38 170 1059
-13629928.4 4541684.537 171 1059
-13629931.74 4541788.696 172 1059
-13630057.53 4541790.103 173 1059
-13630083.13 4541973.088 174 1059
-13630182.2 4541974.495 175 1059
-13630289.07 4541997.016 176 1059
-13630290.18 4542042.059 177 1059
-13630449.37 4542219.417 178 1059
-13630365.88 4542268.684 179 1059
-13630283.51 4542332.027 180 1059
-13630233.41 4542378.479 181 1059
-13630240.09 4542484.052 182 1059
-13630247.88 4542533.32 183 1059
-13630550.67 4542899.318 184 1059
-13630620.8 4542927.472 185 1059
-13630649.75 4543049.943 186 1059
-13630771.09 4543133 187 1059
-13630843.44 4543140.038 188 1059
-13630953.65 4543155.523 189 1059
-13631050.5 4543225.911 190 1059
-13631078.33 4543269.551 191 1059
-13631168.5 4543410.328 192 1059
-13631238.63 4543518.727 193 1059
-13631250.87 4543532.805 194 1059
-13631159.59 4543570.815 195 1059
-13631097.25 4543590.525 196 1059
-13631048.27 4543598.971 197 1059
-13630924.71 4543628.535 198 1059
-13630823.41 4543659.507 199 1059
-13630784.44 4543672.177 200 1059
-13630702.07 4543696.11 201 1059
-13630604.11 4543717.227 202 1059
-13630497.24 4543738.345 203 1059
-13630474.98 4543745.384 204 1059
-13630456.05 4543755.239 205 1059
-13630439.35 4543767.909 206 1059
-13630417.09 4543915.732 207 1059
-13630394.83 4543991.755 208 1059
-13630381.47 4544014.281 209 1059
-13630350.3 4544066.372 210 1059
-13630332.49 4544142.397 211 1059
-13630334.71 4544177.594 212 1059
-13630344.73 4544142.397 213 1059
-13630349.18 4544119.871 214 1059
-13630361.43 4544072.003 215 1059
