x y k tid
-13632775.95 4539141.417 0 1321
-13632674.65 4539141.417 1 1321
-13632575.57 4539142.825 2 1321
-13632478.73 4539144.232 3 1321
-13632476.5 4539225.85 4 1321
-13632080.2 4539227.257 5 1321
-13631751.81 4539228.664 6 1321
-13631751.81 4539276.509 7 1321
-13631751.81 4539349.685 8 1321
-13631500.23 4539345.463 9 1321
-13631466.83 4539359.536 10 1321
-13631484.64 4539398.938 11 1321
-13631365.53 4539573.437 12 1321
-13631248.65 4539743.716 13 1321
-13631164.04 4539853.485 14 1321
-13631072.76 4539807.044 15 1321
-13630979.25 4539762.011 16 1321
-13630924.71 4539715.571 17 1321
-13630885.74 4539747.938 18 1321
-13630874.61 4539759.196 19 1321
-13630805.59 4539873.187 20 1321
-13630617.46 4539780.306 21 1321
-13630483.88 4539660.687 22 1321
-13630344.73 4539524.183 23 1321
-13630338.05 4539517.146 24 1321
-13630299.09 4539556.55 25 1321
-13630279.05 4539576.251 26 1321
-13630214.49 4539640.985 27 1321
-13630103.17 4539752.16 28 1321
-13630065.32 4539790.157 29 1321
-13629882.76 4540015.325 30 1321
-13629804.83 4540174.353 31 1321
-13629711.32 4540367.16 32 1321
-13629569.95 4540292.57 33 1321
-13629517.63 4540377.012 34 1321
-13629509.84 4540388.271 35 1321
-13629421.89 4540334.791 36 1321
-13629292.76 4540554.342 37 1321
-13629160.29 4540771.082 38 1321
-13629072.35 4540717.6 39 1321
-13628981.07 4540664.119 40 1321
-13628892.01 4540610.637 41 1321
-13628762.88 4540828.786 42 1321
-13628674.94 4540776.712 43 1321
-13628542.47 4540994.864 44 1321
-13628456.75 4540944.196 45 1321
-13628369.92 4540890.713 46 1321
-13628199.6 4541176.427 47 1321
-13628146.17 4541180.649 48 1321
-13628031.51 4541189.094 49 1321
-13627910.17 4541196.131 50 1321
-13627789.95 4541204.576 51 1321
-13627678.63 4541218.651 52 1321
-13627551.73 4541218.651 53 1321
-13627418.14 4541190.501 54 1321
-13627381.41 4541184.871 55 1321
-13627302.37 4541204.576 56 1321
-13627198.84 4541245.393 57 1321
-13627128.71 4541273.543 58 1321
-13627090.86 4541287.618 59 1321
-13627049.67 4541307.323 60 1321
-13626982.88 4541339.695 61 1321
-13626911.64 4541374.882 62 1321
-13626879.36 4541391.772 63 1321
-13626772.49 4541441.035 64 1321
-13626678.98 4541486.076 65 1321
-13626562.1 4541532.524 66 1321
-13626498.64 4541555.044 67 1321
-13626455.23 4541571.934 68 1321
-13626346.14 4541616.975 69 1321
-13626292.7 4541456.518 70 1321
-13626183.61 4541491.706 71 1321
-13626075.63 4541526.894 72 1321
-13626052.25 4541457.925 73 1321
-13626032.21 4541397.402 74 1321
-13626019.97 4541357.992 75 1321
-13625964.31 4541189.094 76 1321
-13625907.54 4541021.606 77 1321
-13625847.42 4541039.903 78 1321
-13625829.61 4541045.532 79 1321
-13625782.86 4541058.199 80 1321
-13625766.16 4541062.422 81 1321
-13625750.58 4541065.237 82 1321
-13625721.63 4541066.644 83 1321
-13625422.18 4540903.38 84 1321
-13625404.37 4540968.123 85 1321
-13625382.11 4541048.347 86 1321
-13625350.94 4541148.277 87 1321
-13625264.11 4541272.135 88 1321
-13625200.66 4541345.325 89 1321
-13625107.15 4541325.62 90 1321
-13624992.49 4541305.915 91 1321
-13624936.83 4541297.47 92 1321
-13624890.08 4541287.618 93 1321
-13624791 4541269.32 94 1321
-13624696.38 4541251.023 95 1321
-13624713.08 4541196.131 96 1321
-13624726.44 4541146.87 97 1321
-13624709.74 4541137.017 98 1321
-13624516.04 4541000.494 99 1321
-13624308.99 4540849.898 100 1321
-13624245.54 4540937.159 101 1321
