x y k tid
-13627887.91 4545592.609 0 1717
-13627979.19 4545585.569 1 1717
-13628003.68 4545584.161 2 1717
-13628050.44 4545579.937 3 1717
-13628136.15 4545574.304 4 1717
-13628273.08 4545564.448 5 1717
-13628381.06 4545555.999 6 1717
-13628399.98 4545555.999 7 1717
-13628391.07 4545440.539 8 1717
-13628388.85 4545419.418 9 1717
-13628381.06 4545325.079 10 1717
-13628610.37 4545305.367 11 1717
-13628628.18 4545303.959 12 1717
-13628871.97 4545289.878 13 1717
-13628874.2 4545229.333 14 1717
-13628870.86 4545174.42 15 1717
-13628916.5 4545173.012 16 1717
-13629051.2 4545161.748 17 1717
-13629041.18 4545051.924 18 1717
-13629102.41 4545046.292 19 1717
-13629350.65 4545032.212 20 1717
-13629477.55 4545047.7 21 1717
-13629475.33 4545019.54 22 1717
-13629595.55 4545009.684 23 1717
-13629712.44 4544997.012 24 1717
-13629710.21 4544947.733 25 1717
-13629829.32 4544933.653 26 1717
-13629952.89 4544908.309 27 1717
-13629990.74 4544930.837 28 1717
-13630015.23 4544885.781 29 1717
-13630064.21 4544784.408 30 1717
-13630086.47 4544747.801 31 1717
-13630175.53 4544623.901 32 1717
-13630238.98 4544505.635 33 1717
-13630235.64 4544461.99 34 1717
-13630233.41 4544443.687 35 1717
-13630265.69 4544387.37 36 1717
-13630267.92 4544276.146 37 1717
-13630265.69 4544247.988 38 1717
-13630246.77 4544049.478 39 1717
-13630240.09 4543905.877 40 1717
-13630255.68 4543888.983 41 1717
-13630286.85 4543853.787 42 1717
-13630351.41 4543773.54 43 1717
-13630373.67 4543745.384 44 1717
-13630392.6 4543724.267 45 1717
-13630404.84 4543713.004 46 1717
-13630428.22 4543704.557 47 1717
-13630456.05 4543698.926 48 1717
-13630497.24 4543738.345 49 1717
-13630474.98 4543745.384 50 1717
-13630456.05 4543755.239 51 1717
-13630439.35 4543767.909 52 1717
-13630417.09 4543915.732 53 1717
-13630394.83 4543991.755 54 1717
-13630381.47 4544014.281 55 1717
-13630350.3 4544066.372 56 1717
-13630332.49 4544142.397 57 1717
-13630334.71 4544177.594 58 1717
-13630344.73 4544142.397 59 1717
-13630349.18 4544119.871 60 1717
-13630361.43 4544072.003 61 1717
-13630372.56 4544053.701 62 1717
-13630392.6 4544019.913 63 1717
-13630432.67 4543911.508 64 1717
-13630421.54 4543856.602 65 1717
-13630433.79 4543798.881 66 1717
-13630459.39 4543767.909 67 1717
-13630500.58 4543749.607 68 1717
-13630523.96 4543745.384 69 1717
-13630610.78 4543731.306 70 1717
-13630704.29 4543711.596 71 1717
-13630827.86 4543676.401 72 1717
-13630932.5 4543644.021 73 1717
-13631050.5 4543613.049 74 1717
-13631083.89 4543608.826 75 1717
-13631142.89 4543597.564 76 1717
-13631164.04 4543593.34 77 1717
-13631211.91 4543576.447 78 1717
-13631269.8 4543548.291 79 1717
-13631337.7 4543504.649 80 1717
-13631358.85 4543489.163 81 1717
-13631384.46 4543469.454 82 1717
-13631464.61 4543410.328 83 1717
-13631574.81 4543435.668 84 1717
-13631609.32 4543390.619 85 1717
-13631732.89 4543254.066 86 1717
-13631798.56 4543334.308 87 1717
-13631875.37 4543325.862 88 1717
-13631878.71 4543335.716 89 1717
-13632095.79 4543376.541 90 1717
-13632295.05 4543308.968 91 1717
-13632325.11 4543411.736 92 1717
-13632291.71 4543448.338 93 1717
-13632312.86 4543518.727 94 1717
-13632339.58 4543544.067 95 1717
-13632365.18 4543572.223 96 1717
-13632445.33 4543590.525 97 1717
-13632651.27 4543393.434 98 1717
-13632869.46 4543365.279 99 1717
-13633092.1 4543344.162 100 1717
-13633087.64 4543237.173 101 1717
-13633204.53 4543231.542 102 1717
-13633323.64 4543224.503 103 1717
-13633449.43 4543217.464 104 1717
-13633483.94 4543216.056 105 1717
-13633531.81 4543213.241 106 1717
-13633574.11 4543210.425 107 1717
-13633604.17 4543209.018 108 1717
-13633694.33 4543204.794 109 1717
-13633813.45 4543197.756 110 1717
-13633928.11 4543187.901 111 1717
-13633981.54 4543185.086 112 1717
-13634052.78 4543182.271 113 1717
-13634169.67 4543176.64 114 1717
-13634156.31 4542913.395 115 1717
-13634275.42 4542907.764 116 1717
-13634396.76 4542899.318 117 1717
-13634516.99 4542893.687 118 1717
-13634512.53 4542816.263 119 1717
