x y k tid
-13608727.6 4516556.391 0 865
-13608576.2 4517040.837 1 865
-13608568.41 4517081.56 2 865
-13608559.51 4517123.687 3 865
-13608577.32 4517526.711 4 865
-13608595.13 4517571.648 5 865
-13608611.83 4517608.16 6 865
-13608813.32 4518028.054 7 865
-13608837.81 4518078.611 8 865
-13608852.28 4518108.103 9 865
-13608900.14 4518206.409 10 865
-13608948.01 4518304.716 11 865
-13609305.35 4518665.652 12 865
-13609609.25 4518880.534 13 865
-13609740.61 4518971.825 14 865
-13609890.89 4519077.162 15 865
-13610107.96 4519081.376 16 865
-13610155.83 4519063.117 17 865
-13610405.18 4518881.939 18 865
-13610481.99 4518792.053 19 865
-13610508.71 4518761.155 20 865
-13610538.77 4518726.043 21 865
-13610805.93 4518227.475 22 865
-13610805.93 4518185.344 23 865
-13610815.95 4517956.432 24 865
-13611087.57 4517997.158 25 865
-13611115.4 4517963.454 26 865
-13611143.23 4517929.75 27 865
-13611166.61 4517898.854 28 865
-13611196.67 4517862.341 29 865
-13611235.63 4517890.428 30 865
-13611306.87 4517943.793 31 865
-13611381.46 4517998.563 32 865
-13611473.85 4518063.163 33 865
-13611575.15 4518123.551 34 865
-13611613 4518158.66 35 865
-13611639.72 4518189.557 36 865
-13611722.09 4518412.855 37 865
-13611710.96 4518584.195 38 865
-13611698.72 4518693.741 39 865
-13611683.13 4518842.613 40 865
-13611678.68 4518883.343 41 865
-13611755.49 4518905.815 42 865
-13611935.83 4518925.477 43 865
-13612102.81 4518945.14 44 865
-13612172.94 4518952.162 45 865
-13612246.41 4518953.567 46 865
-13612298.73 4518953.567 47 865
-13612394.46 4518953.567 48 865
-13612565.9 4518953.567 49 865
-13612634.91 4518953.567 50 865
-13612664.97 4518953.567 51 865
-13613030.1 4518945.14 52 865
-13613203.76 4518931.095 53 865
-13613531.04 4518908.624 54 865
-13613910.63 4518990.084 55 865
-13614020.84 4519049.072 56 865
-13614074.27 4519078.567 57 865
-13614094.31 4519089.803 58 865
-13614687.64 4519308.907 59 865
-13614973.74 4519411.438 60 865
-13615039.41 4519433.911 61 865
-13615132.92 4519467.62 62 865
-13615174.11 4519481.666 63 865
-13615272.07 4519512.566 64 865
-13615498.05 4519433.911 65 865
-13615535.9 4519401.606 66 865
-13615542.58 4519410.034 67 865
-13615570.41 4519442.338 68 865
-13615633.86 4519513.97 69 865
-13615567.07 4519570.153 70 865
-13615480.24 4519646 71 865
-13615540.35 4519716.229 72 865
-13615665.03 4519862.306 73 865
-13615732.93 4519942.369 74 865
-13616003.44 4520255.603 75 865
-13616074.69 4520193.798 76 865
-13616147.04 4520130.589 77 865
-13616279.51 4520278.077 78 865
-13616318.48 4520240.152 79 865
-13616352.98 4520210.654 80 865
-13616391.95 4520176.942 81 865
-13616545.57 4520042.097 82 865
-13616614.59 4520123.566 83 865
-13616745.94 4520275.268 84 865
-13616905.13 4520456.471 85 865
-13617052.07 4520331.455 86 865
-13617342.61 4520668.58 87 865
-13617490.67 4520849.79 88 865
-13617528.52 4520907.384 89 865
-13617495.12 4520966.383 90 865
-13617450.59 4521015.55 91 865
-13617588.63 4521122.312 92 865
-13617675.46 4521146.193 93 865
-13617783.44 4521185.527 94 865
-13617804.59 4521191.146 95 865
-13617900.33 4521212.218 96 865
-13618207.57 4521264.195 97 865
-13618227.6 4521285.267 98 865
-13618227.6 4521377.984 99 865
-13618228.72 4521431.367 100 865
-13618655.07 4521806.459 101 865
-13618889.96 4521732.001 102 865
-13619013.52 4521618.209 103 865
-13619020.2 4521613.994 104 865
-13619196.08 4521588.707 105 865
-13619251.74 4521592.922 106 865
-13619491.08 4521612.589 107 865
-13619504.44 4521613.994 108 865
-13619610.19 4521621.018 109 865
-13619779.4 4521639.281 110 865
-13619898.51 4521724.977 111 865
-13619909.64 4521739.026 112 865
-13619975.32 4521821.912 113 865
-13620066.6 4521909.015 114 865
-13620087.75 4521921.659 115 865
-13620161.22 4521939.922 116 865
-13620322.64 4521941.327 117 865
-13620834.71 4521934.302 118 865
-13620902.61 4521932.898 119 865
-13620993.89 4521925.873 120 865
-13621035.08 4521907.61 121 865
-13621061.8 4521887.941 122 865
-13621090.74 4521850.01 123 865
-13621108.55 4521826.127 124 865
-13621145.29 4521848.605 125 865
-13621268.85 4521924.468 126 865
-13621314.49 4521952.566 127 865
-13621350.12 4521975.044 128 865
-13621361.25 4521980.664 129 865
-13621527.11 4522230.737 130 865
-13621650.68 4522534.204 131 865
-13621657.36 4522551.064 132 865
-13621669.6 4522584.783 133 865
-13621701.89 4522666.272 134 865
-13621747.53 4522774.456 135 865
-13621779.81 4522834.871 136 865
-13621874.43 4522973.967 137 865
-13621918.96 4523023.143 138 865
-13621974.62 4523082.154 139 865
-13622061.45 4523169.267 140 865
-13622093.73 4523200.178 141 865
-13622189.47 4523295.722 142 865
-13622418.78 4523447.47 143 865
-13622535.67 4523512.104 144 865
-13622576.86 4523534.586 145 865
-13622658.12 4523579.549 146 865
-13622813.97 4523665.261 147 865
-13622930.85 4523734.112 148 865
-13622959.8 4523750.973 149 865
-13623000.98 4523772.05 150 865
-13623087.81 4523732.707 151 865
-13623543.11 4523691.958 152 865
-13623727.9 4523852.143 153 865
-13624050.73 4524143.011 154 865
-13624093.03 4524178.14 155 865
-13624146.46 4524220.296 156 865
-13624217.71 4524276.504 157 865
-13624419.19 4524425.456 158 865
-13624507.14 4524501.338 159 865
-13624610.66 4524589.867 160 865
-13624654.08 4524695.261 161 865
-13624720.87 4524984.747 162 865
-13624716.42 4525063.444 163 865
-13624759.83 4525203.975 164 865
-13624779.87 4525244.729 165 865
-13624789.89 4525253.161 166 865
-13624801.02 4525262.999 167 865
-13625050.38 4525286.889 168 865
-13625097.13 4525286.889 169 865
-13625221.81 4525333.265 170 865
-13625276.35 4525480.827 171 865
-13625344.26 4525705.687 172 865
-13625372.09 4525806.875 173 865
-13625396.58 4525886.984 174 865
-13625428.86 4525999.417 175 865
-13625460.03 4526118.88 176 865
-13625501.22 4526277.696 177 865
-13625620.33 4526733.077 178 865
-13625638.14 4526851.142 179 865
-13625658.18 4527261.569 180 865
-13625632.58 4527309.359 181 865
-13625594.73 4527381.045 182 865
-13625545.75 4527471.005 183 865
-13625483.41 4527548.315 184 865
-13625465.6 4527556.749 185 865
-13625273.02 4527618.597 186 865
-13625249.64 4527732.455 187 865
-13625276.35 4527753.54 188 865
-13625310.86 4527828.04 189 865
-13625374.32 4527974.232 190 865
-13625453.35 4528147.134 191 865
-13625467.82 4528179.465 192 865
-13625495.65 4528238.506 193 865
-13625526.82 4528307.387 194 865
-13625551.31 4528360.805 195 865
-13625581.37 4528424.064 196 865
-13625604.75 4528488.729 197 865
-13625639.26 4528567.452 198 865
-13625653.73 4528601.19 199 865
-13625686.01 4528668.668 200 865
-13625762.82 4528833.146 201 865
-13625799.56 4528910.466 202 865
-13625855.22 4529049.643 203 865
-13625907.54 4529136.806 204 865
-13625995.48 4529318.162 205 865
-13626014.4 4529358.933 206 865
-13626044.46 4529423.603 207 865
-13626076.74 4529491.086 208 865
-13626119.04 4529645.736 209 865
-13626120.16 4529711.815 210 865
-13626120.16 4529782.111 211 865
-13626121.27 4529890.369 212 865
-13626122.38 4529935.36 213 865
-13626122.38 4529963.479 214 865
-13626114.59 4530049.243 215 865
-13626097.89 4530067.521 216 865
-13625749.46 4530494.946 217 865
-13625739.44 4530634.144 218 865
-13625739.44 4530724.132 219 865
-13625739.44 4530746.629 220 865
-13625635.92 4530991.288 221 865
-13625594.73 4531046.126 222 865
-13625441.11 4531164.24 223 865
-13625228.49 4531313.29 224 865
-13625100.47 4531480.622 225 865
-13625043.7 4531677.488 226 865
-13625045.92 4531707.018 227 865
-13625052.6 4531812.483 228 865
-13625053.72 4531833.576 229 865
-13625067.07 4531832.17 230 865
-13625163.92 4531818.108 231 865
-13625221.81 4531815.295 232 865
-13625283.03 4531837.795 233 865
-13625325.34 4531882.794 234 865
-13625340.92 4531922.168 235 865
-13625359.84 4531975.605 236 865
-13625385.45 4532040.292 237 865
-13625393.24 4532058.573 238 865
-13625396.58 4532067.01 239 865
-13625404.37 4532086.698 240 865
-13625418.84 4532116.229 241 865
-13625471.16 4532159.823 242 865
-13625694.92 4532224.511 243 865
-13626085.65 4532332.794 244 865
-13626730.19 4532546.551 245 865
-13627040.77 4532653.431 246 865
-13627114.24 4532677.339 247 865
-13627162.11 4532695.621 248 865
-13627199.96 4532708.278 249 865
-13627255.62 4532727.967 250 865
-13627529.46 4532829.223 251 865
-13627830.02 4532826.411 252 865
-13627882.34 4532805.315 253 865
-13628110.55 4532718.122 254 865
-13628155.08 4532698.434 255 865
-13628196.27 4532678.745 256 865
-13628237.45 4532653.431 257 865
-13628313.15 4532570.459 258 865
-13628418.9 4532493.112 259 865
-13628494.6 4532495.924 260 865
-13628568.07 4532517.019 261 865
-13628669.37 4532547.958 262 865
-13628703.88 4532557.802 263 865
-13628838.58 4532623.899 264 865
-13629199.25 4532919.23 265 865
-13629382.93 4533044.397 266 865
-13629477.55 4533111.903 267 865
-13629563.27 4533168.159 268 865
-13629583.31 4533182.223 269 865
-13630536.2 4533836.217 270 865
-13630576.28 4533861.534 271 865
-13630602.99 4533879.818 272 865
-13630654.2 4533916.387 273 865
-13630771.09 4533996.558 274 865
-13630823.41 4534033.127 275 865
-13630834.54 4534040.16 276 865
-13630918.03 4534095.014 277 865
-13631080.55 4534208.942 278 865
-13631234.17 4534313.026 279 865
-13631254.21 4534325.685 280 865
-13631284.27 4534346.784 281 865
-13631339.93 4534384.761 282 865
-13631392.25 4534419.925 283 865
-13631435.66 4534448.056 284 865
-13631475.74 4534476.187 285 865
-13631506.91 4534498.692 286 865
-13631549.21 4534528.23 287 865
-13631582.6 4534552.142 288 865
-13631664.98 4534608.406 289 865
-13631786.32 4534698.428 290 865
-13632040.13 4535014.918 291 865
-13631995.6 4535075.403 292 865
-13631936.6 4535159.803 293 865
-13631880.94 4535242.796 294 865
-13631824.17 4535325.79 295 865
-13631767.39 4535410.192 296 865
-13631709.51 4535491.78 297 865
-13631698.38 4535501.627 298 865
-13631650.51 4535573.37 299 865
-13631636.04 4535593.064 300 865
-13631595.96 4535656.366 301 865
-13631539.19 4535739.364 302 865
-13631703.94 4535849.09 303 865
-13631868.7 4535970.072 304 865
-13631782.98 4536072.767 305 865
-13631690.58 4536302.075 306 865
-13631652.74 4536317.55 307 865
-13631314.32 4536570.781 308 865
-13631240.85 4536683.33 309 865
-13631080.55 4537077.26 310 865
-13630585.18 4537236.243 311 865
-13629991.85 4536954.859 312 865
-13629404.08 4536567.967 313 865
-13629377.36 4536556.712 314 865
-13629109.09 4536621.428 315 865
-13628952.12 4536911.245 316 865
-13628673.83 4536832.459 317 865
-13628366.58 4536580.629 318 865
-13628257.49 4536570.781 319 865
-13627974.74 4536880.293 320 865
-13627912.4 4536970.335 321 865
-13627848.95 4537002.693 322 865
-13627927.99 4537091.329 323 865
-13628155.08 4537461.356 324 865
-13628158.42 4537500.752 325 865
-13628160.64 4537631.602 326 865
-13628251.92 4537910.191 327 865
-13628253.04 4537987.578 328 865
-13628230.77 4538088.885 329 865
-13628188.47 4538208.486 330 865
-13628158.42 4538297.132 331 865
-13628108.32 4538436.434 332 865
-13628167.32 4538478.648 333 865
-13628236.34 4538549.003 334 865
-13628042.64 4538617.952 335 865
-13628019.27 4538653.131 336 865
-13627982.53 4538717.859 337 865
-13627940.23 4538829.024 338 865
-13627892.36 4538850.131 339 865
-13627746.53 4538826.209 340 865
-13627663.04 4538813.545 341 865
-13627595.14 4538812.138 342 865
-13627538.37 4538867.017 343 865
-13627290.12 4538810.731 344 865
-13627267.86 4538874.053 345 865
-13627209.97 4539034.471 346 865
-13627228.9 4539042.914 347 865
-13627307.94 4539148.453 348 865
-13627310.16 4539168.154 349 865
-13627197.73 4539355.314 350 865
-13627056.35 4539427.083 351 865
-13626972.86 4539458.042 352 865
-13626849.3 4539515.739 353 865
-13626790.3 4539724.014 354 865
-13626798.09 4539760.604 355 865
-13626716.83 4539785.935 356 865
-13626607.74 4539822.524 357 865
-13626499.76 4539860.521 358 865
-13626389.55 4539892.889 359 865
-13626280.46 4539932.294 360 865
-13626172.48 4539966.069 361 865
-13626058.93 4540004.066 362 865
-13625949.84 4540040.657 363 865
-13625839.63 4540078.654 364 865
-13625730.54 4540113.838 365 865
-13625740.56 4540137.762 366 865
-13625795.1 4540308.051 367 865
-13625850.76 4540478.343 368 865
-13625906.42 4540645.822 369 865
-13625962.08 4540816.119 370 865
-13626016.63 4540985.012 371 865
-13626072.29 4541155.315 372 865
-13626126.84 4541324.212 373 865
-13626183.61 4541491.706 374 865
-13626240.38 4541654.979 375 865
-13626186.95 4541676.092 376 865
-13626131.29 4541698.613 377 865
-13626164.68 4541771.805 378 865
-13626182.5 4541811.217 379 865
-13626199.19 4541847.813 380 865
-13626234.82 4541926.637 381 865
-13626265.99 4541989.979 382 865
-13626307.17 4542063.173 383 865
-13626250.4 4542085.695 384 865
-13626258.19 4542103.993 385 865
-13626268.21 4542125.107 386 865
-13626279.34 4542147.629 387 865
-13626343.91 4542299.652 388 865
-13626382.87 4542450.269 389 865
-13626394 4542526.282 390 865
-13626394 4542709.279 391 865
-13626376.19 4542819.079 392 865
-13626367.29 4542862.717 393 865
-13626307.17 4543028.827 394 865
-13626232.59 4543159.747 395 865
-13626133.52 4543311.784 396 865
-13626067.84 4543453.969 397 865
-13625977.67 4543789.026 398 865
-13625937.59 4543950.928 399 865
-13625913.1 4544050.886 400 865
-13625910.88 4544059.333 401 865
-13625903.08 4544090.306 402 865
-13625816.25 4544522.53 403 865
-13625889.73 4545142.036 404 865
-13626199.19 4545712.296 405 865
-13626149.1 4545854.514 406 865
-13626135.74 4545879.86 407 865
-13626109.02 4545931.96 408 865
-13626088.99 4545981.244 409 865
-13626051.14 4546164.302 410 865
-13626045.57 4546233.301 411 865
-13626045.57 4546286.811 412 865
-13626045.57 4546320.607 413 865
-13626046.69 4546340.322 414 865
-13626046.69 4546413.547 415 865
-13626021.08 4546416.363 416 865
-13625909.76 4546426.221 417 865
-13625839.63 4546433.261 418 865
-13625804.01 4546436.078 419 865
-13625758.37 4546438.894 420 865
-13625693.8 4546443.119 421 865
-13625589.16 4546450.16 422 865
-13625490.09 4546458.609 423 865
-13625477.84 4546460.017 424 865
-13625409.94 4546464.242 425 865
-13625372.09 4546467.058 426 865
-13625327.56 4546471.282 427 865
-13625139.43 4546679.697 428 865
-13625075.98 4546616.327 429 865
-13625043.7 4546583.938 430 865
-13625006.96 4546547.325 431 865
-13624956.87 4546498.038 432 865
-13624921.25 4546500.855 433 865
-13624885.62 4546505.079 434 865
-13624850 4546509.304 435 865
-13624796.57 4546513.528 436 865
-13624697.49 4546521.977 437 865
-13624479.31 4546540.284 438 865
-13624490.44 4546674.064 439 865
-13624503.8 4546802.212 440 865
-13624516.04 4546937.404 441 865
-13624522.72 4547062.739 442 865
-13624527.17 4547121.886 443 865
-13624536.08 4547252.857 444 865
-13624544.99 4547382.421 445 865
-13624370.21 4547396.504 446 865
