x y k tid
-13621979.07 4541038.495 0 1607
-13622136.03 4541152.5 1 1607
-13622178.33 4541193.316 2 1607
-13622207.28 4541153.907 3 1607
-13622247.35 4541099.016 4 1607
-13622305.24 4541010.346 5 1607
-13622349.77 4541038.495 6 1607
-13622387.61 4541035.68 7 1607
-13622416.56 4541042.717 8 1607
-13622434.37 4541103.238 9 1607
-13622451.07 4541120.128 10 1607
-13622498.93 4541153.907 11 1607
-13622520.08 4541160.944 12 1607
-13622710.44 4541303.1 13 1607
-13622740.5 4541322.805 14 1607
-13622968.7 4541349.547 15 1607
-13623226.96 4541514.226 16 1607
-13623271.49 4541455.11 17 1607
-13623302.66 4541438.22 18 1607
-13623441.81 4541438.22 19 1607
-13623477.43 4541443.85 20 1607
-13623539.77 4541441.035 21 1607
-13623599.88 4541401.625 22 1607
-13623662.22 4541318.582 23 1607
-13623673.35 4541301.693 24 1607
-13623724.56 4541229.911 25 1607
-13623786.9 4541141.24 26 1607
-13623850.35 4541053.977 27 1607
-13624056.29 4541200.354 28 1607
-13624118.63 4541113.09 29 1607
-13624182.08 4541025.828 30 1607
-13624245.54 4540937.159 31 1607
-13624308.99 4540849.898 32 1607
-13624370.21 4540762.637 33 1607
-13624432.55 4540673.97 34 1607
-13624494.89 4540583.897 35 1607
-13624560.57 4540495.231 36 1607
-13624620.68 4540407.974 37 1607
-13624683.02 4540322.125 38 1607
-13624748.7 4540229.239 39 1607
-13624953.53 4540375.605 40 1607
-13624973.57 4540388.271 41 1607
-13624992.49 4540396.715 42 1607
-13625015.87 4540330.569 43 1607
-13625032.57 4540285.533 44 1607
-13625130.53 4540315.088 45 1607
-13625248.53 4540348.865 46 1607
-13625324.22 4540371.382 47 1607
-13625419.96 4540399.53 48 1607
-13625515.69 4540429.085 49 1607
-13625593.62 4540454.417 50 1607
-13625616.99 4540462.862 51 1607
-13625635.92 4540469.898 52 1607
-13625662.63 4540479.75 53 1607
-13625687.12 4540485.38 54 1607
-13625733.88 4540498.046 55 1607
-13625709.39 4540415.011 56 1607
-13625688.24 4540346.05 57 1607
-13625630.35 4540177.168 58 1607
-13625621.45 4540147.614 59 1607
-13625591.39 4539999.845 60 1607
-13625557.99 4539829.561 61 1607
-13625520.14 4539649.429 62 1607
-13625491.2 4539489.002 63 1607
-13625488.98 4539473.522 64 1607
-13625478.96 4539410.196 65 1607
-13625464.48 4539318.726 66 1607
-13625462.26 4539300.432 67 1607
-13625547.97 4539213.185 68 1607
-13625612.54 4539190.67 69 1607
-13625742.78 4539066.836 70 1607
-13625745.01 4539049.95 71 1607
-13625745.01 4539024.621 72 1607
-13625743.9 4538965.519 73 1607
-13625746.12 4538926.118 74 1607
-13625792.88 4538879.682 75 1607
-13625805.12 4538871.239 76 1607
-13625859.67 4538816.359 77 1607
-13625873.03 4538798.066 78 1607
-13625925.35 4538709.416 79 1607
-13625962.08 4538647.502 80 1607
-13625987.69 4538601.067 81 1607
-13626071.18 4538435.027 82 1607
-13626087.87 4538384.372 83 1607
-13626105.69 4538328.088 84 1607
-13626124.61 4538274.619 85 1607
-13626151.33 4538200.043 86 1607
-13626168.02 4538152.203 87 1607
-13626192.51 4538079.036 88 1607
-13626237.04 4537949.588 89 1607
-13626253.74 4537897.527 90 1607
-13626259.31 4537880.643 91 1607
-13626264.87 4537863.759 92 1607
-13626294.93 4537783.558 93 1607
-13626365.06 4537609.09 94 1607
-13626399.57 4537509.194 95 1607
-13626450.78 4537264.382 96 1607
-13626438.53 4537160.269 97 1607
-13626362.83 4536939.383 98 1607
-13626333.89 4536866.224 99 1607
-13626169.14 4536444.165 100 1607
-13626152.44 4536401.96 101 1607
-13626120.16 4536318.957 102 1607
-13626082.31 4536228.921 103 1607
-13626061.16 4536178.276 104 1607
-13626042.23 4536131.852 105 1607
-13626021.08 4536079.801 106 1607
-13626082.31 4536074.173 107 1607
-13626116.82 4536074.173 108 1607
-13626144.65 4536075.58 109 1607
-13626205.87 4536096.682 110 1607
-13626372.85 4536359.755 111 1607
-13626426.29 4536476.522 112 1607
-13626469.7 4536572.188 113 1607
-13627014.05 4536805.728 114 1607
-13627637.44 4536987.217 115 1607
-13627848.95 4537002.693 116 1607
-13627912.4 4536970.335 117 1607
-13627974.74 4536880.293 118 1607
-13628257.49 4536570.781 119 1607
-13628366.58 4536580.629 120 1607
-13628673.83 4536832.459 121 1607
-13628952.12 4536911.245 122 1607
-13629109.09 4536621.428 123 1607
-13629377.36 4536556.712 124 1607
-13629404.08 4536567.967 125 1607
-13629991.85 4536954.859 126 1607
-13630585.18 4537236.243 127 1607
-13631080.55 4537077.26 128 1607
-13631240.85 4536683.33 129 1607
-13631314.32 4536570.781 130 1607
-13631652.74 4536317.55 131 1607
-13631690.58 4536302.075 132 1607
-13631782.98 4536072.767 133 1607
-13631868.7 4535970.072 134 1607
-13631703.94 4535849.09 135 1607
-13631539.19 4535739.364 136 1607
-13631595.96 4535656.366 137 1607
-13631636.04 4535593.064 138 1607
-13631650.51 4535573.37 139 1607
-13631698.38 4535501.627 140 1607
-13631709.51 4535491.78 141 1607
-13631767.39 4535410.192 142 1607
-13631824.17 4535325.79 143 1607
-13631880.94 4535242.796 144 1607
-13631936.6 4535159.803 145 1607
-13631995.6 4535075.403 146 1607
-13632040.13 4535014.918 147 1607
-13631786.32 4534698.428 148 1607
-13631664.98 4534608.406 149 1607
-13631582.6 4534552.142 150 1607
-13631549.21 4534528.23 151 1607
-13631506.91 4534498.692 152 1607
-13631475.74 4534476.187 153 1607
-13631435.66 4534448.056 154 1607
-13631392.25 4534419.925 155 1607
-13631339.93 4534384.761 156 1607
-13631284.27 4534346.784 157 1607
-13631254.21 4534325.685 158 1607
-13631234.17 4534313.026 159 1607
-13631080.55 4534208.942 160 1607
-13630918.03 4534095.014 161 1607
-13630834.54 4534040.16 162 1607
-13630823.41 4534033.127 163 1607
-13630771.09 4533996.558 164 1607
-13630654.2 4533916.387 165 1607
-13630602.99 4533879.818 166 1607
-13630576.28 4533861.534 167 1607
-13630536.2 4533836.217 168 1607
-13629583.31 4533182.223 169 1607
-13629563.27 4533168.159 170 1607
-13629477.55 4533111.903 171 1607
-13629382.93 4533044.397 172 1607
-13629199.25 4532919.23 173 1607
-13628838.58 4532623.899 174 1607
-13628703.88 4532557.802 175 1607
-13628669.37 4532547.958 176 1607
-13628568.07 4532517.019 177 1607
-13628494.6 4532495.924 178 1607
-13628418.9 4532493.112 179 1607
-13628403.32 4532446.704 180 1607
-13628551.37 4532329.982 181 1607
-13628524.66 4532144.354 182 1607
-13628559.17 4532031.854 183 1607
-13628700.54 4532023.417 184 1607
-13628785.15 4531704.205 185 1607
-13628798.5 4531664.832 186 1607
-13628822.99 4531584.679 187 1607
-13628840.81 4531519.995 188 1607
-13628670.49 4531472.185 189 1607
-13628445.62 4531410.314 190 1607
-13628255.26 4531356.881 191 1607
-13628052.66 4531300.635 192 1607
-13627902.38 4531257.044 193 1607
-13627660.82 4531189.55 194 1607
-13627265.63 4531078.467 195 1607
-13627289.01 4531009.567 196 1607
-13627096.43 4530956.135 197 1607
-13627071.94 4530949.105 198 1607
-13626972.86 4530922.389 199 1607
-13626892.71 4530899.892 200 1607
-13626633.34 4530826.775 201 1607
-13626459.68 4530777.563 202 1607
-13626418.49 4530766.314 203 1607
-13626381.76 4530756.472 204 1607
-13626410.7 4530690.387 205 1607
-13626437.42 4530625.708 206 1607
-13626463.02 4530561.03 207 1607
-13626500.87 4530462.607 208 1607
-13626519.79 4530375.434 209 1607
-13626519.79 4530298.103 210 1607
-13626508.66 4530241.863 211 1607
-13626494.19 4530191.247 212 1607
-13626468.59 4530136.414 213 1607
-13626409.59 4530056.273 214 1607
-13626353.93 4530075.956 215 1607
-13626324.98 4530085.798 216 1607
-13626312.74 4530090.016 217 1607
-13626287.14 4530097.046 218 1607
-13626214.78 4530104.076 219 1607
-13626189.17 4530094.234 220 1607
-13626114.59 4530049.243 221 1607
-13626122.38 4529963.479 222 1607
-13626122.38 4529935.36 223 1607
-13626121.27 4529890.369 224 1607
-13626120.16 4529782.111 225 1607
-13626120.16 4529711.815 226 1607
-13626119.04 4529645.736 227 1607
-13626076.74 4529491.086 228 1607
-13626044.46 4529423.603 229 1607
-13626014.4 4529358.933 230 1607
-13625995.48 4529318.162 231 1607
-13625907.54 4529136.806 232 1607
-13625799.56 4528910.466 233 1607
-13625686.01 4528668.668 234 1607
-13625653.73 4528601.19 235 1607
-13625639.26 4528567.452 236 1607
-13625604.75 4528488.729 237 1607
-13625581.37 4528424.064 238 1607
-13625551.31 4528360.805 239 1607
-13625526.82 4528307.387 240 1607
-13625495.65 4528238.506 241 1607
-13625467.82 4528179.465 242 1607
-13625453.35 4528147.134 243 1607
-13625374.32 4527974.232 244 1607
-13625310.86 4527828.04 245 1607
-13625276.35 4527753.54 246 1607
-13625268.56 4527731.049 247 1607
-13625259.66 4527674.823 248 1607
-13625264.11 4527660.766 249 1607
-13625310.86 4527629.842 250 1607
-13625442.22 4527576.428 251 1607
-13625465.6 4527556.749 252 1607
-13625483.41 4527548.315 253 1607
-13625545.75 4527471.005 254 1607
-13625594.73 4527381.045 255 1607
-13625632.58 4527309.359 256 1607
-13625658.18 4527261.569 257 1607
-13625638.14 4526851.142 258 1607
-13625620.33 4526733.077 259 1607
-13625501.22 4526277.696 260 1607
-13625460.03 4526118.88 261 1607
-13625428.86 4525999.417 262 1607
-13625396.58 4525886.984 263 1607
-13625372.09 4525806.875 264 1607
-13625344.26 4525705.687 265 1607
-13625276.35 4525480.827 266 1607
-13625221.81 4525333.265 267 1607
-13625049.26 4525268.62 268 1607
-13624828.85 4525250.351 269 1607
-13624793.23 4525232.081 270 1607
-13624773.19 4525199.759 271 1607
-13624729.78 4525057.823 272 1607
-13624720.87 4524984.747 273 1607
-13624654.08 4524695.261 274 1607
-13624610.66 4524589.867 275 1607
-13624507.14 4524501.338 276 1607
-13624419.19 4524425.456 277 1607
-13624217.71 4524276.504 278 1607
-13624146.46 4524220.296 279 1607
-13624093.03 4524178.14 280 1607
-13624050.73 4524143.011 281 1607
-13623727.9 4523852.143 282 1607
-13623543.11 4523691.958 283 1607
-13623087.81 4523732.707 284 1607
-13623000.98 4523772.05 285 1607
-13622959.8 4523750.973 286 1607
-13622930.85 4523734.112 287 1607
-13622813.97 4523665.261 288 1607
-13622658.12 4523579.549 289 1607
-13622576.86 4523534.586 290 1607
-13622535.67 4523512.104 291 1607
-13622418.78 4523447.47 292 1607
-13622189.47 4523295.722 293 1607
-13622093.73 4523200.178 294 1607
-13622061.45 4523169.267 295 1607
-13621974.62 4523082.154 296 1607
-13621918.96 4523023.143 297 1607
-13621874.43 4522973.967 298 1607
-13621779.81 4522834.871 299 1607
-13621747.53 4522774.456 300 1607
-13621701.89 4522666.272 301 1607
-13621669.6 4522584.783 302 1607
-13621657.36 4522551.064 303 1607
-13621650.68 4522534.204 304 1607
-13621527.11 4522230.737 305 1607
-13621361.25 4521980.664 306 1607
-13621350.12 4521975.044 307 1607
-13621314.49 4521952.566 308 1607
-13621268.85 4521924.468 309 1607
-13621145.29 4521848.605 310 1607
-13621108.55 4521826.127 311 1607
-13621090.74 4521850.01 312 1607
-13621061.8 4521887.941 313 1607
-13621035.08 4521907.61 314 1607
-13620993.89 4521925.873 315 1607
-13620902.61 4521932.898 316 1607
-13620834.71 4521934.302 317 1607
-13620322.64 4521941.327 318 1607
-13620161.22 4521939.922 319 1607
-13620087.75 4521921.659 320 1607
-13620066.6 4521909.015 321 1607
-13619921.89 4521729.192 322 1607
-13619782.74 4521625.233 323 1607
-13619610.19 4521608.375 324 1607
-13619505.55 4521598.541 325 1607
-13619252.86 4521576.064 326 1607
-13619196.08 4521571.849 327 1607
-13619010.18 4521597.136 328 1607
-13619002.39 4521601.351 329 1607
-13618878.82 4521720.763 330 1607
-13618662.86 4521793.815 331 1607
-13618228.72 4521431.367 332 1607
-13618227.6 4521377.984 333 1607
-13618227.6 4521285.267 334 1607
-13618207.57 4521264.195 335 1607
-13617900.33 4521212.218 336 1607
-13617804.59 4521191.146 337 1607
-13617783.44 4521185.527 338 1607
-13617675.46 4521146.193 339 1607
-13617450.59 4521015.55 340 1607
-13617495.12 4520966.383 341 1607
-13617528.52 4520907.384 342 1607
-13617490.67 4520849.79 343 1607
-13617342.61 4520668.58 344 1607
-13617052.07 4520331.455 345 1607
-13616892.88 4520146.04 346 1607
-13616727.02 4520022.432 347 1607
-13616564.49 4519766.794 348 1607
-13616263.93 4519419.865 349 1607
-13616068.01 4519211.995 350 1607
-13615936.65 4519224.636 351 1607
-13615838.69 4519206.377 352 1607
-13615827.56 4519157.219 353 1607
-13615846.48 4519086.994 354 1607
-13615891.01 4519028.005 355 1607
-13615923.29 4518987.275 356 1607
-13615935.54 4518971.825 357 1607
-13615955.57 4518942.331 358 1607
-13616006.78 4518910.028 359 1607
-13616116.99 4518866.489 360 1607
-13616194.91 4518813.12 361 1607
-13616132.57 4518738.683 362 1607
-13616104.74 4518706.381 363 1607
-13616083.59 4518681.101 364 1607
-13616030.16 4518617.901 365 1607
-13615873.2 4518435.326 366 1607
-13615751.86 4518292.077 367 1607
-13615716.24 4518251.35 368 1607
-13615564.84 4518081.42 369 1607
-13615619.39 4518033.672 370 1607
-13615672.82 4517987.328 371 1607
-13615610.48 4517910.089 372 1607
-13615552.6 4517842.681 373 1607
-13615491.37 4517775.273 374 1607
-13615336.64 4517716.292 375 1607
-13615355.56 4517623.607 376 1607
-13615372.26 4517539.349 377 1607
-13615392.3 4517455.092 378 1607
-13615409 4517368.027 379 1607
-13615421.24 4517314.665 380 1607
-13615435.71 4517251.473 381 1607
-13615447.96 4517186.878 382 1607
-13615466.88 4517137.729 383 1607
-13615415.67 4517078.752 384 1607
-13615336.64 4516987.477 385 1607
-13615162.98 4516786.676 386 1607
-13615129.58 4516748.763 387 1607
-13615105.09 4516719.275 388 1607
-13615052.77 4516658.895 389 1607
-13615007.13 4516591.495 390 1607
-13614996 4516562.008 391 1607
-13614968.17 4516430.017 392 1607
-13614967.06 4516420.188 393 1607
-13614964.83 4516390.701 394 1607
-13614962.6 4516338.748 395 1607
-13614951.47 4516215.186 396 1607
-13614933.66 4516045.289 397 1607
-13614921.42 4515931.558 398 1607
-13614913.62 4515852.93 399 1607
-13614488.38 4515852.93 400 1607
-13614400.44 4515841.698 401 1607
-13614183.37 4515730.777 402 1607
-13613990.78 4515593.181 403 1607
-13613886.14 4515517.364 404 1607
-13613809.33 4515464.011 405 1607
-13613747 4515420.487 406 1607
-13613652.37 4515343.267 407 1607
-13613575.56 4515259.027 408 1607
-13613555.53 4515232.352 409 1607
-13613511 4515174.788 410 1607
-13613460.9 4515110.206 411 1607
-13613424.17 4515009.121 412 1607
-13613418.6 4514979.638 413 1607
-13613374.07 4514902.421 414 1607
-13613414.15 4514820.993 415 1607
-13613430.85 4514784.491 416 1607
-13613695.79 4514565.481 417 1607
-13613916.2 4514387.188 418 1607
-13613991.9 4514324.014 419 1607
-13614019.73 4514302.956 420 1607
-13614038.65 4514287.514 421 1607
-13614057.58 4514272.072 422 1607
-13614082.07 4514251.014 423 1607
-13614099.88 4514235.571 424 1607
-13614080.95 4514214.514 425 1607
-13613893.94 4514012.362 426 1607
-13613853.86 4513963.228 427 1607
-13613778.16 4513874.788 428 1607
-13613650.15 4513747.043 429 1607
-13613559.98 4513660.009 430 1607
-13613263.87 4513393.296 431 1607
-13613163.68 4513304.861 432 1607
-13613108.02 4513254.327 433 1607
-13613054.59 4513209.408 434 1607
-13613165.91 4513133.608 435 1607
-13613312.85 4513057.808 436 1607
-13613302.83 4513038.157 437 1607
-13613277.23 4512982.009 438 1607
-13613336.23 4512949.725 439 1607
-13613405.24 4512911.826 440 1607
-13613376.3 4512851.468 441 1607
-13613339.57 4512805.147 442 1607
-13613405.24 4512632.499 443 1607
-13613001.15 4512419.148 444 1607
-13613031.21 4512153.87 445 1607
-13613070.17 4512099.131 446 1607
-13613046.8 4512058.428 447 1607
-13613049.02 4511933.512 448 1607
-13613053.47 4511878.774 449 1607
-13613075.74 4511822.633 450 1607
-13613247.17 4511666.843 451 1607
-13613268.32 4511557.37 452 1607
