x y k tid
-13636980.49 4542109.624 0 677
-13636861.37 4542102.586 1 677
-13636762.3 4542074.434 2 677
-13636659.89 4542022.353 3 677
-13636553.02 4541953.381 4 677
-13636449.49 4541906.931 5 677
-13636339.29 4541880.188 6 677
-13636278.06 4541875.965 7 677
-13636163.4 4541878.78 8 677
-13636099.95 4541881.595 9 677
-13636023.14 4541885.818 10 677
-13635963.03 4541890.041 11 677
-13635946.33 4541891.448 12 677
-13635896.23 4541892.856 13 677
-13635804.95 4541894.263 14 677
-13635696.97 4541902.709 15 677
-13635573.41 4541912.562 16 677
-13635413.11 4541921.007 17 677
-13635318.49 4541925.23 18 677
-13635222.75 4541930.86 19 677
-13635122.56 4541936.49 20 677
-13635071.36 4541939.306 21 677
-13635026.83 4541942.121 22 677
-13634927.75 4541946.343 23 677
-13634906.6 4541947.751 24 677
-13634860.96 4541950.566 25 677
-13634829.79 4541951.974 26 677
-13634734.06 4541956.197 27 677
-13634670.61 4541960.419 28 677
-13634634.98 4541961.827 29 677
-13634580.44 4541966.05 30 677
-13634538.14 4541967.457 31 677
-13634437.95 4541973.088 32 677
-13634339.99 4541980.125 33 677
-13634236.46 4541984.348 34 677
-13634185.25 4541985.756 35 677
-13634083.95 4541992.794 36 677
-13634069.48 4541992.794 37 677
-13633985.99 4541995.609 38 677
-13633925.88 4541995.609 39 677
-13633893.6 4541995.609 40 677
-13633867.99 4541995.609 41 677
-13633788.96 4541997.016 42 677
-13633758.9 4541998.424 43 677
-13633722.16 4541999.832 44 677
-13633659.83 4542001.239 45 677
-13633628.66 4542002.647 46 677
-13633603.05 4542002.647 47 677
-13633559.64 4542004.054 48 677
-13633544.05 4542004.054 49 677
-13633535.15 4542004.054 50 677
-13633493.96 4542011.092 51 677
-13633468.36 4542023.761 52 677
-13633384.87 4542116.662 53 677
-13633344.79 4542160.298 54 677
-13633290.25 4542219.417 55 677
-13633221.23 4542292.614 56 677
-13633112.13 4542396.778 57 677
-13633024.19 4542474.199 58 677
-13632912.87 4542603.703 59 677
-13632873.91 4542643.118 60 677
-13632839.4 4542669.864 61 677
-13632819.36 4542683.941 62 677
-13632773.72 4542707.871 63 677
-13632632.35 4542752.917 64 677
-13632598.95 4542757.14 65 677
-13632504.33 4542771.217 66 677
-13632338.46 4542792.332 67 677
-13632307.29 4542795.148 68 677
-13632248.29 4542803.594 69 677
-13632145.88 4542819.079 70 677
-13632114.71 4542823.302 71 677
-13632069.07 4542828.932 72 677
-13632054.6 4542831.748 73 677
-13631957.75 4542869.756 74 677
-13631904.32 4542899.318 75 677
-13631776.3 4542988.003 76 677
-13631717.3 4543055.574 77 677
-13631663.87 4543165.378 78 677
-13631650.51 4543189.309 79 677
-13631539.19 4543320.23 80 677
-13631505.79 4543348.386 81 677
-13631477.96 4543373.726 82 677
-13631446.79 4543397.658 83 677
-13631372.21 4543452.561 84 677
-13631325.46 4543487.756 85 677
-13631250.87 4543532.805 86 677
-13631159.59 4543570.815 87 677
-13631097.25 4543590.525 88 677
-13631048.27 4543598.971 89 677
-13630924.71 4543628.535 90 677
-13630823.41 4543659.507 91 677
-13630784.44 4543672.177 92 677
-13630702.07 4543696.11 93 677
-13630604.11 4543717.227 94 677
-13630497.24 4543738.345 95 677
-13630474.98 4543745.384 96 677
-13630456.05 4543755.239 97 677
-13630439.35 4543767.909 98 677
-13630417.09 4543915.732 99 677
-13630394.83 4543991.755 100 677
-13630381.47 4544014.281 101 677
-13630350.3 4544066.372 102 677
-13630332.49 4544142.397 103 677
-13630334.71 4544177.594 104 677
-13630325.81 4544219.83 105 677
-13630296.86 4544363.436 106 677
-13630275.71 4544470.437 107 677
-13630273.49 4544480.292 108 677
-13630263.47 4544528.162 109 677
-13630253.45 4544585.887 110 677
-13630244.54 4544629.533 111 677
-13630240.09 4544652.06 112 677
-13630179.98 4544774.552 113 677
-13630159.94 4544821.015 114 677
-13630122.09 4544915.349 115 677
-13630075.34 4545023.764 116 677
-13630077.56 4545042.068 117 677
-13630041.94 4545051.924 118 677
-13629971.81 4545073.044 119 677
-13629915.04 4545077.268 120 677
-13629847.13 4545080.084 121 677
-13629829.32 4544933.653 122 677
-13629710.21 4544947.733 123 677
-13629712.44 4544997.012 124 677
-13629595.55 4545009.684 125 677
-13629612.25 4545233.557 126 677
-13629492.02 4545242.005 127 677
-13629367.35 4545251.862 128 677
-13629386.27 4545477.148 129 677
-13629260.48 4545488.412 130 677
-13629139.14 4545496.861 131 677
-13628888.67 4545517.982 132 677
-13628898.69 4545627.811 133 677
-13628908.71 4545739.05 134 677
