x y k tid
-13634778.59 4556551.76 0 1456
-13634748.53 4556561.627 1 1456
-13634482.48 4556829.446 2 1456
-13634273.2 4556833.675 3 1456
-13634147.41 4557069.079 4 1456
-13634198.61 4557202.995 5 1456
-13634195.27 4557425.721 6 1456
-13634189.71 4557446.866 7 1456
-13634175.24 4557514.53 8 1456
-13634176.35 4557582.195 9 1456
-13634186.37 4557638.583 10 1456
-13634196.39 4557683.694 11 1456
-13634201.95 4557713.298 12 1456
-13634208.63 4557730.214 13 1456
-13634298.8 4557828.895 14 1456
-13634370.04 4557831.714 15 1456
-13634446.85 4557831.714 16 1456
-13634486.93 4557837.353 17 1456
-13634500.29 4557874.006 18 1456
-13634499.17 4557899.382 19 1456
-13634498.06 4557965.639 20 1456
-13634599.36 4557968.459 21 1456
-13634697.32 4557969.869 22 1456
-13634775.25 4557969.869 23 1456
-13634796.4 4558043.176 24 1456
-13634795.28 4558110.844 25 1456
-13635009.02 4558113.664 26 1456
-13634884.34 4558233.495 27 1456
-13634962.26 4558318.082 28 1456
-13635058 4558426.637 29 1456
-13634839.81 4558502.767 30 1456
-13634770.79 4558581.717 31 1456
-13634709.57 4558662.077 32 1456
-13634823.11 4558743.848 33 1456
-13634941.11 4558788.964 34 1456
-13635238.34 4558736.799 35 1456
-13635548.92 4558480.21 36 1456
-13635528.88 4558446.374 37 1456
-13635485.47 4558378.703 38 1456
-13635581.2 4558440.735 39 1456
-13635502.16 4558246.183 40 1456
-13635488.81 4558172.874 41 1456
-13635440.94 4558061.503 42 1456
-13635148.17 4557678.055 43 1456
-13635123.68 4557563.869 44 1456
-13635071.36 4557297.441 45 1456
-13635080.26 4557077.537 46 1456
-13635105.87 4557022.562 47 1456
-13634940 4556226.158 48 1456
-13634906.6 4556150.045 49 1456
-13634805.3 4555992.182 50 1456
-13634655.02 4555866.739 51 1456
-13634602.7 4555832.912 52 1456
-13634543.7 4555792.038 53 1456
-13634508.08 4555761.03 54 1456
-13634440.18 4555666.597 55 1456
-13634393.42 4555483.373 56 1456
-13634387.86 4555436.862 57 1456
-13634331.08 4554816.743 58 1456
-13634141.84 4552762.158 59 1456
-13634120.69 4552545.168 60 1456
-13634038.31 4552359.18 61 1456
-13633971.52 4552270.415 62 1456
-13633929.22 4552218.283 63 1456
-13633918.09 4552205.602 64 1456
-13633904.73 4552191.512 65 1456
-13633811.22 4552095.703 66 1456
-13633747.77 4552018.211 67 1456
-13633728.84 4551994.259 68 1456
-13633697.67 4551957.627 69 1456
-13633643.13 4551894.225 70 1456
-13633587.47 4551833.642 71 1456
-13633524.02 4551780.103 72 1456
-13633473.92 4551744.88 73 1456
-13633373.73 4551685.707 74 1456
-13633275.77 4551637.804 75 1456
-13633230.13 4551620.898 76 1456
-13633028.64 4551556.089 77 1456
-13632922.89 4551529.32 78 1456
-13632721.4 4551488.463 79 1456
-13632615.65 4551467.33 80 1456
-13632361.84 4551419.429 81 1456
-13632204.88 4551443.379 82 1456
-13632037.9 4551529.32 83 1456
-13631805.24 4551673.027 84 1456
-13631727.32 4551689.933 85 1456
-13631563.68 4551719.52 86 1456
-13631554.77 4551671.618 87 1456
-13631557 4551656.12 88 1456
-13631569.25 4551577.222 89 1456
-13631572.59 4551556.089 90 1456
-13631580.38 4551515.232 91 1456
-13631583.72 4551492.69 92 1456
-13631587.06 4551475.783 93 1456
-13631591.51 4551451.833 94 1456
-13631594.85 4551430.7 95 1456
-13631609.32 4551351.804 96 1456
-13631577.04 4551333.489 97 1456
-13631749.58 4551046.088 98 1456
-13631785.21 4550982.692 99 1456
-13631640.49 4550958.742 100 1456
-13631632.7 4550962.968 101 1456
-13631470.17 4551037.635 102 1456
-13631433.44 4551055.949 103 1456
-13631361.08 4551099.623 104 1456
-13631319.89 4551054.541 105 1456
-13631310.98 4551044.679 106 1456
-13631251.99 4550958.742 107 1456
-13631238.63 4550934.792 108 1456
-13631213.02 4550874.215 109 1456
-13631209.68 4550812.228 110 1456
-13631256.44 4550741.79 111 1456
-13631253.1 4550724.884 112 1456
-13631238.63 4550662.899 113 1456
-13631223.04 4550612.184 114 1456
-13631178.51 4550567.104 115 1456
-13630981.48 4550507.937 116 1456
-13630910.23 4550447.361 117 1456
-13630902.44 4550354.386 118 1456
-13630865.71 4550274.089 119 1456
-13630851.24 4550237.463 120 1456
-13630845.67 4550223.376 121 1456
-13630837.88 4550195.202 122 1456
-13630832.31 4550158.576 123 1456
-13630825.63 4550119.133 124 1456
-13630818.95 4550074.055 125 1456
-13630814.5 4550041.656 126 1456
-13630794.46 4549919.102 127 1456
-13630774.42 4549795.141 128 1456
-13630755.5 4549671.181 129 1456
-13630734.35 4549545.815 130 1456
-13630724.33 4549485.245 131 1456
-13630713.2 4549416.224 132 1456
-13630705.41 4549350.02 133 1456
-13630693.16 4549279.592 134 1456
-13630673.12 4549150.004 135 1456
-13630653.09 4549020.418 136 1456
-13630641.95 4548964.077 137 1456
-13630629.71 4548886.608 138 1456
-13630610.78 4548758.434 139 1456
-13630606.33 4548728.855 140 1456
-13630453.82 4548755.617 141 1456
-13630439.35 4548734.489 142 1456
-13630387.03 4548657.022 143 1456
-13630372.56 4548657.022 144 1456
-13630344.73 4548659.839 145 1456
-13630260.13 4548671.107 146 1456
-13630207.81 4548679.558 147 1456
-13630197.79 4548682.375 148 1456
-13630173.3 4548690.826 149 1456
-13630135.45 4548703.503 150 1456
-13630129.88 4548692.235 151 1456
-13630108.73 4548568.288 152 1456
-13630086.47 4548431.667 153 1456
-13630064.21 4548306.315 154 1456
-13630005.21 4548313.358 155 1456
-13629981.83 4548183.782 156 1456
-13629961.79 4548051.391 157 1456
-13629940.64 4547920.411 158 1456
-13629920.6 4547788.023 159 1456
-13629899.45 4547655.637 160 1456
-13629879.42 4547526.07 161 1456
-13629856.04 4547395.096 162 1456
-13629853.81 4547378.196 163 1456
-13629838.23 4547282.431 164 1456
-13629836 4547266.94 165 1456
-13629815.96 4547133.153 166 1456
-13629793.7 4547012.041 167 1456
-13629777 4547000.775 168 1456
-13629713.55 4547013.45 169 1456
-13629608.91 4547033.165 170 1456
-13629583.31 4546847.276 171 1456
-13629567.72 4546629.001 172 1456
-13629565.49 4546602.245 173 1456
-13629546.57 4546603.653 174 1456
-13629470.87 4546609.286 175 1456
-13629464.19 4546523.386 176 1456
-13629461.97 4546495.222 177 1456
-13629459.74 4546472.691 178 1456
-13629453.06 4546382.567 179 1456
-13629447.5 4546279.77 180 1456
-13629443.04 4546213.587 181 1456
-13629438.59 4546155.853 182 1456
-13629433.02 4546064.324 183 1456
-13629427.46 4546016.447 184 1456
-13629423.01 4545975.611 185 1456
-13629419.67 4545948.857 186 1456
-13629418.55 4545940.408 187 1456
-13629414.1 4545868.595 188 1456
-13629406.31 4545757.355 189 1456
-13629401.86 4545702.439 190 1456
-13629399.63 4545668.645 191 1456
-13629397.4 4545646.116 192 1456
-13629386.27 4545477.148 193 1456
-13629367.35 4545251.862 194 1456
-13629359.55 4545139.22 195 1456
-13629350.65 4545032.212 196 1456
-13629102.41 4545046.292 197 1456
-13629094.61 4544933.653 198 1456
-13629085.71 4544819.607 199 1456
-13629077.92 4544705.562 200 1456
-13629069.01 4544591.519 201 1456
-13629061.22 4544483.108 202 1456
-13629053.43 4544370.475 203 1456
-13629044.52 4544257.843 204 1456
-13629035.61 4544145.213 205 1456
-13629027.82 4544032.583 206 1456
-13629016.69 4543924.179 207 1456
-13629010.01 4543815.775 208 1456
-13629010.01 4543805.92 209 1456
-13629001.11 4543694.702 210 1456
-13628992.2 4543584.893 211 1456
-13628983.29 4543468.047 212 1456
-13628975.5 4543358.24 213 1456
-13628966.6 4543244.211 214 1456
-13628957.69 4543131.592 215 1456
-13628955.46 4543100.622 216 1456
-13628947.67 4543020.381 217 1456
-13628928.75 4542826.117 218 1456
-13628880.88 4542789.517 219 1456
-13628633.75 4542571.327 220 1456
-13628650.45 4542443.23 221 1456
-13628589.22 4542371.441 222 1456
-13628528 4542294.021 223 1456
-13628505.73 4542270.092 224 1456
-13628480.13 4542253.2 225 1456
-13628438.94 4542225.048 226 1456
-13628231.89 4542189.857 227 1456
-13628236.34 4542171.558 228 1456
-13628254.15 4542115.254 229 1456
-13628224.1 4542105.401 230 1456
-13628221.87 4542077.249 231 1456
-13628167.32 4541995.609 232 1456
-13628290.89 4541853.444 233 1456
-13628304.25 4541756.322 234 1456
-13628299.79 4541654.979 235 1456
-13628395.53 4541607.123 236 1456
-13628417.79 4541559.267 237 1456
-13628421.13 4541518.448 238 1456
-13628417.79 4541480.446 239 1456
-13628411.11 4541373.475 240 1456
-13628404.43 4541270.728 241 1456
-13628397.75 4541162.352 242 1456
-13628324.28 4541166.574 243 1456
-13628456.75 4540944.196 244 1456
-13628369.92 4540890.713 245 1456
-13628500.17 4540671.156 246 1456
-13628629.3 4540450.195 247 1456
-13628758.43 4540229.239 248 1456
-13628887.56 4540012.51 249 1456
-13628799.62 4539959.032 250 1456
-13628711.67 4539902.74 251 1456
-13628843.03 4539684.611 252 1456
-13628975.5 4539465.078 253 1456
-13629104.63 4539249.772 254 1456
-13629155.84 4539165.34 255 1456
-13629201.48 4539086.537 256 1456
-13629251.57 4538999.291 257 1456
-13629262.71 4538979.591 258 1456
-13629155.84 4538955.669 259 1456
-13629063.44 4538930.34 260 1456
-13628904.26 4538889.532 261 1456
-13628877.54 4538882.496 262 1456
-13628806.3 4538864.203 263 1456
-13628600.35 4538768.516 264 1456
-13628417.79 4538674.238 265 1456
-13628236.34 4538549.003 266 1456
-13628167.32 4538478.648 267 1456
-13628108.32 4538436.434 268 1456
-13628158.42 4538297.132 269 1456
-13628188.47 4538208.486 270 1456
-13628230.77 4538088.885 271 1456
-13628253.04 4537987.578 272 1456
-13628251.92 4537910.191 273 1456
-13628160.64 4537631.602 274 1456
-13628158.42 4537500.752 275 1456
-13628155.08 4537461.356 276 1456
-13627927.99 4537091.329 277 1456
-13627848.95 4537002.693 278 1456
-13627912.4 4536970.335 279 1456
-13627974.74 4536880.293 280 1456
-13628257.49 4536570.781 281 1456
-13628366.58 4536580.629 282 1456
-13628673.83 4536832.459 283 1456
-13628952.12 4536911.245 284 1456
-13629109.09 4536621.428 285 1456
-13629377.36 4536556.712 286 1456
-13629404.08 4536567.967 287 1456
-13629991.85 4536954.859 288 1456
-13630585.18 4537236.243 289 1456
-13631080.55 4537077.26 290 1456
-13631240.85 4536683.33 291 1456
-13631314.32 4536570.781 292 1456
-13631652.74 4536317.55 293 1456
-13631690.58 4536302.075 294 1456
-13631782.98 4536072.767 295 1456
-13631868.7 4535970.072 296 1456
-13631703.94 4535849.09 297 1456
-13631539.19 4535739.364 298 1456
-13631595.96 4535656.366 299 1456
-13631636.04 4535593.064 300 1456
-13631650.51 4535573.37 301 1456
-13631698.38 4535501.627 302 1456
-13631709.51 4535491.78 303 1456
-13631767.39 4535410.192 304 1456
-13631824.17 4535325.79 305 1456
-13631880.94 4535242.796 306 1456
-13631936.6 4535159.803 307 1456
-13631995.6 4535075.403 308 1456
-13632040.13 4535014.918 309 1456
-13631786.32 4534698.428 310 1456
-13631664.98 4534608.406 311 1456
-13631582.6 4534552.142 312 1456
-13631549.21 4534528.23 313 1456
-13631506.91 4534498.692 314 1456
-13631475.74 4534476.187 315 1456
-13631435.66 4534448.056 316 1456
-13631392.25 4534419.925 317 1456
-13631339.93 4534384.761 318 1456
-13631284.27 4534346.784 319 1456
-13631254.21 4534325.685 320 1456
-13631234.17 4534313.026 321 1456
-13631080.55 4534208.942 322 1456
-13630918.03 4534095.014 323 1456
-13630834.54 4534040.16 324 1456
-13630823.41 4534033.127 325 1456
-13630771.09 4533996.558 326 1456
-13630654.2 4533916.387 327 1456
-13630602.99 4533879.818 328 1456
-13630576.28 4533861.534 329 1456
-13630536.2 4533836.217 330 1456
-13629583.31 4533182.223 331 1456
-13629563.27 4533168.159 332 1456
-13629477.55 4533111.903 333 1456
-13629382.93 4533044.397 334 1456
-13629199.25 4532919.23 335 1456
-13628838.58 4532623.899 336 1456
-13628703.88 4532557.802 337 1456
-13628669.37 4532547.958 338 1456
-13628568.07 4532517.019 339 1456
-13628494.6 4532495.924 340 1456
-13628418.9 4532493.112 341 1456
-13628313.15 4532570.459 342 1456
-13628237.45 4532653.431 343 1456
-13628196.27 4532678.745 344 1456
-13628139.49 4532584.522 345 1456
-13628092.74 4532507.175 346 1456
-13627806.65 4532608.429 347 1456
-13627326.86 4532528.269 348 1456
-13627165.45 4532405.921 349 1456
-13627030.75 4532262.48 350 1456
-13626931.68 4532107.792 351 1456
-13626876.02 4532054.354 352 1456
-13626804.77 4532000.917 353 1456
-13626690.11 4531851.857 354 1456
-13626676.75 4531853.263 355 1456
-13626652.26 4531868.732 356 1456
-13626690.11 4531636.708 357 1456
-13626709.04 4531570.618 358 1456
-13626743.55 4531438.438 359 1456
-13626781.39 4531304.853 360 1456
-13626714.6 4531286.573 361 1456
-13626651.15 4531268.293 362 1456
-13626522.02 4531230.328 363 1456
-13626298.27 4531169.864 364 1456
-13626223.68 4531147.366 365 1456
-13626277.12 4531018.004 366 1456
-13626310.51 4530935.044 367 1456
-13626328.32 4530891.455 368 1456
-13626346.14 4530842.242 369 1456
-13626367.29 4530785.999 370 1456
-13626381.76 4530756.472 371 1456
-13626410.7 4530690.387 372 1456
-13626437.42 4530625.708 373 1456
-13626463.02 4530561.03 374 1456
-13626500.87 4530462.607 375 1456
-13626519.79 4530375.434 376 1456
-13626519.79 4530298.103 377 1456
-13626508.66 4530241.863 378 1456
-13626494.19 4530191.247 379 1456
-13626468.59 4530136.414 380 1456
-13626409.59 4530056.273 381 1456
-13626353.93 4530075.956 382 1456
-13626324.98 4530085.798 383 1456
-13626312.74 4530090.016 384 1456
-13626287.14 4530097.046 385 1456
-13626214.78 4530104.076 386 1456
-13626189.17 4530094.234 387 1456
-13626114.59 4530049.243 388 1456
-13626122.38 4529963.479 389 1456
-13626122.38 4529935.36 390 1456
-13626121.27 4529890.369 391 1456
-13626120.16 4529782.111 392 1456
-13626120.16 4529711.815 393 1456
-13626119.04 4529645.736 394 1456
-13626076.74 4529491.086 395 1456
-13626044.46 4529423.603 396 1456
-13626014.4 4529358.933 397 1456
-13625995.48 4529318.162 398 1456
-13625907.54 4529136.806 399 1456
-13625799.56 4528910.466 400 1456
-13625686.01 4528668.668 401 1456
-13625653.73 4528601.19 402 1456
-13625639.26 4528567.452 403 1456
-13625604.75 4528488.729 404 1456
-13625581.37 4528424.064 405 1456
-13625551.31 4528360.805 406 1456
-13625526.82 4528307.387 407 1456
-13625495.65 4528238.506 408 1456
-13625467.82 4528179.465 409 1456
-13625453.35 4528147.134 410 1456
-13625374.32 4527974.232 411 1456
-13625310.86 4527828.04 412 1456
-13625276.35 4527753.54 413 1456
-13625268.56 4527731.049 414 1456
-13625259.66 4527674.823 415 1456
-13625264.11 4527660.766 416 1456
-13625310.86 4527629.842 417 1456
-13625442.22 4527576.428 418 1456
-13625465.6 4527556.749 419 1456
-13625483.41 4527548.315 420 1456
-13625545.75 4527471.005 421 1456
-13625594.73 4527381.045 422 1456
-13625632.58 4527309.359 423 1456
-13625658.18 4527261.569 424 1456
-13625638.14 4526851.142 425 1456
-13625620.33 4526733.077 426 1456
-13625501.22 4526277.696 427 1456
-13625460.03 4526118.88 428 1456
-13625428.86 4525999.417 429 1456
-13625396.58 4525886.984 430 1456
-13625372.09 4525806.875 431 1456
-13625344.26 4525705.687 432 1456
-13625276.35 4525480.827 433 1456
-13625221.81 4525333.265 434 1456
-13625049.26 4525268.62 435 1456
-13624828.85 4525250.351 436 1456
-13624793.23 4525232.081 437 1456
-13624773.19 4525199.759 438 1456
-13624729.78 4525057.823 439 1456
-13624720.87 4524984.747 440 1456
-13624654.08 4524695.261 441 1456
-13624610.66 4524589.867 442 1456
-13624507.14 4524501.338 443 1456
-13624419.19 4524425.456 444 1456
-13624217.71 4524276.504 445 1456
-13624146.46 4524220.296 446 1456
-13624093.03 4524178.14 447 1456
-13624050.73 4524143.011 448 1456
-13623727.9 4523852.143 449 1456
-13623543.11 4523691.958 450 1456
-13623087.81 4523732.707 451 1456
-13623000.98 4523772.05 452 1456
-13622959.8 4523750.973 453 1456
-13622930.85 4523734.112 454 1456
-13622813.97 4523665.261 455 1456
-13622658.12 4523579.549 456 1456
-13622576.86 4523534.586 457 1456
-13622535.67 4523512.104 458 1456
-13622418.78 4523447.47 459 1456
-13622189.47 4523295.722 460 1456
-13622093.73 4523200.178 461 1456
-13622061.45 4523169.267 462 1456
-13621974.62 4523082.154 463 1456
-13621918.96 4523023.143 464 1456
-13621874.43 4522973.967 465 1456
-13621779.81 4522834.871 466 1456
-13621747.53 4522774.456 467 1456
-13621701.89 4522666.272 468 1456
-13621669.6 4522584.783 469 1456
-13621657.36 4522551.064 470 1456
-13621650.68 4522534.204 471 1456
-13621527.11 4522230.737 472 1456
-13621361.25 4521980.664 473 1456
-13621350.12 4521975.044 474 1456
-13621314.49 4521952.566 475 1456
-13621268.85 4521924.468 476 1456
-13621145.29 4521848.605 477 1456
-13621108.55 4521826.127 478 1456
-13621090.74 4521850.01 479 1456
-13621061.8 4521887.941 480 1456
-13621035.08 4521907.61 481 1456
-13620993.89 4521925.873 482 1456
-13620902.61 4521932.898 483 1456
-13620834.71 4521934.302 484 1456
-13620322.64 4521941.327 485 1456
-13620161.22 4521939.922 486 1456
-13620087.75 4521921.659 487 1456
-13620066.6 4521909.015 488 1456
-13619921.89 4521729.192 489 1456
-13619782.74 4521625.233 490 1456
-13619610.19 4521608.375 491 1456
-13619505.55 4521598.541 492 1456
-13619252.86 4521576.064 493 1456
-13619196.08 4521571.849 494 1456
-13619010.18 4521597.136 495 1456
-13619002.39 4521601.351 496 1456
-13618878.82 4521720.763 497 1456
-13618662.86 4521793.815 498 1456
-13618228.72 4521431.367 499 1456
-13618227.6 4521377.984 500 1456
-13618227.6 4521285.267 501 1456
-13618207.57 4521264.195 502 1456
-13617900.33 4521212.218 503 1456
-13617804.59 4521191.146 504 1456
-13617783.44 4521185.527 505 1456
-13617675.46 4521146.193 506 1456
-13617450.59 4521015.55 507 1456
-13617495.12 4520966.383 508 1456
-13617528.52 4520907.384 509 1456
-13617490.67 4520849.79 510 1456
-13617342.61 4520668.58 511 1456
-13617052.07 4520331.455 512 1456
-13616892.88 4520146.04 513 1456
-13616727.02 4520022.432 514 1456
-13616564.49 4519766.794 515 1456
-13616263.93 4519419.865 516 1456
-13616068.01 4519211.995 517 1456
-13615936.65 4519224.636 518 1456
-13615838.69 4519206.377 519 1456
-13615827.56 4519157.219 520 1456
-13615846.48 4519086.994 521 1456
-13615891.01 4519028.005 522 1456
-13615923.29 4518987.275 523 1456
-13615935.54 4518971.825 524 1456
-13615955.57 4518942.331 525 1456
-13616006.78 4518910.028 526 1456
-13616116.99 4518866.489 527 1456
-13616194.91 4518813.12 528 1456
-13616132.57 4518738.683 529 1456
-13616104.74 4518706.381 530 1456
-13616083.59 4518681.101 531 1456
-13616030.16 4518617.901 532 1456
-13615873.2 4518435.326 533 1456
-13615751.86 4518292.077 534 1456
-13615716.24 4518251.35 535 1456
-13615564.84 4518081.42 536 1456
-13615619.39 4518033.672 537 1456
-13615672.82 4517987.328 538 1456
-13615610.48 4517910.089 539 1456
-13615552.6 4517842.681 540 1456
-13615491.37 4517775.273 541 1456
-13615336.64 4517716.292 542 1456
-13615247.58 4517696.631 543 1456
-13615117.34 4517570.244 544 1456
-13615060.57 4517504.242 545 1456
-13615002.68 4517436.836 546 1456
-13614948.13 4517373.644 547 1456
-13614726.61 4517108.24 548 1456
-13614611.95 4516758.592 549 1456
-13614615.29 4516428.613 550 1456
-13614616.4 4516394.914 551 1456
-13614616.4 4516352.79 552 1456
-13614616.4 4516215.186 553 1456
-13614520.67 4516216.59 554 1456
-13614422.7 4516217.994 555 1456
-13614325.86 4516215.186 556 1456
-13614005.26 4516108.473 557 1456
-13613958.5 4516059.33 558 1456
-13613938.46 4516011.591 559 1456
