x y k tid
-13631633.81 4527106.954 0 832
-13631520.27 4527305.142 1 832
-13631528.06 4527396.507 2 832
-13631403.38 4527151.933 3 832
-13631428.98 4527064.787 4 832
-13631398.93 4527028.242 5 832
-13631354.4 4526969.208 6 832
-13631352.17 4526908.769 7 832
-13631295.4 4526886.281 8 832
-13631268.68 4526875.036 9 832
-13631207.46 4526845.52 10 832
-13631088.35 4526755.566 11 832
-13631040.48 4526674.045 12 832
-13630900.22 4526471.652 13 832
-13630870.16 4526467.436 14 832
-13630817.84 4526471.652 15 832
-13630766.63 4526495.546 16 832
-13630715.43 4526381.701 17 832
-13630687.6 4526326.888 18 832
-13630598.54 4526200.396 19 832
-13630432.67 4525982.552 20 832
-13630290.18 4525797.038 21 832
-13630186.66 4525663.525 22 832
-13630177.75 4525650.877 23 832
-13630155.49 4525669.147 24 832
-13630068.66 4525736.606 25 832
-13630044.17 4525666.336 26 832
-13630041.94 4525603.094 27 832
-13629823.76 4525262.999 28 832
-13629565.49 4525372.615 29 832
-13629523.19 4525270.025 30 832
-13629435.25 4525132.304 31 832
-13629399.63 4524983.342 32 832
-13629302.78 4524946.804 33 832
-13629043.41 4524879.351 34 832
-13628906.48 4524792.224 35 832
-13628772.9 4524497.122 36 832
-13628973.28 4524283.53 37 832
-13628905.37 4524202.029 38 832
-13628866.41 4524110.692 39 832
-13628840.81 4524074.157 40 832
-13628806.3 4524032.002 41 832
-13628610.37 4523835.281 42 832
-13628555.83 4523787.507 43 832
-13628519.09 4523767.835 44 832
-13628465.66 4523767.835 45 832
-13628436.72 4523776.265 46 832
-13628395.53 4523932.236 47 832
-13628436.72 4524439.508 48 832
-13627994.78 4525025.501 49 832
-13627843.38 4525035.338 50 832
-13627763.23 4525039.554 51 832
-13627723.16 4525042.364 52 832
-13627457.1 4525060.633 53 832
-13627246.71 4525262.999 54 832
-13627197.73 4525337.481 55 832
-13627173.24 4525316.401 56 832
-13627209.97 4525161.815 57 832
-13627213.31 4525144.952 58 832
-13627168.79 4525053.607 59 832
-13627155.43 4525050.796 60 832
-13627138.73 4525036.743 61 832
-13627119.81 4525010.042 62 832
-13627083.07 4524955.236 63 832
-13627027.41 4524876.54 64 832
-13626975.09 4524797.845 65 832
-13626935.02 4524738.824 66 832
-13626881.58 4524654.509 67 832
-13626655.6 4524483.07 68 832
-13626686.77 4524388.92 69 832
-13626675.64 4524356.6 70 832
-13626701.24 4524189.382 71 832
-13626516.45 4524187.977 72 832
-13626442.98 4524180.951 73 832
-13626306.06 4524128.959 74 832
-13626255.97 4524051.675 75 832
-13626201.42 4523974.391 76 832
-13626019.97 4523916.779 77 832
-13625928.69 4523833.876 78 832
-13625855.22 4523693.363 79 832
-13625773.95 4523557.068 80 832
-13625648.16 4523381.431 81 832
-13625584.71 4523292.912 82 832
-13625483.41 4523367.381 83 832
-13625416.62 4523276.051 84 832
-13625353.17 4523188.938 85 832
-13625322 4523145.381 86 832
-13625205.11 4522983.802 87 832
-13625078.21 4522808.176 88 832
-13624863.36 4522510.32 89 832
-13624954.64 4522445.692 90 832
-13625043.7 4522381.065 91 832
-13624988.04 4522298.173 92 832
-13625090.45 4522243.381 93 832
-13625067.07 4522187.184 94 832
-13625057.06 4522149.252 95 832
-13625044.81 4522059.338 96 832
-13624543.87 4522087.436 97 832
