x y k tid
-13609208.5 4518018.224 0 449
-13609220.74 4518039.289 1 449
-13609243.01 4518077.207 2 449
-13609270.84 4518124.955 3 449
-13609484.57 4518167.087 4 449
-13609527.99 4518214.836 5 449
-13609562.5 4518248.541 6 449
-13609657.12 4518328.591 7 449
-13609815.19 4518431.113 8 449
-13609835.23 4518440.944 9 449
-13609914.27 4518476.054 10 449
-13609947.66 4518491.503 11 449
-13609994.42 4518509.76 12 449
-13610212.6 4518567.342 13 449
-13610305 4518582.79 14 449
-13610365.11 4518633.35 15 449
-13610508.71 4518761.155 16 449
-13610538.77 4518726.043 17 449
-13610805.93 4518227.475 18 449
-13610805.93 4518185.344 19 449
-13610815.95 4517956.432 20 449
-13611087.57 4517997.158 21 449
-13611115.4 4517963.454 22 449
-13611143.23 4517929.75 23 449
-13611166.61 4517898.854 24 449
-13611196.67 4517862.341 25 449
-13611235.63 4517890.428 26 449
-13611306.87 4517943.793 27 449
-13611381.46 4517998.563 28 449
-13611473.85 4518063.163 29 449
-13611575.15 4518123.551 30 449
-13611613 4518158.66 31 449
-13611639.72 4518189.557 32 449
-13611722.09 4518412.855 33 449
-13611710.96 4518584.195 34 449
-13611815.6 4518601.048 35 449
-13611920.24 4518782.222 36 449
-13611938.05 4518907.219 37 449
-13611935.83 4518925.477 38 449
-13612102.81 4518945.14 39 449
-13612172.94 4518952.162 40 449
-13612246.41 4518953.567 41 449
-13612298.73 4518953.567 42 449
-13612394.46 4518953.567 43 449
-13612565.9 4518953.567 44 449
-13612634.91 4518953.567 45 449
-13612664.97 4518953.567 46 449
-13613030.1 4518945.14 47 449
-13613203.76 4518931.095 48 449
-13613531.04 4518908.624 49 449
-13613910.63 4518990.084 50 449
-13614020.84 4519049.072 51 449
-13614074.27 4519078.567 52 449
-13614094.31 4519089.803 53 449
-13614687.64 4519308.907 54 449
-13614973.74 4519411.438 55 449
-13615039.41 4519433.911 56 449
-13615132.92 4519467.62 57 449
-13615174.11 4519481.666 58 449
-13615272.07 4519512.566 59 449
-13615498.05 4519433.911 60 449
-13615535.9 4519401.606 61 449
-13615542.58 4519410.034 62 449
-13615570.41 4519442.338 63 449
-13615633.86 4519513.97 64 449
-13615567.07 4519570.153 65 449
-13615480.24 4519646 66 449
-13615540.35 4519716.229 67 449
-13615665.03 4519862.306 68 449
-13615732.93 4519942.369 69 449
-13616003.44 4520255.603 70 449
-13616162.63 4520442.424 71 449
-13616236.1 4520377.809 72 449
-13616279.51 4520278.077 73 449
-13616318.48 4520240.152 74 449
-13616352.98 4520210.654 75 449
-13616391.95 4520176.942 76 449
-13616545.57 4520042.097 77 449
-13616614.59 4520123.566 78 449
-13616745.94 4520275.268 79 449
-13616905.13 4520456.471 80 449
-13617052.07 4520331.455 81 449
-13617342.61 4520668.58 82 449
-13617490.67 4520849.79 83 449
-13617528.52 4520907.384 84 449
-13617495.12 4520966.383 85 449
-13617450.59 4521015.55 86 449
-13617588.63 4521122.312 87 449
-13617675.46 4521146.193 88 449
-13617783.44 4521185.527 89 449
-13617804.59 4521191.146 90 449
-13617900.33 4521212.218 91 449
-13618207.57 4521264.195 92 449
-13618227.6 4521285.267 93 449
-13618227.6 4521377.984 94 449
-13618228.72 4521431.367 95 449
-13618655.07 4521806.459 96 449
-13618889.96 4521732.001 97 449
-13619013.52 4521618.209 98 449
-13619020.2 4521613.994 99 449
-13619196.08 4521588.707 100 449
-13619251.74 4521592.922 101 449
-13619491.08 4521612.589 102 449
-13619504.44 4521613.994 103 449
-13619610.19 4521621.018 104 449
-13619779.4 4521639.281 105 449
-13619898.51 4521724.977 106 449
-13619909.64 4521739.026 107 449
-13619975.32 4521821.912 108 449
-13620066.6 4521909.015 109 449
-13620087.75 4521921.659 110 449
-13620161.22 4521939.922 111 449
-13620322.64 4521941.327 112 449
-13620834.71 4521934.302 113 449
-13620902.61 4521932.898 114 449
-13620993.89 4521925.873 115 449
-13621035.08 4521907.61 116 449
-13621061.8 4521887.941 117 449
-13621090.74 4521850.01 118 449
-13621108.55 4521826.127 119 449
-13621145.29 4521848.605 120 449
-13621268.85 4521924.468 121 449
-13621314.49 4521952.566 122 449
-13621350.12 4521975.044 123 449
-13621361.25 4521980.664 124 449
-13621527.11 4522230.737 125 449
-13621650.68 4522534.204 126 449
-13621657.36 4522551.064 127 449
-13621669.6 4522584.783 128 449
-13621701.89 4522666.272 129 449
-13621747.53 4522774.456 130 449
-13621779.81 4522834.871 131 449
-13621874.43 4522973.967 132 449
-13621918.96 4523023.143 133 449
-13621974.62 4523082.154 134 449
-13622061.45 4523169.267 135 449
-13622093.73 4523200.178 136 449
-13622189.47 4523295.722 137 449
-13622418.78 4523447.47 138 449
-13622535.67 4523512.104 139 449
-13622576.86 4523534.586 140 449
-13622658.12 4523579.549 141 449
-13622813.97 4523665.261 142 449
-13622930.85 4523734.112 143 449
-13622959.8 4523750.973 144 449
-13623000.98 4523772.05 145 449
-13623087.81 4523732.707 146 449
-13623543.11 4523691.958 147 449
-13623727.9 4523852.143 148 449
-13624050.73 4524143.011 149 449
-13624093.03 4524178.14 150 449
-13624146.46 4524220.296 151 449
-13624217.71 4524276.504 152 449
-13624419.19 4524425.456 153 449
-13624507.14 4524501.338 154 449
-13624610.66 4524589.867 155 449
-13624654.08 4524695.261 156 449
-13624720.87 4524984.747 157 449
-13624716.42 4525063.444 158 449
-13624759.83 4525203.975 159 449
-13624779.87 4525244.729 160 449
-13624789.89 4525253.161 161 449
-13624801.02 4525262.999 162 449
-13625050.38 4525286.889 163 449
-13625097.13 4525286.889 164 449
-13625221.81 4525333.265 165 449
-13625276.35 4525480.827 166 449
-13625344.26 4525705.687 167 449
-13625372.09 4525806.875 168 449
-13625396.58 4525886.984 169 449
-13625428.86 4525999.417 170 449
-13625460.03 4526118.88 171 449
-13625501.22 4526277.696 172 449
-13625620.33 4526733.077 173 449
-13625638.14 4526851.142 174 449
-13625658.18 4527261.569 175 449
-13625632.58 4527309.359 176 449
-13625594.73 4527381.045 177 449
-13625545.75 4527471.005 178 449
-13625483.41 4527548.315 179 449
-13625465.6 4527556.749 180 449
-13625381 4527587.673 181 449
-13625276.35 4527753.54 182 449
-13625310.86 4527828.04 183 449
-13625374.32 4527974.232 184 449
-13625453.35 4528147.134 185 449
-13625467.82 4528179.465 186 449
-13625495.65 4528238.506 187 449
-13625526.82 4528307.387 188 449
-13625551.31 4528360.805 189 449
-13625581.37 4528424.064 190 449
-13625604.75 4528488.729 191 449
-13625639.26 4528567.452 192 449
-13625653.73 4528601.19 193 449
-13625686.01 4528668.668 194 449
-13625762.82 4528833.146 195 449
-13625799.56 4528910.466 196 449
-13625855.22 4529049.643 197 449
-13625907.54 4529136.806 198 449
-13625995.48 4529318.162 199 449
-13626014.4 4529358.933 200 449
-13626044.46 4529423.603 201 449
-13626076.74 4529491.086 202 449
-13626119.04 4529645.736 203 449
-13626120.16 4529711.815 204 449
-13626120.16 4529782.111 205 449
-13626121.27 4529890.369 206 449
-13626122.38 4529935.36 207 449
-13626122.38 4529963.479 208 449
-13626114.59 4530049.243 209 449
-13626189.17 4530094.234 210 449
-13626214.78 4530104.076 211 449
-13626287.14 4530097.046 212 449
-13626312.74 4530090.016 213 449
-13626324.98 4530085.798 214 449
-13626353.93 4530075.956 215 449
-13626409.59 4530056.273 216 449
-13626419.61 4530092.828 217 449
-13626453 4530139.226 218 449
-13626498.64 4530265.765 219 449
-13626500.87 4530286.855 220 449
-13626504.21 4530314.975 221 449
-13626500.87 4530376.84 222 449
-13626491.96 4530442.923 223 449
-13626448.55 4530554 224 449
-13626418.49 4530620.084 225 449
-13626437.42 4530625.708 226 449
-13626515.34 4530645.393 227 449
-13626671.19 4530688.981 228 449
-13626932.79 4530760.69 229 449
-13627325.75 4530871.77 230 449
-13627717.59 4530980.039 231 449
-13628109.44 4531089.715 232 449
-13628306.47 4531144.554 233 449
-13628503.51 4531202.205 234 449
-13628728.37 4531264.075 235 449
-13628900.92 4531314.696 236 449
-13628881.99 4531377.973 237 449
-13628874.2 4531403.284 238 449
-13628860.84 4531449.687 239 449
-13628912.05 4531466.561 240 449
-13628947.67 4531477.81 241 449
-13629010.01 4531463.748 242 449
-13629239.33 4531489.059 243 449
-13629512.06 4531557.962 244 449
-13629613.36 4531535.463 245 449
-13629648.98 4531514.371 246 449
-13629800.38 4531659.207 247 449
-13629982.94 4531806.858 248 449
-13630178.87 4532013.573 249 449
-13630260.13 4532096.542 250 449
-13630352.52 4532178.104 251 449
-13630382.58 4532203.417 252 449
-13630486.11 4532290.606 253 449
-13630516.16 4532315.919 254 449
-13630533.97 4532327.169 255 449
-13630605.22 4532387.639 256 449
-13630712.09 4532477.642 257 449
-13631367.76 4533163.94 258 449
-13631460.15 4533260.981 259 449
-13631529.17 4533332.708 260 449
-13631548.1 4533359.43 261 449
-13631557 4533386.152 262 449
-13631644.94 4533480.383 263 449
-13631663.87 4533500.073 264 449
-13631751.81 4533594.305 265 449
-13631855.34 4533705.415 266 449
-13631887.62 4533740.577 267 449
-13631922.13 4533777.145 268 449
-13631988.92 4533853.095 269 449
-13632070.18 4533950.143 270 449
-13632149.22 4534050.005 271 449
-13632228.26 4534149.868 272 449
-13632281.69 4534215.975 273 449
-13632372.97 4534327.092 274 449
-13632437.54 4534414.298 275 449
-13632512.12 4534522.604 276 449
-13632532.16 4534570.428 277 449
-13632548.86 4534643.57 278 449
-13632553.31 4534670.296 279 449
-13632574.46 4534670.296 280 449
-13632654.61 4534670.296 281 449
-13632811.57 4534670.296 282 449
-13632940.7 4534765.945 283 449
-13633008.61 4534832.056 284 449
-13633121.04 4534867.221 285 449
-13633133.28 4534867.221 286 449
-13633147.76 4534867.221 287 449
-13633225.68 4534864.408 288 449
-13633288.02 4534863.001 289 449
-13633340.34 4534861.595 290 449
-13633378.19 4534864.408 291 449
-13633377.07 4534888.32 292 449
-13633379.3 4534975.532 293 449
-13633382.64 4535116.196 294 449
-13633377.07 4535202.003 295 449
-13633345.9 4535359.551 296 449
-13633332.55 4535429.886 297 449
-13633380.41 4535431.292 298 449
-13633323.64 4535854.717 299 449
-13633323.64 4535874.412 300 449
-13633325.87 4535984.14 301 449
-13633330.32 4536219.073 302 449
-13633359.26 4536522.948 303 449
-13633384.87 4536489.184 304 449
-13633363.72 4536242.989 305 449
-13633362.6 4535851.904 306 449
-13633370.4 4535645.113 307 449
-13633404.9 4535490.374 308 449
-13633421.6 4535429.886 309 449
-13633483.94 4534888.32 310 449
-13633491.73 4534671.702 311 449
-13633496.19 4534443.836 312 449
-13633508.43 4534400.233 313 449
