x y k tid
-13618787.54 4519412.843 0 1459
-13618690.69 4519498.52 1 1459
-13618588.28 4519588.412 2 1459
-13618466.94 4519693.755 3 1459
-13618724.09 4519832.81 4 1459
-13618756.37 4519849.665 5 1459
-13618685.13 4519914.277 6 1459
-13618648.39 4519947.987 7 1459
-13618581.6 4520005.577 8 1459
-13618542.64 4520039.288 9 1459
-13618438 4520130.589 10 1459
-13618330.02 4520226.105 11 1459
-13618255.43 4520289.315 12 1459
-13618220.93 4520318.813 13 1459
-13618174.17 4520359.548 14 1459
-13618137.44 4520391.855 15 1459
-13618060.63 4520462.089 16 1459
-13617980.48 4520532.324 17 1459
-13617892.53 4520609.582 18 1459
-13617804.59 4520679.818 19 1459
-13617791.23 4520688.246 20 1459
-13617774.53 4520699.484 21 1459
-13617706.63 4520745.84 22 1459
-13617587.52 4520846.98 23 1459
-13617568.59 4520862.432 24 1459
-13617550.78 4520877.884 25 1459
-13617541.88 4520889.122 26 1459
-13617528.52 4520907.384 27 1459
-13617495.12 4520966.383 28 1459
-13617450.59 4521015.55 29 1459
-13617588.63 4521122.312 30 1459
-13617675.46 4521146.193 31 1459
-13617783.44 4521185.527 32 1459
-13617804.59 4521191.146 33 1459
-13617900.33 4521212.218 34 1459
-13618207.57 4521264.195 35 1459
-13618227.6 4521285.267 36 1459
-13618227.6 4521377.984 37 1459
-13618228.72 4521431.367 38 1459
-13618655.07 4521806.459 39 1459
-13618889.96 4521732.001 40 1459
-13619013.52 4521618.209 41 1459
-13619020.2 4521613.994 42 1459
-13619196.08 4521588.707 43 1459
-13619251.74 4521592.922 44 1459
-13619491.08 4521612.589 45 1459
-13619504.44 4521613.994 46 1459
-13619610.19 4521621.018 47 1459
-13619779.4 4521639.281 48 1459
-13619898.51 4521724.977 49 1459
-13619909.64 4521739.026 50 1459
-13619975.32 4521821.912 51 1459
-13620066.6 4521909.015 52 1459
-13620087.75 4521921.659 53 1459
-13620161.22 4521939.922 54 1459
-13620322.64 4521941.327 55 1459
-13620834.71 4521934.302 56 1459
-13620902.61 4521932.898 57 1459
-13620993.89 4521925.873 58 1459
-13621035.08 4521907.61 59 1459
-13621061.8 4521887.941 60 1459
-13621090.74 4521850.01 61 1459
-13621108.55 4521826.127 62 1459
-13621145.29 4521848.605 63 1459
-13621268.85 4521924.468 64 1459
-13621314.49 4521952.566 65 1459
-13621350.12 4521975.044 66 1459
-13621361.25 4521980.664 67 1459
-13621527.11 4522230.737 68 1459
-13621650.68 4522534.204 69 1459
-13621657.36 4522551.064 70 1459
-13621669.6 4522584.783 71 1459
-13621701.89 4522666.272 72 1459
-13621747.53 4522774.456 73 1459
-13621779.81 4522834.871 74 1459
-13621874.43 4522973.967 75 1459
-13621918.96 4523023.143 76 1459
-13621974.62 4523082.154 77 1459
-13622061.45 4523169.267 78 1459
-13622093.73 4523200.178 79 1459
-13622189.47 4523295.722 80 1459
-13622418.78 4523447.47 81 1459
-13622535.67 4523512.104 82 1459
-13622576.86 4523534.586 83 1459
-13622658.12 4523579.549 84 1459
-13622813.97 4523665.261 85 1459
-13622930.85 4523734.112 86 1459
-13622959.8 4523750.973 87 1459
-13623000.98 4523772.05 88 1459
-13623087.81 4523732.707 89 1459
-13623543.11 4523691.958 90 1459
-13623727.9 4523852.143 91 1459
-13624050.73 4524143.011 92 1459
-13624093.03 4524178.14 93 1459
-13624146.46 4524220.296 94 1459
-13624217.71 4524276.504 95 1459
-13624419.19 4524425.456 96 1459
-13624507.14 4524501.338 97 1459
-13624610.66 4524589.867 98 1459
-13624654.08 4524695.261 99 1459
-13624720.87 4524984.747 100 1459
-13624716.42 4525063.444 101 1459
-13624759.83 4525203.975 102 1459
-13624779.87 4525244.729 103 1459
-13624789.89 4525253.161 104 1459
-13624801.02 4525262.999 105 1459
-13625050.38 4525286.889 106 1459
-13625097.13 4525286.889 107 1459
-13625221.81 4525333.265 108 1459
-13625276.35 4525480.827 109 1459
-13625344.26 4525705.687 110 1459
-13625372.09 4525806.875 111 1459
-13625396.58 4525886.984 112 1459
-13625428.86 4525999.417 113 1459
-13625460.03 4526118.88 114 1459
-13625501.22 4526277.696 115 1459
-13625620.33 4526733.077 116 1459
-13625638.14 4526851.142 117 1459
-13625658.18 4527261.569 118 1459
-13625632.58 4527309.359 119 1459
-13625594.73 4527381.045 120 1459
-13625545.75 4527471.005 121 1459
-13625483.41 4527548.315 122 1459
-13625465.6 4527556.749 123 1459
-13625381 4527587.673 124 1459
-13625276.35 4527753.54 125 1459
-13625310.86 4527828.04 126 1459
-13625374.32 4527974.232 127 1459
-13625453.35 4528147.134 128 1459
-13625467.82 4528179.465 129 1459
-13625495.65 4528238.506 130 1459
-13625526.82 4528307.387 131 1459
-13625551.31 4528360.805 132 1459
-13625581.37 4528424.064 133 1459
-13625604.75 4528488.729 134 1459
-13625511.24 4528571.669 135 1459
-13625334.24 4528578.698 136 1459
-13625249.64 4528490.134 137 1459
-13625333.13 4528494.352 138 1459
-13625595.84 4528462.019 139 1459
-13625845.2 4528248.346 140 1459
-13625894.18 4528194.928 141 1459
-13625917.56 4528172.436 142 1459
-13626021.08 4528419.846 143 1459
-13626141.31 4528819.088 144 1459
-13626150.21 4528871.103 145 1459
-13626169.14 4529059.484 146 1459
-13626174.7 4529143.835 147 1459
-13626182.5 4529243.651 148 1459
-13626224.8 4529853.814 149 1459
-13626229.25 4529914.27 150 1459
-13626231.48 4529945.201 151 1459
-13626235.93 4530009.876 152 1459
-13626251.51 4530201.089 153 1459
-13626254.85 4530255.923 154 1459
-13626238.16 4530919.577 155 1459
-13626171.36 4531109.401 156 1459
-13626136.85 4531190.956 157 1459
-13625982.12 4531507.34 158 1459
-13625896.4 4531609.991 159 1459
-13625815.14 4531685.925 160 1459
-13625517.92 4531929.199 161 1459
-13625385.45 4532040.292 162 1459
-13625393.24 4532058.573 163 1459
-13625396.58 4532067.01 164 1459
-13625404.37 4532086.698 165 1459
-13625418.84 4532116.229 166 1459
-13625471.16 4532159.823 167 1459
-13625694.92 4532224.511 168 1459
-13626085.65 4532332.794 169 1459
-13626730.19 4532546.551 170 1459
-13627040.77 4532653.431 171 1459
-13627114.24 4532677.339 172 1459
-13627162.11 4532695.621 173 1459
-13627199.96 4532708.278 174 1459
-13627255.62 4532727.967 175 1459
-13627529.46 4532829.223 176 1459
-13627830.02 4532826.411 177 1459
-13627882.34 4532805.315 178 1459
-13628110.55 4532718.122 179 1459
-13628155.08 4532698.434 180 1459
-13628196.27 4532678.745 181 1459
-13628237.45 4532653.431 182 1459
-13628313.15 4532570.459 183 1459
-13628418.9 4532493.112 184 1459
-13628494.6 4532495.924 185 1459
-13628568.07 4532517.019 186 1459
-13628669.37 4532547.958 187 1459
-13628703.88 4532557.802 188 1459
-13628838.58 4532623.899 189 1459
-13629199.25 4532919.23 190 1459
-13629382.93 4533044.397 191 1459
-13629477.55 4533111.903 192 1459
-13629563.27 4533168.159 193 1459
-13629583.31 4533182.223 194 1459
-13630536.2 4533836.217 195 1459
-13630576.28 4533861.534 196 1459
-13630602.99 4533879.818 197 1459
-13630654.2 4533916.387 198 1459
-13630771.09 4533996.558 199 1459
-13630823.41 4534033.127 200 1459
-13630834.54 4534040.16 201 1459
-13630918.03 4534095.014 202 1459
-13631080.55 4534208.942 203 1459
-13631234.17 4534313.026 204 1459
-13631254.21 4534325.685 205 1459
-13631284.27 4534346.784 206 1459
-13631339.93 4534384.761 207 1459
-13631392.25 4534419.925 208 1459
-13631435.66 4534448.056 209 1459
-13631475.74 4534476.187 210 1459
-13631506.91 4534498.692 211 1459
-13631549.21 4534528.23 212 1459
-13631582.6 4534552.142 213 1459
-13631664.98 4534608.406 214 1459
-13631786.32 4534698.428 215 1459
-13632040.13 4535014.918 216 1459
-13631995.6 4535075.403 217 1459
-13631936.6 4535159.803 218 1459
-13631880.94 4535242.796 219 1459
-13631824.17 4535325.79 220 1459
-13631767.39 4535410.192 221 1459
-13631709.51 4535491.78 222 1459
-13631698.38 4535501.627 223 1459
-13631650.51 4535573.37 224 1459
-13631636.04 4535593.064 225 1459
-13631595.96 4535656.366 226 1459
-13631758.49 4535768.905 227 1459
-13631703.94 4535849.09 228 1459
-13631868.7 4535970.072 229 1459
-13631782.98 4536072.767 230 1459
-13631690.58 4536302.075 231 1459
-13631652.74 4536317.55 232 1459
-13631314.32 4536570.781 233 1459
-13631240.85 4536683.33 234 1459
-13631080.55 4537077.26 235 1459
-13630585.18 4537236.243 236 1459
-13629991.85 4536954.859 237 1459
-13629404.08 4536567.967 238 1459
-13629377.36 4536556.712 239 1459
-13629109.09 4536621.428 240 1459
-13628952.12 4536911.245 241 1459
-13628673.83 4536832.459 242 1459
-13628366.58 4536580.629 243 1459
-13628257.49 4536570.781 244 1459
-13627974.74 4536880.293 245 1459
-13627912.4 4536970.335 246 1459
-13627848.95 4537002.693 247 1459
-13627927.99 4537091.329 248 1459
-13628155.08 4537461.356 249 1459
-13628158.42 4537500.752 250 1459
-13628160.64 4537631.602 251 1459
-13628251.92 4537910.191 252 1459
-13628253.04 4537987.578 253 1459
-13628230.77 4538088.885 254 1459
-13628188.47 4538208.486 255 1459
-13628158.42 4538297.132 256 1459
-13628108.32 4538436.434 257 1459
-13628056 4538412.514 258 1459
-13627986.98 4538388.593 259 1459
-13627912.4 4538361.858 260 1459
-13627861.19 4538344.973 261 1459
-13627833.36 4538335.123 262 1459
-13627766.57 4538526.489 263 1459
-13627743.19 4538560.26 264 1459
-13627663.04 4538533.525 265 1459
-13627600.71 4538640.466 266 1459
-13627359.14 4538605.288 267 1459
-13627329.09 4538693.938 268 1459
-13627290.12 4538810.731 269 1459
-13627267.86 4538874.053 270 1459
-13627209.97 4539034.471 271 1459
-13627159.88 4539185.041 272 1459
-13627054.13 4539148.453 273 1459
-13627021.84 4539238.515 274 1459
-13626770.26 4539155.489 275 1459
-13626529.81 4539072.465 276 1459
-13626496.42 4539169.561 277 1459
-13626464.13 4539265.252 278 1459
-13626429.62 4539360.943 279 1459
-13626195.85 4539277.917 280 1459
-13626162.46 4539373.608 281 1459
-13626127.95 4539467.893 282 1459
-13626096.78 4539563.586 283 1459
-13626066.72 4539659.28 284 1459
-13625923.12 4539602.989 285 1459
-13625897.52 4539712.756 286 1459
-13625845.2 4539729.643 287 1459
-13625738.33 4539767.64 288 1459
-13625628.12 4539805.637 289 1459
-13625683.78 4539971.698 290 1459
-13625591.39 4539999.845 291 1459
-13625621.45 4540147.614 292 1459
-13625630.35 4540177.168 293 1459
-13625688.24 4540346.05 294 1459
-13625709.39 4540415.011 295 1459
-13625733.88 4540498.046 296 1459
-13625687.12 4540485.38 297 1459
-13625662.63 4540479.75 298 1459
-13625635.92 4540469.898 299 1459
-13625683.78 4540634.563 300 1459
-13625716.07 4540759.823 301 1459
-13625801.78 4541052.57 302 1459
-13625808.46 4541076.496 303 1459
-13625889.73 4541286.21 304 1459
-13625914.22 4541336.88 305 1459
-13626071.18 4541709.873 306 1459
-13626080.08 4541729.579 307 1459
-13626055.59 4541746.469 308 1459
-13626043.35 4541754.915 309 1459
-13626023.31 4541770.398 310 1459
-13625991.03 4541798.549 311 1459
-13625894.18 4541871.742 312 1459
-13625904.2 4541974.495 313 1459
-13625804.01 4541982.941 314 1459
-13625792.88 4541984.348 315 1459
-13625747.24 4541991.386 316 1459
-13625708.27 4542023.761 317 1459
-13625680.44 4542044.874 318 1459
-13625612.54 4542098.363 319 1459
-13625547.97 4542137.776 320 1459
-13625532.39 4542146.222 321 1459
-13625493.43 4542170.151 322 1459
-13625347.6 4542260.238 323 1459
-13625247.41 4542322.174 324 1459
-13625143.88 4542365.81 325 1459
-13625117.17 4542368.626 326 1459
-13625089.34 4542408.039 327 1459
-13625057.06 4542451.676 328 1459
-13624994.72 4542537.543 329 1459
-13624917.91 4542644.526 330 1459
-13624902.32 4542665.641 331 1459
-13624894.53 4542676.902 332 1459
-13624878.94 4542698.017 333 1459
-13624740.91 4542886.648 334 1459
-13624533.85 4542738.84 335 1459
-13624469.29 4542828.932 336 1459
-13624409.18 4542913.395 337 1459
-13624342.38 4543004.896 338 1459
-13624282.27 4543093.583 339 1459
-13624219.93 4543180.863 340 1459
-13624159.82 4543266.736 341 1459
-13624143.12 4543255.474 342 1459
-13624124.2 4543245.619 343 1459
-13624111.95 4543290.667 344 1459
-13624091.92 4543356.832 345 1459
-13624061.86 4543456.784 346 1459
-13624064.09 4543542.66 347 1459
-13624070.76 4543621.496 348 1459
-13624076.33 4543684.848 349 1459
-13624080.78 4543735.529 350 1459
-13624083.01 4543760.87 351 1459
-13624087.46 4543811.552 352 1459
-13624088.58 4543836.893 353 1459
-13624090.8 4543862.234 354 1459
-13624103.05 4544029.768 355 1459
-13624000.63 4544039.623 356 1459
-13624002.86 4544101.569 357 1459
-13624006.2 4544212.791 358 1459
-13624017.33 4544336.686 359 1459
-13624039.6 4544567.584 360 1459
-13624039.6 4544578.847 361 1459
-13624052.95 4544759.064 362 1459
-13624068.54 4544933.653 363 1459
-13624085.24 4545123.732 364 1459
-13624096.37 4545292.694 365 1459
-13624123.09 4545655.973 366 1459
-13624136.44 4545836.208 367 1459
-13624148.69 4546015.039 368 1459
-13624153.14 4546084.037 369 1459
-13624160.93 4546193.873 370 1459
-13624089.69 4546267.097 371 1459
-13624025.12 4546365.669 372 1459
-13623941.63 4546565.632 373 1459
-13623909.35 4546747.291 374 1459
-13623970.58 4546803.621 375 1459
-13623980.6 4546848.684 376 1459
-13623987.28 4546935.995 377 1459
-13623991.73 4546981.06 378 1459
-13623995.07 4547021.899 379 1459
-13624001.75 4547106.395 380 1459
-13624003.97 4547116.253 381 1459
-13624012.88 4547158.502 382 1459
-13624047.39 4547292.289 383 1459
-13624095.26 4547459.879 384 1459
-13624100.82 4547516.212 385 1459
-13624116.41 4547647.187 386 1459
-13624123.09 4547707.747 387 1459
-13624129.76 4547759.856 388 1459
-13624137.56 4547824.641 389 1459
-13624138.67 4547830.274 390 1459
-13624143.12 4547868.3 391 1459
-13624188.76 4547885.201 392 1459
-13624394.7 4547871.117 393 1459
-13624394.7 4547885.201 394 1459
-13624401.38 4547913.369 395 1459
-13624433.67 4547961.254 396 1459
-13624447.02 4547978.155 397 1459
-13624455.93 4547988.013 398 1459
-13624470.4 4548004.914 399 1459
-13624487.1 4548020.406 400 1459
-13624516.04 4548045.758 401 1459
-13624538.31 4548066.884 402 1459
-13624556.12 4548085.193 403 1459
-13624582.83 4548111.953 404 1459
-13624464.84 4548234.485 405 1459
-13624400.27 4548295.048 406 1459
-13624353.52 4548340.118 407 1459
-13624332.37 4548359.836 408 1459
-13624313.44 4548378.146 409 1459
-13624257.78 4548438.709 410 1459
-13624245.54 4548452.794 411 1459
-13624193.22 4548568.288 412 1459
-13624185.42 4548647.163 413 1459
-13624182.08 4548717.587 414 1459
-13624182.08 4548751.391 415 1459
-13624180.97 4548768.293 416 1459
-13624176.52 4548838.719 417 1459
-13624172.07 4548865.48 418 1459
-13624159.82 4549065.491 419 1459
-13624157.59 4549103.522 420 1459
-13624147.58 4549252.829 421 1459
-13624137.56 4549389.461 422 1459
-13624136.44 4549472.567 423 1459
-13624138.67 4549507.782 424 1459
-13624153.14 4549610.611 425 1459
-13624060.75 4549716.257 426 1459
-13623379.47 4550531.885 427 1459
-13623210.27 4550736.154 428 1459
-13621903.37 4552297.185 429 1459
-13621877.77 4552325.365 430 1459
-13621853.28 4552353.544 431 1459
-13621758.66 4552464.855 432 1459
-13621744.19 4552481.763 433 1459
-13621699.66 4552531.078 434 1459
-13621635.09 4552612.801 435 1459
-13621619.51 4552632.527 436 1459
-13621578.32 4552681.843 437 1459
-13621548.27 4552707.206 438 1459
-13621531.57 4552718.478 439 1459
-13621467 4552762.158 440 1459
-13621434.72 4552781.885 441 1459
-13621399.1 4552804.43 442 1459
-13621350.12 4552845.292 443 1459
-13621287.78 4552918.563 444 1459
-13621263.29 4552949.562 445 1459
-13621231 4552991.835 446 1459
-13621186.48 4553049.607 447 1459
-13621164.21 4553077.788 448 1459
-13621138.61 4553104.561 449 1459
-13621107.44 4553132.743 450 1459
-13620997.23 4553186.288 451 1459
-13620924.88 4553214.47 452 1459
-13620665.5 4553320.154 453 1459
-13620462.9 4553403.292 454 1459
-13619813.91 4553668.211 455 1459
-13619181.61 4553921.864 456 1459
-13617734.46 4554207.935 457 1459
-13617528.52 4554224.846 458 1459
-13617132.22 4554268.532 459 1459
-13616787.13 4554364.361 460 1459
-13616556.7 4554423.55 461 1459
-13616433.13 4554450.326 462 1459
-13616292.87 4554485.558 463 1459
-13616135.91 4554522.199 464 1459
-13615939.99 4554563.069 465 1459
-13615864.29 4554581.389 466 1459
-13615813.09 4554592.664 467 1459
-13615644.99 4554627.896 468 1459
-13615368.92 4554675.812 469 1459
-13615056.11 4554729.366 470 1459
-13614930.32 4554756.143 471 1459
-13614787.83 4554791.375 472 1459
-13614689.87 4554816.743 473 1459
-13614512.87 4554871.707 474 1459
-13614441.63 4554891.437 475 1459
-13614232.35 4554949.22 476 1459
-13614173.35 4554966.132 477 1459
-13613942.92 4555032.371 478 1459
-13613927.33 4555038.009 479 1459
-13613748.11 4555156.395 480 1459
-13613675.75 4555302.97 481 1459
-13613636.79 4555531.293 482 1459
-13613631.22 4555620.086 483 1459
-13613634.56 4555697.605 484 1459
-13613696.9 4555911.842 485 1459
-13613729.18 4555989.363 486 1459
-13613793.75 4556130.312 487 1459
-13613801.54 4556174.006 488 1459
-13613827.15 4556248.71 489 1459
-13613863.88 4556337.51 490 1459
-13613923.99 4556492.559 491 1459
-13613940.69 4556557.398 492 1459
-13613945.14 4556592.637 493 1459
-13613898.39 4556603.914 494 1459
-13613858.31 4556613.781 495 1459
-13613826.03 4556620.828 496 1459
-13613780.39 4556632.105 497 1459
-13613682.43 4556657.477 498 1459
-13613621.2 4556670.163 499 1459
-13613361.83 4556730.775 500 1459
-13613260.53 4556756.147 501 1459
-13613168.13 4556778.701 502 1459
-13613157 4556781.52 503 1459
-13613090.21 4556798.435 504 1459
-13613017.85 4556815.35 505 1459
-13612973.32 4556826.627 506 1459
-13612876.48 4556850.59 507 1459
-13612777.4 4556877.372 508 1459
-13612716.18 4556884.42 509 1459
-13612678.33 4556891.468 510 1459
-13612581.48 4556915.431 511 1459
-13612491.31 4556964.768 512 1459
-13612477.95 4556970.406 513 1459
-13612247.52 4557088.814 514 1459
-13612018.2 4557215.681 515 1459
-13611815.6 4557319.996 516 1459
-13611747.7 4557356.647 517 1459
-13611684.25 4557391.888 518 1459
-13611615.23 4557439.817 519 1459
-13611598.53 4557452.504 520 1459
-13611546.21 4557489.156 521 1459
-13611447.13 4557585.015 522 1459
-13611404.83 4557628.716 523 1459
-13611358.08 4557690.743 524 1459
-13611331.36 4557725.985 525 1459
-13611292.4 4557773.916 526 1459
-13611274.59 4557810.568 527 1459
-13611226.72 4557850.041 528 1459
-13611179.97 4557785.193 529 1459
-13611168.84 4557762.638 530 1459
-13611156.59 4557694.972 531 1459
-13611132.1 4557702.02 532 1459
-13611144.35 4557764.048 533 1459
-13611164.38 4557796.471 534 1459
-13611147.69 4557828.895 535 1459
-13611149.91 4557905.02 536 1459
-13611149.91 4557945.903 537 1459
-13611132.1 4557961.41 538 1459
-13611123.19 4557962.82 539 1459
-13610962.89 4557989.605 540 1459
-13610913.91 4557996.654 541 1459
-13610916.14 4558020.62 542 1459
-13610932.84 4558122.122 543 1459
-13611030.8 4558106.615 544 1459
-13611148.8 4558086.878 545 1459
