x y k tid
-13628397.75 4550051.516 0 1539
-13628214.08 4550079.69 1 1539
-13628040.42 4550107.863 2 1539
-13628022.61 4550110.681 3 1539
-13627848.95 4550138.854 4 1539
-13627666.38 4550167.028 5 1539
-13627679.74 4550252.959 6 1539
-13627685.31 4550289.585 7 1539
-13627665.27 4550293.811 8 1539
-13627502.74 4550321.985 9 1539
-13627317.95 4550351.568 10 1539
-13627251.16 4550362.838 11 1539
-13627201.07 4550371.29 12 1539
-13627137.62 4550381.151 13 1539
-13626953.94 4550412.143 14 1539
-13626874.9 4550424.822 15 1539
-13626771.38 4550441.726 16 1539
-13626678.98 4550457.222 17 1539
-13626625.55 4550465.675 18 1539
-13626584.36 4550471.31 19 1539
-13626525.36 4550479.762 20 1539
-13626497.53 4550485.397 21 1539
-13626399.57 4550500.893 22 1539
-13626420.72 4550623.454 23 1539
-13626375.08 4550631.906 24 1539
-13626347.25 4550636.133 25 1539
-13626335 4550637.541 26 1539
-13626294.93 4550643.176 27 1539
-13626243.72 4550651.629 28 1539
-13626211.44 4550655.855 29 1539
-13626196.97 4550658.673 30 1539
-13626160.23 4550664.308 31 1539
-13626077.86 4550678.395 32 1539
-13625993.25 4550689.665 33 1539
-13625893.06 4550707.979 34 1539
-13625826.27 4550717.841 35 1539
-13625772.84 4550726.293 36 1539
-13625712.73 4550736.154 37 1539
-13625582.48 4550757.286 38 1539
-13625513.47 4550768.556 39 1539
-13625447.79 4550779.826 40 1539
-13625416.62 4550784.053 41 1539
-13625395.47 4550786.87 42 1539
-13625370.98 4550791.097 43 1539
-13625319.77 4550799.549 44 1539
-13625270.79 4550806.593 45 1539
-13625191.75 4550819.272 46 1539
-13625180.62 4550762.921 47 1539
-13625176.17 4550740.381 48 1539
-13625169.49 4550699.527 49 1539
-13625145 4550706.57 50 1539
-13625118.28 4550715.023 51 1539
-13625094.9 4550720.658 52 1539
-13625058.17 4550729.111 53 1539
-13625028.11 4550731.928 54 1539
-13625011.41 4550737.563 55 1539
-13624999.17 4550719.249 56 1539
-13624980.25 4550692.483 57 1539
-13624973.57 4550682.621 58 1539
-13624945.74 4550640.359 59 1539
-13624931.26 4550617.819 60 1539
-13624872.27 4550505.119 61 1539
-13624865.59 4550493.849 62 1539
-13624768.74 4550412.143 63 1539
-13624755.38 4550399.465 64 1539
-13624698.61 4550343.116 65 1539
-13624685.25 4550324.803 66 1539
-13624670.78 4550309.307 67 1539
-13624568.36 4550196.611 68 1539
-13624543.87 4550165.62 69 1539
-13624526.06 4550130.402 70 1539
-13624492.67 4550021.934 71 1539
-13624410.29 4549909.241 72 1539
-13624394.7 4549893.746 73 1539
-13624344.61 4549843.035 74 1539
-13624305.65 4549803.593 75 1539
-13624256.67 4549755.699 76 1539
-13624237.74 4549731.752 77 1539
-13624190.99 4549628.923 78 1539
-13624180.97 4549586.664 79 1539
-13624153.14 4549610.611 80 1539
-13624060.75 4549716.257 81 1539
-13623379.47 4550531.885 82 1539
-13623210.27 4550736.154 83 1539
-13621903.37 4552297.185 84 1539
-13621877.77 4552325.365 85 1539
-13621853.28 4552353.544 86 1539
-13621758.66 4552464.855 87 1539
-13621744.19 4552481.763 88 1539
-13621699.66 4552531.078 89 1539
-13621635.09 4552612.801 90 1539
-13621619.51 4552632.527 91 1539
-13621578.32 4552681.843 92 1539
-13621548.27 4552707.206 93 1539
-13621531.57 4552718.478 94 1539
-13621467 4552762.158 95 1539
-13621434.72 4552781.885 96 1539
-13621399.1 4552804.43 97 1539
-13621350.12 4552845.292 98 1539
-13621287.78 4552918.563 99 1539
-13621263.29 4552949.562 100 1539
-13621231 4552991.835 101 1539
-13621186.48 4553049.607 102 1539
-13621164.21 4553077.788 103 1539
-13621138.61 4553104.561 104 1539
-13621107.44 4553132.743 105 1539
-13620997.23 4553186.288 106 1539
-13620924.88 4553214.47 107 1539
-13620665.5 4553320.154 108 1539
-13620462.9 4553403.292 109 1539
-13619813.91 4553668.211 110 1539
-13619181.61 4553921.864 111 1539
-13617734.46 4554207.935 112 1539
-13617528.52 4554224.846 113 1539
-13617132.22 4554268.532 114 1539
-13616787.13 4554364.361 115 1539
-13616556.7 4554423.55 116 1539
-13616433.13 4554450.326 117 1539
-13616292.87 4554485.558 118 1539
-13616135.91 4554522.199 119 1539
-13615939.99 4554563.069 120 1539
-13615864.29 4554581.389 121 1539
-13615813.09 4554592.664 122 1539
-13615644.99 4554627.896 123 1539
-13615368.92 4554675.812 124 1539
-13615056.11 4554729.366 125 1539
-13614930.32 4554756.143 126 1539
-13614787.83 4554791.375 127 1539
-13614689.87 4554816.743 128 1539
-13614512.87 4554871.707 129 1539
-13614441.63 4554891.437 130 1539
-13614232.35 4554949.22 131 1539
-13614173.35 4554966.132 132 1539
-13613942.92 4555032.371 133 1539
-13613927.33 4555038.009 134 1539
-13613748.11 4555156.395 135 1539
-13613675.75 4555302.97 136 1539
-13613667.96 4555639.818 137 1539
-13613838.28 4556172.597 138 1539
-13613877.24 4556265.624 139 1539
-13613952.94 4556474.235 140 1539
-13613988.56 4556649.02 141 1539
-13614001.92 4556742.052 142 1539
-13614034.2 4556974.635 143 1539
-13614075.39 4557228.368 144 1539
-13614085.41 4557287.574 145 1539
-13614093.2 4557334.092 146 1539
-13614114.35 4557453.914 147 1539
-13614121.03 4557491.975 148 1539
-13614185.59 4557835.944 149 1539
-13614193.39 4557876.826 150 1539
-13614208.97 4557969.869 151 1539
-13614234.57 4558099.566 152 1539
-13614242.37 4558137.63 153 1539
-13614298.03 4558457.653 154 1539
-13614339.21 4558647.979 155 1539
-13614380.4 4558838.309 156 1539
-13614680.97 4560227.118 157 1539
-13614693.21 4560276.47 158 1539
-13614701 4560310.312 159 1539
-13614772.25 4560599.379 160 1539
-13614777.81 4560621.941 161 1539
-13614677.63 4560648.733 162 1539
-13614607.49 4560667.064 163 1539
-13614503.97 4560692.446 164 1539
-13614475.02 4560699.497 165 1539
-13614465.01 4560702.317 166 1539
-13614354.8 4560730.52 167 1539
-13614147.75 4560784.104 168 1539
-13614118.8 4560791.155 169 1539
-13613996.35 4560817.948 170 1539
-13613873.9 4560848.97 171 1539
-13613749.22 4560879.994 172 1539
-13613627.88 4560912.427 173 1539
-13613503.21 4560940.63 174 1539
-13613489.85 4560943.45 175 1539
-13613208.21 4560991.395 176 1539
-13613040.12 4561018.188 177 1539
-13612980 4561028.059 178 1539
-13612865.34 4561046.392 179 1539
-13612646.05 4561083.056 180 1539
-13612619.33 4561087.286 181 1539
-13612512.46 4561104.208 182 1539
-13612372.2 4561126.771 183 1539
-13612357.73 4561129.592 184 1539
-13612119.5 4561167.666 185 1539
-13611984.81 4561188.819 186 1539
-13611931.37 4561197.28 187 1539
-13611870.15 4561207.152 188 1539
-13611665.32 4561240.996 189 1539
-13611620.79 4561248.047 190 1539
-13611368.1 4561291.763 191 1539
-13611244.53 4561311.506 192 1539
-13611165.5 4561325.608 193 1539
-13611117.63 4561332.659 194 1539
-13611110.95 4561270.61 195 1539
-13611104.27 4561198.69 196 1539
-13611018.55 4561212.792 197 1539
-13610842.67 4561239.586 198 1539
-13610814.84 4561122.541 199 1539
-13610791.46 4561126.771 200 1539
-13610685.71 4561142.283 201 1539
-13610582.18 4561160.616 202 1539
-13610576.62 4561095.747 203 1539
-13610574.39 4561052.032 204 1539
-13610576.62 4561032.29 205 1539
-13610581.07 4561009.727 206 1539
-13610599.99 4560963.192 207 1539
-13610617.8 4560895.505 208 1539
-13610599.99 4560840.51 209 1539
-13610581.07 4560772.823 210 1539
-13610564.37 4560644.503 211 1539
-13610447.49 4560662.834 212 1539
-13610315.02 4560683.986 213 1539
-13610061.21 4560730.52 214 1539
-13610040.06 4560600.789 215 1539
-13609959.91 4560614.89 216 1539
-13609905.36 4560621.941 217 1539
-13609863.06 4560628.991 218 1539
-13609801.83 4560638.862 219 1539
-13609790.7 4560640.272 220 1539
