x y k tid
-13632673.54 4546938.812 0 1003
-13632606.74 4546958.528 1 1003
-13632524.37 4546983.876 2 1003
-13632517.69 4546985.284 3 1003
-13632508.78 4546988.101 4 1003
-13632469.82 4546999.367 5 1003
-13632341.8 4547034.574 6 1003
-13632278.35 4547034.574 7 1003
-13632240.5 4547035.982 8 1003
-13632218.24 4547038.798 9 1003
-13632163.69 4547054.289 10 1003
-13632143.65 4547069.78 11 1003
-13632131.41 4547079.638 12 1003
-13632115.82 4547104.987 13 1003
-13632092.45 4547168.36 14 1003
-13631982.24 4547148.644 15 1003
-13631963.32 4547145.827 16 1003
-13631914.34 4547135.969 17 1003
-13631843.09 4547126.111 18 1003
-13631836.41 4547124.703 19 1003
-13631784.09 4547116.253 20 1003
-13631734 4547109.212 21 1003
-13631708.4 4547107.804 22 1003
-13631679.45 4547106.395 23 1003
-13631664.98 4547106.395 24 1003
-13631594.85 4547135.969 25 1003
-13631543.64 4547159.91 26 1003
-13631512.47 4547175.401 27 1003
-13631499.11 4547182.443 28 1003
-13631457.93 4547186.667 29 1003
-13631318.78 4547158.502 30 1003
-13631313.21 4547159.91 31 1003
-13631152.91 4547188.076 32 1003
-13631140.67 4547189.484 33 1003
-13631129.53 4547190.892 34 1003
-13630958.1 4547220.466 35 1003
-13630945.86 4547221.875 36 1003
-13630782.22 4547248.632 37 1003
-13630773.31 4547250.041 38 1003
-13630764.41 4547251.449 39 1003
-13630598.54 4547278.206 40 1003
-13630409.3 4547307.781 41 1003
-13630401.5 4547309.189 42 1003
-13630221.17 4547337.355 43 1003
-13630213.37 4547338.764 44 1003
-13630133.22 4547351.438 45 1003
-13630043.06 4547365.521 46 1003
-13629856.04 4547395.096 47 1003
-13629672.36 4547427.487 48 1003
-13629487.57 4547454.245 49 1003
-13629301.67 4547483.82 50 1003
-13629119.1 4547513.395 51 1003
-13629016.69 4547530.295 52 1003
-13628935.43 4547544.378 53 1003
-13628748.41 4547572.545 54 1003
-13628571.41 4547604.937 55 1003
-13628386.62 4547633.104 56 1003
-13628365.47 4547635.921 57 1003
-13628287.55 4547648.596 58 1003
-13628210.74 4547661.271 59 1003
-13628198.49 4547662.679 60 1003
-13628190.7 4547664.088 61 1003
-13628177.34 4547666.904 62 1003
-13628166.21 4547668.313 63 1003
-13628079.38 4547683.804 64 1003
-13628020.38 4547692.255 65 1003
-13627911.29 4547707.747 66 1003
-13627837.82 4547719.013 67 1003
-13627848.95 4547786.615 68 1003
-13627665.27 4547817.599 69 1003
-13627676.4 4547883.793 70 1003
-13627559.52 4547900.693 71 1003
-13627457.1 4547904.918 72 1003
-13627366.93 4547997.872 73 1003
-13627323.52 4548041.532 74 1003
-13627281.22 4548083.785 75 1003
-13627217.77 4548145.755 76 1003
-13627197.73 4548165.473 77 1003
-13627175.47 4548186.599 78 1003
-13627148.75 4548211.951 79 1003
-13627095.32 4548264.062 80 1003
-13627079.73 4548279.555 81 1003
-13627064.15 4548295.048 82 1003
-13627051.9 4548307.724 83 1003
-13627028.52 4548331.667 84 1003
-13627016.28 4548344.343 85 1003
-13626999.58 4548359.836 86 1003
-13626980.66 4548378.146 87 1003
-13626959.51 4548400.681 88 1003
-13626951.71 4548407.723 89 1003
-13626898.28 4548461.245 90 1003
-13626839.28 4548521.809 91 1003
-13626801.43 4548559.837 92 1003
-13626732.41 4548628.853 93 1003
-13626714.6 4548647.163 94 1003
-13626652.26 4548709.136 95 1003
-13626607.74 4548754.208 96 1003
-13626589.92 4548772.519 97 1003
-13626516.45 4548848.578 98 1003
-13626479.72 4548882.382 99 1003
-13626451.89 4548909.144 100 1003
-13626426.29 4548933.089 101 1003
-13626402.91 4548957.034 102 1003
-13626349.47 4549009.15 103 1003
-13626323.87 4549034.503 104 1003
-13626199.19 4549157.047 105 1003
-13626161.34 4549196.486 106 1003
-13626140.19 4549217.615 107 1003
-13626068.95 4549292.269 108 1003
-13626015.52 4549347.203 109 1003
-13625939.82 4549423.267 110 1003
-13625890.84 4549472.567 111 1003
-13625837.41 4549523.277 112 1003
-13625826.27 4549534.546 113 1003
-13625807.35 4549552.858 114 1003
-13625780.63 4549578.213 115 1003
-13625767.27 4549590.89 116 1003
-13625727.2 4549628.923 117 1003
-13625661.52 4549695.128 118 1003
-13625631.46 4549726.118 119 1003
-13625604.75 4549755.699 120 1003
-13625561.33 4549803.593 121 1003
-13625521.26 4549844.443 122 1003
-13625498.99 4549865.573 123 1003
-13625473.39 4549889.52 124 1003
-13625451.13 4549910.65 125 1003
-13625409.94 4549950.092 126 1003
-13625376.54 4549983.9 127 1003
-13625368.75 4549992.352 128 1003
-13625320.88 4550040.247 129 1003
-13625268.56 4550092.368 130 1003
-13625209.56 4550152.941 131 1003
-13625173.94 4550186.75 132 1003
-13625151.68 4550207.88 133 1003
-13625120.51 4550238.872 134 1003
-13625099.36 4550260.002 135 1003
-13625030.34 4550330.438 136 1003
-13624943.51 4550417.778 137 1003
-13624925.7 4550436.091 138 1003
-13624903.43 4550414.961 139 1003
-13624818.83 4550334.664 140 1003
-13624747.59 4550260.002 141 1003
-13624685.25 4550324.803 142 1003
-13624670.78 4550309.307 143 1003
-13624568.36 4550196.611 144 1003
-13624543.87 4550165.62 145 1003
-13624526.06 4550130.402 146 1003
-13624492.67 4550021.934 147 1003
-13624410.29 4549909.241 148 1003
-13624394.7 4549893.746 149 1003
-13624344.61 4549843.035 150 1003
-13624305.65 4549803.593 151 1003
-13624256.67 4549755.699 152 1003
-13624237.74 4549731.752 153 1003
-13624190.99 4549628.923 154 1003
-13624180.97 4549586.664 155 1003
-13624153.14 4549610.611 156 1003
-13624060.75 4549716.257 157 1003
-13623379.47 4550531.885 158 1003
-13623210.27 4550736.154 159 1003
-13621903.37 4552297.185 160 1003
-13621877.77 4552325.365 161 1003
-13621853.28 4552353.544 162 1003
-13621758.66 4552464.855 163 1003
-13621744.19 4552481.763 164 1003
-13621699.66 4552531.078 165 1003
-13621635.09 4552612.801 166 1003
-13621619.51 4552632.527 167 1003
-13621578.32 4552681.843 168 1003
-13621548.27 4552707.206 169 1003
-13621531.57 4552718.478 170 1003
-13621467 4552762.158 171 1003
-13621434.72 4552781.885 172 1003
-13621399.1 4552804.43 173 1003
-13621350.12 4552845.292 174 1003
-13621287.78 4552918.563 175 1003
-13621263.29 4552949.562 176 1003
-13621231 4552991.835 177 1003
-13621186.48 4553049.607 178 1003
-13621164.21 4553077.788 179 1003
-13621138.61 4553104.561 180 1003
-13621107.44 4553132.743 181 1003
-13620997.23 4553186.288 182 1003
-13620924.88 4553214.47 183 1003
-13620665.5 4553320.154 184 1003
-13620462.9 4553403.292 185 1003
-13619813.91 4553668.211 186 1003
-13619181.61 4553921.864 187 1003
-13617734.46 4554207.935 188 1003
-13617528.52 4554224.846 189 1003
-13617132.22 4554268.532 190 1003
-13616787.13 4554364.361 191 1003
-13616556.7 4554423.55 192 1003
-13616433.13 4554450.326 193 1003
-13616292.87 4554485.558 194 1003
-13616135.91 4554522.199 195 1003
-13615939.99 4554563.069 196 1003
-13615864.29 4554581.389 197 1003
-13615813.09 4554592.664 198 1003
-13615644.99 4554627.896 199 1003
-13615368.92 4554675.812 200 1003
-13615056.11 4554729.366 201 1003
-13614930.32 4554756.143 202 1003
-13614787.83 4554791.375 203 1003
-13614689.87 4554816.743 204 1003
-13614512.87 4554871.707 205 1003
-13614441.63 4554891.437 206 1003
-13614232.35 4554949.22 207 1003
-13614173.35 4554966.132 208 1003
-13613942.92 4555032.371 209 1003
-13613927.33 4555038.009 210 1003
-13613748.11 4555156.395 211 1003
-13613675.75 4555302.97 212 1003
-13613636.79 4555531.293 213 1003
-13613631.22 4555620.086 214 1003
-13613634.56 4555697.605 215 1003
-13613696.9 4555911.842 216 1003
-13613729.18 4555989.363 217 1003
-13613793.75 4556130.312 218 1003
-13613801.54 4556174.006 219 1003
-13613827.15 4556248.71 220 1003
-13613863.88 4556337.51 221 1003
-13613923.99 4556492.559 222 1003
-13613940.69 4556557.398 223 1003
-13613945.14 4556592.637 224 1003
-13613898.39 4556603.914 225 1003
-13613858.31 4556613.781 226 1003
-13613826.03 4556620.828 227 1003
-13613780.39 4556632.105 228 1003
-13613682.43 4556657.477 229 1003
-13613621.2 4556670.163 230 1003
-13613361.83 4556730.775 231 1003
-13613260.53 4556756.147 232 1003
-13613168.13 4556778.701 233 1003
-13613129.17 4556620.828 234 1003
-13612944.38 4556718.089 235 1003
-13612893.17 4556524.979 236 1003
-13612794.1 4556541.893 237 1003
-13612699.48 4556568.675 238 1003
-13612603.74 4556592.637 239 1003
-13612506.9 4556619.419 240 1003
-13612408.94 4556641.972 241 1003
-13612400.03 4556609.552 242 1003
-13612383.33 4556543.303 243 1003
-13612358.84 4556450.273 244 1003
-13612355.5 4556434.768 245 1003
-13612346.6 4556396.71 246 1003
-13612329.9 4556330.462 247 1003
-13612304.29 4556233.206 248 1003
-13612266.45 4556082.389 249 1003
-13612254.2 4556033.057 250 1003
-13612228.6 4555932.984 251 1003
-13612209.67 4555859.692 252 1003
-13612196.31 4555862.511 253 1003
-13612181.84 4555866.739 254 1003
-13612057.17 4555899.157 255 1003
-13611935.83 4555930.165 256 1003
-13611851.22 4555948.488 257 1003
-13611796.68 4555948.488 258 1003
-13611685.36 4555923.118 259 1003
-13611665.32 4555920.299 260 1003
-13611621.91 4555910.432 261 1003
-13611402.61 4555869.558 262 1003
-13611078.67 4555801.904 263 1003
-13611097.59 4555706.062 264 1003
-13611099.82 4555693.377 265 1003
