x y k tid
-13638146 4561195.87 0 1367
-13638068.08 4561105.619 1 1367
-13637903.32 4561035.11 2 1367
-13637825.4 4561288.943 3 1367
-13637678.46 4561286.122 4 1367
-13637587.18 4561312.916 5 1367
-13637576.05 4561315.736 6 1367
-13637495.9 4561305.865 7 1367
-13637451.37 4561298.814 8 1367
-13637416.86 4561308.685 9 1367
-13637400.16 4561315.736 10 1367
-13637289.95 4561413.041 11 1367
-13637266.58 4561439.835 12 1367
-13637230.96 4561415.861 13 1367
-13637050.62 4561167.666 14 1367
-13636927.05 4560878.583 15 1367
-13636917.03 4560860.252 16 1367
-13636740.04 4560633.222 17 1367
-13636606.45 4560472.471 18 1367
-13636549.68 4560404.787 19 1367
-13636502.93 4560348.384 20 1367
-13636379.36 4560205.968 21 1367
-13636150.04 4560025.483 22 1367
-13636052.08 4559959.212 23 1367
-13636151.16 4559813.981 24 1367
-13636055.42 4559753.351 25 1367
-13636091.04 4559692.722 26 1367
-13635714.78 4559610.944 27 1367
-13635696.97 4559541.855 28 1367
-13635889.56 4559337.413 29 1367
-13635751.52 4559341.643 30 1367
-13635814.97 4559293.705 31 1367
-13635655.78 4559125.925 32 1367
-13635761.54 4558952.509 33 1367
-13635857.27 4558873.556 34 1367
-13635758.2 4558684.635 35 1367
-13635548.92 4558480.21 36 1367
-13635528.88 4558446.374 37 1367
-13635485.47 4558378.703 38 1367
-13635581.2 4558440.735 39 1367
-13635502.16 4558246.183 40 1367
-13635488.81 4558172.874 41 1367
-13635440.94 4558061.503 42 1367
-13635148.17 4557678.055 43 1367
-13635123.68 4557563.869 44 1367
-13635071.36 4557297.441 45 1367
-13635080.26 4557077.537 46 1367
-13635105.87 4557022.562 47 1367
-13634940 4556226.158 48 1367
-13634906.6 4556150.045 49 1367
-13634805.3 4555992.182 50 1367
-13634655.02 4555866.739 51 1367
-13634602.7 4555832.912 52 1367
-13634543.7 4555792.038 53 1367
-13634508.08 4555761.03 54 1367
-13634440.18 4555666.597 55 1367
-13634393.42 4555483.373 56 1367
-13634387.86 4555436.862 57 1367
-13634331.08 4554816.743 58 1367
-13634141.84 4552762.158 59 1367
-13634120.69 4552545.168 60 1367
-13634038.31 4552359.18 61 1367
-13633971.52 4552270.415 62 1367
-13633929.22 4552218.283 63 1367
-13633918.09 4552205.602 64 1367
-13633904.73 4552191.512 65 1367
-13633811.22 4552095.703 66 1367
-13633747.77 4552018.211 67 1367
-13633728.84 4551994.259 68 1367
-13633697.67 4551957.627 69 1367
-13633643.13 4551894.225 70 1367
-13633587.47 4551833.642 71 1367
-13633524.02 4551780.103 72 1367
-13633473.92 4551744.88 73 1367
-13633373.73 4551685.707 74 1367
-13633275.77 4551637.804 75 1367
-13633230.13 4551620.898 76 1367
-13633028.64 4551556.089 77 1367
-13632922.89 4551529.32 78 1367
-13632721.4 4551488.463 79 1367
-13632615.65 4551467.33 80 1367
-13632361.84 4551419.429 81 1367
-13632204.88 4551443.379 82 1367
-13632037.9 4551529.32 83 1367
-13631805.24 4551673.027 84 1367
-13631727.32 4551689.933 85 1367
-13631563.68 4551719.52 86 1367
-13631554.77 4551671.618 87 1367
-13631557 4551656.12 88 1367
-13631569.25 4551577.222 89 1367
-13631572.59 4551556.089 90 1367
-13631580.38 4551515.232 91 1367
-13631583.72 4551492.69 92 1367
-13631587.06 4551475.783 93 1367
-13631591.51 4551451.833 94 1367
-13631594.85 4551430.7 95 1367
-13631609.32 4551351.804 96 1367
-13631577.04 4551333.489 97 1367
-13631749.58 4551046.088 98 1367
-13631785.21 4550982.692 99 1367
-13631895.41 4550796.732 100 1367
-13631962.2 4550831.951 101 1367
-13631986.69 4550847.448 102 1367
-13632049.03 4550885.485 103 1367
-13632075.75 4550902.39 104 1367
-13632102.47 4550919.296 105 1367
-13632124.73 4550931.975 106 1367
-13632146.99 4550855.9 107 1367
-13632157.01 4550682.621 108 1367
-13632180.39 4550660.081 109 1367
-13632189.3 4550650.22 110 1367
-13632224.92 4550610.775 111 1367
-13632315.09 4550510.754 112 1367
-13632319.54 4550202.246 113 1367
-13632055.71 4550072.646 114 1367
-13632054.6 4550068.42 115 1367
-13632056.83 4549930.371 116 1367
-13632052.37 4549905.015 117 1367
-13632047.92 4549889.52 118 1367
-13632039.01 4549859.938 119 1367
-13632037.9 4549812.044 120 1367
-13632129.18 4549758.516 121 1367
-13632126.96 4549731.752 122 1367
-13632124.73 4549704.988 123 1367
-13632116.94 4549571.17 124 1367
-13632113.6 4549513.417 125 1367
-13632110.26 4549451.438 126 1367
-13632105.81 4549368.332 127 1367
-13632103.58 4549326.074 128 1367
-13632100.24 4549252.829 129 1367
-13632096.9 4549192.261 130 1367
-13632091.33 4549106.339 131 1367
-13632084.66 4548988.022 132 1367
-13632081.32 4548930.272 133 1367
-13632075.75 4548842.944 134 1367
-13632072.41 4548785.195 135 1367
-13632064.62 4548654.205 136 1367
-13632060.16 4548580.964 137 1367
-13632059.05 4548562.654 138 1367
-13632055.71 4548488.006 139 1367
-13632049.03 4548357.019 140 1367
-13632045.69 4548302.09 141 1367
-13632041.24 4548231.668 142 1367
-13632039.01 4548196.458 143 1367
-13632036.79 4548162.656 144 1367
-13632033.45 4548114.77 145 1367
-13632031.22 4548076.743 146 1367
-13632030.11 4548045.758 147 1367
-13632027.88 4548006.322 148 1367
-13632024.54 4547935.903 149 1367
-13632020.09 4547854.217 150 1367
-13632014.52 4547776.756 151 1367
-13632011.18 4547723.238 152 1367
-13632007.84 4547678.171 153 1367
-13632005.62 4547645.779 154 1367
-13632001.17 4547589.445 155 1367
-13632072.41 4547441.57 156 1367
-13632303.95 4547358.48 157 1367
-13632315.09 4547334.539 158 1367
-13632401.92 4547265.532 159 1367
-13632409.71 4547248.632 160 1367
-13632413.05 4547234.549 161 1367
-13632221.58 4547192.301 162 1367
-13632191.52 4547186.667 163 1367
-13632181.5 4547185.259 164 1367
-13632092.45 4547168.36 165 1367
-13632115.82 4547104.987 166 1367
-13632131.41 4547079.638 167 1367
-13632143.65 4547069.78 168 1367
-13632163.69 4547054.289 169 1367
-13632218.24 4547038.798 170 1367
-13632221.58 4546997.959 171 1367
-13632222.69 4546979.651 172 1367
-13632220.46 4546941.628 173 1367
-13632205.99 4546909.239 174 1367
-13632135.86 4546852.909 175 1367
-13632128.07 4546789.538 176 1367
-13632128.07 4546781.089 177 1367
-13632145.88 4546745.883 178 1367
-13632232.71 4546661.39 179 1367
-13632256.09 4546621.96 180 1367
-13632259.43 4546620.552 181 1367
-13632281.69 4546607.878 182 1367
-13632429.75 4546544.509 183 1367
-13632673.54 4546481.14 184 1367
-13632666.86 4546445.935 185 1367
-13632663.52 4546427.629 186 1367
-13632656.84 4546289.628 187 1367
-13632654.61 4546253.015 188 1367
-13632647.93 4546158.669 189 1367
-13632634.57 4545899.573 190 1367
-13632630.12 4545815.087 191 1367
-13632621.21 4545632.035 192 1367
-13632611.2 4545371.544 193 1367
-13632605.63 4545291.286 194 1367
-13632600.06 4545203.989 195 1367
-13632596.72 4545153.3 196 1367
-13632587.82 4544854.806 197 1367
-13632554.42 4544584.479 198 1367
-13632506.56 4544530.978 199 1367
-13632395.24 4544408.489 200 1367
-13632365.18 4544373.291 201 1367
-13632315.09 4544297.264 202 1367
-13632287.26 4544233.909 203 1367
-13632204.88 4544090.306 204 1367
-13632163.69 4544039.623 205 1367
-13632152.56 4544026.952 206 1367
-13632194.86 4543988.94 207 1367
-13632317.31 4544032.583 208 1367
-13632276.12 4543898.837 209 1367
-13632391.9 4543793.25 210 1367
-13632380.76 4543651.06 211 1367
-13632365.18 4543572.223 212 1367
-13632445.33 4543590.525 213 1367
-13632651.27 4543393.434 214 1367
-13632869.46 4543365.279 215 1367
-13632860.55 4543261.105 216 1367
-13632942.93 4543252.658 217 1367
-13633035.32 4542973.926 218 1367
-13633104.34 4542764.179 219 1367
-13633075.4 4542762.771 220 1367
-13632966.31 4542724.763 221 1367
