x y k tid
-13633603.05 4521116.693 0 1315
-13633619.75 4521165.86 1 1315
-13633699.9 4521331.625 2 1315
-13633594.15 4521507.227 3 1315
-13633498.41 4521597.136 4 1315
-13633451.66 4521626.638 5 1315
-13633197.85 4522014.381 6 1315
-13633155.55 4522097.27 7 1315
-13633281.34 4522123.963 8 1315
-13633367.06 4522177.35 9 1315
-13633570.77 4522122.558 10 1315
-13633919.2 4521872.488 11 1315
-13633920.31 4521942.732 12 1315
-13634101.76 4522367.015 13 1315
-13634360.03 4522514.535 14 1315
-13634538.14 4522667.677 15 1315
-13634580.44 4522806.771 16 1315
-13634587.12 4522881.236 17 1315
-13634591.57 4522926.196 18 1315
-13634631.64 4522924.791 19 1315
-13634697.32 4522936.032 20 1315
-13634987.87 4522988.017 21 1315
-13635082.49 4523063.889 22 1315
-13635240.56 4523135.546 23 1315
-13635278.41 4523139.761 24 1315
-13635377.49 4523159.432 25 1315
-13635516.63 4523256.38 26 1315
-13635683.61 4523368.786 27 1315
-13635772.67 4523424.989 28 1315
-13636069.89 4523828.255 29 1315
-13636076.57 4523838.091 30 1315
-13636108.85 4523930.831 31 1315
-13636111.08 4524016.545 32 1315
-13636101.06 4524057.295 33 1315
-13636073.23 4524162.683 34 1315
-13636065.44 4524239.969 35 1315
-13636081.02 4524269.478 36 1315
-13636096.61 4524287.745 37 1315
-13636104.4 4524294.771 38 1315
-13636076.57 4524317.255 39 1315
-13635931.86 4524440.913 40 1315
-13635900.69 4524466.207 41 1315
-13635802.73 4524542.089 42 1315
-13635462.09 4524795.034 43 1315
-13635321.83 4524908.862 44 1315
-13635292.88 4524934.157 45 1315
-13635198.26 4525017.069 46 1315
-13635025.72 4525299.537 47 1315
-13634993.43 4525650.877 48 1315
-13634965.6 4525972.714 49 1315
-13634961.15 4526097.798 50 1315
-13634964.49 4526200.396 51 1315
-13634978.96 4526286.129 52 1315
-13635172.66 4526606.58 53 1315
-13635237.22 4526693.722 54 1315
-13635263.94 4526733.077 55 1315
-13635308.47 4526796.326 56 1315
-13635394.18 4526948.125 57 1315
-13635446.5 4527271.408 58 1315
-13635449.84 4527345.905 59 1315
-13635458.75 4527500.523 60 1315
-13635463.2 4527605.946 61 1315
-13635473.22 4527781.653 62 1315
-13635495.48 4528203.362 63 1315
-13635528.88 4528578.698 64 1315
-13635542.24 4528634.929 65 1315
-13635738.16 4529274.58 66 1315
-13635720.35 4529450.315 67 1315
-13635693.63 4529568.411 68 1315
-13635553.37 4530632.738 69 1315
-13635596.78 4530732.569 70 1315
-13635660.24 4531006.755 71 1315
-13634937.77 4531989.667 72 1315
-13634987.87 4532082.479 73 1315
-13635015.7 4532182.323 74 1315
-13635014.58 4532339.826 75 1315
-13634971.17 4532664.682 76 1315
-13634968.94 4532674.526 77 1315
-13634957.81 4532702.653 78 1315
-13634823.11 4532877.039 79 1315
-13634628.31 4532960.015 80 1315
-13634543.7 4532967.046 81 1315
-13634476.91 4532964.234 82 1315
-13634463.55 4532964.234 83 1315
-13633987.11 4533099.246 84 1315
-13633950.37 4533127.374 85 1315
-13633918.09 4533155.501 86 1315
-13633754.45 4533393.184 87 1315
-13633721.05 4533463.506 88 1315
-13633711.03 4533486.009 89 1315
-13633702.13 4533505.699 90 1315
-13633584.13 4533739.17 91 1315
-13633552.96 4533801.055 92 1315
-13633475.04 4533968.428 93 1315
-13633462.79 4533999.371 94 1315
-13633448.32 4534044.379 95 1315
-13633466.13 4534463.528 96 1315
-13633458.34 4534625.285 97 1315
-13633451.66 4534781.417 98 1315
-13633444.98 4534888.32 99 1315
-13633422.72 4535228.73 100 1315
-13633380.41 4535431.292 101 1315
-13633323.64 4535854.717 102 1315
-13633323.64 4535874.412 103 1315
-13633325.87 4535984.14 104 1315
-13633330.32 4536219.073 105 1315
-13633359.26 4536522.948 106 1315
-13633321.41 4536631.276 107 1315
-13633320.3 4536659.413 108 1315
-13633364.83 4536798.693 109 1315
-13633377.07 4537060.377 110 1315
-13633379.3 4537379.752 111 1315
-13633380.41 4537521.857 112 1315
-13633381.53 4537735.72 113 1315
-13633381.53 4537811.699 114 1315
-13633382.64 4537832.804 115 1315
-13633349.24 4537835.618 116 1315
-13633251.28 4537837.025 117 1315
-13633191.17 4537837.025 118 1315
-13633142.19 4537837.025 119 1315
-13633099.89 4537838.432 120 1315
-13633044.23 4537842.653 121 1315
-13632839.4 4537851.095 122 1315
-13632792.65 4537851.095 123 1315
-13632698.03 4537849.688 124 1315
-13632643.48 4537849.688 125 1315
-13632575.57 4537849.688 126 1315
-13632475.39 4537835.618 127 1315
-13632456.46 4537825.769 128 1315
-13632487.63 4537714.615 129 1315
-13632472.05 4537714.615 130 1315
-13632466.48 4537749.79 131 1315
-13632437.54 4537822.955 132 1315
-13632408.59 4537865.166 133 1315
-13632367.41 4537924.261 134 1315
-13632335.12 4537962.251 135 1315
-13632310.63 4538011.497 136 1315
-13632290.6 4538036.824 137 1315
-13632246.07 4538093.106 138 1315
-13632231.6 4538109.991 139 1315
-13632184.84 4538169.088 140 1315
-13632157.01 4538202.858 141 1315
-13632121.39 4538245.07 142 1315
-13632072.41 4538299.946 143 1315
-13632056.83 4538319.645 144 1315
-13631991.15 4538397.035 145 1315
-13631926.58 4538473.019 146 1315
-13631731.77 4538305.574 147 1315
-13631666.09 4538243.663 148 1315
-13631633.81 4538257.734 149 1315
-13631590.4 4538276.026 150 1315
-13631564.79 4538287.282 151 1315
-13631541.42 4538297.132 152 1315
-13631378.89 4538370.301 153 1315
-13631169.61 4538457.541 154 1315
-13631129.53 4538475.833 155 1315
-13631085.01 4538495.533 156 1315
-13631003.74 4538530.711 157 1315
-13630890.2 4538588.403 158 1315
-13630813.39 4538651.723 159 1315
-13630729.9 4538705.195 160 1315
-13630672.01 4538743.188 161 1315
-13630660.88 4538750.223 162 1315
-13630640.84 4538764.295 163 1315
-13630623.03 4538774.145 164 1315
-13630489.45 4538910.639 165 1315
-13630470.52 4538931.747 166 1315
-13630399.28 4539014.77 167 1315
-13630373.67 4539047.135 168 1315
-13630330.26 4539097.794 169 1315
-13630253.45 4539187.855 170 1315
-13630162.17 4539303.247 171 1315
-13630149.92 4539324.355 172 1315
-13630133.22 4539353.907 173 1315
-13630105.39 4539390.495 174 1315
-13630069.77 4539438.341 175 1315
-13630006.32 4539557.957 176 1315
-13629917.26 4539515.739 177 1315
-13629819.3 4539470.707 178 1315
-13629730.25 4539625.505 179 1315
-13629602.23 4539845.041 180 1315
-13629466.42 4540058.952 181 1315
-13629332.84 4540282.719 182 1315
-13629202.59 4540500.861 183 1315
-13629117.99 4540447.38 184 1315
-13629026.71 4540392.493 185 1315
-13628892.01 4540610.637 186 1315
-13628804.07 4540555.749 187 1315
-13628674.94 4540776.712 188 1315
-13628587 4540724.637 189 1315
-13628500.17 4540671.156 190 1315
-13628401.09 4540612.045 191 1315
-13628320.94 4540564.193 192 1315
-13628208.51 4540614.86 193 1315
-13628196.27 4540623.304 194 1315
-13628102.76 4540668.341 195 1315
-13627990.32 4540703.526 196 1315
-13627882.34 4540741.526 197 1315
-13627772.14 4540780.934 198 1315
-13627665.27 4540816.119 199 1315
-13627609.61 4540645.822 200 1315
-13627499.41 4540681.007 201 1315
-13627443.75 4540513.527 202 1315
-13627331.31 4540548.712 203 1315
-13627224.45 4540585.304 204 1315
