x y k tid
-13620863.65 4521425.747 0 1868
-13620811.33 4521400.461 1 1868
-13620351.58 4521269.814 2 1868
-13619768.27 4521245.933 3 1868
-13619354.16 4521231.885 4 1868
-13618330.02 4521198.17 5 1868
-13618224.27 4521195.36 6 1868
-13618212.02 4521195.36 7 1868
-13618135.21 4521191.146 8 1868
-13617653.2 4520960.764 9 1868
-13617596.42 4520893.336 10 1868
-13617528.52 4520814.671 11 1868
-13617428.33 4520699.484 12 1868
-13617207.92 4520445.233 13 1868
-13617132.22 4520318.813 14 1868
-13617144.47 4520255.603 15 1868
-13617203.47 4520199.417 16 1868
-13617344.84 4520365.167 17 1868
-13617452.82 4520271.054 18 1868
-13617780.1 4520650.319 19 1868
-13617804.59 4520679.818 20 1868
-13617791.23 4520688.246 21 1868
-13617774.53 4520699.484 22 1868
-13617706.63 4520745.84 23 1868
-13617587.52 4520846.98 24 1868
-13617568.59 4520862.432 25 1868
-13617550.78 4520877.884 26 1868
-13617541.88 4520889.122 27 1868
-13617528.52 4520907.384 28 1868
-13617495.12 4520966.383 29 1868
-13617450.59 4521015.55 30 1868
-13617588.63 4521122.312 31 1868
-13617675.46 4521146.193 32 1868
-13617783.44 4521185.527 33 1868
-13617804.59 4521191.146 34 1868
-13617900.33 4521212.218 35 1868
-13618207.57 4521264.195 36 1868
-13618227.6 4521285.267 37 1868
-13618227.6 4521377.984 38 1868
-13618228.72 4521431.367 39 1868
-13618655.07 4521806.459 40 1868
-13618889.96 4521732.001 41 1868
-13619013.52 4521618.209 42 1868
-13619020.2 4521613.994 43 1868
-13619196.08 4521588.707 44 1868
-13619251.74 4521592.922 45 1868
-13619491.08 4521612.589 46 1868
-13619504.44 4521613.994 47 1868
-13619610.19 4521621.018 48 1868
-13619779.4 4521639.281 49 1868
-13619898.51 4521724.977 50 1868
-13619909.64 4521739.026 51 1868
-13619975.32 4521821.912 52 1868
-13620066.6 4521909.015 53 1868
-13620087.75 4521921.659 54 1868
-13620161.22 4521939.922 55 1868
-13620322.64 4521941.327 56 1868
-13620834.71 4521934.302 57 1868
-13620902.61 4521932.898 58 1868
-13620993.89 4521925.873 59 1868
-13621035.08 4521907.61 60 1868
-13621061.8 4521887.941 61 1868
-13621090.74 4521850.01 62 1868
-13621108.55 4521826.127 63 1868
-13621145.29 4521848.605 64 1868
-13621268.85 4521924.468 65 1868
-13621314.49 4521952.566 66 1868
-13621350.12 4521975.044 67 1868
-13621361.25 4521980.664 68 1868
-13621527.11 4522230.737 69 1868
-13621650.68 4522534.204 70 1868
-13621657.36 4522551.064 71 1868
-13621669.6 4522584.783 72 1868
-13621701.89 4522666.272 73 1868
-13621747.53 4522774.456 74 1868
-13621779.81 4522834.871 75 1868
-13621874.43 4522973.967 76 1868
-13621918.96 4523023.143 77 1868
-13621974.62 4523082.154 78 1868
-13622061.45 4523169.267 79 1868
-13622093.73 4523200.178 80 1868
-13622189.47 4523295.722 81 1868
-13622418.78 4523447.47 82 1868
-13622535.67 4523512.104 83 1868
-13622576.86 4523534.586 84 1868
-13622658.12 4523579.549 85 1868
-13622813.97 4523665.261 86 1868
-13622930.85 4523734.112 87 1868
-13622959.8 4523750.973 88 1868
-13623000.98 4523772.05 89 1868
-13623087.81 4523732.707 90 1868
-13623543.11 4523691.958 91 1868
-13623727.9 4523852.143 92 1868
-13624050.73 4524143.011 93 1868
-13624093.03 4524178.14 94 1868
-13624146.46 4524220.296 95 1868
-13624217.71 4524276.504 96 1868
-13624419.19 4524425.456 97 1868
-13624507.14 4524501.338 98 1868
-13624610.66 4524589.867 99 1868
-13624654.08 4524695.261 100 1868
-13624720.87 4524984.747 101 1868
-13624716.42 4525063.444 102 1868
-13624759.83 4525203.975 103 1868
-13624779.87 4525244.729 104 1868
-13624789.89 4525253.161 105 1868
-13624801.02 4525262.999 106 1868
-13625050.38 4525286.889 107 1868
-13625097.13 4525286.889 108 1868
-13625221.81 4525333.265 109 1868
-13625276.35 4525480.827 110 1868
-13625344.26 4525705.687 111 1868
-13625372.09 4525806.875 112 1868
-13625396.58 4525886.984 113 1868
-13625428.86 4525999.417 114 1868
-13625460.03 4526118.88 115 1868
-13625501.22 4526277.696 116 1868
-13625620.33 4526733.077 117 1868
-13625638.14 4526851.142 118 1868
-13625658.18 4527261.569 119 1868
-13625632.58 4527309.359 120 1868
-13625594.73 4527381.045 121 1868
-13625545.75 4527471.005 122 1868
-13625483.41 4527548.315 123 1868
-13625465.6 4527556.749 124 1868
-13625273.02 4527618.597 125 1868
-13625249.64 4527732.455 126 1868
-13625276.35 4527753.54 127 1868
-13625310.86 4527828.04 128 1868
-13625374.32 4527974.232 129 1868
-13625453.35 4528147.134 130 1868
-13625467.82 4528179.465 131 1868
-13625495.65 4528238.506 132 1868
-13625526.82 4528307.387 133 1868
-13625551.31 4528360.805 134 1868
-13625581.37 4528424.064 135 1868
-13625604.75 4528488.729 136 1868
-13625639.26 4528567.452 137 1868
-13625653.73 4528601.19 138 1868
-13625686.01 4528668.668 139 1868
-13625762.82 4528833.146 140 1868
-13625799.56 4528910.466 141 1868
-13625855.22 4529049.643 142 1868
-13625907.54 4529136.806 143 1868
-13625995.48 4529318.162 144 1868
-13626014.4 4529358.933 145 1868
-13626044.46 4529423.603 146 1868
-13626076.74 4529491.086 147 1868
-13626119.04 4529645.736 148 1868
-13626120.16 4529711.815 149 1868
-13626120.16 4529782.111 150 1868
-13626121.27 4529890.369 151 1868
-13626122.38 4529935.36 152 1868
-13626122.38 4529963.479 153 1868
-13626114.59 4530049.243 154 1868
-13626189.17 4530094.234 155 1868
-13626214.78 4530104.076 156 1868
-13626287.14 4530097.046 157 1868
-13626312.74 4530090.016 158 1868
-13626324.98 4530085.798 159 1868
-13626353.93 4530075.956 160 1868
-13626409.59 4530056.273 161 1868
-13626419.61 4530092.828 162 1868
-13626453 4530139.226 163 1868
-13626498.64 4530265.765 164 1868
-13626500.87 4530286.855 165 1868
-13626504.21 4530314.975 166 1868
-13626500.87 4530376.84 167 1868
-13626491.96 4530442.923 168 1868
-13626448.55 4530554 169 1868
-13626418.49 4530620.084 170 1868
-13626388.44 4530693.199 171 1868
-13626367.29 4530745.223 172 1868
-13626361.72 4530757.878 173 1868
-13626352.81 4530783.187 174 1868
-13626317.19 4530888.643 175 1868
-13626284.91 4530968.79 176 1868
-13626267.1 4531013.786 177 1868
-13626213.67 4531143.148 178 1868
-13626160.23 4531275.324 179 1868
-13626043.35 4531518.589 180 1868
-13626053.36 4531524.214 181 1868
-13626132.4 4531576.242 182 1868
-13626193.63 4531615.615 183 1868
-13626380.64 4531739.36 184 1868
-13626370.63 4531757.641 185 1868
-13626336.12 4531795.609 186 1868
-13626372.85 4531853.263 187 1868
-13626456.34 4531989.667 188 1868
-13626500.87 4532081.073 189 1868
-13626512 4532097.948 190 1868
-13626548.74 4532131.698 191 1868
-13626567.66 4532142.948 192 1868
-13626642.25 4532173.886 193 1868
-13626657.83 4532180.917 194 1868
-13626730.19 4532231.542 195 1868
-13626744.66 4532244.199 196 1868
-13626817.02 4532321.544 197 1868
-13626890.49 4532400.296 198 1868
-13626962.85 4532480.455 199 1868
-13627020.73 4532540.926 200 1868
-13627037.43 4532559.208 201 1868
-13627088.64 4532614.054 202 1868
-13627110.9 4532636.555 203 1868
-13627114.24 4532677.339 204 1868
-13627162.11 4532695.621 205 1868
-13627199.96 4532708.278 206 1868
-13627255.62 4532727.967 207 1868
-13627529.46 4532829.223 208 1868
-13627830.02 4532826.411 209 1868
-13627882.34 4532805.315 210 1868
-13628110.55 4532718.122 211 1868
-13628155.08 4532698.434 212 1868
-13628196.27 4532678.745 213 1868
-13628237.45 4532653.431 214 1868
-13628313.15 4532570.459 215 1868
-13628418.9 4532493.112 216 1868
-13628494.6 4532495.924 217 1868
-13628568.07 4532517.019 218 1868
-13628669.37 4532547.958 219 1868
-13628703.88 4532557.802 220 1868
-13628838.58 4532623.899 221 1868
-13629199.25 4532919.23 222 1868
-13629382.93 4533044.397 223 1868
-13629477.55 4533111.903 224 1868
-13629563.27 4533168.159 225 1868
-13629583.31 4533182.223 226 1868
-13630536.2 4533836.217 227 1868
-13630576.28 4533861.534 228 1868
-13630602.99 4533879.818 229 1868
-13630654.2 4533916.387 230 1868
-13630771.09 4533996.558 231 1868
-13630823.41 4534033.127 232 1868
-13630834.54 4534040.16 233 1868
-13630918.03 4534095.014 234 1868
-13631080.55 4534208.942 235 1868
-13631234.17 4534313.026 236 1868
-13631254.21 4534325.685 237 1868
-13631284.27 4534346.784 238 1868
-13631339.93 4534384.761 239 1868
-13631392.25 4534419.925 240 1868
-13631435.66 4534448.056 241 1868
-13631475.74 4534476.187 242 1868
-13631506.91 4534498.692 243 1868
-13631549.21 4534528.23 244 1868
-13631582.6 4534552.142 245 1868
-13631664.98 4534608.406 246 1868
-13631786.32 4534698.428 247 1868
-13632040.13 4535014.918 248 1868
-13631995.6 4535075.403 249 1868
-13631936.6 4535159.803 250 1868
-13631880.94 4535242.796 251 1868
-13631824.17 4535325.79 252 1868
-13631767.39 4535410.192 253 1868
-13631709.51 4535491.78 254 1868
-13631698.38 4535501.627 255 1868
-13631650.51 4535573.37 256 1868
-13631636.04 4535593.064 257 1868
-13631595.96 4535656.366 258 1868
-13631539.19 4535739.364 259 1868
-13631703.94 4535849.09 260 1868
-13631868.7 4535970.072 261 1868
-13631782.98 4536072.767 262 1868
-13631690.58 4536302.075 263 1868
-13631652.74 4536317.55 264 1868
-13631314.32 4536570.781 265 1868
-13631240.85 4536683.33 266 1868
-13631080.55 4537077.26 267 1868
-13630585.18 4537236.243 268 1868
-13629991.85 4536954.859 269 1868
-13629404.08 4536567.967 270 1868
-13629377.36 4536556.712 271 1868
-13629109.09 4536621.428 272 1868
-13628952.12 4536911.245 273 1868
-13628673.83 4536832.459 274 1868
-13628366.58 4536580.629 275 1868
-13628257.49 4536570.781 276 1868
-13627974.74 4536880.293 277 1868
-13627912.4 4536970.335 278 1868
-13627848.95 4537002.693 279 1868
-13627927.99 4537091.329 280 1868
-13628155.08 4537461.356 281 1868
-13628158.42 4537500.752 282 1868
-13628160.64 4537631.602 283 1868
-13628251.92 4537910.191 284 1868
-13628253.04 4537987.578 285 1868
-13628230.77 4538088.885 286 1868
-13628188.47 4538208.486 287 1868
-13628158.42 4538297.132 288 1868
-13628108.32 4538436.434 289 1868
-13628056 4538412.514 290 1868
-13627986.98 4538388.593 291 1868
-13627912.4 4538361.858 292 1868
-13627861.19 4538344.973 293 1868
-13627833.36 4538335.123 294 1868
-13627766.57 4538526.489 295 1868
-13627743.19 4538560.26 296 1868
-13627663.04 4538533.525 297 1868
-13627600.71 4538640.466 298 1868
-13627595.14 4538716.452 299 1868
-13627595.14 4538812.138 300 1868
-13627538.37 4538867.017 301 1868
-13627290.12 4538810.731 302 1868
-13627267.86 4538874.053 303 1868
-13627209.97 4539034.471 304 1868
-13627159.88 4539185.041 305 1868
-13627054.13 4539148.453 306 1868
-13627021.84 4539238.515 307 1868
-13626770.26 4539155.489 308 1868
-13626529.81 4539072.465 309 1868
-13626496.42 4539169.561 310 1868
-13626464.13 4539265.252 311 1868
-13626429.62 4539360.943 312 1868
-13626195.85 4539277.917 313 1868
-13626162.46 4539373.608 314 1868
-13626127.95 4539467.893 315 1868
-13626096.78 4539563.586 316 1868
-13626066.72 4539659.28 317 1868
-13626099.01 4539670.538 318 1868
-13626038.89 4539846.448 319 1868
-13626013.29 4539863.336 320 1868
-13626058.93 4540004.066 321 1868
-13625949.84 4540040.657 322 1868
-13625839.63 4540078.654 323 1868
-13625730.54 4540113.838 324 1868
-13625649.28 4540139.17 325 1868
-13625621.45 4540147.614 326 1868
-13625630.35 4540177.168 327 1868
-13625688.24 4540346.05 328 1868
-13625709.39 4540415.011 329 1868
-13625733.88 4540498.046 330 1868
-13625739.44 4540514.935 331 1868
-13625796.22 4540683.822 332 1868
-13625852.99 4540852.713 333 1868
-13625907.54 4541021.606 334 1868
-13625964.31 4541189.094 335 1868
-13626019.97 4541357.992 336 1868
-13626032.21 4541397.402 337 1868
-13626052.25 4541457.925 338 1868
-13626075.63 4541526.894 339 1868
-13626092.33 4541577.565 340 1868
-13626107.91 4541626.828 341 1868
-13626131.29 4541698.613 342 1868
-13626080.08 4541729.579 343 1868
-13626055.59 4541746.469 344 1868
-13626043.35 4541754.915 345 1868
-13626023.31 4541770.398 346 1868
-13625991.03 4541798.549 347 1868
-13625894.18 4541871.742 348 1868
-13625904.2 4541974.495 349 1868
-13625804.01 4541982.941 350 1868
-13625792.88 4541984.348 351 1868
-13625747.24 4541991.386 352 1868
-13625708.27 4542023.761 353 1868
-13625680.44 4542044.874 354 1868
-13625612.54 4542098.363 355 1868
-13625547.97 4542137.776 356 1868
-13625532.39 4542146.222 357 1868
-13625493.43 4542170.151 358 1868
-13625347.6 4542260.238 359 1868
-13625247.41 4542322.174 360 1868
-13625143.88 4542365.81 361 1868
-13625117.17 4542368.626 362 1868
-13625089.34 4542408.039 363 1868
-13625057.06 4542451.676 364 1868
-13624994.72 4542537.543 365 1868
-13624917.91 4542644.526 366 1868
-13624902.32 4542665.641 367 1868
-13624894.53 4542676.902 368 1868
-13624878.94 4542698.017 369 1868
-13624740.91 4542886.648 370 1868
-13624850 4542965.48 371 1868
-13624862.25 4542973.926 372 1868
-13624882.28 4542989.411 373 1868
-13624943.51 4543033.051 374 1868
-13624954.64 4543062.613 375 1868
-13624909 4543134.407 376 1868
-13625098.24 4543275.182 377 1868
-13625037.02 4543365.279 378 1868
-13624971.34 4543452.561 379 1868
-13624844.44 4543629.943 380 1868
-13625054.83 4543779.172 381 1868
-13625131.64 4543935.441 382 1868
-13625175.05 4544045.254 383 1868
-13625207.34 4544125.503 384 1868
-13625090.45 4544133.95 385 1868
-13625107.15 4544333.87 386 1868
-13625117.17 4544495.78 387 1868
-13624905.66 4544511.267 388 1868
-13624796.57 4544519.714 389 1868
-13624711.97 4544525.346 390 1868
-13624688.59 4544526.754 391 1868
-13624694.15 4544604.19 392 1868
-13624698.61 4544670.363 393 1868
-13624703.06 4544746.393 394 1868
-13624716.42 4544891.413 395 1868
-13624740.91 4545250.454 396 1868
-13624767.62 4545606.69 397 1868
-13624782.1 4545786.925 398 1868
-13624796.57 4545965.755 399 1868
-13624799.91 4546031.937 400 1868
-13624807.7 4546123.465 401 1868
-13624809.93 4546145.996 402 1868
-13624770.96 4546148.812 403 1868
-13624750.93 4546150.22 404 1868
-13624728.66 4546151.628 405 1868
-13624697.49 4546153.036 406 1868
-13624674.12 4546154.445 407 1868
-13624586.17 4546161.485 408 1868
-13624482.65 4546169.934 409 1868
-13624378.01 4546178.383 410 1868
-13624341.27 4546181.199 411 1868
-13624276.71 4546185.424 412 1868
-13624265.57 4546186.832 413 1868
-13624254.44 4546186.832 414 1868
-13624160.93 4546193.873 415 1868
-13624089.69 4546267.097 416 1868
-13624025.12 4546365.669 417 1868
-13623941.63 4546565.632 418 1868
-13623909.35 4546747.291 419 1868
-13623970.58 4546803.621 420 1868
-13623980.6 4546848.684 421 1868
-13623987.28 4546935.995 422 1868
-13623991.73 4546981.06 423 1868
-13623995.07 4547021.899 424 1868
-13624001.75 4547106.395 425 1868
-13624003.97 4547116.253 426 1868
-13624012.88 4547158.502 427 1868
-13624047.39 4547292.289 428 1868
-13624095.26 4547459.879 429 1868
-13624100.82 4547516.212 430 1868
-13624116.41 4547647.187 431 1868
-13624123.09 4547707.747 432 1868
-13624129.76 4547759.856 433 1868
-13624137.56 4547824.641 434 1868
-13624138.67 4547830.274 435 1868
-13624143.12 4547868.3 436 1868
-13624188.76 4547885.201 437 1868
-13624394.7 4547871.117 438 1868
-13624394.7 4547885.201 439 1868
-13624401.38 4547913.369 440 1868
-13624433.67 4547961.254 441 1868
-13624447.02 4547978.155 442 1868
-13624455.93 4547988.013 443 1868
-13624470.4 4548004.914 444 1868
-13624487.1 4548020.406 445 1868
-13624516.04 4548045.758 446 1868
-13624538.31 4548066.884 447 1868
-13624556.12 4548085.193 448 1868
-13624582.83 4548111.953 449 1868
-13624464.84 4548234.485 450 1868
-13624400.27 4548295.048 451 1868
-13624353.52 4548340.118 452 1868
-13624332.37 4548359.836 453 1868
-13624313.44 4548378.146 454 1868
-13624257.78 4548438.709 455 1868
-13624245.54 4548452.794 456 1868
-13624193.22 4548568.288 457 1868
-13624185.42 4548647.163 458 1868
-13624182.08 4548717.587 459 1868
-13624182.08 4548751.391 460 1868
-13624180.97 4548768.293 461 1868
-13624176.52 4548838.719 462 1868
-13624172.07 4548865.48 463 1868
-13624159.82 4549065.491 464 1868
-13624157.59 4549103.522 465 1868
-13624147.58 4549252.829 466 1868
-13624137.56 4549389.461 467 1868
-13624136.44 4549472.567 468 1868
-13624138.67 4549507.782 469 1868
-13624153.14 4549610.611 470 1868
-13624060.75 4549716.257 471 1868
-13623379.47 4550531.885 472 1868
-13623210.27 4550736.154 473 1868
-13621903.37 4552297.185 474 1868
-13621877.77 4552325.365 475 1868
-13621853.28 4552353.544 476 1868
-13621758.66 4552464.855 477 1868
-13621744.19 4552481.763 478 1868
-13621699.66 4552531.078 479 1868
-13621635.09 4552612.801 480 1868
-13621619.51 4552632.527 481 1868
-13621578.32 4552681.843 482 1868
-13621548.27 4552707.206 483 1868
-13621531.57 4552718.478 484 1868
-13621467 4552762.158 485 1868
-13621434.72 4552781.885 486 1868
-13621399.1 4552804.43 487 1868
-13621350.12 4552845.292 488 1868
-13621287.78 4552918.563 489 1868
-13621263.29 4552949.562 490 1868
-13621231 4552991.835 491 1868
-13621186.48 4553049.607 492 1868
-13621164.21 4553077.788 493 1868
-13621138.61 4553104.561 494 1868
-13621107.44 4553132.743 495 1868
-13620997.23 4553186.288 496 1868
-13620924.88 4553214.47 497 1868
-13620665.5 4553320.154 498 1868
-13620462.9 4553403.292 499 1868
-13619813.91 4553668.211 500 1868
-13619181.61 4553921.864 501 1868
-13617734.46 4554207.935 502 1868
-13617528.52 4554224.846 503 1868
-13617132.22 4554268.532 504 1868
-13616787.13 4554364.361 505 1868
-13616556.7 4554423.55 506 1868
-13616433.13 4554450.326 507 1868
-13616292.87 4554485.558 508 1868
-13616135.91 4554522.199 509 1868
-13615939.99 4554563.069 510 1868
-13615864.29 4554581.389 511 1868
-13615813.09 4554592.664 512 1868
-13615644.99 4554627.896 513 1868
-13615368.92 4554675.812 514 1868
-13615056.11 4554729.366 515 1868
-13614930.32 4554756.143 516 1868
-13614787.83 4554791.375 517 1868
-13614689.87 4554816.743 518 1868
-13614512.87 4554871.707 519 1868
-13614441.63 4554891.437 520 1868
-13614232.35 4554949.22 521 1868
-13614173.35 4554966.132 522 1868
-13613942.92 4555032.371 523 1868
-13613927.33 4555038.009 524 1868
-13613748.11 4555156.395 525 1868
-13613675.75 4555302.97 526 1868
-13613667.96 4555639.818 527 1868
-13613838.28 4556172.597 528 1868
-13613877.24 4556265.624 529 1868
-13613952.94 4556474.235 530 1868
-13613988.56 4556649.02 531 1868
-13614001.92 4556742.052 532 1868
-13614034.2 4556974.635 533 1868
-13614075.39 4557228.368 534 1868
-13614085.41 4557287.574 535 1868
-13614093.2 4557334.092 536 1868
-13614114.35 4557453.914 537 1868
-13614121.03 4557491.975 538 1868
-13614185.59 4557835.944 539 1868
-13614193.39 4557876.826 540 1868
-13614208.97 4557969.869 541 1868
-13614234.57 4558099.566 542 1868
-13614242.37 4558137.63 543 1868
-13614298.03 4558457.653 544 1868
-13614339.21 4558647.979 545 1868
-13614380.4 4558838.309 546 1868
-13614680.97 4560227.118 547 1868
-13614693.21 4560276.47 548 1868
-13614701 4560310.312 549 1868
-13614772.25 4560599.379 550 1868
-13614777.81 4560621.941 551 1868
-13614677.63 4560648.733 552 1868
-13614607.49 4560667.064 553 1868
-13614503.97 4560692.446 554 1868
-13614475.02 4560699.497 555 1868
-13614465.01 4560702.317 556 1868
-13614354.8 4560730.52 557 1868
-13614147.75 4560784.104 558 1868
-13614118.8 4560791.155 559 1868
-13614145.52 4560901.146 560 1868
-13614158.88 4560970.243 561 1868
-13614161.1 4560981.524 562 1868
-13614211.2 4561157.795 563 1868
-13614093.2 4561187.409 564 1868
-13613967.41 4561219.843 565 1868
-13613844.96 4561252.278 566 1868
-13613907.3 4561496.244 567 1868
-13613969.63 4561747.267 568 1868
-13614011.94 4561913.679 569 1868
-13614054.24 4562077.273 570 1868
-13613930.67 4562108.3 571 1868
-13613808.22 4562140.737 572 1868
-13613794.86 4562143.557 573 1868
-13613837.16 4562309.976 574 1868
-13613901.73 4562558.198 575 1868
-13613964.07 4562810.657 576 1868
-13613867.22 4562834.634 577 1868
-13613772.6 4562860.021 578 1868
-13613830.48 4563080.047 579 1868
-13613735.86 4563102.615 580 1868
-13613643.47 4563126.592 581 1868
-13613549.96 4563149.159 582 1868
-13613454.23 4563173.137 583 1868
-13613443.09 4563175.958 584 1868
-13613386.32 4563194.294 585 1868
-13613275 4563226.734 586 1868
-13613376.3 4563625.902 587 1868
-13613258.3 4563656.934 588 1868
-13613237.15 4563662.576 589 1868
-13613155.89 4563682.323 590 1868
-13613057.93 4563709.123 591 1868
-13612929.91 4563769.776 592 1868
-13612828.61 4563816.323 593 1868
