x y k tid
-13632262.77 4542106.809 0 1604
-13632312.86 4542265.869 1 1604
-13632190.41 4542660.01 2 1604
-13632140.31 4542776.848 3 1604
-13632125.84 4542778.255 4 1604
-13632098.01 4542779.663 5 1604
-13632054.6 4542797.963 6 1604
-13632054.6 4542831.748 7 1604
-13632057.94 4542845.825 8 1604
-13632072.41 4542843.009 9 1604
-13632119.16 4542835.971 10 1604
-13632167.03 4542909.172 11 1604
-13632322.88 4543121.738 12 1604
-13632381.88 4543203.387 13 1604
-13632295.05 4543308.968 14 1604
-13632325.11 4543411.736 15 1604
-13632291.71 4543448.338 16 1604
-13632312.86 4543518.727 17 1604
-13632339.58 4543544.067 18 1604
-13632224.92 4543656.691 19 1604
-13632132.52 4543748.199 20 1604
-13632105.81 4543774.948 21 1604
-13632094.67 4543784.803 22 1604
-13632070.18 4543808.736 23 1604
-13632065.73 4543814.367 24 1604
-13632044.58 4543850.971 25 1604
-13632054.6 4543903.061 26 1604
-13632063.5 4543918.547 27 1604
-13632077.98 4543938.257 28 1604
-13632125.84 4543995.979 29 1604
-13632143.65 4544017.097 30 1604
-13632152.56 4544026.952 31 1604
-13632163.69 4544039.623 32 1604
-13632204.88 4544090.306 33 1604
-13632287.26 4544233.909 34 1604
-13632315.09 4544297.264 35 1604
-13632365.18 4544373.291 36 1604
-13632395.24 4544408.489 37 1604
-13632506.56 4544530.978 38 1604
-13632554.42 4544584.479 39 1604
-13632587.82 4544854.806 40 1604
-13632596.72 4545153.3 41 1604
-13632600.06 4545203.989 42 1604
-13632605.63 4545291.286 43 1604
-13632611.2 4545371.544 44 1604
-13632621.21 4545632.035 45 1604
-13632630.12 4545815.087 46 1604
-13632634.57 4545899.573 47 1604
-13632647.93 4546158.669 48 1604
-13632654.61 4546253.015 49 1604
-13632656.84 4546289.628 50 1604
-13632663.52 4546427.629 51 1604
-13632780.4 4546419.18 52 1604
-13632901.74 4546412.139 53 1604
-13632901.74 4546458.609 54 1604
-13632901.74 4546475.507 55 1604
-13632906.19 4546554.366 56 1604
-13632949.61 4546696.595 57 1604
-13632964.08 4546707.861 58 1604
-13633036.44 4546758.557 59 1604
-13633116.59 4546814.886 60 1604
-13633084.3 4546881.074 61 1604
-13633077.62 4546902.197 62 1604
-13633062.04 4546916.28 63 1604
-13633048.68 4546927.546 64 1604
-13633018.63 4546954.303 65 1604
-13632955.17 4547005 66 1604
-13632940.7 4547019.083 67 1604
-13632919.55 4547037.39 68 1604
-13632868.34 4547096.538 69 1604
-13632862.78 4547147.236 70 1604
-13632871.68 4547181.034 71 1604
-13632882.82 4547221.875 72 1604
-13632911.76 4547313.414 73 1604
-13632909.53 4547327.497 74 1604
-13632910.65 4547350.03 75 1604
-13632886.16 4547350.03 76 1604
-13632870.57 4547350.03 77 1604
-13632831.61 4547351.438 78 1604
-13632832.72 4547378.196 79 1604
-13632839.4 4547461.287 80 1604
-13632854.99 4547727.464 81 1604
-13632869.46 4547988.013 82 1604
-13632883.93 4548251.386 83 1604
-13632899.51 4548516.175 84 1604
-13632900.63 4548531.668 85 1604
-13633020.85 4548526.034 86 1604
-13633139.96 4548518.992 87 1604
-13633145.53 4548628.853 88 1604
-13633147.76 4548664.065 89 1604
-13633154.44 4548778.153 90 1604
-13633273.55 4548769.702 91 1604
-13633286.91 4548768.293 92 1604
-13633392.66 4548764.068 93 1604
-13633460.56 4548761.251 94 1604
-13633511.77 4548758.434 95 1604
-13633534.03 4548758.434 96 1604
-13633573 4548757.025 97 1604
-13633587.47 4549021.826 98 1604
-13633595.26 4549159.864 99 1604
-13633591.92 4549283.817 100 1604
-13633662.05 4549279.592 101 1604
-13633782.28 4549272.549 102 1604
-13633909.18 4549264.097 103 1604
-13634029.41 4549258.463 104 1604
-13634148.52 4549251.42 105 1604
-13634267.63 4549242.969 106 1604
-13634387.86 4549235.926 107 1604
-13634506.97 4549228.883 108 1604
-13634626.08 4549223.249 109 1604
-13634745.19 4549217.615 110 1604
-13634863.19 4549211.98 111 1604
-13634882.11 4549210.572 112 1604
-13634983.41 4549203.529 113 1604
-13634988.98 4549299.312 114 1604
-13634999 4549465.524 115 1604
-13634798.62 4549495.105 116 1604
-13634702.89 4549571.17 117 1604
-13634686.19 4549592.299 118 1604
-13634680.63 4549600.75 119 1604
-13634667.27 4549621.88 120 1604
-13634650.57 4549652.869 121 1604
-13634646.12 4549666.955 122 1604
-13634600.48 4549834.583 123 1604
-13634582.66 4549899.381 124 1604
-13634555.95 4550007.848 125 1604
-13634528.12 4550119.133 126 1604
-13634523.67 4550136.037 127 1604
-13634508.08 4550131.811 128 1604
-13634453.53 4550113.498 129 1604
-13634422.36 4550088.142 130 1604
-13634409.01 4550076.872 131 1604
-13634342.21 4550048.699 132 1604
-13634291.01 4550033.204 133 1604
-13634285.44 4550110.681 134 1604
