file-000066.dat
file-000186.dat
file-000197.dat
file-000246.dat
file-000278.dat
file-000280.dat
file-000313.dat
file-000446.dat
file-000458.dat
file-000467.dat
file-000500.dat
file-000501.dat
file-000531.dat
file-000576.dat
file-000638.dat
file-000743.dat
file-000922.dat
file-000966.dat
file-000983.dat
file-000988.dat
file-001078.dat
file-001197.dat
file-001243.dat
file-001311.dat
file-001549.dat
file-001621.dat
file-001654.dat
file-001684.dat
file-001688.dat
file-001794.dat
file-001898.dat
